# bin_17_16
-1.911501727766349964e-08
-2.159709884266162154e-08
-2.399369071365241615e-08
-2.610702152049742178e-08
-2.767471838595774310e-08
-2.838051868102292985e-08
-2.798654337255332450e-08
-2.611993815813119297e-08
-2.303967959806353076e-08
-1.922874222848086433e-08
-1.572442426894257777e-08
-1.328876982841943619e-08
-1.149337120829153930e-08
-8.969701979933760911e-09
-6.186632219188170341e-09
-4.948460477783906789e-09
-3.494829971302852155e-09
-2.550871873710216644e-09
-1.722710186752141249e-09
-1.225600529676096824e-09
-8.508023180759263968e-10
-5.896340567916824401e-10
-4.116302587605177504e-10
-2.900147290586861880e-10
-2.078668710929736131e-10
-1.519241223498058844e-10
-1.132079505017388293e-10
-8.587526724174426402e-11
-6.596369018674814181e-11
-5.096048592616761022e-11
-3.929804781015274385e-11
