# bin_2_1
-5.672467380167184977e-08
-5.597584037578812553e-08
-5.240904595849613775e-08
-4.640307417941881578e-08
-3.893156158809587839e-08
-3.186849368652144076e-08
-2.675178869851808351e-08
-2.301887056856513921e-08
-1.828870436902424095e-08
-1.293424263727725805e-08
-1.008715803960098099e-08
-7.519995257135870238e-09
-5.462586215272403031e-09
-3.994780191478279237e-09
-2.967225388854327801e-09
-2.209542372896546016e-09
-1.674239931092775795e-09
-1.293618270705522271e-09
-1.017135888375272477e-09
-8.104152659482060073e-10
-6.500407528569444124e-10
-5.208741470291859594e-10
-4.139096109212171313e-10
-3.240001298300086745e-10
-2.483900490134798682e-10
-1.856667242556784377e-10
-1.349871671898883732e-10
-9.541368490448348797e-11
-6.568278262523412367e-11
-4.416255686617595651e-11
-2.910148453660233728e-11
