# bin_3_4
-3.806442785551448970e-08
-3.959134037683716567e-08
-3.975962193689820135e-08
-3.807554169731660370e-08
-3.443836385234186552e-08
-2.946101500891214621e-08
-2.418336107438750362e-08
-1.998604084604206489e-08
-1.720297627469552198e-08
-1.434369390114585290e-08
-1.038238261805942019e-08
-7.630824680453079582e-09
-6.067558707508971979e-09
-4.179609860927898538e-09
-3.160682400633833170e-09
-2.286882985189252955e-09
-1.666133004744717754e-09
-1.235978389406670346e-09
-9.316078164476909121e-10
-7.152756505073251664e-10
-5.582754900420766399e-10
-4.413882562716465673e-10
-3.510121098030700109e-10
-2.787518892029720716e-10
-2.195118790319944984e-10
-1.702849430061845670e-10
-1.294105910660495261e-10
-9.593463540066901364e-11
-6.918654096619676902e-11
-4.852650441391399639e-11
-3.315281039488275397e-11
