# bin_13_8
-3.291871799172085801e-14
-3.653340869491967108e-14
-3.971361921222668175e-14
-4.206133765795182212e-14
-4.309942341170052725e-14
-4.246400291242516986e-14
-3.959886387978433726e-14
-3.490420100984742885e-14
-2.911700462148270467e-14
-2.380709999593068612e-14
-2.011682653488460047e-14
-1.738501015108918304e-14
-1.356219271510640146e-14
-9.378757008395136563e-15
-7.508490828928338481e-15
-5.329010468715153947e-15
-3.914339491238506605e-15
-2.685388121933440868e-15
-1.937485026698754335e-15
-1.375035432097646415e-15
-9.802204427385591306e-16
-7.078374162736773170e-16
-5.185945236595845947e-16
-3.872898846583098777e-16
-2.944652763578383635e-16
-2.270327755831949143e-16
-1.765853486221519264e-16
-1.375785161864400767e-16
-1.066072257129234436e-16
-8.162994264994980442e-17
-6.144581995319921784e-17
