# bin_20_2
-9.799346312648257231e-84
-1.099419200930340008e-83
-1.211147791542183363e-83
-1.304185808433424462e-83
-1.364633344656819974e-83
-1.378832521971692941e-83
-1.330547668031828851e-83
-1.211700698469262962e-83
-1.043408189712104603e-83
-8.581679263208866038e-84
-7.068690801364645388e-84
-6.083913305823600374e-84
-5.136591831343874478e-84
-3.740040503872447084e-84
-2.680748158341279043e-84
-2.165170807359505274e-84
-1.434890376562980955e-84
-1.086029176732607727e-84
-7.533443024978792637e-85
-5.222009330519110357e-85
-3.667320738909487558e-85
-2.580389068831253860e-85
-1.836579564210978940e-85
-1.326300113003256090e-85
-9.772120771598625224e-86
-7.336066133027063917e-86
-5.597505870591005360e-86
-4.320445027961537361e-86
-3.349857333638010640e-86
-2.590083093813742959e-86
-1.983392818010529704e-86
