# bin_11_10
-2.140909742006839555e-08
-2.374370895202009062e-08
-2.578891039138736046e-08
-2.728493860347005518e-08
-2.792362517021161024e-08
-2.746506861365926005e-08
-2.555885410423768491e-08
-2.248493401060961836e-08
-1.872824004169313657e-08
-1.531641337202995206e-08
-1.296442722626287692e-08
-1.119291151967307767e-08
-8.680642865845871755e-09
-6.007557318266812534e-09
-4.829940405656447242e-09
-3.397822679667697668e-09
-2.514295683936784229e-09
-1.722586617443585890e-09
-1.239378154216777074e-09
-8.812317131126651696e-10
-6.295881499716415850e-10
-4.553326487032415013e-10
-3.341458923618202880e-10
-2.499884709105633035e-10
-1.903674374417759149e-10
-1.469476292582029437e-10
-1.143740016913113026e-10
-8.912132492554156397e-11
-6.903250418092304144e-11
-5.281555781460713025e-11
-3.970974429188914073e-11
