# bin_17_4
-7.443925819874625991e-50
-8.300098910675006804e-50
-9.074641292156564588e-50
-9.680189817156841922e-50
-1.000759496163194348e-49
-9.972634833307571971e-50
-9.435523688037274093e-50
-8.430134187049789890e-50
-7.118257353263783709e-50
-5.822223049210809951e-50
-4.861665851962289524e-50
-4.211878922485153484e-50
-3.416449411260240679e-50
-2.383177942140062831e-50
-1.828058538277282388e-50
-1.382396118495325632e-50
-9.587954685416090125e-51
-6.836298700334310916e-51
-4.927604916812611238e-51
-3.455655690143905459e-51
-2.431798335623428643e-51
-1.735175855733844485e-51
-1.256450416966650766e-51
-9.259593172397946598e-52
-6.956931174863163141e-52
-5.312814927297809207e-52
-4.106889458293459873e-52
-3.192857606074151830e-52
-2.478328633514635620e-52
-1.907380706992588227e-52
-1.447002808307504053e-52
