# bin_3_2
-4.545982507293617925e-08
-4.625834123177736673e-08
-4.516926299032231784e-08
-4.173247947520950794e-08
-3.647256201506611326e-08
-3.027744322798253021e-08
-2.480484990858631300e-08
-2.105068252430443325e-08
-1.802182832636747129e-08
-1.381232213158230501e-08
-9.742702491693114223e-09
-7.819171412381327533e-09
-5.553285052694645933e-09
-4.168026792513567892e-09
-2.981207681494204057e-09
-2.203700849129212093e-09
-1.639524610635268301e-09
-1.238039396527462507e-09
-9.524247653655523445e-10
-7.451013748736912425e-10
-5.908654545089908269e-10
-4.717319748819687634e-10
-3.763606537452785798e-10
-2.979160921939164516e-10
-2.324093931271892366e-10
-1.776561113106491987e-10
-1.324654369164649219e-10
-9.608935685158572767e-11
-6.776844553374323034e-11
-4.654416146142184388e-11
-3.122080473809460667e-11
