# bin_6_6
-5.988318841110397472e-08
-6.446150066808114142e-08
-6.746472100400520456e-08
-6.821222322238696892e-08
-6.593856537251719163e-08
-6.018991521874261342e-08
-5.196396870328166000e-08
-4.279691742857525815e-08
-3.519083503692213732e-08
-3.018323294777395803e-08
-2.556458509603763551e-08
-1.885185236940310358e-08
-1.347323266759330096e-08
-1.091522532502139742e-08
-7.403432069659732081e-09
-5.651726065110126722e-09
-3.995778138718859788e-09
-2.869466660139197155e-09
-2.095282896948050873e-09
-1.546764051055073411e-09
-1.160675123386245138e-09
-8.859879317268037798e-10
-6.877345479290502128e-10
-5.397583031620161589e-10
-4.255269861116772746e-10
-3.346678815423862092e-10
-2.607415968572201803e-10
-2.000310300594261736e-10
-1.503358771770197652e-10
-1.102526522782631573e-10
-7.871788909971852616e-11
