# bin_4_14
-1.167542935062083092e-35
-1.290421249146292907e-35
-1.395667010247957011e-35
-1.468877879177644402e-35
-1.494135363106828365e-35
-1.456856121763901565e-35
-1.341928043281409784e-35
-1.168972747972423423e-35
-9.670900504411959674e-36
-7.925337189382248458e-36
-6.762857393066258354e-36
-5.795387434253097031e-36
-4.366838221155586109e-36
-3.051977105672920426e-36
-2.486561885293552340e-36
-1.686290674549905765e-36
-1.281495247697634466e-36
-8.828936284814824453e-37
-6.262201525357628088e-37
-4.486261286726583606e-37
-3.232152101689587525e-37
-2.354660828835213330e-37
-1.742222992439556856e-37
-1.314533416603937497e-37
-1.008259537336106688e-37
-7.824348052829745264e-38
-6.107138465497410091e-38
-4.759541599792085762e-38
-3.678429934453868690e-38
-2.802272091527968178e-38
-2.094420459156429949e-38
