# bin_14_5
-1.692749708744056051e-29
-1.873786639582829892e-29
-2.030454124226237003e-29
-2.142022133152299334e-29
-2.184733104716733973e-29
-2.138616958753101579e-29
-1.978847044210282300e-29
-1.731429641523045557e-29
-1.436429494697132083e-29
-1.175823708794579459e-29
-9.998824008105729270e-30
-8.602416447199298822e-30
-6.564551853666568588e-30
-4.561250940506369954e-30
-3.701735317068487069e-30
-2.545746983953184954e-30
-1.917241651768516793e-30
-1.314298586228679588e-30
-9.375731149110586513e-31
-6.698532361845975499e-31
-4.811790881614232578e-31
-3.494259506621416102e-31
-2.575904042300183722e-31
-1.936388848360435356e-31
-1.480634620568726577e-31
-1.146440198815117107e-31
-8.938222295610822199e-32
-6.966150522878556628e-32
-5.389631407423358801e-32
-4.113931664162396013e-32
-3.082999837120381109e-32
