# bin_12_4
-6.324226180126378180e-27
-6.940021305231310508e-27
-7.439955358878160638e-27
-7.743222669083472968e-27
-7.777968780526964603e-27
-7.443859770678228783e-27
-6.724156887700470948e-27
-5.742522677964773748e-27
-4.708472613896871962e-27
-3.895687956184386956e-27
-3.363953130065181269e-27
-2.799966751050708671e-27
-2.002843465234539509e-27
-1.476130146803351463e-27
-1.169548304778377864e-27
-7.908216231637810468e-28
-5.923735530136096972e-28
-4.225097776174626707e-28
-2.994110199004576145e-28
-2.150436284516562313e-28
-1.561857009407871112e-28
-1.154092848983842357e-28
-8.679352496680912022e-29
-6.646224166635213293e-29
-5.157689622917448058e-29
-4.033276314345083651e-29
-3.156875540181188199e-29
-2.455397644138049285e-29
-1.885921522518064416e-29
-1.422861412537043028e-29
-1.050109557009234233e-29
