# bin_16_7
-1.148776219504407431e-26
-1.281910872952018867e-26
-1.402886052973504486e-26
-1.498300231776127001e-26
-1.551362112300017507e-26
-1.548775997993120535e-26
-1.469002040568071385e-26
-1.315515799118439489e-26
-1.113352094512059095e-26
-9.109624137587993378e-27
-7.591697214501493170e-27
-6.576038498938058751e-27
-5.365764955313404094e-27
-3.756881686816917446e-27
-2.857337557490506178e-27
-2.182478486676461528e-27
-1.500763911082614753e-27
-1.080022060016702376e-27
-7.754325065866131945e-28
-5.428402700726887338e-28
-3.816035805233372412e-28
-2.716909506947963961e-28
-1.963196378770686117e-28
-1.443359267912403829e-28
-1.082030880414225850e-28
-8.247880753320931406e-29
-6.367459314364225701e-29
-4.947392062259743271e-29
-3.840661972881111606e-29
-2.958096645033294504e-29
-2.246956837507483332e-29
