# bin_7_17
-2.712378988932543849e-30
-3.033370500907860723e-30
-3.328569544970701161e-30
-3.566887112565655351e-30
-3.709183472601781777e-30
-3.721545393463003937e-30
-3.554636032651003628e-30
-3.204272045607764407e-30
-2.730292643268925272e-30
-2.237259616474382056e-30
-1.854728255664345304e-30
-1.604307182076357838e-30
-1.329070154024250678e-30
-9.429804940083079515e-31
-7.000582435811871788e-31
-5.487967469946514818e-31
-3.697925956096074130e-31
-2.728569121339224361e-31
-1.932185693910050595e-31
-1.346423927312819995e-31
-9.453111764436097810e-32
-6.691128478030745073e-32
-4.805457757169835592e-32
-3.508508942513870720e-32
-2.612916277389461438e-32
-1.980485175636030626e-32
-1.522619118226621658e-32
-1.180539470299048077e-32
-9.164177345839639982e-33
-7.071567209995725632e-33
-5.390017166285135396e-33
