# bin_7_8
-2.486616852613826702e-08
-2.711288482483934937e-08
-2.883459781796358751e-08
-2.970592588579996842e-08
-2.948044844849043984e-08
-2.775180240471761203e-08
-2.468028323484998039e-08
-2.075259782447464457e-08
-1.696540734453574416e-08
-1.421300881729375499e-08
-1.230112229795726230e-08
-9.863754025480675919e-09
-6.870679883587898368e-09
-5.351123984673433533e-09
-3.988029528139928578e-09
-2.834187864314703624e-09
-2.015982161640030742e-09
-1.473617582066173402e-09
-1.055920243366015506e-09
-7.629596612585132761e-10
-5.609414168197645963e-10
-4.195088614018833895e-10
-3.194543418091995263e-10
-2.471619088060823813e-10
-1.932222189388521216e-10
-1.516759742081727730e-10
-1.187094086519134650e-10
-9.199979067416822637e-11
-7.019139646260756575e-11
-5.246947325569246193e-11
-3.828679267114178588e-11
