# bin_19_14
-1.850399217609036444e-12
-2.091386012671243106e-12
-2.324421498771962697e-12
-2.530434504633034093e-12
-2.684074431883432361e-12
-2.754624733624989761e-12
-2.719167173078031306e-12
-2.541018827211827784e-12
-2.243993720629306227e-12
-1.874654947594677044e-12
-1.532872007737542622e-12
-1.294063980736888433e-12
-1.119728507126362379e-12
-8.770508511184231816e-13
-6.048627163849397367e-13
-4.823466559790875935e-13
-3.426768657009187295e-13
-2.488295446088023987e-13
-1.683585394444965823e-13
-1.199890777901797140e-13
-8.319872480629415458e-14
-5.756868536604167536e-14
-4.014824700770946633e-14
-2.825310719353654568e-14
-2.021992890188813363e-14
-1.475548786111179519e-14
-1.097923037185120791e-14
-8.318514055431900964e-15
-6.384713727410971609e-15
-4.930995271319347698e-15
-3.803122506735294904e-15
