# bin_4_18
-1.023660673661679647e-54
-1.144264264437276396e-54
-1.254895827626729735e-54
-1.343776982665173215e-54
-1.396092614345462318e-54
-1.399261054426635818e-54
-1.334494997521877136e-54
-1.201238983720106708e-54
-1.022028539087657054e-54
-8.371565463266226142e-55
-6.947654462690617980e-55
-6.012179730306669752e-55
-4.965271636368143636e-55
-3.511856458767212488e-55
-2.620739860820798625e-55
-2.043577870150073368e-55
-1.382393970706937675e-55
-1.014852294304388259e-55
-7.208903540092309909e-56
-5.028207353075810409e-56
-3.530700979808914171e-56
-2.502100265317543954e-56
-1.799365659574782963e-56
-1.315749569426220782e-56
-9.813262994226703406e-57
-7.447554362655552620e-57
-5.731251604873478490e-57
-4.445926348116137006e-57
-3.451427327426846296e-57
-2.662307970240169126e-57
-2.027766991052542197e-57
