# bin_9_5
-5.299950219089114945e-13
-5.760461151153596393e-13
-6.102036764359427970e-13
-6.255874770896046596e-13
-6.169282437984547636e-13
-5.761307345442698195e-13
-5.085518417876418735e-13
-4.248222800202801066e-13
-3.472811721692647374e-13
-2.928423243016029082e-13
-2.530159202362912241e-13
-1.985918843362532397e-13
-1.378389743743362764e-13
-1.097689675032808238e-13
-7.911465476774209999e-14
-5.792781737824050958e-14
-4.047394764011969793e-14
-2.958119139962475338e-14
-2.133334787410912343e-14
-1.551746445644525579e-14
-1.147514915729483154e-14
-8.628309419539327402e-15
-6.606407813892835690e-15
-5.133346851554313405e-15
-4.024323792256370951e-15
-3.162501301896580352e-15
-2.473498817174509952e-15
-1.912726177604455951e-15
-1.454115511503576843e-15
-1.081871717004731679e-15
-7.850489843640333465e-16
