# bin_6_16
-7.012781584867865946e-32
-7.815893895848724186e-32
-8.540596715706444620e-32
-9.104314873085667875e-32
-9.404084033211388015e-32
-9.361443131480927345e-32
-8.844868025747313589e-32
-7.892099253888296347e-32
-6.655469275275685918e-32
-5.442772683460043936e-32
-4.549944365962395245e-32
-3.941921243346439274e-32
-3.186475129966491909e-32
-2.218568351847651648e-32
-1.709928175886502258e-32
-1.285588863945000216e-32
-8.962154730145206705e-33
-6.357153654665836891e-33
-4.590933851517155428e-33
-3.222853263923537056e-33
-2.269647457048482959e-33
-1.621486958945528867e-33
-1.175506340949987948e-33
-8.674618537905144961e-34
-6.525424583193328105e-34
-4.988357910808505177e-34
-3.858788334371836170e-34
-3.000887271674339831e-34
-2.329114186067693193e-34
-1.791751681210597501e-34
-1.358300119266589916e-34
