# bin_5_16
-5.563693385102092947e-38
-6.193605776173543556e-38
-6.758180721769608419e-38
-7.191365636113538457e-38
-7.411377258802874041e-38
-7.357234756245097846e-38
-6.925920007402115266e-38
-6.158815906159858140e-38
-5.177089526546389988e-38
-4.232444834445010636e-38
-3.548677059696646212e-38
-3.073892797181650052e-38
-2.461509433091890373e-38
-1.707189512323112159e-38
-1.331723509304199509e-38
-9.856846134344576790e-39
-6.969845653927391073e-39
-4.881998871255057989e-39
-3.536842547624820131e-39
-2.489835066832584098e-39
-1.757965588294694929e-39
-1.259945682918389486e-39
-9.161635495645779759e-40
-6.784080530097532293e-40
-5.119270250419131515e-40
-3.923457212053647062e-40
-3.040255715646335306e-40
-2.365963412957030460e-40
-1.835743387019469485e-40
-1.410500329788948590e-40
-1.067223974908760477e-40
