# bin_15_6
-5.316412486497085913e-28
-5.910342230913949911e-28
-6.438414152997543632e-28
-6.836965473672712912e-28
-7.028075323111007575e-28
-6.953912966113264179e-28
-6.518955313830243757e-28
-5.774369512513574880e-28
-4.836917697562633689e-28
-3.953841982740632538e-28
-3.326455655399821211e-28
-2.879535660959554081e-28
-2.279849923695722003e-28
-1.577091453074429400e-28
-1.245920127312960654e-28
-9.052297021653585180e-29
-6.511517878440447752e-29
-4.507095119455400363e-29
-3.266387672132255336e-29
-2.307346640455308328e-29
-1.635479773846471558e-29
-1.176243441453202168e-29
-8.581917626694002356e-30
-6.379269227947986659e-30
-4.830423496101562309e-30
-3.712331845682830259e-30
-2.881797813887067654e-30
-2.244042189956850000e-30
-1.740288039442720264e-30
-1.335190235230649797e-30
-1.007971125853402728e-30
