# bin_2_17
-1.035568757584486254e-67
-1.152908945364118043e-67
-1.258128864791454570e-67
-1.338941344244245578e-67
-1.380126074421398695e-67
-1.370314025921567270e-67
-1.290316098676375812e-67
-1.147683466379648559e-67
-9.649659479005191653e-68
-7.889119303031967441e-68
-6.613188323278161158e-68
-5.728445872696389908e-68
-4.590323573110892911e-68
-3.184598678440381954e-68
-2.481998540047035445e-68
-1.839154015543795650e-68
-1.299139556598413084e-68
-9.108413276140459418e-69
-6.596969219317969224e-69
-4.643140925391277698e-69
-3.277737010426415203e-69
-2.348628551298678158e-69
-1.707422230577880776e-69
-1.264012805906285940e-69
-9.536103287512194211e-70
-7.307216706922757098e-70
-5.661602076381852659e-70
-4.405704657078312026e-70
-3.418444580709601660e-70
-2.626798481125014056e-70
-1.987780276282204106e-70
