# bin_11_3
-1.714269208732217276e-28
-1.868901519470761930e-28
-1.987237171054031428e-28
-2.046825728479715483e-28
-2.030751219429914335e-28
-1.910960744044116808e-28
-1.698855109314036886e-28
-1.427965835514415453e-28
-1.167287330074882654e-28
-9.782113974454087386e-29
-8.466736057925127140e-29
-6.783126995560696323e-29
-4.721346577468064830e-29
-3.682437378995248812e-29
-2.740218955939144550e-29
-1.949843041353217223e-29
-1.384763619958949101e-29
-1.013069640966567194e-29
-7.260986361577423333e-30
-5.246859476618374316e-30
-3.858712984562177481e-30
-2.886523137043421101e-30
-2.198635907511855872e-30
-1.701436375629730343e-30
-1.330311966527387366e-30
-1.044344012170072772e-30
-8.173484560401412309e-31
-6.333916846232725466e-31
-4.831748817157712685e-31
-3.611085585926429422e-31
-2.634324649576244933e-31
