# bin_10_5
-1.614596562421792798e-15
-1.762327010936218672e-15
-1.876687182250658271e-15
-1.936554925568325159e-15
-1.925788060927790389e-15
-1.817660688948477513e-15
-1.620466840724221109e-15
-1.365680682907475660e-15
-1.116641215576125151e-15
-9.334969720612190337e-16
-8.081167932525402606e-16
-6.523908813086426138e-16
-4.554518763882888872e-16
-3.518479567534328970e-16
-2.650834703212531775e-16
-1.865507742763941645e-16
-1.337107652590128321e-16
-9.758883716461746141e-17
-6.978534014249100548e-17
-5.032719195024122315e-17
-3.692704298861747962e-17
-2.756566338135629025e-17
-2.095156722379768892e-17
-1.618575933822718746e-17
-1.264052696657911637e-17
-9.918105969014349238e-18
-7.763577257529839097e-18
-6.020870462593336594e-18
-4.598902545498000079e-18
-3.443048078037181972e-18
-2.516995917103936711e-18
