# bin_10_18
-1.348983041075666179e-20
-1.516331932155843135e-20
-1.674266353842414343e-20
-1.807997940420569699e-20
-1.898559284790435580e-20
-1.925967455905332759e-20
-1.869726706716712380e-20
-1.713534160887450342e-20
-1.485063481458105839e-20
-1.225089716667504460e-20
-1.006044316874950897e-20
-8.623449543892278295e-21
-7.348575245488897972e-21
-5.446216984477175296e-21
-3.835354905669442402e-21
-3.125133423761715665e-21
-2.075041602304798290e-21
-1.577755892435687157e-21
-1.081582517191215917e-21
-7.494693831484299538e-22
-5.263988148737851325e-22
-3.698311654266763585e-22
-2.618781122067935949e-22
-1.878518074442281182e-22
-1.374576883484185240e-22
-1.025305834499076277e-22
-7.781371255744181325e-23
-5.984728899152273331e-23
-4.633421789000302934e-23
-3.584715271441115541e-23
-2.751721524458898959e-23
