# bin_18_19
-1.895816509731116151e-08
-2.150280654505182320e-08
-2.400276621964663293e-08
-2.626963319093178953e-08
-2.805020917282717997e-08
-2.902726156605006893e-08
-2.895486467210862623e-08
-2.742432139691401526e-08
-2.452460335381172902e-08
-2.072404243157741915e-08
-1.695562900081414155e-08
-1.415675221077182162e-08
-1.227057709622782018e-08
-9.967431425173677963e-09
-6.944578437157076291e-09
-5.311680184799482218e-09
-4.011408579705123541e-09
-2.756383039381492908e-09
-1.946786300856986530e-09
-1.384362588094444416e-09
-9.500894917585861650e-10
-6.495590400208394121e-10
-4.475370107238745485e-10
-3.109707357243088427e-10
-2.189133298080632012e-10
-1.570083275472854209e-10
-1.148543182392079614e-10
-8.574616932113280700e-11
-6.511897498330049006e-11
-5.002150960546437245e-11
-3.858063061130291871e-11
