# bin_17_13
-3.436738390086494531e-11
-3.870290619074305100e-11
-4.282945763389912103e-11
-4.637775917751635654e-11
-4.886872638770898453e-11
-4.976553241231932937e-11
-4.859207692971947224e-11
-4.481986461909927668e-11
-3.909353466030012487e-11
-3.236559830025469647e-11
-2.652195583389510270e-11
-2.262865942243136944e-11
-1.942133180347609953e-11
-1.465629832736848861e-11
-1.020149824045685756e-11
-8.306333243831681524e-12
-5.594400690227244838e-12
-4.228084189488840155e-12
-2.867036300733218220e-12
-1.997508836792598385e-12
-1.400420503742047042e-12
-9.817767962948650278e-13
-6.917149743550427045e-13
-4.929229729409155022e-13
-3.581145380488323875e-13
-2.652915092077100280e-13
-2.001398755070284414e-13
-1.532762574552637355e-13
-1.184136174740404990e-13
-9.161746452924348153e-14
-7.047143304309284831e-14
