# bin_13_18
-1.078089590803855764e-12
-1.215749519231572667e-12
-1.347561635281127691e-12
-1.462121887438985043e-12
-1.544493690006599719e-12
-1.577327893215362333e-12
-1.546506928074851958e-12
-1.433335112751856337e-12
-1.256059492166294168e-12
-1.043062062874508425e-12
-8.537956184467637384e-13
-7.257320599951371193e-13
-6.253386842335585645e-13
-4.783691444084109489e-13
-3.311575661489533180e-13
-2.682894549572230284e-13
-1.837717467044691812e-13
-1.374025494329085273e-13
-9.266674794039989535e-14
-6.507746536461337298e-14
-4.547334888904817526e-14
-3.176652998502421399e-14
-2.229772988652384060e-14
-1.581401157208175944e-14
-1.142644711458774430e-14
-8.419413111170467939e-15
-6.321225867959872699e-15
-4.823645381350994747e-15
-3.718932150773110778e-15
-2.876401179410698958e-15
-2.215263198239084024e-15
