# bin_12_3
1.224581667094352864e-30
1.342515518067402245e-30
1.437465966693537625e-30
1.493696086950000644e-30
1.497699550195366652e-30
1.429624142096806215e-30
1.288212433167264988e-30
1.097283944628538280e-30
8.990376074060405751e-31
7.451663342374934373e-31
6.440337275548460136e-31
5.333114226949434131e-31
3.793238431020244977e-31
2.820607601380757176e-31
2.216097333768737452e-31
1.507079136462141476e-31
1.120538645131823532e-31
8.031512460525309072e-32
5.699414243890836774e-32
4.094050713903257757e-32
2.978104662192173293e-32
2.204616602799235546e-32
1.661053415306483832e-32
1.274119927324400252e-32
9.899715456213006805e-33
7.746996482160979103e-33
6.064474306636767561e-33
4.714998429256948044e-33
3.618274904004296559e-33
2.726413616433003885e-33
2.008971727934087420e-33
