# bin_20_15
9.206330841801274717e-10
1.043384866010385432e-09
1.163523179516327261e-09
1.271830942583102030e-09
1.355927810115510660e-09
1.400372701256725813e-09
1.393533708265559036e-09
1.315633663976714536e-09
1.173061056380448974e-09
9.883912756167005033e-10
8.083703570217365377e-10
6.766932669307218889e-10
5.865324017967506275e-10
4.726374656687852570e-10
3.278993059767937839e-10
2.535611576166390197e-10
1.888792779278033738e-10
1.313550180543211115e-10
9.159848266770515517e-11
6.540413381356131928e-11
4.498697487828189451e-11
3.081058250200616340e-11
2.129520371070195340e-11
1.484347300149269798e-11
1.049205540202106699e-11
7.558870500957750716e-12
5.554004029696483388e-12
4.163019136997907905e-12
3.171197083189634926e-12
2.440254962911899861e-12
1.882822024475590318e-12
