# bin_10_3
9.579906149709164154e-22
1.040585742038687828e-21
1.101423767707746407e-21
1.128124047137751209e-21
1.111055976255274610e-21
1.035900345566307551e-21
9.130267511959132042e-22
7.617341130338637306e-22
6.227495465230033739e-22
5.258368745134171212e-22
4.540652402520765338e-22
3.548219963916407230e-22
2.462609203589717558e-22
1.968639757740532010e-22
1.409321504150181968e-22
1.037870469963663895e-22
7.235213083522196916e-23
5.282780851278752776e-23
3.814989788909823689e-23
2.778923583529193473e-23
2.057384139357545233e-23
1.548509004431513788e-23
1.186937197064338713e-23
9.230971752241895656e-24
7.240696504792342329e-24
5.691457038217987030e-24
4.451118242746913323e-24
3.440715048006703558e-24
2.614116177883841221e-24
1.943305864857767880e-24
1.408754370634356981e-24
