# bin_14_13
5.213239181229689132e-06
5.850039665919069812e-06
6.445983356724260569e-06
6.942983676802229064e-06
7.267135040627817753e-06
7.345610272791953377e-06
7.091989133105399166e-06
6.462258915213033113e-06
5.567801660286779906e-06
4.580513744745679852e-06
3.771803045477003607e-06
3.245195883815357161e-06
2.742372380057436420e-06
1.999864670474214852e-06
1.430932410047355676e-06
1.156979202126542744e-06
7.665917966448973100e-07
5.806287040833313552e-07
4.023297671004325695e-07
2.788389926912831465e-07
1.958262170567075215e-07
1.377613754270089185e-07
9.801175965871439218e-08
7.072501097185913677e-08
5.208145820291100618e-08
3.907658734732837182e-08
2.980191440335604078e-08
2.299640338498212153e-08
1.782889886367747317e-08
1.378675159453640409e-08
1.056042197779417809e-08
