# bin_19_7
1.776547486518936704e-35
1.996491904874682264e-35
2.203810201473881869e-35
2.378977248841215634e-35
2.496984133821932413e-35
2.531796129524863832e-35
2.455858929542876143e-35
2.248821636136603395e-35
1.947293112351047692e-35
1.605726272230984672e-35
1.319084199718586747e-35
1.131319099519152085e-35
9.629926650409970831e-36
7.119992324240097340e-36
5.024363287423329883e-36
4.091192444039037074e-36
2.714124978445189266e-36
2.063482288668208288e-36
1.416750723438943958e-36
9.815339950714599441e-37
6.893961178239282044e-37
4.844117702655852514e-37
3.432680086540501801e-37
2.464021390876767061e-37
1.804762353352395496e-37
1.347356875289141614e-37
1.023282445652783310e-37
7.874218517333390685e-38
6.097807803879089503e-38
4.717560367651610287e-38
3.620402207396884996e-38
