# bin_5_1
3.563894399868297528e-12
3.682269997768609838e-12
3.669208855649160539e-12
3.475461002161338110e-12
3.110252885380863488e-12
2.632189672516532917e-12
2.154247697527134188e-12
1.793698602932591673e-12
1.548969729407003890e-12
1.263706126286251776e-12
8.950137811725651125e-13
6.807718871251736020e-13
5.246929036543066525e-13
3.686993467618168735e-13
2.725544608812918406e-13
2.004834655582278355e-13
1.467676932545097468e-13
1.091970669920170264e-13
8.279958880814091470e-14
6.396704042438856941e-14
5.020437634539554451e-14
3.984499567258668949e-14
3.174316047207885634e-14
2.520198297279984446e-14
1.980201815127134342e-14
1.530012122663897961e-14
1.156376311855669320e-14
8.516466000342196866e-15
6.098790422802930643e-15
4.248511467530900684e-15
2.884895792530087123e-15
