# bin_16_7
3.366271104892495255e-24
3.759835817901728499e-24
4.119202223393578625e-24
4.405375679481470223e-24
4.569368698711532297e-24
4.571112377283162804e-24
4.347830275639433565e-24
3.904003561068824116e-24
3.312878103178146704e-24
2.712043499879837518e-24
2.255200025692952536e-24
1.952694376619758534e-24
1.603515474784375243e-24
1.128254664723855784e-24
8.497523505016388022e-25
6.561600972481182642e-25
4.472099280454832650e-25
3.252194119044006772e-25
2.322618247612937816e-25
1.622809224981538210e-25
1.139933732950747461e-25
8.096028098066769371e-26
5.835884788905030441e-26
4.278443259674467305e-26
3.199311102661216473e-26
2.433356871226261617e-26
1.875633666224191715e-26
1.456271585268630923e-26
1.130622371285240313e-26
8.715675120962293373e-27
6.630258965422103163e-27
