# bin_13_2
2.508657438840068509e-43
2.756923632012275832e-43
2.960803626626892115e-43
3.088475964548673713e-43
3.110391631645233545e-43
2.987812398813556177e-43
2.708995819153309601e-43
2.322313737217442669e-43
1.906639339536724785e-43
1.573771099677275342e-43
1.356627884574133893e-43
1.137054638357065212e-43
8.207407549128835273e-44
5.973028854604804671e-44
4.782675429529469011e-44
3.213971646303470178e-44
2.428478656146099211e-44
1.719504017827314057e-44
1.216184037063650328e-44
8.732295458108106372e-45
6.328084444581725060e-45
4.662329938739588945e-45
3.494595572983867777e-45
2.668682443332501436e-45
2.066620107032753149e-45
1.614022799764411944e-45
1.262956947020187626e-45
9.829540875078013898e-46
7.560799862999499600e-46
5.716518150808552510e-46
4.230351892319277711e-46
