# bin_18_3
8.120500397358812835e-61
9.079167428470159894e-61
9.959413896211969589e-61
1.066794521178224524e-60
1.108731438048401470e-60
1.111730273714416959e-60
1.060879210141875358e-60
9.555273249896951648e-61
8.134390246533051620e-61
6.664074008987877835e-61
5.528209591911307275e-61
4.782953361314925283e-61
3.955009145127844760e-61
2.800879206517369618e-61
2.085795118946471014e-61
1.629869231921085687e-61
1.100844670000490199e-61
8.097716534379407564e-62
5.744780177781737098e-62
4.005386632662989465e-62
2.812308374295967890e-62
1.991983160466223086e-62
1.431762595963211252e-62
1.046182975530813997e-62
7.798563821888247728e-63
5.915435988673166065e-63
4.550441650129257212e-63
3.529303496482405389e-63
2.739894580941533102e-63
2.113892932745457543e-63
1.610649044060440599e-63
