# bin_19_12
1.983120134958306396e-14
2.238870405743430522e-14
2.484933713721354027e-14
2.700595925723045300e-14
2.858526420628798050e-14
2.926276629926730312e-14
2.878599575604103324e-14
2.678602388761012995e-14
2.356219836081796165e-14
1.962110661362751107e-14
1.605021111932496062e-14
1.359803296776103374e-14
1.174522370932555282e-14
9.088164987543740794e-15
6.274379968177471785e-15
5.049948994698910854e-15
3.518384911096940369e-15
2.597262017505971633e-15
1.750051846001041978e-15
1.238672188437926892e-15
8.623496864782824007e-16
5.998484022342172466e-16
4.198067303027842993e-16
2.965772037950751077e-16
2.133371234553586836e-16
1.564956238901076901e-16
1.170093971987326272e-16
8.900301074371539849e-17
6.848832180418296901e-17
5.294616959820564976e-17
4.081219653405248304e-17
