# bin_11_5
4.275386755614070462e-16
4.690063662595646093e-16
5.025681952064386169e-16
5.227485419433556164e-16
5.247510107703233769e-16
5.017153093558083475e-16
4.527997704521959990e-16
3.863166165332553503e-16
3.166664871193449498e-16
2.621737919370868399e-16
2.264666078396023314e-16
1.881442944151748392e-16
1.342925284323350045e-16
9.930160312637339564e-17
7.843427080704994948e-17
5.314347601309866878e-17
3.969886858040133657e-17
2.836535732103427265e-17
2.011006393094117929e-17
1.444304408732870122e-17
1.049489736432026301e-17
7.759703733707328807e-18
5.838890345101913301e-18
4.473833920883121820e-18
3.473272477926982563e-18
2.716730099177035860e-18
2.126549080361641526e-18
1.653835961707603667e-18
1.269932621129442740e-18
9.577541954021479014e-19
7.065070124155259788e-19
