# bin_19_17
1.937889904071363710e-06
2.197722007935866841e-06
2.452786925775783445e-06
2.683805181960253814e-06
2.864859991043828144e-06
2.963498154856365511e-06
2.954737890307719734e-06
2.796747352354015385e-06
2.499672243358822823e-06
2.111045993161461490e-06
1.727044198503080998e-06
1.442689324991923008e-06
1.250481254204617227e-06
1.014231723562381332e-06
7.060057298405377120e-07
5.411564876957935453e-07
4.076178446508677474e-07
2.807212231290505826e-07
1.977746315453417224e-07
1.407706815541430803e-07
9.665626224503510360e-08
6.610482557987331199e-08
4.557679777811737711e-08
3.169150278148080631e-08
2.232938922175222889e-08
1.603229381671171379e-08
1.173971550057838607e-08
8.772562916340545867e-09
6.667127758037737606e-09
5.123699623084551501e-09
3.952382826235359943e-09
