# bin_8_6
6.655615078478991966e-07
7.240062296475640087e-07
7.677373580467470761e-07
7.880919005372448031e-07
7.784678266180835519e-07
7.284836358490470060e-07
6.442936613774373518e-07
5.390932637979412169e-07
4.406613721243908949e-07
3.709558500362568897e-07
3.206972030401327104e-07
2.531555808406461921e-07
1.757626425547290326e-07
1.392235273547260506e-07
1.012328157789270195e-07
7.353926248793653715e-08
5.156709847606138754e-08
3.772764778022325204e-08
2.715917409375691334e-08
1.971525147002630710e-08
1.455784720430967517e-08
1.092988135230177100e-08
8.356746291914370904e-09
6.486544812334675032e-09
5.081648032332004371e-09
3.992538188993918367e-09
3.123545446486640749e-09
2.417064986297216175e-09
1.839481275013831012e-09
1.370472311796270135e-09
9.960738004595145735e-10
