# bin_7_3
2.510921266771152717e-11
2.679940013571641479e-11
2.774465472499802295e-11
2.770479550710809980e-11
2.630533728407809872e-11
2.358885283627770496e-11
1.999783877067220642e-11
1.636836846267213311e-11
1.361142936752223146e-11
1.176503078510585785e-11
9.640749296179161966e-12
6.821033670672059534e-12
5.158393279035979470e-12
3.994397055738710031e-12
2.774349165823362203e-12
2.047702505574171510e-12
1.492761846099731381e-12
1.078359595903497303e-12
7.899546414043515942e-13
5.886847531565884536e-13
4.469233452196821872e-13
3.451592423618718665e-13
2.704001612859208342e-13
2.134661524171241096e-13
1.686653754387306173e-13
1.324519617644091203e-13
1.026860395453370721e-13
7.815328979653342447e-14
5.812760025540837561e-14
4.210878811134334373e-14
2.967620923601486445e-14
