# bin_20_17
3.578055373158040675e-07
4.061534420175377768e-07
4.538183198261702744e-07
4.972689253612345877e-07
5.317596670251308866e-07
5.513268086624348906e-07
5.511810351961670456e-07
5.236344867003865616e-07
4.696192256674902192e-07
3.979752481453506832e-07
3.257607712086375732e-07
2.713185439235172487e-07
2.351083612576849481e-07
1.923586930357729081e-07
1.347012482820621659e-07
1.019361354804416475e-07
7.795023500118426985e-08
5.301641832092044563e-08
3.791807956719297931e-08
2.681639566428246237e-08
1.836921760020973706e-08
1.254966538292864562e-08
8.622558723379866741e-09
5.974538530287242805e-09
4.190271066299212816e-09
2.993687863282190848e-09
2.181048629598132010e-09
1.622228834600783996e-09
1.228439471914625815e-09
9.419951280187240437e-10
7.262074782377700397e-10
