# bin_9_3
8.569796447934844192e-18
9.259316442225933636e-18
9.735905235099429843e-18
9.895618871881981603e-18
9.639783003168817995e-18
8.873079403644738216e-18
7.724620470123452166e-18
6.389387195908566289e-18
5.236286693815728901e-18
4.466168497457613140e-18
3.822391835681102199e-18
2.882442929505915758e-18
2.023047222327421567e-18
1.645888337766962369e-18
1.127910996047660693e-18
8.585507986170872383e-19
5.996588337136591523e-19
4.321434930702065938e-19
3.147612487995067149e-19
2.314894891924755057e-19
1.727912957422981460e-19
1.311385477931534238e-19
1.013106072044598973e-19
7.924868167569976274e-20
6.237282026024320631e-20
4.906202582573283011e-20
3.829543018979881550e-20
2.947702431123695956e-20
2.225610379696780225e-20
1.641439496802863593e-20
1.179234153988557542e-20
