# bin_20_3
5.398180048181304612e-71
6.063688172436584050e-71
6.689596819901645983e-71
7.216312599121321352e-71
7.567675643885311663e-71
7.665754003597942500e-71
7.424925642404872980e-71
6.788410377029967902e-71
5.868918502051499548e-71
4.835784646327260783e-71
3.975343564603199255e-71
3.412997354613143542e-71
2.898859581972102880e-71
2.133944484803936358e-71
1.512003067726495972e-71
1.229102606347923728e-71
8.145381783101139578e-72
6.188820161409932930e-72
4.261468222743008928e-72
2.952052645642907401e-72
2.073429920169123397e-72
1.457366009336617597e-72
1.034015296037635458e-72
7.434553939639956025e-73
5.454718106225343115e-73
4.078771785710281353e-73
3.101904274681185041e-73
2.389108213903105688e-73
1.850862628091140381e-73
1.431742706494813004e-73
1.098130345609789642e-73
