# bin_13_13
8.369854637047052456e-06
9.377758841560621789e-06
1.031361653018936296e-05
1.108292806215058526e-05
1.156612181533098420e-05
1.165204116139533835e-05
1.119440909064220902e-05
1.014940718059087745e-05
8.699578160612336290e-06
7.142270456105493484e-06
5.898292076826153986e-06
5.089205473583351767e-06
4.263892676777430622e-06
3.067877654243428725e-06
2.231764110092727662e-06
1.782448085326806611e-06
1.186978424635715914e-06
8.905651924427059414e-07
6.230939483936235998e-07
4.327375054863556753e-07
3.038237567730324396e-07
2.142041585793888738e-07
1.530475197231082524e-07
1.110370119265567319e-07
8.220457778403971716e-08
6.197776582180496630e-08
4.745322586632965190e-08
3.670621319075845999e-08
2.848068125511791256e-08
2.200602861589650340e-08
1.682004388326420077e-08
