# bin_7_1
1.063552757202235306e-24
1.121542620004201563e-24
1.144099662426000837e-24
1.120836550449600206e-24
1.038776681314379840e-24
9.104418315234752309e-25
7.566396877359711312e-25
6.190868852409723280e-25
5.247753432120604892e-25
4.512739233721895580e-25
3.477039443898832296e-25
2.429678012883816966e-25
1.957928298458338060e-25
1.384028958353405337e-25
1.037522277642232513e-25
7.312328701766465032e-26
5.366017629182595662e-26
3.944176542188836422e-26
2.934235377468974909e-26
2.220971798317449363e-26
1.710035028241848039e-26
1.337873537920119388e-26
1.057474656058392093e-26
8.385839520827953253e-27
6.624944349375871256e-27
5.178063261723037234e-27
3.979612550800276512e-27
2.992165670652985130e-27
2.192659445464782901e-27
1.562874387656677386e-27
1.083824379719855571e-27
