# bin_11_6
2.054623035897006418e-17
2.257776207359542251e-17
2.424541527682394042e-17
2.528859549728509926e-17
2.546488634488353347e-17
2.445837870687356284e-17
2.217196102320870473e-17
1.900453241201935820e-17
1.560169387985317673e-17
1.287910972401183158e-17
1.110325438872654549e-17
9.303695838274320489e-18
6.712656468966507974e-18
4.887513108025568702e-18
3.912395236844652485e-18
2.629165517943664469e-18
1.986157190032595448e-18
1.406713950274904816e-18
9.949197102483647037e-19
7.142868185207846170e-19
5.175936578499742072e-19
3.813220403075492718e-19
2.858454751471537863e-19
2.182733532248767815e-19
1.690261224569817171e-19
1.320062489676249046e-19
1.032886874174036139e-19
8.038452215264837890e-20
6.182692093982363980e-20
4.674200456215139126e-20
3.458715539410869595e-20
