# bin_19_4
7.351321300034574018e-62
8.237585563576504217e-62
9.061170624327577865e-62
9.739182670823111431e-62
1.016672914596237502e-61
1.024536865638655236e-61
9.847954535147463287e-62
8.932571746186282708e-62
7.660452573264466626e-62
6.290132867678918023e-62
5.193065060061891252e-62
4.479799549350079647e-62
3.756568416510142377e-62
2.705958969290558031e-62
1.965309315467292592e-62
1.571876627662554253e-62
1.045776483155600585e-62
7.855614786188143745e-63
5.490539220586156549e-63
3.811528997419497735e-63
2.675510698837577584e-63
1.885217904351532194e-63
1.345885310556276376e-63
9.757228316310710824e-64
7.216799609462900773e-64
5.436728581391202932e-64
4.160001080403786496e-64
3.216485468624641692e-64
2.495250410032167875e-64
1.928098247385583592e-64
1.474083198877225359e-64
