# bin_16_6
3.154801103747524991e-34
3.516659550001705005e-34
3.843489988503917989e-34
4.098188619963231472e-34
4.234454203778750538e-34
4.216856198327644246e-34
3.986180111546907298e-34
3.558469322486619881e-34
3.002256525676033714e-34
2.455357362495812215e-34
2.051749507019845354e-34
1.777567680541345960e-34
1.438710297710498092e-34
1.002332889329355527e-34
7.712058077934340462e-35
5.810321064095219128e-35
4.042772946001601094e-35
2.872803837877860782e-35
2.073210758265281151e-35
1.454727872007300011e-35
1.024061914940542739e-35
7.311938081744744122e-36
5.297874196837115744e-36
3.907145122804530745e-36
2.937476959058379984e-36
2.244531033868624851e-36
1.735757554363747085e-36
1.349710048111013692e-36
1.047648191387269264e-36
8.061363915507842745e-37
6.113501581990117410e-37
