# bin_13_4
1.686766481812765529e-33
1.858357984967703064e-33
2.002036274132138967e-33
2.096678663985686601e-33
2.120977002118812215e-33
2.050997637694509744e-33
1.872237811929334872e-33
1.616246652857794757e-33
1.330766774055055945e-33
1.094365840792128309e-33
9.396936255887797114e-34
7.963967463540625802e-34
5.852830661720209044e-34
4.170690844160186855e-34
3.386206224749636633e-34
2.266018114291110947e-34
1.728615015998186834e-34
1.208672052583703343e-34
8.533411147064794118e-35
6.125197048068270516e-35
4.426304608682775855e-35
3.244429317618550820e-35
2.417993611072250813e-35
1.836900371370745840e-35
1.416745413365641841e-35
1.103617296118073507e-35
8.628159202341861671e-36
6.720599668530351958e-36
5.181141476097389351e-36
3.930929065714367497e-36
2.922062720004609235e-36
