# bin_11_8
6.802811582373560147e-13
7.512813353810945370e-13
8.117620989525321299e-13
8.532998335096882135e-13
8.667898480682855794e-13
8.434398080605405160e-13
7.751709110805812319e-13
6.737652819503860709e-13
5.567342495258030844e-13
4.566114152793090036e-13
3.902503866538735483e-13
3.335610305954883764e-13
2.498035074631151573e-13
1.753510230861878415e-13
1.428232392965832206e-13
9.647142242099316720e-14
7.342543759025495221e-14
5.075798598927665970e-14
3.594785946677999249e-14
2.576436386541056554e-14
1.857340869894924205e-14
1.354879518935473591e-14
1.004072504138584507e-14
7.587410602229734139e-15
5.826853058260405362e-15
4.525680433081392194e-15
3.533759480997329776e-15
2.753679302472423727e-15
2.127007766211274061e-15
1.618892224423505536e-15
1.208490551481744398e-15
