# bin_10_8
1.372794352243722178e-11
1.511857314799134745e-11
1.627962511617895583e-11
1.703885510238958419e-11
1.722462052485093348e-11
1.663949153282001030e-11
1.517341892769424314e-11
1.308485152719496738e-11
1.076873995755862294e-11
8.860534361551241714e-12
7.612949551434337576e-12
6.441534603618467408e-12
4.720911821905492053e-12
3.374382521795767920e-12
2.734740846027773487e-12
1.830540758915599849e-12
1.394833777226790185e-12
9.771393474756053628e-13
6.899949050934653664e-13
4.952851853113320521e-13
3.580334946237105696e-13
2.626294097712342305e-13
1.958998827815340781e-13
1.489363248567906138e-13
1.149400013647876917e-13
8.957124128174513167e-14
7.003677503606512138e-14
5.454614029140211904e-14
4.203709479636367546e-14
3.187676825313859218e-14
2.367957213482179192e-14
