# bin_19_8
8.245395831549225812e-35
9.267310275879562904e-35
1.023125710269833522e-34
1.104675027971766563e-34
1.159779742456942719e-34
1.176266260689814660e-34
1.141539291699672762e-34
1.045803660646818064e-34
9.060368484820587052e-35
7.472905119912356802e-35
6.137668859716804897e-35
5.262300488338938591e-35
4.482250305159756007e-35
3.318529085290847277e-35
2.338912638248997689e-35
1.905354142433820366e-35
1.264492126088504579e-35
9.614407473167860287e-36
6.594589667873620717e-36
4.568512876163320792e-36
3.208301474054745010e-36
2.253731320558917463e-36
1.595918511266252924e-36
1.144892002902170875e-36
8.378394477000381412e-37
6.250079139514871873e-37
4.743782895971846211e-37
3.648695774125456536e-37
2.824910125348705756e-37
2.185501155924588426e-37
1.677568817122412723e-37
