# bin_6_1
1.913536666612438220e-20
1.997958186112844325e-20
2.015260873197760594e-20
1.942016756017030038e-20
1.767429724806682810e-20
1.521516936984704122e-20
1.251669561396004674e-20
1.030549386012333444e-20
8.846702585976285218e-21
7.458560396464839394e-21
5.473968680615042339e-21
3.950498070084848280e-21
3.185015224043221039e-21
2.179646988640785046e-21
1.663876225701396614e-21
1.191929499453278793e-21
8.668086164772322661e-22
6.419684603269396351e-22
4.822342505667264646e-22
3.688169499566591259e-22
2.868277541962928304e-22
2.261944207429548956e-22
1.796406998935014865e-22
1.426510016471659002e-22
1.124680590510775939e-22
8.744788018231361302e-23
6.667496932300213347e-23
4.962363929219611656e-23
3.594284418109793649e-23
2.531654680431715432e-23
1.736191547940643282e-23
