# bin_15_15
1.007087316436413109e-10
1.133923603804076467e-10
1.254547092154819339e-10
1.358113817798299604e-10
1.430573206552166898e-10
1.456265373563110246e-10
1.421122497648025997e-10
1.309946620986966004e-10
1.141852467789284832e-10
9.449697723890315390e-11
7.744881361928053470e-11
6.611272768015990442e-11
5.670806017347624879e-11
4.271565959799575828e-11
2.975800146293327004e-11
2.424182561937793591e-11
1.629281988773937587e-11
1.232766506924178543e-11
8.366377569142242494e-12
5.822747669912920289e-12
4.083026008492491223e-12
2.862889144583387943e-12
2.017544605128644333e-12
1.438216688368250262e-12
1.045305813851899809e-12
7.746679068502792483e-13
5.846277854951517259e-13
4.478502425353433755e-13
3.460334992872204672e-13
2.677289830407093362e-13
2.059100819639205071e-13
