# bin_14_14
1.075536684354211057e-10
1.207742077513062742e-10
1.331905965186401915e-10
1.436122422816789843e-10
1.505197470839679604e-10
1.523706745887375301e-10
1.474487401790726489e-10
1.346722751452855247e-10
1.163146060288880096e-10
9.579264731555628114e-11
7.878599566199207723e-11
6.768566301315462572e-11
5.740585298655450459e-11
4.213984650904519538e-11
2.993952778461437043e-11
2.430666768025216809e-11
1.610010560508182371e-11
1.222494256256202125e-11
8.432779751379527839e-12
5.840916971579284632e-12
4.101784688740392666e-12
2.883074196815443250e-12
2.046508648406419949e-12
1.472828713365057608e-12
1.081393810752845386e-12
8.091981153838033906e-13
6.157828224644140893e-13
4.744645721402240670e-13
3.676214899023042591e-13
2.843414861891428196e-13
2.180112120205594882e-13
