# bin_20_8
1.696244898160276826e-38
1.909821266993712389e-38
2.112910273024016067e-38
2.287241137257307374e-38
2.409145501741647191e-38
2.452261421626083530e-38
2.392872212433144055e-38
2.205439553424541296e-38
1.922235327572832640e-38
1.590681553977354717e-38
1.303732214658349479e-38
1.113004586766025648e-38
9.546068006173088159e-39
7.188387607039884280e-39
5.008253351988373306e-39
4.080574212506694965e-39
2.741244964126380118e-39
2.074762558437098758e-39
1.408237948149148089e-39
9.798494888744614191e-40
6.871517194413236969e-40
4.818491391109875263e-40
3.395920860929682926e-40
2.420995497563271520e-40
1.759764041424999586e-40
1.304267401486755519e-40
9.843873329723005922e-41
7.541283993313137937e-41
5.826988307012573425e-41
4.508390200508943039e-41
3.467299411310024214e-41
