# bin_18_17
6.059437514206958174e-11
6.860814920667202648e-11
7.641904457178235274e-11
8.341458070643026680e-11
8.877404800216389623e-11
9.148132902316418669e-11
9.078591400542875801e-11
8.540773793545495968e-11
7.589600888439296059e-11
6.375113659338388934e-11
5.212602984317356204e-11
4.376262515122141389e-11
3.792275439447128984e-11
3.026987591644458839e-11
2.092603642726863120e-11
1.637360087037540700e-11
1.200201246488417068e-11
8.469319524535327891e-12
5.828503077087990681e-12
4.170586230638280498e-12
2.875573830461259885e-12
1.974487444073794297e-12
1.368841043460445031e-12
9.570403449410087408e-13
6.792067093715209437e-13
4.913554693255261058e-13
3.625485299759920770e-13
2.727486046013203679e-13
2.083205849464568719e-13
1.605275313978093976e-13
1.238647430107587752e-13
