# bin_13_12
7.340634092563218100e-11
8.205362915089888676e-11
8.998532597521059333e-11
9.635670490943030971e-11
1.001052474386638891e-10
1.003292708950504032e-10
9.568147014586625205e-11
8.612426211522492844e-11
7.327317768002454957e-11
6.001921257915223842e-11
4.981269794964560038e-11
4.310535161864817178e-11
3.559558590117631530e-11
2.517512682216304936e-11
1.878930724550430211e-11
1.464837321588808489e-11
9.910079321586766158e-12
7.273342610964371180e-12
5.166279598952574720e-12
3.602982832520574342e-12
2.529454585830084421e-12
1.792153035386324454e-12
1.288464622443496524e-12
9.418891259906596916e-13
7.022891674436941564e-13
5.328509390942221375e-13
4.099737940435549467e-13
3.179909791918711395e-13
2.468486221411977833e-13
1.904147400354646855e-13
1.450430088825508172e-13
