# bin_11_11
1.366903021240892427e-10
1.519415597233600843e-10
1.654914032109524893e-10
1.757018924497912759e-10
1.805716753293297283e-10
1.786109485580251358e-10
1.673759952142015890e-10
1.482068297009162446e-10
1.241109552203507180e-10
1.014552364417479809e-10
8.538316919587023690e-11
7.390098897360966241e-11
5.844870450404240673e-11
4.043483493976717857e-11
3.197043336137527170e-11
2.318973081257759387e-11
1.670443209324368947e-11
1.155703215155910551e-11
8.371120935290011414e-12
5.914946463942560107e-12
4.194119291924320806e-12
3.017028959042618821e-12
2.201713274304882921e-12
1.637044531051116630e-12
1.239878557492448038e-12
9.530779970342520275e-13
7.399589512765090281e-13
5.762453561741455976e-13
4.468909163764382533e-13
3.428488491809401268e-13
2.588016253001399376e-13
