# bin_19_10
7.704114199845783553e-26
8.674819361837656673e-26
9.598177435917859633e-26
1.039127681029875587e-25
1.094665674154190094e-25
1.114434639383981783e-25
1.087702104778803800e-25
1.002772338637427412e-25
8.742364602094709168e-26
7.235595103349014687e-26
5.929889693935736116e-26
5.061370376104004619e-26
4.342201059418945558e-26
3.272235670663476276e-26
2.278910111976762256e-26
1.856495017707365493e-26
1.248112916611534337e-26
9.442700201518813692e-27
6.406548214426024907e-27
4.459155199664380160e-27
3.126751771260769559e-27
2.192287832588323417e-27
1.544738594343047117e-27
1.100969415034044646e-27
8.000303967137390616e-28
5.927798623251262927e-28
4.472829675993442247e-28
3.425951314700194125e-28
2.646899600162982133e-28
2.047917143043769320e-28
1.575130239104884258e-28
