# bin_19_18
5.885354027296450705e-11
6.675775858206025155e-11
7.452570835508386433e-11
8.157284859676410066e-11
8.711363588789866311e-11
9.016356228046091480e-11
8.995709558263341649e-11
8.522564224956056275e-11
7.623397168662736516e-11
6.443658105400159109e-11
5.272160716288199259e-11
4.400900694309537031e-11
3.814503317609506283e-11
3.100603452017280891e-11
2.161172759528487570e-11
1.651412474157375771e-11
1.248574392843073635e-11
8.570742867312429697e-12
6.059897770078020482e-12
4.306963904129575905e-12
2.954991430574823853e-12
2.019742055616278889e-12
1.390922180976888773e-12
9.659810650849845467e-13
6.795866461209173525e-13
4.870760169989259976e-13
3.560580528321039849e-13
2.656550800716356164e-13
2.016527941440166364e-13
1.548574226688050154e-13
1.194306998382519117e-13
