# bin_12_7
5.431522746036996710e-17
6.001108702386923437e-17
6.487817543735994443e-17
6.824539293604094590e-17
6.937775294034754685e-17
6.758712101704449895e-17
6.219385569568006538e-17
5.412505074812703851e-17
4.475232117919201264e-17
3.668605311108054316e-17
3.132780324244350077e-17
2.681867241628921076e-17
2.015234213303886922e-17
1.410739437584296297e-17
1.149755000537835747e-17
7.778194120945037631e-18
5.918163777946345321e-18
4.082839709209782728e-18
2.892788329218115148e-18
2.072882918959947676e-18
1.493786798641365653e-18
1.088731869708760615e-18
8.060043318793304276e-19
6.084761112404270134e-19
4.669168969438179883e-19
3.624537448392248152e-19
2.829461528854721792e-19
2.205029274031244521e-19
1.703825481687856638e-19
1.297563409624224386e-19
9.693725915892583545e-20
