# bin_10_1
4.832157005585616802e-40
5.214048997299596100e-40
5.473414850549513549e-40
5.552806348978290893e-40
5.394644749028957838e-40
4.950562591783460759e-40
4.296906108057544902e-40
3.548080635989118202e-40
2.910692452776628936e-40
2.488020177486971952e-40
2.122507954616782856e-40
1.587341783070554441e-40
1.119999822037279963e-40
9.116805105089230617e-41
6.207644444334767135e-41
4.741226926107515820e-41
3.324198599086406865e-41
2.389920915164809824e-41
1.742760790035629130e-41
1.283479708444783887e-41
9.596633868914968332e-42
7.297791192197207957e-42
5.646882406457880230e-42
4.422154200698667191e-42
3.482511443427600877e-42
2.739216459197156486e-42
2.136759234328696173e-42
1.642858110638113845e-42
1.238463456425279684e-42
9.116315381718251888e-43
6.535284246301252005e-43
