# bin_13_5
4.430157035725930584e-23
4.891331014591069145e-23
5.283150120517553489e-23
5.550511469115296137e-23
5.634611202360526132e-23
5.476778343621198894e-23
5.026943158847135474e-23
4.363690088266169382e-23
3.603359228909334339e-23
2.957521021826893417e-23
2.531358999037091840e-23
2.160766046922246441e-23
1.611349389657832193e-23
1.134258148301093697e-23
9.248398334337688684e-24
6.222235950884667159e-24
4.748459579276399916e-24
3.291458783536752549e-24
2.327945936565106333e-24
1.670372010522894073e-24
1.205631028046568908e-24
8.808483432884217697e-25
6.539169561821717295e-25
4.949688524023960570e-25
3.806492712463154093e-25
2.959507516359134726e-25
2.312164945037586610e-25
1.801951383354999982e-25
1.391464675753551529e-25
1.058400170844030963e-25
7.893725298855442359e-26
