# bin_17_11
1.020909377029142888e-12
1.147513002310170391e-12
1.266896647913862075e-12
1.367815422458418609e-12
1.435859060298712009e-12
1.456011542258127718e-12
1.412430242994445443e-12
1.293366275080222425e-12
1.119973247621206254e-12
9.236557036755151203e-13
7.590834873760176487e-13
6.513295333426358292e-13
5.543522849819596897e-13
4.096612851396316699e-13
2.893615322462841848e-13
2.356188953593078286e-13
1.563124827167963157e-13
1.188619007309485654e-13
8.167194504563367608e-14
5.659482487684582880e-14
3.976099503364754602e-14
2.794699252016856587e-14
1.981125124188195863e-14
1.423069390346219159e-14
1.042772174071545843e-14
7.788258175339026778e-15
5.917272944611337176e-15
4.554543564609051775e-15
3.527556175893007084e-15
2.729220143512474352e-15
2.094423557038810588e-15
