# bin_17_17
8.528895641678862553e-06
9.650350948654313799e-06
1.073944523065207815e-05
1.170896856257195998e-05
1.244239887701385717e-05
1.279685060722586590e-05
1.266677823576321007e-05
1.187647402391343358e-05
1.052096482776654040e-05
8.813170199284628227e-06
7.207586444323187737e-06
6.070993412217770700e-06
5.259000883788078490e-06
4.156340279707848936e-06
2.868461192863374735e-06
2.269734375601820639e-06
1.636173076014070336e-06
1.173163132811832942e-06
7.989847218212251746e-07
5.713647212627678067e-07
3.952468548264855875e-07
2.725709206050351713e-07
1.896732609484814189e-07
1.331445402181436917e-07
9.497297304494503145e-08
6.906846708465257212e-08
5.122256771285654168e-08
3.870272179156030255e-08
2.965132424492112452e-08
2.288370844593315544e-08
1.765674821767806037e-08
