# bin_20_8
1.450328617204738566e-33
1.633477727611676943e-33
1.807788786042654576e-33
1.957624693095209839e-33
2.062706142875386679e-33
2.100397950495533854e-33
2.050362176385502518e-33
1.890552753979064190e-33
1.648467249980685705e-33
1.364629576162398675e-33
1.118730555765268564e-33
9.552321268758740717e-34
8.196090505469526021e-34
6.175756470685822203e-34
4.303111532420816294e-34
3.506626495772875285e-34
2.357310304314629903e-34
1.784297172342839794e-34
1.211285212056510898e-34
8.432811677704759266e-35
5.915973772396098642e-35
4.150172608873453996e-35
2.926170451522020089e-35
2.087014208906807479e-35
1.517633425447674592e-35
1.125242155612705160e-35
8.495468190805473260e-36
6.509961738113754755e-36
5.031055349642540827e-36
3.893078262954006511e-36
2.994345718467921401e-36
