# bin_14_4
3.796071753291696641e-33
4.197908854089801960e-33
4.543074356310941606e-33
4.784706876068493608e-33
4.870616371830530375e-33
4.753665686659823531e-33
4.383264752170686007e-33
3.822281016327211994e-33
3.164502390067106661e-33
2.593483352353987675e-33
2.212410720051063368e-33
1.897801892670653448e-33
1.433408503753553916e-33
1.000918576905945417e-33
8.153133817843643118e-34
5.541971430231479091e-34
4.207410946350223239e-34
2.896474030036296098e-34
2.056573275295598524e-34
1.473101989149725677e-34
1.061088415890948081e-34
7.727513098372683085e-35
5.715071503517811899e-35
4.310138056239273534e-35
3.304696970070631862e-35
2.563935714266316754e-35
2.001142209831473950e-35
1.559823250535637441e-35
1.205941771473867640e-35
9.191793377963497075e-36
6.874468065080428807e-36
