# bin_10_4
7.263000184413413682e-17
7.908934615373121268e-17
8.396935242170082687e-17
8.631829299009879686e-17
8.541964561987987889e-17
8.010983137433299829e-17
7.099500735739981463e-17
5.950790958985438922e-17
4.865260033777125713e-17
4.090481309674673609e-17
3.539299289714592538e-17
2.808863949160393008e-17
1.951108161283051942e-17
1.538658478672643207e-17
1.127714663967483163e-17
8.138662304255535796e-18
5.726949413420624809e-18
4.194165736870661081e-18
3.015559212028633517e-18
2.185982008273403390e-18
1.612360926931442183e-18
1.209386849210149205e-18
9.236937767380173639e-19
7.163717829119072448e-19
5.609530872074894164e-19
4.406844543130521599e-19
3.448669271153779415e-19
2.670359236618424794e-19
2.034161224661068507e-19
1.517310211701029552e-19
1.104286995014641660e-19
