# bin_9_8
5.767479983102754590e-06
6.334362223166412058e-06
6.797258991029560728e-06
7.082534271698439513e-06
7.123408007763462336e-06
6.829214773194693800e-06
6.179573332936811156e-06
5.286809047014090639e-06
4.338294046687331910e-06
3.587129712937784191e-06
3.096186163232463948e-06
2.584653807598719143e-06
1.855994940690866500e-06
1.361477745874051245e-06
1.083347233636141216e-06
7.310233168997673678e-07
5.495216860521701238e-07
3.909343738455059073e-07
2.769005182002739765e-07
1.989029922627736434e-07
1.443742268720437048e-07
1.065829254434959706e-07
8.007165401759194075e-08
6.125996923914434792e-08
4.750870438931724415e-08
3.713881767507113449e-08
2.906972885121785007e-08
2.261905799254855939e-08
1.738539906213271678e-08
1.312946640856908103e-08
9.701472561983148385e-09
