# bin_17_15
1.732522502016106572e-06
1.956226507817020581e-06
2.171490973849787982e-06
2.360172935328444698e-06
2.498325898990051497e-06
2.557529173867333280e-06
2.515669091624907991e-06
2.340497675023985442e-06
2.058476796596278973e-06
1.714092191161672304e-06
1.402648170374677569e-06
1.189134597524559465e-06
1.027133596797621685e-06
7.939038378390675329e-07
5.483814143562016388e-07
4.418649623560116147e-07
3.072910935546858138e-07
2.272743933385543279e-07
1.531604379671830091e-07
1.083367518653545703e-07
7.547663548430123306e-08
5.254446892098250441e-08
3.679348299168343588e-08
2.601548675319430071e-08
1.872769801725517653e-08
1.374767053142010412e-08
1.028613250603811520e-08
7.828326778349476191e-09
6.026031456204836220e-09
4.659285322518374725e-09
3.591446410208085528e-09
