# bin_6_3
6.872792014863886794e-09
7.281714819477008481e-09
7.469798478731408354e-09
7.372795926498560061e-09
6.895485316461966101e-09
6.096123549679299730e-09
5.101857251345678050e-09
4.172807166851335131e-09
3.513061618344059320e-09
3.032698427227270235e-09
2.393668962657046388e-09
1.671958220300184894e-09
1.321692227900788094e-09
9.663146673592048690e-10
7.046033617690854920e-10
5.021192043951657366e-10
3.696316215336309825e-10
2.700170912146626451e-10
1.996318682723958543e-10
1.503229274529669410e-10
1.152048645114758907e-10
8.976058358742354239e-11
7.075698167575986862e-11
5.604820203512373566e-11
4.430166369998616955e-11
3.469880712190677992e-11
2.676040747956656369e-11
2.021410229972834890e-11
1.489493148049836391e-11
1.067941432179101350e-11
7.448769118405766518e-12
