# bin_11_6
1.272817267541830480e-12
1.399140432387103418e-12
1.503009464793151016e-12
1.568250329972431556e-12
1.579773783508915349e-12
1.517958112700739172e-12
1.376620834328200300e-12
1.180447296951251914e-12
9.693987551023214112e-13
8.003898603365122449e-13
6.901601746621337365e-13
5.785759580554783308e-13
4.176938068408279257e-13
3.040813268598052529e-13
2.435482824837055268e-13
1.636986451365450166e-13
1.237281848817750557e-13
8.764222900703063331e-14
6.200846721207286980e-14
4.453705214214887860e-14
3.228594310628980456e-14
2.379482599108539932e-14
1.784345071403629038e-14
1.362984499820798305e-14
1.055768957442518690e-14
8.247349171312062200e-15
6.454463313069648451e-15
5.024054929370490536e-15
3.864782485373976872e-15
2.922213844314754699e-15
2.162548282863463639e-15
