# bin_17_6
2.158141328092436298e-33
2.412131784283620719e-33
2.644807118951372824e-33
2.831212551381336225e-33
2.939956813311798029e-33
2.944794706415530575e-33
2.805678267031358702e-33
2.523155963939725528e-33
2.144621645963160792e-33
1.756652475881950428e-33
1.459649204847457566e-33
1.263863163054774595e-33
1.041215014582386618e-33
7.347105467500891079e-34
5.508799760065994598e-34
4.276527085114904293e-34
2.903851448088467541e-34
2.122692627869288312e-34
1.512202536312985510e-34
1.055884136030749094e-34
7.416985814661245141e-35
5.262873391919021179e-35
3.789828691247447416e-35
2.775342917180455465e-35
2.072821243477862235e-35
1.575013110239692734e-35
1.213153485447561429e-35
9.415812413292366219e-36
7.310668699282386522e-36
5.638068142173512213e-36
4.292263687929400021e-36
