# bin_7_1
5.486449897856265350e-20
5.787596994610586164e-20
5.906095344852432796e-20
5.788210692237617484e-20
5.366563880517796367e-20
4.705377605853965203e-20
3.911882650446552786e-20
3.201532317004239492e-20
2.714264851544656216e-20
2.334813084701131764e-20
1.799960679838564408e-20
1.258032301282461838e-20
1.013793308808487396e-20
7.171222601307305111e-21
5.375410771676149329e-21
3.789867625854273212e-21
2.782195439232149665e-21
2.045503735736101578e-21
1.522140172107941511e-21
1.152465061602879783e-21
8.875918541692144507e-22
6.946026840695924614e-22
5.491549532344142252e-22
4.355773080840808518e-22
3.441794658459514871e-22
2.690574990727166868e-22
2.068154902347139440e-22
1.555176321439539268e-22
1.139737071603299163e-22
8.124333151547299136e-23
5.634442761442103470e-23
