# bin_16_15
5.690515588612919169e-06
6.417422508802903881e-06
7.113195517015302152e-06
7.717387404669442803e-06
8.150894831358523377e-06
8.322281099757641401e-06
8.155997447162470322e-06
7.554696131077274292e-06
6.616655414324475397e-06
5.492993424332466825e-06
4.498310184483497712e-06
3.827354180667849267e-06
3.296721453069295262e-06
2.516271841175558352e-06
1.743767041204539732e-06
1.414752642399730453e-06
9.659729016301685858e-07
7.241593416821452644e-07
4.888405202038028063e-07
3.428230003093510688e-07
2.397930378569092559e-07
1.676976541109233182e-07
1.178261999077382563e-07
8.366093127951222858e-08
6.052695140011555152e-08
4.465406161940040670e-08
3.356349791276694288e-08
2.563414946713131608e-08
1.977429966122737140e-08
1.529769170813742408e-08
1.178049880998837013e-08
