# bin_16_1
7.513394334457780301e-70
8.337482752637743511e-70
9.061416537986658286e-70
9.593991729174627233e-70
9.826419389460320076e-70
9.674649480542344970e-70
9.013434438620018485e-70
7.938006469616047506e-70
6.617697656358126445e-70
5.413033720405057543e-70
4.579839331420957413e-70
3.956789899578339334e-70
3.076830731312758421e-70
2.129047055670584425e-70
1.709361768020049119e-70
1.207090989706184725e-70
8.908338552800925347e-71
6.106730289968661549e-71
4.400104235678502784e-71
3.126986563375217956e-71
2.232609993581920728e-71
1.614052186397247834e-71
1.183935065094432316e-71
8.852835349639118468e-72
6.738424528693009106e-72
5.199837932710242145e-72
4.046694302793693476e-72
3.153539983943551733e-72
2.443477477573912954e-72
1.870418424287108193e-72
1.407229688087127345e-72
