# bin_15_2
3.648836103293249936e-54
4.038628050333737216e-54
4.375416362052612339e-54
4.614344100556101581e-54
4.704412314740096359e-54
4.601757611595138891e-54
4.254166048242459471e-54
3.719062548742804206e-54
3.083974102875320848e-54
2.525850382244098218e-54
2.150457611236579062e-54
1.848831773796366719e-54
1.406555959114591285e-54
9.789013872315111321e-55
7.956006866470360294e-55
5.451407799732932898e-55
4.117363767467609321e-55
2.826372165477743713e-55
2.013401928456455816e-55
1.439946239704179813e-55
1.035472842144769677e-55
7.527288642949811572e-56
5.555348283601950933e-56
4.180898092632224812e-56
3.199975052616102128e-56
2.479537052586091636e-56
1.934033064623393895e-56
1.507544228196027269e-56
1.166239896852688966e-56
8.899090246248355316e-57
6.665712824360745912e-57
