# bin_18_3
8.643463266936430020e-61
9.659778593670804709e-61
1.059031800724259653e-60
1.133505862489977715e-60
1.176820517104262833e-60
1.178499370898775554e-60
1.122483922488725893e-60
1.009167229480065642e-60
8.575184411193980795e-61
7.023495473509699058e-61
5.837354471149649313e-61
5.054635526140377411e-61
4.161416254163177996e-61
2.934807480213174274e-61
2.202780411854011316e-61
1.708094044620916891e-61
1.160882989494384937e-61
8.476623845278753707e-62
6.042272636654869800e-62
4.219811538744416989e-62
2.964359586100974577e-62
2.103959642719709913e-62
1.515468765838986359e-62
1.110126303020711107e-62
8.293520868778810146e-63
6.303258142171014454e-63
4.855928845421719105e-63
3.769224768226834938e-63
2.926511731045433252e-63
2.256767776362074765e-63
1.717819813871245771e-63
