# bin_19_2
8.930684745208758754e-76
1.000051798284900707e-75
1.099045828429587815e-75
1.179882308810923173e-75
1.229719701172867440e-75
1.236941661745379614e-75
1.185613517156724126e-75
1.072404839879802767e-75
9.170108970436428924e-76
7.523594785080369010e-76
6.225394054897110127e-76
5.379683000836405399e-76
4.486188852156359632e-76
3.207434117003838162e-76
2.355348948975184201e-76
1.866650005108207363e-76
1.249180585398796597e-76
9.310189774931091993e-77
6.550580201280672793e-77
4.557092108546716351e-77
3.200089510482577547e-77
2.260376593804372189e-77
1.619073712890875515e-77
1.178367298011844837e-77
8.748808815414100223e-78
6.613285919196369182e-78
5.073860024921550164e-78
3.929522753410773670e-78
3.050026831284147477e-78
2.355566109837142690e-78
1.798412503321948833e-78
