# bin_3_19
5.175962723367319714e-07
5.329295257270010389e-07
5.285459348569021242e-07
4.979767327721684896e-07
4.434965951849519774e-07
3.740576161811147919e-07
3.064264974225426207e-07
2.561974952044522568e-07
2.205498383778154670e-07
1.774909061739182980e-07
1.261584497508361017e-07
9.681509405257221878e-08
7.329563348499881222e-08
5.234947368197918370e-08
3.844319629644749442e-08
2.821283452152094437e-08
2.073235999931325041e-08
1.548157043017392215e-08
1.177173134184760800e-08
9.113691669266454149e-09
7.165076288346097499e-09
5.691092654246349104e-09
4.533723113539464827e-09
3.596309772457800484e-09
2.821047871948071261e-09
2.174755716571728450e-09
1.639246611017220494e-09
1.203832727527380887e-09
8.597755840412266167e-10
5.975265563379216908e-10
4.049633916424714557e-10
