# bin_20_4
4.175545848622263230e-67
4.688074797174997226e-67
5.169062583719872231e-67
5.572219176411763236e-67
5.838515188839683974e-67
5.908370323228282721e-67
5.714669748716946597e-67
5.216751519480097675e-67
4.503231932595445194e-67
3.707773046795255604e-67
3.050272630523868559e-67
2.621410308500601350e-67
2.221577666403556442e-67
1.628374404735328535e-67
1.158634681790487511e-67
9.399680657231795740e-68
6.225052257399437854e-68
4.725010839351473639e-68
3.262505510340127309e-68
2.259851645814108495e-68
1.586972916457794228e-68
1.115590671390067204e-68
7.922322057493307306e-69
5.704795877967081653e-69
4.191098909253854535e-69
3.137895350560926055e-69
2.388977122987670929e-69
1.841293607114361259e-69
1.426850350329282668e-69
1.103568507726228884e-69
8.459649006459723189e-70
