# bin_15_9
2.594357771380876194e-18
2.896117793707920963e-18
3.170895142562139630e-18
3.388514174964024177e-18
3.511129483884392140e-18
3.508332137130338753e-18
3.331638332596825451e-18
2.986902751672048926e-18
2.530789627964051932e-18
2.071176340827253539e-18
1.724449086988209137e-18
1.493508261990092000e-18
1.221976626288807646e-18
8.573502806058866102e-19
6.493409105708800636e-19
4.982917765084543613e-19
3.413147335405857683e-19
2.467166240181591102e-19
1.767241629949448299e-19
1.235972755133164349e-19
8.684235054531008175e-20
6.175232439877001266e-20
4.456502326591402693e-20
3.271843995441223997e-20
2.449534924687903490e-20
1.865091281458643556e-20
1.438718330980412390e-20
1.117420316066077029e-20
8.674766999035691908e-21
6.684055867542731414e-21
5.080794868742934850e-21
