# bin_1_20
8.369126770808715468e-07
8.077239491745198766e-07
7.382346941811697010e-07
6.388631242754101103e-07
5.291103436750482853e-07
4.363481238039125449e-07
3.712669654244424566e-07
3.116674972103866361e-07
2.350162174692688636e-07
1.707294710089363110e-07
1.338866386842947009e-07
9.646787883140841353e-08
7.177592857214883609e-08
5.247882199426282660e-08
3.905828561445436227e-08
2.942629794742694860e-08
2.257123088871805375e-08
1.763964836259644272e-08
1.399753273306634376e-08
1.121900936448326904e-08
9.015053145064154946e-09
7.207826235525202816e-09
5.694040471291188963e-09
4.416892595537422259e-09
3.347514047997510924e-09
2.470399596962918231e-09
1.772951970061273457e-09
1.238213338403833410e-09
8.434617924083712118e-10
5.621511795888842576e-10
3.678066617694605173e-10
