# bin_1_9
6.677876574719958721e-07
6.439863707263975611e-07
5.880807006957056480e-07
5.085068854769141403e-07
4.209734354656167739e-07
3.472800788976051968e-07
2.956003053907634247e-07
2.478889035220245749e-07
1.865935267953338257e-07
1.357047959378860526e-07
1.064030759390711873e-07
7.660265345066984820e-08
5.702707980540778326e-08
4.169949612259013976e-08
3.104098331661763115e-08
2.339601446169170694e-08
1.795380058852119061e-08
1.403695135631205687e-08
1.114241158931409898e-08
8.932475739375363451e-09
7.178092058571595618e-09
5.738584283285722164e-09
4.532336620937315496e-09
3.514543695052340436e-09
2.662481174368811204e-09
1.963912305666279430e-09
1.408767197155309974e-09
9.834205744938614996e-10
6.696290156154660601e-10
4.461437741110757167e-10
2.918241440418693959e-10
