# bin_6_3
4.938217589121742880e-13
5.219314400698841619e-13
5.338836158488353667e-13
5.249754351082083112e-13
4.887702463665574498e-13
4.302579859367946699e-13
3.588249561398295422e-13
2.934920813042243391e-13
2.478634042412407674e-13
2.135528899087483379e-13
1.666221384555855068e-13
1.163764395916910881e-13
9.282843820266558396e-14
6.679555091574505104e-14
4.933174845854171849e-14
3.495626693702622483e-14
2.569866534825920091e-14
1.882339984254665656e-14
1.395378181751698988e-14
1.053092739371263244e-14
8.086887194745200748e-15
6.312040913189647589e-15
4.981288800299233431e-15
3.947356086602797555e-15
3.118966353919364434e-15
2.440247039210927584e-15
1.878741918502348247e-15
1.415963640099372387e-15
1.040615011537810820e-15
7.440249659813592384e-16
5.175382968985116398e-16
