# bin_6_9
1.175117992908232426e-07
1.263999621142968141e-07
1.321621528067564624e-07
1.334835760337150644e-07
1.288443597038018108e-07
1.174662324688019609e-07
1.012858364561097441e-07
8.341462307972309015e-08
6.867226123471911783e-08
5.890693288679967919e-08
4.972630801962861572e-08
3.660419851156934525e-08
2.631091783412205401e-08
2.116302372542228267e-08
1.445464633486526327e-08
1.095593151830379996e-08
7.767110867431326701e-09
5.588780616088352715e-09
4.078580008262474486e-09
3.011417865883713683e-09
2.260801126354273992e-09
1.726577001858859631e-09
1.340582029579183736e-09
1.052224071478195171e-09
8.294485817040607665e-10
6.521500416858372458e-10
5.078647072982023342e-10
3.893895993666090520e-10
2.924592648427096675e-10
2.143385472906369146e-10
1.529405159276695222e-10
