# bin_8_9
3.372528118030421043e-08
3.683095751901814496e-08
3.924781131271959882e-08
4.053699903735684359e-08
4.035296513915984645e-08
3.814581686594966507e-08
3.405828198106009535e-08
2.875094195035723385e-08
2.351942040378897561e-08
1.963884347111605352e-08
1.699097296988937938e-08
1.376175626870411898e-08
9.646762759698563578e-09
7.405058441737738287e-09
5.611624148784249003e-09
3.931161156759015056e-09
2.836358150127714355e-09
2.060491930044796277e-09
1.471687347577348143e-09
1.061066281079583724e-09
7.773433028512118967e-10
5.794021229542574823e-10
4.397048410527218949e-10
3.392477142998409296e-10
2.646886703585849286e-10
2.075681434097426573e-10
1.624611975566002828e-10
1.260326043256633407e-10
9.633280683856566425e-11
7.219339469978410253e-11
5.284400459820786154e-11
