# bin_18_8
1.826350309248941329e-31
2.048564045660554549e-31
2.256111114882563822e-31
2.428570593281179023e-31
2.540008737878677269e-31
2.565163073045988175e-31
2.473490611929687998e-31
2.250813590696033531e-31
1.936667803939129992e-31
1.592300224663816130e-31
1.312118210004300184e-31
1.129862744755701482e-31
9.527529884109714862e-32
6.922178855094674941e-32
4.973603733854929654e-32
4.010778230009410643e-32
2.658719659865777561e-32
2.010067870644745830e-32
1.396201241625778990e-32
9.678746015519339920e-33
6.795488662492116641e-33
4.781338284899539397e-33
3.404219849136617640e-33
2.459558416659425502e-33
1.813056791562855579e-33
1.361680095130346120e-33
1.039350801106467756e-33
8.024015685502865293e-34
6.221825174353744938e-34
4.810230211230065003e-34
3.682678313638017669e-34
