# bin_3_17
4.977281613256206376e-07
5.124472704152129132e-07
5.082000004668711779e-07
4.787684684386822211e-07
4.263561929507552729e-07
3.595756809954310488e-07
2.945607000575758570e-07
2.462912100899727519e-07
2.120204710239779178e-07
1.705952254798475748e-07
1.212477622425118707e-07
9.306558025676177838e-08
7.043993098040828869e-08
5.031863421240857739e-08
3.694727956267441092e-08
2.711662724170039897e-08
1.992765708967275234e-08
1.488124226762662461e-08
1.131578423498814436e-08
8.761078825597375509e-09
6.888113824369095789e-09
5.471234872480021395e-09
4.358614017766998873e-09
3.457385048494283818e-09
2.712015583553910019e-09
2.090633513074952492e-09
1.575770701421801509e-09
1.157159846590293807e-09
8.263993558271436801e-10
5.743027141790224862e-10
3.892071027753319884e-10
