# bin_10_12
4.346845141901014323e-08
4.805628485598426722e-08
5.199318089575155491e-08
5.474359595225184681e-08
5.571432222027012570e-08
5.436342354316427239e-08
5.012477792548334441e-08
4.370532032960162549e-08
3.618925434324334872e-08
2.965846635373221134e-08
2.528382665821348505e-08
2.166870302850358674e-08
1.637975767676899872e-08
1.145311794144411401e-08
9.296689344386907747e-09
6.348361655184324188e-09
4.795937587669821153e-09
3.306034412420000021e-09
2.351374532656455418e-09
1.681736862139569757e-09
1.209583776825009659e-09
8.803372194419115854e-10
6.506982294822989956e-10
4.904157609588943195e-10
3.757916397548970452e-10
2.914088884755396810e-10
2.273529904214495587e-10
1.771647066938378582e-10
1.369477302168475925e-10
1.043753796119212891e-10
7.806260058510575534e-11
