# bin_18_15
1.730180382998717636e-11
1.954039161053138994e-11
2.169801280387147341e-11
2.359480136084454822e-11
2.499277185997544417e-11
2.560712056599122964e-11
2.522057909891288055e-11
2.350313727647623184e-11
2.070253652123557209e-11
1.725900245456008644e-11
1.411604689311134290e-11
1.194451113926546173e-11
1.032364973728743739e-11
8.022242342782954672e-12
5.535975470330679561e-12
4.441642309130244471e-12
3.115613546387048274e-12
2.286745996598655776e-12
1.542615877440368787e-12
1.094519205605224235e-12
7.607920518305185903e-13
5.281247286635932088e-13
3.690510195063578771e-13
2.603199818349179043e-13
1.868627598008460251e-13
1.367814654423248425e-13
1.020711800899463903e-13
7.751769408432884509e-14
5.958883625277632462e-14
4.604827525524862900e-14
3.550321410091125953e-14
