# bin_1_16
7.978573983042917787e-07
7.699127664659970470e-07
7.035603062461568071e-07
6.087605418243489914e-07
5.041387712366681012e-07
4.157800389672648937e-07
3.537936027300793333e-07
2.969393916772879931e-07
2.238341810418197761e-07
1.626413791159552159e-07
1.275399821591023576e-07
9.188049078479258600e-08
6.837004268518278133e-08
4.998960034436711224e-08
3.720688576493090724e-08
2.803375151433872589e-08
2.150494835414608954e-08
1.680769366714379777e-08
1.333821239614512156e-08
1.069099040159329031e-08
8.590851954850104622e-09
6.868540775337838534e-09
5.425773403968190351e-09
4.208517201840195412e-09
3.189322468690498588e-09
2.353438748207198629e-09
1.688852404578717613e-09
1.179375180456887575e-09
8.033193628822498562e-10
5.353621052957768007e-10
3.502603566000881656e-10
