# bin_3_9
3.530056186086903650e-07
3.632512041778360498e-07
3.599969218884655594e-07
3.388523674750873900e-07
3.015027377651821638e-07
2.540869317826138204e-07
2.081283205109696529e-07
1.741322316703635578e-07
1.498911838262016847e-07
1.203659792243074374e-07
8.547752644574607970e-08
6.575351780258288422e-08
4.963853603394699238e-08
3.552567281087305576e-08
2.605078197423105361e-08
1.913167727562777860e-08
1.406607169125422241e-08
1.050835532278011033e-08
7.994592070468827065e-09
6.192590031171786480e-09
4.870674558913747805e-09
3.869755308278036279e-09
3.083091099580480762e-09
2.445434937857534783e-09
1.917806804863308976e-09
1.477873819947991891e-09
1.113401950161140680e-09
8.171870700166412449e-10
5.832815429359333558e-10
4.051365171445751787e-10
2.744357655678475892e-10
