# bin_15_13
1.762723279449542601e-10
1.977691925849325288e-10
2.178724764661277272e-10
2.346157366912847453e-10
2.454987046745981597e-10
2.480627539063296482e-10
2.393928819125637874e-10
2.180297380184678019e-10
1.877652195164041528e-10
1.544417760738071317e-10
1.272117294141128023e-10
1.094791621686809070e-10
9.243766910757833932e-11
6.732902055943782719e-11
4.825063431842846204e-11
3.896316195854507145e-11
2.583123366684600419e-11
1.954391533941007305e-11
1.355328380909728709e-11
9.394088135884707858e-12
6.595994719221003574e-12
4.640187133926000369e-12
3.301425126215213150e-12
2.383108028838641090e-12
1.755070837866958597e-12
1.316997018002634075e-12
1.004527569377052353e-12
7.751522013984980065e-13
6.009372384979454289e-13
4.646367431220602224e-13
3.558384312348169439e-13
