# bin_16_13
1.176684420328240370e-11
1.322448852091087736e-11
1.459907875504014366e-11
1.576143350840457449e-11
1.654598257729899545e-11
1.677930321469010813e-11
1.628122443527983805e-11
1.491346791445899297e-11
1.291830473596223237e-11
1.065439321856782947e-11
8.751722050788964873e-12
7.504118313195467016e-12
6.389692316118323603e-12
4.728896975966056528e-12
3.335258177059382684e-12
2.715188894205458886e-12
1.802913898220880176e-12
1.370005918488317296e-12
9.399586708123743271e-13
6.513380496776450441e-13
4.573709832262358210e-13
3.212933896823600651e-13
2.275403397120598850e-13
1.632588196507634401e-13
1.194904955724580288e-13
8.914814647000375331e-14
6.766956989332117112e-14
5.205088700594134789e-14
4.029909823806808669e-14
3.117607299911698659e-14
2.392841777312999933e-14
