# bin_18_10
4.922912463647051755e-23
5.532989086948963826e-23
6.108429999499596350e-23
6.595205942650251741e-23
6.924060758663492201e-23
7.022336796210570432e-23
6.814796432193076514e-23
6.243070806293630756e-23
5.408536766638190298e-23
4.460853792163834205e-23
3.663876262254432616e-23
3.141383860045135500e-23
2.675573046181574011e-23
1.980749002625629907e-23
1.396201417072498292e-23
1.137289750474210364e-23
7.548017222089794148e-24
5.738619022839080985e-24
3.936393733598151258e-24
2.727079867229443084e-24
1.915101766361759169e-24
1.345296627629070164e-24
9.526543060383284957e-25
6.834410290224526911e-25
5.001599589527958919e-25
3.731162624118486538e-25
2.831990723960639358e-25
2.178258255946849634e-25
1.686463705143268164e-25
1.304728494461128372e-25
1.001481584407171180e-25
