# bin_11_15
6.738077220846381443e-08
7.486145402293315591e-08
8.148786193419693245e-08
8.645076443395087586e-08
8.877070989968199847e-08
8.770006804468926605e-08
8.206853089607906090e-08
7.257608989020300655e-08
6.072245758855731909e-08
4.965213050250918002e-08
4.183308912755043654e-08
3.617403880249612932e-08
2.849911991911852239e-08
1.974554448810234260e-08
1.564004718097940028e-08
1.128331059524607946e-08
8.163225042380844154e-09
5.653426180511827031e-09
4.081416443790847997e-09
2.887339774967289566e-09
2.050692335450766531e-09
1.476398705606840077e-09
1.078497161219822893e-09
8.027702904229173460e-10
6.085799753042931471e-10
4.681330167505528230e-10
3.635842537127000492e-10
2.831416767307853030e-10
2.195096617009649014e-10
1.683030314738237646e-10
1.269407517108369393e-10
