# bin_5_14
2.818365727943680322e-07
2.999963102214081602e-07
3.095622727504280027e-07
3.078276698172587191e-07
2.907800928724131017e-07
2.595194279233273983e-07
2.191311937981846272e-07
1.793708476345337149e-07
1.497691739300808896e-07
1.292937097356218263e-07
1.045995014771784064e-07
7.387097210932870429e-08
5.660081020258012931e-08
4.299462933323847760e-08
3.037416664308263154e-08
2.216699244684885974e-08
1.617904664311162827e-08
1.173012772030090068e-08
8.621122463781639703e-09
6.445023686189639904e-09
4.905987442568970385e-09
3.798336504636889196e-09
2.980454495500789460e-09
2.354725353464667049e-09
1.860233875013948841e-09
1.459245260008223499e-09
1.129197825286992710e-09
8.572446142656625652e-10
6.356667494333422334e-10
4.590135786583020074e-10
3.224836350988635594e-10
