# bin_7_10
9.747353907272493708e-08
1.057956709581843136e-07
1.118763696513973247e-07
1.144742466194081709e-07
1.125742841253512385e-07
1.047981313972545961e-07
9.223023482248386895e-08
7.690022689472288044e-08
6.291379776948658617e-08
5.317863391776610912e-08
4.582672817454688498e-08
3.567009822776435298e-08
2.485711086494220905e-08
1.984494824295169747e-08
1.417048071801504401e-08
1.044190455180526575e-08
7.317298773772140517e-09
5.323457394606521986e-09
3.845780828254031940e-09
2.803121659863497503e-09
2.076132895287133124e-09
1.563706734770637503e-09
1.199157302242681432e-09
9.328335708644878584e-10
7.317462148999850485e-10
5.750537168121935930e-10
4.495232183630102785e-10
3.472527621915216713e-10
2.636134869537350497e-10
1.957850043077203529e-10
1.417950564571184177e-10
