# bin_5_6
6.091324581230247842e-08
6.465493490252982240e-08
6.648139906953664339e-08
6.581846291171145255e-08
6.181241244224038527e-08
5.486089806073585355e-08
4.608204631093001572e-08
3.769491395341281080e-08
3.161408813620044548e-08
2.729085137472443919e-08
2.177638663274043406e-08
1.527532814705566121e-08
1.190820160972880493e-08
8.859911585871628947e-09
6.362943020492189176e-09
4.582788062220571001e-09
3.362319000683851014e-09
2.446994487234954817e-09
1.803587331510332816e-09
1.353422565240118555e-09
1.033966653267309306e-09
8.032477746516621531e-10
6.318347444391244178e-10
4.998643771270392319e-10
3.949756145853466353e-10
3.095447304614304795e-10
2.390646427134663657e-10
1.809716872021275226e-10
1.337169360156556016e-10
9.617102528393357699e-11
6.729071495171225920e-11
