# bin_17_17
5.093014838234277544e-09
5.752339255410402870e-09
6.388006914960187133e-09
6.947107362131167401e-09
7.359616283930261661e-09
7.541694285156390283e-09
7.429335780395261358e-09
6.925223196431812482e-09
6.101493013096422573e-09
5.087789420048185097e-09
4.161317431559518129e-09
3.520357489068713969e-09
3.042692506855313441e-09
2.366280582702798507e-09
1.633193300503998707e-09
1.309175032611098804e-09
9.196609397842232746e-10
6.740353132007297560e-10
4.551213469728831680e-10
3.229912550085684488e-10
2.244500291417659050e-10
1.557464996439956565e-10
1.088095827186208874e-10
7.673290311217962877e-11
5.506239959414580763e-11
4.029150101795372689e-11
3.005722290013466271e-11
2.282061078469528347e-11
1.753909133065112316e-11
1.355231143850729077e-11
1.044885296831222976e-11
