# bin_3_16
4.862435354902343508e-07
5.006076426413569398e-07
4.964391720450373022e-07
4.676652623905359455e-07
4.164483004416918693e-07
3.512044971934447781e-07
2.877017568649740374e-07
2.405649495937914678e-07
2.070901284433844764e-07
1.666092242961436544e-07
1.184091728153756073e-07
9.089819939497673573e-08
6.878921162083881313e-08
4.914472131307472100e-08
3.608257509586251019e-08
2.648297210114042631e-08
1.946250406255401614e-08
1.453422666925065173e-08
1.105222712121655230e-08
8.557253377856464176e-09
6.728017562538496101e-09
5.344147582542170010e-09
4.257393400341983107e-09
3.377080560168258978e-09
2.648990213506958222e-09
2.042007247509378630e-09
1.539078885069911362e-09
1.130180906232947981e-09
8.071064548100957142e-10
5.608783306334279635e-10
3.800992874571102105e-10
