# bin_12_6
4.504299879629620597e-20
4.963435785953424542e-20
5.348411042001418032e-20
5.602869561860755383e-20
5.669638857346856938e-20
5.485260178759664642e-20
5.009791278552672452e-20
4.327092946484300357e-20
3.563710796084514026e-20
2.929958952355121223e-20
2.514990332797226534e-20
2.133011555722430126e-20
1.569846955329264342e-20
1.117185275258087341e-20
9.074978001396529209e-21
6.075224362500600182e-21
4.635018778842434920e-21
3.237787548171049588e-21
2.286094432968028703e-21
1.640826377912136948e-21
1.185520061669689695e-21
8.686298003047127232e-22
6.470702363776283922e-22
4.913576365129784163e-22
3.788398276083048725e-22
2.950405706130933339e-22
2.306423835102373707e-22
1.796571229346466377e-22
1.385251145359559122e-22
1.051253321664869408e-22
7.817117217697753050e-23
