# bin_15_16
1.413294343816169802e-08
1.589506494838391515e-08
1.756232091786347826e-08
1.898071913682536071e-08
1.995205089477789325e-08
2.026357222435334664e-08
1.970628029985383677e-08
1.809583299924576853e-08
1.571415674046348812e-08
1.297812501902269632e-08
1.065115540009216161e-08
9.116465723091059400e-09
7.784990089078200063e-09
5.802658445510745460e-09
4.072670026134980895e-09
3.315867676228214865e-09
2.213008102294074800e-09
1.678396813348448596e-09
1.146548756242851146e-09
7.959596980921675953e-10
5.585921646870789793e-10
3.921014382373122094e-10
2.771410310976312160e-10
1.983341135124727088e-10
1.447595217222064565e-10
1.077147225034089707e-10
8.157589685324867995e-11
6.264596724576826184e-11
4.846297586657135873e-11
3.749311122510405014e-11
2.879973768838617792e-11
