# bin_3_20
5.262503455950937155e-07
5.418511050516339998e-07
5.374081354521191918e-07
5.063433908700032980e-07
4.509625416444693214e-07
3.803655979432169530e-07
3.115949525927701900e-07
2.605124343642461734e-07
2.242650253002695681e-07
1.804944979603431695e-07
1.282974263296891095e-07
9.844829182500436583e-08
7.453950830204748198e-08
5.323405830773508749e-08
3.909478141497916901e-08
2.869031590701573958e-08
2.108286914523875310e-08
1.574305888445261562e-08
1.197033090368762932e-08
9.267281325688470987e-09
7.285714467401306556e-09
5.786857411404914006e-09
4.609996420991152398e-09
3.656822038048905703e-09
2.868539711126046605e-09
2.211397321352315488e-09
1.666895186416514186e-09
1.224162307808047469e-09
8.743134625797038363e-10
6.076423003038187775e-10
4.118264496909588806e-10
