# bin_19_3
3.762894630995449496e-71
4.213193117980688398e-71
4.629917663162009964e-71
4.970356353231036162e-71
5.180589833167710442e-71
5.211560695438868338e-71
4.996706013329965988e-71
4.520821808211904282e-71
3.866880145475333008e-71
3.172271704953055582e-71
2.623192487436324328e-71
2.265689922841420453e-71
1.890969344833007203e-71
1.353425353869875826e-71
9.916508856023763454e-72
7.871311344250926484e-72
5.259713141363670997e-72
3.925287092724540992e-72
2.757546899182561250e-72
1.916900008266996813e-72
1.345445525143487657e-72
9.494729280779937547e-73
6.793559563037698913e-73
4.938454938602302474e-73
3.662338905447887619e-73
2.765546629729416743e-73
2.120057445280821905e-73
1.641028618357356080e-73
1.273422083225266764e-73
9.834886616877108736e-74
7.510322505981652637e-74
