# bin_14_8
7.677986575760095080e-19
8.539203703150478253e-19
9.306790634857821381e-19
9.889036817115488178e-19
1.017327741483338166e-18
1.007589307841736540e-18
9.457534829356158718e-19
8.387140883920793793e-19
7.032872260418925687e-19
5.749013352456433034e-19
4.831786233104218100e-19
4.183563107920297354e-19
3.323751932372771152e-19
2.300715427815215419e-19
1.810802367816294810e-19
1.323044915109032567e-19
9.467339435386297746e-20
6.574908255785572547e-20
4.765300066595725543e-20
3.362419740157620871e-20
2.380237262837920586e-20
1.709978765367580544e-20
1.246251595865299196e-20
9.252606274574748532e-21
6.998595404435430491e-21
5.374108090971380163e-21
4.169646886573752138e-21
3.246449512091765151e-21
2.518245059055134090e-21
1.933110242953181321e-21
1.460519256891918495e-21
