# bin_8_10
5.911193511760792008e-08
6.460805763766518321e-08
6.891774143230124648e-08
7.127374305596573095e-08
7.106048454803558218e-08
6.731634331612769655e-08
6.022438720219961370e-08
5.094120199747547542e-08
4.168741243440200536e-08
3.475301075416649504e-08
3.005942123980828532e-08
2.446559260875557908e-08
1.720794762366611789e-08
1.311557042482685844e-08
1.001865570810310894e-08
6.973279674591400110e-09
5.064068318363743929e-09
3.667788745180032862e-09
2.615902281584945734e-09
1.884466077475043711e-09
1.378415653434439367e-09
1.025823177274783762e-09
7.772384326736636672e-10
5.988717267701123851e-10
4.668135868197448312e-10
3.658963858115033412e-10
2.863865062723804090e-10
2.222733013368973618e-10
1.700404861394812866e-10
1.275830263290572968e-10
9.352488788470951281e-11
