# bin_2_10
5.146582121581074379e-07
5.164452680306476994e-07
4.946292309979261912e-07
4.479919169318770003e-07
3.840789505312567202e-07
3.162398589779198061e-07
2.615710358364139348e-07
2.240445759355599991e-07
1.862813568530865527e-07
1.368693868589427369e-07
1.006039702908932717e-07
7.907723434623132382e-08
5.584822527898807610e-08
4.185665208778227647e-08
3.043769248584541827e-08
2.248947039902389856e-08
1.686463508273167194e-08
1.286530923451188993e-08
9.996294620761831613e-09
7.887589162922195462e-09
6.290354523444658593e-09
5.032866930068099697e-09
4.009976268757566005e-09
3.159539618279322043e-09
2.446358861296256650e-09
1.851775910277423317e-09
1.365402170003772160e-09
9.790643770092788629e-10
6.830593377293277727e-10
4.646791878980338220e-10
3.092254204515194782e-10
