# bin_20_17
2.419395713019278300e-11
2.743094806737260762e-11
3.060557041237596638e-11
3.347652481571071969e-11
3.571963913650907899e-11
3.692960507694399822e-11
3.679650961901275896e-11
3.479968397148119435e-11
3.107708041529630035e-11
2.622584170860540208e-11
2.145337186975124151e-11
1.793375119511106237e-11
1.554448132545694941e-11
1.258006637851337903e-11
8.747358074632477856e-12
6.724602296774530731e-12
5.046247422425530356e-12
3.486560825519713086e-12
2.447816191278885150e-12
1.743876071720438487e-12
1.197881006193060163e-12
8.194531085496801244e-13
5.652732966266987558e-13
3.932372827673095996e-13
2.772556926908629390e-13
1.991837858070818598e-13
1.459529010725399134e-13
1.091301976445610488e-13
8.297409378501412947e-14
6.377959281018432501e-14
4.919839732467831059e-14
