# bin_11_16
7.984083430211038110e-08
8.871312373955823502e-08
9.657669837386041929e-08
1.024732223148428663e-07
1.052416299114733622e-07
1.039961723968716251e-07
9.734641336341018811e-08
8.611027151309332975e-08
7.206321098320461969e-08
5.892521407498981400e-08
4.963404798238129287e-08
4.292279304297245316e-08
3.384284668565444798e-08
2.345053467723872082e-08
1.855991518159410793e-08
1.340673797714458086e-08
9.688653957291877984e-09
6.714120930072870248e-09
4.847482347304335243e-09
3.428446493660432163e-09
2.434358285791921593e-09
1.752207616705166571e-09
1.279671735508352078e-09
9.522623606692833575e-10
7.217410122567770986e-10
5.550760867562326981e-10
4.310597645922755891e-10
3.356757237933352939e-10
2.602473084849355418e-10
1.995582614452256524e-10
1.505383028526339358e-10
