# bin_18_18
4.804743836972342189e-09
5.437859029190614211e-09
6.053790601663528272e-09
6.603744745367320025e-09
7.022462342404048504e-09
7.229552555800564037e-09
7.165542321588462688e-09
6.730390892398681081e-09
5.972050133161032898e-09
5.009957384028822721e-09
4.096378474645706346e-09
3.443585838613595015e-09
2.983094418514780384e-09
2.370636155196499990e-09
1.637833112181086593e-09
1.287307474715059435e-09
9.367682646726859629e-10
6.654681387994175117e-10
4.560676294538325943e-10
3.260713519978805532e-10
2.251058932966669432e-10
1.548363021640560262e-10
1.074878001471788037e-10
7.526200071859313498e-11
5.351592241149197966e-11
3.879276422348094541e-11
2.867953549562182492e-11
2.161193374252076227e-11
1.652607924651049998e-11
1.274163435175193722e-11
9.830741893726649370e-12
