# bin_11_8
3.229712417995972325e-12
3.563028909979456065e-12
3.844855272765631216e-12
4.035000044464093449e-12
4.091294231341070088e-12
3.970213813807520196e-12
3.637996425018408004e-12
3.152662937293283705e-12
2.600932778718614164e-12
2.135586782486577815e-12
1.828993710615380841e-12
1.557677112902758837e-12
1.156993241498284071e-12
8.172748319690432792e-13
6.650040263436652348e-13
4.471305035610326006e-13
3.408197484011158286e-13
2.367428002746455817e-13
1.673943354563724571e-13
1.200655477995581999e-13
8.665229432654269144e-14
6.334263262096356588e-14
4.705728882112810512e-14
3.564219281103297365e-14
2.742371633257755539e-14
2.132757756828540588e-14
1.666250142642354863e-14
1.298193708340822484e-14
1.001915466027804060e-14
7.615140676209607759e-15
5.674186922497740872e-15
