# bin_5_7
1.058136859295392032e-07
1.124688325688644410e-07
1.158455212017525675e-07
1.149386118931586023e-07
1.082504828587709260e-07
9.633764060362948329e-08
8.112631947121296548e-08
6.637988119471119047e-08
5.554951188205489832e-08
4.795858821331387291e-08
3.853114055108730611e-08
2.711080892099002965e-08
2.095796914084332971e-08
1.575571856253507619e-08
1.122107275403239056e-08
8.134599887114577032e-09
5.954142220473928418e-09
4.324925277381978675e-09
3.183070980038026808e-09
2.384146879228482894e-09
1.818197897043365882e-09
1.410163957869446488e-09
1.107928224978740395e-09
8.759516497093348003e-10
6.920888695271178705e-10
5.426514885812204358e-10
4.195015656307317223e-10
3.180085559601510287e-10
2.353826803702988412e-10
1.696220490170750677e-10
1.189205416732890462e-10
