# bin_11_18
1.012342745955548405e-07
1.124959031050962176e-07
1.224836491651928097e-07
1.299831707222884873e-07
1.335215780272181073e-07
1.319759774814865211e-07
1.235779808800044493e-07
1.093479781584814332e-07
9.153488803108737585e-08
7.484677562114748421e-08
6.302801799662504959e-08
5.451016436058363534e-08
4.301784565915685272e-08
2.981188298783373652e-08
2.357322615106057179e-08
1.705259505854678216e-08
1.230776284726305765e-08
8.535299989758722831e-09
6.162792213449585618e-09
4.357508551836413476e-09
3.093099706512957004e-09
2.225761981862370788e-09
1.625081386019558632e-09
1.208934857969869668e-09
9.160343541373941910e-10
7.043540914017403421e-10
5.469126688180587139e-10
4.258746881349402129e-10
3.301923018117387818e-10
2.532223114553547865e-10
1.910544160896850338e-10
