# bin_17_3
3.050631081968131525e-08
2.657757997691288944e-08
2.253565638338113127e-08
1.866656265381569951e-08
1.519071576183308143e-08
1.220650088897002574e-08
9.684889312142035139e-09
7.538232338933072682e-09
5.732889829946029679e-09
4.310564311155601529e-09
3.259660344295737266e-09
2.465801336869370030e-09
1.868116491161600051e-09
1.432154264925722424e-09
1.107384338521749098e-09
8.647546539687868025e-10
6.799694737853162052e-10
5.363199940216639626e-10
4.224016537441772783e-10
3.306573846760267592e-10
2.561576762865497882e-10
1.956465851891252608e-10
1.468763177447043476e-10
1.081322940544001519e-10
7.795464599543409848e-11
5.499805712275007476e-11
3.798321611705167518e-11
2.570700053730314891e-11
1.708058337818957839e-11
1.116621014275373468e-11
7.199371477926761999e-12
