# bin_16_10
5.836908298411252866e-08
5.400293643520762935e-08
4.865289363323444095e-08
4.264091859364338996e-08
3.637583810290999224e-08
3.028898415105807139e-08
2.473860049640925933e-08
1.991533577991889145e-08
1.582710228809574724e-08
1.236577458665955266e-08
9.448766273037095739e-09
7.095207058850983760e-09
5.320722856810462000e-09
4.001115273022219093e-09
2.997075644276392008e-09
2.262698085955789933e-09
1.720190452039078555e-09
1.319327661447747174e-09
1.018968933106600493e-09
7.907667991823801100e-10
6.143900235123343758e-10
4.759830360370094713e-10
3.662324759949643242e-10
2.788183287331555004e-10
2.093699270648679816e-10
1.546862740178698078e-10
1.122367229761260361e-10
7.988555479711134411e-11
5.575096225105868077e-11
3.815804420957764890e-11
2.563533891833759158e-11
