# bin_13_12
5.937076527601198956e-08
5.506058920713711343e-08
4.974015581889996600e-08
4.372338253449920692e-08
3.741372597972864080e-08
3.124153357245056407e-08
2.557360871678875276e-08
2.061947192792085367e-08
1.640803125703990055e-08
1.284607923226508485e-08
9.846399266886913716e-09
7.410450722167116516e-09
5.553036350100518327e-09
4.173210538323538817e-09
3.127378408447392908e-09
2.355341447094646285e-09
1.788276043095902207e-09
1.368261361930070499e-09
1.054556908588588972e-09
8.169221895753201411e-10
6.338558377313712452e-10
4.906775963659933909e-10
3.774707761778904884e-10
2.875028948750036647e-10
2.161145509681951777e-10
1.599207452308448986e-10
1.162737627439579354e-10
8.296338575334892627e-11
5.806055591739882532e-11
3.985814488818636526e-11
2.686016689092853405e-11
