# bin_10_6
4.033131502200525104e-08
3.614613551104376121e-08
3.151987996281583774e-08
2.676559941532496769e-08
2.220324184801552641e-08
1.808404895944829177e-08
1.452786650714086155e-08
1.152096650614064341e-08
8.977347915180441737e-09
6.845696886926224191e-09
5.146931864007660437e-09
3.876978228139740038e-09
2.928007915513174602e-09
2.208480820740003366e-09
1.682892313140718468e-09
1.292141276120492695e-09
1.001454612514082246e-09
7.813417925318479892e-10
6.117903746829927800e-10
4.787775033326918740e-10
3.728596442154215292e-10
2.877717576947735840e-10
2.192989392602722210e-10
1.645104638665111878e-10
1.212017046744677237e-10
8.755556531831268178e-11
6.196585202956429145e-11
4.296157895237221969e-11
2.919813403132443354e-11
1.947887277224384043e-11
1.277951065993438131e-11
