# bin_19_7
5.039056223689625932e-08
4.592631434330402643e-08
4.071779461373154733e-08
3.510816517869483058e-08
2.949462177506876868e-08
2.425219895749245055e-08
1.962768417109541498e-08
1.569148873906428598e-08
1.236207495003427673e-08
9.530922730008883058e-09
7.189958081092328791e-09
5.391370032726293098e-09
4.065116636625374047e-09
3.052909156959291035e-09
2.303957575169785878e-09
1.754738979460836529e-09
1.347834427603460042e-09
1.043804206341679995e-09
8.132929540799172044e-10
6.352106253391267985e-10
4.952342555215272297e-10
3.837800264965059027e-10
2.944369907246670860e-10
2.228565117512505268e-10
1.659454470104794427e-10
1.213093412988037128e-10
8.693839476519720597e-11
6.104434359344432549e-11
4.199971189641655873e-11
2.833914184249194634e-11
1.878067628856280448e-11
