# bin_19_13
6.824921238355845465e-08
6.403364371817586800e-08
5.855421754573509824e-08
5.210617360288783899e-08
4.510797750391611168e-08
3.804621188148752094e-08
3.138693049376988847e-08
2.545706658677475741e-08
2.037468596848623644e-08
1.607449358768587543e-08
1.243027857375218499e-08
9.402079843007372668e-09
7.032519126470476658e-09
5.273491207022648965e-09
3.946845121830093729e-09
2.951535402718527952e-09
2.227400717446369665e-09
1.691026119509471542e-09
1.294608268732478356e-09
9.973561219067471003e-10
7.710394818909033612e-10
5.960263064437078320e-10
4.589041937966105732e-10
3.505904238409695257e-10
2.648482377216954440e-10
1.972789646417009337e-10
1.445737051829665720e-10
1.040736325929443228e-10
7.352561569175694105e-11
5.096475842481903538e-11
3.467267692899439851e-11
