# bin_15_10
5.742769503543837804e-08
5.306778492696297948e-08
4.775199498806979052e-08
4.180223601544654096e-08
3.562319841931462542e-08
2.963758585892634581e-08
2.419153786175957505e-08
1.946477265073378903e-08
1.545933177210263525e-08
1.206878060763996251e-08
9.215803476939559279e-09
6.919892508257724768e-09
5.190769385323507345e-09
3.903698040318148996e-09
2.925448087962159121e-09
2.210006190675435247e-09
1.681207799060005549e-09
1.290236588469964219e-09
9.970343461472970681e-10
7.740215510087885904e-10
6.014694960499560850e-10
4.659411621903297427e-10
3.584061433026353583e-10
2.727333581113059251e-10
2.046742233038024404e-10
1.511057062797657941e-10
1.095490160189573638e-10
7.790521016981984998e-11
5.432149402707244781e-11
3.714824436552836935e-11
2.493730679051790531e-11
