# bin_15_14
6.575397184378482246e-08
6.152516510172579129e-08
5.610505290823020600e-08
4.979257402798131431e-08
4.299989523850164530e-08
3.619557209569310836e-08
2.981583732536169162e-08
2.415520073953946789e-08
1.930923993956792629e-08
1.520891194624591850e-08
1.174125320515459289e-08
8.875630009144285513e-09
6.642981930922894367e-09
4.982711496925204759e-09
3.730990245947676748e-09
2.794432496105655810e-09
2.111287905505248256e-09
1.605357068750155223e-09
1.230616948733741264e-09
9.489854663811130797e-10
7.340611243631119702e-10
5.674946634158041325e-10
4.367707238020554845e-10
3.334074047103532574e-10
2.515679069170389064e-10
1.871085679842985751e-10
1.368876012329571535e-10
9.836068984671821839e-11
6.935948634636970064e-11
4.798866624453358781e-11
3.259147727983584127e-11
