# bin_8_4
3.096223142840918120e-08
2.714217676420783788e-08
2.316325391179495056e-08
1.929562374764347282e-08
1.576622116770151014e-08
1.269874089862127708e-08
1.010132138087685525e-08
7.905811060013678038e-09
6.057450633562004449e-09
4.566458146757443517e-09
3.442622846159959928e-09
2.607314141954333313e-09
1.972102321736385115e-09
1.505877246670268327e-09
1.160046870611752853e-09
9.022192628638205915e-10
7.067491421366374656e-10
5.558643881586043410e-10
4.370799843983576154e-10
3.420437173693468799e-10
2.652608664165448849e-10
2.030827123336973769e-10
1.530058678749227848e-10
1.131683137952612869e-10
8.203431482910765493e-11
5.822902522972196457e-11
4.047013157082017825e-11
2.756149071461526757e-11
1.841939428441844928e-11
1.210357730477539856e-11
7.837895521775861409e-12
