# bin_11_4
3.331162020622624353e-08
2.932250672176557087e-08
2.511474377176126285e-08
2.098136412959335885e-08
1.718030274826956996e-08
1.386268996144190573e-08
1.105073653871232849e-08
8.671526880987287930e-09
6.657568328423238244e-09
5.019078005775737533e-09
3.779888585188791636e-09
2.861345420101283837e-09
2.160746045055026194e-09
1.646503493820779186e-09
1.265849904707879324e-09
9.827399613619606205e-10
7.688204949598492434e-10
6.043207323218243071e-10
4.752581185271906206e-10
3.722551459509838538e-10
2.891402086305236564e-10
2.218291578077989914e-10
1.675480769453687278e-10
1.242676221446423641e-10
9.034136476255718593e-11
6.431107207724758676e-11
4.482074384701674860e-11
3.060153786407002279e-11
2.049643216610057683e-11
1.349370505823402868e-11
8.751525222010092305e-12
