# bin_13_7
4.663147183539818579e-08
4.228769614006050790e-08
3.731182918079985619e-08
3.203338344435280852e-08
2.681822912299593625e-08
2.199461427353338409e-08
1.776382341995615520e-08
1.416857626772709506e-08
1.112900137892173768e-08
8.557088276347639073e-09
6.451393344963407910e-09
4.843114736319679336e-09
3.653510353845680788e-09
2.747625604519097579e-09
2.078816611154326055e-09
1.586864285742836520e-09
1.221806773812429149e-09
9.480445261164003441e-10
7.395895332595770672e-10
5.778750832481376506e-10
4.503228066619420633e-10
3.485291594474954798e-10
2.668613730626075759e-10
2.014704776555164541e-10
1.495770278090349178e-10
1.089919749514974111e-10
7.785145986430505055e-11
5.448453559486915687e-11
3.737003098964154780e-11
2.514421844847647587e-11
1.662243680877359555e-11
