# bin_19_18
7.683190616899213807e-08
7.287560935275014783e-08
6.742956640704355182e-08
6.075274086825722184e-08
5.325247307719577823e-08
4.544117125806647563e-08
3.785329054216333788e-08
3.092792730963966083e-08
2.489809887659613467e-08
1.977530759179277237e-08
1.543586652722869350e-08
1.178483947266985605e-08
8.838137002334793503e-09
6.604440763828117914e-09
4.941307080658272803e-09
3.681077696313423474e-09
2.756278784327542057e-09
2.077236341006534035e-09
1.577200290644767168e-09
1.205716770345300067e-09
9.264399020331473147e-10
7.132500234966854709e-10
5.482023523107185501e-10
4.190844949984480336e-10
3.175243144910997679e-10
2.376995927084373760e-10
1.753815273589293605e-10
1.273006996499859743e-10
9.078822091831915015e-11
6.357869950620313466e-11
4.371857449493687246e-11
