# bin_12_3
2.898344601585104577e-08
2.519230725933837052e-08
2.132031366509660855e-08
1.763452522129167821e-08
1.433503821728414528e-08
1.150617023296778153e-08
9.116464631710057693e-09
7.085827534555052522e-09
5.385753531031150681e-09
4.051479427211031005e-09
3.065091794387565032e-09
2.319820163565238859e-09
1.759695959832754862e-09
1.350490506309459410e-09
1.045425821244782919e-09
8.170598427512478813e-10
6.427719849471824461e-10
5.069990584813801029e-10
3.991461088621114821e-10
3.122008367838840758e-10
2.415841760434708627e-10
1.842597930760349287e-10
1.381133524854713432e-10
1.015147311152389297e-10
7.306411964839980222e-11
5.146691593222919045e-11
3.549335563610845324e-11
2.399137945011288672e-11
1.592346452618754770e-11
1.040050573394507584e-11
6.700913974794188176e-12
