# bin_10_2
2.297302416019209953e-08
1.962148589156804031e-08
1.635411920358262545e-08
1.336992333738553983e-08
1.077841555124492328e-08
8.584705696570589517e-09
6.725145604507234292e-09
5.153182292308170002e-09
3.886452641640673587e-09
2.936385233631345719e-09
2.228369694393794293e-09
1.690105100684556847e-09
1.295861915407886752e-09
1.002881087420050398e-09
7.841022883519122960e-10
6.176476483881655857e-10
4.884363506884278843e-10
3.860001768949507541e-10
3.034043679575830523e-10
2.361491598558984034e-10
1.812933312383480274e-10
1.368424349933880669e-10
1.013100405493568504e-10
7.344774739386223024e-11
5.210489169724065746e-11
3.617628117052037198e-11
2.460669144454847674e-11
1.642504098620224795e-11
1.078265853998264608e-11
6.978068387960929281e-12
4.462206443144910913e-12
