# bin_17_4
3.591196836844053251e-08
3.173573569719576893e-08
2.727468716906756173e-08
2.284717057316934548e-08
1.874543211892675652e-08
1.515096814532208858e-08
1.210156475918590770e-08
9.519033417583196101e-09
7.321788060869791422e-09
5.520044805544696880e-09
4.153179666181401664e-09
3.142511291932314896e-09
2.369539965573165665e-09
1.802150933463362039e-09
1.382954468648801425e-09
1.071861634655870534e-09
8.375221317113140532e-10
6.579530485876135347e-10
5.175143340067737167e-10
4.056936707082220456e-10
3.155702667958358058e-10
2.425780339991838247e-10
1.836436299335644854e-10
1.365525129543417040e-10
9.953573680409704566e-11
7.104277418236063174e-11
4.963606655241719804e-11
3.396630674345055419e-11
2.279532779907625484e-11
1.503231837015655720e-11
9.762743540165377561e-12
