# bin_12_10
5.385917876849858345e-08
4.952290113676799895e-08
4.433694745018219731e-08
3.862302737535831598e-08
3.277015169323556709e-08
2.716831617544461117e-08
2.211777556547887564e-08
1.775681300823196719e-08
1.406521520661012401e-08
1.094295749845360782e-08
8.332705035301684115e-09
6.255323694138471833e-09
4.698152330758603403e-09
3.534416439644100314e-09
2.653928294504943270e-09
2.010266246434778324e-09
1.533435742842135589e-09
1.179960680404617317e-09
9.138866475898039398e-10
7.105451267076733144e-10
5.524914646864065586e-10
4.278752587609452779e-10
3.287387045654206731e-10
2.496669149621060662e-10
1.868740911632467689e-10
1.375327394976986256e-10
9.936063671150680843e-11
7.039824870645611652e-11
4.890275725765080750e-11
3.332035925032413199e-11
2.229125117890984428e-11
