# bin_19_17
2.056235714164449032e-11
2.330629607662557138e-11
2.599334844316376383e-11
2.841782693671647269e-11
3.030333763290871730e-11
3.130487871699947263e-11
3.116205502468461008e-11
2.943235926370284661e-11
2.625481072482451220e-11
2.213290010170948424e-11
1.810849486173309623e-11
1.516009669928432732e-11
1.314070086539105241e-11
1.059477315199075545e-11
7.354491266629946413e-12
5.684895089745399273e-12
4.238092134278633750e-12
2.946101768287615881e-12
2.055708943372292215e-12
1.467976336441376107e-12
1.009657351492756312e-12
6.914309336993043571e-13
4.778198185284753108e-13
3.330229218105634675e-13
2.353524642168439663e-13
1.695010598188223242e-13
1.245121001565994588e-13
9.330583824085743531e-14
7.106177936933198203e-14
5.467601779422511312e-14
4.218480942980156377e-14
