# bin_17_10
2.074077275725485021e-20
2.327994150231365267e-20
2.565940800728086634e-20
2.764853018074606366e-20
2.895352253729568537e-20
2.928237760078078180e-20
2.829406643916667294e-20
2.580408960351928526e-20
2.225350848874529156e-20
1.831896032805042845e-20
1.508426331048037421e-20
1.297500568920014665e-20
1.097538153129897992e-20
8.018788878762813995e-21
5.729127721516475218e-21
4.637640075246817001e-21
3.072885917861848123e-21
2.329518769880391167e-21
1.612647740614279224e-21
1.117564191608458131e-21
7.849701025257081700e-22
5.521484697592877224e-22
3.926261079791799361e-22
2.832013504465107412e-22
2.084076170024183311e-22
1.562778406188989223e-22
1.191313391918504985e-22
9.189709261263064314e-23
7.123714537706684688e-23
5.508884175779264071e-23
4.220544247222414887e-23
