# bin_17_2
6.537283313381471808e-70
7.279911455759247753e-70
7.946802956570315047e-70
8.460493850469560916e-70
8.724889540710937729e-70
8.667887424804612985e-70
8.167913291607586014e-70
7.270891888222850757e-70
6.118145948473168375e-70
5.003868557350538405e-70
4.193743039131300678e-70
3.632896169534317752e-70
2.915342782342247509e-70
2.024379604817330110e-70
1.575335816479338008e-70
1.169976733863631264e-70
8.249740320398292059e-71
5.794093288796363351e-71
4.195738986189262650e-71
2.952076350619958857e-71
2.083267747240541371e-71
1.492133054421950246e-71
1.084355538699053838e-71
8.023942552279745129e-72
6.050989251173320269e-72
4.635114174750314957e-72
3.590481203935158609e-72
2.793810934548584210e-72
2.167909381001504360e-72
1.666194494857066165e-72
1.261233751157828479e-72
