# bin_10_7
5.186271642038814550e-13
5.696872646973748070e-13
6.114699378601346507e-13
6.373763370426867183e-13
6.413747011780098111e-13
6.153774405228082431e-13
5.573538030412161735e-13
4.772973964800845760e-13
3.918461297845646555e-13
3.238243097692234466e-13
2.793098286228834641e-13
2.334870053542996473e-13
1.680770626230262760e-13
1.229226461985363585e-13
9.800190214880681832e-14
6.606851854395029479e-14
4.973684836511328663e-14
3.531919642275501541e-14
2.500406236683777203e-14
1.795759978933616546e-14
1.302716674705337696e-14
9.608978768899339082e-15
7.212258671558265756e-15
5.513380662183701433e-15
4.273019530565852539e-15
3.338852673570642141e-15
2.612853453768393688e-15
2.033025964193186751e-15
1.562871640598279992e-15
1.180640045999634859e-15
8.727589404397675703e-16
