# bin_18_5
2.936474739278309210e-49
3.285741328985386719e-49
3.607844044894102012e-49
3.869256842054360123e-49
4.027701553472101946e-49
4.045898525123322067e-49
3.870720132086478662e-49
3.495075316218269331e-49
2.983289924669020455e-49
2.446476303867696934e-49
2.026722339798863689e-49
1.752302393374388576e-49
1.455909369663808641e-49
1.036572402497083752e-49
7.659778875753017130e-50
6.033142900130499067e-50
4.053270158774054737e-50
3.004161813558624696e-50
2.121416238220642289e-50
1.477250308059858274e-50
1.037180449214595420e-50
7.334428661044680514e-51
5.261168835622289943e-51
3.835879260217264581e-51
2.852845489602129707e-51
2.159764397716531934e-51
1.658950212046511393e-51
1.285608660637231081e-51
9.979236360808253741e-52
7.703222757708556564e-52
5.875510109623716281e-52
