# bin_8_4
1.118870300752046464e-15
1.206307546329073761e-15
1.265001005327609262e-15
1.281895848365281354e-15
1.243172057137141011e-15
1.138733268316066815e-15
9.865866692050573044e-16
8.140737779164560833e-16
6.685919978209337798e-16
5.723784483235135212e-16
4.869883953829556267e-16
3.622253568088602440e-16
2.568870442632783719e-16
2.088549817085661232e-16
1.419059511973353124e-16
1.084488258318812810e-16
7.631436834193450951e-17
5.482929907868322116e-17
4.001492812037567496e-17
2.950204778250281809e-17
2.209494474932973355e-17
1.683134324460653798e-17
1.304296307095571210e-17
1.022492767654350671e-17
8.056902687897033533e-18
6.337610001023778728e-18
4.941555664224417791e-18
3.796013858122797437e-18
2.858025644054081340e-18
2.100486551529199904e-18
1.503160470558595949e-18
