# bin_15_1
6.601438674729254573e-69
7.298249887400421108e-69
7.896171638747476537e-69
8.313844961049858362e-69
8.461045103445933055e-69
8.255301177993010522e-69
7.610121790696161659e-69
6.634847219682643738e-69
5.492854409550402724e-69
4.502172173980232684e-69
3.840779794008687583e-69
3.292877304055990343e-69
2.485480351559233095e-69
1.736601212771996208e-69
1.414163452863912024e-69
9.608486630542364056e-70
7.294760658711002283e-70
5.024203432582779514e-70
3.565857608204609334e-70
2.554298144033302358e-70
1.839926249983396956e-70
1.340103380770925442e-70
9.912661372697664545e-71
7.477060577604962847e-71
5.733626624765618629e-71
4.448774972000289652e-71
3.472265641830435451e-71
2.706282684969273999e-71
2.091934384744123705e-71
1.594079515019917566e-71
1.191808075695686317e-71
