# bin_14_3
3.663112168796950562e-45
4.044153879769890788e-45
4.368003486244710859e-45
4.589215251178712449e-45
4.659240055825039098e-45
4.529675704213651713e-45
4.158994734599672474e-45
3.611606523157648280e-45
2.983157958486853211e-45
2.448238200689367159e-45
2.094654066077903167e-45
1.788235377862450388e-45
1.334791758558499636e-45
9.391105085745449627e-46
7.654918068006214719e-46
5.153846068423026107e-46
3.931192650714781125e-46
2.723503892732005028e-46
1.926231799921695718e-46
1.381894931047788790e-46
9.971746236965189552e-47
7.282923988467754095e-47
5.404603118338528201e-47
4.089453570116695826e-47
3.144005987998158719e-47
2.443876126714275044e-47
1.909030515573934970e-47
1.487649892583844522e-47
1.148724192689117693e-47
8.737654566972160964e-48
6.516899117353711848e-48
