# bin_19_6
1.098798639310371936e-46
1.233074460377593177e-46
1.358781347167523658e-46
1.463678855998304226e-46
1.532188370492752247e-46
1.548938607138230830e-46
1.495716382554806708e-46
1.363196241167499465e-46
1.174837530064634179e-46
9.668350741139191706e-47
7.963867151026393026e-47
6.853031712724398129e-47
5.790919920045435603e-47
4.223256339667720620e-47
3.023450195861739160e-47
2.444366984003649013e-47
1.619982419933184213e-47
1.227077948260619948e-47
8.505041781523857057e-48
5.895081267846940565e-48
4.140517572087108926e-48
2.913029912638711210e-48
2.072552354704667136e-48
1.495989670443281901e-48
1.101683266724568195e-48
8.266594194022785071e-49
6.305080385902176559e-49
4.865400482633993227e-49
3.772083733658387045e-49
2.916777306178190065e-49
2.234048520110649254e-49
