# bin_20_2
6.385197874537411251e-86
7.165208426714805598e-86
7.895300261611639658e-86
8.504320812966726166e-86
8.901724482534603716e-86
8.998292855341425707e-86
8.688064649072576112e-86
7.917364811663751994e-86
6.822559685497281797e-86
5.614397800464036107e-86
4.624948596545424312e-86
3.980082778163871910e-86
3.362501375802563263e-86
2.451505641682170572e-86
1.755785421000599165e-86
1.418972801484090485e-86
9.406215743575425362e-87
7.122675669081716400e-87
4.937909086133942567e-87
3.422874994009103210e-87
2.404093720168938793e-87
1.691495472712750087e-87
1.203582510065707283e-87
8.688686986191968196e-88
6.399358917081518274e-88
4.802367814054316924e-88
3.663182063476988198e-88
2.826895613117559361e-88
2.191687070796512528e-88
1.694688614874196556e-88
1.297940740423597809e-88
