# bin_7_3
5.018923064247069889e-16
5.352894169074201848e-16
5.536621558269768046e-16
5.522661130848573420e-16
5.235883720563130639e-16
4.688852407159483474e-16
3.969957174203142254e-16
3.249552882967957310e-16
2.706396067503715807e-16
2.339939065361209041e-16
1.910296883073279931e-16
1.348230487091041767e-16
1.025636271451301297e-16
7.893964029558103887e-17
5.510911367238821217e-17
4.047373390579643643e-17
2.958847992369868608e-17
2.140160359590898088e-17
1.568960220494432433e-17
1.170758373437517596e-17
8.899296673794624988e-18
6.881372993108304210e-18
5.395406010501216184e-18
4.261612015113725255e-18
3.367695617131168531e-18
2.643954518354819395e-18
2.048537844031655203e-18
1.557682972490813257e-18
1.157175904412997520e-18
8.371381779734357734e-19
5.891392958504146697e-19
