# bin_12_9
8.926753376452782636e-13
9.905813936566689476e-13
1.076652416908977719e-12
1.140085913950564708e-12
1.167984493232742926e-12
1.150369859757650292e-12
1.072338220990438111e-12
9.449539303075559038e-13
7.882199665147049737e-13
6.447549316020655911e-13
5.451927516135828915e-13
4.709786682104127971e-13
3.668352005076701717e-13
2.539073762677072243e-13
2.034761627866975878e-13
1.440764166367325426e-13
1.060454125416244563e-13
7.278354846688475065e-14
5.246218302812132252e-14
3.725746813873167760e-14
2.657971017334886810e-14
1.920465904915706281e-14
1.407914597131696931e-14
1.052129842089232503e-14
8.004132302261714447e-15
6.173911294931316185e-15
4.803340905900164746e-15
3.742615669599082796e-15
2.899833782566826515e-15
2.219905802245791725e-15
1.670414794570447670e-15
