# bin_19_7
2.333682995475785705e-40
2.620933705113691281e-40
2.890902996043796760e-40
3.117780132001397731e-40
3.268601001380434155e-40
3.309873844567392829e-40
3.204207346633278413e-40
2.927997934437138614e-40
2.530200260702777663e-40
2.084757441025414344e-40
1.714945641088209253e-40
1.473295497415533160e-40
1.249973216976217264e-40
9.183097089769893462e-41
6.523065880288183780e-41
5.297407758861487996e-41
3.510102051167826334e-41
2.666059214933270886e-41
1.838849518364628937e-41
1.273855592238263786e-41
8.948406783229008034e-42
6.291187875557678956e-42
4.466372648102298698e-42
3.214805985427976557e-42
2.360695832258919463e-42
1.766679250384786239e-42
1.344521391467174053e-42
1.036028441380438568e-42
8.027631363789914642e-43
6.209221478358390585e-43
4.760786786346045311e-43
