# bin_19_18
5.906894873923019075e-11
6.700771354966135019e-11
7.481198949649796235e-11
8.189553384274925939e-11
8.747004900145555868e-11
9.054697640304681589e-11
9.035718120531835774e-11
8.562448234937164811e-11
7.661666541406078793e-11
6.478245727430066307e-11
5.302413793488361753e-11
4.427161088014507584e-11
3.837326209280244139e-11
3.119552760308828153e-11
2.175298947561435961e-11
1.662428303140788028e-11
1.257013897568513679e-11
8.631149486291481188e-12
6.103274856613445996e-12
4.338973599143133880e-12
2.977668209211541003e-12
2.035785693228573585e-12
1.402402549781439152e-12
9.743160294542817301e-13
6.857294935760534268e-13
4.916827129330344345e-13
3.595709176779795574e-13
2.683713665054708321e-13
2.037700971578511939e-13
1.565095410172799485e-13
1.207114087147434186e-13
