# bin_9_5
2.311302435812497409e-15
2.513593738942489757e-15
2.664554896062370602e-15
2.734125291458794893e-15
2.699320183885101912e-15
2.524365597413091234e-15
2.231429549703292981e-15
1.866406268571620377e-15
1.526172376066426026e-15
1.285950124983901023e-15
1.111488842175781968e-15
8.753294280936647397e-16
6.078779479811214382e-16
4.827065179914122672e-16
3.496446449058157760e-16
2.549591472923923804e-16
1.785040354798813990e-16
1.305533663152134613e-16
9.406823097606398665e-17
6.835686577482096876e-17
5.051217778498926722e-17
3.795440825374845427e-17
2.904003905365060019e-17
2.255279046905378625e-17
1.767476470286043563e-17
1.388857333954316355e-17
1.086454351122499051e-17
8.404623722893922223e-18
6.393073069109647562e-18
4.759889642730172172e-18
3.456798746771975980e-18
