# bin_19_11
2.601215094613696696e-22
2.932032359227985103e-22
3.248171197833195647e-22
3.521952841171815063e-22
3.717252863320707426e-22
3.792678886115791890e-22
3.713250730708893030e-22
3.435816613196850311e-22
3.006297424823275940e-22
2.494275803921980822e-22
2.043104145130108822e-22
1.739598852350871999e-22
1.496844161435439643e-22
1.139074361033492662e-22
7.903055650730010712e-23
6.418424700066502473e-23
4.364727425658746687e-23
3.280346390755208383e-23
2.216686639562097415e-23
1.550971436701973996e-23
1.085669674255782295e-23
7.598257686346489202e-24
5.341959816088600181e-24
3.796112329413380899e-24
2.749146114254682982e-24
2.030212996760998812e-24
1.527359142234197770e-24
1.167309359108142963e-24
9.007892700642822944e-25
6.968625358480991254e-25
5.364540600655698640e-25
