# bin_17_3
1.654179091403921795e-60
1.843394520908559424e-60
2.014008397044220920e-60
2.146516632989053952e-60
2.216617655657823422e-60
2.205851406058199992e-60
2.083199944599549308e-60
1.858243416071535788e-60
1.566669622347390224e-60
1.281584514412204645e-60
1.072179588671321848e-60
9.288980823377403716e-61
7.496775864446180550e-61
5.217746416381775026e-61
4.031050940195277134e-61
3.022207173787026260e-61
2.112822693256551549e-61
1.495190803894516550e-61
1.080692863337137490e-61
7.590913275101340833e-62
5.348496303223824782e-62
3.823505320447131446e-62
2.773557128953905688e-62
2.048115227872051227e-62
1.541610244440807800e-62
1.179068204581798715e-62
9.123913412072393017e-63
7.096532309529837151e-63
5.507750561102198584e-63
4.236208731343890629e-63
3.210350674521674183e-63
