# bin_14_9
2.909217259725422732e-16
3.242595496407620618e-16
3.543520718977660830e-16
3.777737586650376461e-16
3.902524960682608196e-16
3.885282405049314710e-16
3.671400618732710878e-16
3.276735287258889233e-16
2.764050793495744582e-16
2.261230427343375993e-16
1.890865395514313189e-16
1.638175261238854670e-16
1.324046829544643076e-16
9.222173797898912400e-17
7.110661621119883224e-17
5.344211449455283218e-17
3.727998355483516671e-17
2.643823672102207769e-17
1.909552275055828151e-17
1.340721443573448845e-17
9.443499247473951670e-18
6.747518703303081554e-18
4.892303672096210649e-18
3.610739046696058725e-18
2.716449900577697197e-18
2.076773744165328697e-18
1.606611186437997561e-18
1.249469600660408761e-18
9.697790651423898927e-19
7.460309661533576029e-19
5.655406223057233855e-19
