# bin_6_1
1.919936107383758250e-20
2.004998857252703116e-20
2.022823424117554330e-20
1.949798537168096719e-20
1.775134606318703565e-20
1.528728080922206475e-20
1.258101604327898978e-20
1.036097152930878573e-20
8.894720632116989524e-21
7.499860818086656533e-21
5.506687520603912317e-21
3.974972065246293832e-21
3.204598181158374957e-21
2.194000244620834504e-21
1.674884181267018508e-21
1.200017120853477446e-21
8.728615825144235990e-22
6.465921139852988211e-22
4.858174026602834296e-22
3.716369886286072982e-22
2.890822420534874622e-22
2.280130537424206126e-22
1.811104219742650498e-22
1.438316038324965443e-22
1.134036156026274500e-22
8.817426189629400523e-23
6.722431410999089931e-23
5.002664154519329868e-23
3.622922933556576130e-23
2.551405360801233430e-23
1.749463301409587458e-23
