# bin_1_1
8.613715680810299610e-10
8.327063599040512156e-10
7.616380305847508091e-10
6.593223345594322464e-10
5.450570048605657565e-10
4.486003230517506353e-10
3.827031734148236554e-10
3.232522061045316304e-10
2.425161837907494911e-10
1.747462478353364349e-10
1.392297608305842126e-10
9.866678113355982896e-11
7.437991396170441475e-11
5.402390105937358430e-11
4.019750031969965090e-11
3.031655803705086263e-11
2.326749295198704246e-11
1.819591229498755194e-11
1.444877515110091901e-11
1.159036944051816486e-11
9.320835356231509242e-12
7.457664572775117773e-12
5.894904408638079893e-12
4.574438445805417962e-12
3.467280302293420767e-12
2.558146540516408192e-12
1.834917917773949325e-12
1.280536676567543827e-12
8.715857975672998088e-13
5.804436693427513423e-13
3.795093929994994128e-13
