# bin_10_2
1.448749580278604188e-32
1.567900834329054835e-32
1.652019471986462329e-32
1.683088996593718724e-32
1.645226225839827397e-32
1.520342435689018836e-32
1.328757132061928431e-32
1.101932618670928578e-32
9.024659617757603508e-33
7.677346955493485697e-33
6.592736903635304050e-33
5.023157410835880271e-33
3.509179063896049134e-33
2.847607156408244914e-33
1.971322914723937456e-33
1.491120996402145981e-33
1.038361351744605298e-33
7.508741519013020113e-34
5.460332165195140765e-34
4.008118449018605621e-34
2.985359511940597693e-34
2.260939657451152393e-34
1.743110656369516204e-34
1.361520385784521614e-34
1.070754520917658031e-34
8.421874181636813448e-35
6.577799022010409221e-35
5.069312397418675486e-35
3.834137054219089619e-35
2.833863981918747597e-35
2.040784736766690573e-35
