# bin_12_3
2.161473369658780956e-35
2.367957019713819757e-35
2.533219227068763811e-35
2.629361724035408125e-35
2.633016032436963432e-35
2.508744948871232264e-35
2.256777127580299595e-35
1.919063260244182061e-35
1.572089425136585995e-35
1.305258799807473264e-35
1.128838614355225504e-35
9.308693485710159601e-36
6.595475134441624602e-36
4.940335357286348776e-36
3.854280116720509178e-36
2.635675960707697532e-36
1.947445687074164409e-36
1.401647621643730688e-36
9.961211310965685284e-37
7.159025122163788607e-37
5.216364304712552565e-37
3.868170951006584588e-37
2.919982554098702434e-37
2.243088828145037196e-37
1.744813627321839488e-37
1.366280996811998518e-37
1.069635237976975962e-37
8.312681326758699641e-38
6.373590238928152459e-38
4.796601831680705000e-38
3.528867615620132408e-38
