# bin_10_5
7.022049476473876512e-18
7.667955595714353798e-18
8.170015102206121628e-18
8.436413683021606019e-18
8.396484922659777532e-18
7.933582664431421998e-18
7.080833498274929066e-18
5.974083876947590135e-18
4.886866906000622309e-18
4.083491300528878973e-18
3.535122271184966008e-18
2.860191856060054333e-18
1.999578221676654822e-18
1.540659543870387603e-18
1.164758054806811705e-18
8.174401767184560134e-19
5.875325044710718626e-19
4.284938872341207789e-19
3.062543161717857004e-19
2.207739217101210004e-19
1.618980517304897610e-19
1.207941843194513153e-19
9.176257439652388514e-20
7.085971767555340636e-20
5.532396812178068765e-20
4.340444457706830234e-20
3.397854888129185516e-20
2.635791704660830931e-20
2.014076766367847359e-20
1.508634887446505015e-20
1.103520326302708799e-20
