# bin_6_2
2.058340846144987014e-16
2.165139245535555107e-16
2.202355621062996781e-16
2.148556498855489526e-16
1.981713745445144473e-16
1.728982432644617629e-16
1.432720458765306272e-16
1.173949601023103683e-16
9.991308791322846975e-17
8.558261153881981353e-17
6.504935723224935198e-17
4.572250889319868910e-17
3.703968874647521610e-17
2.579591439777913874e-17
1.955747020702685035e-17
1.381078818351627786e-17
1.009209916493848868e-17
7.443402233469664002e-18
5.558551395892602321e-18
4.221036173088532072e-18
3.260109027000986549e-18
2.557300548896231659e-18
2.024767155013652069e-18
1.606768179806474190e-18
1.268953201218147256e-18
9.905182377411706686e-19
7.596204466176595672e-19
5.694945730746991061e-19
4.159103793388332763e-19
2.954006063377201736e-19
2.041610474686132210e-19
