# bin_17_7
-3.222832723368893977e-30
-3.604811312348745304e-30
-3.956398899315903818e-30
-4.240704253804974399e-30
-4.411268059231679406e-30
-4.427560145540554965e-30
-4.231155686360584309e-30
-3.815987060486118641e-30
-3.253187850720753446e-30
-2.666102839036225856e-30
-2.209455471433518407e-30
-1.910818682413743339e-30
-1.584637949369041391e-30
-1.125562886811269412e-30
-8.341241176129986253e-31
-6.550526671355172330e-31
-4.408383301966688869e-31
-3.258219804278100058e-31
-2.304782226006101391e-31
-1.605556682071518999e-31
-1.127217272732384818e-31
-7.975561228480517614e-32
-5.725300849550034983e-32
-4.177884964949609888e-32
-3.109845131955674964e-32
-2.356090439528747239e-32
-1.810778674155597715e-32
-1.403700042424941300e-32
-1.089622324956898966e-32
-8.409136794454799571e-33
-6.411092796764211004e-33
