# bin_11_3
-2.077133395542842745e-28
-2.265303849306486630e-28
-2.409808509680150368e-28
-2.483447367956799044e-28
-2.465661052308719499e-28
-2.322311582169570768e-28
-2.066288845106357119e-28
-1.738167224487867459e-28
-1.420943033053063438e-28
-1.189910357477239224e-28
-1.029989848058908285e-28
-8.270965527674906592e-29
-5.761492962115204537e-29
-4.481096034401067630e-29
-3.347040805071216939e-29
-2.373624040422038430e-29
-1.690191208565077585e-29
-1.235835788386011357e-29
-8.851447863997547049e-30
-6.392014709125957414e-30
-4.697669826147015110e-30
-3.511913323487063721e-30
-2.673281510494208249e-30
-2.067690873959944506e-30
-1.616122482010037025e-30
-1.268525079788180828e-30
-9.928550177371013326e-31
-7.695774763505242378e-31
-5.872924736410491250e-31
-4.391524849853131442e-31
-3.205674158069048503e-31
