# bin_13_17
-3.494195650660336292e-11
-3.935503361649948999e-11
-4.355780390161346575e-11
-4.717536109694225544e-11
-4.972089494241918557e-11
-5.064686672418793561e-11
-4.947206021980843440e-11
-4.565207866974934578e-11
-3.983703045604795508e-11
-3.299005870224485726e-11
-2.703044057895594525e-11
-2.305465751810283236e-11
-1.979526752025495890e-11
-1.495740478505504071e-11
-1.040464034030386740e-11
-8.468995196475969078e-12
-5.711797173683440214e-12
-4.313438821049295299e-12
-2.923019552167371070e-12
-2.037769070381582433e-12
-1.428305716674131437e-12
-1.001076544270700538e-12
-7.050657900174297182e-13
-5.022092933721014809e-13
-3.646758879300186221e-13
-2.700187187953361134e-13
-2.036169942603740489e-13
-1.558890312828162363e-13
-1.204111530080060694e-13
-9.316139324554316700e-14
-7.166813497040027311e-14
