# bin_5_18
-8.106868856653420462e-47
-9.070395847294128429e-47
-9.958661206063985059e-47
-1.067909174944966816e-46
-1.111503146807504729e-46
-1.116344231549342375e-46
-1.067832600939068853e-46
-9.639348210231036092e-47
-8.225511102730087264e-47
-6.742939783108205029e-47
-5.584396175095567971e-47
-4.827948551188618406e-47
-4.011348879502033067e-47
-2.855311901849034967e-47
-2.109068340496756282e-47
-1.661589623358058056e-47
-1.115769004391992732e-47
-8.271167759218093092e-48
-5.839294058001647617e-48
-4.065440474949943244e-48
-2.854160105558032513e-48
-2.018026629528228741e-48
-1.447431584395586228e-48
-1.055187380263961607e-48
-7.846951440354409353e-49
-5.940095597999781415e-49
-4.562379850544961770e-49
-3.535468403100180498e-49
-2.744248334237432306e-49
-2.118331778219429923e-49
-1.615730165052213957e-49
