# bin_15_4
-3.614542865509710214e-40
-4.008495104553536743e-40
-4.353497209607283112e-40
-4.605679411023073687e-40
-4.713017102526179947e-40
-4.635014416468114262e-40
-4.312593568983050370e-40
-3.793329520607045768e-40
-3.159092793105327649e-40
-2.583567623717554640e-40
-2.187145684555907775e-40
-1.888251494118659275e-40
-1.463690261843457003e-40
-1.012869889573960887e-40
-8.147871363804128447e-41
-5.726831563053344012e-41
-4.241322549413842399e-41
-2.904346941890582964e-41
-2.089338992796370474e-41
-1.485836371497550510e-41
-1.061776143909298929e-41
-7.679983032992366547e-42
-5.636639769687614252e-42
-4.217600529252542217e-42
-3.212122341162745243e-42
-2.479729917810812436e-42
-1.930170160162596812e-42
-1.504034609731039312e-42
-1.164984407800022368e-42
-8.912570784373178607e-43
-6.700392159161930047e-43
