# bin_13_12
-2.019058332731264335e-08
-2.256951120185004168e-08
-2.475182231200195740e-08
-2.650521215899213691e-08
-2.753747227408490160e-08
-2.760039889658847430e-08
-2.632356718611062738e-08
-2.369572173418069923e-08
-2.016127222546889280e-08
-1.651464467529366711e-08
-1.370552972339684440e-08
-1.185979435340998237e-08
-9.794992487181557871e-09
-6.928601240272258209e-09
-5.169956267737401219e-09
-4.031644729109728384e-09
-2.727206668373724440e-09
-2.002204177019264984e-09
-1.422121818650738024e-09
-9.919045548313744568e-10
-6.964950854129788632e-10
-4.935687820304563922e-10
-3.549271736561258389e-10
-2.595170325391372384e-10
-1.935436261651391621e-10
-1.468770358349964244e-10
-1.130234314975626425e-10
-8.767306492144137575e-11
-6.806037544143029640e-11
-5.249914127382927036e-11
-3.998674277997136205e-11
