# bin_9_5
-5.553237206565956010e-13
-6.038641257402708822e-13
-6.400519155172721240e-13
-6.566614433927132853e-13
-6.481947603361020914e-13
-6.060518077654676443e-13
-5.355608443377376487e-13
-4.478029228461259332e-13
-3.660473398644590447e-13
-3.083653363495595993e-13
-2.665306423358506761e-13
-2.098861006729529264e-13
-1.456921967140783723e-13
-1.156801816005576658e-13
-8.379242463952631196e-14
-6.108417333664790888e-14
-4.276131714795348354e-14
-3.127258488729588158e-14
-2.253086230548074902e-14
-1.637064898318959545e-14
-1.209599904841998527e-14
-9.087925614201967148e-15
-6.952802026031854641e-15
-5.399186409975257312e-15
-4.231077234935917496e-15
-3.324520877804920054e-15
-2.600534848431117366e-15
-2.011660441487379836e-15
-1.530163338099792827e-15
-1.139263274383386577e-15
-8.273851334184391079e-16
