# bin_11_11
-3.617043413425573296e-08
-4.020709735046492951e-08
-4.379393922343064068e-08
-4.649759688332938847e-08
-4.778843035354788174e-08
-4.727223395011577783e-08
-4.430193012771298025e-08
-3.923077753930074313e-08
-3.285445825840097095e-08
-2.685702894872924082e-08
-2.260107382153101707e-08
-1.956205232148684875e-08
-1.547494379564416273e-08
-1.070596040016921203e-08
-8.463169543978669123e-09
-6.140916532013908903e-09
-4.422329214202211066e-09
-3.060277218622389550e-09
-2.216814176408411898e-09
-1.566372316041087568e-09
-1.110663123630936607e-09
-7.989636193952085450e-10
-5.830621291822506189e-10
-4.335248569115237003e-10
-3.283426462456483592e-10
-2.523859829119284337e-10
-1.959415704921605858e-10
-1.525818965065912182e-10
-1.183229184201928903e-10
-9.076916478240577434e-11
-6.851228622216686290e-11
