# bin_20_1
-1.934729502138479918e-94
-2.170359188304801224e-94
-2.390553877928832238e-94
-2.573701149986274033e-94
-2.692341479504510407e-94
-2.719619222186648553e-94
-2.623325751261801421e-94
-2.388018436724396162e-94
-2.055478583140921095e-94
-1.690263658530735953e-94
-1.392580378564567541e-94
-1.198865773301471569e-94
-1.011501909997742442e-94
-7.356648454726960260e-95
-5.280026007759505356e-95
-4.260625002585108249e-95
-2.824420758565835903e-95
-2.136301541426771398e-95
-1.483042147314257568e-95
-1.028163507406022529e-95
-7.220419243365940756e-96
-5.081186801597785212e-96
-3.617760065268316372e-96
-2.613745012028669869e-96
-1.926644841751616914e-96
-1.446943050742302216e-96
-1.104397679660165536e-96
-8.526083529355008240e-97
-6.611177479172134797e-97
-5.111401407556915297e-97
-3.913448714714597887e-97
