# bin_3_20
-2.030456343012359623e-73
-2.279152829582650930e-73
-2.512276193538498884e-73
-2.707268636401880489e-73
-2.835394684084976342e-73
-2.867900615555628315e-73
-2.771816968964016858e-73
-2.528344078897816660e-73
-2.180803361770376479e-73
-1.794937866182401492e-73
-1.477214836496325812e-73
-1.270141527934972500e-73
-1.075135412714451580e-73
-7.863548209524585704e-74
-5.608115687593802287e-74
-4.543802983787608630e-74
-3.009485292464635511e-74
-2.282594998588562450e-74
-1.578531262907395238e-74
-1.093721329363640966e-74
-7.681702720333821596e-75
-5.402288837093230380e-75
-3.839887941398461541e-75
-2.768198164518845606e-75
-2.036030394895673733e-75
-1.526012855575284613e-75
-1.162824229386528505e-75
-8.967624934188509753e-76
-6.950825982183706618e-76
-5.375437469596713794e-76
-4.119037308501516903e-76
