# bin_9_1
-3.045534679956020937e-32
-3.264315672797356174e-32
-3.397817989194141225e-32
-3.414321571759765486e-32
-3.270715144232434421e-32
-2.957891098846231127e-32
-2.529447725670678237e-32
-2.075077480927749112e-32
-1.714976297091162094e-32
-1.478550255333753694e-32
-1.233548804443093690e-32
-8.881456574219076363e-33
-6.523894924503386055e-33
-5.195200693674176110e-33
-3.537679703591162288e-33
-2.671813834528845625e-33
-1.919303168476756541e-33
-1.379896786226601145e-33
-1.008944199278003559e-33
-7.478919248806744611e-34
-5.645888921155402804e-34
-4.336602083339496434e-34
-3.383025526645841079e-34
-2.663882740237577512e-34
-2.103092260463104434e-34
-1.653125999690655518e-34
-1.284904183422626201e-34
-9.818187030752665185e-35
-7.339843815308788173e-35
-5.348660163136319108e-35
-3.792726501798819775e-35
