# bin_15_19
-6.849336374459625425e-11
-7.749307024259485504e-11
-8.623537209031109608e-11
-9.402232982926070918e-11
-9.992142216729125204e-11
-1.027873597928797026e-10
-1.017763416537487270e-10
-9.547363405796863483e-11
-8.461451595872230624e-11
-7.090519140035390437e-11
-5.797145495443215909e-11
-4.878449404998607988e-11
-4.225495897455163593e-11
-3.346084014187663595e-11
-2.309417265241645412e-11
-1.822727830963257365e-11
-1.318475873048847395e-11
-9.419033061622080515e-12
-6.426926436110009337e-12
-4.596537044569973711e-12
-3.176741762061798102e-12
-2.188129069367773413e-12
-1.521105923797025781e-12
-1.066615522508388404e-12
-7.598369503901008587e-13
-5.518585316662423870e-13
-4.087571569533708411e-13
-3.085218694706719205e-13
-2.361884480575817499e-13
-1.822054642948641620e-13
-1.405766404091530628e-13
