# bin_8_20
-4.978612861842186446e-36
-5.605578747679598087e-36
-6.201806761419448698e-36
-6.713681749241620338e-36
-7.071741220999312358e-36
-7.198573621463992145e-36
-7.024631665744857506e-36
-6.474809108694452389e-36
-5.643721172435586915e-36
-4.670441907488273108e-36
-3.827841533227202335e-36
-3.267681643101608343e-36
-2.802813290736139617e-36
-2.110972278434829768e-36
-1.470618756411256826e-36
-1.198180340336975358e-36
-8.051013646605958504e-37
-6.093213662517077223e-37
-4.135748500442193008e-37
-2.878273183409175102e-37
-2.018768916097401085e-37
-1.415883507929163752e-37
-9.980933722367108418e-38
-7.117341621759712781e-38
-5.174799142212943914e-38
-3.836351900550499503e-38
-2.896114781931027922e-38
-2.219057365625521201e-38
-1.714788204528379377e-38
-1.326781665618602543e-38
-1.020356153270347642e-38
