# bin_9_11
-3.741396361860888209e-09
-4.141528395668862640e-09
-4.487797070432425755e-09
-4.734383560443397015e-09
-4.828801696099741914e-09
-4.726865525730132945e-09
-4.373791084996207195e-09
-3.826972476763704610e-09
-3.175027350144242027e-09
-2.599063008490375412e-09
-2.210110173102333509e-09
-1.901336031975748881e-09
-1.451011392197583271e-09
-1.008368583384171854e-09
-8.181292227222424894e-10
-5.628510403776067666e-10
-4.237461168686389218e-10
-2.905340321528880302e-10
-2.072878091837904178e-10
-1.480868589577523500e-10
-1.063697845257815186e-10
-7.724511164273412826e-11
-5.694481893896396053e-11
-4.280770137000562627e-11
-3.273264160744753950e-11
-2.534468116980991510e-11
-1.976001019430715324e-11
-1.540027520028607882e-11
-1.191499079716617248e-11
-9.094746875478349914e-12
-6.815626989240598830e-12
