# bin_7_2
-2.619715518394529776e-17
-2.777679514621135295e-17
-2.852045726203807731e-17
-2.819000827218399783e-17
-2.641013468317484907e-17
-2.338345531685986858e-17
-1.958722554674605675e-17
-1.600505434971021658e-17
-1.344434432515431521e-17
-1.161765197938033741e-17
-9.220302803222810516e-18
-6.427604077837184353e-18
-5.061732564903202146e-18
-3.728591043106578575e-18
-2.701230035985008303e-18
-1.924861030169330727e-18
-1.419725686593766299e-18
-1.035199151308714501e-18
-7.638648185007903473e-19
-5.743479492078909654e-19
-4.395536144101167227e-19
-3.420445617570483521e-19
-2.693887095167974746e-19
-2.132826203355416735e-19
-1.685669862145125531e-19
-1.320669411241419916e-19
-1.019166098297073462e-19
-7.705573978728028726e-20
-5.684334965653746450e-20
-4.080474876042712372e-20
-2.849362375761270544e-20
