# bin_8_17
-2.057975272279305642e-25
-2.304211547436105943e-25
-2.532079809669358713e-25
-2.718227997109557291e-25
-2.833182997980209462e-25
-2.850081999223052104e-25
-2.732602511269361493e-25
-2.472204212431956678e-25
-2.114355602519541099e-25
-1.734029126426810105e-25
-1.433268982069198848e-25
-1.237742888878234804e-25
-1.033461150485335720e-25
-7.398327953893713394e-26
-5.414735294336589915e-26
-4.302041402855624111e-26
-2.872091427136784249e-26
-2.145218674693758677e-26
-1.506268167237073691e-26
-1.046914445491638040e-26
-7.349020447130373409e-27
-5.185920032803909301e-27
-3.710613848099644765e-27
-2.697334874249413040e-27
-2.000358805360110788e-27
-1.510561153766577253e-27
-1.158003736764608023e-27
-8.963608555456259775e-28
-6.955693209565569793e-28
-5.372004106547733594e-28
-4.102243277736012218e-28
