# bin_17_3
-4.436619792814830847e-58
-4.943190984371840544e-58
-5.399525480474623427e-58
-5.753293923036784647e-58
-5.939347579496192839e-58
-5.908336525709963590e-58
-5.577263205474987686e-58
-4.971921611296645101e-58
-4.188890817098649167e-58
-3.424178762087598494e-58
-2.863381260673032294e-58
-2.480649178720932890e-58
-2.001709725908106678e-58
-1.392030999456007994e-58
-1.075099338011065766e-58
-8.060181325759052390e-59
-5.631559626428320594e-59
-3.985150662039369632e-59
-2.879451161763750563e-59
-2.022208742436344878e-59
-1.424601143072933972e-59
-1.018295205381917503e-59
-7.385686012115019766e-60
-5.453313664680926627e-60
-4.104369066514428257e-60
-3.138927645017452631e-60
-2.428829851913032126e-60
-1.889030191073849527e-60
-1.466035410664570202e-60
-1.127524947169108706e-60
-8.544433158497504875e-61
