# bin_15_6
-6.260033257242973567e-28
-6.960029873239844327e-28
-7.582794039697807143e-28
-8.053437424350720557e-28
-8.280169461816203765e-28
-8.195016334968345693e-28
-7.684997923750067245e-28
-6.808847912118875900e-28
-5.704106969594405427e-28
-4.661070192640469641e-28
-3.918816718567768247e-28
-3.392678244152275813e-28
-2.690179777434473262e-28
-1.860526721912096234e-28
-1.467270645729678734e-28
-1.068768771897842414e-28
-7.667675478436191671e-29
-5.314303368881243233e-29
-3.851705853070463535e-29
-2.719359309756853490e-29
-1.926240111680469097e-29
-1.384677768471285815e-29
-1.009757543338336318e-29
-7.501783925506444968e-30
-5.677666216500079955e-30
-4.361793586555808365e-30
-3.385122699198362538e-30
-2.635744298078648964e-30
-2.044178915449672835e-30
-1.568638817838963040e-30
-1.184554663437759604e-30
