# bin_4_6
-2.551735879207037750e-09
-2.718923072554597790e-09
-2.808908840804365497e-09
-2.797776102940086337e-09
-2.647537396207654554e-09
-2.366296602885974571e-09
-1.999596037480154883e-09
-1.635258488192064103e-09
-1.362761502549045793e-09
-1.178231279989495725e-09
-9.585569192136279057e-10
-6.748430955143047699e-10
-5.154459407315333273e-10
-3.947047585589506630e-10
-2.765647401383363887e-10
-2.023563182135683345e-10
-1.481110196070334134e-10
-1.072130430133703692e-10
-7.864350914856497483e-11
-5.873127023101963823e-11
-4.467644699172721020e-11
-3.456983355126476477e-11
-2.711766812283389472e-11
-2.142372097183163862e-11
-1.692887472776412645e-11
-1.328642028332221487e-11
-1.028862667767848883e-11
-7.817516463365887629e-12
-5.802355709823789076e-12
-4.193584393405097493e-12
-2.948436785745768499e-12
