# bin_17_17
-2.779855211489312303e-08
-3.144132090796166119e-08
-3.497511143639083129e-08
-3.811580533897356859e-08
-4.048433438293816353e-08
-4.161658956908235401e-08
-4.117090384557698105e-08
-3.857806811296709499e-08
-3.415194948811421114e-08
-2.858771501035111594e-08
-2.336473516441499055e-08
-1.967237974102583831e-08
-1.703609388815080280e-08
-1.345590773166739235e-08
-9.279238656841735632e-09
-7.341863712760848369e-09
-5.288628352954016710e-09
-3.791554123629632910e-09
-2.580525322460415456e-09
-1.844581940102628931e-09
-1.275671261876870772e-09
-8.794522140020324825e-10
-6.117994718930272474e-10
-4.293231127234945667e-10
-3.061532113904953682e-10
-2.225949502452532662e-10
-1.650481780975432151e-10
-1.246871745749755395e-10
-9.551408460270309771e-11
-7.370528458348188351e-11
-5.686321801747050788e-11
