# bin_12_9
-2.331856553851137127e-10
-2.587114544939828560e-10
-2.811276166277152713e-10
-2.976115821643410541e-10
-3.047937489816315765e-10
-3.000858071198501577e-10
-2.795943631128068391e-10
-2.462273017354560005e-10
-2.052399398053570845e-10
-1.677704743894125488e-10
-1.418116445633464109e-10
-1.225080213972188900e-10
-9.539352854741943168e-11
-6.596536173898670300e-11
-5.286157774250594411e-11
-3.742274236568521837e-11
-2.753436607533800192e-11
-1.888867032801147332e-11
-1.361415523786663357e-11
-9.666645871651662398e-12
-6.894622611532233270e-12
-4.980725712683186045e-12
-3.650734409463269982e-12
-2.727727534543651162e-12
-2.074843138191041008e-12
-1.600216387809901274e-12
-1.244854125494790776e-12
-9.698765352767129198e-13
-7.514292515617510564e-13
-5.752158966609395524e-13
-4.328223474184309136e-13
