# bin_15_2
-1.427910595833844716e-56
-1.579775626761123117e-56
-1.710741069070020177e-56
-1.803283216188510927e-56
-1.837523560885026128e-56
-1.796376384739264322e-56
-1.659596249655495868e-56
-1.449824216498707411e-56
-1.201372554663709609e-56
-9.833791717715881846e-57
-8.369522416388065439e-57
-7.193241110095064708e-57
-5.468301804885324000e-57
-3.803458939235785584e-57
-3.091127320298868795e-57
-2.116270201231687327e-57
-1.598363812090258909e-57
-1.096696974081908150e-57
-7.810099616417028693e-58
-5.584126955655315894e-58
-4.014742330974673840e-58
-2.917954320788715252e-58
-2.153216891882947000e-58
-1.620307762275978646e-58
-1.240025182036387413e-58
-9.607416203706696939e-59
-7.492759210333689651e-59
-5.839477334390124477e-59
-4.516472177187361224e-59
-3.445455854620065551e-59
-2.580024983474941985e-59
