# bin_3_2
-4.507396884088037806e-08
-4.591253527040179819e-08
-4.489777886580786081e-08
-4.155113517628804988e-08
-3.637062333374087182e-08
-3.021995507302909373e-08
-2.473954110757938264e-08
-2.096205367525802032e-08
-1.797219441613901124e-08
-1.384219306779889552e-08
-9.742806085728155944e-09
-7.803105926982412677e-09
-5.569899216606494233e-09
-4.164025404094786317e-09
-2.978503825571669466e-09
-2.203197989938763759e-09
-1.637264130098423929e-09
-1.234830088929366643e-09
-9.489173809442045205e-10
-7.416382775063005976e-10
-5.876772838174279418e-10
-4.689926035116304255e-10
-3.741492521425568267e-10
-2.962450469766619537e-10
-2.312411895075875721e-10
-1.769142175864752266e-10
-1.320516356111295338e-10
-9.590062667229455755e-11
-6.771259242691511471e-11
-4.655426740383872370e-11
-3.125533132217461217e-11
