# bin_7_9
-3.203959814979371636e-09
-3.507072711387146984e-09
-3.747951247328926323e-09
-3.885141010354789178e-09
-3.884559928289760629e-09
-3.693617888227005999e-09
-3.315575987765020814e-09
-2.813174955570907200e-09
-2.302105334081357227e-09
-1.912709621116893248e-09
-1.654556878067573616e-09
-1.359421124552925208e-09
-9.597881236944652579e-10
-7.225077163187362852e-10
-5.604786398023163993e-10
-3.847781481147953809e-10
-2.828667438009857817e-10
-2.040714361608470808e-10
-1.451418952004707282e-10
-1.043424508532925242e-10
-7.610367652734533766e-11
-5.649268319354573727e-11
-4.269056726969925413e-11
-3.282364324558273025e-11
-2.554806771532997764e-11
-2.001117210180038308e-11
-1.566506115156196232e-11
-1.216902398065491166e-11
-9.323779529341336083e-12
-7.010270904783448855e-12
-5.151707129761009695e-12
