# bin_11_3
-2.080190452282784421e-28
-2.268344534349498014e-28
-2.412671383321704133e-28
-2.485934721333377458e-28
-2.467579946991629000e-28
-2.323448138019987374e-28
-2.066592324002825383e-28
-1.737729741168969092e-28
-1.420075502766022639e-28
-1.188977052685978420e-28
-1.029163619392607078e-28
-8.262619022107222057e-29
-5.752959802511882697e-29
-4.474566411311102704e-29
-3.341408826019172727e-29
-2.369409116037264135e-29
-1.686838964182403292e-29
-1.233263141364063176e-29
-8.832503867609026493e-30
-6.377902798053797448e-30
-4.687089363666927513e-30
-3.503791975041577040e-30
-2.666959232323287076e-30
-2.062702476475948160e-30
-1.612142331538659578e-30
-1.265334084348223210e-30
-9.903040415744451080e-31
-7.675584475356983304e-31
-5.857217437110845561e-31
-4.379585569693774318e-31
-3.196848755043930408e-31
