# bin_4_17
-1.059992747390515613e-49
-1.181992902389847644e-49
-1.292411164107124287e-49
-1.378820549444602364e-49
-1.425690601967399627e-49
-1.420992747074749961e-49
-1.344835649091260600e-49
-1.201763354256396462e-49
-1.014867992067914754e-49
-8.298444635961929650e-50
-6.924881926375929103e-50
-5.999104332987231134e-50
-4.871866280219814853e-50
-3.399524455820719860e-50
-2.602619166652796034e-50
-1.972279241415277814e-50
-1.364995268700355719e-50
-9.751185379004774106e-51
-7.021983727821484188e-51
-4.921982700846392944e-51
-3.462483683390694156e-51
-2.469237375475065460e-51
-1.787028272415218663e-51
-1.316201231136018542e-51
-9.883612446636085723e-52
-7.544441947946431626e-52
-5.830077149072038940e-52
-4.531779952519557171e-52
-3.517577280819105000e-52
-2.707565015199873836e-52
-2.054550890891772508e-52
