# bin_1_12
-4.889584056595012248e-49
-5.335254630814446281e-49
-5.679238908384357272e-49
-5.857565570003261648e-49
-5.821542654144551284e-49
-5.490438719042856415e-49
-4.890907394850018330e-49
-4.118515081234912114e-49
-3.366121219834870625e-49
-2.814618791508484220e-49
-2.436482852358818391e-49
-1.964177123758473244e-49
-1.369912214370640972e-49
-1.059941172318754814e-49
-7.968239451796516792e-50
-5.616759666902372855e-50
-4.019022481156661350e-50
-2.934200801689389388e-50
-2.098839667587468793e-50
-1.513970617012174662e-50
-1.111205379641012724e-50
-8.297214171687099998e-51
-6.308141474764491709e-51
-4.874303458436380590e-51
-3.807155362534648107e-51
-2.987275455403445270e-51
-2.338150467289144415e-51
-1.812977086461958375e-51
-1.384441907496208770e-51
-1.036152709942995607e-51
-7.571879396605588754e-52
