# bin_19_19
-2.656544478954334136e-08
-3.015593130427498367e-08
-3.369726206548314246e-08
-3.692725404631699765e-08
-3.949398260411093600e-08
-4.095535442859876939e-08
-4.095346873701522567e-08
-3.892044181231158317e-08
-3.491225150225200350e-08
-2.959215400166450644e-08
-2.421574325350947750e-08
-2.015482099189692218e-08
-1.746358944682588538e-08
-1.430518401760408804e-08
-1.002323881937975964e-08
-7.569059850113950615e-09
-5.800997534936122224e-09
-3.937102248510867559e-09
-2.822262584540504033e-09
-1.993322873480902642e-09
-1.364671432848296727e-09
-9.320753127376970760e-10
-6.399352742950871335e-10
-4.430496204328427263e-10
-3.104526698397530930e-10
-2.215479627025515325e-10
-1.612365565318283361e-10
-1.198062718868436480e-10
-9.065009839282565284e-11
-6.947561882728308524e-11
-5.354874832826388571e-11
