# bin_19_11
-7.700541807465407246e-20
-8.678493653863935493e-20
-9.612400680382398754e-20
-1.042027629591066966e-19
-1.099518032979968800e-19
-1.121451859697937279e-19
-1.097562025797396589e-19
-1.015055512851689598e-19
-8.876190872464064898e-20
-7.359055595556120117e-20
-6.024003574876560718e-20
-5.127461950418248998e-20
-4.412159996536647714e-20
-3.356374725843981192e-20
-2.326552729397304210e-20
-1.889670969609698644e-20
-1.284604530866484883e-20
-9.652884125728882223e-21
-6.518033874273527283e-21
-4.561610598172585460e-21
-3.191901976491753000e-21
-2.233323676605960512e-21
-1.569766938826379076e-21
-1.115268377342569548e-21
-8.075185426693261739e-22
-5.962430559842597667e-22
-4.484974799011946096e-22
-3.427338028552353319e-22
-2.644604203201669841e-22
-2.045809011322126615e-22
-1.574865548581467138e-22
