# bin_14_16
-5.439596861532460223e-09
-6.124676646280984961e-09
-6.776203108051062210e-09
-7.335640699664864392e-09
-7.727131581790711588e-09
-7.865951676249300631e-09
-7.676532792317493705e-09
-7.076179362983701581e-09
-6.167970274938820312e-09
-5.103418382850109491e-09
-4.180999602279246767e-09
-3.567763940646214864e-09
-3.061185991957492290e-09
-2.307220876564777658e-09
-1.605939048872181675e-09
-1.308147041606954391e-09
-8.797220418664925482e-10
-6.653518297412200268e-10
-4.512362157336456945e-10
-3.142234084323030231e-10
-2.203048443268158378e-10
-1.544632439768498391e-10
-1.088442485309446869e-10
-7.758177549852399885e-11
-5.638064111664070439e-11
-4.177916900919999508e-11
-3.152714072888711851e-11
-2.414953341027552912e-11
-1.865845589980686030e-11
-1.443597856238014325e-11
-1.110278668834569433e-11
