# bin_11_13
-4.409979909601458092e-09
-4.921000633273611507e-09
-5.385339961757827214e-09
-5.751575666990053585e-09
-5.955296012899565946e-09
-5.945371257564793039e-09
-5.639288282927847616e-09
-5.049841974137468393e-09
-4.273395597897830479e-09
-3.495484841429043494e-09
-2.911752540851534199e-09
-2.522004039400421837e-09
-2.058871850686832997e-09
-1.441734989870433781e-09
-1.095284963636337191e-09
-8.374422329155039094e-10
-5.752285202170603731e-10
-4.143913526136167003e-10
-2.972814911091530939e-10
-2.080451503430026160e-10
-1.462314858879671622e-10
-1.040759068222057733e-10
-7.517741218474731105e-11
-5.525032595101049704e-11
-4.140481013601085723e-11
-3.155181518455055181e-11
-2.435279930668376050e-11
-1.891905242497294460e-11
-1.468617881120014590e-11
-1.131179076337072901e-11
-8.593301897309529660e-12
