# bin_10_3
-4.280611442569968570e-24
-4.645206588599066817e-24
-4.911011168194349427e-24
-5.022981851297230641e-24
-4.937808662397338502e-24
-4.593302253850087930e-24
-4.039373714729522240e-24
-3.363712932358686728e-24
-2.749582082212955761e-24
-2.325128928327168186e-24
-2.005990640422597411e-24
-1.558457917916976257e-24
-1.081684190521774418e-24
-8.685296013736473151e-25
-6.165635209767468001e-25
-4.571903097619506159e-25
-3.180380354388093672e-25
-2.317997699685868321e-25
-1.676631469349592983e-25
-1.223461290975768639e-25
-9.069308189617741795e-26
-6.835187181329683937e-26
-5.245523754719667754e-26
-4.083062044418077799e-26
-3.204387037161701061e-26
-2.518939770662658923e-26
-1.969239829863201676e-26
-1.521063021139347272e-26
-1.154374091429836209e-26
-8.569668846531353091e-27
-6.202603691819964219e-27
