# bin_13_6
-7.316635831458872035e-21
-8.089962578101590436e-21
-8.754196977069422795e-21
-9.219295739730369158e-21
-9.384521658559079619e-21
-9.160391314746343012e-21
-8.447986989188137674e-21
-7.367509072533347588e-21
-6.098239401274446599e-21
-4.993853056479493173e-21
-4.256060478204630782e-21
-3.652402460761525967e-21
-2.762844065334224953e-21
-1.925913619399030435e-21
-1.567803757543048471e-21
-1.067330678532386732e-21
-8.091187581354703703e-22
-5.562071785053372518e-22
-3.951899467963798325e-22
-2.828659287189268404e-22
-2.036109667808406067e-22
-1.481712832774147046e-22
-1.094956470415590535e-22
-8.251516957717525250e-23
-6.322560908758985388e-23
-4.902868486141058599e-23
-3.825416656136184449e-23
-2.981313760455436843e-23
-2.304902206094660233e-23
-1.756994599678141397e-23
-1.314305268890360087e-23
