# bin_7_13
-3.917656771081959297e-17
-4.339977659865966169e-17
-4.707312284723987970e-17
-4.971878708011876832e-17
-5.077989902521516327e-17
-4.980720421110811979e-17
-4.619408504953412566e-17
-4.050618906194482668e-17
-3.365090083399591490e-17
-2.752304717637637543e-17
-2.335248951777818621e-17
-2.012744913729322756e-17
-1.546936839726039454e-17
-1.071908377230957966e-17
-8.667871171203263860e-18
-6.018409610307332752e-18
-4.499698463794939850e-18
-3.079677075992914582e-18
-2.205699619781284259e-18
-1.572485790382330092e-18
-1.126934106099235188e-18
-8.168179166942864365e-19
-6.008706655002492669e-19
-4.507075038297036395e-19
-3.439881847062845390e-19
-2.659793012092189532e-19
-2.072153724304227982e-19
-1.614842293978908992e-19
-1.250052613621104919e-19
-9.551762300560662323e-20
-7.168711593613657890e-20
