# bin_1_2
-5.608429849194461609e-08
-5.544045670255919470e-08
-5.202052731856312701e-08
-4.615129787177896800e-08
-3.878210947743824806e-08
-3.173588427575654221e-08
-2.658695477104021544e-08
-2.289017341799287323e-08
-1.828996427474152105e-08
-1.294569443196552535e-08
-1.003918238876606838e-08
-7.540698161533165926e-09
-5.444575598050334959e-09
-3.995102990515330491e-09
-2.963879221387368153e-09
-2.203703351517451236e-09
-1.667657397002386182e-09
-1.286817405039297105e-09
-1.010644010230213063e-09
-8.045371449695923184e-10
-6.450335694706669380e-10
-5.168452706389461005e-10
-4.108619248572920703e-10
-3.218563281937304692e-10
-2.470090167393973198e-10
-1.848731185247841189e-10
-1.345969126335462715e-10
-9.526689311171635822e-11
-6.566221553874047278e-11
-4.419507256122005279e-11
-2.914819013086988576e-11
