# bin_12_20
-3.485226724739186119e-19
-3.936912240802077820e-19
-4.372627712850004172e-19
-4.756239990461493264e-19
-5.039872865112979591e-19
-5.165967376394728647e-19
-5.091137547040980256e-19
-4.747928489428313166e-19
-4.184712074882843277e-19
-3.489862476300131091e-19
-2.852981663453115797e-19
-2.411679215710793018e-19
-2.085433440452913204e-19
-1.624873791793212337e-19
-1.120250399462894911e-19
-8.971256930320657319e-20
-6.319958670202477133e-20
-4.621821973404623163e-20
-3.118344752470822966e-20
-2.216678145870940175e-20
-1.539458176471413876e-20
-1.067492774035203929e-20
-7.454992887641577057e-21
-5.254670669920651637e-21
-3.768427521920423006e-21
-2.755912832938708738e-21
-2.054795055741016232e-21
-1.559440603635301909e-21
-1.198242492266707374e-21
-9.258256494089001280e-22
-7.139042022833341205e-22
