# bin_16_19
-1.015512750324603032e-09
-1.149860532718863141e-09
-1.280834918287167247e-09
-1.398178508327704264e-09
-1.488147801888783173e-09
-1.533716407449195524e-09
-1.522304003581876761e-09
-1.432419307474178904e-09
-1.273049001997206243e-09
-1.069364197181490022e-09
-8.740747383678996353e-10
-7.334069332842549927e-10
-6.355534873421158479e-10
-5.078779778164010762e-10
-3.510830005667813809e-10
-2.742713858791869487e-10
-2.014559474749451757e-10
-1.418530309204342255e-10
-9.777440725961311021e-11
-6.994738130007503950e-11
-4.821418018165571588e-11
-3.309424106902301137e-11
-2.293677816292229962e-11
-1.603214094490175159e-11
-1.137390031078276417e-11
-8.225302579007036131e-12
-6.067000220333513915e-12
-4.562898052127340474e-12
-3.484304154452763299e-12
-2.684614300029232299e-12
-2.071445103537290894e-12
