# bin_8_9
-2.336877096455202070e-08
-2.565441313086701909e-08
-2.751625946119227697e-08
-2.865652766437559727e-08
-2.880625018409002498e-08
-2.759931353770888791e-08
-2.495690091650873459e-08
-2.133549766776690926e-08
-1.749565275996295136e-08
-1.445943166640969180e-08
-1.247705255582951156e-08
-1.041050452812893741e-08
-7.469260037002328981e-09
-5.478085496647678787e-09
-4.357254509935002270e-09
-2.938776029463967478e-09
-2.208209866556643780e-09
-1.570681459439951667e-09
-1.112164119288410396e-09
-7.986567129167434124e-10
-5.795606798573159373e-10
-4.277777345443701385e-10
-3.213187154261919859e-10
-2.457928324178834949e-10
-1.905897727635762739e-10
-1.489641183331311533e-10
-1.165763904675782101e-10
-9.068713419516485056e-11
-6.968563919829332956e-11
-5.261174178729726882e-11
-3.886391151755300666e-11
