# bin_10_5
-1.710521252072427338e-15
-1.867429238127138695e-15
-1.989156075202462019e-15
-2.053341793793601353e-15
-2.042827150431537114e-15
-1.929265219835856547e-15
-1.720785048052696073e-15
-1.450783431484243423e-15
-1.185901113123498895e-15
-9.905196133542346381e-16
-8.574745925906832781e-16
-6.935981473908292513e-16
-4.844868851968522305e-16
-3.732135592683008967e-16
-2.821169882659678531e-16
-1.978968719570410582e-16
-1.422155336730197107e-16
-1.036892806927014688e-16
-7.409381071493475671e-17
-5.340291623363612947e-17
-3.915476024215038139e-17
-2.920845242958321792e-17
-2.218465596385171109e-17
-1.712857191701371988e-17
-1.337132851731391743e-17
-1.048916339327368127e-17
-8.210400916392318251e-18
-6.368402591467012448e-18
-4.865913439835630264e-18
-3.644621365547966479e-18
-2.665884009304017258e-18
