# bin_15_8
-2.927644915784583423e-19
-3.264374629053574860e-19
-3.569016426303021369e-19
-3.807229318766963222e-19
-3.936106992455104487e-19
-3.922495280288749074e-19
-3.711448312981257687e-19
-3.315912391506462946e-19
-2.799652844518856439e-19
-2.289168422677505351e-19
-1.910605949869966516e-19
-1.655200452750486655e-19
-1.343471824540922974e-19
-9.371410735600979697e-20
-7.180123414774575495e-20
-5.436226276913360756e-20
-3.765282133222325255e-20
-2.687566743885777551e-20
-1.936052363331532578e-20
-1.357274391093181713e-20
-9.548987468081994591e-21
-6.811140718297624733e-21
-4.930284264402021282e-21
-3.632096684019918389e-21
-2.727963470628452022e-21
-2.082684329600670584e-21
-1.609616260656317578e-21
-1.251240238639567568e-21
-9.712066156808456411e-22
-7.475115267027923133e-22
-5.671615207270675336e-22
