# bin_2_5
-1.959373480169741773e-11
-2.041780749655571685e-11
-2.054832315628789020e-11
-1.973964683716277324e-11
-1.791026128097290883e-11
-1.536992081388906735e-11
-1.262922043991322555e-11
-1.041440977802063067e-11
-8.947883077805590443e-12
-7.503417251767665560e-12
-5.475026582479647392e-12
-3.983489740087924891e-12
-3.187851060584747504e-12
-2.191527089885682982e-12
-1.663370838342941966e-12
-1.197029751318043903e-12
-8.716723944005449665e-13
-6.460984164234396585e-13
-4.862231749481726083e-13
-3.725651723383870806e-13
-2.902327853254599155e-13
-2.291498515783841025e-13
-1.820939773650419323e-13
-1.445939771474327793e-13
-1.139277023711991149e-13
-8.847974237939020843e-14
-6.735312344370142762e-14
-5.003243256193522715e-14
-3.616464879158241542e-14
-2.542250600940051199e-14
-1.740405475282214437e-14
