# bin_1_3
-2.173641751293186968e-09
-2.186496842182009639e-09
-2.100069626746152270e-09
-1.905873186393944273e-09
-1.636329195992256607e-09
-1.345336870654558094e-09
-1.109284958168492348e-09
-9.518510952664514123e-10
-7.980199094730753134e-10
-5.848192688103208303e-10
-4.257801794328901186e-10
-3.402713879445453511e-10
-2.361134264988880592e-10
-1.793417525106679140e-10
-1.299462227432913196e-10
-9.567271071618485677e-11
-7.172228263231861044e-11
-5.467536732251526493e-11
-4.245707201231301407e-11
-3.348746603851693801e-11
-2.670783146595365894e-11
-2.137713927993415690e-11
-1.704438120902730557e-11
-1.344250958459360964e-11
-1.041974352060703380e-11
-7.896259901131220443e-12
-5.828103232740387434e-12
-4.182186620813993587e-12
-2.919192415141480908e-12
-1.986438968117476408e-12
-1.322079687064774941e-12
