# bin_9_3
-3.875508659617842413e-20
-4.183242783762917617e-20
-4.393274039981141288e-20
-4.459169033393083965e-20
-4.335478853221593359e-20
-3.981779238860118556e-20
-3.458608472009927019e-20
-2.856476386042460943e-20
-2.341694517257958597e-20
-1.999885198686189244e-20
-1.708183462933423762e-20
-1.280935822743072561e-20
-9.015986402693376288e-21
-7.340425783113849697e-21
-5.006667324601689078e-21
-3.820842406525365234e-21
-2.674667462678154814e-21
-1.924562989350334862e-21
-1.403030682970103595e-21
-1.032957540012473354e-21
-7.719791622944868100e-22
-5.867471838484466106e-22
-4.538079754200761976e-22
-3.552693798708729890e-22
-2.797306515499708133e-22
-2.200221580192178982e-22
-1.716545141321786258e-22
-1.320131162869189276e-22
-9.955607118623309670e-23
-7.331853685191623279e-23
-5.258869921076654955e-23
