# bin_8_10
-3.466119024507304467e-09
-3.816877863266026010e-09
-4.109550459158103557e-09
-4.300648911961636836e-09
-4.346865937636771885e-09
-4.198405374928422775e-09
-3.827539838597162385e-09
-3.299682142814311577e-09
-2.714634961650820822e-09
-2.232899049806671885e-09
-1.918275286518054789e-09
-1.623172579449603125e-09
-1.189382946277454383e-09
-8.497410706156795399e-10
-6.888090446155319397e-10
-4.609101530996346729e-10
-3.512523068535394743e-10
-2.460404193119880999e-10
-1.737502288928084730e-10
-1.247287655798097395e-10
-9.017535894215472521e-11
-6.615723056130352639e-11
-4.935559820238435782e-11
-3.752918781436299764e-11
-2.896623476121023335e-11
-2.257458695910774574e-11
-1.765157152325886574e-11
-1.374685042716590415e-11
-1.059333711545210514e-11
-8.031894750773425520e-12
-5.965510443531013371e-12
