# bin_4_5
-3.284661565154020731e-08
-3.475426793941289873e-08
-3.559562049297471837e-08
-3.506455321498878385e-08
-3.271572235129453759e-08
-2.885515824558196312e-08
-2.409613309697223499e-08
-1.969597560603916490e-08
-1.659972779707507513e-08
-1.432022315587511086e-08
-1.124225944485291976e-08
-7.840651767937126566e-09
-6.228589587966296154e-09
-4.518603560999401918e-09
-3.315505319757790037e-09
-2.351848290160558583e-09
-1.731791223284131952e-09
-1.266572491264166925e-09
-9.374949451741591976e-10
-7.066827121153180226e-10
-5.420723714386496660e-10
-4.226889936885947178e-10
-3.333620779281976698e-10
-2.640972881546441389e-10
-2.086965509070495271e-10
-1.633594978737046937e-10
-1.258693943985107518e-10
-9.496487551454588159e-11
-6.987833887726692104e-11
-5.002737604148123177e-11
-3.484254204668417367e-11
