# bin_5_13
-1.754918690894488966e-25
-1.936772693477784878e-25
-2.090963319065561672e-25
-2.195702408574340832e-25
-2.227803117595338679e-25
-2.164111716690382454e-25
-1.985045731009433860e-25
-1.721909673573069491e-25
-1.420867748523077040e-25
-1.165556847545247886e-25
-9.972958766109948560e-26
-8.509807950536337614e-26
-6.340974900638557037e-26
-4.461397156797316645e-26
-3.637246687971695139e-26
-2.445205850777223825e-26
-1.865852835992380711e-26
-1.292937598250307859e-26
-9.142107634654854197e-27
-6.557741431227568552e-27
-4.732128406238284090e-27
-3.456780995023928886e-27
-2.565877783394304933e-27
-1.941987923408079122e-27
-1.493312514928724034e-27
-1.160903148619761649e-27
-9.068469209003693688e-28
-7.066098136622961868e-28
-5.455209822774904359e-28
-4.148344774512894834e-28
-3.093009452545546169e-28
