# bin_3_15
-8.666757276257737642e-48
-9.591844234632273751e-48
-1.039177241640878781e-47
-1.096033613673023320e-47
-1.117614629326111935e-47
-1.093656383555151687e-47
-1.011554757398784949e-47
-8.847477378508232723e-48
-7.338158801757260071e-48
-6.007286934466381511e-48
-5.109979417301546091e-48
-4.395093475227022066e-48
-3.350254838950839139e-48
-2.328768295101151490e-48
-1.890931261074422204e-48
-1.298713043656683883e-48
-9.791176790376603530e-49
-6.714216296105147710e-49
-4.787818046587627994e-49
-3.422163790539075100e-49
-2.459531515231130710e-49
-1.786802575535740049e-49
-1.318205907004311466e-49
-9.914412700996733011e-50
-7.584272469202159270e-50
-5.874646616883044401e-50
-4.581035307880750808e-50
-3.570350246753478979e-50
-2.761953705961350708e-50
-2.107628296246342041e-50
-1.578847895792110036e-50
