# bin_14_6
-3.042313037586047820e-24
-3.371029099312133885e-24
-3.657471140778683188e-24
-3.864568246973478069e-24
-3.948934985745393818e-24
-3.875849215488191442e-24
-3.597577361414856956e-24
-3.157255870275340333e-24
-2.624846109830433461e-24
-2.147358777898552511e-24
-1.821464520479201862e-24
-1.570498580977990680e-24
-1.209117157015640625e-24
-8.378140014062251197e-25
-6.769588432771659384e-25
-4.711193038424159032e-25
-3.517544429203652907e-25
-2.407578456781427135e-25
-1.726061245273952674e-25
-1.230271379172300856e-25
-8.814821372567364795e-26
-6.387735100013145881e-26
-4.699096193012696455e-26
-3.523899810802085413e-26
-2.688926485210165764e-26
-2.078942803136498956e-26
-1.619552331833487605e-26
-1.262151432798433449e-26
-9.771250438166300616e-27
-7.467384361047930621e-27
-5.605385256305380476e-27
