# bin_13_16
-6.324117882470296463e-10
-7.106979805396891658e-10
-7.845274061776394593e-10
-8.469564792704336006e-10
-8.890863341188505961e-10
-9.015974984447321152e-10
-8.748055270336599544e-10
-8.012755226941381602e-10
-6.940435631826327779e-10
-5.723884258163935981e-10
-4.701649003649989961e-10
-4.031604965190528446e-10
-3.432970876534493919e-10
-2.540249703004747843e-10
-1.791473857625582185e-10
-1.458929336173347201e-10
-9.682722306758416791e-11
-7.361087289841489072e-11
-5.051413342856959384e-11
-3.500097134843222336e-11
-2.458334118621163956e-11
-1.727309142242210684e-11
-1.223458126574300893e-11
-8.783294953923640620e-12
-6.430101024310071614e-12
-4.798691180394572561e-12
-3.643560087612807086e-12
-2.803043242576581085e-12
-2.170302590403282812e-12
-1.678902657926790385e-12
-1.288407785998262580e-12
