# bin_12_14
-5.048057048839816252e-09
-5.647853494605872478e-09
-6.200948908967325058e-09
-6.649714561009075799e-09
-6.921530936932101499e-09
-6.952141841235375086e-09
-6.650741899035036653e-09
-6.004312223063921951e-09
-5.124202387516972797e-09
-4.200790910075811153e-09
-3.478803101881831114e-09
-3.007423635673005833e-09
-2.499295808971008816e-09
-1.779499416170345678e-09
-1.313928549816323081e-09
-1.035522345769050041e-09
-6.952124853306016818e-10
-5.155329866738166553e-10
-3.638738542366667336e-10
-2.533254966708499168e-10
-1.778523083118756541e-10
-1.257439018452198384e-10
-9.017546904473165994e-11
-6.574040803398798565e-11
-4.887691588342251551e-11
-3.699506111739572815e-11
-2.841179602712253646e-11
-2.201445095428428415e-11
-1.708635928014814140e-11
-1.318849907032537019e-11
-1.005891951607182711e-11
