# bin_7_4
-4.779616276483192570e-11
-5.120413393390771020e-11
-5.326558906493611485e-11
-5.348723738336108983e-11
-5.119064574399128829e-11
-4.625765310082207806e-11
-3.952563695619394281e-11
-3.242285923686187479e-11
-2.681507916765908994e-11
-2.311867138457208847e-11
-1.924993653341357337e-11
-1.384552676082329038e-11
-1.019763917741947995e-11
-8.094074064497504243e-12
-5.528013248694760942e-12
-4.162383615923763509e-12
-2.994633305739846681e-12
-2.154571083152413824e-12
-1.575957986753617658e-12
-1.169122707613422980e-12
-8.831269615721224240e-13
-6.788078496358496724e-13
-5.297445390273458009e-13
-4.172358906999517299e-13
-3.294138489256604639e-13
-2.588836342362812774e-13
-2.011414678110643068e-13
-1.536106282874364547e-13
-1.147564788171563975e-13
-8.356031649099661293e-14
-5.920619009458184666e-14
