# bin_2_12
-2.450942935458933420e-40
-2.677238811153471606e-40
-2.853770982653713956e-40
-2.948532452186061404e-40
-2.936700576467868507e-40
-2.777547041119981311e-40
-2.481028946916441142e-40
-2.094828431769946310e-40
-1.713220241789236173e-40
-1.429860360360962597e-40
-1.237816931761638877e-40
-1.004376394831724793e-40
-7.029732167603944210e-41
-5.393871948065046531e-41
-4.097709868663357329e-41
-2.862999704823078240e-41
-2.066113082089805482e-41
-1.504438700676298549e-41
-1.074279532975672947e-41
-7.739338112416446095e-42
-5.670062497439942465e-42
-4.226898225403321070e-42
-3.208307562375678014e-42
-2.475474670497438985e-42
-1.931712926503826653e-42
-1.515066945802153190e-42
-1.185968230635872098e-42
-9.201295159057826894e-43
-7.033467551939296137e-43
-5.271138157268784854e-43
-3.858216051474391480e-43
