# bin_2_7
-2.755260124602675320e-17
-2.919348043812516393e-17
-2.994987033045915532e-17
-2.957019243464034854e-17
-2.766502538784270336e-17
-2.446507654927634207e-17
-2.047348764977156342e-17
-1.673527029964059637e-17
-1.407904867366498169e-17
-1.216147656522812208e-17
-9.612048955445150061e-18
-6.699454134491247695e-18
-5.299025697272883209e-18
-3.878914575651270152e-18
-2.826656899387138969e-18
-2.008088071285393948e-18
-1.481567643422407666e-18
-1.081835337734412251e-18
-7.994179140000771337e-19
-6.018230040812695247e-19
-4.611383019370290010e-19
-3.592132100544034612e-19
-2.831030268137177509e-19
-2.242279418543951155e-19
-1.772199832517559865e-19
-1.387970148854112179e-19
-1.070383015728930943e-19
-8.085046847855924067e-20
-5.957204036123067656e-20
-4.270781091489542493e-20
-2.978368825889650205e-20
