# bin_9_4
-5.296434398835142702e-16
-5.733579085519274733e-16
-6.043428152003379922e-16
-6.159615394121729730e-16
-6.025257469300649835e-16
-5.572118340498562866e-16
-4.873217944594379662e-16
-4.042431224780953712e-16
-3.308809316383602118e-16
-2.812192353064299143e-16
-2.417027647657423387e-16
-1.846401484515987455e-16
-1.287723158592854491e-16
-1.044098898998855266e-16
-7.248854591691678097e-17
-5.471577293735541438e-17
-3.806238808534221586e-17
-2.755700156108477614e-17
-2.002661946266287431e-17
-1.469067022483962909e-17
-1.093426861570284336e-17
-8.276678831268027528e-18
-6.376802789887944748e-18
-4.978267526114357806e-18
-3.913940715618619271e-18
-3.078040946063058604e-18
-2.404163944650236849e-18
-1.853191206402132515e-18
-1.402121414296878734e-18
-1.036798688979131250e-18
-7.470369774437162940e-19
