# bin_11_14
-4.120746451891822205e-10
-4.603442573353581023e-10
-5.044965297136338101e-10
-5.397691223871898916e-10
-5.601789782507535369e-10
-5.607573080656428379e-10
-5.338798400870060949e-10
-4.797927007000275327e-10
-4.075297454293668009e-10
-3.336896253161249040e-10
-2.772892546288404105e-10
-2.400428479527043669e-10
-1.975156096719973147e-10
-1.392362920463564752e-10
-1.045252089962676642e-10
-8.099384534564603912e-11
-5.505671938179062830e-11
-4.017456146466535332e-11
-2.863660909392880266e-11
-1.999703219101923680e-11
-1.404577533058576739e-11
-9.968496044249987990e-12
-7.179551606421772411e-12
-5.259648031899004762e-12
-3.928893928986835339e-12
-2.985978591480462737e-12
-2.300231984109454242e-12
-1.785237649501306451e-12
-1.385841206922857275e-12
-1.068413649105470583e-12
-8.129970682935879443e-13
