# bin_15_6
-6.652233361418745673e-28
-7.390758856542242814e-28
-8.045196161502123483e-28
-8.535618573356072442e-28
-8.764766864145875520e-28
-8.660189379677827173e-28
-8.104318943011229002e-28
-7.166997606570740983e-28
-5.994945883323989314e-28
-4.900548089817775774e-28
-4.128923783979375051e-28
-3.572712392062583223e-28
-2.814933964478164560e-28
-1.946196857229716549e-28
-1.545017253126924772e-28
-1.113795665779153899e-28
-8.069932708463306077e-29
-5.564033651244576450e-29
-4.029342129575206284e-29
-2.850845259977352284e-29
-2.024651018304380210e-29
-1.458255895976647227e-29
-1.065697518596776478e-29
-7.935076030631663245e-30
-6.017112461065301203e-30
-4.629879717170118686e-30
-3.596669131410369720e-30
-2.801233420676124371e-30
-2.171741554840337125e-30
-1.664983775098942849e-30
-1.255575493528127264e-30
