# bin_8_13
-3.648685284588790272e-14
-4.046817200526371961e-14
-4.395887402233484565e-14
-4.651649973779734503e-14
-4.761487339822158404e-14
-4.684688625550301257e-14
-4.361087703744728053e-14
-3.837889457926797168e-14
-3.197424213430693430e-14
-2.614753497614032111e-14
-2.212606293442290951e-14
-1.910730824129009561e-14
-1.483326251127453683e-14
-1.026249785504983333e-14
-8.246915528975939746e-15
-5.809743896990958414e-15
-4.295046585858800594e-15
-2.942141598474178755e-15
-2.118360657493704350e-15
-1.505945578733822784e-15
-1.075732291787914006e-15
-7.778782453457001982e-16
-5.708928864402175041e-16
-4.270495518243203599e-16
-3.251542344515728989e-16
-2.509810916458673022e-16
-1.953396818756266938e-16
-1.522090622147984167e-16
-1.179025781602356873e-16
-9.020923454384611709e-17
-6.782834788399319320e-17
