# bin_12_10
-4.329617958304388309e-09
-4.809573384527010321e-09
-5.234497225377770090e-09
-5.552326628684006183e-09
-5.699839006869980378e-09
-5.629772218934588531e-09
-5.266068115525875703e-09
-4.655072780199760511e-09
-3.892508271082495471e-09
-3.182019372886644055e-09
-2.681953710880333596e-09
-2.320264438877363230e-09
-1.825864888094134724e-09
-1.262460343801651854e-09
-1.003238708297239180e-09
-7.218488467647165984e-10
-5.238805977023887399e-10
-3.610199804710552404e-10
-2.613121387420090110e-10
-1.849585139938284397e-10
-1.314211698342111240e-10
-9.468852432672819858e-11
-6.922412993648352848e-11
-5.156431151111757732e-11
-3.911484171862755924e-11
-3.010537098463646102e-11
-2.339094847885743575e-11
-1.821864050038787974e-11
-1.412354739873736337e-11
-1.082608212452116811e-11
-8.161976983607302780e-12
