# bin_12_20
-3.704775228594235617e-19
-4.182063233570180251e-19
-4.641273044203943114e-19
-5.043712309067911792e-19
-5.338312220606429767e-19
-5.464382214268767146e-19
-5.375043262797426972e-19
-5.001181099969974054e-19
-4.398853905453610603e-19
-3.662832143989093963e-19
-2.996278690405401292e-19
-2.538715765917136660e-19
-2.192783486145457654e-19
-1.696225582727201842e-19
-1.171031597390699969e-19
-9.427767947795982503e-20
-6.565100803619369582e-20
-4.848655556357211158e-20
-3.266239519232395310e-20
-2.311431321464486058e-20
-1.609298255125235950e-20
-1.119524849207727208e-20
-7.833398668117758870e-21
-5.535962395536087279e-21
-3.981789237465558664e-21
-2.920496456478585131e-21
-2.183645742290161287e-21
-1.660903939223711681e-21
-1.277968492109069668e-21
-9.878708276749971753e-22
-7.613924884053066083e-22
