# bin_10_3
-4.526740252193320496e-24
-4.908727149559562723e-24
-5.185020787962255654e-24
-5.297789430407892316e-24
-5.200465806048721347e-24
-4.829345038436896700e-24
-4.240397782704953132e-24
-3.527392575207297112e-24
-2.885056460809018711e-24
-2.443971308849036694e-24
-2.106379658497047504e-24
-1.627776294893876679e-24
-1.131333793943362192e-24
-9.118379635055696934e-25
-6.424757908736254896e-25
-4.795156185401152202e-25
-3.333148753885880677e-25
-2.424792438779077362e-25
-1.756896512026290581e-25
-1.284521597600239959e-25
-9.535415972623961838e-26
-7.198094423701099844e-26
-5.531663175787626911e-26
-4.310218944117998782e-26
-3.384932739426954945e-26
-2.661367578185890646e-26
-2.079998498115636748e-26
-1.605511161662314322e-26
-1.217183824984140572e-26
-9.023619843203566228e-27
-6.520803342157508778e-27
