# bin_16_3
-6.594613942382026253e-53
-7.321307152354572564e-53
-7.962331321233003945e-53
-8.438123936386681456e-53
-8.652743356362554800e-53
-8.533825112715111379e-53
-7.967923024286829303e-53
-7.031468104129852695e-53
-5.871122075323664452e-53
-4.799898257854910255e-53
-4.051740199237890120e-53
-3.503339436754845164e-53
-2.742637534700432597e-53
-1.896095051325453031e-53
-1.513830284220798600e-53
-1.080317588568807950e-53
-7.898625221376814843e-54
-5.425735337732402100e-54
-3.921183974448781335e-54
-2.779998954464403537e-54
-1.979317896001503812e-54
-1.428109592128447410e-54
-1.045596882228001250e-54
-7.801225809734653117e-55
-5.926300522332962657e-55
-4.566417227801838126e-55
-3.550404933551588456e-55
-2.765844527478323524e-55
-2.143549740542595594e-55
-1.641958688043958494e-55
-1.236648319960235702e-55
