# bin_19_9
-1.697832865730201174e-27
-1.908486665474432941e-27
-2.107385105557468048e-27
-2.275932585536803796e-27
-2.390266228968934091e-27
-2.425166461714447976e-27
-2.354962306028514200e-27
-2.158835808194238791e-27
-1.871515236993616571e-27
-1.544109993131444751e-27
-1.267876247367545189e-27
-1.086576905413356454e-27
-9.263011617147707464e-28
-6.870354501685453987e-28
-4.834937487044211655e-28
-3.940608281557252114e-28
-2.617131475028795111e-28
-1.990076709113915290e-28
-1.363541496783797670e-28
-9.448882236751334834e-29
-6.636466650867618564e-29
-4.662306099676997439e-29
-3.300128134673591285e-29
-2.367114811445955457e-29
-1.731340530003416846e-29
-1.290958504087108300e-29
-9.794880765293105928e-30
-7.531629302458169169e-30
-5.830232892038032794e-30
-4.510450757002181034e-30
-3.462454410165509727e-30
