# bin_13_1
-7.957462493982414797e-55
-8.717838171461993170e-55
-9.326903435433175784e-55
-9.682085953638169747e-55
-9.696874128196590270e-55
-9.241560675701063615e-55
-8.314505944348378794e-55
-7.071178946839341289e-55
-5.791219334028391096e-55
-4.805484122608230127e-55
-4.155273599309316194e-55
-3.429723511495433158e-55
-2.431480053092279700e-55
-1.817944367242469579e-55
-1.420765432354175263e-55
-9.700535913607256987e-56
-7.178957439792064327e-56
-5.161815551584570911e-56
-3.667154975736127455e-56
-2.635404675197134266e-56
-1.919654619918407452e-56
-1.423023430550931295e-56
-1.073949400916207095e-56
-8.246902816298771675e-57
-6.413510050627998372e-57
-5.021345087881014058e-57
-3.930738279849595358e-57
-3.054708353862330037e-57
-2.342234190200406678e-57
-1.762864089394035531e-57
-1.297118048775952313e-57
