# bin_12_8
-3.914117839220382446e-12
-4.330491557359569439e-12
-4.689753457883022611e-12
-4.943864646329307027e-12
-5.038348268460104945e-12
-4.926250466056910764e-12
-4.552121607747851739e-12
-3.977795842542806331e-12
-3.297334974883036430e-12
-2.699990209209331141e-12
-2.298335046979181285e-12
-1.975096678453382965e-12
-1.501644336302550577e-12
-1.045150056348278868e-12
-8.492192547564955815e-13
-5.816464890395189731e-13
-4.392489713972224004e-13
-3.015817220800086144e-13
-2.147989271204290720e-13
-1.536141227129242622e-13
-1.104662001781781173e-13
-8.030424638733420227e-14
-5.928951268953350237e-14
-4.462639085581783618e-14
-3.415990423655115810e-14
-2.647179868812255777e-14
-2.064730083052818725e-14
-1.609175223623294386e-14
-1.244534994708810553e-14
-9.493011223924060565e-15
-7.107308058598726917e-15
