# bin_11_10
-2.272660417446443671e-08
-2.518954560240829332e-08
-2.733979655373018996e-08
-2.890083731000604117e-08
-2.954750308014361845e-08
-2.902211096026080645e-08
-2.696266143012077870e-08
-2.368262877115845056e-08
-1.970195351749794052e-08
-1.611608116056794245e-08
-1.366006212673508571e-08
-1.178339856320902967e-08
-9.095401317126329812e-09
-6.299627675044894579e-09
-5.081159841287027654e-09
-3.549702042296322288e-09
-2.641946649201932969e-09
-1.809012226456868367e-09
-1.298595355902757552e-09
-9.248510617045695715e-10
-6.620187654239607050e-10
-4.794208726403847445e-10
-3.524264375173305647e-10
-2.640841681809877477e-10
-2.013753211663592694e-10
-1.556144398763474815e-10
-1.211929080046665868e-10
-9.444344644045680737e-11
-7.312805628809683503e-11
-5.590589566116735007e-11
-4.198710031969936289e-11
