# bin_18_9
-2.581440844075189560e-24
-2.896748903325644682e-24
-3.191996003739632456e-24
-3.438443192648140807e-24
-3.599519836643769787e-24
-3.638941994144299418e-24
-3.514377695839829105e-24
-3.203152757728638577e-24
-2.760622091544382828e-24
-2.271336803196233873e-24
-1.870038300304608059e-24
-1.608718898119563489e-24
-1.360126366254986533e-24
-9.925748189650288001e-25
-7.095197605126172611e-25
-5.741616374981976771e-25
-3.802452457474117231e-25
-2.881986250432959031e-25
-1.996010497183656781e-25
-1.383104994853538153e-25
-9.713418665036074176e-26
-6.832022920996585476e-26
-4.858290982851644811e-26
-3.505766413290137230e-26
-2.580158040770421847e-26
-1.935111140620726931e-26
-1.475381211452178800e-26
-1.138154351036590834e-26
-8.822409993092871044e-27
-6.821613743168076077e-27
-5.225138159758813490e-27
