# bin_9_12
-2.477183386619741963e-10
-2.746360813113423562e-10
-2.981758489292219025e-10
-3.153276343723402592e-10
-3.225383004722259663e-10
-3.170125288027254165e-10
-2.947557120754913767e-10
-2.590950638736358663e-10
-2.156768613071575610e-10
-1.764071671632987792e-10
-1.494220160686779499e-10
-1.289406695048073522e-10
-9.976066633954497179e-11
-6.907691002167784027e-11
-5.561925520009262554e-11
-3.899621975215133347e-11
-2.893431424277018755e-11
-1.982483785927101621e-11
-1.424766442535699874e-11
-1.013927272443502053e-11
-7.251046218193852632e-12
-5.247890800656640269e-12
-3.855232350084235164e-12
-2.886803346073010219e-12
-2.199947407382775430e-12
-1.699226142497569607e-12
-1.322998151557367492e-12
-1.030928717480880574e-12
-7.983676639621355615e-13
-6.105395336668703629e-13
-4.587436294437660093e-13
