# bin_19_5
-2.317951307729525201e-51
-2.597059479206649852e-51
-2.856365407615220254e-51
-3.069717793569392536e-51
-3.204035315252827788e-51
-3.228336293105324194e-51
-3.102458159196395948e-51
-2.813488661276797794e-51
-2.412270366507832977e-51
-1.980590017292799874e-51
-1.635359287604541529e-51
-1.410907480277627998e-51
-1.182708909738358310e-51
-8.514509009563928160e-52
-6.188489807831894965e-52
-4.947141385115667508e-52
-3.292291411689431733e-52
-2.472271851328048752e-52
-1.728862704324693406e-52
-1.200491378600794441e-52
-8.428550525732266831e-53
-5.941088272057634434e-53
-4.243039603587555917e-53
-3.078303440625992077e-53
-2.277778747578494361e-53
-1.716739761975727601e-53
-1.314078222820574656e-53
-1.016224522059458383e-53
-7.883702826331604224e-54
-6.090938975837455417e-54
-4.655371531686250101e-54
