# bin_7_16
-1.413303630817318824e-26
-1.576086322565868515e-26
-1.723536061471519364e-26
-1.839091643080125748e-26
-1.902043510487933413e-26
-1.896317186153641888e-26
-1.795353844243852165e-26
-1.605036922504879492e-26
-1.356061974882083047e-26
-1.109249406183412876e-26
-9.257677168566377441e-27
-8.020247573442988182e-27
-6.516109886848200798e-27
-4.549239814352304770e-27
-3.481926552760829100e-27
-2.640214184937840984e-27
-1.826862544476680786e-27
-1.305755050328228056e-27
-9.403979859525832813e-28
-6.592083831561316410e-28
-4.637629989138125581e-28
-3.307426754872976009e-28
-2.393811062181574568e-28
-1.763290115924165964e-28
-1.323993713805409100e-28
-1.010669777230671636e-28
-7.810224670915238671e-29
-6.070932599003271777e-29
-4.712268538464658497e-29
-3.627137364686104490e-29
-2.752309625169223272e-29
