# bin_20_13
-2.240860873943020785e-16
-2.531769954983026303e-16
-2.812736998283398314e-16
-3.060593111973283128e-16
-3.244587969974605191e-16
-3.327622875484977779e-16
-3.281854340906761373e-16
-3.063448737173406401e-16
-2.702594043415083544e-16
-2.255824066912031200e-16
-1.844672779224016754e-16
-1.558744880878119009e-16
-1.348266372182520935e-16
-1.052693782932520219e-16
-7.260053094879753776e-17
-5.805404394004677407e-17
-4.102918800787781781e-17
-2.993066053885431675e-17
-2.021386858465190023e-17
-1.438541904814866355e-17
-9.984729450448930943e-18
-6.918420772703832456e-18
-4.828731254781004880e-18
-3.402187289705404251e-18
-2.437926062399279673e-18
-1.781315971867109876e-18
-1.327144696980995756e-18
-1.006556705016743221e-18
-7.730717934164886006e-19
-5.972022704541331381e-19
-4.605271709827110477e-19
