# bin_3_4
-3.961962472506351753e-08
-4.121286449768029241e-08
-4.139313717699820113e-08
-3.964731702290545443e-08
-3.586661187601440245e-08
-3.068845414550455288e-08
-2.519215686697387461e-08
-2.081696999268597051e-08
-1.791710048422170005e-08
-1.494512683423156258e-08
-1.082186866378491813e-08
-7.948812044376345819e-09
-6.324465159733733173e-09
-4.354770381703540302e-09
-3.295008401180408329e-09
-2.383463409362266960e-09
-1.736432366749049685e-09
-1.288211747194001096e-09
-9.709793738473541103e-10
-7.454620213348599539e-10
-5.818723983428619478e-10
-4.600123884668033054e-10
-3.658146859676023649e-10
-2.905042460637243016e-10
-2.287607181530847468e-10
-1.774545621664868247e-10
-1.348547145378884352e-10
-9.996601405131658354e-11
-7.208998454023700609e-11
-5.055968850639517460e-11
-3.453939762678958089e-11
