# bin_19_13
-2.114955515693891178e-14
-2.386530630573787401e-14
-2.647392253233380910e-14
-2.875355419139491082e-14
-3.041213891434020679e-14
-3.110513702502633864e-14
-3.056211869797153407e-14
-2.839760509644767382e-14
-2.494552119271440145e-14
-2.075140444848057610e-14
-1.697848856144100726e-14
-1.440203344004529681e-14
-1.243021813372355186e-14
-9.577842186916232919e-15
-6.617470178314709701e-15
-5.340534628724596492e-15
-3.696731486763195778e-15
-2.742953181376033693e-15
-1.847671312475533544e-15
-1.304049329945499850e-15
-9.091239211137283740e-16
-6.334414249628624344e-16
-4.436943793301319759e-16
-3.139766699370228023e-16
-2.261878799295693352e-16
-1.661662905710360702e-16
-1.244256601987128046e-16
-9.474959024424584265e-17
-7.295681807808278091e-17
-5.640813758118319543e-17
-4.346475297854122062e-17
