# bin_7_6
3.608268143371488974e-08
3.208699071543651048e-08
2.777300675942969151e-08
2.343123128664092305e-08
1.933890504841333093e-08
1.569214051553799152e-08
1.256477500268918875e-08
9.922677432308839587e-09
7.692622311375861100e-09
5.845694229296990290e-09
4.398271552656927733e-09
3.320485106687676739e-09
2.510513767084292866e-09
1.901222838194325533e-09
1.454940436190903836e-09
1.122175072145472113e-09
8.731182233289454768e-10
6.832519697720195938e-10
5.358538889546159916e-10
4.194022806856252380e-10
3.261819823013890709e-10
2.510726750635439290e-10
1.906049461197985956e-10
1.423147500538640495e-10
1.042898632834798375e-10
7.490735108749652095e-11
5.270425927515389459e-11
3.633157645420827747e-11
2.456021457645371402e-11
1.630640001767454189e-11
1.065419042717092391e-11
