# bin_17_12
6.421345719250652533e-08
5.994188585916971318e-08
5.451792536351600621e-08
4.824766961032582484e-08
4.154628809063529086e-08
3.487883392297062281e-08
2.866971755683850041e-08
2.319148437311585046e-08
1.851728639327937751e-08
1.456217086261396403e-08
1.121468205449688987e-08
8.459136272679549790e-09
6.332172606215856638e-09
4.755962467389777630e-09
3.561080060119780022e-09
2.672541455674083879e-09
2.023257612528415479e-09
1.542373888738443769e-09
1.185044284374241419e-09
9.158278162297181488e-10
7.096335914119833736e-10
5.492309559757402748e-10
4.229264713102452997e-10
3.227935346498714130e-10
2.433773706005283791e-10
1.807823118925571856e-10
1.320236858676566808e-10
9.465775195133814775e-11
6.658033509456907522e-11
4.593942707895404429e-11
3.111048310164318207e-11
