# bin_18_13
6.734004852550489994e-08
6.312681937159590692e-08
5.767396983421172471e-08
5.127804510272165298e-08
4.435563295654756293e-08
3.738752687423230491e-08
3.082993799725281957e-08
2.499837025980979923e-08
2.000234214762264164e-08
1.577418201263718690e-08
1.219196383104522423e-08
9.220338811636839370e-09
6.899526911016751532e-09
5.176229312005521366e-09
3.875671769197063579e-09
2.900964342532091442e-09
2.191087907508634695e-09
1.665102134960737528e-09
1.275893034049373436e-09
9.836914795062702832e-10
7.609144103978881552e-10
5.884073968561419212e-10
4.530948517518618094e-10
3.461199504142658798e-10
2.613965033797168992e-10
1.946208033307315474e-10
1.425434651028790472e-10
1.025432730150633060e-10
7.239153828645162910e-11
5.014078822626669083e-11
3.408670190550484945e-11
