# bin_15_3
3.001446616956132147e-08
2.613508699993524172e-08
2.215173685262239590e-08
1.834424682979240988e-08
1.492655417127445462e-08
1.199268781893447193e-08
9.513099098878952598e-09
7.402903697474970886e-09
5.630369522625959920e-09
4.235291778399642327e-09
3.204084084170782313e-09
2.424881983297186730e-09
1.838422989147879921e-09
1.410312773872876168e-09
1.091220734339940216e-09
8.525974293559660261e-10
6.706741184644902270e-10
5.291016965469446525e-10
4.167308002322449300e-10
3.261765830040904114e-10
2.526203686633820055e-10
1.928750678790810385e-10
1.447334309976503132e-10
1.065048793152728718e-10
7.674489152495863151e-11
5.411978817048354308e-11
3.736108204188520001e-11
2.527684629075206982e-11
1.678982199019337800e-11
1.097360328947155095e-11
7.073979174909301789e-12
