# bin_4_3
2.215823261073752266e-08
1.898707743858422488e-08
1.587915143872361804e-08
1.301650944602228860e-08
1.050822377172605087e-08
8.375670556161761087e-09
6.576698203239996656e-09
5.065356915348780271e-09
3.836362073827385884e-09
2.896029824409026108e-09
2.198070518821621537e-09
1.669890817875527055e-09
1.277530215211679922e-09
9.877069206079262838e-10
7.704840202524929840e-10
6.056160194714925687e-10
4.779897037430109125e-10
3.771735755966512214e-10
2.962001072253475340e-10
2.304981808458882472e-10
1.770587025624762968e-10
1.338281641250385001e-10
9.928792515331232826e-11
7.218307065375492508e-11
5.137898943026926514e-11
3.580401063411010136e-11
2.444600510105221368e-11
1.637757402082763996e-11
1.078743637583702585e-11
7.001480533257190788e-12
4.488102639468615681e-12
