# bin_18_17
7.424880779151597931e-08
7.022898954908570624e-08
6.478540434308723155e-08
5.818693257433521126e-08
5.084356296749307730e-08
4.325972401054509990e-08
3.594966605868059008e-08
2.932046355192658821e-08
2.357187376053939227e-08
1.869352637471462698e-08
1.456029034397991856e-08
1.109218321372157127e-08
8.313416124746785566e-09
6.218972379021363377e-09
4.655664248151824711e-09
3.472065094183567103e-09
2.606183776164762279e-09
1.968381932109626850e-09
1.498438260034613115e-09
1.148228773912177978e-09
8.839894681504843084e-10
6.815168271451388160e-10
5.242051823336300806e-10
4.007726890488059283e-10
3.034801703106584353e-10
2.269288060473656357e-10
1.671613821211095595e-10
1.210859117685511271e-10
8.615151207729749647e-11
6.017517567051179595e-11
4.126573607299946851e-11
