# bin_9_7
4.207947571351086064e-08
3.788832133676868086e-08
3.319953153334371737e-08
2.832592051054232870e-08
2.359543362859405197e-08
1.927979613300041763e-08
1.552543486004826139e-08
1.234186392369068458e-08
9.651526835304396809e-09
7.391579292778988716e-09
5.568862028805997341e-09
4.189306994340250499e-09
3.163633310934702743e-09
2.385152038161263285e-09
1.812252755045027361e-09
1.388674050323335566e-09
1.073461897224119299e-09
8.356391318853439386e-10
6.532757213193308493e-10
5.108462436137103007e-10
3.978751834299475879e-10
3.073815582967529677e-10
2.346699449529035312e-10
1.764920751363720122e-10
1.304439412640533813e-10
9.458032190880026438e-11
6.720855318581447111e-11
4.679371782726537367e-11
3.193711050899505693e-11
2.139202658923531398e-11
1.408616665051999331e-11
