# bin_17_17
7.296493100389393592e-08
6.891037190081506150e-08
6.346625633411050116e-08
5.690641301261242923e-08
4.964184265906408540e-08
4.217240977946352437e-08
3.500149845667878311e-08
2.851958651451707483e-08
2.291004924283712013e-08
1.815235557672925891e-08
1.412174601094421237e-08
1.074570570153434350e-08
8.051134551246257911e-09
6.025262675880928286e-09
4.511123673905910499e-09
3.365945294557124370e-09
2.529134596312557198e-09
1.911998867976630346e-09
1.457100740720973777e-09
1.117664475124805037e-09
8.611290136144173210e-10
6.642284885056971740e-10
5.110089505207418897e-10
3.906379959956201443e-10
2.956824883050061476e-10
2.209473766918471250e-10
1.626073190199861357e-10
1.176581420556277517e-10
8.360930049856383621e-11
5.832197906373723613e-11
3.994007997649245191e-11
