# bin_18_10
5.999131562649435580e-08
5.562495403974838625e-08
5.022472933884714398e-08
4.411221802187120618e-08
3.770315101711659233e-08
3.144377639568887532e-08
2.571351536381262387e-08
2.072238089805851366e-08
1.648889048701379323e-08
1.290242692631055139e-08
9.871636054367945035e-09
7.415399841433526299e-09
5.559806546077992806e-09
4.181606297598874239e-09
3.130959035296273817e-09
2.362156602778164039e-09
1.794535559228738616e-09
1.375389815160977667e-09
1.061661318467648452e-09
8.236402125225551750e-10
6.399268994644759572e-10
4.959232392255905519e-10
3.818134762859217135e-10
2.909415404845183711e-10
2.187183371956405562e-10
1.618014699091984794e-10
1.175638955561135374e-10
8.379903952477198055e-11
5.856711316588252070e-11
4.014149943424145429e-11
2.700274714015410612e-11
