# bin_14_11
5.872018971759390164e-08
5.440173214484945025e-08
4.908927090930341850e-08
4.309912831419231550e-08
3.683526783459798846e-08
3.072585619215784849e-08
2.513162982717642752e-08
2.025268536735246342e-08
1.610918517699661836e-08
1.260307157968808218e-08
9.649971800703134620e-09
7.257984492659116565e-09
5.441742967450188944e-09
4.092152384727632124e-09
3.067358435159156789e-09
2.313284350938206696e-09
1.758091626839809097e-09
1.347047296260414868e-09
1.039455368974187369e-09
8.060620523782269150e-10
6.259261670659875009e-10
4.847788970724752728e-10
3.730017843263900638e-10
2.840633507208377892e-10
2.134417332647725012e-10
1.578381651462677257e-10
1.146580304045328933e-10
8.172327535787315238e-11
5.712383917787826804e-11
3.916451585448297444e-11
2.635793176858441218e-11
