# bin_11_7
4.468421235168691475e-08
4.041016243874146856e-08
3.556067679953217259e-08
3.045798155790051824e-08
2.545169963837504810e-08
2.084597400038950794e-08
1.681878658239341241e-08
1.339887785192583993e-08
1.050756355376914560e-08
8.067795980304658556e-09
6.081834314994802997e-09
4.570197825106606547e-09
3.449664037394126777e-09
2.597358482675217146e-09
1.968800858157232436e-09
1.505442141222889904e-09
1.161153773740081950e-09
9.022942802070232824e-10
7.045962955396845448e-10
5.507827254577512816e-10
4.291668987439444605e-10
3.319484511958523217e-10
2.538917956842128584e-10
1.914018961640881948e-10
1.418570897585212693e-10
1.031696538909581418e-10
7.354564357873520239e-11
5.136865236122548571e-11
3.516604200325815075e-11
2.362034703182919740e-11
1.559147377592989940e-11
