# bin_5_5
2.949471548023760370e-08
2.581723590459490518e-08
2.201124528946376856e-08
1.832739447755486861e-08
1.497145645465945837e-08
1.205331056518125507e-08
9.579455644150894823e-09
7.491987491303672712e-09
5.743602722719051465e-09
4.336702640921084534e-09
3.271111657870699212e-09
2.478542970772203914e-09
1.878183411831384817e-09
1.435048894615778391e-09
1.106791232750602763e-09
8.612344268806586056e-10
6.748067921911038763e-10
5.306693437627417727e-10
4.170633491042218554e-10
3.261268837336191242e-10
2.526711216984369158e-10
1.932366229801300800e-10
1.454293860384747066e-10
1.074546132697640269e-10
7.782364435651132129e-11
5.520187923581487175e-11
3.834790456221548260e-11
2.610929302356259501e-11
1.744739492259485893e-11
1.146535173324746205e-11
7.425482070691024709e-12
