# bin_5_2
1.995552407432942476e-08
1.694502177578851366e-08
1.405995852881104799e-08
1.145621216123482741e-08
9.208431761904366430e-09
7.307762578315709640e-09
5.701054810000799881e-09
4.357256120490284828e-09
3.288883864309410142e-09
2.489975972728040580e-09
1.892359594304015426e-09
1.440295765347287990e-09
1.108452633363553527e-09
8.609532410949715145e-10
6.751131821803324535e-10
5.327924260498527998e-10
4.215571275038126972e-10
3.328681016132578176e-10
2.610936510958552348e-10
2.025756183801402633e-10
1.548994236909021794e-10
1.163875431069901205e-10
8.574615463650139748e-11
6.185602634206898788e-11
4.367048390433314137e-11
3.018485747968017462e-11
2.044964992762631962e-11
1.360357100377716531e-11
8.905102514979620428e-12
5.749827718973448265e-12
3.670210296102369120e-12
