# bin_20_12
6.674695081754295191e-08
6.249020520792397167e-08
5.700758039940854130e-08
5.060131463765996030e-08
4.369281211429907508e-08
3.676525393680353378e-08
3.027302567012219566e-08
2.452138250909559812e-08
1.960638296152132476e-08
1.544718298045640356e-08
1.191948588620381697e-08
8.998445313638016514e-09
6.731972619510026549e-09
5.054313498453580853e-09
3.782565667870819777e-09
2.834005361359416151e-09
2.142475096416787918e-09
1.630387855228680543e-09
1.250772588480681771e-09
9.654879800759461815e-10
7.475807115621959094e-10
5.784967085565502307e-10
4.456206244920128766e-10
3.404065700503392018e-10
2.569878648818532870e-10
1.912053662747948845e-10
1.399017921755599894e-10
1.005151232152249262e-10
7.085370917831277367e-11
4.899396343964441176e-11
3.324812331240100186e-11
