# bin_19_2
2.500259888277859444e-08
2.142789002788026784e-08
1.790788984482539242e-08
1.467058129903531552e-08
1.184911604906381901e-08
9.458301197530881869e-09
7.427838422329345421e-09
5.701205327481257040e-09
4.299734601649752399e-09
3.246663450908990325e-09
2.463090093584537769e-09
1.865678527585460598e-09
1.428420491842095890e-09
1.103918126192807959e-09
8.621529281116993683e-10
6.787209586239968851e-10
5.367510281450429992e-10
4.244722013786967322e-10
3.340711616422618091e-10
2.604811504536636073e-10
2.004056093034354147e-10
1.516344613409071162e-10
1.125475878096954601e-10
8.180402549790572588e-11
5.817626231310510369e-11
4.048386177329896379e-11
2.759271103843428764e-11
1.845052528548902038e-11
1.213013100747986703e-11
7.859504374031169438e-12
5.030657850394668008e-12
