# bin_16_11
6.091599956604718148e-08
5.659773485963588717e-08
5.122085438600608177e-08
4.509991185509452536e-08
3.864626041531130940e-08
3.230586119524868812e-08
2.646674813317551657e-08
2.135621850497824552e-08
1.701154068575830689e-08
1.333450783946692965e-08
1.022859909585422013e-08
7.697107053456716226e-09
5.766962338129028492e-09
4.335583132585781194e-09
3.247242882801146699e-09
2.444914432425270057e-09
1.855411736395708342e-09
1.419276990241258926e-09
1.093638629201800960e-09
8.472137749747913372e-10
6.575290052252956847e-10
5.092511810278607896e-10
3.920323956680773415e-10
2.988517671083411695e-10
2.248662169394020167e-10
1.665720182037346767e-10
1.212394430350395076e-10
8.659653224416344274e-11
6.066169890686131664e-11
4.167936569838907614e-11
2.810760551673562908e-11
