# bin_3_3
2.009452948185810227e-08
1.711118949814421303e-08
1.423475406314478495e-08
1.162122002753670953e-08
9.351979789778281160e-09
7.429441080565815726e-09
5.808598569499176901e-09
4.454254810502621949e-09
3.368048537598480728e-09
2.546799793638407308e-09
1.935526283742140904e-09
1.472921382490010370e-09
1.131241156785761750e-09
8.774010014847332594e-10
6.867301367662273187e-10
5.410834195206127403e-10
4.276074226507367924e-10
3.374232426903795768e-10
2.646500043669377213e-10
2.054468749786615427e-10
1.572736690723028315e-10
1.183700505447312787e-10
8.739503130798765766e-11
6.320618777814756564e-11
4.474924393160712081e-11
3.102089692847673045e-11
2.107632135419159637e-11
1.405779957340889537e-11
9.224170798136611205e-12
5.967799890465674345e-12
3.815629277124888008e-12
