# bin_3_1
6.040787967509944857e-11
6.048062401920397284e-11
5.771240062799299057e-11
5.204227259173975707e-11
4.440494427697437840e-11
3.644580375040151562e-11
3.018463466986412632e-11
2.596137792380361552e-11
2.149954192925388595e-11
1.555285151164040422e-11
1.153661985439241800e-11
9.084980939968647094e-12
6.349619873967460176e-12
4.782859461518173137e-12
3.494966416129481473e-12
2.577822771537829490e-12
1.936952761875660917e-12
1.481697343833921996e-12
1.154551716735511019e-12
9.132988817490802267e-13
7.297066190022884658e-13
5.843978327850054584e-13
4.656580334495629456e-13
3.666091588521719811e-13
2.833936402784087974e-13
2.140056901890125571e-13
1.573313746354259845e-13
1.124443393828020179e-13
7.819340157882648007e-14
5.303488772800909597e-14
3.520145753604649137e-14
