# bin_1_7
5.994658724026598902e-07
5.778300590101608838e-07
5.274016062644703943e-07
4.558188587282949170e-07
3.772610296741161524e-07
3.112752493667534504e-07
2.650109157169515556e-07
2.220980217155657093e-07
1.670094902129855751e-07
1.215455319280614041e-07
9.529217942135163415e-08
6.857638013735259307e-08
5.107198188446146002e-08
3.735264095442809061e-08
2.781282593808651029e-08
2.097255894538606211e-08
1.610206332811493548e-08
1.259514457235399212e-08
1.000183049354082261e-08
8.020217578607218322e-09
6.445709781543295599e-09
5.152852595952106522e-09
4.068963341748026989e-09
3.154233106591154547e-09
2.388533045291486909e-09
1.761004998521358159e-09
1.262599244979497512e-09
8.809792385567557580e-10
5.996301057215599661e-10
3.993685571029017338e-10
2.611539610682176658e-10
