# bin_18_13
9.758114547221541454e-15
1.100045646623316899e-14
1.218829867593527261e-14
1.321802026378971867e-14
1.395422265418209727e-14
1.424090041201248658e-14
1.394865277728645837e-14
1.291262687292002141e-14
1.130274323037679442e-14
9.378809038640059040e-15
7.678837660032413882e-15
6.533219531698707212e-15
5.624525979352830979e-15
4.288257852619352270e-15
2.971973854580231482e-15
2.411371243114371329e-15
1.644294220694897682e-15
1.233179405293754014e-15
8.325426522011566427e-16
5.834052765181035594e-16
4.080447259207371565e-16
2.853430431904638317e-16
2.004726810889268965e-16
1.423434443978773190e-16
1.029890205442101805e-16
7.598702171591341347e-17
5.711919270906304364e-17
4.362684355590709847e-17
3.365325725217823827e-17
2.603189766151071132e-17
2.004276435772480863e-17
