# bin_16_6
1.866718249820782177e-34
2.080313023922556492e-34
2.272956543058545029e-34
2.422654133778871660e-34
2.501993163750817038e-34
2.490127559979258100e-34
2.352069108807114592e-34
2.098162401140212126e-34
1.768958975969645801e-34
1.446595492073405487e-34
1.209569578686550992e-34
1.047924774477387318e-34
8.465060850477707658e-35
5.891810775978768709e-35
4.545233577450517663e-35
3.413295364229546260e-35
2.381986888302241393e-35
1.687945599045156702e-35
1.219344672428555182e-35
8.561571644526017337e-36
6.030369703536857639e-36
4.309249196548837510e-36
3.124704933654336177e-36
2.306448444479638740e-36
1.735407998999278062e-36
1.326880406137531446e-36
1.026549202263021855e-36
7.983620532896979531e-37
6.196264851115044069e-37
4.766252596262897953e-37
3.612700723784733895e-37
