# bin_4_3
2.936192187950179447e-09
3.040270478400273594e-09
3.037032481771605072e-09
2.887179748857409913e-09
2.592902636576671039e-09
2.202639227103826682e-09
1.804699573582405423e-09
1.498847631050842432e-09
1.292612693559080176e-09
1.062133260242746053e-09
7.585965658844386206e-10
5.699591704657698815e-10
4.440507736418615313e-10
3.099536365828103198e-10
2.311032706377685528e-10
1.688703555564883797e-10
1.234276694017259763e-10
9.177357383919772246e-11
6.944846857770002942e-11
5.354050540144271709e-11
4.194342791484241589e-11
3.324441117624090418e-11
2.646775038672560628e-11
2.101419093656104326e-11
1.652250861898658886e-11
1.278218784470368497e-11
9.677786118561114523e-12
7.142716369749042941e-12
5.126975416598827164e-12
3.579687763238173462e-12
2.435730976951537492e-12
