# bin_19_15
8.951051929218336390e-13
1.012210152664310455e-12
1.125714161070761387e-12
1.226445594600222692e-12
1.302179647674175529e-12
1.337997395099667614e-12
1.322855486983340788e-12
1.238613749664953940e-12
1.095824670300011198e-12
9.168927033117600442e-13
7.496690309024438104e-13
6.318439272497915235e-13
5.470270025232086654e-13
4.308860616689505042e-13
2.972398658179748421e-13
2.358137076663847362e-13
1.690873745820790001e-13
1.217624594034390886e-13
8.271531800017342040e-14
5.907192337227726495e-14
4.088959177977199785e-14
2.822601106850563900e-14
1.965271396182071058e-14
1.380473751397387342e-14
9.856461831404872617e-15
7.175364635252291778e-15
5.326707629035378286e-15
4.028094495137617893e-15
3.087690365056217996e-15
2.383345354605093877e-15
1.838548342871187622e-15
