# bin_17_6
1.556992035952352294e-38
1.739257107641916823e-38
1.905838728592746364e-38
2.038723655557094999e-38
2.115284488066073934e-38
2.116846335175392643e-38
2.014520776988782430e-38
1.809673692381808636e-38
1.536450321979859586e-38
1.257915344826110175e-38
1.045620677406433891e-38
9.052880274436568888e-39
7.442293188329155756e-39
5.241438353313516285e-39
3.940724919869498085e-39
3.048771773356399778e-39
2.074783664798083159e-39
1.511626457449498347e-39
1.078494135548032129e-39
7.532929292364151321e-40
5.290948184538872731e-40
3.756156611480279310e-40
2.706304191809305838e-40
1.983187918053698905e-40
1.482146508351144558e-40
1.126823553695709966e-40
8.682754625612875240e-41
6.740067666804726192e-41
5.232567803716975679e-41
4.033944100248696481e-41
3.069265782146594118e-41
