# bin_4_19
4.180047254226647802e-07
4.386673733107922665e-07
4.450686787892532530e-07
4.326023591979692056e-07
3.976199687951533697e-07
3.456829452816566114e-07
2.861306871365637199e-07
2.349039134204631836e-07
2.001552243578498737e-07
1.703480873730399894e-07
1.286102277978135446e-07
9.140900611143984014e-08
7.332025278482235935e-08
5.138145175185451202e-08
3.862917410978074131e-08
2.751230954787963867e-08
2.011800964512877885e-08
1.483123234659443228e-08
1.108097647380451106e-08
8.427272407159283704e-09
6.518787137359761560e-09
5.118530540087918164e-09
4.054337721230843985e-09
3.216762895298300910e-09
2.538524402845137549e-09
1.979019364932031418e-09
1.515166384523805952e-09
1.133770104715523340e-09
8.263783904743379932e-10
5.858790942743654735e-10
4.043084873452531773e-10
