# bin_15_7
1.041826100450660612e-25
1.159742752545601655e-25
1.265408755889771523e-25
1.346452907170852505e-25
1.387561911988423569e-25
1.377319092091817854e-25
1.296447368541544745e-25
1.152749487277693076e-25
9.689197015146755700e-26
7.921219759263554198e-26
6.642051377396850173e-26
5.753311301753676217e-26
4.605913523784787978e-26
3.194256181435688692e-26
2.492475450486047800e-26
1.844027064361116950e-26
1.304450534073565211e-26
9.134394666371448616e-27
6.617584724131328035e-27
4.658947243565558574e-27
3.289781416473610249e-27
2.357993516294693018e-27
1.714734050793806412e-27
1.269850405250531305e-27
9.583041514780141941e-28
7.344988019265569449e-28
5.691795695112596187e-28
4.429477665176876330e-28
3.436771404581828609e-28
2.640561626093637003e-28
1.997815870109686039e-28
