# bin_7_13
1.591030009108916003e-07
1.727661558699262955e-07
1.828006548249670896e-07
1.871742070831487135e-07
1.842386197967246766e-07
1.717082296213322585e-07
1.512801131841315177e-07
1.262453325349295129e-07
1.032749777748788817e-07
8.721365022678857530e-08
7.519172595972392871e-08
5.870929258877445478e-08
4.091069266744977570e-08
3.257972353595527222e-08
2.336781427630579176e-08
1.715760104721496880e-08
1.204259676853710466e-08
8.765828033057993900e-09
6.328509882271883378e-09
4.609827335046961744e-09
3.412484943816495407e-09
2.568970977402611407e-09
1.969090883954684812e-09
1.531208481056761676e-09
1.200871812762583284e-09
9.436772721206506195e-10
7.377708471685745038e-10
5.700776999119954802e-10
4.329433127363192737e-10
3.217094358579046693e-10
2.331300675276394556e-10
