# bin_13_14
1.726229590757996816e-08
1.930207522990020733e-08
2.117637820240454319e-08
2.268709288744987820e-08
2.358487980002998082e-08
2.365491129375693927e-08
2.258366617844915751e-08
2.035013262356548841e-08
1.733380255643453938e-08
1.420428668718543019e-08
1.178047864345243348e-08
1.018824445938251379e-08
8.430453560033953817e-09
5.980651546088455305e-09
4.445789599998330425e-09
3.478148964083125991e-09
2.348557659923931978e-09
1.729276078286901879e-09
1.225256514598112078e-09
8.540917226018164886e-10
5.998175089514633482e-10
4.247717193745419409e-10
3.051611157253170554e-10
2.228749487037434370e-10
1.660333517779844815e-10
1.258765515286277505e-10
9.678873101641866302e-11
7.504504288891205096e-11
5.824960809506891378e-11
4.493979777862394849e-11
3.424452771955195422e-11
