# bin_12_17
7.140271140628553853e-08
7.964360304737231358e-08
8.711414397011010118e-08
9.297898581793178055e-08
9.619530231592808816e-08
9.593837004842221406e-08
9.088504576716967886e-08
8.129922193751026697e-08
6.874084762790500180e-08
5.624726574983415213e-08
4.692315596765605299e-08
4.063139913999419073e-08
3.304214915280643463e-08
2.312893173231329571e-08
1.765265874611050633e-08
1.341149153898350319e-08
9.271572581476523992e-09
6.646983787212596409e-09
4.771774748626118162e-09
3.343638314029339829e-09
2.353531375471064328e-09
1.677398852996532765e-09
1.213138562939361705e-09
8.928286732253794303e-10
6.699370252375583593e-10
5.110396180564171294e-10
3.947045566269497687e-10
3.067102888901301216e-10
2.380480430230270628e-10
1.832558360656622652e-10
1.391030626567633505e-10
