# bin_15_4
7.770351353978815926e-43
8.614306311177512476e-43
9.351795073086683171e-43
9.888348139459580702e-43
1.011255994270991652e-42
9.936681810320779561e-43
9.235893562215310761e-43
8.115926964223336291e-43
6.753910966971865169e-43
5.524238958861684446e-43
4.680582409440328088e-43
4.038733791300093423e-43
3.121471436764120255e-43
2.161173656726706807e-43
1.741935545801600073e-43
1.219057344523598473e-43
9.060321618722386043e-44
6.202150749613980306e-44
4.454985670317048536e-44
3.171089796828439877e-44
2.268502014326084148e-44
1.642081186708571909e-44
1.206181237745815911e-44
9.033220088447116160e-45
6.884969489158617403e-45
5.318220911327367579e-45
4.140957608247676317e-45
3.226910619865475367e-45
2.498982731318125588e-45
1.911024772913321584e-45
1.435846692678664760e-45
