# bin_15_2
3.026016886769947024e-59
3.346921916101255523e-59
3.623133248577096257e-59
3.817450848951218451e-59
3.888020051381206812e-59
3.798081671910358868e-59
3.505913526235460107e-59
3.060431310028971547e-59
2.535154864555459141e-59
2.076377439658959743e-59
1.768965422388074254e-59
1.518894372990163580e-59
1.151322319802552875e-59
8.022472784624835094e-60
6.526455589808971819e-60
4.453334512407056725e-60
3.371527498982637969e-60
2.316735264451647998e-60
1.647327917519080444e-60
1.178807410933864870e-60
8.482295524166086146e-61
6.170312744144390512e-61
4.557601645393962253e-61
3.432918336529721311e-61
2.629340683399516115e-61
2.038359189845240569e-61
1.590206781195986340e-61
1.239362121647149112e-61
9.583477639021663628e-62
7.307596408541148460e-62
5.468603663865188443e-62
