# bin_18_5
1.389027577037382378e-49
1.553729912250262232e-49
1.705365264853614060e-49
1.828039642259590380e-49
1.901734971738092161e-49
1.908954171640732509e-49
1.824543556978840889e-49
1.645751921305061776e-49
1.403239370088664717e-49
1.150056125344514937e-49
9.529808837168512591e-50
8.241249248021099340e-50
6.836440659497712054e-50
4.857573292901065699e-50
3.597957536590396951e-50
2.826931547120360793e-50
1.901850932497977288e-50
1.406288242776081936e-50
9.944639402067684423e-51
6.927037494242510124e-51
4.863293885470340512e-51
3.440642007598333147e-51
2.469569858459131369e-51
1.801833603659822409e-51
1.341018855936094393e-51
1.015859837912843267e-51
7.806672912418471899e-52
6.051352356487378118e-52
4.697332099774586504e-52
3.625285997887498257e-52
2.764099512913593058e-52
