# bin_4_10
2.813511561984665687e-07
2.951241117972430223e-07
2.992727074180975589e-07
2.906716834171778733e-07
2.669434957199716582e-07
2.318850526226086478e-07
1.918442960894728799e-07
1.575395709026766278e-07
1.343107651834425461e-07
1.142107702289009683e-07
8.604087173049314287e-08
6.122879865315371680e-08
4.912229544043947670e-08
3.437066506402078794e-08
2.586571060039564234e-08
1.842812436172554036e-08
1.347201837040225250e-08
9.935777158367075528e-09
7.427074842545884214e-09
5.651229598230299204e-09
4.373462764546463202e-09
3.435317317568334813e-09
2.721698998467153170e-09
2.159580148375880651e-09
1.704092629926653261e-09
1.328186711738440171e-09
1.016508617239768288e-09
7.602783573679860672e-10
5.538514890796039127e-10
3.924487940351474610e-10
2.706834627562629913e-10
