# bin_19_20
1.034142379015471522e-08
1.173008592753717089e-08
1.309476688443589460e-08
1.433270326011521012e-08
1.530586866534435937e-08
1.584141587260749506e-08
1.580442162530628637e-08
1.497291148908022434e-08
1.339303110725401286e-08
1.132092187248472781e-08
9.263173845186205841e-09
7.732491615125378557e-09
6.701458864986963165e-09
5.446191435725530528e-09
3.797814769638254572e-09
2.901693714082606906e-09
2.193436291891236845e-09
1.506398508869772950e-09
1.065383074392946669e-09
7.567186978238624965e-10
5.192637405141016810e-10
3.550922750703962883e-10
2.445920705740227598e-10
1.699062474314023188e-10
1.195676686467210338e-10
8.572318206564834013e-11
6.268278248216279101e-11
4.677844489237699706e-11
3.551356613394759157e-11
2.727335761538765587e-11
2.103264205809761262e-11
