# bin_9_5
5.988974723583575698e-15
6.505601062967890808e-15
6.886417129480606202e-15
7.053963251219449736e-15
6.948232277041924727e-15
6.479485712877911196e-15
5.711816509386883528e-15
4.766242974302135161e-15
3.896731936216168085e-15
3.289734424196113567e-15
2.840684221665019794e-15
2.220938765348112465e-15
1.541825823769197731e-15
1.231715642292829370e-15
8.826187557950075712e-16
6.494363572592570294e-16
4.530539429291566184e-16
3.307661771422210571e-16
2.388215217889895347e-16
1.739362643339102612e-16
1.287500989702260560e-16
9.689995962348547992e-17
7.426201584943188126e-17
5.774467399996205243e-17
4.528955036363695852e-17
3.559577915069661255e-17
2.783616827215636216e-17
2.151614939706731091e-17
1.634644680106984989e-17
1.215144139971786671e-17
8.808774948000196907e-18
