# bin_3_14
4.606386368267920389e-07
4.742076667019253108e-07
4.702103378487076155e-07
4.428976087220717455e-07
3.943419507979394493e-07
3.325228609833439618e-07
2.723933522873853641e-07
2.277841647713806853e-07
1.960832721117404841e-07
1.577075668057461385e-07
1.120731700827813058e-07
8.606334016732561178e-08
6.510815685021351611e-08
4.653189938651458074e-08
3.416132006038890964e-08
2.507884891972054721e-08
1.843555555161307851e-08
1.377139804145469325e-08
1.047556171099773174e-08
8.113313369941277513e-09
6.380693518168748457e-09
5.069229496411790721e-09
4.038788218870790723e-09
3.203701299720179286e-09
2.512782999822262675e-09
1.936690602432211726e-09
1.459356732638900465e-09
1.071334809090631739e-09
7.648507260590238535e-10
5.313590719464919560e-10
3.600014141379086887e-10
