# bin_1_12
7.404418759867791994e-07
7.143145306958673876e-07
6.525625401423921318e-07
5.644765621763289187e-07
4.673973297765967731e-07
3.855164017994460487e-07
3.280807698824892639e-07
2.752580051771307429e-07
2.073705525925352285e-07
1.507401592014405611e-07
1.182009277852918164e-07
8.513621603021132747e-08
6.336759974664533198e-08
4.634028324149781266e-08
3.449866494084945177e-08
2.600243709292297905e-08
1.995438376693190434e-08
1.560157110915982118e-08
1.238489307557552743e-08
9.928986644231966009e-09
7.979311849105039375e-09
6.379482937539118492e-09
5.038791228130869216e-09
3.907460524384504656e-09
2.960266678947269414e-09
2.183641461433373730e-09
1.566429726252432152e-09
1.093504858891334309e-09
7.446005016036755752e-10
4.961000232916861064e-10
3.245031454078830866e-10
