# bin_20_2
2.631299064822265870e-86
2.951798316289637005e-86
3.251320977943616327e-86
3.500476298561057622e-86
3.661920723783327215e-86
3.699115738578772762e-86
3.568270901668528444e-86
3.248319297168366319e-86
2.796082002657640728e-86
2.299305501936692481e-86
1.894315579065223457e-86
1.630778270210723128e-86
1.376007986287433636e-86
1.000859526919074675e-86
7.182413520968087458e-87
5.796441626498260252e-87
3.842237652055181370e-87
2.906445134812567323e-87
2.017530435236916205e-87
1.398677578341127204e-87
9.822446412796851727e-88
6.912147826684034476e-88
4.921217137715160499e-88
3.555311835085944622e-88
2.620584840366124401e-88
1.968030089783017878e-88
1.502078847403100771e-88
1.159601420432201024e-88
8.991564200676991488e-89
6.951825948260800661e-89
5.322618799267061759e-89
