# bin_10_14
7.679425993809483143e-08
8.494042969673008679e-08
9.195366301619373388e-08
9.689005101884774280e-08
9.869290576577839536e-08
9.641929679343140506e-08
8.902982689183670332e-08
7.773662024930427038e-08
6.442811122220931835e-08
5.278352174942635714e-08
4.494741320176896687e-08
3.856575267020402950e-08
2.927241149339365866e-08
2.043447656785131043e-08
1.656227344402911420e-08
1.136334314708292766e-08
8.556749532246889746e-09
5.894332297201144816e-09
4.199710869809378415e-09
3.001381293989106616e-09
2.156828895988788155e-09
1.568457915406881145e-09
1.158237692524022082e-09
8.720926453678576924e-10
6.677162407957625835e-10
5.174740968490862779e-10
4.036001199190194307e-10
3.145027967416885863e-10
2.431747473871612450e-10
1.854296805959534869e-10
1.387792072210379874e-10
