# bin_11_8
3.239405875127624789e-12
3.573718352219702924e-12
3.856384326313561445e-12
4.047091531771530258e-12
4.103544610998885634e-12
3.982089859451750152e-12
3.648865789335372388e-12
3.162069671347650133e-12
2.608682849091662970e-12
2.141942085091201642e-12
1.834427949901354994e-12
1.562297420712940227e-12
1.160433614212000325e-12
8.197263157233883229e-13
6.670068553749170320e-13
4.485132992645463775e-13
3.418924384759144053e-13
2.375192773559099120e-13
1.679711445717130053e-13
1.205025209814211880e-13
8.698827288715938488e-14
6.360545936339047690e-14
4.726604482613721074e-14
3.580984431429089109e-14
2.755885115542555645e-14
2.143607959949594658e-14
1.674866926512910832e-14
1.304918850006849326e-14
1.007047301193347281e-14
7.653262745869518323e-15
5.701653350375567265e-15
