# bin_5_16
3.094427602477746632e-07
3.294054507447769015e-07
3.399403012652777938e-07
3.380736964948630872e-07
3.193990825961327024e-07
2.851023799209482509e-07
2.407649833687126646e-07
1.970824684340550932e-07
1.645379263705786981e-07
1.420414762058187366e-07
1.149531267140395540e-07
8.120103158005903502e-08
6.219017717499004191e-08
4.726723048594045549e-08
3.338205168674489954e-08
2.437308334705883215e-08
1.778904999102046880e-08
1.289875467292267588e-08
9.481589896249521847e-09
7.089466511386019169e-09
5.397465790542967182e-09
4.179491363370105732e-09
3.279956737172975290e-09
2.591590866185309874e-09
2.047466436385193039e-09
1.606140070925668768e-09
1.242837453476587625e-09
9.434573037464084602e-10
6.995296770061758867e-10
5.050689947173057155e-10
3.547952324278292828e-10
