# bin_10_20
1.422898848744045936e-07
1.574314831878635503e-07
1.704937875190831110e-07
1.797304500231455193e-07
1.831736182659236780e-07
1.790926449862052846e-07
1.655164962164830500e-07
1.446476728067532887e-07
1.199542992044855219e-07
9.825414557716230527e-08
8.360909594895115923e-08
7.178967140411429124e-08
5.462910880030406559e-08
3.809756938291420706e-08
3.084817084749961669e-08
2.122689604579253874e-08
1.595082055663125541e-08
1.098281803987032195e-08
7.833120020796291643e-09
5.594772134175480638e-09
4.017741726452395934e-09
2.919813652901804179e-09
2.154573850823277067e-09
1.621069397355364907e-09
1.240386493344747378e-09
9.608453198225793572e-10
7.492237727557626188e-10
5.838231051923762923e-10
4.515060012500329551e-10
3.444214776197249858e-10
2.579080344467023271e-10
