# bin_3_5
1.750980851579670799e-07
1.798433751124724112e-07
1.778084317487721505e-07
1.668498823098120519e-07
1.480161440902342210e-07
1.244054705701796119e-07
1.018736244263988627e-07
8.542409080768162961e-08
7.351136861601574925e-08
5.861489893409317701e-08
4.150472849730249907e-08
3.217891884455530325e-08
2.406796268450760250e-08
1.734328651490282889e-08
1.265886277705409286e-08
9.319418671176828752e-09
6.864576823346620751e-09
5.137107825575506761e-09
3.916156896994042708e-09
3.039230273603372686e-09
2.394346330354969771e-09
1.904287006085140241e-09
1.517786884091441842e-09
1.203594357504043053e-09
9.431154704683858826e-10
7.257748928602558670e-10
5.457943936860599610e-10
3.997478921386560861e-10
2.847023110543230763e-10
1.973367334817224671e-10
1.334281349993301268e-10
