# bin_19_19
4.567533280361057281e-09
5.178820036263661861e-09
5.778440358742429151e-09
6.320848531296761959e-09
6.744869264817139761e-09
6.974028992776751438e-09
6.949641407387285388e-09
6.573586960998375097e-09
5.871298509317301331e-09
4.955639591921855817e-09
4.054001982977330313e-09
3.388437415699227454e-09
2.936864323884529431e-09
2.377615469783259436e-09
1.653990704679976570e-09
1.270673692898644368e-09
9.541707993697666151e-10
6.589773833550344785e-10
4.630759875507234187e-10
3.297321928253871108e-10
2.265001958096083068e-10
1.549813151947292317e-10
1.069127811832870987e-10
7.438080767760812094e-11
5.244711460804369703e-11
3.768167164138625149e-11
2.761330000723153026e-11
2.064755703894044459e-11
1.569903310022737993e-11
1.206719904136566781e-11
9.308058912824834797e-12
