# bin_5_9
1.772814915143781929e-07
1.886057189430096659e-07
1.944927316662942980e-07
1.932466845197227422e-07
1.823489283753860142e-07
1.625781428645651799e-07
1.371437028989760298e-07
1.122428746752630043e-07
9.379383838721333697e-08
8.097257717226042280e-08
6.534578817769284167e-08
4.608893667135938875e-08
3.542662907543670238e-08
2.681263692838123022e-08
1.899814583246931324e-08
1.383349526607918217e-08
1.010834190090034479e-08
7.335043187558726843e-09
5.394892721603652456e-09
4.036935536592149367e-09
3.075794589066546283e-09
2.383427000542007392e-09
1.871424528559095061e-09
1.479098900324444277e-09
1.168608638597070353e-09
9.165419155160809531e-10
7.089354318641449253e-10
5.378438086670422735e-10
3.984893997743290518e-10
2.874737005380415233e-10
2.017691876739514471e-10
