# bin_6_10
1.451974467031629483e-07
1.562207416574529644e-07
1.633966895254158879e-07
1.650929577229002003e-07
1.594434802403070071e-07
1.454492617170209749e-07
1.254889714193711939e-07
1.033773589414223167e-07
8.508408650295049918e-08
7.295738133316613112e-08
6.163634290640030199e-08
4.544352985863623841e-08
3.262090563613311636e-08
2.625169929401705311e-08
1.794122284045867417e-08
1.359906052245227021e-08
9.634918574268097378e-09
6.935277286404961168e-09
5.061404141406263034e-09
3.736911331192555391e-09
2.805187709042331483e-09
2.142078724609228833e-09
1.663041422748728616e-09
1.305261753934486071e-09
1.028913397790670238e-09
8.090186724425494059e-10
6.300880143569604321e-10
4.831657627882690220e-10
3.629515033875907977e-10
2.660506927374439112e-10
1.898764827867558238e-10
