# bin_17_11
2.155748773375817103e-17
2.421410462323520637e-17
2.671252287149826531e-17
2.881472984666871032e-17
3.021658136474290651e-17
3.060611521231599890e-17
2.964378272732579074e-17
2.710052432107256585e-17
2.342862609032930210e-17
1.930361032269037031e-17
1.586940183019336555e-17
1.362513849389286122e-17
1.157155998774277517e-17
8.516745691497450414e-18
6.035426073605100370e-18
4.906075417568947349e-18
3.251006395421488045e-18
2.470168953540293785e-18
1.701121221827066300e-18
1.178410575462592025e-18
8.277076783836104514e-19
5.817985233173923577e-19
4.127859903907177369e-19
2.968738112523643931e-19
2.178225963066359904e-19
1.628899232816155258e-19
1.238887584546251052e-19
9.542332975923284389e-20
7.392521021923083488e-20
5.718318213187570781e-20
4.385572941061914805e-20
