# bin_15_13
1.768017279737775880e-10
1.983629788646790368e-10
2.185264071547512180e-10
2.353196398429477863e-10
2.462348985055301479e-10
2.488061914118510264e-10
2.401098168379274034e-10
2.186821364716290785e-10
1.883265132690331602e-10
1.549029840839896898e-10
1.275912299662536367e-10
1.098054002294505321e-10
9.271288463131624382e-11
6.752978713330734009e-11
4.839519736282436639e-11
3.908045975619797176e-11
2.591049721297835749e-11
1.960496746664451734e-11
1.359709549370151453e-11
9.425883583886077661e-12
6.619571927951125704e-12
4.657893860382024504e-12
3.314968255719345425e-12
2.393648085404436985e-12
1.763403025236084605e-12
1.323645406443865097e-12
1.009843654052669784e-12
7.793813420813067250e-13
6.042597127761204289e-13
4.671988580629627219e-13
3.577683815064985134e-13
