# bin_8_7
1.913157635459870182e-09
2.081561513602669251e-09
2.207863798649551793e-09
2.267168898696235762e-09
2.240474004864738364e-09
2.097886255611866787e-09
1.856437087674717248e-09
1.554217353966759742e-09
1.270556297838336002e-09
1.069030499694896636e-09
9.241439036567513289e-10
7.306845330468947851e-10
5.077514346126986430e-10
4.012680539190955084e-10
2.926054411873801739e-10
2.119966916987324148e-10
1.490354855394752089e-10
1.089680813582039178e-10
7.840774365495764093e-11
5.689478473788813183e-11
4.199181984378215826e-11
3.151744643267600982e-11
2.408787521895053881e-11
1.869020238406786107e-11
1.463870882078361572e-11
1.149960721786676368e-11
8.996234064447509359e-12
6.961812953432344638e-12
5.298907034094604039e-12
3.948644264421815679e-12
2.870663581969302665e-12
