# bin_10_8
1.140042271151321266e-10
1.253700615857728416e-10
1.347550050122633021e-10
1.407181909655531256e-10
1.418872409361144544e-10
1.365501895069998147e-10
1.240410410520262408e-10
1.065473734304885322e-10
8.754929262597824966e-11
7.219061444710460537e-11
6.215789905190751301e-11
5.225775854766522056e-11
3.792112754583706796e-11
2.743063650235973458e-11
2.204965173314393164e-11
1.480282874133322758e-11
1.121432113500235204e-11
7.912916033616978639e-12
5.594421854667315073e-12
4.017163439269507134e-12
2.909413960239555386e-12
2.140736800375058346e-12
1.602366324341878531e-12
1.221988025129753858e-12
9.453276846586665539e-13
7.378101950760285561e-13
5.771869717965285662e-13
4.492987639191969743e-13
3.457826741892721190e-13
2.616557392475536234e-13
1.938429590258893685e-13
