# bin_4_11
3.050969459280256897e-07
3.200670980790774489e-07
3.246071388115306074e-07
3.153344565384021691e-07
2.896506672721349972e-07
2.516592951218994779e-07
2.082280964915565468e-07
1.709828889943225607e-07
1.457523154020589568e-07
1.239655459602119580e-07
9.343799259719850497e-08
6.647310261707356239e-08
5.332708574389014459e-08
3.732656707335081482e-08
2.808357084342022646e-08
2.000664990519383496e-08
1.462686789952391136e-08
1.078644245252479447e-08
8.061999928967427932e-09
6.133612376868828282e-09
4.746247913779514177e-09
3.727803106978838917e-09
2.953266742680515205e-09
2.343282917755641427e-09
1.849088779333336903e-09
1.441279515307312302e-09
1.103158548853576781e-09
8.251786486407926599e-10
6.012074892880619022e-10
4.260604679052331343e-10
2.939029931924617708e-10
