# bin_3_4
-1.314627891150657525e-11
-1.360901505888351636e-11
-1.359065430575257235e-11
-1.291525170744363808e-11
-1.159392786463041097e-11
-9.844160943936667230e-12
-8.062509846706105871e-12
-6.695135121041352390e-12
-5.773851785152710931e-12
-4.742694626492156381e-12
-3.385344800058712190e-12
-2.544056553823156084e-12
-1.981361632577380812e-12
-1.383017877127785087e-12
-1.030921530812733960e-12
-7.533698219346877132e-13
-5.506446955259366285e-13
-4.094326920755022920e-13
-3.098454626658669727e-13
-2.388824943202492101e-13
-1.871446228082946632e-13
-1.483314931008160830e-13
-1.180918131811568457e-13
-9.375437439473769132e-14
-7.370914322258310481e-14
-5.701777355852689666e-14
-4.316551289341531872e-14
-3.185510701088589552e-14
-2.286299225590264459e-14
-1.596161036671272922e-14
-1.085990010067554537e-14
