# bin_20_17
-9.533644728488374425e-11
-1.077738820662982659e-10
-1.198126472787066238e-10
-1.304724877532210085e-10
-1.384498721215826782e-10
-1.421625365561307612e-10
-1.404263560107793685e-10
-1.313401082041784383e-10
-1.160740021809555587e-10
-9.702998327323735968e-11
-7.931747651631722750e-11
-6.688496791447447922e-11
-5.787768344741270525e-11
-4.547613644396330546e-11
-3.137756613767376624e-11
-2.492365050705556973e-11
-1.780582083547032116e-11
-1.285591985478604595e-11
-8.734470973109328660e-12
-6.224216128230578614e-12
-4.311645598971908197e-12
-2.979296181284477088e-12
-2.075476737712560873e-12
-1.458900000453028377e-12
-1.042580680821198916e-12
-7.596994675702866430e-13
-5.644724400138837822e-13
-4.271601995680113206e-13
-3.275771203775404657e-13
-2.528818751685260347e-13
-1.950398731267523894e-13
