# bin_11_11
-3.176652277790067423e-11
-3.521966228309787393e-11
-3.823904975989418940e-11
-4.043886066511819708e-11
-4.136409791928878258e-11
-4.065556015163376186e-11
-3.780236731552919909e-11
-3.322717367809663037e-11
-2.765707454956509122e-11
-2.261506542640591530e-11
-1.914719330615060647e-11
-1.652100951576154793e-11
-1.279164984646334510e-11
-8.857317402240239137e-12
-7.121847851810573115e-12
-5.002270730700866041e-12
-3.703527315390400227e-12
-2.540214057747243212e-12
-1.825770811947242886e-12
-1.298486588383465550e-12
-9.279145529076372251e-13
-6.712957972948684519e-13
-4.928269394845726753e-13
-3.688534650983526931e-13
-2.809797898720067049e-13
-2.169439972962380843e-13
-1.688704060765846175e-13
-1.315786213780763390e-13
-1.019007981833244538e-13
-7.793995145543178817e-14
-5.857788664490035660e-14
