# bin_17_5
-1.394995442683281051e-09
-1.484691702041300695e-09
-1.531801675115464012e-09
-1.522942946991357816e-09
-1.438270176877436421e-09
-1.283277220862672824e-09
-1.083189573912928471e-09
-8.863339026276637904e-10
-7.398859513721442269e-10
-6.387089021738127834e-10
-5.166901357648839687e-10
-3.647822183704313115e-10
-2.794507710522090692e-10
-2.122938580839804313e-10
-1.499494339316029743e-10
-1.094457631226845180e-10
-7.988368104365207719e-11
-5.792469298503431247e-11
-4.258032582107686309e-11
-3.183939667068883635e-11
-2.424180756291638637e-11
-1.877232985047732134e-11
-1.473238517349068461e-11
-1.164039809082035353e-11
-9.196043125902396541e-12
-7.213373794037095042e-12
-5.581240413950589635e-12
-4.236369160056776227e-12
-3.140723890731537566e-12
-2.267390241912245032e-12
-1.592604226206349941e-12
