# bin_17_18
-4.398770888902992784e-12
-4.974914866754728520e-12
-5.533696936710974292e-12
-6.030127130372083120e-12
-6.404210153388552566e-12
-6.582581626447305697e-12
-6.511039010492595350e-12
-6.099859083712411161e-12
-5.399118930132053799e-12
-4.518931806058647885e-12
-3.693482575482959177e-12
-3.110274440011396647e-12
-2.693136601347578222e-12
-2.126049595547178503e-12
-1.466464906783237255e-12
-1.160522134979230302e-12
-8.353180156000128089e-13
-5.992240396988045508e-13
-4.079299910429968749e-13
-2.914131118881461500e-13
-2.015720776815697554e-13
-1.390023704454880076e-13
-9.670891174316910902e-14
-6.787518176403566715e-14
-4.841187741900376191e-14
-3.520599818061669367e-14
-2.610921554271686328e-14
-1.972730803387605409e-14
-1.511295974396073985e-14
-1.166235494530220844e-14
-8.996954013386267928e-15
