# bin_16_9
-5.197005820765566635e-10
-5.718897130868475129e-10
-6.152076198869997195e-10
-6.431092118291823958e-10
-6.492169233325907346e-10
-6.259532972602785618e-10
-5.697471341257549601e-10
-4.903712585517627348e-10
-4.032777129732261220e-10
-3.321226386686024088e-10
-2.854786236792625397e-10
-2.407145277673757363e-10
-1.758065887303251102e-10
-1.264116269173485479e-10
-1.017737644293540062e-10
-6.849363184614412533e-11
-5.187051146500801658e-11
-3.644455726884242269e-11
-2.578482198982217459e-11
-1.850642759868448411e-11
-1.339201709454438809e-11
-9.836825202811049978e-12
-7.348214129156493525e-12
-5.593531057881094651e-12
-4.320728235825519162e-12
-3.368810095313785266e-12
-2.634215781333171078e-12
-2.050771138044677032e-12
-1.579249021140481288e-12
-1.196265620468241547e-12
-8.874780535114664743e-13
