# bin_2_18
-4.333771363137932627e-78
-4.837064729568038556e-78
-5.294964538775417911e-78
-5.657026942944236665e-78
-5.860023371894371260e-78
-5.853339473288199718e-78
-5.556001593679100137e-78
-4.978607472217504432e-78
-4.215960982399787669e-78
-3.448906233804706585e-78
-2.871332341703978468e-78
-2.486802541399384838e-78
-2.033516805792433158e-78
-1.425646839518501746e-78
-1.080385786374051820e-78
-8.283947222660811572e-79
-5.676712232193719280e-79
-4.100371664551347351e-79
-2.937945640897335090e-79
-2.055027170607654161e-79
-1.444103031309127585e-79
-1.027160142804054102e-79
-7.415007352687132470e-80
-5.445774290535773196e-80
-4.078456539644698476e-80
-3.106229329640106028e-80
-2.396571429557351226e-80
-1.861497148288370818e-80
-1.445050288539252964e-80
-1.113263854357269960e-80
-8.460282365608561229e-81
