# bin_5_4
-3.462088205216039156e-10
-3.618861947310844465e-10
-3.654871995217859324e-10
-3.529347915159954950e-10
-3.220453177041445209e-10
-2.779581951369732132e-10
-2.290800044705144732e-10
-1.884627591245174727e-10
-1.613174044950895095e-10
-1.362439759016233651e-10
-1.009684181319957235e-10
-7.256658836895433113e-11
-5.823675026778314923e-11
-4.031563478419443630e-11
-3.052745055882317396e-11
-2.182344339641975481e-11
-1.592330215903277336e-11
-1.177722954733592149e-11
-8.835326649197252479e-12
-6.747324478445390751e-12
-5.239560379879225167e-12
-4.126736600674928791e-12
-3.274681741525140156e-12
-2.599433391011540329e-12
-2.049639581468274000e-12
-1.594579975327516512e-12
-1.217009185400284023e-12
-9.070370240347450905e-13
-6.581088000255146887e-13
-4.644083500878272485e-13
-3.190763910225553273e-13
