# bin_7_2
-1.897039787761164526e-09
-1.901990045734909089e-09
-1.819536695932714348e-09
-1.645928960271098769e-09
-1.409330909126216913e-09
-1.159568262168776227e-09
-9.593363049301970187e-10
-8.219265582215198622e-10
-6.822933375894047383e-10
-5.002207429239484731e-10
-3.683519197293473274e-10
-2.891818864630961805e-10
-2.042192402524062226e-10
-1.530293067076595415e-10
-1.113638161056903755e-10
-8.230506501379919413e-11
-6.175644331445998349e-11
-4.714502657002799419e-11
-3.665666332616930839e-11
-2.894045708908434813e-11
-2.308847360459339102e-11
-1.847527150935944317e-11
-1.471871146593206690e-11
-1.159333706122185154e-11
-8.971755372168842166e-12
-6.786584106095941342e-12
-5.000202181022223910e-12
-3.582536521341360979e-12
-2.497520579096171709e-12
-1.697902307394460906e-12
-1.129249247655026803e-12
