# bin_12_1
-3.404143387155025398e-09
-3.282754632644875483e-09
-2.997596594547204951e-09
-2.591667794791711585e-09
-2.144992953884280265e-09
-1.768838546821085367e-09
-1.505280025608831198e-09
-1.262600668976059848e-09
-9.506256638088802641e-10
-6.909775958658692610e-10
-5.418141444931224060e-10
-3.901173267283155336e-10
-2.903886317996182402e-10
-2.123441024455599999e-10
-1.580841642219428317e-10
-1.191578349955492540e-10
-9.144755873572441302e-11
-7.150290066866353820e-11
-5.676193933130883583e-11
-4.550579793524863515e-11
-3.656871132225546759e-11
-2.923475155944720725e-11
-2.308874392708654277e-11
-1.790283486859579639e-11
-1.356149317872661145e-11
-1.000245765988607457e-11
-7.174423844648505590e-12
-5.007859559383251891e-12
-3.409701856980503437e-12
-2.271597279454092723e-12
-1.485790148963594754e-12
