# bin_3_1
-1.492623433727500149e-09
-1.432853388445205135e-09
-1.301956510659139785e-09
-1.120356255963845131e-09
-9.250420994626944830e-10
-7.642582531385414812e-10
-6.518755785678037547e-10
-5.434513207169784487e-10
-4.049631102498466101e-10
-2.963289212017138247e-10
-2.321191231425361571e-10
-1.663420922187838017e-10
-1.242175104491952705e-10
-9.089174848517409964e-11
-6.773498477181189825e-11
-5.118265553869275222e-11
-3.938292895914488546e-11
-3.086832838167305449e-11
-2.455174270832394405e-11
-1.970631432642899968e-11
-1.584083764676655183e-11
-1.265696804315356099e-11
-9.982827523559780376e-12
-7.725101202808710911e-12
-5.837066019058114894e-12
-4.293121488679070675e-12
-3.070515549644686731e-12
-2.137544045312498445e-12
-1.451956800712433310e-12
-9.653943069313545382e-13
-6.304125879476307433e-13
