# bin_2_7
-6.369492935235033846e-22
-6.746168448544541490e-22
-6.917579924772046322e-22
-6.825421720984293520e-22
-6.380477696926736056e-22
-5.637694662569850534e-22
-4.714206427064314160e-22
-3.852297218472573918e-22
-3.241721516206963390e-22
-2.799495128988442902e-22
-2.209014288353552636e-22
-1.539072250310928092e-22
-1.218728617705804536e-22
-8.901122191898075040e-23
-6.496216090606344071e-23
-4.611343323973489019e-23
-3.400863891134039058e-23
-2.483878309967919189e-23
-1.835835878725856828e-23
-1.382320011464616514e-23
-1.059237547898860267e-23
-8.252064280952221311e-24
-6.504287513257429424e-24
-5.151576129337459982e-24
-4.071354530975279848e-24
-3.188336926527194815e-24
-2.458463862141128974e-24
-1.856683704532489459e-24
-1.367807853096069119e-24
-9.804416132883583134e-25
-6.836499468602818178e-25
