# bin_4_12
-9.020776714471179659e-32
-9.896208019467285405e-32
-1.060526473258666501e-31
-1.103256835379973764e-31
-1.107628941733477833e-31
-1.059285512705692941e-31
-9.561377420825161559e-32
-8.158657060252265848e-32
-6.686086001161251543e-32
-5.532295921540301590e-32
-4.777820839155405983e-32
-3.972786380388769276e-32
-2.837651947664914651e-32
-2.094321321896632376e-32
-1.656977215365553644e-32
-1.121102922159104343e-32
-8.386879814125978290e-33
-5.986713703718676002e-33
-4.242953114517550440e-33
-3.047217178285076011e-33
-2.213589336770233346e-33
-1.636131616341769977e-33
-1.230817693762979058e-33
-9.427412262345763470e-34
-7.317289477742515391e-34
-5.722536563470335478e-34
-4.478949016304107431e-34
-3.483245386876792247e-34
-2.674800751852943785e-34
-2.017465821994407076e-34
-1.488437567731006570e-34
