# bin_9_5
-7.715613346199150815e-10
-8.206593705051812475e-10
-8.460401775978409093e-10
-8.403362977385069975e-10
-7.926005118295744468e-10
-7.063223261470726696e-10
-5.955074773244346647e-10
-4.872000831100054163e-10
-4.070921976191141167e-10
-3.514341851924199696e-10
-2.834554495428641854e-10
-1.998039787259173492e-10
-1.536459414952301474e-10
-1.162073358873460191e-10
-8.236351477730034186e-11
-5.994567899407534847e-11
-4.380666958327799962e-11
-3.179000407574203026e-11
-2.338277069971230688e-11
-1.749864971165238039e-11
-1.333362900132288337e-11
-1.033299285998770386e-11
-8.113651062340466095e-12
-6.412726187617551837e-12
-5.066380013108050122e-12
-3.973265605464685491e-12
-3.072947170683148889e-12
-2.331030740107652182e-12
-1.726816515061268148e-12
-1.245556444860715107e-12
-8.740945738793929988e-13
