# bin_8_10
-4.567778242130242376e-13
-5.022411010988132330e-13
-5.397400804584204926e-13
-5.635002819275988856e-13
-5.680360213494582867e-13
-5.464826827072838718e-13
-4.962203944127036491e-13
-4.260394487113190019e-13
-3.499274342655951026e-13
-2.884783434453748378e-13
-2.483839641810077734e-13
-2.087749481040611495e-13
-1.514056064783654085e-13
-1.095233581261647693e-13
-8.802660327760574800e-14
-5.907740671926118350e-14
-4.474914214771271048e-14
-3.157761781091994528e-14
-2.232334396698199375e-14
-1.602810569135552575e-14
-1.160768203699079674e-14
-8.540998187526645825e-15
-6.393117664873411160e-15
-4.875564674600661880e-15
-3.771740351732330626e-15
-2.943724270118753600e-15
-2.302781000257360877e-15
-1.792444200629606481e-15
-1.379368895391367276e-15
-1.043684451276302810e-15
-7.731224773904277880e-16
