# bin_20_18
-6.044592279631587385e-11
-6.845332864154848962e-11
-7.626569513330422860e-11
-8.327324383592274034e-11
-8.865916772109153046e-11
-9.141140911491601811e-11
-9.077442876118280279e-11
-8.547177456721641546e-11
-7.601068277991928368e-11
-6.389116148331844267e-11
-5.222976503831812430e-11
-4.379959033911914119e-11
-3.795236541388410132e-11
-3.037903109694054556e-11
-2.102814414301951699e-11
-1.638295664770707633e-11
-1.206968228856640507e-11
-8.476480600825158088e-12
-5.863245787272978175e-12
-4.187638594971594215e-12
-2.885207593092737559e-12
-1.980048017840014990e-12
-1.371314356147986609e-12
-9.578617034169781900e-13
-6.789591437511648154e-13
-4.905523269330840281e-13
-3.614962563932977666e-13
-2.716467756529660610e-13
-2.072988145603869549e-13
-1.596575920185248296e-13
-1.231765089988323873e-13
