# bin_7_6
-2.105253357171966597e-10
-2.260291121836782192e-10
-2.357807711841094645e-10
-2.375023946076453072e-10
-2.283605746264912758e-10
-2.073326236564020068e-10
-1.780156015549815129e-10
-1.462849319564236228e-10
-1.206181421477642290e-10
-1.036957411977372200e-10
-8.704450227165830607e-11
-6.341290820960547575e-11
-4.601009902159383771e-11
-3.684994232169043636e-11
-2.511747794773838415e-11
-1.901737557910010222e-11
-1.355847512710260649e-11
-9.750145221919375108e-12
-7.124337022142828310e-12
-5.271673138817203626e-12
-3.968549399749050593e-12
-3.039318943317850247e-12
-2.365345339523248991e-12
-1.859492681925258391e-12
-1.466874054119339159e-12
-1.153138828413081301e-12
-8.971217775864638550e-13
-6.866579552753034139e-13
-5.145245476439954562e-13
-3.760203816338756857e-13
-2.674818267698039939e-13
