# bin_14_13
-6.284973077471153234e-11
-7.026692260261694816e-11
-7.707783497425741980e-11
-8.256075305926776119e-11
-8.580777946280597869e-11
-8.603896012771066524e-11
-8.211265502757200015e-11
-7.396084259328291619e-11
-6.296784291106177856e-11
-5.157863437974450323e-11
-4.277029356223793798e-11
-3.698935653305493843e-11
-3.059726257203994417e-11
-2.169216701378277613e-11
-1.612845880981611258e-11
-1.261324083359091342e-11
-8.516474176340245392e-12
-6.268310321789349506e-12
-4.441690844437192524e-12
-3.095918391690297738e-12
-2.174054477200312313e-12
-1.539545192037172182e-12
-1.106044772484585894e-12
-8.078228852329515234e-13
-6.018205009157687483e-13
-4.562790969190003482e-13
-3.508467214129598414e-13
-2.720263463576179791e-13
-2.111377892922993802e-13
-1.628834026663246438e-13
-1.241081901624402166e-13
