# bin_9_19
-1.217263145735313243e-32
-1.368961288254337491e-32
-1.512464841345842003e-32
-1.634506250738161241e-32
-1.718018671695323327e-32
-1.744651824625868975e-32
-1.696484267462214827e-32
-1.557474677686159775e-32
-1.352109475833054458e-32
-1.116174717395618852e-32
-9.156069901392275861e-33
-7.836342080058016068e-33
-6.694618409605783584e-33
-4.988488229096224877e-33
-3.496255879319475389e-33
-2.851254925781619172e-33
-1.898487065502191148e-33
-1.442527990610058946e-33
-9.849817307937388721e-34
-6.831808702129074874e-34
-4.796312403541151476e-34
-3.367859193248405725e-34
-2.380715896644444564e-34
-1.703953021391810651e-34
-1.243922877749827558e-34
-9.257934434657039947e-35
-7.012772863909995997e-35
-5.386402017277797645e-35
-4.167472631787128658e-35
-3.224375691514598770e-35
-2.476772001170340105e-35
