# bin_8_12
-1.700403126653125484e-16
-1.881108847843969952e-16
-2.036869157712586582e-16
-2.146809236054121509e-16
-2.187305180739636940e-16
-2.137924868982833430e-16
-1.974750294717220766e-16
-1.724803674491963984e-16
-1.429103271216570385e-16
-1.169885728152859012e-16
-9.958156895706511271e-17
-8.556297071705868619e-17
-6.501262593329341484e-17
-4.524025915488532406e-17
-3.676186582063913929e-17
-2.516397517114600285e-17
-1.900415783716573074e-17
-1.304629191267343571e-17
-9.290207268013677287e-18
-6.642367454468470679e-18
-4.775575744035733280e-18
-3.471409171559087014e-18
-2.562057730694713053e-18
-1.928265297173728437e-18
-1.475894764999268596e-18
-1.143587933620823722e-18
-8.919089583951768435e-19
-6.950984473349886702e-19
-5.375833980780053747e-19
-4.100641014596938593e-19
-3.070257499375622460e-19
