# bin_16_10
-4.020630993614873024e-10
-4.447163662807086258e-10
-4.814420191239157943e-10
-5.073005131731017354e-10
-5.167526263202472680e-10
-5.048837732012224301e-10
-4.662170932019072030e-10
-4.070759401955287079e-10
-3.373309627608176046e-10
-2.762533278779249544e-10
-2.351492201083362576e-10
-2.018143634424168952e-10
-1.532903048963772587e-10
-1.069254137563057560e-10
-8.663640634762862738e-11
-5.949141365100078488e-11
-4.476034014453342827e-11
-3.082084399352711708e-11
-2.196817059962948451e-11
-1.569463487882777236e-11
-1.127454938316521645e-11
-8.196423600373053593e-12
-6.050709616003904715e-12
-4.554400325894816609e-12
-3.486120176182915727e-12
-2.701150458896978482e-12
-2.106479767469702727e-12
-1.641399016715585122e-12
-1.269188013995020542e-12
-9.679083278143579419e-13
-7.245232606123072918e-13
