# bin_12_9
-2.821063000584103044e-10
-3.103056617988992381e-10
-3.336364078680087980e-10
-3.485383947886707113e-10
-3.515867188684392472e-10
-3.386155208108359516e-10
-3.078562274852395894e-10
-2.646561945961689784e-10
-2.175384473266016353e-10
-1.792601913332892122e-10
-1.541899859962140375e-10
-1.297834868919216344e-10
-9.449781417562934146e-11
-6.816507890670840403e-11
-5.478321934115396505e-11
-3.686680550109255567e-11
-2.789304459991590858e-11
-1.963764661066726755e-11
-1.389315475478020440e-11
-9.973236302213924177e-12
-7.220785099827418510e-12
-5.308352401697564717e-12
-3.969196278612313043e-12
-3.024005121900559666e-12
-2.337483789825571458e-12
-1.823306009837161370e-12
-1.425941100063248327e-12
-1.109976360787714122e-12
-8.544498798453239207e-13
-6.468663510194714915e-13
-4.795355486030231617e-13
