# bin_19_7
-9.687973032875488724e-10
-1.052032324770368719e-09
-1.113194581804049991e-09
-1.139901111831457022e-09
-1.122145862058307496e-09
-1.045955188686537950e-09
-9.215622152884462683e-10
-7.689983927422380393e-10
-6.288486995568914992e-10
-5.307978666303904295e-10
-4.576992919969839042e-10
-3.576794964115660072e-10
-2.491294845618355310e-10
-1.982264741574908107e-10
-1.423635313323519834e-10
-1.043857550170755149e-10
-7.328725953786862348e-11
-5.334761295009989054e-11
-3.849862769010195254e-11
-2.803127459827801817e-11
-2.074242607784543654e-11
-1.560910136645495991e-11
-1.195972472766157010e-11
-9.297324054383801303e-12
-7.289964850477545486e-12
-5.727955963941560785e-12
-4.478045568265646931e-12
-3.460435711820440122e-12
-2.628410478351820637e-12
-1.953544475849261582e-12
-1.416055187081761826e-12
