# bin_9_9
-4.231235200019555176e-11
-4.643409770015782197e-11
-4.978182601998993976e-11
-5.181535027712510484e-11
-5.205182063502936197e-11
-4.982664881910610314e-11
-4.501986536877662977e-11
-3.845620238440934569e-11
-3.153103317650327738e-11
-2.607655513241040710e-11
-2.250373300401695343e-11
-1.874041226153912936e-11
-1.342845279193522753e-11
-9.877147890016581667e-12
-7.829817255750544958e-12
-5.296107325416669422e-12
-3.967192085926004718e-12
-2.825783595144697554e-12
-2.002176348664818380e-12
-1.438109598437561835e-12
-1.044332215520672270e-12
-7.713092090207797139e-13
-5.797276198818769464e-13
-4.436984696193424307e-13
-3.441779850062569990e-13
-2.690600434149199498e-13
-2.105583583641168820e-13
-1.637649914473135594e-13
-1.257947153456903877e-13
-9.492693498962108521e-14
-7.008035213030493038e-14
