# bin_9_18
-2.236742283328933548e-29
-2.511104080122678567e-29
-2.768496326028505403e-29
-2.984117452265953567e-29
-3.126350638672424825e-29
-3.163300540308492947e-29
-3.059060787742982604e-29
-2.791866422586100011e-29
-2.409303459150260526e-29
-1.983007302636457583e-29
-1.630823975317129818e-29
-1.401360953269920991e-29
-1.187705821444414947e-29
-8.704252145574324874e-30
-6.189840711024182051e-30
-5.023127750884044401e-30
-3.325035539031830017e-30
-2.524333130448484259e-30
-1.742705805394933241e-30
-1.207090547741384612e-30
-8.476815691594785008e-31
-5.959139423523509290e-31
-4.232177249840169230e-31
-3.047774026318563884e-31
-2.239288414583434017e-31
-1.676710134267118446e-31
-1.276608834540125808e-31
-9.839671509339145806e-32
-7.624814811490511473e-32
-5.896929899416343307e-32
-4.520009871594462500e-32
