# bin_2_3
-1.570076501338010230e-11
-1.588666883856231269e-11
-1.538885009921932231e-11
-1.409333471252334562e-11
-1.221053913995018702e-11
-1.008486671289436496e-11
-8.283170977276499892e-12
-7.068210298350077198e-12
-5.996336070620119077e-12
-4.497020879429193376e-12
-3.212921315661613504e-12
-2.581267883834386232e-12
-1.807006045791736944e-12
-1.368215772536417417e-12
-9.827923356107912050e-13
-7.248034270958128964e-13
-5.413780360658428362e-13
-4.107329680897859304e-13
-3.174052141733888233e-13
-2.492915009860363967e-13
-1.982452290963731883e-13
-1.584783018196263482e-13
-1.264075510930682258e-13
-9.989024775066629601e-14
-7.769037537721238023e-14
-5.914350421317373212e-14
-4.388575273129404342e-14
-3.167023009379887671e-14
-2.222543554423625733e-14
-1.519693008052269114e-14
-1.015556883043216372e-14
