# bin_2_1
-9.005975506362498704e-10
-8.604826200192642072e-10
-7.779474279300977849e-10
-6.662147460611613263e-10
-5.488189376609678433e-10
-4.544039764600073108e-10
-3.884348296892280172e-10
-3.216205877032804658e-10
-2.371466888116728930e-10
-1.749278335018765532e-10
-1.366867081795525879e-10
-9.758523308104898234e-11
-7.305358966867500317e-11
-5.353050875659609285e-11
-3.992681925208984160e-11
-3.024653501255669421e-11
-2.333664815187588333e-11
-1.833649041241101285e-11
-1.461255103409014640e-11
-1.174219758073134787e-11
-9.441229328310563981e-12
-7.538941487967979688e-12
-5.937707031655583712e-12
-4.585161075404652512e-12
-3.455431824642572544e-12
-2.534044607234652302e-12
-1.807040790848475378e-12
-1.254512573898989834e-12
-8.500777069942802297e-13
-5.640556845578446338e-13
-3.677198185492691234e-13
