# bin_2_2
-2.042197383724276382e-10
-2.023040463713745344e-10
-1.904121443121482768e-10
-1.694498543388318422e-10
-1.428566885331125403e-10
-1.170153895012048318e-10
-9.780437056215070675e-11
-8.410365076276768283e-11
-6.766239343109726784e-11
-4.822576660976566529e-11
-3.698250103865655458e-11
-2.806701704533074478e-11
-2.012334277588989018e-11
-1.486906790838835233e-11
-1.098229701480400462e-11
-8.152814855777049033e-12
-6.161759643443707486e-12
-4.746190328185586620e-12
-3.721399132960650683e-12
-2.958390595805125404e-12
-2.369947976622643671e-12
-1.898531685053436991e-12
-1.509742380998713948e-12
-1.183735873968941181e-12
-9.097066386034898815e-13
-6.820784598081729156e-13
-4.975877758819734836e-13
-3.529218596701555896e-13
-2.437237366558951350e-13
-1.643240746812237369e-13
-1.085337886254236099e-13
