# bin_10_5
-8.910266185254745724e-10
-9.479042704870331920e-10
-9.774489187345513032e-10
-9.711404917606007148e-10
-9.163266717659788387e-10
-8.168810480405108716e-10
-6.889593386081755859e-10
-5.636839204631824206e-10
-4.708636501872873296e-10
-4.064830732222123893e-10
-3.281489404828503274e-10
-2.314178582402848059e-10
-1.777532347742231132e-10
-1.346198719029632355e-10
-9.531463560518235657e-11
-6.943110999527595273e-11
-5.071991047090293039e-11
-3.679805192281558140e-11
-2.706149346511315122e-11
-2.024668884080886439e-11
-1.542390378238578169e-11
-1.195017700233944950e-11
-9.381963006211027656e-12
-7.414476465806023314e-12
-5.857724851843075310e-12
-4.594149881365123407e-12
-3.553597735523232641e-12
-2.696140356732404891e-12
-1.997755877767789752e-12
-1.441364883779020531e-12
-1.011778659849914046e-12
