# bin_10_6
-6.198710948332503854e-10
-6.667920582004323936e-10
-6.972430042493116840e-10
-7.042719446162408960e-10
-6.799013860323735854e-10
-6.199380385958921231e-10
-5.345825887754623840e-10
-4.401856265017111002e-10
-3.622180991581918155e-10
-3.105985184586118112e-10
-2.623276660966790578e-10
-1.932633708686985978e-10
-1.387438630267129879e-10
-1.116426817037964573e-10
-7.626798597529046009e-11
-5.780777795362069587e-11
-4.095973089859072628e-11
-2.948040798410776103e-11
-2.151419158049447183e-11
-1.588451357281133804e-11
-1.192467189320547201e-11
-9.106300812849685501e-12
-7.070105084205513339e-12
-5.549107015549809125e-12
-4.374128568793239417e-12
-3.439089107447289541e-12
-2.678212779942300502e-12
-2.053472982008945924e-12
-1.542353767744901987e-12
-1.130418735616812690e-12
-8.066525024710373207e-13
