# bin_17_12
-2.647451178719901065e-10
-2.952573936741270841e-10
-3.228960788430969783e-10
-3.445621128878313318e-10
-3.563890967719950947e-10
-3.553277865289095239e-10
-3.364757708991089673e-10
-3.008511914756448493e-10
-2.542488304142904476e-10
-2.079589364345180838e-10
-1.734677488792327252e-10
-1.502062112132708733e-10
-1.220923981900120365e-10
-8.540717799011181031e-11
-6.521025650946154030e-11
-4.951056982365631683e-11
-3.423603470216533727e-11
-2.453013214450731579e-11
-1.761088560690600349e-11
-1.234021717850757183e-11
-8.686003364112569892e-12
-6.191008409202895423e-12
-4.477781135791214673e-12
-3.295788647041532058e-12
-2.473238894274368732e-12
-1.886774953056837953e-12
-1.457329081376809137e-12
-1.132442577836093179e-12
-8.788932692635001058e-13
-6.765445831976754941e-13
-5.134865697247335027e-13
