# bin_19_14
7.051846770605705493e-08
6.634741085211752403e-08
6.085327098103199356e-08
5.432381566153774239e-08
4.717686409305317596e-08
3.990765263581951540e-08
3.300141682177793112e-08
2.681438682001751470e-08
2.149239166572692170e-08
1.698713730747947721e-08
1.316960688765503931e-08
9.984703441600590023e-09
7.470940843938185255e-09
5.597309674264815395e-09
4.190274380471879984e-09
3.129551551965596917e-09
2.357821954602732195e-09
1.786596445076360348e-09
1.365266404289116632e-09
1.049945900321092090e-09
8.105981953247501741e-10
6.260860450955125980e-10
4.819226654357254611e-10
3.682938010367076832e-10
2.784624967641742979e-10
2.076996187154187310e-10
1.524798019493380844e-10
1.099972279299611545e-10
7.789542124680547575e-11
5.413153435447648838e-11
3.692396784142820661e-11
