# bin_17_17
7.318529239345567500e-08
6.910521307218646467e-08
6.363307918221329762e-08
5.704425684724344157e-08
4.975150806052787897e-08
4.225632576809645701e-08
3.506338918825293617e-08
2.856368643910421519e-08
2.294059077642656553e-08
1.817284355480064419e-08
1.413486308173787359e-08
1.075353393277038474e-08
8.055379046405603341e-09
6.027271926460091453e-09
4.511782803761266727e-09
3.365808597538733549e-09
2.528572883513409217e-09
1.911233216454108840e-09
1.456262412837109847e-09
1.116827777481871958e-09
8.603355788304294858e-10
6.635012073893983899e-10
5.103599271906666294e-10
3.900726252433464421e-10
2.952015063762924764e-10
2.205479287916334270e-10
1.622837149686678329e-10
1.174025633299020294e-10
8.341258931657093961e-11
5.817444389068342688e-11
3.983219769124670219e-11
