# bin_15_4
3.534063856355542067e-08
3.120083803187738078e-08
2.679265470612890662e-08
2.242877266210444792e-08
1.839340177402411706e-08
1.486062538909953091e-08
1.186428720377966131e-08
9.327271790894055375e-09
7.171494111535661141e-09
5.407135341521065543e-09
4.069590424438958894e-09
3.079983767408438167e-09
2.323586004685894008e-09
1.768309670962538427e-09
1.357816416714769011e-09
1.052962474801151586e-09
8.230989181579591744e-10
6.467654851331661307e-10
5.087179797553701994e-10
3.987169911365656794e-10
3.100224762368963983e-10
2.381840560214339175e-10
1.801985741848943569e-10
1.338924301367741943e-10
9.752120019468434778e-11
6.955079962655298015e-11
4.855734196649494136e-11
3.320525332727466268e-11
2.227100243326293706e-11
1.467892794551451737e-11
9.529148670884688085e-12
