# bin_16_10
5.854287571716005233e-08
5.416373058501693144e-08
4.879777487546828537e-08
4.276792948525475639e-08
3.648429530252450973e-08
3.037946528631831489e-08
2.481276244054315817e-08
1.997532387715122095e-08
1.587517504888490620e-08
1.240380503324245369e-08
9.478331532993113213e-09
7.117948045647153531e-09
5.338298681492559708e-09
4.014807871917199868e-09
3.007761207750867559e-09
2.271113249588055607e-09
1.726860669200343882e-09
1.324640002861479012e-09
1.023203004024981728e-09
7.941308603467339833e-10
6.170431134071957896e-10
4.780517717649038266e-10
3.678217900354165542e-10
2.800177105130645288e-10
2.102568341784551189e-10
1.553277337619313633e-10
1.126899807609971312e-10
8.019836595558882014e-11
5.596193041827603486e-11
3.829728028721009130e-11
2.572547949813328527e-11
