# bin_16_7
4.895007041516290308e-08
4.452352511217506763e-08
3.939797653765091950e-08
3.391182926724018653e-08
2.845025923344985045e-08
2.336959423275928031e-08
1.889811306797310478e-08
1.509464300619161152e-08
1.187819116318768866e-08
9.148529599572304943e-09
6.900315402988841980e-09
5.177019158533840518e-09
3.904697985695011200e-09
2.934466403511284290e-09
2.217134948789471735e-09
1.690402716084114358e-09
1.299848342884905981e-09
1.007553025899887547e-09
7.855108927456353203e-10
6.136481274694475963e-10
4.783464677397671290e-10
3.704996442475924649e-10
2.840110113725276960e-10
2.147320044720126106e-10
1.596925575171568241e-10
1.165760695424230133e-10
8.342561764463839456e-11
5.849388134867069766e-11
4.019007677123905744e-11
2.708435977628326953e-11
1.792955401166959989e-11
