# bin_16_16
7.041832421668806091e-08
6.626901997421172700e-08
6.080209297876223435e-08
5.430303095663860323e-08
4.718598607493417784e-08
3.994168852628972179e-08
3.305047998324040986e-08
2.686717299169534209e-08
2.154056001117215231e-08
1.702887784195484278e-08
1.320898619796926160e-08
1.002406457800177354e-08
7.504858444950099165e-09
5.620737034243339322e-09
4.208267678727883063e-09
3.143428247328595429e-09
2.366859343044636550e-09
1.792906053785831074e-09
1.369352141829048175e-09
1.052463575614067252e-09
8.121081805484637178e-10
6.269633318822242763e-10
4.824266438714110092e-10
3.685945599783145936e-10
2.786656164966586607e-10
2.078625626856444642e-10
1.526299422648219500e-10
1.101433433648924820e-10
7.803633670421212443e-11
5.426224141731757868e-11
3.703939006725356322e-11
