# bin_10_9
4.869271489389467397e-08
4.438085727326722461e-08
3.937560291686340903e-08
3.399908564814302311e-08
2.861779766389716145e-08
2.357363474619302206e-08
1.909882574634646668e-08
1.527024237178046698e-08
1.203484353953539150e-08
9.302710664889213208e-09
7.046648991891794434e-09
5.288991233325644345e-09
3.982552354714276421e-09
2.998128987689075035e-09
2.260506553610631607e-09
1.721112532789396091e-09
1.319934639671738959e-09
1.020807753741653708e-09
7.940074182468548145e-10
6.190788421191394310e-10
4.819152856896959702e-10
3.729919236348650246e-10
2.859200027305780349e-10
2.163305086515775616e-10
1.611095816936010091e-10
1.178559644097332831e-10
8.456833062498757305e-11
5.948431066949665005e-11
4.101576037896591454e-11
2.774381628122461760e-11
1.843389106995587781e-11
