# bin_20_18
7.818931922019646373e-08
7.425512687101655875e-08
6.879722357657457827e-08
6.207067368217818587e-08
5.448270033544624532e-08
4.655060320417004608e-08
3.881934506022404174e-08
3.174345432790440127e-08
2.557157823104321174e-08
2.032505319413115895e-08
1.588066614896665324e-08
1.213691612545075213e-08
9.106247633024147144e-09
6.803344449814211484e-09
5.090072824629419831e-09
3.791283242977095941e-09
2.836807139252500793e-09
2.136682599628391291e-09
1.621092484398180443e-09
1.238404781555493473e-09
9.510154201486885666e-10
7.318858973053108604e-10
5.624275349789857564e-10
4.299803091364549597e-10
3.258664372377867282e-10
2.440564705078729983e-10
1.801844339175823917e-10
1.308865979492951602e-10
9.342654036095574434e-11
6.548765675575862242e-11
4.507511041096351889e-11
