# bin_16_15
6.892660210449402556e-08
6.474284213347902066e-08
5.928198763029064306e-08
5.283470292272096651e-08
4.581546816016542088e-08
3.870870720315501777e-08
3.198112071190008241e-08
2.596777969764145884e-08
2.079923539279418361e-08
1.642344665878069276e-08
1.271952452571769347e-08
9.639539320912660484e-09
7.215569490751309265e-09
5.407056148852713470e-09
4.048603840345280080e-09
3.026694679588201968e-09
2.281785041803342727e-09
1.730658202639338682e-09
1.323529447841214638e-09
1.018456992117085696e-09
7.865724879603732335e-10
6.075755806432487751e-10
4.675766490356764811e-10
3.571597499484453563e-10
2.698544909576610109e-10
2.011015096810586348e-10
1.474864210163564575e-10
1.062790642692290232e-10
7.517830289527383099e-11
5.218614813143061988e-11
3.556037977151295051e-11
