# bin_11_9
5.027019038310639834e-08
4.593625035596684229e-08
4.086158727307859436e-08
3.536999924102138028e-08
2.983671077562137093e-08
2.461988416149386327e-08
1.997228359058864622e-08
1.598745992211360381e-08
1.261922040156324015e-08
9.772252476304634640e-09
7.411304291447311839e-09
5.561424522971172671e-09
4.185179639088424078e-09
3.149943149427529549e-09
2.371795095164029281e-09
1.803498316133338218e-09
1.381028251026011047e-09
1.066672304594135177e-09
8.288194427292994145e-10
6.458199582483658264e-10
5.026592737059319480e-10
3.891772712275367348e-10
2.985609346166665948e-10
2.261601558159042181e-10
1.686821136717607984e-10
1.236108202995679132e-10
8.886758943331193030e-11
6.263348844149585653e-11
4.327376930581125167e-11
2.932753759239635294e-11
1.952073197852768065e-11
