# bin_19_6
3.830907734285308630e-47
4.297199377019326234e-47
4.732807886571458161e-47
5.094914341213261514e-47
5.329131728741357408e-47
5.382395980579760552e-47
5.190747836528468533e-47
4.724109060235548668e-47
4.065346599986350392e-47
3.342664503920903067e-47
2.754261933801023697e-47
2.371477448851006928e-47
2.000201737346948178e-47
1.453814759819033862e-47
1.044107870941971656e-47
8.422538529927076789e-48
5.583103605953673082e-48
4.222163400382787639e-48
2.932270310510514167e-48
2.032943833897229771e-48
1.427647179190503208e-48
1.004713116485567002e-48
7.154729648980686540e-49
5.170320743132025393e-49
3.812047582164543670e-49
2.863537040886523416e-49
2.186026132801654829e-49
1.687839333173308174e-49
1.308824159292815899e-49
1.011889002010694227e-49
7.746691410914503646e-50
