# bin_20_5
5.538486846302345097e-59
6.220959259733637193e-59
6.862763703875541913e-59
7.402744068002747964e-59
7.762757700132527636e-59
7.862678296570420717e-59
7.615222314924635490e-59
6.961635577480393746e-59
6.018177538554498285e-59
4.958465146158111216e-59
4.076365517399720220e-59
3.499979061544902331e-59
2.972368342157748418e-59
2.187450979121961549e-59
1.550215790512202816e-59
1.260194522456538516e-59
8.349619368341973710e-60
6.344606577262177916e-60
4.369568897246143073e-60
3.026771398322719053e-60
2.125987524901473028e-60
1.494350499348620551e-60
1.060252382660744106e-60
7.625412845957767243e-61
5.595030030375762544e-61
4.184089167323937972e-61
3.182324355227577692e-61
2.451152496114886529e-61
1.898927679813780954e-61
1.468862250577858381e-61
1.126505054386597226e-61
