# bin_20_17
2.408755715152863096e-11
2.730792062391601675e-11
3.046496097416119608e-11
3.331824534077934447e-11
3.554478902553126512e-11
3.674096704784360620e-11
3.659911712432860885e-11
3.460109785706815577e-11
3.088981603422434567e-11
2.605968499842277412e-11
2.131658846505313019e-11
1.782436387222795218e-11
1.544967091772662235e-11
1.249259668991035140e-11
8.682590564711793701e-12
6.682717603707976694e-12
5.007519917860129564e-12
3.464374848308036875e-12
2.429049868791222271e-12
1.731404710708391788e-12
1.189734944184875714e-12
8.141598163645288823e-13
5.619230517555218561e-13
3.911348807773552494e-13
2.759724588012427485e-13
1.984152310457420007e-13
1.455020265335355717e-13
1.088677368277450944e-13
8.281731518309886157e-14
6.367779886122693278e-14
4.912255481133004056e-14
