# bin_15_2
1.945267362767944701e-59
2.151071868709002668e-59
2.327942847286490485e-59
2.451940769271333551e-59
2.496276873635387875e-59
2.437117296922415072e-59
2.248143339909546752e-59
1.961203279712881484e-59
1.623930042433873311e-59
1.330282660300222861e-59
1.133906549305116847e-59
9.730291033874913920e-60
7.361843372136047978e-60
5.134362036463221797e-60
4.179115281646147321e-60
2.845926519392429391e-60
2.157315122179044813e-60
1.483552841251408842e-60
1.054025191148762363e-60
7.545370912800114366e-61
5.431643317763324167e-61
3.953020413201797880e-61
2.921421318919001516e-61
2.201693237850917236e-61
1.687085905975541658e-61
1.308316940511279154e-61
1.020837764716783074e-61
7.956062598308353290e-62
6.151107274497999807e-62
4.688987202708367207e-62
3.507594744050051297e-62
