# bin_12_7
9.835193997345197731e-17
1.085753147281089193e-16
1.172607025498375233e-16
1.231881083693664350e-16
1.250517775178836060e-16
1.215622880715642429e-16
1.115962586809207690e-16
9.688837825556519797e-17
8.000512996741926231e-17
6.563815592602067297e-17
5.614596757699381935e-17
4.793612522309114319e-17
3.578463867675980759e-17
2.516397242699032681e-17
2.050938232339584766e-17
1.381129325693487666e-17
1.053102091848865222e-17
7.293095260323722261e-18
5.159420089586739031e-18
3.700554599531791477e-18
2.669878946719630909e-18
1.949679836904868924e-18
1.446619102058095218e-18
1.094440874773416082e-18
8.413094672057072806e-19
6.538930047354382131e-19
5.107499298992377308e-19
3.979947936820196998e-19
3.073165242474430055e-19
2.337598294792218783e-19
1.743539959403434240e-19
