# bin_17_14
1.429774843519503502e-11
1.610834325266654419e-11
1.783494115223793290e-11
1.932466127282535924e-11
2.037857530564310682e-11
2.077112675831162299e-11
2.030784548869338693e-11
1.875972980831859430e-11
1.638714318518943757e-11
1.357970041651644920e-11
1.112376874400873613e-11
9.479761742014791548e-12
8.146834102391628230e-12
6.174423624299038678e-12
4.289673939867364345e-12
3.487897015177714105e-12
2.361112907882501205e-12
1.778924769198944385e-12
1.203933730588688117e-12
8.407888961177181326e-13
5.888960812384384592e-13
4.124337045205348339e-13
2.902385453873673191e-13
2.065137214544668325e-13
1.497771551955259608e-13
1.107689982362755872e-13
8.344090589570559268e-14
6.383191625347568798e-14
4.928299855775456323e-14
3.812734278253566983e-14
2.933912058171271332e-14
