# bin_6_8
8.657930412250130772e-08
9.303456124803535559e-08
9.715243065929126436e-08
9.798209188141185339e-08
9.437765213981768517e-08
8.585265541605081830e-08
7.386137823710018890e-08
6.076624029235875545e-08
5.007963675303165164e-08
4.301365048663880964e-08
3.619287574237167868e-08
2.649087453487344838e-08
1.914784358113342991e-08
1.536137646744876565e-08
1.048393467122184598e-08
7.940586740551851614e-09
5.648248606263319967e-09
4.063481100701569982e-09
2.967982344022967270e-09
2.194510504012747717e-09
1.650355402009078666e-09
1.262600177785802873e-09
9.817679240016488068e-10
7.713682772807162019e-10
6.083547390236250541e-10
4.782913939772771163e-10
3.722625041111545276e-10
2.851324089931638335e-10
2.138563426899839905e-10
1.564652634746741721e-10
1.114376496748736155e-10
