# bin_18_20
1.904236386416643122e-08
2.156538473677969928e-08
2.402706771174335487e-08
2.623529595301242689e-08
2.793265640668918367e-08
2.880024107659745134e-08
2.859986362546780666e-08
2.692957257627896111e-08
2.395074072942339897e-08
2.013520868833130720e-08
1.646580580900444427e-08
1.381365183941546423e-08
1.196948190282879815e-08
9.575988130723523176e-09
6.630063219992698919e-09
5.169872615935596509e-09
3.805001694036480785e-09
2.675468932981703270e-09
1.849359509778531904e-09
1.321160544590426342e-09
9.104840458879558162e-10
6.250305923550918784e-10
4.329948370049632803e-10
3.025402217713814008e-10
2.145262248535837259e-10
1.550516280536877504e-10
1.142990702705075911e-10
8.591518123739393646e-11
6.557722378523441380e-11
5.051194486199188787e-11
3.897054481780233558e-11
