# bin_7_9
7.122926357509281760e-08
7.724622545437895077e-08
8.160097291561505592e-08
8.339223028297972874e-08
8.186901853474648696e-08
7.605686348106821662e-08
6.680435801380753253e-08
5.561538230333423252e-08
4.550979500963846009e-08
3.853070744058400087e-08
3.317013291669052242e-08
2.567400680617256168e-08
1.790193202464329724e-08
1.435098554384922240e-08
1.017000167836522669e-08
7.541747382908191516e-09
5.275645829357869937e-09
3.834765857450270095e-09
2.775058948745311981e-09
2.026423476587684667e-09
1.503418212333965427e-09
1.134244749994898227e-09
8.712124946212884700e-10
6.785600198505569679e-10
5.326995375614281780e-10
4.187410371428828272e-10
3.272514797384285934e-10
2.526219414738754410e-10
1.915651636518887592e-10
1.420709902433913003e-10
1.027208465568239243e-10
