# bin_12_10
1.394308713072868141e-10
1.547917774984256923e-10
1.683339437118439344e-10
1.783747179007225034e-10
1.828902340105894569e-10
1.803409807708129758e-10
1.683464915971031324e-10
1.485308699870355736e-10
1.240093643884715853e-10
1.013927568603159165e-10
8.560175556080165484e-11
7.399497012329876107e-11
5.789628555168496502e-11
4.004853399096722031e-11
3.196797681764141889e-11
2.280048620782018908e-11
1.667159101559318478e-11
1.146412579333185994e-11
8.277542658305540597e-12
5.868904090529868173e-12
4.178711182937225649e-12
3.015063812333158376e-12
2.207163912691099214e-12
1.646796217630265687e-12
1.251071070105892256e-12
9.639557953794816472e-13
7.494618771430660249e-13
5.838393366250612035e-13
4.524720887854152288e-13
3.465910686073324494e-13
2.610378445078742810e-13
