# bin_1_10
7.059940707443564384e-07
6.792129707251315975e-07
6.186954165154239912e-07
5.337255009619802254e-07
4.413798393912999434e-07
3.644954857450901447e-07
3.105414570067162480e-07
2.595312508143578870e-07
1.944438764807474632e-07
1.419298974843647510e-07
1.111405818477751511e-07
7.990090749096860770e-08
5.954871199924100578e-08
4.357202121321714989e-08
3.245904439388535578e-08
2.449995589831429378e-08
1.882970676604621418e-08
1.474269861679622819e-08
1.171589672868287054e-08
9.398760760173536695e-09
7.554215459928831900e-09
6.037446765425613825e-09
4.764774039154765430e-09
3.690557840221538837e-09
2.791810923815963729e-09
2.056034790102830150e-09
1.472481747399266405e-09
1.026365616644070117e-09
6.979563026228535440e-10
4.645059021632037236e-10
3.035623993516963409e-10
