# bin_5_17
3.235534114999536739e-07
3.442255843966810681e-07
3.549774422902459027e-07
3.527096234140760222e-07
3.328323891331636713e-07
2.967591066820281280e-07
2.503482932053433554e-07
2.049009310935968006e-07
1.712179301826795188e-07
1.478037565343416883e-07
1.192861328556673655e-07
8.415465483512321772e-08
6.467071869486985085e-08
4.895085430585089094e-08
3.468341626149073791e-08
2.525989054751637687e-08
1.845357993690878017e-08
1.339067156904922103e-08
9.848962609004085006e-09
7.369652512105166280e-09
5.614828328076572164e-09
4.350752877564588063e-09
3.416025943329183537e-09
2.699827972260070046e-09
2.133055443689868281e-09
1.672954203384179719e-09
1.294021508417884057e-09
9.817442284750056737e-10
7.273953356380720207e-10
5.247684831911795576e-10
3.683352501836058451e-10
