# bin_20_6
1.662347397888935754e-51
1.868377284932971119e-51
2.062721287121642958e-51
2.227137129011491621e-51
2.338240257818473227e-51
2.371485457576634305e-51
2.301483760948340935e-51
2.108484875522455954e-51
1.826709051237331401e-51
1.506660804765161775e-51
1.237454368479211136e-51
1.060952548938922511e-51
9.036829968229291890e-52
6.690856586227375519e-52
4.715824691821566693e-52
3.841540750571494856e-52
2.549775982473150427e-52
1.938663038989357886e-52
1.329846968642454404e-52
9.214259239676967566e-53
6.471799869772517395e-53
4.547138263990346937e-53
3.220695126732117643e-53
2.311104865913780394e-53
1.691743504479957781e-53
1.262323543997833953e-53
9.583007654092428910e-54
7.371862655274836485e-54
5.707851412083584471e-54
4.415845265674806160e-54
3.389286091075683405e-54
