# bin_5_2
2.909006795432024124e-13
3.020442890680738720e-13
3.027167630093024800e-13
2.890817684846929532e-13
2.607633478916142170e-13
2.224713277849008031e-13
1.824852592261856970e-13
1.510992947266905584e-13
1.301604067311687560e-13
1.079347852971461352e-13
7.771386719482503665e-14
5.760504226715034859e-14
4.544675095579949493e-14
3.146624968051561579e-14
2.365538400230540960e-14
1.718856271698139268e-14
1.253835048491614627e-14
9.308704512902515835e-15
7.027806163169623401e-15
5.404524649729307566e-15
4.224332703252189582e-15
3.343152466814258451e-15
2.659854368500943028e-15
2.112141832663824822e-15
1.662300777753882528e-15
1.288178217556772628e-15
9.775740546450986641e-16
7.234713877907892626e-16
5.208146523000871917e-16
3.646581673094427378e-16
2.487463429108953276e-16
