# bin_14_19
5.843386165893587209e-08
6.558553582498790544e-08
7.228635205981382311e-08
7.788695455427495457e-08
8.155992325435412980e-08
8.247963846167915112e-08
7.969843629260764748e-08
7.268837294298516535e-08
6.268833495350764150e-08
5.160208774557189881e-08
4.247980549945060294e-08
3.652089373516090752e-08
3.089144038301667498e-08
2.259643092626084306e-08
1.613835980297410890e-08
1.304164386215417672e-08
8.664797890227081356e-09
6.553711429809716681e-09
4.533272760797208438e-09
3.144098274609294677e-09
2.207843533587008659e-09
1.553248644803930743e-09
1.104185208886482601e-09
7.961123807591139961e-10
5.855838387203540762e-10
4.389094270942010327e-10
3.344412163537175404e-10
2.578959467438606046e-10
1.998676563342173064e-10
1.545410474879274321e-10
1.183982025747576167e-10
