# bin_10_20
1.430882695805351403e-07
1.582775955994548744e-07
1.713604998729202370e-07
1.805788282646165106e-07
1.839619317127458304e-07
1.797557056475965785e-07
1.660150551836171907e-07
1.449863988851758598e-07
1.201833572965766052e-07
9.845859489855381033e-08
8.382685523777725285e-08
7.193411695050731071e-08
5.463417512282218371e-08
3.813399728950568200e-08
3.089566429017108068e-08
2.121639964010953248e-08
1.596495600724323704e-08
1.099787810292618067e-08
7.838218806934325259e-09
5.600675646609911927e-09
4.023898961788769855e-09
2.925728655450631344e-09
2.160144113960304049e-09
1.626176068558294225e-09
1.244882922518539689e-09
9.646593930959364706e-10
7.523293131662574990e-10
5.862418569290063084e-10
4.533031247562776840e-10
3.456898289575728680e-10
2.587525498546245035e-10
