# bin_9_10
2.894877698744542827e-08
3.180572883411617097e-08
3.414789617465978428e-08
3.560766272510354223e-08
3.584469082074815317e-08
3.441564026520901977e-08
3.119148001275313186e-08
2.672995959158758855e-08
2.194750259452017923e-08
1.812461090757696635e-08
1.562079173717334733e-08
1.307506328159179686e-08
9.438177040193480254e-09
6.880613674179634752e-09
5.492844166060326919e-09
3.703743282259880598e-09
2.789806320382443700e-09
1.976877277057566963e-09
1.399409289887842343e-09
1.005041264029932028e-09
7.288797899617930083e-10
5.372379021409405531e-10
4.028920164151876096e-10
3.077540714250249163e-10
2.383723943799914178e-10
1.861817459717768658e-10
1.456716975583606557e-10
1.133504314277887951e-10
8.715924365533179357e-11
6.587099564718260894e-11
4.872222071949207813e-11
