# bin_2_3
1.413254239590119758e-07
1.407815724666167447e-07
1.334972954139379395e-07
1.196877946782833377e-07
1.016205594014295293e-07
8.339473979479726531e-08
6.938069348545973078e-08
5.960754152275932982e-08
4.868044292583160021e-08
3.509298004298076344e-08
2.640983964760750474e-08
2.040794299432740864e-08
1.448152569584302493e-08
1.079675638682513946e-08
7.918813463330145169e-09
5.863022793976869427e-09
4.417514070988866003e-09
3.389560217117549957e-09
2.648194529051399457e-09
2.099158220421242501e-09
1.678888022837683054e-09
1.344525615918144544e-09
1.070233836960766457e-09
8.409516396701772838e-10
6.483356956875490194e-10
4.880449651991937694e-10
3.576055596415477334e-10
2.547664830342388748e-10
1.766637417693293534e-10
1.195388341993584833e-10
7.919026276709547565e-11
