# bin_19_10
5.496838790869595861e-26
6.187447429043286574e-26
6.843429828423332428e-26
7.405417573144904826e-26
7.796626237151295185e-26
7.932179053538681584e-26
7.734308727378871907e-26
7.122483511973851979e-26
6.202696987446102752e-26
5.130327665588226493e-26
4.205876531245296182e-26
3.592795774983429404e-26
3.078844963632203050e-26
2.312984967209752694e-26
1.613629691505506665e-26
1.315257552871315144e-26
8.816231554115200716e-27
6.680627407280426455e-27
4.541036064964006553e-27
3.157134931176310512e-27
2.215173956671525638e-27
1.554243874744364057e-27
1.096410372594561550e-27
7.825726833244657757e-28
5.695704651717405238e-28
4.226732981043395968e-28
3.193612712479547124e-28
2.448561289263220643e-28
1.892772577573805077e-28
1.464520390373873801e-28
1.125979683244532048e-28
