# bin_1_12
7.497451828438465082e-07
7.214676815186261700e-07
6.573436143238955151e-07
5.671951430077621110e-07
4.691092002819665806e-07
3.873564803713657522e-07
3.299855674175609505e-07
2.758691773471349338e-07
2.067833252263390294e-07
1.508841101788592042e-07
1.181644451237479250e-07
8.496533838531036633e-08
6.331570330850827625e-08
4.632592353204653978e-08
3.450887429322790489e-08
2.604407448666459823e-08
2.001392417467570548e-08
1.566805585739834361e-08
1.245012751452864653e-08
9.987228148880432014e-09
8.027097331951546145e-09
6.415568371649152037e-09
5.063527462699399337e-09
3.922346462461235954e-09
2.967519289853516288e-09
2.185733438900147653e-09
1.565584166302342862e-09
1.091400376852991165e-09
7.422650527015696430e-10
4.940409547926120649e-10
3.228888523827843867e-10
