# bin_11_8
3.282389126412914163e-12
3.620223097151265367e-12
3.905349557710723071e-12
4.096872890033847825e-12
4.152192081847805298e-12
4.026649172381626758e-12
3.687047400983756693e-12
3.192852607907933855e-12
2.633077331396392590e-12
2.162568997497917963e-12
1.853012512635248305e-12
1.576731410538973977e-12
1.168822510476001423e-12
8.269322974937161586e-13
6.726791944063793841e-13
4.518457798122861079e-13
3.445407120680618457e-13
2.396438353658953965e-13
1.694086699322903209e-13
1.215567337162694353e-13
8.777419286475388447e-14
6.421295041867175447e-14
4.774600517334515821e-14
3.619381928237871405e-14
2.786705128192531883e-14
2.168257286991960984e-14
1.694353478914975404e-14
1.320042390379201426e-14
1.018511414842394544e-14
7.737790801469821918e-15
5.762057308266099593e-15
