# bin_10_2
9.003204575189978616e-33
9.731849339825548655e-33
1.023849719704146825e-32
1.041286016258247830e-32
1.015354533797397876e-32
9.355973245431592459e-33
8.153630913316868038e-33
6.748421615095494822e-33
5.528840371944502712e-33
4.711986292793116444e-33
4.037076828474685107e-33
3.053259003596249948e-33
2.139373386288807218e-33
1.739797934251714962e-33
1.195229441834113450e-33
9.084953631704344667e-34
6.338888991488376885e-34
4.571876401291440365e-34
3.329014333582135473e-34
2.447298645969336407e-34
1.825609373192811573e-34
1.384841150708158912e-34
1.069223244555770105e-34
8.360263281757713861e-35
6.578463065460149780e-35
5.174275634908254318e-35
4.039266302480715994e-35
3.109980676625325690e-35
2.349075259003543286e-35
1.733372399069725060e-35
1.245981276667197179e-35
