# bin_16_6
1.541192405404735999e-34
1.717224640768355058e-34
1.875822840707915761e-34
1.998803774214589708e-34
2.063526914957520535e-34
2.052848663718744957e-34
1.937919890704144249e-34
1.727793049705605710e-34
1.455951917414338833e-34
1.190558467777792449e-34
9.959479219808041524e-35
8.628424006107768179e-35
6.959867622995154610e-35
4.840836791601601610e-35
3.741675071863592351e-35
2.803042813474919014e-35
1.960382208424197437e-35
1.386319486434740012e-35
1.002095804798161421e-35
7.039206961210321576e-36
4.959870309782035756e-36
3.546084435377602921e-36
2.572555786669302040e-36
1.899925946059792892e-36
1.430248567724442941e-36
1.094008146130222922e-36
8.466237268786373027e-37
6.585085750244490406e-37
5.110611764762009535e-37
3.930421796147103305e-37
2.978267063816948121e-37
