# bin_8_15
1.508738549963635106e-07
1.649910164988175207e-07
1.761155465860599334e-07
1.822930478156747171e-07
1.819333238653466192e-07
1.725917346812864426e-07
1.546193382696444667e-07
1.309649024829366260e-07
1.072069667728061241e-07
8.927975966511617286e-08
7.719942340346017716e-08
6.303065811350169420e-08
4.444845990254486555e-08
3.371560046925245486e-08
2.588606623626729613e-08
1.794940649823476646e-08
1.309072815964443105e-08
9.461287545308948890e-09
6.743082650295997753e-09
4.856592453646643135e-09
3.549794498462107655e-09
2.639723487252611925e-09
1.998382246101074022e-09
1.538724188514279073e-09
1.198836556825219750e-09
9.394336286924910850e-10
7.353037672283014806e-10
5.708369447236166273e-10
4.368971829593417923e-10
3.280173593764320113e-10
2.406411867900096573e-10
