# bin_15_9
2.455239708779981310e-18
2.740337605387084310e-18
2.999689689888808949e-18
3.204699042725584164e-18
3.319517562443458870e-18
3.315531990810837012e-18
3.146795300455313630e-18
2.819716966049736878e-18
2.387872720614554603e-18
1.954023214982014497e-18
1.627607645498559525e-18
1.409729247995536863e-18
1.151969974588074030e-18
8.074799672304426636e-19
6.127525742046138792e-19
4.692103372176723968e-19
3.219845740968076895e-19
2.322787417899502370e-19
1.665647345421610143e-19
1.165506657791759889e-19
8.191737335810089780e-20
5.828907782141805522e-20
4.209444400415357994e-20
3.092799122709385365e-20
2.317130434280273447e-20
1.765332951838831942e-20
1.362343128817935898e-20
1.058315819222745542e-20
8.215749259385377298e-21
6.328953152014595669e-21
4.808996949803288608e-21
