# bin_12_13
1.941533240025845975e-08
2.163038204061019904e-08
2.362476613541483267e-08
2.516933300622147572e-08
2.597954299016293814e-08
2.583778163211588552e-08
2.438453667824427228e-08
2.173534253722110997e-08
1.831382493216195335e-08
1.497738024284311620e-08
1.253192334366259432e-08
1.085391369051318440e-08
8.746541975883900056e-09
6.089104100616521759e-09
4.707196953077875675e-09
3.521768606154277418e-09
2.466711972199422731e-09
1.745187998623595689e-09
1.259351023840459577e-09
8.848692230533274430e-10
6.239600859588373158e-10
4.461569401660881006e-10
3.237148361625739606e-10
2.391172606076174021e-10
1.800308762900956135e-10
1.377191925956560833e-10
1.065787908142002178e-10
8.289275444575249492e-11
6.432455902306505789e-11
4.946215328504038886e-11
3.747274077613437216e-11
