# bin_17_4
1.360884603053057539e-52
1.516967543718804840e-52
1.657935585166052581e-52
1.767782519206050016e-52
1.826536417012360514e-52
1.818912459279002601e-52
1.719375160574111743e-52
1.534858216447720404e-52
1.294928049712438710e-52
1.059040783551290076e-52
8.849721852499083422e-53
7.667037176967260693e-53
6.205122564216014612e-53
4.323101991368494045e-53
3.326453682077731081e-53
2.505993342994093456e-53
1.743894803765234626e-53
1.239222191238942848e-53
8.943330341609174939e-54
6.275976410049038959e-54
4.418590662717052892e-54
3.155350567216076895e-54
2.286533957327914968e-54
1.686541971363255457e-54
1.268135118128042009e-54
9.690722228097487942e-55
7.494445723095235961e-55
5.827592555554467252e-55
4.523154181868049936e-55
3.480115495261000673e-55
2.638883317723021316e-55
