# bin_11_9
1.269540196080226362e-10
1.403043246225189242e-10
1.517329170620425521e-10
1.596730983612377039e-10
1.623993114100862650e-10
1.583167369870234741e-10
1.458048086808237597e-10
1.269914753123312735e-10
1.050599340939221816e-10
8.611048137241671941e-11
7.348275012829432894e-11
6.294233169919989968e-11
4.741307360963622570e-11
3.316774619459670572e-11
2.699543667244515294e-11
1.832824043121093824e-11
1.391168127395451386e-11
9.590747391152120150e-12
6.806619589632281883e-12
4.874964707426887928e-12
3.511520604540076423e-12
2.558487939183962373e-12
1.893338919523575098e-12
1.428725334887320800e-12
1.095944717008431170e-12
8.505229175217617596e-13
6.638597783989241453e-13
5.173516491547498078e-13
3.998065270501777032e-13
3.045460948065844603e-13
2.275897873534782842e-13
