# bin_9_2
5.325745386444204879e-28
5.721432796752642192e-28
5.972823767968115658e-28
6.021757267206972562e-28
5.796348311047854135e-28
5.267361463743545173e-28
4.526802028758996724e-28
3.720398773611674549e-28
3.065746688919827990e-28
2.636816532157617190e-28
2.218806470541803369e-28
1.616732548945847756e-28
1.169271897960533896e-28
9.419678646615384531e-29
6.379964815267799780e-29
4.859394037781802181e-29
3.461271367040564727e-29
2.484680728436498665e-29
1.815771331544057376e-29
1.342922141627488752e-29
1.010652198157688311e-29
7.738326503146830061e-30
6.021826901285565923e-30
4.734192322401700651e-30
3.735251541932150671e-30
2.937231608768905140e-30
2.286007803549764089e-30
1.750524035901128127e-30
1.312346034301155731e-30
9.595264888269147007e-31
6.828207605419287216e-31
