# bin_20_14
2.653037098005189822e-16
3.001005508833212152e-16
3.338707568797916906e-16
3.639047371849726294e-16
3.865855415244981056e-16
3.974819111350372325e-16
3.933262592842210490e-16
3.686785552318642369e-16
3.265054949062375479e-16
2.734285262808315013e-16
2.235526563919291609e-16
1.882475288994571960e-16
1.630253066821347898e-16
1.288094033445292916e-16
8.887461886971662789e-17
7.030496123438251155e-17
5.066746228233850980e-17
3.631990158832753109e-17
2.473013458948734259e-17
1.767925615178043223e-17
1.222623930052096829e-17
8.428893570494051833e-18
5.863421134504824643e-18
4.114510175846039479e-18
2.933898301915874805e-18
2.132959442511201342e-18
1.581378354296053457e-18
1.194558644548878956e-18
9.150040265158470965e-19
7.060535051013626152e-19
5.447135128338825738e-19
