# bin_3_17
5.043491259309608781e-07
5.187048050368144530e-07
5.136953731951451661e-07
4.830974468873886983e-07
4.294856621645083601e-07
3.616853774228103296e-07
2.962572879441709364e-07
2.480217408991121647e-07
2.134482668108691191e-07
1.710557853975165666e-07
1.214229272053614056e-07
9.358531251567214366e-08
7.047257697766134497e-08
5.053568199511469900e-08
3.702079265794441335e-08
2.720394779999601284e-08
2.001457642292688383e-08
1.496227858928572280e-08
1.139149681376871455e-08
8.829970219883662433e-09
6.949145095221165663e-09
5.523208813861009718e-09
4.401111299740562158e-09
3.490612252687651360e-09
2.736691767746735002e-09
2.107907433629069174e-09
1.587054065162305066e-09
1.163976247358579029e-09
8.301809069102245465e-10
5.762168445284199993e-10
3.900799920332217517e-10
