# bin_12_2
4.576301871788728002e-43
4.998809265759936200e-43
5.328226801763414814e-43
5.504790933623199153e-43
5.482186292412337972e-43
5.184423051225558691e-43
4.630365630328830680e-43
3.909167378228967827e-43
3.197004269037788655e-43
2.668499169968160904e-43
2.310075803868872714e-43
1.873768592621867826e-43
1.311287590460386502e-43
1.006562122152943016e-43
7.642535599138901960e-44
5.342087006762075398e-44
3.853262039286788211e-44
2.806021424487948795e-44
2.003760971813953142e-44
1.443555818781614135e-44
1.057620215102685222e-44
7.884337843527770240e-45
5.984263975348108582e-45
4.617844607406943782e-45
3.603592794716838821e-45
2.826454469910682367e-45
2.212632153389970577e-45
1.716768651153098914e-45
1.312386788478395178e-45
9.836276666846814659e-46
7.200300705122902135e-46
