# bin_5_8
1.464003645833843977e-07
1.556073877573714121e-07
1.602796148596694671e-07
1.590228495200449725e-07
1.497716839304883384e-07
1.332929801544298903e-07
1.122537586591556690e-07
9.185489107296186889e-08
7.686728344311482111e-08
6.635435664998983741e-08
5.330967976918637679e-08
3.752630127013285041e-08
2.900103051777850114e-08
2.180381640538570243e-08
1.553102025133933039e-08
1.126362214565940147e-08
8.242401227763128563e-09
5.988358276908912882e-09
4.408655786460121531e-09
3.302919586382486931e-09
2.519443536997942963e-09
1.954422436150634443e-09
1.535767626539199723e-09
1.214322569732007205e-09
9.594633144686385053e-10
7.522701599240081764e-10
5.814987905283608872e-10
4.407526692957271625e-10
3.261783008285369101e-10
2.350061108317011431e-10
1.647297525334933625e-10
