# bin_18_7
4.960420005982394810e-08
4.514578928600518936e-08
3.996919638390310019e-08
3.441675303038527585e-08
2.888085790906049806e-08
2.372705560983431639e-08
1.919063720578461936e-08
1.533298239086032266e-08
1.206968205178257450e-08
9.296530477746688893e-09
7.010052014726680691e-09
5.258855609866088001e-09
3.966718984053498641e-09
2.980010635817404130e-09
2.251392223848088032e-09
1.716156834897437939e-09
1.319588400659470464e-09
1.022832360998300542e-09
7.974778448772675277e-10
6.230927463693827103e-10
4.858171151980179955e-10
3.763862499973500999e-10
2.886066455798715435e-10
2.182704766226017893e-10
1.623680406898925772e-10
1.185565114633481518e-10
8.485782406595093160e-11
5.950471879257570325e-11
4.088644367234116051e-11
2.755323459841825694e-11
1.823882774905680413e-11
