# bin_9_2
2.245985084130727165e-08
1.915936011097464228e-08
1.595311879730250327e-08
1.303255912453317447e-08
1.050025793287691636e-08
8.357524692249225174e-09
6.541654893939838215e-09
5.009288647247350297e-09
3.778187055295468885e-09
2.856143678466080282e-09
2.168257068833494694e-09
1.645761477610041416e-09
1.263069163050910771e-09
9.783771439695414955e-10
7.655517778715624135e-10
6.033773058490983428e-10
4.772770124616655645e-10
3.771590760232042024e-10
2.963462561101522559e-10
2.305069947700258158e-10
1.768082677609362370e-10
1.333185256408914023e-10
9.858700686294106114e-11
7.138653144887154266e-11
5.058069386599529453e-11
3.507679706277571495e-11
2.383305969565353954e-11
1.589344302407959588e-11
1.042515819949533072e-11
6.742141592637616254e-12
4.308978515676951561e-12
