# bin_19_11
6.308718331564061052e-08
5.873595280187988590e-08
5.326540756346288151e-08
4.699098650649292216e-08
4.033372769022828706e-08
3.375886738558431864e-08
2.768117524768526273e-08
2.235185824609273550e-08
1.782084690221256957e-08
1.398586007105022080e-08
1.073825433177753448e-08
8.079617135032959031e-09
6.049489626607538095e-09
4.546870998684348912e-09
3.402269376252714048e-09
2.558590217808858631e-09
1.939313481541732508e-09
1.481707411514105603e-09
1.140554930782770522e-09
8.829080851516204009e-10
6.849703508305708860e-10
5.304974395945797039e-10
4.085230935201767129e-10
3.116195833679919013e-10
2.346784699160696730e-10
1.740232169764771285e-10
1.268097289735721915e-10
9.068431550503642213e-11
6.360073380471643756e-11
4.374753972263682077e-11
2.953187819555415517e-11
