# bin_20_14
7.081184906921378246e-08
6.663839185438889217e-08
6.113268374971540999e-08
5.458227212092798155e-08
4.740628669651287606e-08
4.010313354101917161e-08
3.316280031703804600e-08
2.694571530561536732e-08
2.159933141199482709e-08
1.707384241480414799e-08
1.323725943044781159e-08
1.003422822940976214e-08
7.506841353168366979e-09
5.624866769077974155e-09
4.210658123327856291e-09
3.144485768254465006e-09
2.369263451750102841e-09
1.795283348409581760e-09
1.371994368644867600e-09
1.055234042544355338e-09
8.147820273202420082e-10
6.294036521292062650e-10
4.845423806253489748e-10
3.703402382361302145e-10
2.800389649621842365e-10
2.088914570435500734e-10
1.533606533496548120e-10
1.106321468963567657e-10
7.834099689372752954e-11
5.443574168016852800e-11
3.712608890149102492e-11
