# bin_18_8
5.329683946679137601e-08
4.884039540872485252e-08
4.355215957567628730e-08
3.777039746050203249e-08
3.189952270221610900e-08
2.633976327625829376e-08
2.138059782862404794e-08
1.713417692846262139e-08
1.354534588770695387e-08
1.049678007389502426e-08
7.951053841219611126e-09
5.958451061704192242e-09
4.486113501713933335e-09
3.371948546862324517e-09
2.535658703542113434e-09
1.926816215942166125e-09
1.474398132784562228e-09
1.138280755654385555e-09
8.845561414487186073e-10
6.896141798562439386e-10
5.372314976683144179e-10
4.164484355110848652e-10
3.199335543968312364e-10
2.427160134374723115e-10
1.813024033214211713e-10
1.330440921558844325e-10
9.576384500353156086e-11
6.755675392680203552e-11
4.670434653605515117e-11
3.166233375196405816e-11
2.107551709332574802e-11
