# bin_12_9
5.115295038954945202e-08
4.680162905425114538e-08
4.168295096980231361e-08
3.612228677596624371e-08
3.050055490398748867e-08
2.518597891951286596e-08
2.044287500064168338e-08
1.637337883960915858e-08
1.293338784976733010e-08
1.002350328190128467e-08
7.604819298537693148e-09
5.705518691626460130e-09
4.292949685060052372e-09
3.230622935254782487e-09
2.431073424403226223e-09
1.847685528431103074e-09
1.414006637887020152e-09
1.091616279596056453e-09
8.479070814092124376e-10
6.605868424877853727e-10
5.141761918928114038e-10
3.981902353982758426e-10
3.056014620004580390e-10
2.316228646901316964e-10
1.728716568117812684e-10
1.267741179954296246e-10
9.121176926103018808e-11
6.433477210731226139e-11
4.448147037321335865e-11
3.016591412986996467e-11
2.009027250501736499e-11
