# bin_13_3
2.920889239726130340e-08
2.538729425820166744e-08
2.148349267475502451e-08
1.776795444285633941e-08
1.444302940959747569e-08
1.159347587563817552e-08
9.186227613248822923e-09
7.139530799148216452e-09
5.425549042166985326e-09
4.081523936479636317e-09
3.088594230935481308e-09
2.337687666122660549e-09
1.773670029222420928e-09
1.361559586265337059e-09
1.054309540088104941e-09
8.242334257716146641e-10
6.485856199282002684e-10
5.116929652109696154e-10
4.029002171924187947e-10
3.151590783237284787e-10
2.438702209881725049e-10
1.859871784751178953e-10
1.393855828110805939e-10
1.024261119426565506e-10
7.369866492298983371e-11
5.189654910762533673e-11
3.577684564590919573e-11
2.417432391468816915e-11
1.603943346619906368e-11
1.047303702108370518e-11
6.745843466053939740e-12
