# bin_16_9
5.517865931464502717e-08
5.076736382068031014e-08
4.546782445701292494e-08
3.961013810906429281e-08
3.359806853221945032e-08
2.784196198172845036e-08
2.265859984805378656e-08
1.819217511619922349e-08
1.441503012732261774e-08
1.121316765931107806e-08
8.527481779961972101e-09
6.394268873043493002e-09
4.805540823187408830e-09
3.614568332567229544e-09
2.712478837788525526e-09
2.056169041716043885e-09
1.568681688513149142e-09
1.207821654826996315e-09
9.361890132137027503e-10
7.284581604276835592e-10
5.668633878055749827e-10
4.393198054299030304e-10
3.377314431362165029e-10
2.566064327726528293e-10
1.921130194435247455e-10
1.413893550322205056e-10
1.021225405540449519e-10
7.231987546810281500e-11
5.020125535154481900e-11
3.417341860305163004e-11
2.283751337538681238e-11
