# bin_17_17
7.257472334213038566e-08
6.847691673552330772e-08
6.300297311421763475e-08
5.643050376643479234e-08
4.917288894612490682e-08
4.173004567415548304e-08
3.460232192962719033e-08
2.817329871812659885e-08
2.261804801152861127e-08
1.790935528419012097e-08
1.392089520878403017e-08
1.058351893205688950e-08
7.926430168828467024e-09
5.932529886043881450e-09
4.441194209495239896e-09
3.314117269972605190e-09
2.491338835993178889e-09
1.884172030803236488e-09
1.436606691672694654e-09
1.102441989686134944e-09
8.496784201571423952e-10
6.555071920485933724e-10
5.042917797999600086e-10
3.854199776441087716e-10
2.916158844169799364e-10
2.177842793654288699e-10
1.601632510285950800e-10
1.157906705992654775e-10
8.220351928194082191e-11
5.728234601498219119e-11
3.918618748258801818e-11
