# bin_20_12
6.636094030414125023e-08
6.206733591139958320e-08
5.656202773111964414e-08
5.015054666172196864e-08
4.325588546820847311e-08
3.636032561057520030e-08
2.991391302936928699e-08
2.421416468665362498e-08
1.934940642907415835e-08
1.523370430096106079e-08
1.174378093848416485e-08
8.859045125615685445e-09
6.627191024548949641e-09
4.976136513638920240e-09
3.723314401672202471e-09
2.790859281065127093e-09
2.110518383337254896e-09
1.606942238387838103e-09
1.233327390826493097e-09
9.523784702855565837e-10
7.376032390101286520e-10
5.708064772356826974e-10
4.396329287230052747e-10
3.357162416587204727e-10
2.533140893214988966e-10
1.883423496995607301e-10
1.376926725188804555e-10
9.883472458892072003e-11
6.959778930179759034e-11
4.807390100551455297e-11
3.258841838695491471e-11
