# bin_16_7
4.849928448481627540e-08
4.407729710325477568e-08
3.897007379818276815e-08
3.351579035211262821e-08
2.809747314690521410e-08
2.306681429667472009e-08
1.864580784478605177e-08
1.488789809148418352e-08
1.170944400970599180e-08
9.012328242527977749e-09
6.794762034273018549e-09
5.099019436117507465e-09
3.846662947921924337e-09
2.891015040684664053e-09
2.185698961402826695e-09
1.667154373555272322e-09
1.282762375571652275e-09
9.948239509011724367e-10
7.758999611752478811e-10
6.062927643946704629e-10
4.726493598594138918e-10
3.660474207017261378e-10
2.805187147615450703e-10
2.119995426575428248e-10
1.575708805363205889e-10
1.149493039363563230e-10
8.219914090307765752e-11
5.758747576512463245e-11
3.953487154746836288e-11
2.662160458573704729e-11
1.761019357440708977e-11
