# bin_19_14
6.991759402958516753e-08
6.573111356236562925e-08
6.023757556628724516e-08
5.372681465206860989e-08
4.661699490345298920e-08
3.940143704164898084e-08
3.256064361470820608e-08
2.644309684995307492e-08
2.118661091030002629e-08
1.673751956950889487e-08
1.296712174337247459e-08
9.824761138345919610e-09
7.350749605965905701e-09
5.509055968168778499e-09
4.124237749546072980e-09
3.081579683116480137e-09
2.323047615547481463e-09
1.761380809416746328e-09
1.346848888412827114e-09
1.036402332729161970e-09
8.005153036835464133e-10
6.184819521502342057e-10
4.761202288459225691e-10
3.638251649766599030e-10
2.750084274699114497e-10
2.050330093196550947e-10
1.504334826222431758e-10
1.084437094342550790e-10
7.673313047327892279e-11
5.327710368183928940e-11
3.630806786032660958e-11
