# bin_14_3
2.954389779433001462e-08
2.569178771850667681e-08
2.175042348730615304e-08
1.799447725777303900e-08
1.463076422328549462e-08
1.174710004999824691e-08
9.310889877976054243e-09
7.238687862132533587e-09
5.501570157243024747e-09
4.138252981834992131e-09
3.131216110568788941e-09
2.369660221444578308e-09
1.797426168537542987e-09
1.379462479142815267e-09
1.067901987659785255e-09
8.347039995918595272e-10
6.567573445487430692e-10
5.181379503961085673e-10
4.080138790622806950e-10
3.192180996396688281e-10
2.470749888607127213e-10
1.884904452311512326e-10
1.413111139042052839e-10
1.038793074398339698e-10
7.477180892931191849e-11
5.267076629889975651e-11
3.632229940186304953e-11
2.454985889233415975e-11
1.629252728021561155e-11
1.064040731882009645e-11
6.854737069093201251e-12
