# bin_6_6
3.382267308620465021e-08
2.991241383846767671e-08
2.575338384462041748e-08
2.162447845646484340e-08
1.777981290219520100e-08
1.438499989350217144e-08
1.148806909549827687e-08
9.042933287746146959e-09
6.983075740513043771e-09
5.291814307845979207e-09
3.982621538422706655e-09
3.010518527018151543e-09
2.277101690338808015e-09
1.728958512741692802e-09
1.326578482144092302e-09
1.026114902717478560e-09
8.002730914593502740e-10
6.273460457572133031e-10
4.924109324324382925e-10
3.853205371323375891e-10
2.993123158474972511e-10
2.298971174575186233e-10
1.740176122616419081e-10
1.294653238091125206e-10
9.448847642045184761e-11
6.757093999427653585e-11
4.732895693742278358e-11
3.248186363877180066e-11
2.186621043432463279e-11
1.446298646952675464e-11
9.418776478556109598e-12
