# bin_15_12
6.167764866072157708e-08
5.736186934511781950e-08
5.197057889025521920e-08
4.581587884753282136e-08
3.930851276715719911e-08
3.289646538269898646e-08
2.697372008298049980e-08
2.177759653692934307e-08
1.735498757895877671e-08
1.361386085753316510e-08
1.045538487311416700e-08
7.874924010256132973e-09
5.898089122850090565e-09
4.431761336890121615e-09
3.319598374012400418e-09
2.496455178944824334e-09
1.893108879555101595e-09
1.446315808802049506e-09
1.113299326909020010e-09
8.616183718575641871e-10
6.681943682668232201e-10
5.172413960796550310e-10
3.980774767624559530e-10
3.034604830861346847e-10
2.283920436151367876e-10
1.692649911068720561e-10
1.232834018946541020e-10
8.813135731461545612e-11
6.179761331409611199e-11
4.250546353448671607e-11
2.869672367710283673e-11
