# bin_20_10
6.095707941582533823e-08
5.655142084474007820e-08
5.108650635466697627e-08
4.488667233072191473e-08
3.837428218099680657e-08
3.200610891728054299e-08
2.617328381474306834e-08
2.109374903894322604e-08
1.678749083451552486e-08
1.313858634884679679e-08
1.005100837261179134e-08
7.546634852048117312e-09
5.656923108260500323e-09
4.253931921851077890e-09
3.183241554510445831e-09
2.400963738608929601e-09
1.823161152695459319e-09
1.396916734245801330e-09
1.078019714968778520e-09
8.362052052154331852e-10
6.496570642628739859e-10
5.034825270190646205e-10
3.876707117352549138e-10
2.954457052692307914e-10
2.221396618658454638e-10
1.643574332469798972e-10
1.194359642216109400e-10
8.514038054733499640e-11
5.950607501358189123e-11
4.078356259632717776e-11
2.743200201941659609e-11
