# bin_10_10
-3.877260907412858827e-08
-4.291495033321594027e-08
-4.649710646203119749e-08
-4.904385752243238204e-08
-5.001378241062102272e-08
-4.894243851439881061e-08
-4.527204648393982512e-08
-3.960227965071140857e-08
-3.285620610143687994e-08
-2.690806750870846665e-08
-2.289489658660771857e-08
-1.968629493411161632e-08
-1.500274353928080356e-08
-1.043794815662282463e-08
-8.472982734262479685e-09
-5.819896334596712686e-09
-4.386989715419759872e-09
-3.010831014736970324e-09
-2.146553291814977129e-09
-1.534305178769499234e-09
-1.102649605932184895e-09
-8.011904657451524247e-10
-5.910077075033705360e-10
-4.445615610843765879e-10
-3.401126241847570372e-10
-2.634542849738010871e-10
-2.054520649910115147e-10
-1.601333215035949933e-10
-1.238822309193132793e-10
-9.453884518851755337e-11
-7.082416228433157989e-11
