# bin_16_16
-2.854722946824824817e-08
-3.222406672647575282e-08
-3.575983338709011319e-08
-3.885580380640079073e-08
-4.111815424747455310e-08
-4.208079220443567466e-08
-4.137821881099846997e-08
-3.848475868141707422e-08
-3.383995064953899794e-08
-2.817513402132817930e-08
-2.305773737381460782e-08
-1.955042246215984901e-08
-1.687990924767711600e-08
-1.303559702212238199e-08
-9.007345216825854592e-09
-7.259423558438133158e-09
-5.041788515024226384e-09
-3.732014532226251500e-09
-2.515044090962360385e-09
-1.777564514843043888e-09
-1.238525483096509253e-09
-8.623421733599906817e-10
-6.038471772117709092e-10
-4.269811549685141290e-10
-3.074022452242995000e-10
-2.256848327101571875e-10
-1.688791819423954480e-10
-1.285370672484513448e-10
-9.894613370700497164e-11
-7.649953472497108380e-11
-5.895776569775117567e-11
