# bin_14_15
-1.946617050579868514e-08
-2.189192050658053401e-08
-2.418648522935102980e-08
-2.613743166657413903e-08
-2.747155984245423238e-08
-2.789719639441270731e-08
-2.712262518558303309e-08
-2.489870443572771924e-08
-2.161627910257673487e-08
-1.785221904872764847e-08
-1.465680893758010442e-08
-1.255256624936567143e-08
-1.071540510348143818e-08
-7.975004899024641743e-09
-5.601616978272150526e-09
-4.566124883961260183e-09
-3.039713476482097050e-09
-2.309956356337285267e-09
-1.579878445483911337e-09
-1.095464987175185196e-09
-7.693906465622550219e-10
-5.404294693696351035e-10
-3.822793216430033297e-10
-2.738329692994547630e-10
-2.000690109457444139e-10
-1.490160724863469678e-10
-1.129519627029854310e-10
-8.679691057452828521e-11
-6.717128145195451202e-11
-5.197135734958686133e-11
-3.991400152707178031e-11
