# bin_2_3
-4.493756828651020770e-08
-4.579344625921810337e-08
-4.480437167748245272e-08
-4.149213419600660196e-08
-3.634714520887159259e-08
-3.022530392266512954e-08
-2.475913911626596732e-08
-2.098278571795200259e-08
-1.799175643526537470e-08
-1.386734383426667464e-08
-9.767380648243125076e-09
-7.820841826673628552e-09
-5.586568985802042594e-09
-4.175800314752065279e-09
-2.987931033393880568e-09
-2.210287598350408180e-09
-1.642547458032260093e-09
-1.238810681420956204e-09
-9.519696589784843731e-10
-7.440419443253349764e-10
-5.896080248455246254e-10
-4.705677267082379365e-10
-3.754437544998954171e-10
-2.973054934387085064e-10
-2.320985437414769438e-10
-1.775927001251528778e-10
-1.325738726892585334e-10
-9.629029365870352104e-11
-6.799427205460269627e-11
-4.675180165704461716e-11
-3.139007898726749449e-11
