# bin_3_12
-5.308298820186835295e-33
-5.815537891162766820e-33
-6.221599582944497613e-33
-6.457978217745591319e-33
-6.467246195314398653e-33
-6.162401293414554300e-33
-5.543811298731796537e-33
-4.714504840765764117e-33
-3.862163988404451350e-33
-3.206492527136588671e-33
-2.773054657302807128e-33
-2.287037154085814912e-33
-1.620633947310167123e-33
-1.213670131996850108e-33
-9.470725252495438619e-34
-6.475302415355523159e-34
-4.785418509793595975e-34
-3.443827319605731044e-34
-2.447357831051020507e-34
-1.758870951310439394e-34
-1.281527849058219577e-34
-9.502654133450775784e-35
-7.172949284181354820e-35
-5.509924630814611165e-35
-4.285829022388112698e-35
-3.355972562498185735e-35
-2.627322141220016791e-35
-2.041851438220386548e-35
-1.565589512647545523e-35
-1.178264090126787600e-35
-8.668885801399408185e-36
