# bin_4_10
-3.020439570634158542e-19
-3.288455134809094603e-19
-3.490782368184936152e-19
-3.587946332176684296e-19
-3.550168902385524311e-19
-3.329248745319735201e-19
-2.950521420248814022e-19
-2.473248743530166865e-19
-2.022214402418476160e-19
-1.700090288839095107e-19
-1.470643007650907021e-19
-1.166927290930129114e-19
-8.107148984946665435e-20
-6.392702398596521296e-20
-4.684259932762100174e-20
-3.380815383914257946e-20
-2.378638090639735892e-20
-1.741823152049247473e-20
-1.252200044284692717e-20
-9.076383860331704975e-21
-6.693947660689353168e-21
-5.020542965652530615e-21
-3.834260773563274115e-21
-2.973440880241061321e-21
-2.328155110774106213e-21
-1.828819747268267436e-21
-1.431007322864666372e-21
-1.107886064577873371e-21
-8.437884688213639846e-22
-6.292683504322416174e-22
-4.578797643170693641e-22
