# bin_15_12
-4.829300116179860086e-10
-5.416769199570630865e-10
-5.965381576048139183e-10
-6.421106970759112451e-10
-6.715313505413652806e-10
-6.781508180118122677e-10
-6.538183400032439652e-10
-5.949307602522173015e-10
-5.118802209855125381e-10
-4.209660663649369760e-10
-3.470627845907583244e-10
-2.989331734086585633e-10
-2.519278116378088679e-10
-1.829305145817983188e-10
-1.316415814947576353e-10
-1.060377599402348072e-10
-7.036567144710738073e-11
-5.315474226251180574e-11
-3.695468127406074383e-11
-2.562992628400055537e-11
-1.799959598996026200e-11
-1.267144466531114246e-11
-9.027533158300541974e-12
-6.527300831235028900e-12
-4.815060425987106902e-12
-3.618665638774583819e-12
-2.763516648174691084e-12
-2.134200884903764038e-12
-1.655066252561741795e-12
-1.279474430279754030e-12
-9.793217860323943198e-13
