# bin_19_15
-6.840897450463014231e-11
-7.740419404512844408e-11
-8.614516053662635788e-11
-9.393515381332233974e-11
-9.984292283798483978e-11
-1.027245944813964960e-10
-1.017342136028381567e-10
-9.545812430236845603e-11
-8.462983501890543054e-11
-7.094384700166778388e-11
-5.802311165988763406e-11
-4.883724512087469009e-11
-4.230140279758703082e-11
-3.350293649737202076e-11
-2.313416560574077810e-11
-1.825930713314307617e-11
-1.320993342982054042e-11
-9.438698572719935757e-12
-6.441689333993221724e-12
-4.607738019218579824e-12
-3.184676193992514311e-12
-2.193877576893831377e-12
-1.525240775344320710e-12
-1.069655649642297519e-12
-7.620963643288516780e-13
-5.535606484771040352e-13
-4.100595055717246097e-13
-3.095316512156447404e-13
-2.369777706204726012e-13
-1.828236325552346615e-13
-1.410581513875100020e-13
