# bin_13_12
-2.016380236600538250e-08
-2.254182319527036738e-08
-2.472436314199618983e-08
-2.647949939700847033e-08
-2.751528521891977803e-08
-2.758386596203329762e-08
-2.631398091993812205e-08
-2.369527060567244563e-08
-2.016800274673841929e-08
-1.652648440666859190e-08
-1.371861354046486775e-08
-1.187147351275379952e-08
-9.805971915961954961e-09
-6.939155449451627282e-09
-5.178586027244171169e-09
-4.038464461031535733e-09
-2.732628570622654356e-09
-2.006291108819516784e-09
-1.425229596856480951e-09
-9.942161705595953407e-10
-6.981743733164875116e-10
-4.948124348954736953e-10
-3.558474985657476541e-10
-2.602094710832411340e-10
-1.940712430198996474e-10
-1.472848070235568601e-10
-1.133422411850793882e-10
-8.792370852326092338e-11
-6.825732917127522413e-11
-5.265273530037091879e-11
-4.010491259220290638e-11
