# bin_11_7
-2.045310989705701398e-12
-2.253578888173182383e-12
-2.428070747434128756e-12
-2.543167653695948206e-12
-2.573079317693159626e-12
-2.488600848335104949e-12
-2.272352848191471913e-12
-1.962272158057397425e-12
-1.616346746447200316e-12
-1.329664103110648595e-12
-1.141800271134819660e-12
-9.675754524062310432e-13
-7.113356070780489546e-13
-5.072610259836178010e-13
-4.115612335056267350e-13
-2.757501301437109948e-13
-2.102206299979324898e-13
-1.470329157965570242e-13
-1.038590623456081197e-13
-7.456266095125237863e-14
-5.389641164352290625e-14
-3.951627568208829787e-14
-2.945897595542356194e-14
-2.238478200341110603e-14
-1.726805397679700572e-14
-1.345328375160811433e-14
-1.051856564420579461e-14
-8.193088473736746010e-15
-6.315997869363341591e-15
-4.791454740744801566e-15
-3.561207485271062663e-15
