# bin_10_6
-1.096245145541670503e-12
-1.200721884616601094e-12
-1.284193895897179955e-12
-1.332498866219339043e-12
-1.333838565149299839e-12
-1.270228273704944894e-12
-1.142110575593969394e-12
-9.707406086012438348e-13
-7.951715063563087581e-13
-6.604732384865669295e-13
-5.712207592235194177e-13
-4.704955694947977162e-13
-3.331156281454449511e-13
-2.499364373915392810e-13
-1.946117765659128586e-13
-1.333027003484857708e-13
-9.831797898045579634e-14
-7.082162503703863423e-14
-5.034852017582007800e-14
-3.619104084867243735e-14
-2.638085886841627840e-14
-1.956964332347809406e-14
-1.477798748512306527e-14
-1.135564763805091193e-14
-8.834990040674145944e-15
-6.918979111635260961e-15
-5.416660938821772116e-15
-4.209060156474158352e-15
-3.226534343534056622e-15
-2.427512159043935571e-15
-1.785305511921865372e-15
