# bin_1_2
-5.592169067300083316e-08
-5.530742553636961797e-08
-5.192864529124017956e-08
-4.610519989459547066e-08
-3.877546203014357639e-08
-3.175244346963126765e-08
-2.660844550083983367e-08
-2.291005050544560713e-08
-1.831657076400909031e-08
-1.297561892691519565e-08
-1.006056629474934925e-08
-7.560859935154203947e-09
-5.459256295716801800e-09
-4.007258264376396911e-09
-2.973023319344728240e-09
-2.210617933484750253e-09
-1.672972860892481544e-09
-1.290980443408680525e-09
-1.013981824061724285e-09
-8.072658377955686538e-10
-6.472903727611643907e-10
-5.187184171310063876e-10
-4.124059105961515022e-10
-3.231084997341985604e-10
-2.480006752630718483e-10
-1.856357892053392737e-10
-1.351651332997118458e-10
-9.567695331665822367e-11
-6.594938609865283957e-11
-4.439076035333263553e-11
-2.927835792890067607e-11
