# bin_16_4
-6.737297310837173454e-45
-7.494129587001482002e-45
-8.169246425414684262e-45
-8.682213599704458243e-45
-8.934144108160453481e-45
-8.851444743630018810e-45
-8.311554398166500958e-45
-7.374417128670914506e-45
-6.186632173434620874e-45
-5.058980567574684434e-45
-4.252138348860083692e-45
-3.681903314029792704e-45
-2.926893828878830104e-45
-2.026978796029345051e-45
-1.594811492963336881e-45
-1.166198086476749247e-45
-8.341539283535327105e-46
-5.795861111648510659e-46
-4.201859585817581296e-46
-2.964741234261394757e-46
-2.098645415370334275e-46
-1.507649166838717408e-46
-1.098784477246677225e-46
-8.157377201731116418e-47
-6.169796366459578591e-47
-4.737392627769806695e-47
-3.675431190016669698e-47
-2.861536407073091330e-47
-2.219610350371857976e-47
-1.703842347357385740e-47
-1.287297107046628247e-47
