# bin_12_7
-1.388075296556342580e-14
-1.533845787220700794e-14
-1.658513911899772668e-14
-1.744932619391709255e-14
-1.774325828486493895e-14
-1.729011092215711832e-14
-1.591628867365336707e-14
-1.385713465892299854e-14
-1.146248718043884443e-14
-9.398997705936817589e-15
-8.026649160767712070e-15
-6.871979536845846342e-15
-5.166542950191966931e-15
-3.617811362984432838e-15
-2.948168907578829825e-15
-1.995725148794759647e-15
-1.518351774287343439e-15
-1.047781416441607391e-15
-7.425508132062312338e-16
-5.322516530258456264e-16
-3.836697208750176620e-16
-2.797181506938825701e-16
-2.071427846243244599e-16
-1.564219120570109545e-16
-1.200603045506495607e-16
-9.321724212744469000e-17
-7.277875361219691954e-17
-5.672129904346213676e-17
-4.382923892590507661e-17
-3.337744174602533213e-17
-2.493337686280650427e-17
