# bin_20_3
-2.027867147477817198e-73
-2.276461630763237958e-73
-2.509590024119618050e-73
-2.704732350482452246e-73
-2.833184340899712838e-73
-2.866258353064257114e-73
-2.770824596303120198e-73
-2.528231756121883031e-73
-2.181454221053829829e-73
-1.796177349543988372e-73
-1.478650257113675199e-73
-1.271486028630593736e-73
-1.076335850176825897e-73
-7.874868905498586992e-74
-5.618160153896653418e-74
-4.551392242393145943e-74
-3.015850081151381742e-74
-2.287324251637016087e-74
-1.581967966759285810e-74
-1.096212263630390713e-74
-7.699942371524990883e-75
-5.415506093914248357e-75
-3.849351663188620792e-75
-2.775076917558912756e-75
-2.041083549775511403e-75
-1.529780432980253722e-75
-1.165679514823003510e-75
-8.989548104470444187e-76
-6.967803248135766730e-76
-5.388605160792222945e-76
-4.129195720022484269e-76
