# bin_17_5
-2.652915561157977087e-42
-2.961567946922896677e-42
-3.242648255969708653e-42
-3.465290461255809300e-42
-3.590762682447164311e-42
-3.588032766915246555e-42
-3.407335177580254565e-42
-3.055149222318673248e-42
-2.588930037463904917e-42
-2.119444243829720514e-42
-1.765345595321315725e-42
-1.529028818282801652e-42
-1.250580294752584037e-42
-8.773930539464683352e-43
-6.651484613056373994e-43
-5.100185714813128848e-43
-3.496922466643346087e-43
-2.525863619595974196e-43
-1.810618200351739842e-43
-1.266806969184060686e-43
-8.903237336046802878e-44
-6.333880932831148798e-44
-4.573180175254488160e-44
-3.359208139245804649e-44
-2.516109385223828167e-44
-1.916535256395450431e-44
-1.478827143936078316e-44
-1.148750657107823848e-44
-8.918205447372045362e-45
-6.870972374155498537e-45
-5.221867571287347702e-45
