# bin_10_12
-4.063578968936611662e-09
-4.518257964985748092e-09
-4.922880868467046773e-09
-5.228817138247650775e-09
-5.376523420281715273e-09
-5.321580055731133030e-09
-4.990900624996907166e-09
-4.423121903685882181e-09
-3.707019564027426173e-09
-3.031331947491861324e-09
-2.550419098868082008e-09
-2.207786869565025626e-09
-1.749174022422283847e-09
-1.210822785588808109e-09
-9.559281907631998759e-10
-6.952473570441431615e-10
-4.997591917969575976e-10
-3.462548070905645503e-10
-2.509232545817809683e-10
-1.772315427254409546e-10
-1.256134158504917061e-10
-9.033030320000475018e-11
-6.589915887780944770e-11
-4.897891465551560197e-11
-3.708244568114469836e-11
-2.849615205905871204e-11
-2.211958241745453997e-11
-1.722425852633631827e-11
-1.335823765211043349e-11
-1.024965848077456007e-11
-7.738700707685170416e-12
