# bin_16_3
-6.189740046306817267e-53
-6.878251234676061225e-53
-7.488778935537745212e-53
-7.946985061777944830e-53
-8.162403740900893199e-53
-8.067263504643212805e-53
-7.552171383171950896e-53
-6.681633657464392939e-53
-5.591540461456605985e-53
-4.572398400608440820e-53
-3.852782691696137846e-53
-3.333800350347701951e-53
-2.627895858423121350e-53
-1.817940380088952601e-53
-1.442638893388616738e-53
-1.040644863262509221e-53
-7.537012661095901528e-54
-5.199706975626560351e-54
-3.765261745221619655e-54
-2.663644183726536995e-54
-1.891456955676515763e-54
-1.362162313179283538e-54
-9.951920172539725831e-55
-7.408854810976819935e-55
-5.617541641034941333e-55
-4.321826913602656928e-55
-3.357176406259121437e-55
-2.614784575805959865e-55
-2.027385361528980487e-55
-1.554561463165942538e-55
-1.172557393877445874e-55
