# bin_9_4
-4.995576480974088065e-16
-5.413301194113392135e-16
-5.712769313982436744e-16
-5.830826686892281410e-16
-5.714627978000296475e-16
-5.296996024627178236e-16
-4.643163306230087074e-16
-3.858249127599609061e-16
-3.157831462682323024e-16
-2.680015002158009790e-16
-2.306680091946208627e-16
-1.772441684046980647e-16
-1.234412157288859241e-16
-9.980430066274710955e-17
-6.979014310798553484e-17
-5.240421954350916650e-17
-3.643997593697417331e-17
-2.644102745273937494e-17
-1.918887963805446830e-17
-1.405420558370583028e-17
-1.044760832495066298e-17
-7.896493007099085507e-18
-6.076569335813067804e-18
-4.739777026426951703e-18
-3.724586685660609457e-18
-2.929079680743932777e-18
-2.288821661133060921e-18
-1.765744986144244220e-18
-1.337522936712769280e-18
-9.904700631358044831e-19
-7.148253317108664558e-19
