# bin_14_11
-3.865722647596274126e-10
-4.322471080052418868e-10
-4.742115734695465479e-10
-5.080264219452091250e-10
-5.281013260793519729e-10
-5.296507105971856126e-10
-5.055846068199160120e-10
-4.555450355717706619e-10
-3.879775615236957182e-10
-3.179793902660683763e-10
-2.638379590726744938e-10
-2.282670705823051714e-10
-1.887927706923546296e-10
-1.337828150461598629e-10
-9.962154524723479279e-11
-7.785922987847270329e-11
-5.260162218999374218e-11
-3.870029018899279058e-11
-2.745522058671674453e-11
-1.914480947103471222e-11
-1.344372251399905062e-11
-9.523217840247393012e-12
-6.844791877235541464e-12
-5.001903775944306722e-12
-3.728216557262208831e-12
-2.827875984952786129e-12
-2.175276395899571533e-12
-1.687057932558981714e-12
-1.309661916978199719e-12
-1.010405720313976280e-12
-7.698433293045493369e-13
