# bin_16_20
-9.247603148438949935e-11
-1.048337365602961901e-10
-1.169443911884817561e-10
-1.278844000328278345e-10
-1.364124401626793463e-10
-1.409775239651002737e-10
-1.404026151650118226e-10
-1.326951304853008791e-10
-1.184409199201271765e-10
-9.990440801481578429e-11
-8.174478931313301965e-11
-6.839905775096554422e-11
-5.928828887637888883e-11
-4.788035263057128715e-11
-3.326476063374669915e-11
-2.565581123583864754e-11
-1.918036091183436658e-11
-1.330016065691197706e-11
-9.304655670411880754e-12
-6.639119265704593079e-12
-4.564286325988959885e-12
-3.124570299700510995e-12
-2.157919260564125278e-12
-1.503058793475020375e-12
-1.061380934428681418e-12
-7.637521539091144950e-13
-5.605544175627098577e-13
-4.197408216025216440e-13
-3.194906112271335595e-13
-2.457412313092736452e-13
-1.895892852378722330e-13
