# bin_10_13
-3.034381183804592416e-10
-3.380926858426991264e-10
-3.693115794656678941e-10
-3.935132011094942592e-10
-4.062409452718135207e-10
-4.041123147977840537e-10
-3.814569408102976604e-10
-3.401107011546969268e-10
-2.866282947260778746e-10
-2.344655788189961636e-10
-1.962315331457305899e-10
-1.699972862538265019e-10
-1.370206260738135347e-10
-9.533577567554179910e-11
-7.376221173510290165e-11
-5.518563005117255580e-11
-3.865679327256291588e-11
-2.731723510589954506e-11
-1.974589904210665724e-11
-1.387511205209679361e-11
-9.780849246391002750e-12
-6.995011838367385255e-12
-5.076245458648163714e-12
-3.750293629612417902e-12
-2.824049344023106213e-12
-2.160671149716664567e-12
-1.672365818619801531e-12
-1.300870735128663329e-12
-1.009577762554349711e-12
-7.763672322288496809e-13
-5.882027651300200883e-13
