# bin_11_17
-3.570509654233733427e-15
-4.012415765292208083e-15
-4.428943149759700311e-15
-4.780829024777671586e-15
-5.017782506995382246e-15
-5.087556355307449117e-15
-4.934567302793033552e-15
-4.518357124286848488e-15
-3.912549714833298797e-15
-3.226962486134029190e-15
-2.652096297415815643e-15
-2.275335957499762108e-15
-1.935944496505756828e-15
-1.430441523885631961e-15
-1.010663245215499588e-15
-8.226244914305053022e-16
-5.457908023785406577e-16
-4.149079546015548317e-16
-2.851008531465705459e-16
-1.975182665869192331e-16
-1.387517565288925934e-16
-9.751021890793676051e-17
-6.911409978390765691e-17
-4.964018808221206214e-17
-3.637081209617281648e-17
-2.716225435735383601e-17
-2.063550087860759289e-17
-1.588206799278020618e-17
-1.229990151839148193e-17
-9.515315904484171956e-18
-7.301189991872003608e-18
