# bin_3_18
-3.174500206857018648e-63
-3.547012761783609317e-63
-3.887925301913930703e-63
-4.160567986457874701e-63
-4.318829696790074581e-63
-4.324415447958369837e-63
-4.118375986577339641e-63
-3.702601318334967313e-63
-3.146211337417248193e-63
-2.577114743898611103e-63
-2.141897697164475977e-63
-1.854275523029493568e-63
-1.526203759925198551e-63
-1.076356974641158304e-63
-8.079683237429485587e-64
-6.262517911141928384e-64
-4.257068207220626872e-64
-3.107193104870629543e-64
-2.214970946744866974e-64
-1.546785596776994294e-64
-1.086423990212591562e-64
-7.710264105924433114e-65
-5.553136257913032580e-65
-4.067563532954507644e-65
-3.038602767395634023e-65
-2.309281068283476586e-65
-1.778939425663422580e-65
-1.380740411497798365e-65
-1.071942261553763207e-65
-8.265226059485306576e-66
-6.290372868162614454e-66
