# bin_11_18
-2.154608977064586701e-17
-2.425029683883267047e-17
-2.681758983587187727e-17
-2.901482029249981540e-17
-3.054073029086427278e-17
-3.106481110077565922e-17
-3.027699807288273365e-17
-2.787020656084398700e-17
-2.426214915763994407e-17
-2.006723899966403927e-17
-1.645977376266758171e-17
-1.406950306860798232e-17
-1.204804703738934250e-17
-9.035758765915480437e-18
-6.313572298857723574e-18
-5.146989774659026567e-18
-3.445073748630557089e-18
-2.612732448469550217e-18
-1.778523162480278718e-18
-1.235533260148764529e-18
-8.672560300214320901e-19
-6.087090096503263342e-19
-4.296610511681553299e-19
-3.069066901024255868e-19
-2.235526758037303753e-19
-1.660234971539071759e-19
-1.255266986517271762e-19
-9.628797222747611047e-20
-7.445048225083360115e-20
-5.760618989901662669e-20
-4.428081523131121630e-20
