# bin_8_10
-3.456298455240458085e-09
-3.806956879158942204e-09
-4.100011572890456458e-09
-4.292097660698072623e-09
-4.340012582324177037e-09
-4.193810073009075155e-09
-3.825809443672006561e-09
-3.300601571965498720e-09
-2.717527016762472349e-09
-2.236506068608314768e-09
-1.921654358856910283e-09
-1.626255299534346613e-09
-1.192526005784995130e-09
-8.524910397848807221e-10
-6.909117234754979392e-10
-4.627008030343411210e-10
-3.525949435270344415e-10
-2.470277778949750706e-10
-1.744740629620936139e-10
-1.252712311333168453e-10
-9.057860538611374593e-11
-6.645576720607359472e-11
-4.958072409180928296e-11
-3.770137568265963085e-11
-2.910002904948679644e-11
-2.267987943412038374e-11
-1.773496778205316778e-11
-1.381285818235780379e-11
-1.064515385127250502e-11
-8.071952538470860434e-12
-5.995816952776288795e-12
