# bin_18_8
-8.405514355265937179e-29
-9.431089136604791535e-29
-1.039040224165427067e-28
-1.118967637676566528e-28
-1.170964485338275517e-28
-1.183336508098485977e-28
-1.142056992172300014e-28
-1.040287260428794282e-28
-8.960313255038194954e-29
-7.372072077281666449e-29
-6.074224291716420965e-29
-5.228756440334047165e-29
-4.414423289043297370e-29
-3.214388121779217944e-29
-2.305241502400675091e-29
-1.861615721687966959e-29
-1.234076824972198779e-29
-9.340519626111071599e-30
-6.480870413581340367e-30
-4.492857242531312522e-30
-3.155522083696175986e-30
-2.220442549483828937e-30
-1.580530377512119993e-30
-1.141530038436039447e-30
-8.411599901950538893e-31
-6.315253672974180412e-31
-4.818964823303207287e-31
-3.719717131898215524e-31
-2.884171290292467174e-31
-2.230040546613497495e-31
-1.707671784669266069e-31
