# bin_13_11
-4.398155717648660113e-09
-4.908804685492484653e-09
-5.373283836059389340e-09
-5.740336340732060097e-09
-5.945689869969557282e-09
-5.938223777360311651e-09
-5.635373968477232720e-09
-5.049729022493171037e-09
-4.276463369617759689e-09
-3.500595918058973658e-09
-2.917287305424739722e-09
-2.526893382087717332e-09
-2.063479149087356462e-09
-1.446220098051519226e-09
-1.098883995107894695e-09
-8.403624094565318576e-10
-5.774911743827286694e-10
-4.161003448805825992e-10
-2.986014820155584894e-10
-2.090169702442872838e-10
-1.469391412825959687e-10
-1.045972906435145333e-10
-7.556607228804777153e-11
-5.554400764239105108e-11
-4.162967191429027265e-11
-3.172642937767280251e-11
-2.448986514468788383e-11
-1.902712525768667360e-11
-1.477123568091631674e-11
-1.137813635194556327e-11
-8.644291632796004652e-12
