# bin_17_9
-2.383876830439810844e-21
-2.672668898178251774e-21
-2.941745473944590885e-21
-3.164332095061211460e-21
-3.306477321485346437e-21
-3.335835623586781416e-21
-3.211512946235823910e-21
-2.917942364959213202e-21
-2.506790413389160837e-21
-2.060262567504709911e-21
-1.699973176245950245e-21
-1.465498069208511369e-21
-1.232014416977586549e-21
-8.909657825462439309e-22
-6.442791451427475558e-22
-5.171958724705663646e-22
-3.436185680040166994e-22
-2.589210723441670953e-22
-1.805194687011304661e-22
-1.252741940115421916e-22
-8.797060592960481927e-23
-6.196625997658515091e-23
-4.420285674655503314e-23
-3.201221193942356897e-23
-2.365278804197222704e-23
-1.780194863086294275e-23
-1.361130614903700484e-23
-1.051964303373603882e-23
-8.160128421555980276e-24
-6.306982745433297009e-24
-4.824437958279407343e-24
