# bin_19_4
-2.060239284535854426e-59
-2.308886602668224561e-59
-2.540076610438902432e-59
-2.730590296777501796e-59
-2.851024766304638955e-59
-2.873794639194299826e-59
-2.763108156655817313e-59
-2.507252149208110697e-59
-2.151069003015734259e-59
-1.767005412884928342e-59
-1.459140082074638601e-59
-1.258756729283981358e-59
-1.055757723640766900e-59
-7.608932673766261930e-60
-5.526652779531450969e-60
-4.420740638213232501e-60
-2.942300867964520652e-60
-2.210657737134995435e-60
-1.545226459933000772e-60
-1.073026607998903965e-60
-7.534542052544972963e-61
-5.310935922858904917e-61
-3.792822505848487395e-61
-2.750691403872091998e-61
-2.035230598968242273e-61
-1.533719427560384895e-61
-1.173856709936594819e-61
-9.077843786358253283e-62
-7.043017696718103392e-62
-5.442312397799032950e-62
-4.160610026387523399e-62
