# bin_7_10
-1.286783799771472070e-10
-1.413513823529916926e-10
-1.517242765468880906e-10
-1.581600647629707284e-10
-1.591609517208067457e-10
-1.527217153027563550e-10
-1.383325745173337235e-10
-1.184726135194425495e-10
-9.726504047397094651e-11
-8.037647657523509103e-11
-6.932497014599847591e-11
-5.796020100910790389e-11
-4.173112902086605741e-11
-3.051177693918706891e-11
-2.433133969970694807e-11
-1.640105943380257463e-11
-1.234906462756556866e-11
-8.767990946296797444e-12
-6.207024908916316685e-12
-4.457789864797915873e-12
-3.233719305497546635e-12
-2.385082675538339584e-12
-1.790064919166201661e-12
-1.368329216888617076e-12
-1.060446084094570476e-12
-8.285896832440377376e-13
-6.484172109617571656e-13
-5.045309375418631018e-13
-3.878651566276616407e-13
-2.930174368525344048e-13
-2.166176183825913817e-13
