# bin_10_15
-1.650977422540148154e-13
-1.846661831423095698e-13
-2.026771452616108417e-13
-2.172399060902566892e-13
-2.259719299176090081e-13
-2.268048946232873748e-13
-2.167288549924000881e-13
-1.954746100082070460e-13
-1.666548144372219596e-13
-1.366227409766894329e-13
-1.132743288560287351e-13
-9.797470812152443505e-14
-8.120973591518225493e-14
-5.767159687235067294e-14
-4.278968520807868016e-14
-3.356710640118324039e-14
-2.261569083529390702e-14
-1.669831481471834716e-14
-1.182070456933753960e-14
-8.237253485947024020e-15
-5.783688173837866925e-15
-4.093599477287635285e-15
-2.939513730076516779e-15
-2.145772547453867111e-15
-1.597726557820650323e-15
-1.210801528556153006e-15
-9.307555035462569327e-16
-7.215980219192430590e-16
-5.601567676502376768e-16
-4.322770323882114453e-16
-3.295273867728305609e-16
