# bin_19_15
2.110321034156735075e-08
2.388347012122326628e-08
2.658622359098017687e-08
2.899621840217478076e-08
3.082557280863733098e-08
3.172034361656283509e-08
3.141924328630310478e-08
2.948415946434109817e-08
2.613989781688636445e-08
2.191221574926122818e-08
1.792033215387321051e-08
1.508375751215142388e-08
1.306851340417111432e-08
1.035343389878228704e-08
7.147972453572168757e-09
5.641843538542183590e-09
4.083425657313815264e-09
2.917018564166522931e-09
1.991325918773440882e-09
1.424618082363952030e-09
9.848083780174836678e-10
6.784930215441513117e-10
4.717888958727599400e-10
3.309138555429290489e-10
2.357961824121117038e-10
1.712948001641231436e-10
1.269021371092185065e-10
9.579928956676857304e-11
7.334929687883413026e-11
5.659162607969902345e-11
4.366724445898804778e-11
