# bin_18_1
3.958487432916864129e-81
4.419441458615548105e-81
4.839141806517782314e-81
5.171406679668525913e-81
5.358296340724569461e-81
5.353466019462340588e-81
5.082553187079585212e-81
4.555647766746230292e-81
3.859107626109607860e-81
3.158866050270525825e-81
2.631888615464297628e-81
2.280158567164359678e-81
1.863768850232245897e-81
1.306834666198361209e-81
9.918748102456600289e-82
7.597273762914124614e-82
5.214698928555689913e-82
3.762949983363716400e-82
2.698843679814555918e-82
1.888907528627305555e-82
1.327941809066844066e-82
9.451132511628741536e-83
6.826632121103634777e-83
5.016594234546186619e-83
3.759000262210818210e-83
2.864204720235167311e-83
2.210616344112503603e-83
1.717475375903175653e-83
1.333444900656312112e-83
1.027356983388209696e-83
7.807587211091265874e-84
