# bin_14_10
2.755341558047506381e-09
3.076831559727206933e-09
3.369886616897609141e-09
3.602414737334906984e-09
3.734134466667094993e-09
3.732552626498825119e-09
3.546029772354737961e-09
3.180397797814214957e-09
2.695856007421900588e-09
2.206963488035584219e-09
1.837842322715930009e-09
1.592061237789322304e-09
1.303270042485636961e-09
9.149262675340396533e-10
6.928112476892596829e-10
5.320220681921096147e-10
3.644225740103758108e-10
2.636254492258284255e-10
1.888310871152771790e-10
1.321042048137134772e-10
9.285971763568978825e-11
6.605289185027494176e-11
4.768433342884615094e-11
3.501933513055554746e-11
2.622517892092892492e-11
1.997267916628079539e-11
1.540963600652402668e-11
1.197006841728769594e-11
9.293719826779018722e-12
7.161742032674783766e-12
5.444489540182066184e-12
