# bin_20_4
8.163153093547286855e-62
9.170069171232145855e-62
1.011688055099936057e-61
1.091316249353587184e-61
1.144337311124335127e-61
1.158969062412073000e-61
1.122180621937636381e-61
1.025548327166248229e-61
8.862772882907945970e-62
7.302155051269599643e-62
6.006522322582885388e-62
5.160653549446409363e-62
4.380020996210190847e-62
3.218787890248297135e-62
2.285533933983799466e-62
1.856871286309687970e-62
1.230352895986725887e-62
9.347397157130607338e-63
6.446442648794175236e-63
4.466610879391616617e-63
3.138008594382746339e-63
2.206475870151682307e-63
1.566603712209648761e-63
1.127649234725023336e-63
8.280744253092489147e-64
6.197162292572634947e-64
4.716362890817805832e-64
3.634316040261555757e-64
2.816195348373516017e-64
2.178488154817487167e-64
1.670554640723987092e-64
