# bin_20_18
2.231038046686800205e-06
2.533669257777774194e-06
2.832522122811769248e-06
3.105577870140195754e-06
3.323243757640222674e-06
3.448292764759206315e-06
3.450401475694897343e-06
3.281669494208356917e-06
2.946119248310781462e-06
2.499385014896371989e-06
2.046717003698740964e-06
1.704051793163035480e-06
1.476901293798182997e-06
1.210897667092640236e-06
8.493916164147392503e-07
6.411504597014301719e-07
4.919829185392657354e-07
3.338434720707872038e-07
2.396076340762824171e-07
1.692316174062955294e-07
1.158925095334877371e-07
7.918381487146629070e-08
5.437722082162338998e-08
3.765508451775098244e-08
2.638941248065564657e-08
1.883389397649888664e-08
1.370736911154144772e-08
1.018532582446749083e-08
7.706690297119741888e-09
5.906742574522116883e-09
4.553042367449569978e-09
