# bin_12_2
5.622350316885998835e-38
6.148666599691804974e-38
6.563019557507224124e-38
6.792045923373835013e-38
6.777563085407381243e-38
6.425939219385097607e-38
5.753109929882575587e-38
4.868659872001928607e-38
3.984122020622899256e-38
3.320475422327469695e-38
2.874767624882686930e-38
2.344942817585523636e-38
1.646849007441193462e-38
1.254816224397951469e-38
9.614348595077937174e-39
6.671301892345342826e-39
4.849867135486222742e-39
3.521041878327373839e-39
2.510795052601437286e-39
1.807324271495972543e-39
1.321990626894949753e-39
9.840315245577287726e-40
7.457167594304146663e-40
5.747133955931466032e-40
4.481018597606665578e-40
3.513410993099235833e-40
2.750935598218955838e-40
2.135918657373279342e-40
1.634663728249303798e-40
1.227012954533672756e-40
8.998008513341067778e-41
