# bin_19_19
8.590094585078763347e-06
9.754882119908206111e-06
1.090489021894255398e-05
1.195531173617031453e-05
1.279215960031553850e-05
1.327205663135585746e-05
1.327848829323220540e-05
1.262690835983271778e-05
1.133394692740975102e-05
9.613699892711895608e-06
7.872299649795057200e-06
6.555212974632665202e-06
5.681538723533324672e-06
4.656391180367501960e-06
3.265209841536013149e-06
2.466203930144452850e-06
1.891113329998829884e-06
1.283948694467349509e-06
9.208663994017602472e-07
6.506231487035930755e-07
4.456052142690370210e-07
3.044679035518957940e-07
2.091182025068710256e-07
1.448349045120959586e-07
1.015255240952439969e-07
7.247547778329270086e-08
5.276114164807156547e-08
3.921361228419877584e-08
2.967637616953459525e-08
2.274795205036486114e-08
1.753531363087745970e-08
