# bin_11_1
6.497126902253032547e-41
7.054904005812306295e-41
7.463803509543561469e-41
7.639917672150444380e-41
7.517355012917048065e-41
7.000460407607486996e-41
6.163047677408877684e-41
5.137573409985442715e-41
4.201950119371698397e-41
3.553263474772392830e-41
3.067060991834242832e-41
2.387364666262497147e-41
1.657949684038765312e-41
1.329991093828605540e-41
9.465955651187537275e-42
7.008486793156976127e-42
4.880042921370819757e-42
3.559359561751625510e-42
2.574133803808651824e-42
1.878008393174594657e-42
1.392000624754828374e-42
1.049000594075488510e-42
8.049478834722641527e-43
6.265382732072206413e-43
4.917352010773180430e-43
3.866146106321226554e-43
3.023326555837552516e-43
2.336177382435913737e-43
1.773843768127621001e-43
1.317558686826075936e-43
9.541811154262322574e-44
