# bin_19_13
5.981084611235015906e-12
6.756411536780316884e-12
7.503954935763507749e-12
8.161407482782363814e-12
8.646286077207453908e-12
8.859881657966862591e-12
8.726688052204870453e-12
8.132434137832207001e-12
7.163534613308767472e-12
5.972267872315689397e-12
4.886109225366672066e-12
4.136626007453464015e-12
3.575995997466525743e-12
2.777146462000118876e-12
1.916885108053556381e-12
1.539608173995866448e-12
1.078672929751347410e-12
7.930345237950253337e-13
5.348027039770787778e-13
3.794466551981288322e-13
2.639368173174526941e-13
1.833832220722181183e-13
1.282466696012275712e-13
9.053922083269271818e-14
6.505228117317889709e-14
4.766199945994830625e-14
3.559745720987755273e-14
2.705321414737367310e-14
2.080625772943097432e-14
1.608256348155829861e-14
1.240027561860448496e-14
