# bin_20_9
2.140177397414071488e-28
2.412355913479197097e-28
2.672307825665781665e-28
2.897166633247313171e-28
3.057114674157096488e-28
3.118112796295423024e-28
3.051190868310137872e-28
2.821211427859989306e-28
2.466666601802810734e-28
2.045409504556200095e-28
1.675653521572483215e-28
1.427733003101524286e-28
1.228104329665791979e-28
9.326464096236702911e-29
6.474963352838430543e-29
5.264473043491881601e-29
3.570596769216877549e-29
2.688611814000691285e-29
1.818186458392509563e-29
1.270960788185715891e-29
8.902159513729726549e-30
6.234745964721576499e-30
4.386531882865584255e-30
3.119939066348401696e-30
2.261693984933555095e-30
1.671836276145509200e-30
1.258817998635379818e-30
9.626959127216210331e-31
7.431865219411951457e-31
5.750156832311857728e-31
4.426117134507332505e-31
