# bin_7_5
6.413414558321877765e-07
6.912264438056267382e-07
7.245012225358644834e-07
7.337208500100849807e-07
7.108698030407916101e-07
6.504184567900205171e-07
5.628577234017826647e-07
4.641336907632594889e-07
3.813717427433228147e-07
3.267759749755646109e-07
2.776726702155790651e-07
2.059170434732429993e-07
1.464043915154210381e-07
1.189539042872952885e-07
8.073938379084788094e-08
6.171757976697469382e-08
4.350264031219823264e-08
3.125037840993281136e-08
2.281574920713838679e-08
1.683196386343555455e-08
1.261637446417737578e-08
9.619003441277681781e-09
7.459397213550808320e-09
5.850850429879987226e-09
4.611729978013268165e-09
3.627949921925383772e-09
2.828465778155269023e-09
2.172154784953035482e-09
1.634710846663543110e-09
1.200752764306373723e-09
8.587558332133353676e-10
