# bin_11_10
5.543816096125965784e-06
6.151674277424247970e-06
6.685549137743143966e-06
7.078135442241955458e-06
7.249202451828061612e-06
7.136664293860988414e-06
6.648276461375101340e-06
5.854521981575820227e-06
4.880452075197511156e-06
3.992121433891226467e-06
3.377918563885515755e-06
2.918175215313446080e-06
2.268600360271160877e-06
1.569953472704091473e-06
1.260592930999424367e-06
8.898676826556515926e-07
6.568867062784087878e-07
4.503550992218114857e-07
3.244300942375306147e-07
2.305789337198534762e-07
1.646435557649462454e-07
1.190350667677011464e-07
8.732036170135230949e-08
6.529829726792558596e-08
4.970556670119286166e-08
3.835804356510152699e-08
2.985226583988419763e-08
2.326350438476882550e-08
1.802501463810157911e-08
1.379712868067872756e-08
1.037985548771064504e-08
