# bin_17_7
8.841717331680324962e-28
9.892739126727264788e-28
1.086104509048436858e-27
1.164527857871966820e-27
1.211768068001255490e-27
1.216653396257571085e-27
1.163096346588680582e-27
1.049339616370132750e-27
8.948939081050174233e-28
7.336182976016000465e-28
6.081072916749878287e-28
5.260427631382880902e-28
4.364158528506288371e-28
3.101115356285663814e-28
2.298223992717028898e-28
1.805639959294054244e-28
1.215301369573661409e-28
8.986108582967204163e-29
6.357203538777483443e-29
4.429462049956252091e-29
3.110538163321499243e-29
2.201245079264656527e-29
1.580425987021541218e-29
1.153422333579921674e-29
8.586504780228627693e-30
6.505911579405116624e-30
5.000545149732660237e-30
3.876732918010254586e-30
3.009654433573458330e-30
2.323031612193003903e-30
1.771392714972506195e-30
