# bin_20_3
5.741567316563056403e-71
6.446820013715368960e-71
7.108486066817159864e-71
7.662694532588806162e-71
8.028004953491911258e-71
8.122766729905327602e-71
7.853428334914678254e-71
7.166158241474412985e-71
6.183326758333778899e-71
5.090878016528016382e-71
4.190774914972897867e-71
3.604145861749446932e-71
3.051916217926755992e-71
2.233191001727151068e-71
1.592762978196295472e-71
1.290930512678682321e-71
8.552419814547577467e-72
6.488591905831280545e-72
4.487706566473727049e-72
3.110101034381677051e-72
2.184859663797922152e-72
1.536840506882424078e-72
1.092521613703105607e-72
7.876837647619204092e-73
5.793870582685036616e-73
4.342729307992885615e-73
3.309285814022486807e-73
2.552211276586144239e-73
1.978358514232589971e-73
1.530128081194999418e-73
1.172666167732253170e-73
