# bin_20_17
3.795025269114130973e-07
4.306500176839926214e-07
4.809769155321686081e-07
5.267139635683365674e-07
5.627914025109460258e-07
5.828469896262263250e-07
5.818956018230768636e-07
5.517267385736029334e-07
4.938900736066907739e-07
4.177745337597410078e-07
3.419420659575891994e-07
2.853975360163729980e-07
2.474289117627668867e-07
2.014161926234434238e-07
1.405418295025330047e-07
1.072324856658941733e-07
8.126460040105497137e-08
5.570373479028221785e-08
3.947898846264839175e-08
2.804430177647816945e-08
1.924265033589972298e-08
1.315651485404531519e-08
9.060890402099419807e-09
6.293355482064570840e-09
4.427551786529625355e-09
3.173242136591930794e-09
2.319512838440577832e-09
1.730432207310510241e-09
1.313444225099943341e-09
1.008635294169641745e-09
7.779412051893521840e-10
