# bin_14_14
8.730758291062043380e-06
9.807196508825006203e-06
1.081913138978055667e-05
1.166980803081894128e-05
1.223562167022691446e-05
1.239075742605405802e-05
1.199554942548953655e-05
1.096079782370399999e-05
9.470724326870781377e-06
7.802478091092698102e-06
6.418620741925278893e-06
5.515276514436700209e-06
4.679803504925316231e-06
3.437556593805286407e-06
2.442051929713175791e-06
1.983461481447831057e-06
1.314273476271373248e-06
9.983079439396942752e-07
6.886997513502804329e-07
4.772062692666044024e-07
3.352594099504308143e-07
2.357499300183358687e-07
1.674077562177052031e-07
1.205237942945870426e-07
8.852216887936666063e-08
6.626036420646943850e-08
5.043516528228189987e-08
3.886801845740413117e-08
3.011972078556082594e-08
2.329898172643316016e-08
1.786547105448774957e-08
