# bin_10_8
8.663662983967274811e-07
9.544534116008900554e-07
1.028114798546698199e-06
1.076460240755195692e-06
1.088607746423846374e-06
1.052069240298815720e-06
9.597802590337080686e-07
8.280210565892133679e-07
6.816891315796814326e-07
5.610098210153314599e-07
4.821027073551475559e-07
4.081080093818304852e-07
2.992893866468123296e-07
2.139003906873811216e-07
1.734287167030315092e-07
1.161280419920831134e-07
8.851939700321857720e-08
6.201787232648094044e-08
4.380968043869332256e-08
3.145908301937129342e-08
2.274981432973485728e-08
1.669334274347385456e-08
1.245575168399117930e-08
9.472383643814718344e-09
7.312033477203628901e-09
5.699385593098767573e-09
4.457229105182509096e-09
3.471951669097654710e-09
2.676137331372734476e-09
2.029609786229267895e-09
1.507886715353156075e-09
