# bin_5_3
-2.285164189041626731e-09
-2.403233571607698481e-09
-2.443991994647902145e-09
-2.383488706273071833e-09
-2.197701792106056725e-09
-1.916682924284563779e-09
-1.587812854403462696e-09
-1.300826691156684581e-09
-1.106881468738431011e-09
-9.477316976831774480e-10
-7.202271147566300988e-10
-5.064257321543684147e-10
-4.098088088770039124e-10
-2.857653354853939141e-10
-2.163295453219481359e-10
-1.527947492598536628e-10
-1.117158800628173781e-10
-8.235216656679715977e-11
-6.147231284935082261e-11
-4.667487148470691992e-11
-3.604095722150054613e-11
-2.826778758372169511e-11
-2.237885981324913172e-11
-1.775698904181439565e-11
-1.402280244463046629e-11
-1.094570501630480319e-11
-8.394377273622190603e-12
-6.293838135213508304e-12
-4.597094196940911768e-12
-3.265664268117094429e-12
-2.257460488798022717e-12
