# bin_9_2
-1.645587246370268458e-25
-1.771518129413617733e-25
-1.854183841939629136e-25
-1.874904282292163080e-25
-1.812505702074435540e-25
-1.654536758154005972e-25
-1.428423438237240188e-25
-1.176329503000551210e-25
-9.671264770400420011e-26
-8.296029438239086077e-26
-7.028966049528361700e-26
-5.181991253145624086e-26
-3.701456509085366319e-26
-3.001984703681837092e-26
-2.033069572024731289e-26
-1.554022713024564659e-26
-1.098332096711074272e-26
-7.882841780894332504e-27
-5.756344289871297713e-27
-4.249055103205515089e-27
-3.188235257317919184e-27
-2.433199797624654062e-27
-1.888711379215843101e-27
-1.482318855305603735e-27
-1.168632613520517230e-27
-9.191771585888104603e-28
-7.162203712881587311e-28
-5.495402001196839670e-28
-4.130883982488832047e-28
-3.030084447308642223e-28
-2.163834147431945360e-28
