# bin_9_7
-3.043088160818325392e-09
-3.334010383637023182e-09
-3.566958056620764846e-09
-3.702699116259034995e-09
-3.708211210771249732e-09
-3.533799374354181368e-09
-3.179245637577275019e-09
-2.703695611313094387e-09
-2.214363404003875567e-09
-1.837553664610563386e-09
-1.588821349528083034e-09
-1.311111485720355543e-09
-9.296113559245189837e-10
-6.951179576291976757e-10
-5.430252406455195780e-10
-3.709029670065168846e-10
-2.743852742336000645e-10
-1.972464117291392825e-10
-1.401198714053402263e-10
-1.006902118869843773e-10
-7.333398320054282994e-11
-5.435638783447678688e-11
-4.100958463721308029e-11
-3.149212592255923346e-11
-2.448916496970980625e-11
-1.917284464111843815e-11
-1.500965439252065479e-11
-1.166596279484426978e-11
-8.946637671963858406e-12
-6.735226997284518776e-12
-4.957229546697411949e-12
