# bin_19_9
-1.515622049297001966e-27
-1.706198460314138047e-27
-1.887269056224895546e-27
-2.042474282787636551e-27
-2.150651680239586156e-27
-2.188409852008448525e-27
-2.134203383982006712e-27
-1.965834022582830237e-27
-1.712357280036387401e-27
-1.416507010010609987e-27
-1.161165750737678581e-27
-9.917375425215173614e-28
-8.500741045265791036e-28
-6.390376487913564939e-28
-4.456565174761248505e-28
-3.632049181610482192e-28
-2.436169533675835691e-28
-1.845411873494694944e-28
-1.253901930362992286e-28
-8.720129649087327661e-29
-6.117709334754240433e-29
-4.291924159363997017e-29
-3.027419352738491445e-29
-2.159926436068351190e-29
-1.571716800874717263e-29
-1.166098422812753160e-29
-8.808717835014026847e-30
-6.752758754654819391e-30
-5.219706396802907349e-30
-4.038843099258010085e-30
-3.105575922031117912e-30
