# bin_2_16
-4.612638789061822796e-62
-5.124505333892879251e-62
-5.577676563586884754e-62
-5.916698133159459707e-62
-6.074269965468213133e-62
-5.999827053908711936e-62
-5.612469410683349987e-62
-4.961637577147484118e-62
-4.149001716986819348e-62
-3.391679981148294257e-62
-2.858544574157872108e-62
-2.473039196540800354e-62
-1.946378434855730731e-62
-1.345846111650980286e-62
-1.069270911815224660e-62
-7.695093300625400320e-63
-5.583240124294312287e-63
-3.848115253907086786e-63
-2.784927691797866957e-63
-1.970937644122446661e-63
-1.400234010991015958e-63
-1.008807180014781704e-63
-7.372359014010900725e-64
-5.490941227313098354e-64
-4.165247470879992812e-64
-3.205549115701741709e-64
-2.490625062827921257e-64
-1.940069181740520075e-64
-1.504214316956118692e-64
-1.153263745722212714e-64
-8.696965280770953068e-65
