# bin_18_18
-2.577947631612910878e-08
-2.923409354546700868e-08
-3.262431954227103607e-08
-3.569352747627667357e-08
-3.809675741990526668e-08
-3.940219498907957843e-08
-3.927825161904410995e-08
-3.716855414781232184e-08
-3.321254094867107753e-08
-2.804242824557623371e-08
-2.294074714057357685e-08
-1.916757030613785252e-08
-1.661399100176029281e-08
-1.346666575940411637e-08
-9.370734379772977007e-09
-7.189044488472625233e-09
-5.409175405037631995e-09
-3.728712705180384097e-09
-2.624247047114193285e-09
-1.868552489597763008e-09
-1.283208239519118111e-09
-8.777089989735218546e-10
-6.052953185164052551e-10
-4.209895558796519294e-10
-2.967176333904005638e-10
-2.131128039255631455e-10
-1.561063718250942271e-10
-1.166875063260087926e-10
-8.870316659243728196e-11
-6.817785276065464237e-11
-5.259338445990812765e-11
