# bin_20_14
-4.030478291713592966e-14
-4.563980930081356932e-14
-5.084122347673248922e-14
-5.550197821813242287e-14
-5.907648521873551051e-14
-6.088898274656944107e-14
-6.043888309533946806e-14
-5.687348022496030345e-14
-5.055441660376019998e-14
-4.247424571471436082e-14
-3.472935270268678500e-14
-2.915038247017177892e-14
-2.526091568154362119e-14
-2.017897396854645661e-14
-1.395360763706100757e-14
-1.090788729104557629e-14
-8.006281217893499383e-15
-5.643168849012424994e-15
-3.887858289133841320e-15
-2.781918836341461385e-15
-1.918029776524391825e-15
-1.316984607756792480e-15
-9.130735678700270533e-16
-6.384046734560115843e-16
-4.530993854304119948e-16
-3.278314542769012304e-16
-2.419060311382341820e-16
-1.819997436016836687e-16
-1.390179921201145948e-16
-1.071304828228584480e-16
-8.266713565285141790e-17
