# bin_20_13
-2.002769502590048070e-16
-2.265942428360886916e-16
-2.521556811120591686e-16
-2.749200146044811024e-16
-2.921602245658128879e-16
-3.005292189353285884e-16
-2.975540267687783389e-16
-2.791030201779272694e-16
-2.473473321223732245e-16
-2.072556670069813406e-16
-1.694475663449699455e-16
-1.426031454841143880e-16
-1.235155331344872347e-16
-9.779085784645129229e-17
-6.748882965415079611e-17
-5.327908091914714394e-17
-3.852693715255567184e-17
-2.753237082705860024e-17
-1.878120064737594073e-17
-1.343315003019276681e-17
-9.284793755458146760e-18
-6.396220566232474939e-18
-4.447323645328811137e-18
-3.118780327061167833e-18
-2.222276120576189778e-18
-1.614496478879335615e-18
-1.196114651080068088e-18
-9.030014205055197350e-19
-6.914196676562795745e-19
-5.334551537675382938e-19
-4.116021593809695257e-19
