# bin_5_14
-1.929591535009776698e-29
-2.138057448363549232e-29
-2.319582908660322938e-29
-2.450648695476168224e-29
-2.503826210993781411e-29
-2.456864332443780717e-29
-2.279825764735351398e-29
-2.000265199552501093e-29
-1.662659304668832798e-29
-1.360270383443266610e-29
-1.154088832019221080e-29
-9.948531138450666446e-30
-7.653410369537063736e-30
-5.304711410557456038e-30
-4.287351670870346536e-30
-2.980643001033196711e-30
-2.226782225950596657e-30
-1.524429440398363575e-30
-1.092278018264854052e-30
-7.785798309456289702e-31
-5.578672836700495984e-31
-4.043324771167273098e-31
-2.973577023647087140e-31
-2.230202434837451329e-31
-1.701999957167121837e-31
-1.315931829167580849e-31
-1.025217707138183704e-31
-7.990406367068426907e-32
-6.186450556748478727e-32
-4.728230794000632811e-32
-3.549604333259363135e-32
