# bin_18_15
-8.166312867958660176e-10
-9.234788530911778216e-10
-1.027029805582701157e-09
-1.118914397096352624e-09
-1.187978794644165693e-09
-1.220621488317735997e-09
-1.206736313811242132e-09
-1.129801604961295786e-09
-9.995189347533316286e-10
-8.362538581059663069e-10
-6.837251348479897588e-10
-5.762961826913801961e-10
-4.989330482059461602e-10
-3.929364704284035408e-10
-2.710426491519359140e-10
-2.150774697789375020e-10
-1.541729331793193692e-10
-1.110565198003341451e-10
-7.542358229312735667e-11
-5.386741361000958036e-11
-3.729030486735447010e-11
-2.574466791932293547e-11
-1.792856153819445061e-11
-1.259423924212924382e-11
-8.994083024703557645e-12
-6.549325291841356904e-12
-4.862900925868899856e-12
-3.678061567370416701e-12
-2.819835302104887833e-12
-2.176828733429208131e-12
-1.679338609088870730e-12
