# bin_9_13
-5.957542323531486434e-12
-6.630431978972085335e-12
-7.232547742884390653e-12
-7.693045746174814926e-12
-7.924456740785525523e-12
-7.861403529523825749e-12
-7.394348195565021933e-12
-6.570552510798066948e-12
-5.519401723184922060e-12
-4.512229602048085687e-12
-3.785791991426241155e-12
-3.278748984298340247e-12
-2.619740552703928838e-12
-1.816248919908623405e-12
-1.420117488619082851e-12
-1.047346798966973135e-12
-7.430497044611385019e-13
-5.193835072904440301e-13
-3.762141109582350205e-13
-2.650271453440474191e-13
-1.872824027659945361e-13
-1.343240696590025564e-13
-9.773751916247692897e-14
-7.243185954731082527e-14
-5.470118865934852747e-14
-4.194908328960536115e-14
-3.251994750349583067e-14
-2.531273158069914093e-14
-1.963980191513979938e-14
-1.508723613278204036e-14
-1.141140211508978777e-14
