# bin_20_12
-3.310225117537760617e-19
-3.741995762547363539e-19
-4.159786035534826117e-19
-4.529533129571578809e-19
-4.805927851068447521e-19
-4.933988420857341642e-19
-4.872634904133896157e-19
-4.555898765643635021e-19
-4.025527344807872069e-19
-3.364394856592184695e-19
-2.750866372237078892e-19
-2.321221981243084263e-19
-2.008885560936309769e-19
-1.576060520585703103e-19
-1.086906570519459230e-19
-8.655607070634841858e-20
-6.165524610143412055e-20
-4.466677657016723461e-20
-3.024892389786008644e-20
-2.157527234366214374e-20
-1.495300760985836066e-20
-1.034002862130303042e-20
-7.208880897818697354e-21
-5.070274259630447562e-21
-3.626740753557183857e-21
-2.645296275133018821e-21
-1.967254877149095044e-21
-1.489898423284355991e-21
-1.143269524304889172e-21
-8.829109034252541586e-22
-6.810491333532950267e-22
