# bin_20_1
-1.838243739865730765e-94
-2.063554681172289660e-94
-2.274799934145614088e-94
-2.451566032939407970e-94
-2.567839511660287926e-94
-2.597626302410804214e-94
-2.510924469324749490e-94
-2.290800390330927280e-94
-1.976225856164036285e-94
-1.626715593897291500e-94
-1.338661121814156037e-94
-1.150868600506864372e-94
-9.744172155706872045e-95
-7.130467905375923850e-95
-5.082931492903382384e-95
-4.118905879983684582e-95
-2.728518551368062054e-95
-2.069514644484187448e-95
-1.430688624108469364e-95
-9.912916556691239291e-96
-6.962077378015365942e-96
-4.895967220142741477e-96
-3.479717830367150928e-96
-2.507593543837993855e-96
-1.844079411772893783e-96
-1.381879926767533221e-96
-1.052806256554534609e-96
-8.118412144444568642e-97
-6.292460267053660093e-97
-4.866524133523321472e-97
-3.729507446759429349e-97
