# bin_10_17
-5.587765122295612943e-18
-6.275717664202371536e-18
-6.922272746241239137e-18
-7.465656292026805519e-18
-7.826977719727821476e-18
-7.925958401656968294e-18
-7.673334732345408704e-18
-7.012005474062029013e-18
-6.059132107798293520e-18
-4.991273347657512750e-18
-4.104091787559418145e-18
-3.524715054762860210e-18
-2.991655112460447883e-18
-2.199116484001529280e-18
-1.560222601681865133e-18
-1.267639580288793713e-18
-8.397625961638041733e-19
-6.379346324083267454e-19
-4.396794130270164538e-19
-3.045665077659713552e-19
-2.139192958245658535e-19
-1.503737437046037040e-19
-1.067349053884944806e-19
-7.678350728970602395e-20
-5.636726028655809848e-20
-4.217061541870835980e-20
-3.208481457871471911e-20
-2.471928743017014995e-20
-1.915275401154555985e-20
-1.481516174925855694e-20
-1.136098246517624430e-20
