# bin_3_7
-1.105724654333738969e-13
-1.180120238183402102e-13
-1.221699292443395350e-13
-1.219890199946799907e-13
-1.158199187177753565e-13
-1.038534548447092441e-13
-8.803834988554366960e-14
-7.205906295996646646e-14
-5.992476308966929467e-14
-5.179655722273095027e-14
-4.243861851813662495e-14
-3.002301611364210375e-14
-2.270943462747439975e-14
-1.758135323616266365e-14
-1.221326097838444975e-14
-9.012885388617741010e-15
-6.570940204578223881e-15
-4.746972304473783511e-15
-3.477472363840752778e-15
-2.591560820643925168e-15
-1.967562002154760943e-15
-1.519606560693665395e-15
-1.190503309741611681e-15
-9.398526627984747842e-16
-7.426061353252071755e-16
-5.831596822718375156e-16
-4.520976250427738366e-16
-3.440769568103765814e-16
-2.559026663816975574e-16
-1.853732023295190311e-16
-1.306362856644723731e-16
