# bin_20_10
-2.175699123723701805e-26
-2.455313652419698848e-26
-2.723873303290392843e-26
-2.958548016528160413e-26
-3.129296243122182602e-26
-3.200726069147552361e-26
-3.144830313451491732e-26
-2.922122302219324208e-26
-2.566950624490115005e-26
-2.135381352975185921e-26
-1.747109839757145101e-26
-1.481964870606306523e-26
-1.279050247218256457e-26
-9.856022535256446741e-27
-6.809760841591597082e-27
-5.495324696593469484e-27
-3.804323313014261812e-27
-2.822471584971177485e-27
-1.901373489013204913e-27
-1.342038764955239285e-27
-9.356073373378268889e-28
-6.518981719663325012e-28
-4.567486820808013153e-28
-3.231124959804192115e-28
-2.328127113073377750e-28
-1.710678367792047201e-28
-1.281031410936734881e-28
-9.756065988983897838e-29
-7.513040384677854293e-29
-5.809459402796208362e-29
-4.476867896583207277e-29
