# bin_13_2
-1.026329119575285716e-45
-1.127871068115740846e-45
-1.211242818588336557e-45
-1.263424090074755674e-45
-1.272333855796025422e-45
-1.222113960496151754e-45
-1.107998048744424729e-45
-9.497797808263365895e-46
-7.797582996368395975e-46
-6.436502189195825197e-46
-5.548599440491605040e-46
-4.650015559800938373e-46
-3.355893634077231843e-46
-2.442807623769481078e-46
-1.955661919920718770e-46
-1.314319843023742149e-46
-9.929718568031186072e-47
-7.031679263041370802e-47
-4.973554543539521677e-47
-3.571056718469784101e-47
-2.587940524090537822e-47
-1.906802708221583278e-47
-1.429298707514850242e-47
-1.091548888445692163e-47
-8.453224648554988576e-48
-6.602083043049694232e-48
-5.166095620046657745e-48
-4.020713002084547062e-48
-3.092628203302536424e-48
-2.338174391979494991e-48
-1.730226989351369287e-48
