# bin_6_16
-8.075895157397694195e-32
-9.008916459935654012e-32
-9.855016128785801698e-32
-1.051972956279360800e-31
-1.088481253522528444e-31
-1.085784563667021003e-31
-1.028695774917030959e-31
-9.202951570906823739e-32
-7.780477895866820134e-32
-6.365076922778833036e-32
-5.309138076864934170e-32
-4.599175144943172940e-32
-3.742967729547795406e-32
-2.616165077900627860e-32
-1.997336339423125242e-32
-1.518860346377091522e-32
-1.048363484535211549e-32
-7.513412588812929156e-33
-5.404253739584595256e-33
-3.786227530164965023e-33
-2.662839241158157679e-33
-1.897759487301386340e-33
-1.372635313290566105e-33
-1.010254023042993174e-33
-7.581949028960921506e-34
-5.784553866790060253e-34
-4.468651913476502005e-34
-3.473272306242785658e-34
-2.696384912555545850e-34
-2.076240604245797485e-34
-1.576346221910113740e-34
