# bin_2_17
-1.655351648803300429e-67
-1.844591076752773704e-67
-2.015143713614267748e-67
-2.147489994598508266e-67
-2.217321251116256477e-67
-2.206177641085128763e-67
-2.083058863377884788e-67
-1.857619993217849686e-67
-1.565631058475661243e-67
-1.280285129824226427e-67
-1.070827842370108053e-67
-9.276883336504476514e-68
-7.486743788359498310e-68
-5.209082444632239192e-68
-4.023226246870784235e-68
-3.016587216423050115e-68
-2.108150036335829302e-68
-1.492123530488103138e-68
-1.078144280161521366e-68
-7.572455358144237318e-69
-5.335425818516021868e-69
-3.814073853572266216e-69
-2.766610215492948063e-69
-2.042946439844716780e-69
-1.537869107640658990e-69
-1.176250611731496261e-69
-9.102564282243187905e-70
-7.080404572042418515e-70
-5.495587500007362881e-70
-4.227138086951928217e-70
-3.203726366741911994e-70
