# bin_11_15
-1.511113707990286236e-11
-1.693667988930310512e-11
-1.863475632423614995e-11
-2.003524823225376859e-11
-2.092265967353912658e-11
-2.109400077073774997e-11
-2.028796943951401002e-11
-1.841459401450096090e-11
-1.580229519445319488e-11
-1.297916449228804568e-11
-1.071134834383588304e-11
-9.236527191204763457e-12
-7.754081840948700418e-12
-5.595498244351404465e-12
-4.055004542518040883e-12
-3.248545755957595390e-12
-2.159988620678020459e-12
-1.624628099799855037e-12
-1.134200610643068285e-12
-7.872709896137492880e-13
-5.527717551859199697e-13
-3.894958453468505441e-13
-2.780244527957038679e-13
-2.014658784883127473e-13
-1.489766760996935452e-13
-1.122011374153693025e-13
-8.583392884760936948e-14
-6.636044298481208924e-14
-5.148183704030573972e-14
-3.978608636630242223e-14
-3.042499950363200757e-14
