# bin_18_5
-7.700215456665876295e-47
-8.621500589071978558e-47
-9.473841815127271001e-47
-1.016979633117808252e-46
-1.059894622500810639e-46
-1.066138665969231405e-46
-1.021995417743494962e-46
-9.245477547397868889e-47
-7.906638160639863150e-47
-6.486063696486743884e-47
-5.363889376324043035e-47
-4.633139733928141485e-47
-3.865799483533882336e-47
-2.765819036654268843e-47
-2.027581788629777996e-47
-1.608681633728483767e-47
-1.075312670297665346e-47
-8.022195596563562907e-48
-5.638046419567908510e-48
-3.920265741562339506e-48
-2.752178055356721069e-48
-1.942930070194716952e-48
-1.390912090679356674e-48
-1.011523758508657966e-48
-7.505999168400552910e-49
-5.670815559246555024e-49
-4.348928140404710380e-49
-3.367239172420046697e-49
-2.613314960368623470e-49
-2.018333517129108719e-49
-1.541132356212666835e-49
