# bin_11_13
-4.183028860228545937e-09
-4.671586582186322380e-09
-5.117431558173010006e-09
-5.472068050334584946e-09
-5.674594302918816053e-09
-5.675371499453679961e-09
-5.396360869161070645e-09
-4.844012246865139333e-09
-4.109295095017727756e-09
-3.363854668535559899e-09
-2.797936555387110203e-09
-2.422696512773596443e-09
-1.987955821066980913e-09
-1.398052844770604104e-09
-1.054116592010737914e-09
-8.129149889985531496e-10
-5.546545755629865210e-10
-4.028692106818808289e-10
-2.878697583299753610e-10
-2.011790484567963698e-10
-1.413336732204957832e-10
-1.004063392742495013e-10
-7.239599826262699474e-11
-5.309214492397675578e-11
-3.971256531053880001e-11
-3.021234924197631794e-11
-2.329179004181108529e-11
-1.808557648263986493e-11
-1.404111333077124684e-11
-1.082285209170568519e-11
-8.231862653963584074e-12
