# bin_16_12
-2.276009807792020285e-11
-2.558436039089594403e-11
-2.824966221319928051e-11
-3.050650449178226585e-11
-3.203487347980478964e-11
-3.249852920804793907e-11
-3.154895616231293592e-11
-2.891438992399671747e-11
-2.505949924442821678e-11
-2.067340598256950450e-11
-1.697717746487876577e-11
-1.455172663080644591e-11
-1.240009065835860627e-11
-9.190901171846052632e-12
-6.473348940087508471e-12
-5.272822814091513019e-12
-3.502792571435019716e-12
-2.662322753540286050e-12
-1.824948602935066038e-12
-1.264827561122078032e-12
-8.882952224829524358e-13
-6.240693967162768850e-13
-4.419325936033212469e-13
-3.169380092704458372e-13
-2.319178059260617854e-13
-1.729833633068004689e-13
-1.312747987165736168e-13
-1.009625582547816376e-13
-7.816581070466004418e-14
-6.047510933243188146e-14
-4.642419024469253818e-14
