# bin_20_5
-5.190896509413570557e-56
-5.836592116089374988e-56
-6.446717108491630505e-56
-6.964519339632186797e-56
-7.317107050163442632e-56
-7.427143983804432498e-56
-7.216210812883685888e-56
-6.619570132398191053e-56
-5.742273054389028341e-56
-4.739381346417564428e-56
-3.890546150096503340e-56
-3.332685150788381593e-56
-2.843297721825817522e-56
-2.112767222974961404e-56
-1.484859971356199433e-56
-1.210308594554606202e-56
-8.048005271786634280e-57
-6.117243501648028048e-57
-4.186308708244451599e-57
-2.902080748777873749e-57
-2.038027995501005029e-57
-1.431536506788052379e-57
-1.013010844568530654e-57
-7.258019128857729277e-58
-5.305702478717023571e-58
-3.953690610194039231e-58
-2.997986121963042585e-58
-2.304454191215314686e-58
-1.783670392359146721e-58
-1.380057662086605755e-58
-1.059753976242645236e-58
