# bin_11_20
-1.638629364517861824e-22
-1.850781363442266459e-22
-2.055296830913172899e-22
-2.235148337040894340e-22
-2.367802975813836106e-22
-2.426288726803739069e-22
-2.389972258442193800e-22
-2.227569218814860322e-22
-1.962472876866107262e-22
-1.636194628988285548e-22
-1.338155666440808328e-22
-1.132153513868121284e-22
-9.786572264972008499e-23
-7.608417500089635788e-23
-5.249308118380826843e-23
-4.211116300992154922e-23
-2.955806519521859930e-23
-2.168805530447170945e-23
-1.462645866993404715e-23
-1.038355720281678447e-23
-7.217523365384908373e-24
-5.010547139172445881e-24
-3.502147538913498611e-24
-2.470367977199314704e-24
-1.773633355852279376e-24
-1.298573418360089710e-24
-9.691864920273157241e-25
-7.361570083449038713e-25
-5.659657840724572595e-25
-4.373976652730243446e-25
-3.372508754233424268e-25
