# bin_13_4
-4.048682795538704311e-31
-4.464075274040853520e-31
-4.813837498625879790e-31
-5.047446037510655225e-31
-5.112913754481161924e-31
-4.953984024973370584e-31
-4.531885055512086416e-31
-3.920628745120768268e-31
-3.231487741938909752e-31
-2.654826419011647231e-31
-2.276426931999441561e-31
-1.935060348255022368e-31
-1.430459796176615982e-31
-1.013740704781667845e-31
-8.249017851654261487e-32
-5.527788559250219598e-32
-4.219859533826455075e-32
-2.939510549719220452e-32
-2.076067903020769502e-32
-1.489993706144356193e-32
-1.076159064646125077e-32
-7.877769574200104067e-33
-5.860646372294895358e-33
-4.445785348087819935e-33
-3.424873095767598171e-33
-2.665798465263503847e-33
-2.083574176034716768e-33
-1.623292479449205216e-33
-1.252282857499942163e-33
-9.510854299891918669e-34
-7.079364804001327148e-34
