# bin_15_19
4.418112536654487928e-08
4.973177165971629747e-08
5.500361816734025064e-08
5.951889608292612536e-08
6.265950300333118568e-08
6.374755283317025940e-08
6.214460971210474397e-08
5.722286062850473739e-08
4.980939308621223337e-08
4.122973270355019146e-08
3.381920590724735724e-08
2.889828297272180617e-08
2.474466478379323877e-08
1.857805200313363084e-08
1.299041862922487200e-08
1.056843120052526552e-08
7.100273917701839985e-09
5.368448390903361951e-09
3.654675688073250339e-09
2.544760063723878679e-09
1.784336618126096252e-09
1.251328175068051009e-09
8.829697181011303853e-10
6.304897634764830819e-10
4.590456926824012080e-10
3.407565312179591078e-10
2.575251663714388393e-10
1.974677315070601449e-10
1.526439545101630712e-10
1.180933821754313628e-10
9.077698885233151908e-11
