# bin_17_8
5.242742297828536430e-28
5.869955453846260559e-28
6.450235824094608608e-28
6.923973392618887295e-28
7.215867655548939636e-28
7.257938845420613450e-28
6.956444849382734487e-28
6.292706959442280789e-28
5.377787469412347550e-28
4.414617180820638959e-28
3.652960677463461440e-28
3.156320172470970783e-28
2.631900440695181505e-28
1.881550114735951792e-28
1.381769738400337872e-28
1.094953578278629202e-28
7.326732117631227436e-29
5.460081967803461253e-29
3.841328979566388432e-29
2.671788137134852949e-29
1.875771919049489470e-29
1.324556736084325918e-29
9.485083533687877603e-30
6.901468527511500855e-30
5.122723071026323320e-30
3.871415726377730106e-30
2.969692269466385586e-30
2.299595182719286232e-30
1.784719307794996084e-30
1.378242058042351279e-30
1.052173582453455047e-30
