# bin_2_3
1.387354908885322762e-07
1.384553989213781598e-07
1.316005929382182847e-07
1.182644961688128776e-07
1.006078551416014228e-07
8.264857260326776761e-08
6.868302311118328939e-08
5.900377995487299574e-08
4.839915714554036006e-08
3.499909496172777095e-08
2.621191747806882665e-08
2.035502129581788844e-08
1.440685465637877059e-08
1.076471019038714654e-08
7.881969432710219611e-09
5.831706185310366210e-09
4.389869981195765028e-09
3.364610372935216303e-09
2.626022368821136939e-09
2.079907316518914783e-09
1.662775847156579095e-09
1.331579333176330932e-09
1.060303024292996407e-09
8.337376298918480445e-10
6.434199688656982977e-10
4.849400849745882347e-10
3.558076533911120796e-10
2.538260311248859521e-10
1.762295328208033438e-10
1.193734893418891937e-10
7.915169543124570947e-11
