# bin_4_7
1.814845760329727004e-07
1.902548897375421065e-07
1.927960462549649998e-07
1.870503144990203270e-07
1.715781545125835554e-07
1.488201942048746060e-07
1.231036815271415010e-07
1.011660575517491115e-07
8.634978374565880926e-08
7.332436368955027410e-08
5.503727962367487020e-08
3.926478471821612222e-08
3.151343872187913721e-08
2.199302978119238121e-08
1.658098252007829473e-08
1.182117663559849735e-08
8.638545792173754318e-09
6.375594840607444587e-09
4.769927583065617648e-09
3.632536825802816598e-09
2.813491765152061310e-09
2.211452215024694538e-09
1.752815372569595632e-09
1.391041480888078231e-09
1.097558267587418586e-09
8.551663177779554743e-10
6.541333042034183837e-10
4.888942280168635137e-10
3.558513108569086674e-10
2.519294086032066729e-10
1.736189476195055817e-10
