# bin_16_8
9.956894880338846013e-25
1.112520602622964705e-24
1.219426584340725226e-24
1.304893692333111402e-24
1.354440694813181908e-24
1.356059814807947013e-24
1.291229240534962117e-24
1.160720730501019252e-24
9.856399062359719052e-25
8.075602913865213812e-25
6.713105132371569246e-25
5.812444994070700576e-25
4.782304610633031569e-25
3.370947074923597309e-25
2.532410464411457019e-25
1.961531477811504846e-25
1.334129293334430162e-25
9.731285004704679527e-26
6.939246825939826580e-26
4.846386517332125466e-26
3.404090933189422049e-26
2.416083223834533206e-26
1.740340247564992029e-26
1.274951287173339980e-26
9.525630201424936265e-27
7.240133986732066215e-27
5.577900309014714254e-27
4.329567869838301495e-27
3.361322493836766382e-27
2.591695176735199724e-27
1.972348779055842656e-27
