# bin_8_17
1.730934116969077746e-07
1.893912942449865579e-07
2.022921590463669709e-07
2.095540598812194358e-07
2.093344766493518618e-07
1.988229638700983470e-07
1.783419315664974724e-07
1.511865616880210252e-07
1.238592817753118993e-07
1.031038228509700995e-07
8.915076528119563861e-08
7.295456723786977251e-08
5.153867622941275106e-08
3.898194768749278707e-08
3.003253792871536148e-08
2.077389713163040383e-08
1.519293287394965316e-08
1.096675184502032574e-08
7.811804825419731438e-09
5.624442045130795430e-09
4.108191346644407917e-09
3.052758887405593432e-09
2.309342267885264983e-09
1.777057010336981161e-09
1.383921791441311373e-09
1.084248187845317192e-09
8.486882699315979942e-10
6.590386616031877563e-10
5.046384971713584578e-10
3.791139597613561782e-10
2.783362640248673825e-10
