# bin_13_18
6.400852818481714563e-08
7.164665693502686154e-08
7.870329417680012280e-08
8.444906403798062441e-08
8.796277082709964586e-08
8.842180587650522371e-08
8.468159693660549735e-08
7.655086653784653108e-08
6.538034218868553939e-08
5.366877655923544814e-08
4.443840764850516455e-08
3.839234229823921590e-08
3.195371832012003416e-08
2.282936424119040731e-08
1.680618241872191992e-08
1.327049556500190378e-08
8.910695042475964243e-09
6.615559222797902949e-09
4.660660761404611810e-09
3.243856021447800637e-09
2.278009387075650645e-09
1.610117833656541630e-09
1.153777871085280758e-09
8.401003589352557783e-10
6.239934528540294324e-10
4.718359894822296249e-10
3.620733918263457507e-10
2.804134640525510433e-10
2.176099870675167928e-10
1.679993205938953459e-10
1.281965763079461798e-10
