# bin_2_15
6.075133600282165509e-07
6.099433934653476662e-07
5.845504651808269983e-07
5.298034252935852485e-07
4.544018813325449100e-07
3.744358821742684005e-07
3.097198118549540811e-07
2.652793560394829555e-07
2.207423973039032087e-07
1.623617816728755961e-07
1.192693533403994772e-07
9.380485437723156095e-08
6.626562952415650477e-08
4.967506219742434794e-08
3.611926374020655004e-08
2.669175596326473036e-08
2.001642561995105908e-08
1.526974447723325326e-08
1.186471767803389793e-08
9.362235055804314156e-09
7.466911264077043004e-09
5.974835779889727556e-09
4.761115837628506553e-09
3.751938513406415326e-09
2.905505359905377402e-09
2.199685773917346080e-09
1.622188791638869317e-09
1.163366709905927759e-09
8.117499387471114595e-10
5.522912249746801464e-10
3.675638510023929319e-10
