# bin_6_10
1.448011796969443354e-07
1.558182016892043326e-07
1.630026334486119548e-07
1.647270640086309056e-07
1.591163487321618051e-07
1.451854599795540942e-07
1.252332314384429524e-07
1.032456532770018053e-07
8.500134308341450242e-08
7.290057265204356198e-08
6.159089578811659291e-08
4.541079799037626039e-08
3.261322163074328592e-08
2.624440986429687629e-08
1.793895170341816392e-08
1.359787299451956245e-08
9.635959141636046393e-09
6.936302051341616185e-09
5.062107889928075732e-09
3.737438087986739832e-09
2.805584025136174800e-09
2.142399932865337784e-09
1.663316357635931994e-09
1.305507550352319816e-09
1.029145942916781959e-09
8.092434844936920567e-10
6.303019756748931399e-10
4.833627423818314998e-10
3.631247760812940695e-10
2.661952926736627849e-10
1.899912832725442814e-10
