# bin_10_17
1.140706035475415974e-07
1.262152847247021926e-07
1.366934472204005657e-07
1.441034597128635644e-07
1.468702482994642010e-07
1.435897003748965452e-07
1.326963675110580901e-07
1.159289235976231469e-07
9.618607180370965182e-08
7.881038516689382246e-08
6.709308910422041207e-08
5.760044895103094791e-08
4.379934081404528536e-08
3.056693055881317454e-08
2.476087382873373520e-08
1.702347672762184472e-08
1.280361394930754748e-08
8.818492045657743961e-09
6.288055728118153871e-09
4.492453447839393895e-09
3.227186283088702201e-09
2.345981982444491931e-09
1.731689982269842493e-09
1.303327297314516631e-09
9.975424097578991585e-10
7.729046144883879345e-10
6.027697298688600416e-10
4.697376845924945372e-10
3.632803135816563247e-10
2.771064366263033915e-10
2.074800334483636384e-10
