# bin_11_3
6.384691018317345114e-31
6.960336790987341086e-31
7.400535570578003631e-31
7.621607462297682701e-31
7.560326943374222489e-31
7.112359046028229523e-31
6.321747772078386864e-31
5.312490425513264653e-31
4.344267558270978021e-31
3.643069332005653776e-31
3.153351868217261384e-31
2.523214305371299685e-31
1.756026981744646316e-31
1.372147524584414749e-31
1.018829288894142960e-31
7.266575768415524856e-32
5.153061166774641815e-32
3.771151051037199428e-32
2.704496471708830406e-32
1.955302517064682214e-32
1.438732548713064494e-32
1.076733003174031414e-32
8.205209944253718332e-33
6.352120185267746569e-33
4.967969385360289154e-33
3.900705460692358554e-33
3.053011438377248363e-33
2.365751478250919285e-33
1.804406365712148476e-33
1.348230751348961719e-33
9.832451664095474805e-34
