# bin_12_16
5.991498880475051867e-08
6.683275449488211754e-08
7.310431598339976772e-08
7.802789337567340374e-08
8.072706205999169621e-08
8.050956290425551230e-08
7.626155842126324319e-08
6.822028141557462488e-08
5.766519929259783817e-08
4.720752359133502031e-08
3.940330887151741176e-08
3.412490613733767655e-08
2.773282711550024010e-08
1.940707973290566855e-08
1.483329563926238037e-08
1.125441249087519053e-08
7.791863174089942708e-09
5.579688682395582578e-09
4.008048640149086246e-09
2.809645425341848416e-09
1.978182915639742878e-09
1.410442956278910327e-09
1.020460090927424561e-09
7.513493169122750487e-10
5.640010917893198908e-10
4.303746332230294143e-10
3.324891197470061016e-10
2.584058411987243124e-10
2.005692411128314486e-10
1.543986458958365947e-10
1.171861640303647859e-10
