# bin_15_20
5.286297178933956350e-08
5.950883184058258896e-08
6.582303704839329026e-08
7.123440577675221607e-08
7.500363495495734279e-08
7.631808451614924993e-08
7.441638027160291264e-08
6.854087355858862954e-08
5.967707308899134515e-08
4.940528669006906322e-08
4.052218799697861779e-08
3.461906083566183411e-08
2.965083815497894484e-08
2.227836785880817816e-08
1.557153880500160445e-08
1.266655898208341541e-08
8.516238885112793776e-09
6.436344455822130075e-09
4.380132090614508605e-09
3.050865062521071299e-09
2.138935591841098550e-09
1.499780211004299079e-09
1.058064256725449123e-09
7.553152431336200253e-10
5.497649497718744417e-10
4.079814887508696878e-10
3.082520770757358027e-10
2.363209984835933984e-10
1.826598224649998720e-10
1.413141870567002530e-10
1.086347922819591855e-10
