# bin_1_20
8.375444125479027170e-07
8.084664899766109441e-07
7.390554082225568154e-07
6.395729788497591281e-07
5.299589129541288676e-07
4.371923208111629657e-07
3.720563217168861823e-07
3.123404001698557003e-07
2.355385551446999382e-07
1.711746031082058236e-07
1.342470336468820644e-07
9.674278431775900248e-08
7.199725382983822872e-08
5.265229888479774869e-08
3.919758567663868569e-08
2.954020940795754605e-08
2.266587152241772917e-08
1.771915361248178557e-08
1.406460277975224616e-08
1.127533253410009078e-08
9.061734595922886435e-09
7.245758136772212205e-09
5.724071734631337635e-09
4.439936385328491825e-09
3.364599133123314667e-09
2.482638286265562072e-09
1.781446897912226874e-09
1.243954640090751868e-09
8.472575805006068139e-10
5.646164031899260281e-10
3.693845906871470985e-10
