# bin_9_14
1.035508512105141050e-07
1.139703905890952742e-07
1.226278884134078190e-07
1.282173938433941587e-07
1.294693294073389998e-07
1.248580655632094546e-07
1.136876738545510366e-07
9.783612934785304024e-08
8.054939600268738012e-08
6.638293534685125228e-08
5.708136767663588637e-08
4.812150610756184902e-08
3.514073969425202934e-08
2.530159133157554624e-08
2.036144491033382580e-08
1.371087817484039379e-08
1.038167312386448322e-08
7.299690642115457346e-09
5.165377224397102945e-09
3.707796446606782769e-09
2.683597010409278044e-09
1.971598827342960685e-09
1.473158010083499886e-09
1.121615458991924852e-09
8.665419489879293099e-10
6.757268911579915463e-10
5.284347505554612614e-10
4.114212443676449536e-10
3.168359881516260309e-10
2.400003253837238632e-10
1.780435897885939396e-10
