# bin_5_16
3.086165360803525639e-07
3.285779456777589233e-07
3.391456191135064971e-07
3.373436181608657151e-07
3.187667564573165027e-07
2.846037347055380388e-07
2.403523310815844037e-07
1.968486188275549832e-07
1.643941079670859185e-07
1.419338339490363162e-07
1.148658843868313514e-07
8.115314345776887276e-08
6.217963917908603761e-08
4.724984846425832240e-08
3.338363779504108867e-08
2.437099910852709229e-08
1.778958691707776065e-08
1.290035154203268743e-08
9.483092179960595977e-09
7.090776648739511122e-09
5.398577476428757438e-09
4.180496615740622887e-09
3.280867939432482537e-09
2.592426899369521030e-09
2.048241889140143162e-09
1.606849261241835190e-09
1.243469435581946701e-09
9.439995806480741287e-10
6.999751063964698921e-10
5.054193697299172414e-10
3.550590867653980939e-10
