# bin_1_5
4.939101746901847887e-07
4.757241037718847485e-07
4.338579728420012512e-07
3.746149369963515706e-07
3.100600733417823058e-07
2.560084500498875569e-07
2.181025860355726686e-07
1.825694929956952861e-07
1.370075166750267306e-07
9.987935608888251381e-08
7.829602820874713802e-08
5.629614343001301044e-08
4.196021852153630737e-08
3.069500750831055654e-08
2.286235352561395045e-08
1.724985814075263945e-08
1.325210460970920655e-08
1.037190223234034535e-08
8.240301315725538659e-09
6.609852947196034315e-09
5.312970815004465657e-09
4.247150147485556026e-09
3.353085889230014937e-09
2.598377289403182571e-09
1.966700778199387455e-09
1.449236054227120440e-09
1.038508277282035834e-09
7.242561129840338764e-10
4.927407275346128357e-10
3.280565504609187258e-10
2.144574013943792893e-10
