# bin_19_5
3.438619846613728865e-54
3.855327336667453617e-54
4.243629068532533480e-54
4.564878669595747011e-54
4.770051786021304150e-54
4.812464356710070253e-54
4.632992081688812652e-54
4.209381355287915638e-54
3.613722451846651782e-54
2.971523018576465300e-54
2.452045837298278675e-54
2.114017512778827979e-54
1.777219493295007371e-54
1.284975559417894153e-54
9.293449009780704530e-55
7.460570760531695861e-55
4.956070802571714057e-55
3.734260017011744328e-55
2.604021479141388372e-55
1.806973379217077182e-55
1.268796317768990757e-55
8.936320410376029370e-56
6.374254144333351345e-56
4.615903103887845585e-56
3.410253767685216646e-56
2.566453903236182585e-56
1.962160225350352807e-56
1.516397511819699149e-56
1.176242685536856814e-56
9.091161095010511145e-57
6.954273611677111402e-57
