# bin_16_4
1.327894863680784414e-47
1.476636999736916361e-47
1.609076168040182834e-47
1.709315017162583092e-47
1.757866911304957831e-47
1.740199238555966327e-47
1.632352128796957828e-47
1.446789135482556909e-47
1.212669391142131285e-47
9.915953118476257094e-48
8.342069648499087581e-48
7.222534414084610953e-48
5.725006483957366109e-48
3.962138198642929842e-48
3.127447100539671185e-48
2.276063328333454872e-48
1.635316925572539039e-48
1.133051165087271235e-48
8.212502970032133083e-49
5.800821386032341976e-49
4.110906661638011156e-49
2.956188258379576365e-49
2.156507739254459603e-49
1.602723251869332058e-49
1.213396824827610791e-49
9.324273355220746623e-50
7.237949768418587203e-50
5.636436836005389399e-50
4.371727499420735819e-50
3.354785353334482033e-50
2.533281940989944872e-50
