# bin_11_6
3.616147167179960454e-17
3.971770963494162520e-17
4.262491038875523327e-17
4.442229495400339018e-17
4.469048191963286694e-17
4.286151391884418912e-17
3.880330762970991421e-17
3.319327649128531523e-17
2.725660355154447130e-17
2.253109019028168795e-17
1.944197900366480866e-17
1.624240651933147391e-17
1.167361296538354380e-17
8.551213503626247165e-18
6.812844328430533396e-18
4.592430682943292760e-18
3.455997059378366014e-18
2.456362703275189232e-18
1.739111389224485512e-18
1.248929962729452390e-18
9.060551342237448553e-19
6.685207910744299572e-19
5.019560469383942604e-19
3.838425658699179273e-19
2.975643704958379141e-19
2.325521749360104522e-19
1.820007934720302248e-19
1.416103564392207549e-19
1.088509553961682648e-19
8.221532032828484182e-20
6.076145337812329990e-20
