# bin_1_9
6.682934219414432190e-07
6.445800909808570865e-07
5.887357912802983377e-07
5.090725674321330613e-07
4.216516176950730227e-07
3.479534002516406118e-07
2.962291235826805766e-07
2.484240288366815666e-07
1.870088313428040272e-07
1.360593870479977459e-07
1.066893531461166973e-07
7.682150523002993093e-08
5.720304213279593909e-08
4.183762246086525896e-08
3.115195530140792818e-08
2.348681370699573013e-08
1.802928666894567698e-08
1.410039451351203225e-08
1.119594579091432167e-08
8.977432820997067211e-09
7.215347088988167415e-09
5.768846641298304135e-09
4.556284464210809150e-09
3.532908929539681376e-09
2.676088955465227891e-09
1.973654248265651044e-09
1.415525589901144857e-09
9.879863026168337167e-10
6.726465623672782387e-10
4.481030239502256699e-10
2.930779389792545850e-10
