# bin_11_14
5.348068523687864306e-08
5.941671988923551189e-08
6.467316982009807089e-08
6.860675163496490504e-08
7.044016896895215792e-08
6.957583580804262851e-08
6.508890203061269375e-08
5.754377710605685705e-08
4.814311495532667169e-08
3.937836627526568463e-08
3.319977926887033841e-08
2.870759278530948468e-08
2.258671851533417522e-08
1.565120252542843103e-08
1.241774343622863811e-08
8.938324260619460834e-09
6.482405227832690225e-09
4.484811877382940381e-09
3.237727157239539798e-09
2.292197375922626497e-09
1.629248991175369659e-09
1.173800903031442717e-09
8.580433912699486515e-10
6.391528794594937369e-10
4.848587849776570080e-10
3.731576689964139126e-10
2.899191085213418460e-10
2.258062553077683505e-10
1.750506477631747704e-10
1.341861146895353772e-10
1.011727244346876966e-10
