# bin_3_2
3.451645509759616582e-09
3.494102417511814027e-09
3.386329711470701052e-09
3.103215271695294448e-09
2.689528786265706880e-09
2.223808403697966249e-09
1.827508143167386252e-09
1.559812357548438891e-09
1.323557061116656667e-09
9.932048342656956129e-10
7.099859152984101069e-10
5.703925135790479135e-10
3.994921229408370950e-10
3.024936469196406433e-10
2.173178432523571218e-10
1.602808649460635490e-10
1.197204318346192390e-10
9.082959300868570887e-11
7.019089725633699004e-11
5.512979241744077775e-11
4.384368870169523620e-11
3.505212498983236371e-11
2.796222634122046695e-11
2.209971386840517046e-11
1.719100934372238446e-11
1.308921853138796589e-11
9.714086742195138948e-12
7.011275315037409759e-12
4.921062389785836681e-12
3.365268389458203623e-12
2.249132850866637046e-12
