# bin_2_1
4.204944020787324856e-09
4.115844855192757425e-09
3.816901803104937901e-09
3.348178110926969995e-09
2.791030003615357918e-09
2.288270441557157881e-09
1.934839550289915815e-09
1.655948185311120346e-09
1.284929624078547383e-09
9.113590206880574384e-10
7.214173228064401123e-10
5.241901558409585403e-10
3.883587251230707211e-10
2.819650942798922072e-10
2.097999591124925284e-10
1.571111533222115097e-10
1.196826373397185387e-10
9.294494774984762348e-11
7.338748246188958759e-11
5.865003196367373473e-11
4.710621471641116819e-11
3.773287932276504430e-11
2.992654255496947139e-11
2.334749938853107263e-11
1.781895045686965055e-11
1.324978045166377886e-11
9.580469954639427290e-12
6.736516351082681244e-12
4.615847611507675082e-12
3.091307484711933063e-12
2.030490884833792788e-12
