# bin_7_6
2.068416394831280742e-09
2.232072704709351150e-09
2.343293961282981058e-09
2.377558782075797496e-09
2.309954789705436752e-09
2.120217901042383330e-09
1.839863375942974663e-09
1.520662817769939627e-09
1.248102801087685146e-09
1.066908870181992475e-09
9.096983202003417318e-10
6.805466462286007529e-10
4.810116330089636724e-10
3.907275883194414697e-10
2.668208794771157216e-10
2.033130908566266724e-10
1.426891606227434737e-10
1.027043506819460843e-10
7.487750712304494453e-11
5.514475023897797042e-11
4.124156367639960567e-11
3.137010711500932575e-11
2.427782945109485901e-11
1.901464916215615367e-11
1.497531634667558572e-11
1.177915868105177625e-11
9.188114457277806304e-12
7.063722199731756973e-12
5.324300954994746341e-12
3.918610209751297931e-12
2.808730718155760899e-12
