# bin_1_8
6.363460521878923715e-07
6.136453261342879994e-07
5.603618552612503475e-07
4.844396515942347135e-07
4.012078159239961002e-07
3.311088952783676043e-07
2.819161804925096224e-07
2.363593415589793810e-07
1.778484866737051063e-07
1.294311304014006662e-07
1.014876371622898008e-07
7.306121634022663627e-08
5.441052523580203541e-08
3.979627229851163763e-08
2.963328307339656188e-08
2.234419052903362354e-08
1.715409702894994875e-08
1.341732701700559955e-08
1.065446561440659958e-08
8.543687296686008265e-09
6.866827825659184040e-09
5.490068699577552497e-09
4.335855998261166599e-09
3.361700800189351495e-09
2.546127573033295611e-09
1.877579748694555103e-09
1.346455236493100392e-09
9.396703845962424738e-10
6.396874398294838112e-10
4.261102605676650618e-10
2.786744930525185320e-10
