# bin_2_13
5.773592228545006675e-07
5.796104944706143431e-07
5.554041862014199363e-07
5.033156538649046448e-07
4.316254029505490070e-07
3.556487155383856646e-07
2.942014628762481031e-07
2.520009502593935021e-07
2.096455024177920563e-07
1.541561511696878434e-07
1.132758690416225399e-07
8.907451962131027124e-08
6.292442236672213071e-08
4.716882051314366277e-08
3.430052004743996924e-08
2.534816411903257300e-08
1.901005234789496643e-08
1.450314482162926497e-08
1.126989600349807991e-08
8.893425288754174051e-09
7.093292926712938557e-09
5.675956136318203461e-09
4.522898946806200483e-09
3.564088875683165880e-09
2.759878821807085549e-09
2.089282567565999664e-09
1.540641956966143888e-09
1.104789207737199110e-09
7.708141581306098361e-10
5.244018783607957928e-10
3.489816332653474160e-10
