# bin_19_15
8.923802024030068289e-13
1.009243611392453137e-12
1.122562318769785026e-12
1.223191527420092611e-12
1.298935048771997154e-12
1.334907937930138598e-12
1.320026947184961433e-12
1.236201450715313070e-12
1.093897811218473031e-12
9.155951873031387942e-13
7.488247420066489499e-13
6.313155796110552664e-13
5.466178989576667483e-13
4.305587361965359330e-13
2.971009114281994398e-13
2.357871714022480351e-13
1.690292179007597226e-13
1.217905414398270893e-13
8.272877004625881479e-14
5.907850757679312862e-14
4.090582875324750778e-14
2.824352151242305568e-14
1.966841395822841219e-14
1.381778996937310807e-14
9.867540664939918854e-15
7.184597194951446149e-15
5.334362765288785868e-15
4.034423737243274988e-15
3.092877439652855789e-15
2.387539659404091121e-15
1.841879461665980715e-15
