# bin_14_20
6.658707339833885542e-08
7.476031874717917575e-08
8.242948595367562836e-08
8.885569680024658685e-08
9.309586408156762999e-08
9.420378061744611980e-08
9.109855074432527521e-08
8.315934377736780652e-08
7.174296966554667798e-08
5.912424014985188522e-08
4.867197303229364265e-08
4.183570854817465436e-08
3.542349578681407417e-08
2.595810751223443744e-08
1.851534867742971293e-08
1.497671452898000048e-08
9.953162236299446682e-09
7.532761364272249941e-09
5.205903241651961928e-09
3.610999997343199312e-09
2.535679674437242534e-09
1.783540971997604995e-09
1.267284434745257735e-09
9.131251237637822208e-10
6.712077178828659414e-10
5.027694016256983073e-10
3.829025894620196171e-10
2.951667472963256054e-10
2.287250007439584660e-10
1.768708243502119762e-10
1.355440662979879247e-10
