# bin_15_7
1.038762916092319115e-25
1.156482564441448878e-25
1.262034712815551156e-25
1.343077483023350072e-25
1.384327375685527053e-25
1.374347736080338777e-25
1.293893034405151778e-25
1.150776000119832126e-25
9.674223235348654580e-26
7.911990858130555829e-26
6.636351328985819266e-26
5.748942936095359132e-26
4.602356059307479227e-26
3.192523028054083944e-26
2.492181355800908106e-26
1.843338708034072011e-26
1.304759829898858514e-26
9.135144158568579916e-27
6.618798143745517743e-27
4.661068828488728470e-27
3.291966465603260798e-27
2.360057973425755771e-27
1.716538552714170019e-27
1.271439881025193021e-27
9.596764106534310033e-28
7.356666674047736116e-28
5.701626125979408862e-28
4.437605330423157993e-28
3.443359102022480943e-28
2.645773380115986805e-28
2.001830743893345043e-28
