# bin_10_12
4.347273608627032896e-08
4.806745498516051779e-08
5.201303106107915265e-08
5.477345554195005593e-08
5.575561989683606332e-08
5.441240602715166909e-08
5.017963160973868028e-08
4.374815122406246989e-08
3.625038664268373507e-08
2.971611033229166200e-08
2.533881727772533217e-08
2.171710363329172186e-08
1.641623621185115766e-08
1.148409542666308122e-08
9.322914113026525570e-09
6.366693292339257713e-09
4.811226917596341426e-09
3.317619254186483642e-09
2.360091570654888847e-09
1.688368203079118492e-09
1.214718730446230489e-09
8.843495731940070772e-10
6.538807733835419061e-10
4.929720413167736110e-10
3.778528643267049009e-10
2.930693655526719545e-10
2.286808058569079312e-10
1.782116853685877594e-10
1.377575179800292489e-10
1.049869414181590469e-10
7.851171282990043576e-11
