# bin_18_10
4.253845260226600477e-18
4.781719789662777433e-18
5.280017623674610920e-18
5.702193403717295207e-18
5.988536640266504029e-18
6.075822363918581316e-18
5.900179668490614814e-18
5.408955472615708671e-18
4.689136855574469940e-18
3.868171505935346312e-18
3.174857777442204238e-18
2.719754452748796624e-18
2.319168871311443883e-18
1.721326443961195614e-18
1.210133484471158328e-18
9.863105171274332568e-19
6.552840714713599054e-19
4.981399650771391784e-19
3.410487056126370326e-19
2.363320519264039524e-19
1.659841778130348813e-19
1.165988267339139830e-19
8.252451105487417106e-20
5.915983528452371051e-20
4.326174631909712120e-20
3.225023128837642752e-20
2.446332609775769208e-20
1.880831723119953794e-20
1.455892973678021652e-20
1.126373034898376276e-20
8.647691390930841600e-21
