# bin_19_5
6.145423523911000073e-49
6.890186925465043138e-49
7.584364172333171121e-49
8.159088009151421410e-49
8.527064595039368420e-49
8.604276265660092289e-49
8.287139248925021847e-49
7.531870843774788815e-49
6.472447616343822114e-49
5.317714134477012931e-49
4.383064896632031522e-49
3.775660201261330436e-49
3.178471140938555748e-49
2.302956985940177452e-49
1.659230304885879040e-49
1.335035717246005566e-49
8.855530784256170556e-50
6.684111871423051386e-50
4.650397775364666089e-50
3.225123798758470237e-50
2.264535779205394271e-50
1.594262047069167842e-50
1.136244632557561919e-50
8.219838321175685627e-51
6.067054792283647514e-51
4.562016634699142031e-51
3.485425020832892299e-51
2.692406260900888765e-51
2.088069585010863168e-51
1.613986392330218827e-51
1.234972855362164650e-51
