# bin_6_4
5.887089740890584397e-07
6.273001767497469934e-07
6.480996959316652420e-07
6.455940643517455433e-07
6.110267769897227320e-07
5.462179080834130634e-07
4.616694714992459481e-07
3.775766860364883985e-07
3.146069651242806823e-07
2.719730739830190011e-07
2.213503339908750471e-07
1.558935175359101235e-07
1.189910018748595680e-07
9.117748267964720428e-08
6.385118407193427261e-08
4.674275048938297003e-08
3.420602974051150790e-08
2.475780151028157741e-08
1.815928738157621579e-08
1.356015468506087661e-08
1.031428078250490911e-08
7.980323615378392611e-09
6.259617276278876959e-09
4.945060535306378897e-09
3.907458681990929416e-09
3.066711432126697083e-09
2.374807109641423554e-09
1.804480507028106276e-09
1.339383894683639048e-09
9.680684596195762377e-10
6.806648704557602698e-10
