# bin_16_4
1.791403000567044485e-42
1.992211652344944522e-42
2.171150197587201282e-42
2.306842456657585525e-42
2.373023552519201195e-42
2.350267917819910020e-42
2.206030625933016584e-42
1.956266465580235396e-42
1.640211334640115376e-42
1.340357240856469668e-42
1.125995201746709354e-42
9.748841188276869730e-43
7.749837224490288912e-43
5.363205069903183076e-43
4.217332954234408863e-43
3.085021096233319880e-43
2.204591953919170740e-43
1.532042737627225552e-43
1.110599704360371890e-43
7.834448872163446476e-44
5.544871863158917475e-44
3.983142484825713187e-44
2.902898771811763421e-44
2.155099056219258632e-44
1.630038650999998007e-44
1.251630881592240263e-44
9.710654029274407444e-45
7.560263165732786248e-45
5.864119695400283911e-45
4.501291358111411613e-45
3.400654362052440517e-45
