# bin_12_1
1.189497723779561617e-46
1.297928623258208700e-46
1.381645834509260280e-46
1.425102667069459652e-46
1.416468678116192675e-46
1.336110584178839249e-46
1.190415795992480994e-46
1.002616498712325014e-46
8.194984535074477495e-47
6.851183154215315962e-47
5.930132754890652988e-47
4.782459234701369227e-47
3.336587693670144648e-47
2.579935582170173900e-47
1.940926904158884411e-47
1.367258775911116617e-47
9.789282102877901322e-48
7.146477315619378322e-48
5.111335638453690475e-48
3.686903635934206213e-48
2.705942289094203333e-48
2.020500803896696795e-48
1.536107843024504842e-48
1.186944987673768927e-48
9.270836265209152730e-49
7.274359004298451441e-49
5.693718563952938172e-49
4.414905964619717263e-49
3.371407831894020278e-49
2.523298652371012532e-49
1.843985457917810087e-49
