# bin_10_10
1.002057001258808173e-05
1.108869061967646188e-05
1.201126075233881956e-05
1.266554844664368732e-05
1.291163941882120418e-05
1.263085387287663846e-05
1.167860399526195814e-05
1.021076563402830804e-05
8.466077259536314918e-06
6.928975098866812169e-06
5.892953886460115032e-06
5.067046282113594642e-06
3.861245335058125308e-06
2.683913047597384218e-06
2.178329909260999583e-06
1.496216985843522057e-06
1.127284926640519481e-06
7.732638869258841359e-07
5.513159896560350625e-07
3.939556599237122901e-07
2.830438761708381315e-07
2.056139078222562120e-07
1.516367320390791923e-07
1.140368098291752289e-07
8.722704970862371037e-08
6.755518483666693572e-08
5.267467017450863372e-08
4.105107747717439901e-08
3.175521235987130161e-08
2.423208400128442803e-08
1.815299109464372691e-08
