# bin_15_14
5.650152071036332647e-06
6.353019080595311443e-06
7.017340948573822914e-06
7.581467108675114770e-06
7.966186195471616153e-06
8.086823116477980495e-06
7.859707078337843276e-06
7.212038173453156726e-06
6.258107656263786481e-06
5.165018010693530670e-06
4.237803080672989334e-06
3.627955769539479725e-06
3.097072929130813984e-06
2.304747210175219014e-06
1.617171059016413485e-06
1.318344151897888072e-06
8.773066749972981977e-07
6.665992608203938297e-07
4.556219308319309976e-07
3.158855454847838930e-07
2.218250277405265825e-07
1.557909353324974607e-07
1.101820731354788307e-07
7.890993363391730540e-08
5.764433567101883986e-08
4.292944673801716330e-08
3.253629422407480598e-08
2.500017521273948649e-08
1.934623592829067619e-08
1.496788424422131864e-08
1.149508715364502946e-08
