# bin_19_1
1.294899676274712641e-86
1.448922373451809493e-86
1.590995703277854805e-86
1.706365110162585973e-86
1.776441483181854669e-86
1.784681291492601773e-86
1.707943986679534381e-86
1.542426141474973552e-86
1.316769088623628572e-86
1.079337977564390667e-86
8.932153671589049976e-87
7.718668665053575204e-87
6.421545434625363297e-87
4.577801823659718434e-87
3.371641698726720310e-87
2.662523483922867543e-87
1.784634932701268909e-87
1.325757451627753277e-87
9.343432728606918332e-88
6.501620573542566212e-88
4.564045782621743372e-88
3.225169432111373071e-88
2.311566280810928747e-88
1.683712907077288388e-88
1.251092634755518448e-88
9.463957058278264768e-89
7.264818548681774424e-89
5.627679451141044312e-89
4.367705079681348414e-89
3.371827090458763262e-89
2.572520070985069928e-89
