# bin_11_6
1.282009152182621485e-12
1.408637825877958213e-12
1.512536746197853891e-12
1.577466157772841875e-12
1.588307943918900899e-12
1.525430807731416616e-12
1.382689598084496290e-12
1.185024573930673924e-12
9.725903639440461175e-13
8.025503744180237744e-13
6.917076830041256112e-13
5.797313510909903066e-13
4.183901980671535197e-13
3.043492607610125932e-13
2.437438196952462184e-13
1.637316819466804624e-13
1.237404658167220301e-13
8.760204658518436337e-14
6.195897170886087773e-14
4.448964364006055553e-14
3.224303654945479698e-14
2.375663338959769023e-14
1.781002370338918386e-14
1.360113050962912661e-14
1.053316772817670061e-14
8.226437701442552898e-15
6.436718753532793288e-15
5.009115291516094115e-15
3.852371941067875058e-15
2.912105572628085285e-15
2.154539030539460437e-15
