# bin_8_7
6.029360956486102533e-06
6.575654464914148857e-06
6.995392056983074864e-06
7.209784012755958283e-06
7.159052738199648278e-06
6.744399212872123190e-06
6.001941035064564205e-06
5.049694995852643551e-06
4.127175662329295145e-06
3.453910895636618429e-06
2.989149130038178762e-06
2.402824084271937185e-06
1.674842395347363540e-06
1.299923694096217453e-06
9.728840189147664439e-07
6.885779642852798118e-07
4.913001598369512499e-07
3.588300192375861843e-07
2.568857417215589674e-07
1.854710913660121144e-07
1.362463860649058172e-07
1.018178252679436852e-07
7.747385020451550418e-08
5.990409107378650000e-08
4.681000834425426330e-08
3.673621377980762544e-08
2.875116472749544226e-08
2.228614876944582054e-08
1.700931097718729856e-08
1.272124622259175435e-08
9.288501018335260060e-09
