# bin_5_2
4.406224161315397533e-09
4.591824597635329052e-09
4.621584444426904383e-09
4.440449698074412676e-09
4.029710266518427716e-09
3.458956233461301884e-09
2.842517924590559641e-09
2.343768044240821017e-09
2.013348565657593283e-09
1.688744217909151988e-09
1.232915083515580802e-09
8.965595374606727432e-10
7.176440400397213379e-10
4.933696076824386983e-10
3.745113716166299342e-10
2.694417706133164027e-10
1.961999474462597078e-10
1.454274683853582904e-10
1.094363488140499321e-10
8.384844879308923833e-11
6.531385057760529819e-11
5.156475799134480954e-11
4.097443117422693327e-11
3.253569266685796491e-11
2.563538181851211591e-11
1.990958708497038326e-11
1.515618591259868241e-11
1.125903347560157874e-11
8.138673237537225496e-12
5.721450499027102623e-12
3.917007472284246338e-12
