# bin_5_1
3.774678211737163382e-12
3.896182908556149585e-12
3.877836376058978886e-12
3.667582475265919002e-12
3.277202138858614503e-12
2.769435700217539921e-12
2.265360494338601645e-12
1.887538405233324286e-12
1.630009655187666482e-12
1.325944917448228060e-12
9.370809578999002137e-13
7.154698924551427772e-13
5.491152170489805714e-13
3.870552512434814733e-13
2.852215293707819592e-13
2.101582463420566623e-13
1.539783780429504778e-13
1.146319742558926167e-13
8.699711132380568380e-14
6.726274616242408097e-14
5.282758975545226643e-14
4.194227872533768755e-14
3.341781802613731528e-14
2.652690674427391897e-14
2.083352337713039652e-14
1.608592112234070165e-14
1.214677194947955178e-14
8.936629681647955956e-15
6.392786130938801471e-15
4.448713863191874557e-15
3.018050734221071711e-15
