# bin_2_1
1.227224086006758348e-05
1.213281326596839525e-05
1.138645033969211625e-05
1.010380827322841554e-05
8.492241264609342327e-06
6.949603542948625083e-06
5.821018990013042934e-06
5.011295497668726435e-06
4.005966472477830540e-06
2.836112701868108457e-06
2.198100150610886604e-06
1.652073521410464553e-06
1.192252919364117017e-06
8.751463404404884292e-07
6.491776327027567995e-07
4.826293935137350608e-07
3.652063329738253700e-07
2.817847621885248529e-07
2.212955403279070977e-07
1.761557598080211295e-07
1.412270668729269818e-07
1.131587047769263853e-07
8.995410801086785031e-08
7.046770716991133043e-08
5.408136930181017552e-08
4.047792830431260426e-08
2.947066216891453059e-08
2.085962369274519623e-08
1.437763434170905607e-08
9.677215263237643839e-09
6.382488443428082989e-09
