# bin_16_7
3.610232116859020933e-24
4.028905441847568478e-24
4.409541615412003219e-24
4.710110602117081140e-24
4.877957784843150828e-24
4.871157658557653706e-24
4.622225457670156758e-24
4.140725864396320304e-24
3.505554157469400253e-24
2.867699530842434840e-24
2.387965689574921426e-24
2.068052655949735990e-24
1.689909113190814589e-24
1.184204235856049754e-24
8.982804300413191658e-25
6.879745789836400296e-25
4.718557215385116866e-25
3.404400627391922411e-25
2.441082018198901529e-25
1.707876974281889738e-25
1.200246550083091248e-25
8.539949375059939754e-26
6.167147844625737956e-26
4.531062850239106471e-26
3.394665115424591316e-26
2.586260269055180837e-26
1.995845174709725589e-26
1.550412238956863947e-26
1.203551698178049145e-26
9.271082162315383505e-27
7.044162355284062936e-27
