# bin_17_5
7.229421387134621494e-40
8.068844999355684595e-40
8.832553108109656014e-40
9.436466558031840174e-40
9.775217645095106086e-40
9.764483615551846846e-40
9.269284174480372457e-40
8.306879130338450064e-40
7.035376487961026715e-40
5.755666274271204535e-40
4.791278661249696975e-40
4.149170343454378587e-40
3.393651749979179229e-40
2.379790186371674493e-40
1.802626411564066607e-40
1.382789330188462164e-40
9.471676214959636911e-41
6.844186835576361326e-41
4.903756665907524347e-41
3.429894761758818885e-41
2.410146211012889187e-41
1.714239587022914442e-41
1.237496457865973001e-41
9.088300437700893348e-42
6.806337860672866739e-42
5.183796301943657073e-42
3.999457312895166385e-42
3.106503035132200710e-42
2.411526772416064878e-42
1.857839909910982994e-42
1.411875272669666711e-42
