# bin_15_3
2.112788899057500764e-45
2.340005958013378587e-45
2.537368728534498604e-45
2.679104956023837450e-45
2.735290491671949838e-45
2.681625437624855989e-45
2.485760449655037053e-45
2.178649099322443491e-45
1.809369598505944246e-45
1.480060012458176234e-45
1.256244931972281147e-45
1.082264629885580695e-45
8.305936969657708593e-46
5.758337751458844682e-46
4.659381595681411023e-46
3.228811302500077063e-46
2.417471825896764042e-46
1.655259792925472301e-46
1.184438988993111078e-46
8.448358694091764913e-47
6.057902360269245708e-47
4.392919376458537121e-47
3.233207289965859075e-47
2.426491468675956440e-47
1.852797065397284821e-47
1.433116525474755955e-47
1.116701558378603209e-47
8.702718589891169901e-48
6.735912198415597765e-48
5.145631306322214052e-48
3.860447499100199051e-48
