# bin_19_14
5.829030323733432814e-10
6.588243515074981475e-10
7.322495459057820742e-10
7.971799021980333349e-10
8.456414773735665841e-10
8.679596411193195239e-10
8.569562956213684020e-10
8.010220706469217329e-10
7.075309452365966171e-10
5.911327083571106122e-10
4.831917980329185102e-10
4.076406578271904468e-10
3.527467295754937621e-10
2.766735870996866074e-10
1.907441183668002316e-10
1.518822556950286735e-10
1.081644144556311985e-10
7.834691383256920426e-11
5.305441617897676878e-11
3.783777232519652766e-11
2.621912951082845913e-11
1.812872959369673814e-11
1.263705487838999592e-11
8.888724553026933273e-12
6.357608216485125755e-12
4.636762591132999469e-12
3.448228990596143860e-12
2.611416884784652427e-12
2.003750921626500935e-12
1.547333615289500510e-12
1.193468256330922705e-12
