# bin_9_6
2.273968780919690859e-08
2.481133105713975000e-08
2.641014081917300911e-08
2.723939901464492973e-08
2.707157713368291532e-08
2.553397750337899308e-08
2.274846010366210959e-08
1.916039804665248560e-08
1.566240964243556625e-08
1.309474098632712232e-08
1.133224696593413264e-08
9.135839138162559774e-09
6.378711312907385205e-09
4.930645822199542442e-09
3.707944511181176225e-09
2.613514361807190276e-09
1.872507411468512375e-09
1.365247630414012794e-09
9.765273817887392487e-10
7.046514933039693267e-10
5.171381685184958973e-10
3.861264601527903280e-10
2.935475810448561981e-10
2.268139231743669972e-10
1.771482306380269757e-10
1.389914848231417288e-10
1.087837612121108786e-10
8.434617021110853557e-11
6.440698643211478881e-11
4.820265320652727476e-11
3.522470074877738502e-11
