# bin_10_9
5.666910936517270924e-06
6.255854866486376556e-06
6.756246413517416339e-06
7.097887582013148813e-06
7.205451499126185267e-06
7.005261335301541726e-06
6.431787030167072746e-06
5.584718952128018237e-06
4.611122113047553967e-06
3.781456282133065640e-06
3.233024547663936616e-06
2.761216935232530076e-06
2.063265372652688404e-06
1.449324742613475901e-06
1.181074977703317478e-06
7.959441711443310344e-07
6.065504885957928224e-07
4.197217356481642717e-07
2.969900563169673050e-07
2.129785647101202332e-07
1.536252848857141349e-07
1.121499959240596520e-07
8.318211824532338763e-08
6.290969783342538765e-08
4.834547456886225776e-08
3.756735351552258023e-08
2.933958951375382306e-08
2.286144440675246203e-08
1.765335522692217797e-08
1.342937405488063855e-08
1.001817639107321647e-08
