# bin_3_16
-4.867067663148258088e-58
-5.395454332469221652e-58
-5.857191349296889563e-58
-6.193098338074605167e-58
-6.333353076164869730e-58
-6.223116447001388529e-58
-5.784073196921656748e-58
-5.082559704413533169e-58
-4.229478833873539749e-58
-3.459387263557873034e-58
-2.931177312261246392e-58
-2.529259247612987225e-58
-1.954587346066469856e-58
-1.353155659593578703e-58
-1.090789300763651587e-58
-7.631394882385469335e-59
-5.672866591940632186e-59
-3.882305202472480875e-59
-2.788317620111495599e-59
-1.984748156577657310e-59
-1.419909755646287467e-59
-1.027729786599652060e-59
-7.552768610805135542e-60
-5.657561205129958433e-60
-4.313442085173085142e-60
-3.333716787550672891e-60
-2.597320908718087119e-60
-2.025380486535429762e-60
-1.569715328184276030e-60
-1.201433151750845080e-60
-9.035502888854140205e-61
