# bin_4_1
-1.963487130678695121e-09
-1.881991482455363647e-09
-1.707404278810285313e-09
-1.467194507458517768e-09
-1.210929060508830047e-09
-1.001530910736649908e-09
-8.548681958478871037e-10
-7.107965494449999652e-10
-5.279073786245320264e-10
-3.875339741247184525e-10
-3.031220821098868431e-10
-2.170731267399537850e-10
-1.621879190100743927e-10
-1.187766699245011117e-10
-8.856531762358550010e-11
-6.700826103458771160e-11
-5.163766024790196670e-11
-4.053509620582020702e-11
-3.228992602588681925e-11
-2.594862040311537219e-11
-2.087869206548697236e-11
-1.669443213239292470e-11
-1.317377054344538067e-11
-1.019766838837909708e-11
-7.707072370839306514e-12
-5.669727790322692297e-12
-4.056248187067382492e-12
-2.824938419247635141e-12
-1.919938047310940924e-12
-1.277407859597798738e-12
-8.347921493838626759e-13
