# bin_13_4
-1.572035932496698213e-09
-1.644595712208079654e-09
-1.662594504483976044e-09
-1.607780161581539443e-09
-1.469521549896271537e-09
-1.270535507241695828e-09
-1.048446054688277542e-09
-8.624674991420485270e-10
-7.375044671283370845e-10
-6.236408519032423882e-10
-4.641390583339099867e-10
-3.330488347536630633e-10
-2.669437604925370026e-10
-1.855247255906563846e-10
-1.401090001789789425e-10
-1.001345605299381738e-10
-7.312484942947124628e-11
-5.405770438709455900e-11
-4.053464551925693044e-11
-3.094301015871565913e-11
-2.402996423000145825e-11
-1.892758649960500402e-11
-1.502637129460560733e-11
-1.193791952142175381e-11
-9.423822945501646237e-12
-7.342379902869970591e-12
-5.613790514147588630e-12
-4.192479258504238521e-12
-3.048699971148227127e-12
-2.156405806620909624e-12
-1.485036785832170498e-12
