# bin_17_6
-1.157979209242683437e-09
-1.243350984197328952e-09
-1.297135237714435677e-09
-1.306778575453070882e-09
-1.256757620529767882e-09
-1.141447785363406892e-09
-9.804688362034217572e-10
-8.061588156226989081e-10
-6.649795379508107150e-10
-5.715654103787465090e-10
-4.796283177113358871e-10
-3.497608802088244145e-10
-2.539438466779398733e-10
-2.030606929062301600e-10
-1.387373939223741000e-10
-1.048547373902534792e-10
-7.476738375604450053e-11
-5.380465906934068848e-11
-3.931756945849662208e-11
-2.910128280384169391e-11
-2.191328946662694656e-11
-1.679418331611726095e-11
-1.307627502911448770e-11
-1.028679651545900050e-11
-8.121469368600505245e-12
-6.390098838873569091e-12
-4.976316522578964281e-12
-3.813059041740390111e-12
-2.860597915944347916e-12
-2.093239366036210962e-12
-1.491055486346030064e-12
