# bin_17_5
-1.448833349895588799e-09
-1.538164308762238116e-09
-1.582111882189522813e-09
-1.566906909172848553e-09
-1.472377081987754155e-09
-1.307531900650005058e-09
-1.099006306222194400e-09
-8.991652207500088121e-10
-7.537637864854076179e-10
-6.504571937982315371e-10
-5.196759342882755980e-10
-3.651364052908850461e-10
-2.839088173218723008e-10
-2.117216756783241987e-10
-1.517846295430069216e-10
-1.095762554612764812e-10
-8.029769800658125484e-11
-5.843372774642030519e-11
-4.308295890417673238e-11
-3.233587781316594955e-11
-2.471421599944495070e-11
-1.920954416137077137e-11
-1.511840981748645101e-11
-1.196998558195411290e-11
-9.466754144441904670e-12
-7.426667942256884593e-12
-5.742308586633133688e-12
-4.352500100001506878e-12
-3.220496665539217426e-12
-2.319720567350311712e-12
-1.625680613138429494e-12
