# bin_5_7
-3.818908271808910413e-13
-4.095316526892474914e-13
-4.265646065015171145e-13
-4.289595432833968888e-13
-4.113992998579084489e-13
-3.725119417328726248e-13
-3.189676166199001048e-13
-2.618243587194115850e-13
-2.162481239107664494e-13
-1.862786010083392651e-13
-1.557014751255301118e-13
-1.125081055131404114e-13
-8.231353627790251894e-14
-6.569023155005136413e-14
-4.471669528819309627e-14
-3.381510095379724330e-14
-2.423476697731534986e-14
-1.742160329883213395e-14
-1.273954507327683137e-14
-9.441358707736573747e-15
-7.123837267466837379e-15
-5.471292990550638382e-15
-4.267647065283701569e-15
-3.361455469143251327e-15
-2.655552608353139120e-15
-2.089394196403879991e-15
-1.626099484571121599e-15
-1.244521190956252790e-15
-9.321102678330641988e-16
-6.806634944674272454e-16
-4.837321762222219158e-16
