# bin_4_8
-1.186430245257939897e-17
-1.274276546036433901e-17
-1.329891502803823025e-17
-1.340366565990326535e-17
-1.289631845935973728e-17
-1.171434263255791179e-17
-1.006289681153808883e-17
-8.269036999057141843e-18
-6.815879063574401578e-18
-5.863356017509336175e-18
-4.929795882358041586e-18
-3.588103792644496552e-18
-2.598763263794211130e-18
-2.090969336258985104e-18
-1.417005181401309717e-18
-1.078232690441303995e-18
-7.685517767865030794e-19
-5.518336445307337280e-19
-4.032953220141346875e-19
-2.983649173780246424e-19
-2.246472440100012281e-19
-1.721731082925322968e-19
-1.340731996609984079e-19
-1.054909170963279755e-19
-8.330400198714161340e-20
-6.556145967563622496e-20
-5.106939865737003709e-20
-3.914145863745909431e-20
-2.937080396142212591e-20
-2.149495675135968172e-20
-1.531146129923279790e-20
