# bin_2_4
-3.013372651834778513e-13
-3.085924207055125573e-13
-3.040088438164601788e-13
-2.838374095911320342e-13
-2.505667396276279844e-13
-2.095414619900171463e-13
-1.714048579739012026e-13
-1.443036565451436025e-13
-1.242995020218534279e-13
-9.790154451070619388e-14
-6.871035296898173461e-14
-5.423967883772436235e-14
-3.977125689888152922e-14
-2.911341562375521344e-14
-2.095477991169159319e-14
-1.552643225302048345e-14
-1.148005568479284731e-14
-8.616667199702079739e-15
-6.593748500865497737e-15
-5.136515998331496887e-15
-4.060419225094597005e-15
-3.237436852334440756e-15
-2.584662205016421001e-15
-2.051137353351158158e-15
-1.607001969795321875e-15
-1.235545271683187972e-15
-9.276867608616073749e-16
-6.780789303145964090e-16
-4.818764239420612093e-16
-3.333269031689381722e-16
-2.250049619017275460e-16
