# bin_6_8
-4.128475941707197683e-13
-4.468193012279232229e-13
-4.708273312933914376e-13
-4.797265531045833670e-13
-4.690348864629785152e-13
-4.335540855064117151e-13
-3.789910765698174477e-13
-3.143313768275310326e-13
-2.573572426186013516e-13
-2.187861629489920874e-13
-1.878804901009254034e-13
-1.433593054439171736e-13
-1.001329498792421167e-13
-8.109338979033471225e-14
-5.632391096890938521e-14
-4.246673941277847498e-14
-2.957864496965890409e-14
-2.141555339157580888e-14
-1.555964928385008815e-14
-1.141298767706082469e-14
-8.497461065643240769e-15
-6.436562990416511522e-15
-4.962173927955958065e-15
-3.876598733733132135e-15
-3.050201635544608511e-15
-2.400708163507444254e-15
-1.876714132671253543e-15
-1.447938854931814833e-15
-1.096581174666051856e-15
-8.117152606051110116e-16
-5.855158441499026383e-16
