# bin_6_2
-1.714288610301176764e-09
-1.713119114475667851e-09
-1.631534721878444024e-09
-1.469209515090280505e-09
-1.252672502729089438e-09
-1.029365884559419726e-09
-8.541124297646493620e-10
-7.329006602769557501e-10
-6.033812005783096859e-10
-4.384623243943420472e-10
-3.264609614972324916e-10
-2.543277155361162744e-10
-1.799468156849727940e-10
-1.345537769047153003e-10
-9.831863916242323246e-11
-7.274512635186482069e-11
-5.472448827802480544e-11
-4.191181648511121328e-11
-3.269242030616552997e-11
-2.588872842255064630e-11
-2.069847654700575936e-11
-1.658574969536182373e-11
-1.322112800412777735e-11
-1.041180021110242125e-11
-8.050694498000199662e-12
-6.081795706074584336e-12
-4.473830859581369368e-12
-3.200259818746711102e-12
-2.227954106489020220e-12
-1.513078444199129549e-12
-1.005667603017450592e-12
