# bin_12_2
-2.610262871699990374e-09
-2.611358805889034199e-09
-2.490714628289510561e-09
-2.246301543782419652e-09
-1.917989527601573360e-09
-1.576815824900711498e-09
-1.307198593562218690e-09
-1.121222975038772125e-09
-9.255926368508440810e-10
-6.744510072773736161e-10
-5.003945231297718915e-10
-3.908771947031251509e-10
-2.763173674339755722e-10
-2.068045718528546005e-10
-1.509184163703875135e-10
-1.116278607462780436e-10
-8.391868537449536237e-11
-6.421757922935012330e-11
-5.005219742677086652e-11
-3.961022179778630136e-11
-3.165646822724563027e-11
-2.536334610659454187e-11
-2.022117279966721567e-11
-1.593089094166745984e-11
-1.232593049065127343e-11
-9.318932472269376602e-12
-6.861282210684034913e-12
-4.912611729482253635e-12
-3.423018025001603228e-12
-2.326459563197447264e-12
-1.547270845090345826e-12
