# bin_5_20
-2.974815053574242791e-61
-3.336048065074928611e-61
-3.673161674147575715e-61
-3.952844055869368481e-61
-4.132822336202997139e-61
-4.172136757262639402e-61
-4.020804343886070581e-61
-3.656711691451229744e-61
-3.144469501274687439e-61
-2.584706190792117072e-61
-2.130598918567635917e-61
-1.835295346950237773e-61
-1.546136573499973826e-61
-1.121512556568152829e-61
-8.073134236899849849e-62
-6.501881852474243173e-62
-4.311524431983811306e-62
-3.256548050140754059e-62
-2.264393542514491984e-62
-1.569953725771258474e-62
-1.102178632215144122e-62
-7.756457758353317469e-63
-5.524151365652849479e-63
-3.995578527218310272e-63
-2.947093933782687586e-63
-2.215196636968123796e-63
-1.692272731428883162e-63
-1.307398533913115852e-63
-1.014365403520276106e-63
-7.846171138373529273e-64
-6.009425369866735646e-64
