# bin_10_14
-4.886455043119931699e-16
-5.440982349064181490e-16
-5.938828818947753350e-16
-6.322091749472634876e-16
-6.518961505692580090e-16
-6.475612744244510103e-16
-6.101289773578900634e-16
-5.429951759047446008e-16
-4.567932607358254692e-16
-3.734742884144529843e-16
-3.129201714769899265e-16
-2.710634987342722059e-16
-2.175481832429675039e-16
-1.510205702962946350e-16
-1.174615300971414760e-16
-8.726199536926690911e-17
-6.148836974789362497e-17
-4.319734986771979820e-17
-3.126553185609423138e-17
-2.199233478279236317e-17
-1.551643302950046985e-17
-1.111075574137713157e-17
-8.073842331599949914e-18
-5.974351127142981229e-18
-4.505014591839248366e-18
-3.451738236285050832e-18
-2.674797634821190789e-18
-2.082321426895700610e-18
-1.616859193078160485e-18
-1.243650026511273213e-18
-9.422501333720980396e-19
