# bin_16_15
-5.198691755912307088e-11
-5.836786619585283024e-11
-6.435739198206800853e-11
-6.937956046710010481e-11
-7.269953134095103920e-11
-7.357370764026386183e-11
-7.117176581159720443e-11
-6.498321136852619505e-11
-5.610606884997629408e-11
-4.620382146286181211e-11
-3.801146152169686359e-11
-3.266018440339167639e-11
-2.767918019600527352e-11
-2.030309852349072309e-11
-1.444698125399907234e-11
-1.170841025684731461e-11
-7.766770480065101849e-12
-5.887757360700727110e-12
-4.063523104977933151e-12
-2.815898397205129611e-12
-1.977123266980540742e-12
-1.389928577996548709e-12
-9.866540679997344289e-13
-7.106470039989988058e-13
-5.219085654783003711e-13
-3.907195284390966500e-13
-2.974942993340302810e-13
-2.293302472518838984e-13
-1.777674255014005585e-13
-1.375557464514604437e-13
-1.055122289972995265e-13
