# bin_11_15
-7.556276152050394932e-16
-8.442619655692375698e-16
-9.253869323933570451e-16
-9.902778642555955290e-16
-1.027971601884550764e-15
-1.029312913647130195e-15
-9.803538897789666320e-16
-8.813451909267088183e-16
-7.488789938172994360e-16
-6.132414768986818132e-16
-5.094506201118392875e-16
-4.409866177415121431e-16
-3.631476747096294405e-16
-2.561726869412928519e-16
-1.920553601595791469e-16
-1.490142150738480894e-16
-1.011755208437437504e-16
-7.391471685374789318e-17
-5.263848090697737492e-17
-3.674021384934893154e-17
-2.579787508898742238e-17
-1.829894147797117122e-17
-1.317161524313108838e-17
-9.645185027550367492e-18
-7.201401558978300520e-18
-5.472038548999821189e-18
-4.215583034118156293e-18
-3.272797538829373968e-18
-2.542136438414137992e-18
-1.961573347580728478e-18
-1.494295259281564292e-18
