# bin_11_1
-3.366539801925399543e-09
-3.235255656120477386e-09
-2.943277663500582974e-09
-2.535854053417115923e-09
-2.095443282456203315e-09
-1.731015975027725485e-09
-1.475894628929550021e-09
-1.231871384206137265e-09
-9.199653910138922519e-10
-6.724073960675534403e-10
-5.267779160238014771e-10
-3.778775303193544793e-10
-2.820224539501505360e-10
-2.063671534686545679e-10
-1.537935520928622697e-10
-1.162006248885451695e-10
-8.941452941745602027e-11
-7.009524791778777815e-11
-5.577873776768570007e-11
-4.479702648759704933e-11
-3.603995858212492529e-11
-2.882742221863131961e-11
-2.276593988126899724e-11
-1.764324486242474134e-11
-1.335334365177437412e-11
-9.838958147234536146e-12
-7.050237345019069480e-12
-4.917349385147124626e-12
-3.346376894544853672e-12
-2.228911280490793776e-12
-1.457907649222093029e-12
