# bin_1_8
-7.367856897547406751e-32
-7.808613767298565207e-32
-8.013310981175113670e-32
-7.914874795383169067e-32
-7.408449496926680789e-32
-6.554449178356532788e-32
-5.487005232667153527e-32
-4.485097927228662836e-32
-3.771920848913234562e-32
-3.258482262479642991e-32
-2.578533260126415458e-32
-1.797223298373068032e-32
-1.419579451138240919e-32
-1.040848573164899554e-32
-7.570872274283417906e-33
-5.383246557639582038e-33
-3.971626010000348952e-33
-2.899245095570897631e-33
-2.141814311943764107e-33
-1.612305210697697632e-33
-1.235613174176787627e-33
-9.628003913207324316e-34
-7.591723004373346592e-34
-6.017470050474915479e-34
-4.760548863966246272e-34
-3.732815142448613078e-34
-2.882696623317877115e-34
-2.180861608998694046e-34
-1.609685880081369219e-34
-1.156119949061240538e-34
-8.077698066232738515e-35
