# bin_7_1
-2.798052212273568771e-09
-2.686941310913588801e-09
-2.442527593873282378e-09
-2.102855520322814073e-09
-1.737056575917635853e-09
-1.435443845036693343e-09
-1.224267679858077683e-09
-1.020742738114025451e-09
-7.611116551329579111e-10
-5.569826143922422178e-10
-4.361572355117223187e-10
-3.127229338477754844e-10
-2.334679964060133085e-10
-1.708773134569324010e-10
-1.273644305174198504e-10
-9.626890418551565538e-11
-7.410812961499895198e-11
-5.811809102121857714e-11
-4.626156139684857135e-11
-3.716004578706233761e-11
-2.989692993123025882e-11
-2.391138796618991781e-11
-1.887939312825631420e-11
-1.462645268800551568e-11
-1.106559234406016996e-11
-8.149672962722348856e-12
-5.837135349846953055e-12
-4.069548054923526274e-12
-2.768413575736500896e-12
-1.843381897186709111e-12
-1.205434211473181338e-12
