# bin_12_20
-4.407948689935452772e-24
-4.970409726954883561e-24
-5.508908305475076248e-24
-5.976806063873887773e-24
-6.313014418014084521e-24
-6.446597063855416050e-24
-6.319905106447735532e-24
-5.856533058933508454e-24
-5.131475100879744692e-24
-4.260821377412220819e-24
-3.487763205801836091e-24
-2.965080197321180314e-24
-2.554758457449755262e-24
-1.953371220447684203e-24
-1.352294181829767588e-24
-1.095924412640267386e-24
-7.500173799910016943e-25
-5.610995205665166093e-25
-3.783165858039711931e-25
-2.655243239241401881e-25
-1.855177991155970910e-25
-1.295817440606933706e-25
-9.090824634341792280e-26
-6.448321829372650044e-26
-4.657586408914827442e-26
-3.431014111527556592e-26
-2.576022438431277774e-26
-1.965927873284235799e-26
-1.516054428587823195e-26
-1.173066553283918640e-26
-9.039356974010165631e-27
