# bin_10_19
-2.224201902460304367e-28
-2.499703762425796734e-28
-2.759562114833532411e-28
-2.979364124924897070e-28
-3.127816195278263649e-28
-3.172077391560930310e-28
-3.078208639643351404e-28
-2.819802135092492425e-28
-2.442725266430665016e-28
-2.014647119983317233e-28
-1.654740028470817500e-28
-1.418839143312332200e-28
-1.208401741785932900e-28
-8.944071450923696559e-29
-6.304858598074116748e-29
-5.136138442346611492e-29
-3.407707879347503580e-29
-2.591128518928699602e-29
-1.777458399734936043e-29
-1.231164449596934357e-29
-8.645330297426612095e-30
-6.072602833330791630e-30
-4.299045293137650067e-30
-3.085691785899481345e-30
-2.258044794203751261e-30
-1.684757639004874073e-30
-1.279181656614046618e-30
-9.842521286145535658e-31
-7.623652191375700719e-31
-5.901078080826684125e-31
-4.532204696397394182e-31
