# bin_10_5
-9.231422168394960561e-10
-9.796268110242484461e-10
-1.007067072869432567e-09
-9.966937015633470996e-10
-9.357254515388765040e-10
-8.302559229965456319e-10
-6.973169648535356282e-10
-5.704923242780255722e-10
-4.785711645624119970e-10
-4.129263341971813041e-10
-3.291779846962694776e-10
-2.311332520255438777e-10
-1.801498342551677842e-10
-1.339132903371830955e-10
-9.625396021136870134e-11
-6.936503991516831926e-11
-5.085592077032498934e-11
-3.703100060519206041e-11
-2.731667455907416846e-11
-2.051437664286444293e-11
-1.568772076927901185e-11
-1.219958466207282369e-11
-9.604802283543428458e-12
-7.606013631738089165e-12
-6.015465748697711950e-12
-4.718373518948311735e-12
-3.647112593727934997e-12
-2.763173704843997883e-12
-2.043404801588958523e-12
-1.470973795087021048e-12
-1.030246586678902908e-12
