# bin_8_14
-3.067339779445290587e-21
-3.404786234208253522e-21
-3.702102043638686938e-21
-3.922241295553540873e-21
-4.020632954134870125e-21
-3.963563096545059911e-21
-3.698626206894397813e-21
-3.262186863116314557e-21
-2.722667425210839109e-21
-2.225989152354842843e-21
-1.879920423150147481e-21
-1.625118345150868430e-21
-1.270148430089808510e-21
-8.781276506706726927e-22
-7.020104601646782175e-22
-4.996458093193141959e-22
-3.660872238613267035e-22
-2.512503273349851505e-22
-1.814255665771932522e-22
-1.286688462318187786e-22
-9.165190786949517329e-23
-6.614300299675815834e-23
-4.845087286181172137e-23
-3.616793409581396395e-23
-2.749107956151644199e-23
-2.119744096418035453e-23
-1.649251767126414984e-23
-1.285689411404893720e-23
-9.971211643613178504e-24
-7.643513993814291473e-24
-5.761143957985950808e-24
