# bin_1_10
-1.616290685060504517e-42
-1.738477864132299594e-42
-1.817682342615698773e-42
-1.835781694051771893e-42
-1.771668113212898886e-42
-1.614270046953833675e-42
-1.391081066272340847e-42
-1.144551812069249318e-42
-9.418144132242407384e-43
-8.088266897575739670e-43
-6.834978605781473805e-43
-5.013661049752836086e-43
-3.598332241058921461e-43
-2.912413172486776391e-43
-1.970265766186398463e-43
-1.505161226658036530e-43
-1.067043262601807647e-43
-7.656802572488255678e-44
-5.593972443445872351e-44
-4.133070473149824897e-44
-3.105557099542665200e-44
-2.375207866903302378e-44
-1.846502047242585493e-44
-1.451228579687916524e-44
-1.145453077156398689e-44
-9.016466909654956648e-45
-7.028922215792212272e-45
-5.394324227384094767e-45
-4.054908433458005894e-45
-2.973836798615062342e-45
-2.123137813409596489e-45
