# bin_18_7
-9.726742209513661618e-10
-1.053893140534842675e-09
-1.112083881334870020e-09
-1.135051353568811961e-09
-1.112350948317243405e-09
-1.031249829657290385e-09
-9.040048462685766515e-10
-7.515582453453690784e-10
-6.152362019211163907e-10
-5.217114636121973781e-10
-4.484687234609763522e-10
-3.451681293204570665e-10
-2.410938281338411876e-10
-1.937663808480871608e-10
-1.364192045013460639e-10
-1.016539183102931861e-10
-7.109402329771565300e-11
-5.159465340024366045e-11
-3.738539295883261296e-11
-2.734271535794442171e-11
-2.031458745906499066e-11
-1.535548893909637440e-11
-1.181430592742148000e-11
-9.215197760156727857e-12
-7.243541851979162001e-12
-5.699110320026494700e-12
-4.456447672464784652e-12
-3.441197225827754077e-12
-2.609686219619326433e-12
-1.935219222374469630e-12
-1.398911330430314202e-12
