# bin_13_16
-4.355520368550776210e-14
-4.886622617075355184e-14
-5.383391856820203689e-14
-5.797250638555472743e-14
-6.066432275921150664e-14
-6.130073452137357885e-14
-5.916331112875559315e-14
-5.388747394866558819e-14
-4.641065306850681128e-14
-3.817475927887308817e-14
-3.144254733318479890e-14
-2.705913712744585719e-14
-2.285084282567501314e-14
-1.664570362177106296e-14
-1.192552702942394545e-14
-9.633140926646959353e-15
-6.384223404003639894e-15
-4.831740700805079658e-15
-3.350109408887579539e-15
-2.321694682004654920e-15
-1.630093383637892817e-15
-1.146639242364270929e-15
-8.156047479584860698e-16
-5.889780771125966303e-16
-4.337175389333558026e-16
-3.255153205754835624e-16
-2.483674592197104576e-16
-1.917283033034784696e-16
-1.487097620766626249e-16
-1.150483985449356158e-16
-8.816886374570738222e-17
