# bin_19_10
-5.491683320250422423e-10
-6.063389664012693292e-10
-6.549746320677907595e-10
-6.882681837878272200e-10
-6.989163943937997269e-10
-6.797597667527977087e-10
-6.244964683005108571e-10
-5.425746060383545069e-10
-4.483463110624100062e-10
-3.678709020561740510e-10
-3.144251037699629178e-10
-2.684253356343101396e-10
-2.008875973143950587e-10
-1.413628567407485211e-10
-1.147936215281491745e-10
-7.778938534030102877e-11
-5.900114232236163240e-11
-4.085870039714252497e-11
-2.897698757087290180e-11
-2.075671175262160488e-11
-1.495987706179425559e-11
-1.091608705502150260e-11
-8.098052776395750354e-12
-6.122829698935543660e-12
-4.705173630100405256e-12
-3.657087229695726354e-12
-2.857285848129203679e-12
-2.227796535681167844e-12
-1.721759573131409582e-12
-1.311189396769766253e-12
-9.793565639259382211e-13
