# bin_3_5
-3.256872423524379885e-13
-3.401729735369596369e-13
-3.432555595413209137e-13
-3.310053777417188938e-13
-3.015035875207524981e-13
-2.597781806281228892e-13
-2.138395974619533022e-13
-1.760244631861584526e-13
-1.509699016110530186e-13
-1.273548258845973333e-13
-9.375727586036790346e-14
-6.754529917905778832e-14
-5.440575264828702139e-14
-3.734571786852724967e-14
-2.845326847783584496e-14
-2.036777839654590794e-14
-1.482871168293102848e-14
-1.098446702727724790e-14
-8.254467059235522725e-15
-6.314674859576082350e-15
-4.914006603037072845e-15
-3.877150558839877683e-15
-3.081408184907757748e-15
-2.449146192396703658e-15
-1.932940569350936789e-15
-1.504729449244457620e-15
-1.148845239076443255e-15
-8.563326759993114079e-16
-6.212749142130911689e-16
-4.383623945655424003e-16
-3.011625857253771018e-16
