# bin_14_7
-7.627901842133499000e-10
-8.263631134225859574e-10
-8.718318785075469482e-10
-8.896471681407685034e-10
-8.715938251657757477e-10
-8.077598933096109832e-10
-7.078500465144015260e-10
-5.883375376409734945e-10
-4.816499354997522372e-10
-4.085451201209416907e-10
-3.511093830509590843e-10
-2.699716287230617689e-10
-1.886167256500743999e-10
-1.516713871420773279e-10
-1.066558970361288708e-10
-7.954921002473177829e-11
-5.562845163884951069e-11
-4.036131068067162667e-11
-2.925271563858241115e-11
-2.140034860892479351e-11
-1.590342978686439500e-11
-1.202407849761309576e-11
-9.253245149380455862e-12
-7.218798873796011208e-12
-5.674866005150594519e-12
-4.465018083316418940e-12
-3.491275703921415680e-12
-2.695601716466211205e-12
-2.043904437546858027e-12
-1.515332254607208657e-12
-1.095113874009295091e-12
