# bin_15_9
-4.937498300425099941e-10
-5.422208220584554441e-10
-5.818212694245797007e-10
-6.062669352864940168e-10
-6.098119141216641982e-10
-5.848514662962265685e-10
-5.295032519763917196e-10
-4.532785046029690423e-10
-3.720793016801042806e-10
-3.075086018537268740e-10
-2.651111524266961774e-10
-2.214088128089026872e-10
-1.594701691788242801e-10
-1.166871718435034856e-10
-9.280027645942904638e-11
-6.274033299837674813e-11
-4.709802488708167287e-11
-3.343475650109852534e-11
-2.368220623354636119e-11
-1.700863613455401514e-11
-1.234322605190576178e-11
-9.104332769352449236e-12
-6.836170854991190476e-12
-5.226337189338266048e-12
-4.051881677961744069e-12
-3.167479439423544525e-12
-2.479987277195094866e-12
-1.930834176119859317e-12
-1.485407644670600002e-12
-1.123078918889848735e-12
-8.310125535664146242e-13
