# bin_12_8
-4.392603747607524386e-10
-4.792933093618413934e-10
-5.102032785290053682e-10
-5.262752108709503883e-10
-5.230352061016196255e-10
-4.933958716623569379e-10
-4.396727546839949430e-10
-3.704989574215819557e-10
-3.030465586769086170e-10
-2.534647220807513311e-10
-2.192363424290393828e-10
-1.766428387431795880e-10
-1.236133871362388931e-10
-9.546556181865783220e-11
-7.174750381370747928e-11
-5.062470959044736937e-11
-3.632775304683525132e-11
-2.642062609085634919e-11
-1.890188288342323781e-11
-1.364939978589579857e-11
-1.001780902997029802e-11
-7.481201488381778290e-12
-5.689275434501406423e-12
-4.396918042445067342e-12
-3.435813451179733684e-12
-2.697372460442671413e-12
-2.112614744692019307e-12
-1.639414748213238475e-12
-1.253089533485931595e-12
-9.388523465804292152e-13
-6.869158480485085647e-13
