# bin_4_16
-5.312131566719788333e-50
-5.894922424884518444e-50
-6.407531395121832805e-50
-6.785705516809751199e-50
-6.952418305863682870e-50
-6.849068356644875649e-50
-6.385886549896298938e-50
-5.627940085743339392e-50
-4.694120156148937396e-50
-3.838033515152272783e-50
-3.243596159868001320e-50
-2.803087262020836353e-50
-2.185591554717773720e-50
-1.511162826580356675e-50
-1.210496090473832387e-50
-8.583365429315784766e-51
-6.309675999080757963e-51
-4.325710924058408331e-51
-3.120639723465543882e-51
-2.214935408413752504e-51
-1.579235030462589912e-51
-1.140441202065391614e-51
-8.359834038314210747e-52
-6.245257427851060656e-52
-4.750216142964215917e-52
-3.664659191240374737e-52
-2.852172570185630379e-52
-2.223634329108606696e-52
-1.724326800217427439e-52
-1.321379785944095934e-52
-9.954993591813344362e-53
