# bin_18_14
-1.819036103978199171e-10
-2.038201060968137069e-10
-2.241852029258594981e-10
-2.409476381002940198e-10
-2.515105011012852587e-10
-2.534373396917258077e-10
-2.436012012554553769e-10
-2.209732880975932230e-10
-1.895168316960660697e-10
-1.556471178188337236e-10
-1.285187276428377596e-10
-1.108328980342982162e-10
-9.290930626407276309e-11
-6.698055501243094925e-11
-4.865122464506859054e-11
-3.885883801834632648e-11
-2.590442865694213727e-11
-1.942388000596896098e-11
-1.357508915518823713e-11
-9.426821440490024498e-12
-6.617745829253443249e-12
-4.665218974611585793e-12
-3.330357148949471664e-12
-2.415452818104936430e-12
-1.786493536519403048e-12
-1.346136691402165029e-12
-1.030347726012015944e-12
-7.969169653906131090e-13
-6.184693323573486720e-13
-4.781276763247034716e-13
-3.657528154668881834e-13
