# bin_16_7
-8.786114374953593842e-10
-9.519220325491103989e-10
-1.004411222105867944e-09
-1.025069663056526448e-09
-1.004451909736132703e-09
-9.310893474542803588e-10
-8.160950286152356434e-10
-6.784083515582465898e-10
-5.553674431201025096e-10
-4.709942106905089534e-10
-4.048356239270113682e-10
-3.114676493610349642e-10
-2.175753995884646111e-10
-1.749008559333063285e-10
-1.230803156947261560e-10
-9.174735005174602970e-11
-6.416288718604259444e-11
-4.656025637293584398e-11
-3.374060732136152210e-11
-2.467955144054707388e-11
-1.833765867794743646e-11
-1.386246565132405233e-11
-1.066652680452974803e-11
-8.320480629915379084e-12
-6.540515439379504475e-12
-5.146032742536787568e-12
-4.023890883598064085e-12
-3.107047031821880966e-12
-2.356122335531102941e-12
-1.747040361606214589e-12
-1.262759784621613661e-12
