# bin_10_16
-2.988134540945723136e-20
-3.340646054643611599e-20
-3.664343489375982509e-20
-3.924893371897144924e-20
-4.079101978109064510e-20
-4.089972730234094328e-20
-3.902888080533297221e-20
-3.515052645592344588e-20
-2.992305906072045675e-20
-2.451386256817454418e-20
-2.033629091874594355e-20
-1.759555031697015474e-20
-1.454865798283289649e-20
-1.030139286254404627e-20
-7.672475284840574220e-21
-5.994484446778055564e-21
-4.048527881240567916e-21
-2.977523978848220592e-21
-2.112294723568257260e-21
-1.472503816773371246e-21
-1.033664885595478693e-21
-7.320412647167339917e-22
-5.260203835884685843e-22
-3.844541412608290195e-22
-2.865141919501694669e-22
-2.173607998799435612e-22
-1.672527189435197533e-22
-1.297660872742514638e-22
-1.007903173054307376e-22
-7.780997375863443457e-23
-5.932900875186260413e-23
