# bin_11_5
3.449413207163564398e-18
3.781238855566746371e-18
4.048245739304196450e-18
4.206112015731346130e-18
4.216708549288656208e-18
4.024595393881690728e-18
3.626161919017237442e-18
3.088721902194061761e-18
2.531020638329272551e-18
2.098227292214258462e-18
1.812969852102705341e-18
1.500464252393010666e-18
1.067936330629698396e-18
7.942800742850776102e-19
6.233963014181946325e-19
4.246052052857813325e-19
3.153568102637147437e-19
2.260173842035950015e-19
1.604412221789242124e-19
1.152935062996044173e-19
8.390116864872647598e-20
6.211982306940991929e-20
4.681430730178585136e-20
3.591084312963293044e-20
2.790354359296835734e-20
2.183555666338665172e-20
1.709164198328723201e-20
1.328647269900439818e-20
1.019407173850422800e-20
7.679603203439784270e-21
5.657324413072977198e-21
