# bin_11_11
1.179991184987595115e-10
1.311504200798895342e-10
1.428270086523304163e-10
1.516143957173886368e-10
1.557888399985354654e-10
1.540558903699133877e-10
1.443236678935931629e-10
1.277615410928183867e-10
1.069741600141147812e-10
8.745551768098410809e-11
7.361780451995117892e-11
6.370035411013502200e-11
5.033981482202597198e-11
3.484790924968219570e-11
2.755465139690776090e-11
1.996613884053490721e-11
1.439418821663690822e-11
9.967939671948980912e-12
7.211400391837146624e-12
5.097185846132759021e-12
3.616090535377133552e-12
2.601742113600518757e-12
1.899153613863222837e-12
1.412461132552930501e-12
1.070015258233176229e-12
8.226215287282790738e-13
6.386971327779333072e-13
4.973525637644696244e-13
3.856443910236132791e-13
2.957904003266823445e-13
2.232129089253786204e-13
