# bin_12_5
1.373563492415705714e-20
1.511093354476776304e-20
1.624997478494568184e-20
1.697950041031734711e-20
1.713242212891691461e-20
1.650495367970758085e-20
1.500898999756632233e-20
1.290637002450901984e-20
1.061009326127924005e-20
8.743893945852021309e-21
7.524024526515251224e-21
6.336285184949922893e-21
4.611110276920659764e-21
3.325257148439700807e-21
2.677681281161287880e-21
1.797420003558277080e-21
1.363153668382424904e-21
9.599325013063168992e-22
6.786322563991444110e-22
4.872498267906042160e-22
3.527356712670803779e-22
2.593365059600949309e-22
1.939420161389247942e-22
1.477836480320823509e-22
1.142528590546952161e-22
8.913579276976302665e-23
6.972086908102992900e-23
5.427913968535896597e-23
4.178803139451830006e-23
3.163824285977608147e-23
2.345499754251755027e-23
