# bin_7_1
6.257623718259449401e-21
6.599486821240180877e-21
6.733407287753508939e-21
6.597654238611106339e-21
6.116927894670716142e-21
5.363079245442077055e-21
4.459561739585063588e-21
3.649796101955108241e-21
3.092366061718025502e-21
2.657695437068323381e-21
2.050445396785132683e-21
1.435487443576384253e-21
1.152837487285452153e-21
8.182418591116647388e-22
6.110418614332055720e-22
4.320196805159379527e-22
3.170226673178373277e-22
2.328951071645463810e-22
1.731960089164366210e-22
1.310787376555226748e-22
1.009204439082841967e-22
7.894937548398520143e-23
6.239774023250108995e-23
4.947839269997134395e-23
3.908653194922635317e-23
3.054903475208033224e-23
2.347820276620571052e-23
1.765295608456705555e-23
1.293687077429808575e-23
9.222109794038152939e-24
6.396351484322740786e-24
