# bin_19_7
5.831228597364629459e-32
6.548585605885883461e-32
7.222586654913973113e-32
7.788748624976160154e-32
8.164728434814330854e-32
8.266648690783143765e-32
8.001965576340279008e-32
7.311155125258900434e-32
6.316784477063289381e-32
5.203469188859250016e-32
4.279302979098108363e-32
3.675298723560493232e-32
3.118056622734892198e-32
2.291446283554078659e-32
1.627303301058168427e-32
1.320453300235207434e-32
8.759296227752617507e-33
6.645797634957580392e-33
4.581627317587783961e-33
3.175362003039669840e-33
2.230083692870965835e-33
1.567840598627995906e-33
1.112916444055692803e-33
8.008997130538663555e-34
5.879949683394075966e-34
4.399533701865607428e-34
3.347638898112435638e-34
2.579161717516161503e-34
1.998242570296867517e-34
1.545512330362622327e-34
1.184976754550124383e-34
