# bin_20_9
5.175257792274400052e-27
5.831691037035442199e-27
6.458180537430010412e-27
6.999505392980096075e-27
7.383720938063893429e-27
7.528920171052133857e-27
7.365114996731261946e-27
6.808252947870869236e-27
5.951046993384109637e-27
4.933827961762400865e-27
4.041054101226924353e-27
3.441892894882610011e-27
2.959236752092232416e-27
2.247220806466267425e-27
1.560429067341977360e-27
1.267415668354423208e-27
8.604718126924431821e-28
6.469268229726083460e-28
4.376721772630917001e-28
3.060758680799049620e-28
2.142423871329804623e-28
1.499383996824991308e-28
1.054579473442563017e-28
7.498665053262247707e-29
5.434248419599517861e-29
4.015828010912766034e-29
3.022944877108383927e-29
2.311289156900919887e-29
1.783911408215439394e-29
1.379990737794295836e-29
1.062058638599036116e-29
