# bin_16_12
4.954208711304625479e-13
5.564607590942950352e-13
6.138579385625180330e-13
6.621428296689181343e-13
6.943250257977049188e-13
7.032396094606423922e-13
6.810865458325727999e-13
6.226424786294621118e-13
5.382692450065954486e-13
4.435256044671481185e-13
3.646600879732798220e-13
3.130712511239052652e-13
2.658143974503616400e-13
1.956606363557673400e-13
1.387455686602520205e-13
1.126504721140102755e-13
7.475867075617925737e-14
5.673189071366500086e-14
3.906958541494194371e-14
2.707941135480211200e-14
1.901780022218708439e-14
1.336862692803527114e-14
9.485211830428797794e-15
6.821811616960420338e-15
5.005213060337204289e-15
3.742832541776346392e-15
2.846543491624142396e-15
2.192366452633042983e-15
1.698320831245012824e-15
1.313600090647525302e-15
1.007376710022113756e-15
