# bin_14_10
2.779387284174559034e-13
3.102462745864963661e-13
3.396546215963211795e-13
3.629297935226142207e-13
3.760196093657859268e-13
3.756608834362096728e-13
3.566849346234552099e-13
3.197376042948702095e-13
2.708951521595501359e-13
2.217142168730694664e-13
1.846271232782323380e-13
1.598721956773735227e-13
1.307315780617046197e-13
9.176174221582554727e-14
6.952070008289798800e-14
5.330552634718348386e-14
3.655434654575016126e-14
2.641142390012442903e-14
1.891130186752212707e-14
1.322969960340525503e-14
9.300521897863718483e-15
6.615704674922859407e-15
4.775687869815318681e-15
3.507232998679026628e-15
2.626462174563897662e-15
2.000214588988571237e-15
1.543124117566569571e-15
1.198521700918208148e-15
9.303576584436320848e-16
7.167386594407338384e-16
5.446981310402049047e-16
