# bin_16_15
6.211380589757060519e-11
7.001866683767365700e-11
7.757541651732004308e-11
8.412413826349925038e-11
8.880281911602177290e-11
9.062050988089142335e-11
8.874982306262682493e-11
8.214874875148692682e-11
7.189804889526917308e-11
5.965905173215916269e-11
4.884926074790044701e-11
4.156313670002884253e-11
3.577287286336720523e-11
2.726791682001286203e-11
1.890683505178961436e-11
1.533434106195148078e-11
1.046008604132482039e-11
7.839957424914990406e-12
5.296970150302976994e-12
3.712463921782487904e-12
2.596161427520377454e-12
1.815081875807041358e-12
1.275312973705164312e-12
9.056387741166767914e-13
6.553265715749299695e-13
4.835610081892271897e-13
3.635206557671448034e-13
2.776635080695722810e-13
2.141860645238712392e-13
1.656727237734494516e-13
1.275468986289260713e-13
