# bin_18_12
1.513677080406763217e-15
1.705269836397139548e-15
1.887932123349618090e-15
2.045469364554106038e-15
2.156816237141695134e-15
2.198146080217081454e-15
2.148778805795288938e-15
1.984667853837013483e-15
1.733384047991116832e-15
1.436357719905677430e-15
1.176689341993354198e-15
1.002862045039473137e-15
8.616088793939437225e-16
6.527734763770375884e-16
4.537417249855060004e-16
3.688089562209542520e-16
2.497141269186860475e-16
1.880555947232827527e-16
1.273528801235226388e-16
8.895238038332746832e-17
6.229512996470691610e-17
4.362159524355295590e-17
3.070080945613343876e-17
2.184819737822876313e-17
1.584825941765195602e-17
1.172246542272815281e-17
8.831467891944096346e-18
6.756535721201576573e-18
5.216649042288874456e-18
4.035670129656401112e-18
3.105212208170482983e-18
