# bin_15_2
5.886737880017691668e-45
6.513429950462671965e-45
7.054188549346687671e-45
7.436773853051154653e-45
7.579412888110996623e-45
7.411163151327438990e-45
6.849170819191541502e-45
5.985625157174116472e-45
4.962654614070753629e-45
4.063998702244119535e-45
3.458819557759302368e-45
2.971644442697600348e-45
2.260446050930423709e-45
1.574207220721410488e-45
1.277472651673491966e-45
8.765627640965142389e-46
6.606670530243609740e-46
4.540022451012928308e-46
3.235325583474153693e-46
2.312299989826949444e-46
1.661615381220560704e-46
1.207628791416458663e-46
8.911235739798844712e-47
6.705216813499032714e-47
5.131073846219734582e-47
3.975112590876755996e-47
3.099953686483958698e-47
2.415842831395075307e-47
1.868476197288386699e-47
1.425413279599490190e-47
1.067414690447200598e-47
