# bin_13_8
4.313318298233652827e-15
4.788012061609616146e-15
5.206236906801021249e-15
5.515918214724861320e-15
5.654570952720662662e-15
5.574327928129213581e-15
5.202085845568742728e-15
4.588551339460095451e-15
3.830389016915201718e-15
3.132070244960232719e-15
2.644872672292618560e-15
2.285681898818306628e-15
1.786992849610845995e-15
1.236698659502619259e-15
9.873269354710994216e-16
7.034902365300765600e-16
5.147370134129059336e-16
3.541832194668473519e-16
2.555151372168452771e-16
1.812085975509794913e-16
1.290627031202451431e-16
9.313720343061064987e-17
6.819478507221641310e-17
5.089204718249255830e-17
3.866974768937974589e-17
2.979911166711330814e-17
2.316979348173679524e-17
1.804931252274571258e-17
1.398702887811789102e-17
1.071258759548802750e-17
8.066882362850522603e-18
