# bin_2_1
2.828370795731191731e-10
2.795367835480692033e-10
2.623091081856297974e-10
2.327606720997008866e-10
1.957329496398715035e-10
1.603201042808086156e-10
1.343486303509370141e-10
1.155213126773458274e-10
9.225582064416349372e-11
6.554561458282361161e-11
5.070633669478208039e-11
3.810612230880427670e-11
2.751906940412121561e-11
2.023411610832578813e-11
1.498433574251855517e-11
1.114335577888265723e-11
8.435319704078323412e-12
6.509125394026258654e-12
5.111916104578463333e-12
4.069048275529166308e-12
3.262006481111765054e-12
2.613471966994248056e-12
2.077347952826427541e-12
1.627182162010877134e-12
1.248708846772180883e-12
9.345900371740829430e-13
6.804705044952616565e-13
4.816959871255263534e-13
3.320602650676852979e-13
2.235367938926932668e-13
1.474532001202971705e-13
