# bin_8_3
7.312891551478353697e-17
7.849595390219182324e-17
8.185715203068202798e-17
8.242726357816732483e-17
7.920646669374464207e-17
7.186323698245564437e-17
6.165960028332545662e-17
5.065559810658656039e-17
4.179198073704098181e-17
3.596266314435585881e-17
3.015942625871114890e-17
2.190481921152976910e-17
1.593433987032665203e-17
1.276306335082840233e-17
8.682374671102785808e-18
6.580380081374786242e-18
4.700277916944826868e-18
3.378169875930171906e-18
2.468956315587879654e-18
1.827556121468675952e-18
1.376730460318501595e-18
1.055157890480660266e-18
8.217010770043145637e-19
6.462787493794476088e-19
5.099677022870948846e-19
4.009281407846370873e-19
3.118771687148102624e-19
2.386382343553554828e-19
1.787305473108650773e-19
1.305351663230735221e-19
9.278691767599230222e-20
