# bin_4_2
2.096841929366041511e-11
2.162041758810837468e-11
2.148633796636934446e-11
2.028665706517995273e-11
1.810033341767238686e-11
1.528104251329293655e-11
1.250730441233972563e-11
1.043971977505374951e-11
9.007292574903788510e-12
7.290220036273726988e-12
5.159639245390187056e-12
3.954781104781070484e-12
3.014132612347581971e-12
2.139086408185930266e-12
1.571893239889965644e-12
1.157082024652361506e-12
8.490608041622602323e-13
6.330868522503787642e-13
4.809967900312749952e-13
3.722032685212109889e-13
2.925316400535849601e-13
2.323454059808628111e-13
1.851377309236644597e-13
1.469282892880149439e-13
1.153345073241970196e-13
8.898583803730843771e-14
6.713386494694349230e-14
4.934369809451724735e-14
3.526542511581700599e-14
2.452141576580462468e-14
1.662482418582282399e-14
