# bin_20_8
1.197268509323183558e-30
1.348058382304810106e-30
1.491462383217320623e-30
1.614590471364117577e-30
1.700738286810395838e-30
1.731312614184978309e-30
1.689543916600642699e-30
1.557454882017286413e-30
1.357655448849797629e-30
1.123677959027763446e-30
9.210123029856654791e-31
7.861228128033416764e-31
6.741808040935507078e-31
5.079620997148598903e-31
3.540263203668171502e-31
2.881713463461320862e-31
1.939454905954559661e-31
1.465721639668989705e-31
9.951709092450409359e-32
6.932355344042423530e-32
4.860052223619616333e-32
3.407142015516387933e-32
2.401579312510853655e-32
1.712424466411664339e-32
1.244893726915345106e-32
9.227824269131805304e-33
6.965269275347436419e-33
5.336253898199930660e-33
4.123196786581701346e-33
3.190012977652357838e-33
2.453186005994434676e-33
