# bin_18_6
1.545875017718886129e-37
1.730605550962699347e-37
1.901549477093263902e-37
2.041207906648152318e-37
2.127501540586492617e-37
2.140256137457377303e-37
2.052337599692888515e-37
1.857145139808220933e-37
1.588764467921496665e-37
1.303188773821606241e-37
1.077003070153680552e-37
9.297938654936040410e-38
7.764776159227143223e-38
5.561929325656688936e-38
4.067942927004050363e-38
3.232920844206809151e-38
2.157860283124158145e-38
1.612216308555122230e-38
1.131424500635170090e-38
7.862368446427938552e-39
5.518320143190731942e-39
3.893149635357152887e-39
2.784701826399486105e-39
2.023595026510786526e-39
1.500230125051573364e-39
1.132573826529800499e-39
8.680413482215634494e-40
6.718055286199188239e-40
5.212635050513902238e-40
4.025584072485158980e-40
3.073981615157288936e-40
