# bin_17_10
1.676491072057454117e-15
1.881082254373766890e-15
2.072611631694140000e-15
2.232463638065588152e-15
2.336956727210866121e-15
2.362517976716936383e-15
2.281912094048913848e-15
2.080111616885686301e-15
1.793001361035331717e-15
1.475079959178571867e-15
1.213854835923662946e-15
1.043664134962544813e-15
8.827183456937282996e-16
6.447836561015296029e-16
4.602098832315328639e-16
3.725803763537332004e-16
2.466849613122645853e-16
1.870009466499736143e-16
1.293737850897798443e-16
8.961716308872399244e-17
6.292202394175054063e-17
4.424034201827028488e-17
3.144447709726045114e-17
2.266978929633235742e-17
1.667517810149331605e-17
1.249915858198027873e-17
9.524956171783997462e-18
7.345568657594978160e-18
5.693070165420077525e-18
4.401936565448126523e-18
3.372126979730196953e-18
