# bin_13_12
5.563214828719088145e-06
6.217018897522246829e-06
6.816352241128114948e-06
7.297323214933117043e-06
7.579629620586444646e-06
7.595106881178548830e-06
7.242146930129006787e-06
6.517722649558213109e-06
5.544327121106926080e-06
4.540300838849033044e-06
3.766765199849821963e-06
3.258559622926665356e-06
2.690935122083706410e-06
1.903231289790941731e-06
1.419443833673852182e-06
1.106938441189154256e-06
7.484518037285324928e-07
5.494892723872975948e-07
3.901411223522699038e-07
2.720372068921574848e-07
1.909713068558719427e-07
1.352917332990824656e-07
9.726129666574692082e-08
7.109651050452584504e-08
5.300971132275293136e-08
4.021972122777860693e-08
3.094406199054277351e-08
2.400005753927272228e-08
1.862886662372547366e-08
1.436790340009503047e-08
1.094219713693084952e-08
