# bin_15_10
4.574048672599474693e-11
5.114307767513235949e-11
5.610972161460181370e-11
6.011736275880390883e-11
6.250791980656179799e-11
6.271004207067068695e-11
5.989685707366875340e-11
5.399233207674749862e-11
4.600570059324905357e-11
3.769076712883489708e-11
3.123175547264107922e-11
2.700456176292785271e-11
2.237808359428525791e-11
1.588387417234023208e-11
1.177731748808124131e-11
9.239061911593238299e-12
6.220073388976897569e-12
4.592390367562771249e-12
3.249271889676986120e-12
2.263251896145302763e-12
1.588596130161945186e-12
1.123929766501769448e-12
8.067814680930324589e-13
5.887248145973809565e-13
4.382272584142135878e-13
3.320136483939306460e-13
2.551656405938601840e-13
1.977890086473780685e-13
1.535136951321709983e-13
1.184500523883144263e-13
9.028166023945926955e-14
