# bin_11_6
1.283880734922625976e-12
1.410481800094194478e-12
1.514310305338861779e-12
1.579121105189080959e-12
1.589799392619759883e-12
1.526706970802817046e-12
1.383758857522383212e-12
1.185888294886782172e-12
9.733193925257878295e-13
8.031826421841782288e-13
6.922031703801840955e-13
5.799967497846820133e-13
4.185024901985853224e-13
3.045165046245792432e-13
2.437952568579226882e-13
1.637783832493377573e-13
1.237388761256745150e-13
8.760987595306636264e-14
6.195742835043659287e-14
4.448145971690622564e-14
3.223247518798296114e-14
2.374647038459430168e-14
1.780103874108300472e-14
1.359322283190597069e-14
1.052626811047962438e-14
8.220460014558861354e-15
6.431505089246981339e-15
5.004546195684209369e-15
3.848370922068342497e-15
2.908646605084534986e-15
2.151620543532783743e-15
