# bin_13_11
1.198611850018013266e-06
1.337281375207255389e-06
1.463254330478931871e-06
1.562583940207351183e-06
1.617806994665704535e-06
1.615053501344618525e-06
1.531974239245200313e-06
1.371978642742747288e-06
1.161215151257644557e-06
9.499253017881770591e-07
7.912006438217992474e-07
6.851226387470773126e-07
5.593357276517455728e-07
3.917910787950079016e-07
2.975235930208654296e-07
2.275162455658591156e-07
1.562363728143840851e-07
1.125653023967724930e-07
8.073746652038391578e-08
5.649197799826426421e-08
3.969993401931925016e-08
2.824926123386749165e-08
2.040124663843916681e-08
1.499058233107702926e-08
1.123195174299320409e-08
8.557789682876036573e-09
6.604377320845117973e-09
5.130250783315427061e-09
3.982087225472747567e-09
3.066880245396307832e-09
2.329622958417697806e-09
