# bin_10_4
7.324314735444565546e-17
7.971072142409887611e-17
8.457985597566661860e-17
8.689533662639201997e-17
8.594085314735039314e-17
8.055218850422990204e-17
7.134621260141845501e-17
5.976842090754359507e-17
4.883828374827296450e-17
4.103872866845009694e-17
3.549093093091241694e-17
2.815236735128172753e-17
1.954495007759840004e-17
1.540646711412774384e-17
1.128647364439121174e-17
8.141696972639130164e-18
5.726287438413659990e-18
4.191966752421197633e-18
3.012657398966773326e-18
2.182938536454442482e-18
1.609469660919376917e-18
1.206762258799443282e-18
9.213677963870674450e-19
7.143349208324633022e-19
5.591804965325721600e-19
4.391498697197337742e-19
3.435479170049198932e-19
2.659156689742976852e-19
2.024823351039727336e-19
1.509731867129387065e-19
1.098337370061572533e-19
