# bin_13_5
4.469216148550866568e-23
4.931587182894779441e-23
5.323526192882925846e-23
5.589668235331295199e-23
5.671055309003515738e-23
5.509002238004345908e-23
5.053602537803711062e-23
4.384327447677563218e-23
3.618339490602822449e-23
2.968159232107889474e-23
2.539101839668309034e-23
2.166264236189716757e-23
1.614620523402518178e-23
1.135970853147844717e-23
9.258384918354221209e-24
6.225750957437916367e-24
4.749249572412010166e-24
3.290461684528431153e-24
2.326216547415792205e-24
1.668450067094657085e-24
1.203779861459837076e-24
8.791840481862538494e-25
6.524725764130205891e-25
4.937375727095019660e-25
3.796064031940027762e-25
2.950680629563735687e-25
2.304683791076531885e-25
1.795610015601074510e-25
1.386112604487314708e-25
1.053933726071567879e-25
7.857206546453842765e-26
