# bin_18_10
4.260921986728409279e-18
4.788858288399630304e-18
5.287082784675521735e-18
5.709025380021907733e-18
5.994957258112066756e-18
6.081669080067236662e-18
5.905221412249319516e-18
5.413186289710320414e-18
4.692566900400664567e-18
3.871034743989045564e-18
3.177333215983499226e-18
2.721772833952165508e-18
2.320341504722559000e-18
1.721755181359400765e-18
1.210728939808895979e-18
9.865819912935844111e-19
6.553575022394642524e-19
4.981430241230098689e-19
3.410633752194136169e-19
2.363132388434367423e-19
1.659225910954602221e-19
1.165252509339767321e-19
8.245243638012618740e-20
5.909488006131685681e-20
4.320448013065601870e-20
3.220062577549599812e-20
2.442130671533267002e-20
1.877320634731949078e-20
1.452999484519216766e-20
1.124016369740044566e-20
8.628728497880753737e-21
