# bin_15_8
7.913017895882135059e-17
8.821675663219910167e-17
9.643548316923272017e-17
1.028601309972418145e-16
1.063338563450220334e-16
1.059624413350405288e-16
1.002656299784890802e-16
8.958881839708366858e-17
7.565259828015732383e-17
6.186391826118471197e-17
5.162707632836645589e-17
4.471456529350969075e-17
3.629537833002024648e-17
2.532497731104673415e-17
1.939539967735124061e-17
1.468714949182240201e-17
1.016971280979101766e-17
7.259815079430750513e-18
5.228805358133776108e-18
3.664935258383072089e-18
2.577924286338525999e-18
1.838367670403687111e-18
1.330437181278969824e-18
9.799186195575282819e-19
7.358481670047288868e-19
5.616976596295354908e-19
4.340546026701973491e-19
3.373777470165860381e-19
2.618471742113772835e-19
2.015188745257832797e-19
1.528844338057368263e-19
