# bin_15_11
4.453456931417654206e-09
4.986631190191915313e-09
5.480529347867591345e-09
5.884821935865788429e-09
6.135962818499905193e-09
6.175445996157778912e-09
5.925570847142935642e-09
5.365491720006126573e-09
4.593200803377018273e-09
3.768537908932656070e-09
3.113227303129401666e-09
2.686761123173693032e-09
2.246367002737665745e-09
1.611864001819436374e-09
1.176227221644433200e-09
9.365202185674519463e-10
6.244893615573317233e-10
4.672906311000014882e-10
3.275076852264972155e-10
2.275097465128395657e-10
1.596859377907354939e-10
1.126169445352486458e-10
8.050585820752008818e-11
5.846029577578417812e-11
4.331020906942943190e-11
3.267567568214904041e-11
2.503112810131736742e-11
1.936650109432171504e-11
1.502537276268744305e-11
1.160503627651368142e-11
8.864285451801028451e-12
