# bin_3_3
2.339390633743466954e-05
2.409644918009835017e-05
2.391884502609388521e-05
2.254848701081176617e-05
2.008790829022046043e-05
1.693277491430199367e-05
1.385066407782210163e-05
1.156868337467582718e-05
9.982769677084087887e-06
8.055143624984326852e-06
5.685255219548320733e-06
4.376086387361655304e-06
3.320153097146239391e-06
2.363374982155205009e-06
1.731027156083201998e-06
1.276148104143973108e-06
9.369762640057376590e-07
6.989637562521256297e-07
5.313861673832426127e-07
4.114538238548772593e-07
3.235583374777587921e-07
2.570700983977523220e-07
2.048507935169090849e-07
1.625393525657238857e-07
1.275297183805706729e-07
9.832698716432894137e-08
7.411533268566251561e-08
5.441936702666379016e-08
3.885069398235156232e-08
2.698576021318326437e-08
1.827792488109143619e-08
