# bin_11_7
5.179521351426517979e-10
5.704763283624397099e-10
6.144033890810728289e-10
6.432603085856517904e-10
6.505265716315634542e-10
6.288862323152209880e-10
5.739286335415073078e-10
4.953297630890190927e-10
4.077456445730469017e-10
3.352293697452560045e-10
2.877528945308396862e-10
2.437917349042684414e-10
1.791548577558804893e-10
1.276605879217653662e-10
1.035735519586603364e-10
6.935110346320584840e-11
5.286408048952705873e-11
3.695725348801822609e-11
2.609825384796120092e-11
1.873103746888054840e-11
1.353588470725172619e-11
9.922057820362496904e-12
7.395114622666311673e-12
5.618189782452674556e-12
4.333225091409587272e-12
3.375386327343006572e-12
2.638632397545998883e-12
2.054908312352546989e-12
1.583807067061989748e-12
1.201259340454354413e-12
8.926356259332970405e-13
