# bin_5_5
1.608598200491399616e-05
1.712920279187299356e-05
1.768354356188743231e-05
1.759887921291994358e-05
1.663765395556480317e-05
1.485775551163825155e-05
1.254648442215105191e-05
1.026076252971126373e-05
8.556808083319330320e-06
7.395741668027295781e-06
6.002086936945221572e-06
4.223217348283790239e-06
3.234127817978600972e-06
2.467254468735685042e-06
1.734276394040104030e-06
1.265643629781159597e-06
9.267277463377564162e-07
6.711836027134109013e-07
4.925558116440046120e-07
3.680095708862244733e-07
2.800492921530068097e-07
2.167757744325584270e-07
1.700832048092818805e-07
1.343780336716383390e-07
1.061713165241124487e-07
8.330136449617148849e-08
6.447547617485873489e-08
4.895937640524341460e-08
3.631233166603966588e-08
2.622374952370821230e-08
1.842312105391167951e-08
