# bin_5_1
3.778974283755379270e-12
3.900160052006255734e-12
3.881365889002894377e-12
3.670583275044201019e-12
3.279697499610210544e-12
2.771468631505073260e-12
2.267092920637518373e-12
1.889034856499448123e-12
1.631115543312727078e-12
1.326497986138570876e-12
9.374162331518916949e-13
7.158879194934558407e-13
5.492178567137206934e-13
3.872226289138267683e-13
2.852568772438164725e-13
2.101892468884830899e-13
1.539987382021898843e-13
1.146424112737869939e-13
8.700307617589199737e-14
6.726564788207758939e-14
5.282878953537998324e-14
4.194154260632762595e-14
3.341521406888847896e-14
2.652258531765092860e-14
2.082777577100025291e-14
1.607925197294275090e-14
1.213979233397684698e-14
8.929941347443875174e-15
6.386843030110866226e-15
4.443771879697114965e-15
3.014169143417265752e-15
