# bin_12_12
9.240990470173185696e-06
1.030888711997516961e-05
1.127837017452236342e-05
1.204181624335269711e-05
1.246452070586643496e-05
1.243992291781099775e-05
1.179564659431150274e-05
1.056009068645464854e-05
8.934778175134926964e-06
7.308630436421465462e-06
6.089196684882918676e-06
5.272963392323961659e-06
4.301125718513945400e-06
3.011018302188323965e-06
2.289465090967538686e-06
1.748186680134602019e-06
1.201985066688323882e-06
8.648088860937518384e-07
6.206656119232452915e-07
4.343917875718596147e-07
3.053138548327072146e-07
2.173227623614404764e-07
1.569968204017029351e-07
1.154004596532588198e-07
8.649448095516733153e-08
6.591982005919880796e-08
5.088291449883292819e-08
3.952922040835087160e-08
3.068201147209232745e-08
2.362770126510942974e-08
1.794437653949544332e-08
