# bin_20_18
2.252837074477178839e-06
2.556935552782130566e-06
2.856862032982288901e-06
3.130429054668473601e-06
3.347871804119927537e-06
3.471810194071014686e-06
3.471899616156343267e-06
3.300190051886170726e-06
2.961026397354455381e-06
2.510581426192474165e-06
2.054710548372066564e-06
1.709744945894633446e-06
1.481030185013108686e-06
1.213636420041690847e-06
8.508482832959196331e-07
6.419169734356574184e-07
4.923304579471420562e-07
3.338970948162822488e-07
2.395248841905518126e-07
1.690834565862340894e-07
1.157244027825067452e-07
7.902075263132997578e-08
5.423061162956342148e-08
3.752871531665876405e-08
2.628320011763536204e-08
1.874591681552279976e-08
1.363517647997188381e-08
1.012647550270692558e-08
7.659001155011538753e-09
5.868372488918723358e-09
4.522440914828064296e-09
