# bin_12_9
9.662110361136428425e-13
1.069960893127464727e-12
1.160001209723574330e-12
1.224522522480284423e-12
1.249877135562456930e-12
1.224822202915853950e-12
1.134786641979382069e-12
9.941283881223893973e-13
8.254913844391942854e-13
6.755742291543404800e-13
5.738820066061929597e-13
4.941392846785757328e-13
3.784703883741117259e-13
2.626980898169245028e-13
2.127561648663915970e-13
1.470710562555084223e-13
1.103141110871920484e-13
7.558465982808655818e-14
5.403119515769461133e-14
3.855600189502197117e-14
2.766052543808248332e-14
2.006551371510353075e-14
1.478392036861857889e-14
1.110343591285873053e-14
8.484836456009997435e-15
6.568743871235284011e-15
5.122453106639992592e-15
3.994843785862374217e-15
3.094048871171615095e-15
2.365057194165344466e-15
1.775440298818392523e-15
