# bin_18_15
3.032420483376047431e-12
3.421470793745073887e-12
3.794949982952664746e-12
4.121002807337322972e-12
4.357723149366905459e-12
4.455794808128156886e-12
4.376340785584600244e-12
4.064500800501998017e-12
3.568829177298962901e-12
2.967837156867137905e-12
2.428436142680895408e-12
2.060746345018870612e-12
1.778098213954619165e-12
1.368208159522270189e-12
9.455976195549668633e-13
7.637089848873718511e-13
5.275372626414127728e-13
3.919882094034452944e-13
2.640309272206056996e-13
1.861340371326025548e-13
1.297854380246186916e-13
9.044497683893532577e-14
6.334435464059462115e-14
4.483499940726068754e-14
3.230235093638518199e-14
2.373496833700419215e-14
1.777893454828327964e-14
1.354381098432126181e-14
1.043314505919924745e-14
8.070422364186463000e-15
6.221760712751086361e-15
