# bin_18_1
5.852208143488086086e-86
6.519459190248878774e-86
7.120176280793450291e-86
7.585240522259958272e-86
7.828659905096291417e-86
7.785512975934243766e-86
7.346385986972026850e-86
6.547125244458193337e-86
5.514861031656773006e-86
4.509435752645267170e-86
3.773727167401303546e-86
3.269329152711598914e-86
2.634069556646630825e-86
1.831106564743567168e-86
1.417408584646560936e-86
1.059754452122910172e-86
7.423779786963124700e-87
5.240956672407731825e-87
3.789576795522703493e-87
2.662473299388882788e-87
1.876260392618136572e-87
1.341763959788746864e-87
9.737541644887512184e-88
7.195130344743890252e-88
5.418357521696025135e-88
4.147038041352093137e-88
3.211251380637259348e-88
2.499198560811265641e-88
1.940780461920254142e-88
1.493533562189997071e-88
1.132463511158845526e-88
