# bin_10_6
4.835773099255020587e-15
5.284164285946599440e-15
5.635076896777451746e-15
5.825444829291849200e-15
5.805897435396401424e-15
5.496194746527812760e-15
4.913583784025455211e-15
4.152221039167157005e-15
3.396347210054385419e-15
2.832673606037258688e-15
2.451900877787554891e-15
1.993585448091259679e-15
1.397220276545083876e-15
1.068730706308350054e-15
8.146391679910629674e-16
5.674416726718049332e-16
4.106694856536237383e-16
2.985691434302725495e-16
2.130289129252383858e-16
1.533937051739602105e-16
1.122956221778435733e-16
8.366272695437134079e-17
6.347418306219891659e-17
4.896239714913033989e-17
3.821200537009176908e-17
2.998425385111664750e-17
2.349045641458758037e-17
1.824630832215524804e-17
1.396820146441298483e-17
1.048669643591818090e-17
7.690998102575644708e-18
