# bin_10_5
7.601462859480236530e-18
8.280883540985540988e-18
8.797111930478781860e-18
9.050578201788966497e-18
8.966725189010669550e-18
8.422262967789209765e-18
7.474577129616062803e-18
6.272734573764482601e-18
5.127096865655692243e-18
4.303092423594311233e-18
3.723686893769399610e-18
2.968857103893496067e-18
2.063245333315629041e-18
1.618325695047674739e-18
1.194848163579965171e-18
8.561063933454972824e-19
6.047263169677194250e-19
4.427715413691157153e-19
3.177877045107964541e-19
2.299539036577230883e-19
1.693602569768268882e-19
1.268922016801784804e-19
9.681326284121409382e-20
7.502438120825269282e-20
5.873677447607535033e-20
4.615715039017313505e-20
3.614939766014289819e-20
2.802585526827226758e-20
2.138414583515891757e-20
1.598273108307295069e-20
1.165871798318206140e-20
