# bin_11_4
3.116921715018031889e-25
3.400100871229057229e-25
3.618147684025848037e-25
3.730235359124984286e-25
3.705470901036087382e-25
3.492399278738468939e-25
3.109335957765176761e-25
2.617062977262199411e-25
2.139502136210482848e-25
1.790672178574802271e-25
1.550119503489779990e-25
1.246921563952059988e-25
8.689861019574574965e-26
6.744520411267383218e-26
5.051249431266296528e-26
3.572889637624597610e-26
2.548733569871890403e-26
1.862748826171828914e-26
1.333358956766988199e-26
9.623774212380006347e-27
7.069499549705448903e-27
5.283956575125809675e-27
4.021769211637658396e-27
3.110551489019839049e-27
2.432070510174700535e-27
1.910102739318633925e-27
1.496247322687243258e-27
1.161024570225948083e-27
8.871859447246049202e-28
6.644027681290864689e-28
4.858020835554183337e-28
