# bin_20_1
7.398680158674848594e-97
8.285198398809524220e-97
9.106430996285073822e-97
9.778519175286229800e-97
1.019556229126600415e-96
1.026040773138010018e-96
9.842992095403978929e-97
8.910491798545382069e-97
7.625934870920332778e-97
6.257316566920261310e-97
5.172425666721669609e-97
4.466360381936831876e-97
3.731630856797245025e-97
2.674431560184641616e-97
1.955747544252465686e-97
1.555059948571462057e-97
1.037971300424796621e-97
7.758009609638323221e-98
5.443705658015975651e-98
3.782908452781724476e-98
2.655209577225082974e-98
1.873197361735687601e-98
1.339566725877497245e-98
9.736868256598758489e-99
7.217289567734678636e-99
5.449209511004210902e-99
4.177669128398732166e-99
3.234555889575649539e-99
2.511244648929225558e-99
1.940914325759363363e-99
1.483552641752050379e-99
