# bin_17_11
1.345525772727254425e-17
1.509306578821463282e-17
1.662352905442995790e-17
1.789631679791657616e-17
1.872045712432598173e-17
1.890912101757009357e-17
1.823842841988201295e-17
1.660108778411973601e-17
1.428807274834025908e-17
1.174885017837166935e-17
9.680084654817167097e-18
8.334204328305913911e-18
7.031079923364269285e-18
5.111997732026359109e-18
3.669666357784502668e-18
2.961181724033396975e-18
1.962324691735914715e-18
1.484280238139895837e-18
1.030412924033153711e-18
7.141840921348170567e-19
5.014192497944685372e-19
3.527552422526431270e-19
2.510531520613076314e-19
1.814234141602593575e-19
1.336955865032756582e-19
1.004098665816243074e-19
7.665560387249958257e-20
5.919676664162252935e-20
4.592195453232866418e-20
3.552525021565847115e-20
2.721861529989601883e-20
