# bin_6_3
1.425565043403912579e-13
1.505726174754270409e-13
1.539020239892729504e-13
1.511785181984482927e-13
1.405754661418994804e-13
1.235975188779335538e-13
1.029779817567911827e-13
8.423401211161737614e-14
7.120680413676692435e-14
6.131474939717508550e-14
4.767960495024377245e-14
3.330048481099358000e-14
2.663455839217481117e-14
1.907936023905544085e-14
1.414282619414633752e-14
1.000622941757623138e-14
7.358073502691373544e-15
5.395748686082678071e-15
4.005011646674150266e-15
3.026859296631271436e-15
2.328351399288592025e-15
1.820119969320257971e-15
1.438286657890187917e-15
1.141110121153172546e-15
9.024799721351546208e-16
7.065879960422773196e-16
5.442884862722590827e-16
4.103720112786488970e-16
3.016714647529576187e-16
2.157452063456213364e-16
1.501178055889560207e-16
