# bin_13_3
3.631386754016490592e-40
3.985384775257375938e-40
4.273117126238291852e-40
4.448229852097261948e-40
4.469249055858912671e-40
4.278792845623683478e-40
3.866381518907066164e-40
3.303067313145098657e-40
2.708542881086182327e-40
2.240463240692192956e-40
1.934430411371232366e-40
1.611215863345371187e-40
1.153268538679967053e-40
8.489700190778838706e-41
6.733601848519092465e-41
4.548813482272223158e-41
3.410431799448800686e-41
2.430547642734910362e-41
1.721806509499641261e-41
1.236441954373048198e-41
8.977593990258954613e-42
6.631468414852617763e-42
4.987688812681965665e-42
3.818901617943254859e-42
2.964298155889415567e-42
2.319149008411510745e-42
1.816388130560673102e-42
1.413991451831846518e-42
1.087199795288622760e-42
8.212656110542182229e-43
6.069512824759419188e-43
