# bin_12_4
3.268928105844295948e-29
3.580446427562876357e-29
3.829429867408450464e-29
3.973691970627779224e-29
3.977911196738230553e-29
3.788650681273968398e-29
3.406385993005283171e-29
2.895085150975167127e-29
2.370611156026905266e-29
1.968040430948463857e-29
1.702088837321162588e-29
1.402932202127890882e-29
9.931065316559783451e-30
7.442234091839209158e-30
5.802579024306465652e-30
3.967650377507733263e-30
2.929759452898480052e-30
2.109013935318851630e-30
1.498641746363510883e-30
1.076910630090401155e-30
7.847220902416909892e-31
5.819838964894923387e-31
4.395410422297482041e-31
3.377491970973494606e-31
2.628670211100952189e-31
2.059709946673951627e-31
1.613610064841724512e-31
1.254984167381332216e-31
9.630597184712358476e-32
7.254536765839264684e-32
5.342565221255002110e-32
