# bin_16_11
1.257121734975259436e-15
1.407864566518457975e-15
1.547564848953827617e-15
1.661983440730638248e-15
1.733134794859570479e-15
1.744465938027178256e-15
1.673924219077964801e-15
1.515719205981468050e-15
1.297545195143734036e-15
1.064764135899294939e-15
8.800092679177086624e-16
7.598001141203427030e-16
6.351190217008323633e-16
4.554607788329438601e-16
3.327750289822783812e-16
2.648109907575465559e-16
1.766661505954538776e-16
1.321391554568265821e-16
9.267311942604512142e-17
6.439074522000886769e-17
4.519608010827919263e-17
3.187984926046482526e-17
2.279306936794140070e-17
1.656333953767292486e-17
1.227422759354168574e-17
9.265243887134544799e-18
7.102033975432252146e-18
5.498202358039553653e-18
4.268611931830054930e-18
3.299348459149245216e-18
2.522178583151078611e-18
