# bin_6_4
1.194015723002738798e-11
1.269049411146804607e-11
1.306915624846578906e-11
1.296695453618582487e-11
1.220777489955449437e-11
1.085918795621364175e-11
9.135417700071327918e-12
7.468917024898916293e-12
6.251880461311064869e-12
5.405459993777941244e-12
4.341658769575248569e-12
3.038069463793062518e-12
2.360204156176452573e-12
1.770887697674730700e-12
1.262522477333462141e-12
9.099623733744978562e-13
6.698443155803483710e-13
4.868014161768021852e-13
3.581738723854412623e-13
2.685778404007627845e-13
2.051066379161146098e-13
1.593173326502000824e-13
1.253396234123964102e-13
9.923268598199154836e-14
7.850217892521940564e-14
6.162020393120298112e-14
4.768350543257729069e-14
3.617853956759314086e-14
2.679813361251509998e-14
1.932232484679033273e-14
1.355303573603152696e-14
