# bin_17_1
2.390313511747942322e-80
2.654980252536602272e-80
2.889096002418957361e-80
3.063893127474775111e-80
3.144481750580473094e-80
3.104775065488832491e-80
2.902942150725299746e-80
2.565090715641712731e-80
2.144136069293226715e-80
1.752790655537197028e-80
1.477879808552364356e-80
1.278431239530619053e-80
1.004755412886453503e-80
6.946126972724960214e-81
5.526370034272878495e-81
3.967887191552115240e-81
2.884732923736976880e-81
1.985696643498918728e-81
1.436602321355394106e-81
1.017029505835594187e-81
7.228464566727341629e-82
5.208701637122741429e-82
3.809246069399404448e-82
2.838533926774025568e-82
2.154146926684820971e-82
1.658946105928558365e-82
1.289760520010817257e-82
1.005229301307545659e-82
7.798368197979380397e-83
5.982268410843476260e-83
4.513889672342755782e-83
