# bin_13_9
2.381051081243679399e-14
2.647204559167313523e-14
2.884117552957849724e-14
3.063392343042242554e-14
3.150201519839757890e-14
3.118704586216364603e-14
2.925975496686202936e-14
2.593673589221265725e-14
2.173993931239289017e-14
1.776656898052732401e-14
1.492988620050724467e-14
1.292267650479186558e-14
1.025946433731669641e-14
7.100304796091539487e-15
5.588980210280387507e-15
4.079743524355886060e-15
2.920561806329046369e-15
2.027612867514493054e-15
1.468873233230423424e-15
1.036409666107509705e-15
7.336895404004575277e-16
5.270627051701719261e-16
3.841207865925854532e-16
2.851863946490014321e-16
2.157114950621275646e-16
1.656348611514250051e-16
1.284998298244899843e-16
1.000317143314173158e-16
7.757441653824065596e-17
5.952995840115293607e-17
4.495897969467344494e-17
