# bin_18_16
2.000226330428900894e-11
2.261959308239662027e-11
2.515822382471353539e-11
2.741416340769023831e-11
2.911531815785954597e-11
2.992851844895656629e-11
2.960871943084480161e-11
2.774722479500663873e-11
2.456773532246129810e-11
2.056920888127917278e-11
1.681230717298639628e-11
1.415238600933658483e-11
1.225325118012629028e-11
9.680964625077058077e-12
6.677644304962511219e-12
5.280228773378619884e-12
3.805645145878880441e-12
2.726507719002815109e-12
1.856141337903337558e-12
1.326751581039508666e-12
9.172196911003761406e-13
6.321023588811914016e-13
4.395620952094839494e-13
3.083438791745875819e-13
2.197899111943389386e-13
1.597351246776273810e-13
1.183928118714232072e-13
8.941138789102542645e-14
6.847480476070294156e-14
5.283143364992115139e-14
4.075568692010013640e-14
