# bin_12_3
2.169800916106450353e-35
2.376095642963219308e-35
2.540811802723928024e-35
2.636013306209057020e-35
2.638336163156028564e-35
2.512454765470527924e-35
2.258653303372043216e-35
1.919402775533501649e-35
1.571322803073366975e-35
1.303972554736608981e-35
1.127402951303447454e-35
9.292986713654676732e-36
6.579827729692795843e-36
4.927009748045475057e-36
3.842807990871784598e-36
2.626577837898926335e-36
1.940174437281452643e-36
1.396031473815830843e-36
9.918496107811133681e-37
7.126798577944903563e-37
5.191862711552777402e-37
3.849435174638131274e-37
2.905452346253569798e-37
2.231666235121683285e-37
1.735714300356185001e-37
1.358960862921279294e-37
1.063721405754262362e-37
8.265010257185400294e-38
6.335524736998349580e-38
4.766710859907154950e-38
3.505943111710818892e-38
