# bin_8_7
1.026199422687466211e-10
1.118951549511827834e-10
1.190134823762082484e-10
1.226355240024302344e-10
1.217453364962988441e-10
1.146666660980606503e-10
1.020238369993388229e-10
8.582408282845608458e-11
7.014644857195641543e-11
5.871163367650740461e-11
5.080386526373779156e-11
4.081209513327732432e-11
2.844248173511145700e-11
2.209006504492504517e-11
1.651474321477143049e-11
1.169851586429812561e-11
8.339829429793364317e-12
6.091279541395511782e-12
4.361048086001859173e-12
3.148675684912466158e-12
2.313066129267716942e-12
1.728570125174553735e-12
1.315317736763728274e-12
1.017032558651229810e-12
7.947102539528282591e-13
6.236502374545942356e-13
4.880419054233458652e-13
3.782425922256095233e-13
2.886254823747585044e-13
2.158108363990124013e-13
1.575337074775485045e-13
