# bin_17_5
9.836833862645468419e-45
1.097675789953534416e-44
1.201330196541916685e-44
1.283215786357727174e-44
1.329011320490224321e-44
1.327275343053971652e-44
1.259675948800436378e-44
1.128681723426679921e-44
9.557669430060747607e-45
7.819198112810495963e-45
6.509906535108758376e-45
5.636909455732582847e-45
4.607788471259820142e-45
3.230163074104512380e-45
2.448505805445757003e-45
1.876367375613304975e-45
1.286173415441264730e-45
9.284940833248040032e-46
6.654041360928410501e-46
4.654133917870044419e-46
3.270045211069417926e-46
2.325815744747078260e-46
1.678942026520537577e-46
1.233055274846290441e-46
9.234626005395760402e-47
7.033282410174720892e-47
5.426386672035720296e-47
4.214682150911148785e-47
3.271516937849323375e-47
2.520030784241542569e-47
1.914755039605011748e-47
