# bin_20_10
7.723013337353118679e-29
8.707016439129950620e-29
9.648737513157472048e-29
1.046663488310113427e-28
1.105396674299620458e-28
1.128670695201893639e-28
1.106443333990266936e-28
1.025336352932771525e-28
8.983996280903447174e-29
7.459067317113618513e-29
6.103635589753716656e-29
5.186088704634985414e-29
4.468104192023392178e-29
3.418541100458531434e-29
2.365425257709869652e-29
1.915672662008061566e-29
1.312490584557325389e-29
9.808219333414333975e-30
6.611412194654525483e-30
4.642987438008549353e-30
3.243182763392725166e-30
2.264811342679016961e-30
1.589128011075022553e-30
1.126585950020044956e-30
8.136881809053647351e-31
5.993314851479830882e-31
4.498287620883205223e-31
3.431732337343353817e-31
2.645339985036235987e-31
2.045820391083756701e-31
1.575504801200555387e-31
