# bin_13_6
2.864245379724846691e-23
3.166343750523078976e-23
3.425681542499901108e-23
3.607078254818579974e-23
3.671203148654695240e-23
3.583123308827161280e-23
3.304284884820350507e-23
2.881683701628555855e-23
2.385393266139735524e-23
1.953501111339894669e-23
1.664704284235563927e-23
1.428157771022234155e-23
1.080199034087364995e-23
7.531474197069745381e-24
6.129389112568824853e-24
4.172402798092822060e-24
3.162628036044441092e-24
2.174316773484165211e-24
1.544403235295554612e-24
1.105406587169172634e-24
7.956343541402948843e-25
5.789649103787939015e-25
4.278265930539542630e-25
3.223974573761707846e-25
2.470234418368559717e-25
1.915489451950031799e-25
1.494457439306238469e-25
1.164592762487040036e-25
9.002522426187054831e-26
6.861358839874595128e-26
5.131552586673545484e-26
