# bin_16_5
2.691547991507209677e-40
2.995906412173066923e-40
3.268708995358822170e-40
3.478093703005569132e-40
3.584597893449833301e-40
3.558793339062363518e-40
3.350918105910153560e-40
2.980353855620315412e-40
2.505683298305543029e-40
2.047970089187971971e-40
1.715917690022778788e-40
1.486024168266542992e-40
1.191295649659661323e-40
8.263822085555123437e-41
6.434141464475170572e-41
4.771864717266298012e-41
3.366406186016108131e-41
2.361347225044665626e-41
1.709830705290812585e-41
1.202884198851830879e-41
8.487377819722614749e-42
6.078799746375657088e-42
4.417297259125561093e-42
3.268698796470671039e-42
2.465032359104144965e-42
1.888249072766178515e-42
1.462633876675091616e-42
1.137980658114268682e-42
8.828751797651873092e-43
6.783736309286027473e-43
5.133285316803928989e-43
