# bin_15_15
1.014876929276286719e-10
1.142360867021505831e-10
1.263511731654550253e-10
1.367416880373158263e-10
1.439949124201716432e-10
1.465378839429684675e-10
1.429596673196552477e-10
1.317372919729952312e-10
1.147993979036740634e-10
9.497766759831418225e-11
7.782062147604532375e-11
6.641176094792679163e-11
5.694931927434357716e-11
4.288619197745714948e-11
2.986909388568521918e-11
2.432685282735519636e-11
1.634627087865534392e-11
1.236579192023396288e-11
8.390775423326795074e-12
5.838915579417678619e-12
4.093913247655887404e-12
2.870324166511572133e-12
2.022736586877866850e-12
1.441949977642979701e-12
1.048081279159862262e-12
7.767858333810594766e-13
5.862680699669519955e-13
4.491231458223305864e-13
3.470090792287232125e-13
2.684576189559714943e-13
2.064335668579177248e-13
