# bin_15_5
5.565759968892960077e-36
6.178413919370833025e-36
6.718679996754389516e-36
7.119578056837947264e-36
7.300291719752684352e-36
7.200090307333840222e-36
6.723247330120271549e-36
5.933446820014299726e-36
4.954355696012578330e-36
4.049170612224455842e-36
3.415987543987456682e-36
2.953246709500124057e-36
2.313863364132618715e-36
1.599211602385383879e-36
1.275320034979458886e-36
9.113792764943084603e-37
6.651660495792729816e-37
4.570401237641430793e-37
3.303192399460475679e-37
2.340298503431571331e-37
1.664971046420944573e-37
1.200609762616454951e-37
8.783310239612309687e-38
6.549066183896710955e-38
4.972503461069521060e-38
3.829624581322299668e-38
2.976599604461709537e-38
2.318472860885166544e-38
1.796775749223464558e-38
1.376433528886564683e-38
1.036833360321053949e-38
