# bin_14_13
7.064459527841366312e-11
7.919240690539602552e-11
8.715724997644830845e-11
9.374834838356129991e-11
9.796348851709231510e-11
9.883877010344081505e-11
9.518492675843934589e-11
8.650384909271390952e-11
7.433239023273878133e-11
6.107235301840493351e-11
5.034065885430154743e-11
4.336124224059021066e-11
3.649238015280756786e-11
2.643540787535542990e-11
1.905189508866120207e-11
1.532306611177256476e-11
1.016535703603165195e-11
7.669652509762384750e-12
5.336741301251018266e-12
3.700595630238461818e-12
2.597805362199788330e-12
1.828524320004798089e-12
1.302967298587227926e-12
9.424345520588150380e-13
6.954903720807835035e-13
5.228786479262014747e-13
3.994318800440842335e-13
3.085158465765153876e-13
2.392417540218135294e-13
1.849041040731232084e-13
1.414669151001738576e-13
