# bin_6_5
1.263962332024775428e-10
1.353906913954216221e-10
1.408255256291745523e-10
1.413978178984798826e-10
1.353197334192592581e-10
1.222676383675726218e-10
1.044639782131755746e-10
8.566681144374301783e-11
7.081658121712775507e-11
6.104281334658264587e-11
5.084147951403527114e-11
3.656265898489986099e-11
2.690670266491110867e-11
2.136998576131288342e-11
1.457873706661674912e-11
1.098414114585755214e-11
7.897452053801364253e-12
5.679507505262258172e-12
4.152572828962728642e-12
3.079023873065660509e-12
2.324967497213431786e-12
1.786218655581701546e-12
1.393638589608389778e-12
1.097403158855432282e-12
8.662727894831287610e-13
6.807444346285158332e-13
5.288997183357316897e-13
4.039331390046633650e-13
3.017902821797382153e-13
2.197788198288370340e-13
1.557463088122790185e-13
