# bin_19_11
2.611946039917440175e-22
2.943010067595745442e-22
3.259034384572875462e-22
3.532253354067402786e-22
3.726471809714156206e-22
3.800228847653118423e-22
3.718799265588094090e-22
3.438994019098122446e-22
3.007195395173669192e-22
2.493339267674763393e-22
2.041124347082763143e-22
1.737186856565407699e-22
1.494365946287636314e-22
1.136578285576798123e-22
7.880259803279584711e-23
6.398928802629218643e-23
4.349058634461553684e-23
3.267788433506931538e-23
2.206857226020444730e-23
1.543790318798862812e-23
1.080181865413715334e-23
7.557043265270412769e-24
5.311073693704338776e-24
3.772898330045922977e-24
2.731514107058078776e-24
2.016671724144157359e-24
1.516842603795345850e-24
1.159069052466131106e-24
8.943013804898845339e-25
6.917556947173823677e-25
5.324565778250298419e-25
