# bin_18_11
7.442410896612451165e-20
8.373135204475619604e-20
9.255651248822556149e-20
1.000949228665134534e-19
1.053082620057533302e-19
1.070581725196115307e-19
1.042849652427894309e-19
9.593296117732949195e-20
8.345588920319342798e-20
6.897689970409967521e-20
5.654526129355724175e-20
4.831709138524402207e-20
4.136061934460710283e-20
3.099622001990696179e-20
2.164606629264151405e-20
1.764431314928236562e-20
1.180057604056167848e-20
8.948480695298384431e-21
6.088730374818283061e-21
4.228644966863193733e-21
2.966992280494868500e-21
2.081778206865104238e-21
1.469020524112616002e-21
1.049064577501640011e-21
7.639946904842889204e-22
5.672985657415584872e-22
4.288668706279353986e-22
3.289353948531692262e-22
2.543070243228497588e-22
1.967459504078031676e-22
1.512119994557710744e-22
