# bin_17_14
2.431095538828831585e-12
2.740315605499566106e-12
3.035999572238766249e-12
3.292421590458260734e-12
3.475951789955099693e-12
3.547702507802111878e-12
3.475818716266994737e-12
3.218833222873512285e-12
2.818493546986394901e-12
2.339062018007451198e-12
1.914290603371191003e-12
1.627394945342074305e-12
1.401360621691968169e-12
1.070131901037946567e-12
7.409750005791684799e-13
6.005747638492482622e-13
4.104396384816777549e-13
3.072320281120203265e-13
2.072340365349738074e-13
1.453578088945841593e-13
1.015854586505924042e-13
7.097859876857380487e-14
4.982827507715971152e-14
3.534782152081640465e-14
2.554956479832925423e-14
1.883282336225786190e-14
1.414447658898844885e-14
1.079624226811816291e-14
8.324631859265862575e-15
6.438303234915997284e-15
4.957319620470590169e-15
