# bin_1_1
8.637062407937224071e-10
8.344991797020848331e-10
7.627879933388044756e-10
6.598692225716498858e-10
5.451383633282400619e-10
4.484314833956608879e-10
3.824378478251327501e-10
3.229145519220000383e-10
2.421063606088192744e-10
1.743758385976949496e-10
1.389167206663417436e-10
9.839524962617671389e-11
7.416682330572324883e-11
5.385546689702331863e-11
4.006540084324613794e-11
3.021268137900419318e-11
2.318471272569118052e-11
1.812874834702405228e-11
1.439319655542096866e-11
1.154375212197721383e-11
9.281470682987492696e-12
7.424488129631139216e-12
5.867244779017225140e-12
4.551809135111361769e-12
3.449225423110860057e-12
2.544157352584117505e-12
1.824408565240874952e-12
1.272880261698692283e-12
8.661680638814225475e-13
5.767106014049120638e-13
3.769967341672035788e-13
