# bin_13_2
4.366002910055618573e-48
4.792725307889060846e-48
5.140467833110285135e-48
5.353754231479226340e-48
5.382291271098138638e-48
5.158006878263672913e-48
4.665450212478734693e-48
3.989833918504444007e-48
3.272235010724103600e-48
2.703754231343025265e-48
2.332460614293527634e-48
1.946946692237739551e-48
1.397697049336880847e-48
1.024136014454901217e-48
8.152260655370214584e-49
5.494285781580812395e-49
4.131714766580608900e-49
2.937008343904467944e-49
2.079072552756940243e-49
1.492786089014052804e-49
1.082950479824159878e-49
7.990909248865645639e-50
6.000570629541883020e-50
4.589007212943256053e-50
3.557657349510492666e-50
2.780253980575252802e-50
2.175571173999930421e-50
1.692326851079577183e-50
1.300373796833170714e-50
9.817493279398981195e-51
7.252098700830854776e-51
