# bin_17_7
4.953265089121358873e-08
4.508743404492753879e-08
3.992582793865408985e-08
3.438835273754590160e-08
2.886503961503240632e-08
2.371946758157603979e-08
1.918696762476795272e-08
1.533065834228181879e-08
1.206928933615223802e-08
9.299453923078450118e-09
7.014781113094831564e-09
5.261994071439784451e-09
3.968497773037873624e-09
2.981790665244515689e-09
2.252040345156948626e-09
1.716433789332324589e-09
1.319394087453811673e-09
1.022407359920316879e-09
7.969459657526867319e-10
6.225451677157653230e-10
4.853164670851865687e-10
3.759708075417777642e-10
2.882910580013949598e-10
2.180513078295043156e-10
1.622329373514916612e-10
1.184875470939436342e-10
8.483560504067438739e-11
5.951159556590895312e-11
4.090822964407671621e-11
2.757987351586222353e-11
1.826423187206744550e-11
