# bin_8_1
1.701913764766509092e-08
1.425387720013327569e-08
1.169732653427699342e-08
9.456936030012663012e-09
7.553711244577573781e-09
5.942347927147435336e-09
4.577540397603456365e-09
3.464207542091496168e-09
2.617883491761219826e-09
1.989824804225700901e-09
1.512718314911913086e-09
1.160403192215340008e-09
8.996879255709156980e-10
7.046199697738781477e-10
5.563328421418372854e-10
4.412060061918425216e-10
3.498345993786509670e-10
2.759953065541044541e-10
2.156674367592576684e-10
1.662529731925317401e-10
1.260153222380674358e-10
9.368232305494845449e-11
6.819367191974149498e-11
4.856683377592395299e-11
3.384542991224653160e-11
2.310229633577413382e-11
1.547162067918252755e-11
1.018768125216852827e-11
6.611386700912715730e-12
4.238395937020007317e-12
2.689978098383251994e-12
