# bin_17_8
5.317922071417368534e-08
4.873602929587553009e-08
4.346460749842515868e-08
3.770150272963858380e-08
3.184862716954943334e-08
2.630328368942682533e-08
2.135383958919783745e-08
1.711319233321368308e-08
1.352928480592576611e-08
1.048682680902763008e-08
7.946559119056888078e-09
5.955573674070355567e-09
4.482978725257867527e-09
3.370093343815684781e-09
2.533859544383480902e-09
1.925149114320426875e-09
1.472749705080920945e-09
1.136755130545139042e-09
8.831517604076271386e-10
6.883652877826783442e-10
5.361633002716910443e-10
4.155719797260674805e-10
3.192470933879434727e-10
2.422022303179172614e-10
1.809376095838987103e-10
1.328005055266193125e-10
9.561267982662410933e-11
6.747143679570959803e-11
4.666246410914183313e-11
3.164653562489379905e-11
2.107357273646949391e-11
