# bin_18_12
6.532866973943548279e-08
6.103810492645693751e-08
5.556664282907219155e-08
4.922045759966115404e-08
4.241860427853982682e-08
3.563412822195566094e-08
2.930334686098426367e-08
2.371089917721970136e-08
1.893804153802609055e-08
1.490051739159409192e-08
1.148147422505795037e-08
8.661462444205679163e-09
6.480938874395896981e-09
4.866099015347950459e-09
3.642188706124704382e-09
2.731188769954749556e-09
2.066197915962212550e-09
1.573793907571100398e-09
1.208290813001936114e-09
9.332225037011948148e-10
7.227956955281584181e-10
5.592839713537058466e-10
4.306499514064122249e-10
3.287359994891474821e-10
2.479331720785841609e-10
1.842464264154907297e-10
1.346254501163464703e-10
9.658133830444396760e-11
6.797676433710788177e-11
4.693315945922785849e-11
3.180315054891580589e-11
