# bin_10_8
4.632993541337261326e-08
4.204002880354219302e-08
3.712777859482220562e-08
3.191443164837311429e-08
2.675512304480017463e-08
2.196866973447361426e-08
1.775582384060371586e-08
1.416644529512023220e-08
1.113420864827304390e-08
8.576189422789432354e-09
6.479600689359399293e-09
4.865067072320004641e-09
3.667933106992299502e-09
2.761762464991041535e-09
2.087610949644698923e-09
1.593235698432848060e-09
1.225409351996537731e-09
9.500145349397135760e-10
7.404319779059824840e-10
5.780372101747851053e-10
4.501435536132675041e-10
3.482322495670457468e-10
2.665864646233613787e-10
2.012852688537768400e-10
1.495003530665824729e-10
1.090127844708294968e-10
7.794292684262756454e-11
5.461561831285491836e-11
3.751303959373604399e-11
2.527886860873447323e-11
1.673701383072700373e-11
