# bin_20_8
5.484906169476623485e-08
5.036850089001133813e-08
4.500951479843424790e-08
3.911238097717616002e-08
3.309041570321363209e-08
2.736005653016498528e-08
2.223103118950906255e-08
1.783160567873294376e-08
1.411320158158610935e-08
1.095263810365060545e-08
8.304202149419206909e-09
6.221438253139004670e-09
4.681686128188055614e-09
3.518403840870825053e-09
2.642654566067138405e-09
2.006069270847078169e-09
1.533051030031676708e-09
1.182282275979599266e-09
9.179466673932276422e-10
7.152631284533142754e-10
5.571347965480437802e-10
4.319893112683792624e-10
3.320856802542045199e-10
2.521777285052497591e-10
1.886019702734005503e-10
1.385999212992675264e-10
9.992054426565026193e-11
7.060567101004267477e-11
4.889308454829137172e-11
3.319896710020211055e-11
2.213082237725415700e-11
