# bin_20_13
6.928726663400507661e-08
6.506811192029774001e-08
5.955751930834337740e-08
5.304984393851798627e-08
4.596625643309462129e-08
3.880004009711088764e-08
3.202795770238653724e-08
2.598886217293921745e-08
2.080966137980241698e-08
1.642745807124589255e-08
1.271199457491783230e-08
9.619313024813271503e-09
7.194681846663561608e-09
5.394768888361924091e-09
4.037746558462767983e-09
3.018400834085765180e-09
2.277187784354761102e-09
1.728096181711884607e-09
1.322514045577720252e-09
1.018553067159701441e-09
7.872803093514701651e-10
6.085494580848486898e-10
4.685867392756425770e-10
3.580659696363739077e-10
2.705856231193518804e-10
2.016385312300997258e-10
1.478420691070606447e-10
1.064843906037872318e-10
7.527153031432663597e-11
5.220462710122382363e-11
3.553565309769484364e-11
