# bin_17_15
7.019630840222900798e-08
6.603741434511886665e-08
6.056639483330460885e-08
5.406998455638094534e-08
4.696306367707370052e-08
3.973618699696784967e-08
3.286842611183097777e-08
2.671174766041083004e-08
2.141148138660247678e-08
1.692301659465538164e-08
1.312239358184979922e-08
9.954421544156125018e-09
7.451528119630009674e-09
5.581618733357204678e-09
4.179006127453710965e-09
3.121840007561722075e-09
2.351354738139321911e-09
1.781601792756918372e-09
1.361145438496836589e-09
1.046473544907717434e-09
8.076842107945538014e-10
6.236576779362375179e-10
4.799285272642875662e-10
3.666891572096282989e-10
2.772040028269354114e-10
2.067404710315697056e-10
1.517718325235499655e-10
1.094925947763417944e-10
7.754890717226289791e-11
5.390278526630632093e-11
3.677901771679624445e-11
