# bin_12_11
5.610469049580165546e-08
5.176359209444410924e-08
4.650928076469487922e-08
4.066165585195786444e-08
3.461669704789150513e-08
2.878112159816352056e-08
2.348175481812501220e-08
1.888418020560691814e-08
1.498655873417550674e-08
1.169029824387742160e-08
8.925859769114867565e-09
6.707123277869046285e-09
5.032883582747628386e-09
3.785451801534479332e-09
2.840234688669249852e-09
2.146726413033217976e-09
1.634667895867264681e-09
1.255224785906287461e-09
9.704022598602191074e-10
7.534817163067548643e-10
5.854423900047892657e-10
4.533509548445253089e-10
3.485047461238547078e-10
2.649863673456325696e-10
1.986762755916838763e-10
1.465316076116003754e-10
1.061259607391953433e-10
7.539809871336674479e-11
5.252728058353505297e-11
3.589428607367707151e-11
2.408100674452573520e-11
