# bin_6_1
1.621100733970748121e-08
1.355592013972784048e-08
1.111152544775760826e-08
8.974442453127235131e-09
7.160256419382097345e-09
5.625370999365152830e-09
4.329016683134375219e-09
3.275989227724940288e-09
2.477021897606189330e-09
1.883507594233132001e-09
1.433080380091840225e-09
1.100521018258158464e-09
8.540999045004478108e-10
6.694789088005841331e-10
5.288580017357124274e-10
4.194635721764903950e-10
3.324942813804937143e-10
2.621356029644308334e-10
2.046313173706307325e-10
1.575478464005851646e-10
1.192472295403805748e-10
8.851648024162791501e-11
6.433449759669065473e-11
4.575035796596218685e-11
3.183875493837277798e-11
2.170584354909725026e-11
1.452100148157259223e-11
9.553245290496605573e-12
6.195192514213033914e-12
3.969311718983475524e-12
2.518083555305871016e-12
