# bin_15_5
4.012352268702429654e-08
3.583488764350397630e-08
3.112482104783794094e-08
2.632161689479537729e-08
2.175675910563456095e-08
1.767562952289024974e-08
1.417899172522666589e-08
1.122524574689105591e-08
8.714995103720938689e-09
6.613883451409622241e-09
4.966069053308538922e-09
3.749079218855730745e-09
2.828569250253792715e-09
2.136804370611790775e-09
1.632459455437281088e-09
1.256931338799870216e-09
9.768423842818906836e-10
7.641973241667393856e-10
5.996220847505307296e-10
4.698698786863148005e-10
3.660830272963627482e-10
2.824078957357298927e-10
2.149191355025679964e-10
1.608743244775987547e-10
1.181778621727629970e-10
8.506952990114545134e-11
5.996548786492251148e-11
4.139695527402438069e-11
2.801328245929655867e-11
1.861139596274959058e-11
1.216483151454630594e-11
