# bin_13_6
4.313776137545233561e-08
3.882389354118352431e-08
3.398924127806716045e-08
2.896198014189756175e-08
2.409008772755607535e-08
1.966045638352688530e-08
1.582251630572307916e-08
1.257550303196738736e-08
9.825341055484869859e-09
7.506541282532423709e-09
5.643016069449375943e-09
4.247017811586311192e-09
3.206597333522446448e-09
2.414549262164167643e-09
1.836602688638772802e-09
1.407417321223157699e-09
1.088970161610996182e-09
8.485439722914121529e-10
6.639887015753566864e-10
5.196628466593749731e-10
4.050062265851827834e-10
3.130141952065639158e-10
2.389886942212269756e-10
1.796935129274751116e-10
1.327288322658026391e-10
9.614402112022785041e-11
6.823112148507871939e-11
4.743076567104179353e-11
3.231451685743425114e-11
2.160470648010699566e-11
1.420042396296702308e-11
