# bin_10_7
4.359794944781546461e-08
3.934295067492152444e-08
3.454866900367171336e-08
2.953407254250076478e-08
2.463973260657405273e-08
2.015536177450292889e-08
1.624445258283304934e-08
1.292640949465494839e-08
1.012260564096170011e-08
7.762015227913077590e-09
5.848739874586294891e-09
4.396369954699831556e-09
3.318580763106652572e-09
2.499706716925806532e-09
1.896464970260078299e-09
1.451259480738571754e-09
1.120284633371966539e-09
8.710884871855287525e-10
6.804585483020119236e-10
5.319123078043085473e-10
4.143141038138578723e-10
3.202368894203953447e-10
2.446908917491162575e-10
1.842381073422547684e-10
1.363545237823302398e-10
9.901566890488573105e-11
7.047232817980637236e-11
4.914433949488369274e-11
3.359255129836947173e-11
2.253217792994511333e-11
1.485493960413995564e-11
