# bin_13_5
1.799629150768560995e-31
1.986375176944747560e-31
2.144845441397324952e-31
2.252700965889792621e-31
2.286105256077582717e-31
2.221353353021454668e-31
2.038094157531250918e-31
1.768511621439923562e-31
1.459715448406711554e-31
1.197632492476336893e-31
1.024954571367044689e-31
8.748672532668441157e-32
6.519534589939602359e-32
4.585105626543891971e-32
3.742959900523752370e-32
2.512215337247784290e-32
1.920198652823496948e-32
1.330616077172676925e-32
9.399562548091471842e-33
6.745813374980005355e-33
4.869338192770214312e-33
3.557253382730205231e-33
2.640590958032226102e-33
1.998689648020936676e-33
1.537036285188863054e-33
1.194996858397073798e-33
9.335622439551530445e-34
7.274881669385140364e-34
5.616838479596981290e-34
4.271542416091446464e-34
3.185039041871778390e-34
