# bin_15_14
5.583513755764949542e-06
6.279263272429305869e-06
6.937391844191013040e-06
7.496986536178539127e-06
7.879722205468273798e-06
8.001576060376324617e-06
7.779899949843411422e-06
7.141687442415092446e-06
6.199710167823999841e-06
5.118561301438403624e-06
4.200388468346242229e-06
3.596462036252883942e-06
3.071566228456526880e-06
2.286839767079129616e-06
1.603942026596118699e-06
1.308766010442726987e-06
8.702955689468370075e-07
6.619522579077626714e-07
4.523974546537736753e-07
3.135451917045242307e-07
2.202270355781491659e-07
1.546925373192615497e-07
1.093983886142543860e-07
7.834072776013328503e-08
5.722256648590878444e-08
4.261092115285914056e-08
3.229265288321725339e-08
2.481247720723265619e-08
1.920174971976242689e-08
1.485750760486964698e-08
1.141191603775500758e-08
