# bin_15_9
4.557354236923061736e-17
5.089359005954818886e-17
5.574798902954636944e-17
5.960821117729206880e-17
6.181049818517985318e-17
6.181501446037059817e-17
5.876992595289693043e-17
5.274480727128317127e-17
4.473682066162252241e-17
3.661671736045408979e-17
3.045798426565781315e-17
2.637919017558305567e-17
2.164349344345265356e-17
1.520853379885259710e-17
1.147415920744771073e-17
8.846344625584384583e-18
6.034879938800100761e-18
4.381882607048108827e-18
3.133580769035644077e-18
2.190066477899957148e-18
1.538214352231626481e-18
1.092879689257895229e-18
7.881332466548502695e-19
5.781406908590654555e-19
4.325018557486924524e-19
3.290973186631477190e-19
2.537508225846941838e-19
1.970472399481095052e-19
1.529842363318090939e-19
1.179139986367991887e-19
8.967527712962252768e-20
