# bin_10_4
6.900540673074208834e-22
7.511759977076687744e-22
7.972498886898180569e-22
8.192318577597500768e-22
8.104052017435803733e-22
7.596825327917679740e-22
6.729383794660769310e-22
5.637432750917852924e-22
4.607108332650163632e-22
3.872980154638165198e-22
3.351135586559490015e-22
2.657808225259834290e-22
1.843562252752839892e-22
1.455750051430967259e-22
1.065647902821743804e-22
7.697359809807722108e-23
5.401861680234647846e-23
3.961473249555363420e-23
2.847935064063091821e-23
2.063910838868754437e-23
1.522394194711664046e-23
1.141884559280404464e-23
8.721461623387103560e-24
6.763910400213122560e-24
5.296286247940768346e-24
4.160445789341934920e-24
3.255409597803818718e-24
2.520227281173913770e-24
1.919318389033174281e-24
1.431227676921037747e-24
1.041290912764948851e-24
