# bin_16_11
7.288558598355017253e-13
8.176539587479865117e-13
9.006520694714039699e-13
9.697095215269768249e-13
1.014484228117541897e-12
1.024852528804416151e-12
9.886601800697239877e-13
9.000304409856939689e-13
7.747432355222145274e-13
6.370558411302753161e-13
5.248017410660170592e-13
4.518262015158019414e-13
3.813293149752327263e-13
2.773126349023579457e-13
1.989277319973643169e-13
1.607026918373116447e-13
1.063893021551233007e-13
8.056650063688696852e-14
5.592577801581921482e-14
3.876009176570386150e-14
2.721976965998776971e-14
1.914970785327060125e-14
1.363332865507829173e-14
9.849159507382207858e-15
7.259748673246362922e-15
5.452087522628984144e-15
4.161396909876650454e-15
3.212763201862348329e-15
2.491345786492710722e-15
1.926320437874038429e-15
1.474972460301895229e-15
