# bin_17_7
9.073608523748368934e-39
1.014918324482475382e-38
1.113924849827763338e-38
1.193995510070425517e-38
1.242054817265354372e-38
1.246682655273390863e-38
1.191407011481673834e-38
1.074479939741325832e-38
9.159841209905277474e-39
7.506166855105106375e-39
6.220081275918346180e-39
5.380229744119269678e-39
4.462503688917623718e-39
3.168462152310482368e-39
2.348253997058152957e-39
1.844678026027356236e-39
1.240750573005410608e-39
9.174728964994548637e-40
6.490173555036910437e-40
4.521007973434623873e-40
3.173758747179735780e-40
2.245336562230925375e-40
1.611850021183977328e-40
1.176257348774534194e-40
8.756002420945407203e-41
6.634114469410070116e-41
5.098979949286986431e-41
3.952929313414217824e-41
3.068635342806878395e-41
2.368321977769212920e-41
1.805658206987469625e-41
