# bin_14_5
1.474348668877831406e-37
1.632436508156534417e-37
1.769466351582589376e-37
1.867403391527107563e-37
1.905425974327523588e-37
1.866371406922539972e-37
1.728108575309728522e-37
1.513060460740963230e-37
1.255681087155094009e-37
1.027623898557708087e-37
8.734588009603160059e-38
7.520845517388274331e-38
5.749119894287002452e-38
3.989455789613430314e-38
3.238013519520472712e-38
2.229381458055652047e-38
1.678661594152002836e-38
1.148756393021406795e-38
8.199492839055330958e-39
5.857360101195212058e-39
4.207177650996004039e-39
3.053800605469467846e-39
2.249931583585158629e-39
1.690441096517617851e-39
1.292004414359816847e-39
1.000078822113062163e-39
7.796066653182891316e-40
6.076236291925213984e-40
4.702026887741282468e-40
3.590223933179728926e-40
2.691660802366283902e-40
