# bin_7_2
5.837139692308125427e-19
6.189714477639351237e-19
6.355842120561399156e-19
6.283114279012919429e-19
5.886879543075834123e-19
5.212897062237544667e-19
4.366641699087359727e-19
3.568479342393528389e-19
2.998606594932569117e-19
2.592419734044191720e-19
2.056804699530336497e-19
1.432047249741875518e-19
1.130189140262964357e-19
8.314669386286293512e-20
6.034060816415100772e-20
4.286125896624752137e-20
3.167463804556161626e-20
2.310093521111544545e-20
1.704696556716387706e-20
1.282125917648294653e-20
9.814347090652120358e-21
7.638919478947417782e-21
6.017466525341128562e-21
4.764969570363043513e-21
3.766428406172455433e-21
2.951086628019464233e-21
2.277407486195833330e-21
1.721798112147623577e-21
1.270019917388227260e-21
9.115197247703357313e-22
6.363680386217123350e-22
