# bin_17_16
5.891508749658615253e-06
6.657802969392469425e-06
7.398308202155133940e-06
8.052208390912180694e-06
8.538707696999260914e-06
8.760049936527500642e-06
8.643350473973061634e-06
8.072369109439857921e-06
7.124878401566172136e-06
5.949211705986021039e-06
4.864474987678025072e-06
4.108637964225553865e-06
3.554873965624795164e-06
2.779642308366616382e-06
1.916331196944095146e-06
1.531098308374303696e-06
1.084542590909720870e-06
7.897912308690847040e-07
5.332961990672256370e-07
3.799985514407307765e-07
2.636101313016065302e-07
1.825367725899002494e-07
1.273677202149153895e-07
8.968118870206975785e-08
6.422919542529970784e-08
4.690665143561751951e-08
3.492756430162569303e-08
2.647948956058162671e-08
2.033259391476192683e-08
1.570642979924531334e-08
1.211370020387885557e-08
