# bin_15_2
7.479131359055377658e-80
8.275831627985796278e-80
8.963526567365760256e-80
9.450456530241580281e-80
9.632132062890309663e-80
9.419535512514724405e-80
8.705301190844323811e-80
7.608142570175706707e-80
6.306309892235946291e-80
5.163050005823294332e-80
4.394997446002522267e-80
3.778732480810586549e-80
2.873356095834166990e-80
1.997898222064841786e-80
1.625153629120835388e-80
1.111516447173536377e-80
8.407559295634565439e-81
5.764116949975924636e-81
4.102372265603755417e-81
2.934607317685621876e-81
2.110905655639235984e-81
1.534253931406908369e-81
1.132109608887826815e-81
8.519129477093952853e-82
6.519745423739104392e-82
5.051486294313800852e-82
3.939836797812152132e-82
3.070741968242472975e-82
2.375243208038208355e-82
1.812164223798734783e-82
1.357118541020451279e-82
