# bin_12_8
2.513099502605742743e-11
2.782572556449137581e-11
3.016153712492267507e-11
3.183102488170835661e-11
3.247933286882511363e-11
3.181378609243520960e-11
2.945729748633731068e-11
2.579184537723238474e-11
2.140488476893397266e-11
1.751750242391789894e-11
1.488935227716591252e-11
1.282005639374620048e-11
9.800400232291884928e-12
6.801177388058808984e-12
5.519453798949536002e-12
3.800696985446375929e-12
2.861358206357495727e-12
1.958428543757503932e-12
1.397882139351553449e-12
9.985633329776889311e-13
7.172181572641978422e-13
5.205954765169665821e-13
3.835578919489096159e-13
2.881784818053759716e-13
2.202547450269673484e-13
1.704884811015990274e-13
1.329032705117773100e-13
1.035843854903754250e-13
8.015758528863469657e-14
6.120423404487162180e-14
4.588609390262238211e-14
