# bin_8_7
5.489352522607408014e-06
5.988087737846888301e-06
6.371975948801046402e-06
6.569075482235713308e-06
6.525125239389006841e-06
6.149338816869206495e-06
5.474333108311888195e-06
4.607101896443682214e-06
3.766226052368870667e-06
3.152379877632049466e-06
2.729131197298686510e-06
2.194984996761434705e-06
1.529178863219056051e-06
1.187505668806271690e-06
8.891293124564782452e-07
6.291341979634375094e-07
4.485648942286509916e-07
3.280509318999919005e-07
2.348557135690022570e-07
1.695094693258201633e-07
1.245300521065502273e-07
9.306563680247571622e-08
7.081729080066217942e-08
5.476004091399373550e-08
4.279368283522048100e-08
3.358783975270166165e-08
2.629047975476691852e-08
2.038167569899132040e-08
1.555808279897119511e-08
1.163759868483157967e-08
8.498393678928408515e-09
