# bin_4_1
1.556466493262635287e-10
1.587419936665242170e-10
1.555274166277553925e-10
1.442049270904120925e-10
1.264714436680084605e-10
1.051680589425739500e-10
8.604326883557231505e-11
7.285329392133889851e-11
6.263759764747696085e-11
4.842154592401982235e-11
3.392253621592799721e-11
2.725740118729292942e-11
1.944879546172262824e-11
1.457553106937737470e-11
1.036636184592275782e-11
7.677853248067687816e-12
5.705352656335436526e-12
4.302089008855037652e-12
3.303719492103528791e-12
2.580362989638092076e-12
2.043916588582405906e-12
1.630987014321380615e-12
1.301411528572559822e-12
1.030908098932875426e-12
8.052480496172152165e-13
6.165840098383198718e-13
4.606441920577922747e-13
3.348325400079824344e-13
2.365965364733449565e-13
1.627691604122489619e-13
1.093331193618120511e-13
