# bin_16_10
2.196708215379912285e-16
2.461148603795998501e-16
2.706683524670217873e-16
2.908508793720422866e-16
3.035264547431965097e-16
3.057683608426205297e-16
2.937506335587320700e-16
2.662915578630071643e-16
2.282316525357138150e-16
1.873494687550866977e-16
1.547171378156676465e-16
1.335222720119813411e-16
1.118690916371453442e-16
8.043671004393475245e-17
5.853444323802315899e-17
4.676812942143081609e-17
3.111819727992751534e-17
2.336384758410021109e-17
1.634884966909358007e-17
1.135351314523286902e-17
7.970902882199163528e-18
5.618632951666438765e-18
4.014467963605953675e-18
2.913273927052660558e-18
2.156919764216193765e-18
1.626395793521275319e-18
1.245399445105058161e-18
9.634139681867345174e-19
7.475458035375396386e-19
5.775957097861617211e-19
4.414508438621773216e-19
