# bin_12_2
1.225980471958645093e-54
1.340370740292440100e-54
1.430294923041456938e-54
1.479773274833765795e-54
1.476231520238309671e-54
1.399196196951635428e-54
1.252260363773697763e-54
1.059301884592593993e-54
8.664919819608690407e-55
7.219469741408440434e-55
6.250318466869590684e-55
5.097951141498399025e-55
3.576181397109018079e-55
2.725469171905670216e-55
2.088043796847457075e-55
1.447782840664534372e-55
1.051961004615020261e-55
7.643140943550346619e-56
5.448907650578287557e-56
3.920137636210799903e-56
2.867003511349144248e-56
2.133927836181112737e-56
1.617047729811036654e-56
1.246185068249474404e-56
9.716008855173681835e-57
7.617504865746686710e-57
5.963792791386622892e-57
4.629847438816878440e-57
3.542681915798785238e-57
2.658643353901599870e-57
1.949181174162185957e-57
