# bin_13_8
2.847416867879193015e-14
3.160551298927461927e-14
3.436295248652912082e-14
3.640238983217657007e-14
3.730970702949878767e-14
3.677290816159687313e-14
3.430541926178561718e-14
3.024944418900201322e-14
2.523897059602446987e-14
2.063320273861620583e-14
1.742940088680144692e-14
1.506907028033639483e-14
1.176772394164327726e-14
8.130846835002816780e-15
6.510156546379348432e-15
4.626056132374342723e-15
3.396207827436422560e-15
2.326112287240606587e-15
1.680702356258671599e-15
1.192353690112533044e-15
8.496807930419473324e-16
6.134520996173647490e-16
4.493162221385609548e-16
3.354589204166473190e-16
2.549978014191428256e-16
1.965719029545018998e-16
1.528834158538418508e-16
1.191164710199665776e-16
9.231255927906675879e-17
7.069785767964981952e-17
5.322983196086197258e-17
