# bin_6_1
3.408776459966390378e-20
3.558786714370219550e-20
3.589182127162140290e-20
3.457856930956849136e-20
3.145705534428966488e-20
2.706872151220269388e-20
2.225820467068304099e-20
1.832471013724501954e-20
1.574002684101964847e-20
1.327109310770155000e-20
9.721674614396421348e-21
7.018165952369379751e-21
5.668274382741306517e-21
3.867212651873915284e-21
2.959284645875694191e-21
2.120872573394598835e-21
1.541355105191134770e-21
1.141893492831521482e-21
8.579292940936823101e-22
6.564283679643146581e-22
5.107271098507681594e-22
4.029139152089844997e-22
3.200721218256887985e-22
2.542000413966222289e-22
2.004150400810230200e-22
1.558089912763916629e-22
1.187663349876536181e-22
8.835961165591854093e-23
6.396885226329231379e-23
4.503305728084846872e-23
3.086727196009508759e-23
