# bin_12_3
3.666465167067445729e-43
4.016428776813862529e-43
4.296374502491854965e-43
4.458987491917441467e-43
4.464672344928438074e-43
4.253244632056435376e-43
3.824814357283693581e-43
3.251219150876869784e-43
2.662043704205898362e-43
2.209409900732335142e-43
1.911212751153992296e-43
1.576405453029177619e-43
1.115795596922344936e-43
8.356664710013799825e-44
6.523342701199950977e-44
4.455351540754158956e-44
3.294006172240190508e-44
2.371171766300531728e-44
1.684793013583840817e-44
1.210480930281115935e-44
8.818338408550989602e-45
6.539112684944451663e-45
4.936231247066151425e-45
3.792025082899816752e-45
2.949751983333551546e-45
2.309880493329064785e-45
1.808411599872271106e-45
1.405436071350620612e-45
1.077605009630310011e-45
8.109849531088766939e-46
5.966440062157619684e-46
