# bin_16_15
5.727007411083622759e-06
6.457143912488890925e-06
7.155712112608461719e-06
7.762008778509094589e-06
8.196622359782083215e-06
8.367584466333057930e-06
8.199637068731314290e-06
7.594463490957921629e-06
6.650981856598398892e-06
5.520295796718288071e-06
4.518984166830906083e-06
3.843445964182542157e-06
3.310760042929367330e-06
2.527531451511751258e-06
1.750190592977660205e-06
1.419950757431235643e-06
9.693074579986215921e-07
7.267452326712312937e-07
4.900251009522183070e-07
3.435690883274105529e-07
2.402678121819476774e-07
1.680072468205780660e-07
1.179920339629209007e-07
8.373601477914079552e-08
6.055143001108800088e-08
4.465177272955948489e-08
3.354869613587788928e-08
2.561539760489636239e-08
1.975616603156468112e-08
1.528228128886002729e-08
1.176839257979641891e-08
