# bin_3_2
8.594560822884284845e-06
8.757675839544961670e-06
8.568847903319205041e-06
7.933789919139290039e-06
6.948282772895168779e-06
5.774033736772794415e-06
4.726417757995675487e-06
4.005574113524190401e-06
3.438064410884373150e-06
2.648849476362388922e-06
1.860458666586562484e-06
1.494489665509048947e-06
1.064236993066785957e-06
7.978641811770656714e-07
5.690540051405043426e-07
4.211694007473984198e-07
3.131020931596096873e-07
2.361828440111437321e-07
1.815061446366146674e-07
1.418610190466462814e-07
1.124213376035251258e-07
8.972825801495904260e-08
7.159378646610922461e-08
5.669663053197402244e-08
4.426377202255774333e-08
3.387015572159295089e-08
2.528427008741748276e-08
1.836354852399129655e-08
1.296601925801893084e-08
8.914168484339745896e-09
5.984405695797293304e-09
