# bin_18_6
6.320789094448743022e-54
7.078218174166724880e-54
7.779702905813470851e-54
8.353583369866171476e-54
8.709393864394286246e-54
8.764280203686045672e-54
8.406650190710632469e-54
7.608941348021670472e-54
6.510910856565414213e-54
5.341618841289442772e-54
4.415563747591787141e-54
3.813621464778946973e-54
3.185885431130858652e-54
2.281664677295495978e-54
1.669492362550318768e-54
1.327535133203857214e-54
8.857774549588788119e-55
6.623249667449483612e-55
4.649237766734072609e-55
3.231507258898804129e-55
2.268579865379830986e-55
1.600673662232102135e-55
1.145258935919430450e-55
8.325059689236096099e-56
6.173791362378384975e-56
4.662093013497878532e-56
3.574077877256507690e-56
2.766710850277472363e-56
2.147155653571906711e-56
1.658492864317046030e-56
1.266660220930909917e-56
