# bin_14_11
1.834273169752613742e-08
2.050943027263348224e-08
2.249991120322911570e-08
2.410358930273290722e-08
2.505544330137190127e-08
2.512785956247011084e-08
2.398548784635820190e-08
2.160780266911711485e-08
1.839941833195866313e-08
1.507380373943682019e-08
1.250187510540033129e-08
1.081676861321101988e-08
8.949757677871702254e-09
6.340011591179448462e-09
4.717508849727163805e-09
3.690276307887870925e-09
2.490072002404357285e-09
1.833705235740171593e-09
1.300303233333341478e-09
9.064438973734233402e-10
6.363898406375822572e-10
4.506514239913143295e-10
3.238315244305767531e-10
2.365875809881277094e-10
1.763066270170880597e-10
1.337072301549649594e-10
1.028391559598720673e-10
7.975369321776422897e-11
6.191298069020301600e-11
4.776848037399552430e-11
3.639877212494680157e-11
