# bin_19_19
-1.437866968756093791e-11
-1.630124614182334068e-11
-1.818619067432123335e-11
-1.988998047647552654e-11
-2.121985856340868455e-11
-2.193501111335894072e-11
-2.185134717701166182e-11
-2.066014583274233842e-11
-1.844560050662325937e-11
-1.556291525309073469e-11
-1.273075387477083287e-11
-1.064437036429389829e-11
-9.225828058174296318e-12
-7.461064856124207855e-12
-5.187339378266147721e-12
-3.990951210720072886e-12
-2.991413527098416344e-12
-2.069232301290707681e-12
-1.451645802301602769e-12
-1.034200648843148278e-12
-7.106203489504889053e-13
-4.863436062031336220e-13
-3.356360702673531496e-13
-2.336021653524126582e-13
-1.648037596127028130e-13
-1.184736553597664944e-13
-8.686765754855920591e-14
-6.498775489344223684e-14
-4.943156867323434286e-14
-3.800444075130380346e-14
-2.931604299446572506e-14
