# bin_9_19
-1.057343879647108753e-32
-1.189066483328739118e-32
-1.313649248877550474e-32
-1.419556156646742589e-32
-1.491952858176312837e-32
-1.514948910365300525e-32
-1.472858528567599281e-32
-1.351962531757889815e-32
-1.173573509316029388e-32
-9.689350545340671164e-33
-7.951996930895952879e-33
-6.808666553974449204e-33
-5.813603097275594615e-33
-4.327912341952918508e-33
-3.037239126678589693e-33
-2.476452491729533139e-33
-1.648261795371648538e-33
-1.252654899216185475e-33
-8.562363873585915325e-34
-5.937276990473916738e-34
-4.169373038786961375e-34
-2.928298554020846412e-34
-2.070939039088447736e-34
-1.483078259256362033e-34
-1.083313805277217328e-34
-8.067038890515924232e-35
-6.113592780583265262e-35
-4.697358718452464547e-35
-3.635023261686960871e-35
-2.812477001699280467e-35
-2.160106751894839819e-35
