# bin_17_14
-1.359882547953333582e-10
-1.525941661461265225e-10
-1.681343034504034636e-10
-1.810940170242582384e-10
-1.895454628960181550e-10
-1.915823866962999020e-10
-1.849769235665602789e-10
-1.685673896865903632e-10
-1.452544246737352328e-10
-1.195203321187895489e-10
-9.843114327410346995e-11
-8.466771141338182474e-11
-7.152833883036706191e-11
-5.220147503528941494e-11
-3.736859929746744290e-11
-3.016118289922528415e-11
-2.003523885422479176e-11
-1.514362827948369412e-11
-1.049125948483763961e-11
-7.276306896174199547e-12
-5.109690792927578972e-12
-3.595730144691955507e-12
-2.557901966551498084e-12
-1.845850815091610497e-12
-1.358939405911924179e-12
-1.019403064109447326e-12
-7.773007850288274853e-13
-5.996664650038768108e-13
-4.648220703339743499e-13
-3.593772840812311039e-13
-2.752411153565558435e-13
