# bin_12_2
-2.582715491274535108e-09
-2.587959422314633878e-09
-2.473840280858723714e-09
-2.236191246646341267e-09
-1.913608014992018452e-09
-1.574602978775201277e-09
-1.303820907482133014e-09
-1.117395508669020635e-09
-9.259113837173917620e-10
-6.779199858203950507e-10
-5.004589118725446396e-10
-3.921623493617509474e-10
-2.771971020073675207e-10
-2.075927526113472085e-10
-1.511977076726059206e-10
-1.117742441421526422e-10
-8.390946793755402960e-11
-6.409387182296904870e-11
-4.986193953971327846e-11
-3.938432206418290615e-11
-3.143000229744719106e-11
-2.515318211453303998e-11
-2.003765124655022615e-11
-1.577923392578304827e-11
-1.220645797781706588e-11
-9.228815524133097442e-12
-6.795709431132424641e-12
-4.866127326696269209e-12
-3.390506878311319580e-12
-2.303880763008431036e-12
-1.531660930676735453e-12
