# bin_2_15
-7.592953714657039415e-62
-8.396074499240000268e-62
-9.086178427186017041e-62
-9.569812252355230981e-62
-9.742458497724472483e-62
-9.511004986951610156e-62
-8.772923282822525326e-62
-7.652686720968887629e-62
-6.336369494638998168e-62
-5.190686580871118138e-62
-4.424667754265775294e-62
-3.796665989359946016e-62
-2.871972052848901612e-62
-2.003181978044421707e-62
-1.630577243625891076e-62
-1.110176173235734302e-62
-8.416618254644103342e-63
-5.788449699252451866e-63
-4.112198282109929473e-63
-2.943883807625755158e-63
-2.119286623264506268e-63
-1.542440776438922553e-63
-1.139981733928052747e-63
-8.591810357553352083e-64
-6.583931006206620408e-64
-5.105938374328119765e-64
-3.984066378681662837e-64
-3.105043354325753011e-64
-2.400576676662175079e-64
-1.829904402889621758e-64
-1.368803563376078342e-64
