# bin_18_13
-2.333014007762828375e-10
-2.610555650307720688e-10
-2.866558153209366586e-10
-3.074403488817872452e-10
-3.200525879168917845e-10
-3.215155003586307253e-10
-3.076640226121745115e-10
-2.778660864609270820e-10
-2.372383423513564284e-10
-1.945512865900922140e-10
-1.611045393232556511e-10
-1.391979645148725064e-10
-1.157036436802274156e-10
-8.253685527181761794e-11
-6.086216595269887248e-11
-4.796703654798221606e-11
-3.223860270473891886e-11
-2.389410735126247344e-11
-1.684994588250773090e-11
-1.173042449079676163e-11
-8.237562930059123830e-12
-5.824624339037802222e-12
-4.175899070919479142e-12
-3.042443499628866627e-12
-2.261167457509216575e-12
-1.710719579299946713e-12
-1.313293197013446607e-12
-1.017325097033699695e-12
-7.894903586850658438e-13
-6.093958542140574295e-13
-4.648603339222211958e-13
