# bin_10_3
-1.736147110725713464e-09
-1.784702496941753030e-09
-1.766373621833405263e-09
-1.659849271791290498e-09
-1.474524078080901449e-09
-1.240923253176219380e-09
-1.016390830920137948e-09
-8.513953179316960004e-10
-7.326297207403669483e-10
-5.860531347401218382e-10
-4.157478284434917469e-10
-3.210444967577884515e-10
-2.411840221966758872e-10
-1.732528386690851682e-10
-1.267733917577909043e-10
-9.320464988453775619e-11
-6.860231457682087348e-11
-5.130474855832086448e-11
-3.907838637995172830e-11
-3.030378373613995845e-11
-2.385739778787232946e-11
-1.896611054317435011e-11
-1.511407095778002724e-11
-1.198644963007397462e-11
-9.395618842186032333e-12
-7.234528218602804516e-12
-5.444622322298013325e-12
-3.991271308371644725e-12
-2.845274957120629694e-12
-1.973938863134482384e-12
-1.335742246105672054e-12
