# bin_18_5
-1.452041981922484183e-09
-1.544743652517563390e-09
-1.592902829493417163e-09
-1.582613842470400874e-09
-1.493284984725305740e-09
-1.331320333467337157e-09
-1.123019672562791130e-09
-9.191411825673540467e-10
-7.681006359422966506e-10
-6.630608818058631540e-10
-5.350113147273285568e-10
-3.774044288118733838e-10
-2.901035464189918250e-10
-2.195151655069401223e-10
-1.555741607065402327e-10
-1.132817208889104582e-10
-8.276418845639499761e-11
-6.006063413609605345e-11
-4.417718521823736144e-11
-3.305828428247908196e-11
-2.518805216371725961e-11
-1.951847177226758166e-11
-1.532566511866722284e-11
-1.211277068935493908e-11
-9.569975138847615756e-12
-7.505610950552207387e-12
-5.805368677297667800e-12
-4.404198000309094748e-12
-3.262979453771139821e-12
-2.353878651528034520e-12
-1.652082539794060034e-12
