# bin_14_19
-5.443129016355908558e-17
-6.149270570948470567e-17
-6.830779287938662638e-17
-7.431269739243763329e-17
-7.875989416276452054e-17
-8.074996601915769107e-17
-7.960397423240695828e-17
-7.426619301114368529e-17
-6.548489295662928793e-17
-5.463767825884571335e-17
-4.468221596449143170e-17
-3.777320669917593018e-17
-3.266417037204433492e-17
-2.546398358291538924e-17
-1.756547096357535666e-17
-1.406105086048820237e-17
-9.913353361170753140e-18
-7.246153381420958226e-18
-4.892303735754073250e-18
-3.478202717804743260e-18
-2.415421892120885288e-18
-1.674753313631437337e-18
-1.169511635459371854e-18
-8.242737342641807468e-19
-5.910571786065731897e-19
-4.321826862047966343e-19
-3.221824508480682431e-19
-2.444789163195896803e-19
-1.878335252827037641e-19
-1.451225497516252712e-19
-1.119038789515922384e-19
