# bin_17_18
-4.407375009543858940e-12
-4.984580088400210605e-12
-5.544339654002903468e-12
-6.041551188959287277e-12
-6.416070424575221335e-12
-6.594407600817406105e-12
-6.522139466249187249e-12
-6.109616778874635692e-12
-5.407630058043494664e-12
-4.526410453266361910e-12
-3.700923599191043215e-12
-3.118054851041359403e-12
-2.699683078126711031e-12
-2.129311283931128316e-12
-1.469265841910040814e-12
-1.163952874670769138e-12
-8.364629647085709692e-13
-6.010888150964782784e-13
-4.089270075797084290e-13
-2.920767454570037100e-13
-2.021003858216523937e-13
-1.394373018811841970e-13
-9.704495470747624627e-14
-6.813802229988887155e-14
-4.862233231153541693e-14
-3.537553563839288734e-14
-2.624645457456010622e-14
-1.983815900756754017e-14
-1.520156750552648762e-14
-1.173196677333938409e-14
-9.050363760737132847e-15
