# bin_5_18
-3.692952334864903923e-52
-4.130110228871193525e-52
-4.532205138207906736e-52
-4.856919008131801759e-52
-5.050972571652664929e-52
-5.068142700778298095e-52
-4.841304008924974590e-52
-4.364524553452792219e-52
-3.719282248521245121e-52
-3.047747979341538208e-52
-2.526475317394237569e-52
-2.185271795559342124e-52
-1.810705725701290597e-52
-1.284991896861238479e-52
-9.536432240406610216e-53
-7.478289904552573310e-53
-5.037985369218343859e-53
-3.718448863501477309e-53
-2.632615818103579385e-53
-1.834409780519372054e-53
-1.287924428250929636e-53
-9.115618478345086681e-54
-6.546149675627858712e-54
-4.778944782071706597e-54
-3.558730192392588515e-54
-2.697158124155221809e-54
-2.073479900804512684e-54
-1.607588723443411603e-54
-1.247918733019913659e-54
-9.629833114082942952e-55
-7.340291220422211902e-55
