# bin_3_14
-6.167318117152976172e-48
-6.803630101791034361e-48
-7.341541616116912689e-48
-7.704301310930368860e-48
-7.811365580160265808e-48
-7.579586734974937504e-48
-6.944295613970321135e-48
-6.017006074266089859e-48
-4.963156876719135712e-48
-4.074912757758347795e-48
-3.490531937977110720e-48
-2.973055756997723421e-48
-2.207050628725607961e-48
-1.558449942453039018e-48
-1.269615966363348655e-48
-8.520861349048377537e-49
-6.505125863056289165e-49
-4.519790782033686365e-49
-3.193698418883508383e-49
-2.291821029890251080e-49
-1.654663715315755514e-49
-1.209994645818890633e-49
-8.992561887601360066e-50
-6.813858264738561124e-50
-5.244482863362402696e-50
-4.079710501202897815e-50
-3.187824764240512477e-50
-2.483776834984400793e-50
-1.916811150080033204e-50
-1.456675931058472202e-50
-1.085156555166695940e-50
