# bin_2_2
-2.074728416737532014e-10
-2.051996347343214285e-10
-1.927501360960430953e-10
-1.712105030748295843e-10
-1.441229682899872113e-10
-1.180790964585623997e-10
-9.887329037592232624e-11
-8.499306085528142848e-11
-6.803619383258264280e-11
-4.843083635602681933e-11
-3.733580123877429477e-11
-2.815620235391599547e-11
-2.028371217871652719e-11
-1.494514613417611100e-11
-1.105456541308872480e-11
-8.216505136670304841e-12
-6.216834716278651683e-12
-4.794464095720394999e-12
-3.763308012426120523e-12
-2.994254901673604575e-12
-2.399780100020623935e-12
-1.922552030494390991e-12
-1.528354674450123325e-12
-1.197518967372707264e-12
-9.194031111768992451e-13
-6.885250722210927702e-13
-5.016403097563240504e-13
-3.553420548745103734e-13
-2.451100852218493266e-13
-1.650937041981327999e-13
-1.089518056863954867e-13
