# bin_12_17
-1.796607917827629502e-17
-2.019901647066126201e-17
-2.230835376058299093e-17
-2.409755742466174851e-17
-2.531425665108552931e-17
-2.569063601059632366e-17
-2.495654196805461770e-17
-2.288796231881594421e-17
-1.985040455642007039e-17
-1.638167593554482765e-17
-1.344912895477003450e-17
-1.152233277305716985e-17
-9.827263706848857496e-18
-7.297943777767591199e-18
-5.131867920752497016e-18
-4.182143476055381987e-18
-2.780449810559603913e-18
-2.113285818258263067e-18
-1.446837519465699686e-18
-1.002987244529460744e-18
-7.043819696669402298e-19
-4.947984102302903498e-19
-3.501750926887798594e-19
-2.510070656727893381e-19
-1.835283129592105243e-19
-1.367943363050141132e-19
-1.037521076931471006e-19
-7.976166173836043353e-20
-6.173908344052064404e-20
-4.776656899350594087e-20
-3.667554303024447520e-20
