# bin_8_7
-1.710505606100328871e-10
-1.853136925489039130e-10
-1.955153747306170914e-10
-1.995099459085442221e-10
-1.954631520501252839e-10
-1.811359231230683059e-10
-1.587228377632563260e-10
-1.318995391826644111e-10
-1.079664085580896965e-10
-9.159116977580152959e-11
-7.874324980863712231e-11
-6.052966401762216194e-11
-4.225039825625734182e-11
-3.402732153997148615e-11
-2.389286458777962164e-11
-1.785142820180354350e-11
-1.246509524922802153e-11
-9.046216394320013006e-12
-6.558292460280916477e-12
-4.798506587193773503e-12
-3.566093198501246103e-12
-2.694906960204764175e-12
-2.073271365713097553e-12
-1.616760561842656764e-12
-1.270163028696192187e-12
-9.986510380431306918e-13
-7.802108698522250943e-13
-6.018155733463801523e-13
-4.558224149797313195e-13
-3.375384423708300657e-13
-2.436189788951667867e-13
