# bin_2_16
-2.260321570346169249e-67
-2.507841733202829881e-67
-2.725242462558142343e-67
-2.885155822720370228e-67
-2.954897456713155122e-67
-2.909371189710929424e-67
-2.710826004619171307e-67
-2.387598434121294626e-67
-1.990482728776719251e-67
-1.627610483120304640e-67
-1.376258184201783759e-67
-1.188956131329913918e-67
-9.253444623988153171e-68
-6.400194902036005192e-68
-5.133417861488742033e-68
-3.630258211416236538e-68
-2.674813961242157333e-68
-1.833435055448777531e-68
-1.321516944236283168e-68
-9.385758979007058371e-69
-6.696779181049988346e-69
-4.838857682762184855e-69
-3.547476116764255837e-69
-2.651170163687367483e-69
-2.017000035800744657e-69
-1.555851244279710041e-69
-1.210476236927569448e-69
-9.431453258777370858e-70
-7.307218746062946326e-70
-5.593399985540285919e-70
-4.208411840826741027e-70
