# bin_3_18
-1.238804603668299738e-68
-1.383394601696745151e-68
-1.515319013472004290e-68
-1.620210262527560483e-68
-1.680033147096727628e-68
-1.680087731771738566e-68
-1.597304577988430116e-68
-1.433563001786135131e-68
-1.215977591334413414e-68
-9.953504360917358380e-69
-8.279877933543746088e-69
-7.169825070457883282e-69
-5.881491142468956809e-69
-4.134823261904979424e-69
-3.119273813538863843e-69
-2.404315404308115167e-69
-1.641065213746203784e-69
-1.191356104427726531e-69
-8.516092021082529364e-70
-5.952097694584176220e-70
-4.181492886862082412e-70
-2.971012070403644964e-70
-2.142431509343520209e-70
-1.571498027710129635e-70
-1.175539136998058792e-70
-8.944170951427557708e-71
-6.895849917258971623e-71
-5.354478836758373576e-71
-4.156852536818557492e-71
-3.203769351768602493e-71
-2.436432033224954923e-71
