# bin_1_14
-6.173582798636272184e-66
-6.793294397981781760e-66
-7.307449721279552227e-66
-7.638285689884128831e-66
-7.710242932237344324e-66
-7.432055184650425479e-66
-6.761817113159473474e-66
-5.817532527602942624e-66
-4.782871698522633997e-66
-3.939953384542959861e-66
-3.389911734249748061e-66
-2.858202103810457503e-66
-2.081865318764693600e-66
-1.498127444161651912e-66
-1.209457957151531193e-66
-8.099580202328905530e-67
-6.157609507119567696e-67
-4.332095556120643093e-67
-3.060457207930236337e-67
-2.197384583038958355e-67
-1.590040491132601241e-67
-1.168530387793725953e-67
-8.734895790857885466e-68
-6.653582504706032531e-68
-5.142586964160152425e-68
-4.011483442730553164e-68
-3.137719833392625210e-68
-2.443076256708429481e-68
-1.881287668806848575e-68
-1.424792086301335496e-68
-1.056671624762044780e-68
