# bin_6_1
-2.580261717922722577e-09
-2.479653469319673894e-09
-2.256070988815795943e-09
-1.944068024856347347e-09
-1.606857898195117261e-09
-1.327596502653644175e-09
-1.131630055813303920e-09
-9.442781895698447529e-10
-7.058123940268761733e-10
-5.160738995116882561e-10
-4.039160051352386280e-10
-2.901352320239529596e-10
-2.163562000972353590e-10
-1.583494901151499818e-10
-1.179909349241504342e-10
-8.911061102783116407e-11
-6.852922979695068540e-11
-5.368536879899913044e-11
-4.268239390720496657e-11
-3.424996812928445130e-11
-2.752987711614083443e-11
-2.199917754227416233e-11
-1.735616781032482952e-11
-1.343672501471609945e-11
-1.015841081707445923e-11
-7.476204810212568475e-12
-5.350675466674132481e-12
-3.727257318652356216e-12
-2.533243066263763844e-12
-1.685153502962041427e-12
-1.100861864040008030e-12
