# bin_8_16
-3.288434136666211003e-27
-3.673125138280733196e-27
-4.024577804627242927e-27
-4.304725577896118025e-27
-4.465757899685679441e-27
-4.468332268950030245e-27
-4.251380382815076868e-27
-3.818272809187221677e-27
-3.241092590544657604e-27
-2.653414308619969954e-27
-2.205980211518570791e-27
-1.909992770329515409e-27
-1.569410247740258433e-27
-1.104846631641470173e-27
-8.313133054341857838e-28
-6.426075037171507881e-28
-4.376085594406662200e-28
-3.185671575788110529e-28
-2.273866633208477132e-28
-1.588457060059567967e-28
-1.115744336388193382e-28
-7.922406621818712854e-29
-5.709179655066880297e-29
-4.184620223676064494e-29
-3.128045352319770909e-29
-2.378561549003093271e-29
-1.833038459179360710e-29
-1.423002518435433358e-29
-1.104726343752597445e-29
-8.516122434488402185e-30
-6.478843506485777108e-30
