# bin_11_20
-1.458757502893901703e-27
-1.645981865494563279e-27
-1.825707743767016930e-27
-1.982608514736066446e-27
-2.096527438224147097e-27
-2.143748747579723336e-27
-2.105539441392114149e-27
-1.955539764181513400e-27
-1.717084067382339295e-27
-1.427937444889011612e-27
-1.168402221864532993e-27
-9.914602027218505989e-28
-8.554783766261550816e-28
-6.583244565569196639e-28
-4.549854258388228684e-28
-3.674604476110844439e-28
-2.538692814122417598e-28
-1.886395782755702097e-28
-1.270839672764609786e-28
-8.961291404075224097e-29
-6.250066386981348628e-29
-4.356948855720176778e-29
-3.053315487518177021e-29
-2.161128020245511471e-29
-1.557802069160547528e-29
-1.145115594635427675e-29
-8.578759101517856401e-30
-6.535363389809591395e-30
-5.033592080658639407e-30
-3.892247341959005620e-30
-2.998999203338873488e-30
