# bin_8_8
-5.001713170142870967e-11
-5.452141390747910361e-11
-5.796421297578706150e-11
-5.969291550942781273e-11
-5.920787680155115481e-11
-5.570225924577450552e-11
-4.951004283343228578e-11
-4.161547144805271568e-11
-3.402530242725405042e-11
-2.851891750345576429e-11
-2.467282428065853570e-11
-1.975053738106648170e-11
-1.376704965149309108e-11
-1.073143222450378061e-11
-7.979468644521425843e-12
-5.682540754174454775e-12
-4.042107754579135297e-12
-2.950964067856420276e-12
-2.115519285016610586e-12
-1.529678942280226266e-12
-1.125035641055128898e-12
-8.416651695981660042e-13
-6.411450127425054833e-13
-4.961810347801037316e-13
-3.879528098769533138e-13
-3.045420142336679069e-13
-2.383254624686068309e-13
-1.846637737936945539e-13
-1.408478019334124706e-13
-1.052479828189387106e-13
-7.676798307891979160e-14
