# bin_16_19
-6.600421432982478426e-14
-7.468909942207394336e-14
-8.313180884496985291e-14
-9.066093117616704630e-14
-9.637885809439541692e-14
-9.918133747810864501e-14
-9.825401797319032254e-14
-9.222719630659678794e-14
-8.178535350655888438e-14
-6.857065592649613721e-14
-5.606390602045990298e-14
-4.715487705475029683e-14
-4.084717955702060541e-14
-3.240282236209656134e-14
-2.237290742744716938e-14
-1.762357588694701349e-14
-1.278572066003469775e-14
-9.109009801584403577e-15
-6.227788999394716844e-15
-4.454386744923378713e-15
-3.076989917120996064e-15
-2.118047994641730674e-15
-1.471557136369411568e-15
-1.031261103415901547e-15
-7.340846696511762943e-16
-5.327268567608948738e-16
-3.942782030942435433e-16
-2.973945754849988349e-16
-2.275625334555940842e-16
-1.755105038867436384e-16
-1.354134893308070539e-16
