# bin_1_3
-2.688553007005127656e-13
-2.688552643985232113e-13
-2.561309974588698682e-13
-2.305933276041438791e-13
-1.964492198397084119e-13
-1.611669255622520914e-13
-1.336170792917497345e-13
-1.149685103721281982e-13
-9.491324498110857274e-14
-6.846517474251938677e-14
-5.100193561167520037e-14
-4.001831130967265330e-14
-2.801884063301086338e-14
-2.107040909757899940e-14
-1.542229897075454225e-14
-1.138035008572123542e-14
-8.556523270740229062e-15
-6.550869073303238347e-15
-5.108679022984063782e-15
-4.043937523881125887e-15
-3.232331746703605363e-15
-2.588946830048157366e-15
-2.062539425709467468e-15
-1.623086193568236594e-15
-1.253805567398287001e-15
-9.459931364623373370e-16
-6.947968889454393402e-16
-4.960818019513007348e-16
-3.446595751056070194e-16
-2.335805086393388370e-16
-1.549344164279068239e-16
