# bin_4_3
-4.682696419563864004e-10
-4.793363064085737105e-10
-4.718265417897911708e-10
-4.402943109929386689e-10
-3.885105760146161853e-10
-3.250560757488041662e-10
-2.661597571041850237e-10
-2.241105295478245077e-10
-1.925952704860691470e-10
-1.515245351419140507e-10
-1.069780531629421042e-10
-8.401109121506907145e-11
-6.175541459825869224e-11
-4.509107422163136356e-11
-3.265344627477208412e-11
-2.410849270362657664e-11
-1.781663141001222987e-11
-1.337161137812427107e-11
-1.022636083144172408e-11
-7.959560319940627179e-12
-6.285861010400755975e-12
-5.006581922341553955e-12
-3.992171656088876979e-12
-3.163965825866602464e-12
-2.475464173530505991e-12
-1.900542175724749906e-12
-1.424952454973668904e-12
-1.040102232023066175e-12
-7.381821103427198273e-13
-5.099808151730522021e-13
-3.438326081936789535e-13
