# bin_10_7
-4.121880692080227833e-10
-4.471807366086762127e-10
-4.726201477365965609e-10
-4.832764290633046338e-10
-4.748255118028348293e-10
-4.415450350000856128e-10
-3.881895593716579263e-10
-3.234102449593486001e-10
-2.646220537878002777e-10
-2.238661145121417845e-10
-1.928057091911968813e-10
-1.496325516888665375e-10
-1.043183877026491279e-10
-8.345414376923580990e-11
-5.936137996933599873e-11
-4.388479987253034292e-11
-3.073203778703747913e-11
-2.234776719496119638e-11
-1.616035216545604456e-11
-1.179172907266755843e-11
-8.742424061588660368e-12
-6.591323384139220269e-12
-5.059552685248523143e-12
-3.938802149639872469e-12
-3.091194679471080596e-12
-2.429670502953968972e-12
-1.899030273686537752e-12
-1.466388976792042963e-12
-1.112479903379697277e-12
-8.255388638859688681e-13
-5.972962529338797250e-13
