# bin_19_6
-1.203524434071094994e-09
-1.294904300328305784e-09
-1.354397220799347660e-09
-1.368473562463955635e-09
-1.321670387380552810e-09
-1.205711738728845768e-09
-1.040285987843607203e-09
-8.570207349639403747e-10
-7.053747059524293911e-10
-6.048098819645097897e-10
-5.109474596601303413e-10
-3.767725509416545189e-10
-2.704727596560025582e-10
-2.176119791314144914e-10
-1.487776848107950012e-10
-1.127349176499854031e-10
-7.987607778249501385e-11
-5.750111404279854322e-11
-4.196272174698329063e-11
-3.098084088198190923e-11
-2.325579884615720853e-11
-1.775796049427486072e-11
-1.378632284824647585e-11
-1.082014410068648753e-11
-8.529176506760275539e-12
-6.706298358281366430e-12
-5.223060680894829275e-12
-4.005185850830057821e-12
-3.008714407013847506e-12
-2.205494350722309835e-12
-1.574073872089591462e-12
