# bin_18_8
-7.553505160428868802e-10
-8.260689806721564478e-10
-8.818210895064178719e-10
-9.128238083065859983e-10
-9.111074776185267642e-10
-8.644365732017202144e-10
-7.745160027402705909e-10
-6.561071689762878182e-10
-5.370990061496169072e-10
-4.472425549331284508e-10
-3.867176998468607190e-10
-3.158316213720089274e-10
-2.227703267775553246e-10
-1.689059564323825637e-10
-1.297414945585789173e-10
-8.993085771569326477e-11
-6.561220613058801193e-11
-4.741188237782191321e-11
-3.378781048598448423e-11
-2.433404485813633142e-11
-1.778469686177192490e-11
-1.322392977708694927e-11
-1.001008114915873586e-11
-7.706976375883526103e-12
-6.004232896385108653e-12
-4.704895632027583681e-12
-3.682563783727320686e-12
-2.858954536469195071e-12
-2.188248959756310063e-12
-1.643029849957849162e-12
-1.205471774237278413e-12
