# bin_17_7
-8.938945555680761352e-10
-9.704063307305079633e-10
-1.026436123566200932e-09
-1.050589806937033912e-09
-1.033568826035992863e-09
-9.626626308131100571e-10
-8.476236607484898699e-10
-7.070257937675885388e-10
-5.784224830126347410e-10
-4.887115884620081058e-10
-4.212112412357826874e-10
-3.283169912137079386e-10
-2.288273619892670622e-10
-1.824520351820957396e-10
-1.305620459270376725e-10
-9.604399600583494983e-11
-6.737573486756236524e-11
-4.902669643354991275e-11
-3.541094687666508397e-11
-2.580651393284519975e-11
-1.911183817186969131e-11
-1.439377828693691326e-11
-1.103720878983741176e-11
-8.585456188984111332e-12
-6.734558896919955532e-12
-5.292502215549301143e-12
-4.137378834701568038e-12
-3.196338379344299627e-12
-2.426721660161727353e-12
-1.802542953779558055e-12
-1.305650790671291971e-12
