# bin_9_18
-1.986345197550652183e-29
-2.229892317170774507e-29
-2.458317142579916761e-29
-2.649574472874098100e-29
-2.775567934283447972e-29
-2.808065223473757216e-29
-2.714966658219690196e-29
-2.477412486084579758e-29
-2.137686207689006303e-29
-1.759741752158489475e-29
-1.447965209757095934e-29
-1.244705059867796209e-29
-1.054225981320552979e-29
-7.718555094504229728e-30
-5.498346593120487522e-30
-4.458114912966376495e-30
-2.952307201856930422e-30
-2.240308953005370324e-30
-1.548211086792723001e-30
-1.072596725224482965e-30
-7.533479990485423648e-31
-5.297442734100717822e-31
-3.764187001848736825e-31
-2.712528027798870868e-31
-1.994269189023662534e-31
-1.494147757535319508e-31
-1.138188408057735466e-31
-8.775865612252392475e-32
-6.801669737906119112e-32
-5.260329174070156259e-32
-4.031446437684571276e-32
