# bin_3_1
-1.518363562569198430e-09
-1.454186980860785765e-09
-1.318243436656799638e-09
-1.131996955806998027e-09
-9.341079004290831364e-10
-7.729389117463629665e-10
-6.598440703931911050e-10
-5.479104881289806657e-10
-4.065283207745248832e-10
-2.988699000466938720e-10
-2.335324603633272631e-10
-1.673021321876952132e-10
-1.249819425189145812e-10
-9.154971598127309693e-11
-6.826778137166287889e-11
-5.165234402142289855e-11
-3.979984706268886154e-11
-3.123461892830966094e-11
-2.486781640685214780e-11
-1.997157860455304121e-11
-1.605590213265081269e-11
-1.282456019824270300e-11
-1.010753519208610299e-11
-7.813122951580431776e-12
-5.895675613409943575e-12
-4.329896231002105122e-12
-3.092301536416101117e-12
-2.149823645914825877e-12
-1.458588394203503214e-12
-9.688534064455308797e-13
-6.321659106258649888e-13
