# bin_12_3
-1.937763870060579616e-09
-1.992314241084789870e-09
-1.972305292359420711e-09
-1.853904541312079407e-09
-1.647377864889311916e-09
-1.386735206998946007e-09
-1.135841063326596216e-09
-9.512515958360903505e-10
-8.185914538249217302e-10
-6.552604273847458868e-10
-4.649506459605525893e-10
-3.587854592911969454e-10
-2.697740917409187082e-10
-1.936654274403317551e-10
-1.417702959766974255e-10
-1.042106177870015635e-10
-7.669089630861791597e-11
-5.734564116790393687e-11
-4.367236659058203708e-11
-3.386097936162272590e-11
-2.665438025937596937e-11
-2.118793012779292994e-11
-1.688417145318373413e-11
-1.339060068249562344e-11
-1.049706957892870884e-11
-8.083606237369261008e-12
-6.084578070012098088e-12
-4.461197919924244498e-12
-3.180859784827376328e-12
-2.207138724889931154e-12
-1.493774281703134076e-12
