# bin_10_6
-6.252491856778994055e-10
-6.723514448935084422e-10
-7.027517081269990625e-10
-7.094914153327995693e-10
-6.844327732895312573e-10
-6.236172676608432444e-10
-5.373918703254899863e-10
-4.424605703483400207e-10
-3.643750374499813780e-10
-3.126570608051660457e-10
-2.636794208082750011e-10
-1.938187521543683807e-10
-1.395458910052059761e-10
-1.121342456897834630e-10
-7.660744988323886412e-11
-5.803727991342643786e-11
-4.119003705419001469e-11
-2.964395927443550661e-11
-2.164138683097439348e-11
-1.598795797313626444e-11
-1.201090932305296848e-11
-9.178958569871005101e-12
-7.130910129257059200e-12
-5.599270098079529650e-12
-4.414695473937144376e-12
-3.471036204212115506e-12
-2.702577450690833261e-12
-2.071381122154590224e-12
-1.554977755730958929e-12
-1.138917760304270348e-12
-8.121243419082050807e-13
