# bin_13_15
-6.263361084738996225e-13
-7.026009315562581565e-13
-7.738615077910032080e-13
-8.331201800229625734e-13
-8.714858526387144166e-13
-8.802701536572847989e-13
-8.490475924737154734e-13
-7.728503885366827881e-13
-6.651935954428942611e-13
-5.470059276946614884e-13
-4.506953045559211855e-13
-3.879983763015292974e-13
-3.273084003363758244e-13
-2.380427492038245095e-13
-1.708898293056067504e-13
-1.378399970054492145e-13
-9.141561756358891663e-14
-6.911301579001906816e-14
-4.798387575235844700e-14
-3.326934556445899933e-14
-2.336356753534465646e-14
-1.644301418157987754e-14
-1.170768390829614588e-14
-8.458775889024551908e-15
-6.235271680507917305e-15
-4.682857183451716354e-15
-3.574256067042507357e-15
-2.759332192935015978e-15
-2.139546249511212822e-15
-1.654119014278178591e-15
-1.266391231344826435e-15
