# bin_2_10
-3.803792176466841177e-35
-4.111531429307469086e-35
-4.325438550458152266e-35
-4.398936637301697647e-35
-4.289152491932835681e-35
-3.951987807445551279e-35
-3.443903879996111001e-35
-2.850267953133294873e-35
-2.335205155657948813e-35
-1.990285157043585434e-35
-1.705112882290265044e-35
-1.289362088539338036e-35
-9.035177623094161270e-36
-7.347951959410553228e-36
-5.047153963818247448e-36
-3.836756833444735108e-36
-2.677203986835147185e-36
-1.930801089608402849e-36
-1.405958851909424247e-36
-1.033617136264262432e-36
-7.710770247913233205e-37
-5.849355022669539813e-37
-4.516402615505576646e-37
-3.531473664207350986e-37
-2.778861803547091592e-37
-2.185711455298680636e-37
-1.706243317455006206e-37
-1.313670828196629418e-37
-9.922292391926235014e-38
-7.321325383040999599e-38
-5.262474182818776124e-38
