# bin_1_4
-7.739165041315890786e-16
-7.859619460807354964e-16
-7.652767552504442819e-16
-7.048359158562085016e-16
-6.141058497794651495e-16
-5.088840821060915291e-16
-4.173136168973465661e-16
-3.549223767112812106e-16
-3.028878126347901747e-16
-2.302778942249732509e-16
-1.632080451883641334e-16
-1.310851654111556439e-16
-9.258595857531458409e-17
-6.972061282458575830e-17
-4.995780550224673794e-17
-3.690347948472904967e-17
-2.749110132544237660e-17
-2.078970808795952123e-17
-1.602020949798732123e-17
-1.255159559605773139e-17
-9.964137318553818339e-18
-7.959246255201732767e-18
-6.349819835785683600e-18
-5.023394589716815029e-18
-3.914609869236120337e-18
-2.987927832339171245e-18
-2.223958946401528206e-18
-1.610198360757530561e-18
-1.133558870474266400e-18
-7.772752061748358235e-19
-5.206637454151362090e-19
