# bin_11_3
-1.844089507092931926e-09
-1.895854512133658472e-09
-1.876626151912494076e-09
-1.763743365697023897e-09
-1.567067236033568829e-09
-1.318988645079818663e-09
-1.080342578073425763e-09
-9.048567749270177736e-10
-7.786522602206878906e-10
-6.231056138100624732e-10
-4.420902309416358997e-10
-3.412504054699157020e-10
-2.564906886598985274e-10
-1.841814127100557589e-10
-1.348024947123240975e-10
-9.909706930832588017e-11
-7.293281205576873182e-11
-5.453894599331253442e-11
-4.153793003057485736e-11
-3.220824948043770067e-11
-2.535485755080099141e-11
-2.015563728050592497e-11
-1.606175450631342903e-11
-1.273820968821623372e-11
-9.985317982612611183e-12
-7.689111033734186684e-12
-5.787244411243256184e-12
-4.242862511852192164e-12
-3.024941714217849773e-12
-2.098790344242409333e-12
-1.420350073488041617e-12
