# bin_6_20
-5.781624332217292005e-54
-6.498066559917856461e-54
-7.173810096568554118e-54
-7.745396067993952085e-54
-8.131485841918743525e-54
-8.246764293113335867e-54
-8.002841450743851396e-54
-7.331247436773250151e-54
-6.351080034072908265e-54
-5.238161504141023267e-54
-4.302337913827566714e-54
-3.688850476954212944e-54
-3.141762796554894442e-54
-2.325720047858629308e-54
-1.639462089894078040e-54
-1.335457718675790565e-54
-8.863227007713413246e-55
-6.738968073470362783e-55
-4.623234814986999230e-55
-3.203289973681528059e-55
-2.249897072634209621e-55
-1.580815274915939143e-55
-1.119735062859678371e-55
-8.035545079243800827e-56
-5.882497853340078251e-56
-4.389627863415203693e-56
-3.332607279885867200e-56
-2.563757213045737365e-56
-1.985090072944806837e-56
-1.535746669542500515e-56
-1.178701358601659330e-56
