# bin_11_5
-1.002863694793873010e-09
-1.066528590870200376e-09
-1.099316903407767742e-09
-1.091644162643731161e-09
-1.029317436808773892e-09
-9.170719533280430312e-10
-7.731118502312432013e-10
-6.327074454297564886e-10
-5.290113518276665571e-10
-4.566632163617463978e-10
-3.678780392871699015e-10
-2.593051076763801135e-10
-1.997220199117424516e-10
-1.507624626983070276e-10
-1.070502496360817960e-10
-7.783239743672128616e-11
-5.689813986820348187e-11
-4.130810336572937206e-11
-3.039415814461725379e-11
-2.275427843176737397e-11
-1.734448761713852714e-11
-1.344577159775175993e-11
-1.056048819253195104e-11
-8.347895887708886987e-12
-6.595598247093925168e-12
-5.172262161076746951e-12
-3.999662397393226447e-12
-3.033288833999219003e-12
-2.246356719109866841e-12
-1.619736595200341626e-12
-1.136278769991882420e-12
