# bin_17_12
6.440150253886543691e-08
6.010572700443613457e-08
5.465594089939711690e-08
4.835971050157659925e-08
4.163379179709409855e-08
3.494458482933687320e-08
2.871743654237364061e-08
2.322502601748997920e-08
1.854024149599388337e-08
1.457733473194899379e-08
1.122415488863415775e-08
8.464607462738071691e-09
6.335039349570854846e-09
4.757244248043891677e-09
3.561394963002355030e-09
2.672301945919270470e-09
2.022727067098633892e-09
1.541707162857112864e-09
1.184333091360595575e-09
9.151248257509135543e-10
7.089690281268589164e-10
5.486223271554959129e-10
4.223837644589154299e-10
3.223216563502329285e-10
2.429773285803382139e-10
1.804518549569108428e-10
1.317578953326929461e-10
9.444970219220600395e-11
6.642187112025453776e-11
4.582195390251412831e-11
3.102564310157343044e-11
