# bin_16_9
5.569206574184498544e-08
5.128232910879371035e-08
4.596921943385827596e-08
4.008224334351301654e-08
3.402662223259377444e-08
2.821640650032807460e-08
2.297491951127836089e-08
1.845304505537994813e-08
1.462814752201086522e-08
1.138642020573999003e-08
8.664944614153550676e-09
6.498070948403300679e-09
4.881829458921680279e-09
3.671878293474673879e-09
2.754422012579474797e-09
2.086741268636142377e-09
1.591070936641270363e-09
1.224351240450542696e-09
9.484972974733198984e-10
7.377490054895779859e-10
5.739699195081235518e-10
4.448156762261324969e-10
3.420144356274690186e-10
2.599495157276196313e-10
1.947126286490636147e-10
1.433932148345398472e-10
1.036465465252282256e-10
7.345918688752525360e-11
5.103615842899574805e-11
3.477208240578316214e-11
2.325721820407959248e-11
