# bin_12_8
4.893137980999711481e-08
4.458325263702318879e-08
3.953458345942571320e-08
3.411243059306536404e-08
2.868969577600766252e-08
2.361500604554322975e-08
1.912239097410534882e-08
1.528565284552972874e-08
1.204388531882995602e-08
9.301870685996212392e-09
7.036767371365421618e-09
5.279252904726226336e-09
3.977496014333922425e-09
2.992813012875428801e-09
2.257100801230385499e-09
1.719299959817533134e-09
1.319351849908599405e-09
1.020940639064506031e-09
7.946385276838414744e-10
6.199410513990288251e-10
4.828148315466808378e-10
3.738086529840655456e-10
2.865875807494868089e-10
2.168260053832782760e-10
1.614405870685752599e-10
1.180476347744011772e-10
8.465410052607136130e-11
5.949840289033120887e-11
4.098809236932350560e-11
2.769737775018105439e-11
1.838408505156173946e-11
