# bin_5_2
1.999943455534337963e-08
1.697872624321077181e-08
1.408492063299719208e-08
1.147412545236296566e-08
9.220976350008215778e-09
7.316338676487287263e-09
5.706747930036392274e-09
4.360831708077799442e-09
3.291034012410844193e-09
2.491217090430427225e-09
1.893026305834550800e-09
1.440600640864423930e-09
1.108540453147517065e-09
8.609082977371982726e-10
6.749892667835551488e-10
5.326234109806788215e-10
4.213653284437835416e-10
3.326688889929801560e-10
2.608979909421855380e-10
2.023914518319800720e-10
1.547323504940315702e-10
1.162411983614172567e-10
8.562236931009555036e-11
6.175492648719971978e-11
4.359072410516160320e-11
3.012400652776038593e-11
2.040467190484226443e-11
1.357128334881517749e-11
8.882526949318355489e-12
5.734403311717421078e-12
3.659877983092622966e-12
