# bin_11_7
4.480433271557784304e-08
4.051066732382223195e-08
3.564171748027197077e-08
3.052083230462633211e-08
2.549863712668914196e-08
2.087985982825606026e-08
1.684259601520490407e-08
1.341513621030518821e-08
1.051832024504454025e-08
8.074540046481002583e-09
6.085768395361776283e-09
4.572330792466737034e-09
3.450693465828424104e-09
2.597702939542648635e-09
1.968744997913981922e-09
1.505163117908226952e-09
1.160758853033267870e-09
9.018480167400101848e-10
7.041376708476734663e-10
5.503358136418315283e-10
4.287471967457334653e-10
3.315662708146356986e-10
2.535537701313454354e-10
1.911115283966738194e-10
1.416149913019307027e-10
1.029738399896864546e-10
7.339204189883687808e-11
5.125175699303134948e-11
3.507965540026969133e-11
2.355825488608918541e-11
1.554796798032943551e-11
