# bin_14_11
5.888873660664155641e-08
5.454721154705840258e-08
4.921058010980763226e-08
4.319655838644023779e-08
3.691054944198460159e-08
3.078186522091454776e-08
2.517194498777585312e-08
2.028082541681361593e-08
1.612830925333297609e-08
1.261557427449454448e-08
9.657663943840873483e-09
7.262353997162814633e-09
5.443994374285212640e-09
4.093116220282278011e-09
3.067536676249041600e-09
2.313019897939744051e-09
1.757594315599621176e-09
1.346443040746622374e-09
1.038817935216216885e-09
8.054345220187043540e-10
6.253338249589662889e-10
4.842368966284136007e-10
3.725191059303013586e-10
2.836445638356888822e-10
2.130878358363475913e-10
1.575470776410112862e-10
1.144251427651492265e-10
8.154209965887244171e-11
5.698678031981260521e-11
3.906363798430045953e-11
2.628560369000613219e-11
