# bin_20_4
3.681675869757733910e-08
3.257073197705574513e-08
2.801876271488299730e-08
2.348790606794491803e-08
1.928185038455562691e-08
1.559191674456566890e-08
1.246079033488837144e-08
9.808361118757577879e-09
7.548546656052074109e-09
5.691525639387290887e-09
4.281512632075094613e-09
3.239616963913164551e-09
2.442142917190669425e-09
1.856701434628861731e-09
1.424330897064546999e-09
1.103592139871915354e-09
8.621352222967306523e-10
6.772444443524304704e-10
5.327351231601548547e-10
4.177240847125903372e-10
3.250463997390455784e-10
2.499784559051813070e-10
1.893473826183006267e-10
1.408746104042718445e-10
1.027462399867894165e-10
7.337578801919554800e-11
5.129300242261711423e-11
3.511652311846493639e-11
2.357662776726073361e-11
1.555263812463043524e-11
1.010330395949655873e-11
