# bin_13_5
3.905549599960194805e-08
3.482714075490036268e-08
3.020710383442885564e-08
2.551590279872466991e-08
2.107236620150269200e-08
1.710817398858713691e-08
1.371451832723073219e-08
1.084807123679706185e-08
8.414645605058971212e-09
6.383577038383642391e-09
4.794566697410349896e-09
3.620497599907460119e-09
2.732356084396138813e-09
2.065736755076518821e-09
1.579214539431321734e-09
1.216840484434643866e-09
9.462330926384073986e-10
7.405250603097364805e-10
5.811116749396584033e-10
4.552911563930961899e-10
3.545772334667427391e-10
2.733586530743408845e-10
2.078650660852566885e-10
1.554499175643495184e-10
1.140789359273618727e-10
8.203486403603846596e-11
5.776841954700976640e-11
3.984277330186583165e-11
2.693882823106988124e-11
1.788451470840409927e-11
1.168263431422420017e-11
