# bin_10_2
2.304120779130211419e-08
1.967981629980760858e-08
1.640287269402778128e-08
1.340995110863861600e-08
1.081092500151053362e-08
8.610883281638981949e-09
6.745997417518183698e-09
5.169515674547235265e-09
3.899167883747647598e-09
2.946362672261357785e-09
2.236263914885478970e-09
1.696386327002709355e-09
1.300912158476895292e-09
1.006964411947483640e-09
7.874118169533336559e-10
6.203241107580739028e-10
4.905857667984489667e-10
3.877064325423525555e-10
3.047377704105322886e-10
2.371714620607187251e-10
1.820601827050496741e-10
1.374041401819180555e-10
1.017113677635892653e-10
7.372739342229011481e-11
5.229509275281692061e-11
3.630279771250142238e-11
2.468923310384631308e-11
1.647803503141261419e-11
1.081625110713510033e-11
6.999154252855058059e-12
4.475344234875703889e-12
