# bin_11_6
4.147290535684235759e-08
3.723109911906061812e-08
3.251710574569051381e-08
2.765030066206875058e-08
2.296190923633692422e-08
1.871717453962285709e-08
1.504741856583740772e-08
1.194377309785802548e-08
9.317053194477383632e-09
7.110421948316821602e-09
5.345947083032897783e-09
4.025765573457087385e-09
3.040282883546793486e-09
2.291830815608375982e-09
1.745309718623021838e-09
1.339147157713860595e-09
1.037276300715407852e-09
8.089331410931752679e-10
6.332620928233255745e-10
4.956046289582739368e-10
3.860795996891698255e-10
2.981321167033373436e-10
2.273572651626399889e-10
1.707028746970405525e-10
1.258851450548901801e-10
9.103129482765550978e-11
6.449156162088842852e-11
4.475663629678049280e-11
3.044566429962520661e-11
2.032738536402072797e-11
1.334525378025898216e-11
