# bin_16_6
4.498385981498426362e-08
4.059008296953119073e-08
3.562163467959550633e-08
3.041644874904399011e-08
2.534107862392713920e-08
2.070642246812333540e-08
1.668198967464243929e-08
1.327600152687973665e-08
1.038895957730805677e-08
7.945780798991248366e-09
5.972422973458512591e-09
4.492354860604348330e-09
3.391016256821192911e-09
2.550626506953091251e-09
1.937833606028254104e-09
1.483119256184324768e-09
1.146291350374956003e-09
8.924668026244533501e-10
6.980601869678443383e-10
5.463400244624417949e-10
4.259931883892374878e-10
3.295163172436347047e-10
2.518862995527471703e-10
1.896628505434551791e-10
1.403175027316246878e-10
1.018133003524939065e-10
7.237775419233679428e-11
5.039598818062775255e-11
3.438680304872118987e-11
2.302106967689488942e-11
1.514868294881404405e-11
