# bin_7_5
3.332806928823744170e-08
2.942296840090966178e-08
2.528572491049882670e-08
2.119515420100390119e-08
1.740221830341353387e-08
1.406511822252590338e-08
1.122371768914619207e-08
8.825421968545314176e-09
6.803980469897223776e-09
5.148527780600879548e-09
3.874862681234666681e-09
2.930961738768401972e-09
2.216400267785860923e-09
1.684627522313397234e-09
1.293681795879731042e-09
1.001848170177098671e-09
7.820868589230223268e-10
6.135795135001750095e-10
4.818472150231907810e-10
3.771108573399743603e-10
2.928758940757906263e-10
2.248308769481054248e-10
1.700366610238318941e-10
1.263607901555336017e-10
9.209787527075801047e-11
6.576104441576382284e-11
4.598633259658294626e-11
3.150825436323402874e-11
2.117691695276487428e-11
1.398651261760565706e-11
9.096784969235656982e-12
