# bin_20_19
7.953385954919224167e-08
7.564703478266075269e-08
7.020235478042206047e-08
6.344867142565279553e-08
5.579054676188732990e-08
4.774807102893719777e-08
3.987554416280287517e-08
3.264363461030945340e-08
2.631946319243322742e-08
2.093789953506608009e-08
1.637917526081588057e-08
1.253494929110901590e-08
9.411535798952702754e-09
7.029128506542628111e-09
5.257732206965829053e-09
3.915351371670640792e-09
2.926325282040123760e-09
2.202080861640516718e-09
1.668606431133060329e-09
1.273266277423639547e-09
9.768444670606393025e-10
7.512308987685843673e-10
5.770659157465341779e-10
4.411439678335234435e-10
3.344164189176447103e-10
2.506017346691486598e-10
1.851703786781299724e-10
1.346503966338479959e-10
9.623198512243313719e-11
6.754660955264015820e-11
4.655996811159966004e-11
