# bin_19_5
4.168189857860848704e-08
3.730530986679657984e-08
3.246388049949954450e-08
2.749725117013086078e-08
2.275537157449183137e-08
1.850361643960635892e-08
1.485671535955772924e-08
1.177558982980849294e-08
9.153242207634180982e-09
6.949929076608897231e-09
5.216312232157445814e-09
3.936695705831057255e-09
2.968956141929128521e-09
2.240500760868229390e-09
1.710150310390239689e-09
1.315428784321758779e-09
1.021505059869147925e-09
7.987380264013202294e-10
6.266310146348597396e-10
4.911420021832442116e-10
3.828713793521280916e-10
2.956118453634297891e-10
2.252118879873587363e-10
1.687892029829991942e-10
1.241587036504772256e-10
8.949748549327230783e-11
6.317128557144362398e-11
4.366470213945553085e-11
2.958104672514029636e-11
1.967200768301579511e-11
1.286841838566744768e-11
