# bin_15_12
6.224145277265223769e-08
5.793354712846461569e-08
5.253426827775939993e-08
4.635442495547138451e-08
3.980541644661960002e-08
3.333816098921996274e-08
2.735244791479666091e-08
2.209309407184995511e-08
1.761349325185431678e-08
1.382442236404045623e-08
1.062468380847188388e-08
8.005999113454910315e-09
5.995140619338365433e-09
4.503647760012294596e-09
3.373171541681808402e-09
2.535114452523015141e-09
1.921453763154206784e-09
1.466955117582376315e-09
1.128519048841965603e-09
8.729628193936827134e-10
6.767571373301887799e-10
5.237839637589732829e-10
4.031260875002327753e-10
3.073782172364644940e-10
2.314317553095164135e-10
1.716116953996447054e-10
1.250774027614568822e-10
8.948367369502631347e-11
6.279947368757249876e-11
4.323320838887198405e-11
2.921430721819173099e-11
