# bin_8_2
2.214985926811716334e-08
1.888830003748645204e-08
1.572362953493920089e-08
1.284268466153511221e-08
1.034501290994779826e-08
8.231535163641939172e-09
6.441459925210541642e-09
4.932542163444045594e-09
3.720962770550586796e-09
2.812988638674743710e-09
2.135682946108958860e-09
1.621431922432746997e-09
1.244540334312259776e-09
9.641647235511372859e-10
7.544679728524974306e-10
5.946246574444529359e-10
4.703016936509281039e-10
3.715784563553975929e-10
2.918911405408528434e-10
2.269796693037168980e-10
1.740521452747183912e-10
1.312026367839070657e-10
9.699671193571997850e-11
7.021902925921068632e-11
4.974439894165468038e-11
3.449218902576907896e-11
2.343370205605772451e-11
1.562625185208137528e-11
1.024960009770381965e-11
6.628536542612589671e-12
4.236383161632802482e-12
