# bin_14_13
6.282641276614701350e-08
5.853770879950586642e-08
5.314198690992973196e-08
4.694725570785951340e-08
4.036386957811296125e-08
3.384431260138484484e-08
2.779332054019511873e-08
2.246439764824922960e-08
1.791948726911052623e-08
1.407513466816251825e-08
1.082911411737917604e-08
8.167542190293821729e-09
6.115866862892815591e-09
4.592534493967335240e-09
3.440203164656710230e-09
2.583527796701331302e-09
1.956915460054378792e-09
1.492651515906676430e-09
1.147393816880984767e-09
8.869234005195119439e-10
6.872022649115366764e-10
5.316964113818791089e-10
4.091813690135668327e-10
3.120452366926058626e-10
2.350367927687375168e-10
1.743884476868489241e-10
1.271999520172455612e-10
9.108682466913094887e-11
6.399164086467547556e-11
4.410369871492438119e-11
2.983728916143257098e-11
