# bin_5_1
1.566013306879958805e-08
1.308014725236384739e-08
1.071220543263029774e-08
8.645543584125949321e-09
6.892052171056080871e-09
5.409299070107539805e-09
4.159606903379133837e-09
3.147687495269926841e-09
2.381001550727339939e-09
1.811034923815209169e-09
1.378794019042910333e-09
1.059701453892070296e-09
8.230241552918966508e-10
6.455244815826240498e-10
5.101293664221421997e-10
4.046425170529490558e-10
3.206739949927421639e-10
2.526879302760805921e-10
1.971083838695231435e-10
1.516138694092103440e-10
1.146336610393968898e-10
8.499510927240309121e-11
6.170383645714750017e-11
4.383046744039670014e-11
3.047087679633723908e-11
2.075393204100620997e-11
1.387299872260562518e-11
9.120773256031213335e-12
5.911488018693950591e-12
3.785886767979140057e-12
2.400909285085958714e-12
