# bin_19_3
3.101514633513575592e-08
2.703702351654012325e-08
2.293651882790354266e-08
1.900570094111156850e-08
1.547126041096118899e-08
1.243570194009987538e-08
9.870584865152824212e-09
7.685859125132600670e-09
5.846434708186248655e-09
4.395844411759892091e-09
3.324160561817701932e-09
2.514623131420532396e-09
1.904823221483809318e-09
1.460140691308850839e-09
1.128881013924897235e-09
8.814738974911587821e-10
6.931035035423698446e-10
5.467077296209039393e-10
4.306350140694495699e-10
3.371633994466846713e-10
2.612573456443825862e-10
1.995934243792077345e-10
1.498807829141359608e-10
1.103750444392008452e-10
7.959282565063914015e-11
5.616759604787020868e-11
3.879927351845470494e-11
2.626405629713515744e-11
1.745326853783475811e-11
1.141116167415409976e-11
7.357945875431042087e-12
