# bin_13_1
1.816534595693210884e-08
1.524382158928713104e-08
1.252819489216889487e-08
1.014127858383993560e-08
8.111766042647228739e-09
6.391930611102088609e-09
4.930032771758613608e-09
3.731166051485395142e-09
2.817673841233776274e-09
2.140619300419996180e-09
1.625672398834152797e-09
1.245336794711103919e-09
9.643474882530632751e-10
7.544621377114687828e-10
5.953016619429752462e-10
4.720442927640856812e-10
3.744291632084218891e-10
2.956531550454358423e-10
2.313204658998501476e-10
1.785998484384560779e-10
1.356148133035349504e-10
1.010092700318433006e-10
7.366731167069540623e-11
5.256156713612450944e-11
3.669158634783176360e-11
2.508294733135029135e-11
1.681992601365742634e-11
1.108752984556359574e-11
7.201693305403252075e-12
4.620049960891204257e-12
2.933783710432725165e-12
