# bin_13_13
6.128549518306601960e-08
5.698036534379712596e-08
5.161223116877252909e-08
4.549234383147125941e-08
3.902845406700722428e-08
3.266328653790031690e-08
2.678435514751401459e-08
2.162478348549139653e-08
1.723103854238644315e-08
1.351481332820039427e-08
1.038064760106859553e-08
7.821854260040898483e-09
5.859065849572882017e-09
4.401549064494637558e-09
3.297942608989440200e-09
2.480019897702684781e-09
1.880664136637727359e-09
1.436597963337341858e-09
1.105695846056766470e-09
8.555748988748855615e-10
6.633635888168097847e-10
5.133866801538495130e-10
3.950262995692472356e-10
3.010781856823612833e-10
2.265646780567455367e-10
1.678939620501617324e-10
1.222804424897037438e-10
8.741745665404249372e-11
6.130383318881822452e-11
4.217365729985364993e-11
2.847989140553994212e-11
