# bin_15_7
4.830338921167663121e-08
4.389757285303075740e-08
3.881205137575563757e-08
3.338288082121096589e-08
2.798984768864562650e-08
2.298123098345932586e-08
1.857748176117285962e-08
1.483266410011676317e-08
1.166607102547546335e-08
8.981002921964697973e-09
6.773257990309871140e-09
5.082696595816924468e-09
3.833879895809196514e-09
2.881936191233352207e-09
2.178389695921067626e-09
1.661507990041603798e-09
1.278152358192246137e-09
9.910645363219377334e-10
7.728178137425875631e-10
6.037722950961981709e-10
4.706096787740412107e-10
3.644265878078651984e-10
2.792601147233160682e-10
2.110475487137531518e-10
1.568727185449773504e-10
1.144543201463931991e-10
8.186052744626813074e-11
5.736421734295957115e-11
3.939292735276610886e-11
2.653434038654080777e-11
1.755806254790670623e-11
