# bin_19_4
7.671280264269064648e-62
8.596109571887892799e-62
9.455528749900991003e-62
1.016303454143109646e-61
1.060916941866107172e-61
1.069120773581633764e-61
1.027647253821603335e-61
9.321228471878191285e-62
7.993729778228349104e-62
6.563767330042809830e-62
5.418952695409422686e-62
4.674639269526384428e-62
3.919935786957644859e-62
2.823653422927553906e-62
2.050822843339273163e-62
1.640299458418530200e-62
1.091376453758157798e-62
8.198716674330683347e-63
5.731087226884173699e-63
3.979255391766138378e-63
2.793904168294837957e-63
1.969228757647532096e-63
1.406356655344171508e-63
1.019961419508833351e-63
7.546974634450018205e-64
5.687521281750361881e-64
4.353168465709049836e-64
3.366499800303829726e-64
2.611859361767269134e-64
2.018178052858984596e-64
1.542798340935725056e-64
