# bin_15_8
1.129173800269368244e-21
1.259151036551207015e-21
1.376790704586915033e-21
1.468848767905969763e-21
1.518772300557405326e-21
1.513759443661889197e-21
1.432601023589011129e-21
1.280260425466091707e-21
1.081282948909548697e-21
8.844392671623673037e-22
7.383707344391776750e-22
6.396802313503078400e-22
5.192031043659284855e-22
3.622997448129635895e-22
2.776656367468960032e-22
2.101970077731110716e-22
1.456506555560037603e-22
1.039484743602354985e-22
7.490004039915617573e-23
5.251625161895434196e-23
3.695134071522956044e-23
2.635996387706244634e-23
1.908316564694410216e-23
1.406006944245330730e-23
1.056116699660126700e-23
8.063697221360227850e-24
6.232514954135261463e-24
4.845102804601627426e-24
3.760862799761517886e-24
2.894675694093786259e-24
2.196289643870691025e-24
