# bin_11_11
1.426397789063882218e-10
1.585547534864096603e-10
1.726942171947745628e-10
1.833489388178589718e-10
1.884304657485421213e-10
1.863841724841479706e-10
1.746600245015850127e-10
1.546564046704272280e-10
1.295117529113412288e-10
1.058700292617010782e-10
8.909853545053394582e-11
7.711673127781317850e-11
6.099222044779570084e-11
4.219485648397476564e-11
3.336237829989698500e-11
2.419991054574769665e-11
1.743261937046692638e-11
1.206139540033721105e-11
8.736834727988488386e-12
6.173725538903203298e-12
4.377915981906121330e-12
3.149472482574046284e-12
2.298535822052590316e-12
1.709147037657481930e-12
1.294549118702344691e-12
9.951234008855697980e-13
7.725937821838732846e-13
6.016331198125809629e-13
4.665448026924790466e-13
3.578914186625639334e-13
2.701244984540414775e-13
