# bin_8_6
1.282024948745021056e-11
1.393412110853474761e-11
1.476026377115910690e-11
1.513228863174074888e-11
1.492267972934586176e-11
1.393571591000952637e-11
1.230096844581581729e-11
1.027568159324280420e-11
8.400177306166160033e-12
7.083384234921554112e-12
6.119845768126323388e-12
4.803541515489093896e-12
3.334083653724565242e-12
2.654962397590651885e-12
1.913839216474522671e-12
1.401051912977240265e-12
9.789261551225085505e-13
7.156186056912924444e-13
5.160638466220714771e-13
3.753460192603460375e-13
2.775737387187687772e-13
2.087157476277828116e-13
1.598091478953954077e-13
1.241773061243074643e-13
9.735050269934196145e-14
7.650288920712369117e-14
5.983550368878954091e-14
4.626990564231560899e-14
3.517564825323205215e-14
2.617071254313777782e-14
1.899034343116531108e-14
