# bin_6_3
1.375205450187037535e-13
1.456490836305545809e-13
1.493535023446285937e-13
1.473526033801234090e-13
1.377516373701929303e-13
1.217299171985932069e-13
1.018345418283525977e-13
8.326784010275089263e-14
7.009297421784660414e-14
6.049067130495647483e-14
4.771292196777857588e-14
3.331755533723974279e-14
2.634228114147059209e-14
1.924331974608260403e-14
1.403587493547476620e-14
9.997594689080171577e-15
7.358120489646234195e-15
5.374702101271457574e-15
3.973377552087101461e-15
2.991713416342302080e-15
2.292602319848480129e-15
1.786099461176953720e-15
1.407798517042175689e-15
1.114985645400911729e-15
8.811439601067638759e-16
6.899901740671674084e-16
5.319947549096883680e-16
4.017392898060687778e-16
2.959359354439483609e-16
2.121172894331845102e-16
1.479062459295328814e-16
