# bin_6_6
2.634267789237813265e-10
2.836938400742205107e-10
2.970788066306501687e-10
3.005614989264167655e-10
2.908165927471755818e-10
2.657262955708190490e-10
2.296407661288676931e-10
1.892189972335367420e-10
1.555189138255323864e-10
1.333060294003562225e-10
1.130650022951050076e-10
8.359534599293809026e-11
5.959665321141878886e-11
4.833272283846334683e-11
3.280042108344480715e-11
2.504662218356427849e-11
1.768028720545672792e-11
1.269901279853208968e-11
9.270858192699512436e-12
6.840978945022365133e-12
5.130159654218247341e-12
3.913448487044705721e-12
3.036084177583205597e-12
2.381931130005872069e-12
1.877499412951979576e-12
1.476660535198032690e-12
1.150737866496649731e-12
8.831561707128108926e-13
6.641098318654814336e-13
4.873647676743519632e-13
3.482184398022138481e-13
