# bin_6_5
1.309755459070946381e-10
1.403365401317749604e-10
1.460122527483910157e-10
1.466480684720747948e-10
1.403847322482326388e-10
1.268803766056268669e-10
1.084358581384409177e-10
8.894883595548465554e-11
7.354975999221661597e-11
6.341511071616897454e-11
5.283021379435543006e-11
3.800252629265728483e-11
2.797306969844092560e-11
2.222128983705261204e-11
1.516333715873230163e-11
1.142674599315055039e-11
8.217392901270348325e-12
5.910827645664398275e-12
4.322540393657789458e-12
3.205641487196758850e-12
2.420993299430987438e-12
1.860297356118341309e-12
1.451663266107399236e-12
1.143274048866317618e-12
9.026313921593238654e-13
7.094417683558138700e-13
5.513013768653857528e-13
4.211266872764354059e-13
3.147005469174493749e-13
2.292265354674105349e-13
1.624726615374738384e-13
