# bin_16_9
5.311722033637433331e-21
5.943429112991996644e-21
6.525997518024998384e-21
6.998804713679865800e-21
7.285446310722069580e-21
7.318253169506800017e-21
7.001706639424290279e-21
6.321742168548568094e-21
5.395652235810344873e-21
4.423406745097435924e-21
3.662868624055755218e-21
3.166465097045381432e-21
2.631987271365259587e-21
1.874357701846885484e-21
1.383482115331184533e-21
1.090719608505705687e-21
7.320727071093496922e-22
5.430380443543295741e-22
3.832068964762303715e-22
2.667623030230244918e-22
1.872798980654760183e-22
1.323946815975351875e-22
9.494182476179776470e-23
6.919758753627976143e-23
5.144785618088558365e-23
3.893820214996651911e-23
2.990262660282110829e-23
2.317010442660910801e-23
1.798443413880754802e-23
1.388312089456432772e-23
1.059021220597649113e-23
