# bin_19_13
6.837394844020456646e-17
7.721190314099622941e-17
8.572593321322553288e-17
9.320436217343218861e-17
9.870612325374842391e-17
1.011067435651501434e-16
9.954666716653457337e-17
9.272839593545910389e-17
8.164685343257793197e-17
6.804292013561118897e-17
5.565324558584519411e-17
4.710894474604914101e-17
4.071111241827408711e-17
3.159588375894375345e-17
2.180364855278907598e-17
1.751305524977867862e-17
1.225903942062203698e-17
9.015207110119176118e-18
6.077266767715818807e-18
4.309646093378048956e-18
2.997217825762067223e-18
2.082147644812285098e-18
1.455787063818521729e-18
1.027522870331019772e-18
7.381350074104201968e-19
5.407215255280160811e-19
4.037932477815842198e-19
3.068351879072859752e-19
2.359546294235146936e-19
1.823619777749687653e-19
1.405871689243095031e-19
