# bin_7_5
1.212977953827615085e-11
1.306868619574806138e-11
1.369278534383725443e-11
1.386183379100245263e-11
1.342454998437440493e-11
1.227776421089046646e-11
1.062044306932200537e-11
8.754577594149202762e-12
7.191933724356277143e-12
6.161291668591677153e-12
5.233238405339343730e-12
3.878494895942059485e-12
2.757720459645739334e-12
2.239996277258095250e-12
1.519793214643225943e-12
1.161543206809065193e-12
8.187126243598777737e-13
5.879755110867364974e-13
4.292092383774718810e-13
3.166013863952482167e-13
2.372863601169482538e-13
1.808983066465544684e-13
1.402724458093351399e-13
1.100126095121799650e-13
8.670183987881741781e-14
6.819453442394446721e-14
5.315509232909286288e-14
4.081074465982711338e-14
3.070455740174165124e-14
2.254695113286896471e-14
1.612041567796915584e-14
