# bin_18_2
2.663581063546163504e-75
2.974079241081892348e-75
3.257175232988829749e-75
3.481945004285987555e-75
3.609582044390676991e-75
3.608619817877601333e-75
3.429391373770813217e-75
3.076653336699806163e-75
2.608655739329489364e-75
2.135180407374973068e-75
1.776722371805527497e-75
1.538617884533178085e-75
1.260975051156338974e-75
8.858586526274884290e-76
6.692350818711288812e-76
5.150268152497663945e-76
3.519846516748240073e-76
2.551403822688681393e-76
1.825226738732972518e-76
1.276059015839328358e-76
8.965660352204203097e-77
6.372574513668995912e-77
4.597031076051724057e-77
3.373384551404894771e-77
2.524409293278036065e-77
1.921357268973056239e-77
1.481701813908815332e-77
1.150645791803402642e-77
8.932775733655634633e-78
6.883839453772379375e-78
5.233986301046420168e-78
