# bin_18_12
3.087215953127234932e-17
3.478043562818867128e-17
3.850681942147322754e-17
4.172106118464248251e-17
4.399356945241951102e-17
4.483740587705195891e-17
4.383260552695743413e-17
4.048527774904373831e-17
3.536023950744059691e-17
2.929882999855662880e-17
2.400014953325683386e-17
2.045591050149881201e-17
1.757904009715425475e-17
1.331702590358690902e-17
9.251839882952862634e-18
7.525799081398379230e-18
5.089716467311964891e-18
3.837629475151924322e-18
2.597192387315252720e-18
1.812835901027047802e-18
1.270043424327094914e-18
8.897059440615168463e-19
6.261775913544167246e-19
4.456040778106949924e-19
3.232352970213250532e-19
2.390917195928663797e-19
1.801330150014002987e-19
1.378182685877730264e-19
1.064147395089255834e-19
8.232949713233853978e-20
6.335181966088582055e-20
