# bin_18_14
1.709993332380820744e-13
1.930531897639785364e-13
2.142751221259207333e-13
2.328799896567595040e-13
2.465112759123922373e-13
2.523666734726337819e-13
2.482824425950642415e-13
2.310619392635391045e-13
2.032719954064543102e-13
1.692890560870189026e-13
1.384806646036909041e-13
1.173107582187328116e-13
1.013306563693099320e-13
7.843386452485953940e-14
5.414938050657124550e-14
4.357023183995145671e-14
3.037358450802203619e-14
2.240992614998942135e-14
1.510239076345675567e-14
1.069132367298590447e-14
7.442046385873957861e-15
5.175559081104766762e-15
3.621254800970785786e-15
2.558195894149566515e-15
1.839698308144163113e-15
1.349143002035059503e-15
1.008518194772518544e-15
7.669721291876874708e-16
5.900952846910937299e-16
4.561407870558696428e-16
3.515910560464979141e-16
