# bin_17_2
6.797677406836052118e-70
7.569095769851131710e-70
8.261460104990533449e-70
8.794200184621358966e-70
9.067405406110596742e-70
9.006291052143357628e-70
8.484603002569583508e-70
7.550110139495045588e-70
6.350747099153397190e-70
5.192247711316890098e-70
4.350777415574548566e-70
3.768864771741835204e-70
3.023907121091506239e-70
2.098799106107375208e-70
1.633214544910253933e-70
1.212750268672902506e-70
8.550135187657466323e-71
6.004079167730206273e-71
4.347320341350406951e-71
3.058614222905657977e-71
2.158345213008229848e-71
1.545896894927723028e-71
1.123402464622372031e-71
8.312851849949178433e-72
6.268909011337968786e-72
4.802070997624013993e-72
3.719802821529257869e-72
2.894402294395522880e-72
2.245908033348542634e-72
1.726078746813266707e-72
1.306511854890971541e-72
