# bin_16_13
2.135478490146592683e-12
2.401688115630385621e-12
2.653551191532262761e-12
2.867787778626810725e-12
3.014447208801237203e-12
3.061371989762780280e-12
2.976990692846558441e-12
2.733338415727935860e-12
2.373292165011562591e-12
1.959753843491593303e-12
1.608240306453336985e-12
1.376743541447339074e-12
1.175843092904081540e-12
8.760012684593282367e-13
6.145177677154606117e-13
5.009738613046380284e-13
3.336854154549615181e-13
2.534993405451672797e-13
1.731996396309616277e-13
1.201359194133226135e-13
8.435619426092764384e-14
5.924142489613087159e-14
4.188854203450602171e-14
2.999051873196839717e-14
2.190058426473515870e-14
1.630430570719117876e-14
1.235339042207099898e-14
9.490149831773162718e-15
7.343294422475671379e-15
5.681637803106031114e-15
4.364089383705941126e-15
