# bin_17_17
9.360449018124249624e-11
1.058778224186788597e-10
1.177871769798855331e-10
1.283762010526436333e-10
1.363684593196615297e-10
1.402007368230991252e-10
1.387203963970325635e-10
1.300101843038694525e-10
1.151239787839737844e-10
9.639859386918233023e-11
7.881439661587864501e-11
6.637474744755710121e-11
5.748026665692490596e-11
4.539915632378471304e-11
3.132178048883139297e-11
2.478738022542409311e-11
1.785251082740862019e-11
1.280468544404538268e-11
8.715206298935856643e-12
6.230153700582809911e-12
4.308981177231417399e-12
2.971087894726359699e-12
2.067036981868373770e-12
1.450677576313669086e-12
1.034593929373167766e-12
7.522848832608759601e-13
5.578379137449275020e-13
4.214454758398384849e-13
3.228495920763265515e-13
2.491356198282164806e-13
1.922049032605341361e-13
