# bin_16_11
1.210905625085953680e-15
1.358459325408558668e-15
1.496387328532338813e-15
1.611169673919401339e-15
1.685624831277743334e-15
1.702913134359574243e-15
1.642917386837409849e-15
1.495827024371291698e-15
1.287771512660988902e-15
1.059041391386883237e-15
8.724356027659832248e-16
7.509973706900222108e-16
6.338275505869905457e-16
4.612084172890654404e-16
3.308165371126299035e-16
2.670699610727066927e-16
1.770085856991521600e-16
1.339304707375653020e-16
9.294308663943385600e-17
6.442989762389001346e-17
4.524681338456341744e-17
3.183838029508138315e-17
2.266472861096063105e-17
1.637118209696304223e-17
1.206491784721459865e-17
9.059154168696411244e-18
6.913391637596892413e-18
5.336667794251631870e-18
4.137925495487820415e-18
3.199298333269828398e-18
2.449676705503187394e-18
