# bin_13_12
5.537776221370935822e-06
6.190391975009832633e-06
6.789140034339429073e-06
7.270316339152724021e-06
7.553786178400381507e-06
7.571419486989866214e-06
7.221658413301043611e-06
6.501160867298558081e-06
5.531829507542426892e-06
4.531349235875913500e-06
3.760385112322116275e-06
3.253908257099592945e-06
2.687789210305686516e-06
1.901512775420471595e-06
1.418521055964751563e-06
1.106468475621179666e-06
7.483334295537070549e-07
5.495263739964533145e-07
3.902603919417873376e-07
2.721876364108654062e-07
1.911233262560314594e-07
1.354313257740290879e-07
9.738316736674918861e-08
7.119996009785659420e-08
5.309619144438259340e-08
4.029144922119978961e-08
3.100333178207111132e-08
2.404893463041841706e-08
1.866908258522654414e-08
1.440085843040962157e-08
1.096899280895717639e-08
