# bin_7_7
1.248005344271825561e-05
1.356033373774369269e-05
1.435901884824126024e-05
1.471453786637494700e-05
1.450202810250830776e-05
1.353311634279410637e-05
1.193757018263768823e-05
9.966963465499558390e-06
8.148540713540887903e-06
6.875227902305652304e-06
5.937852841438890828e-06
4.651540018568866017e-06
3.229645139696332565e-06
2.575221060774723526e-06
1.851110589028990261e-06
1.358243830586936805e-06
9.487888722721994363e-07
6.929754856881617359e-07
5.000326670773653404e-07
3.639254722575684152e-07
2.692507672295272231e-07
2.025508299013801827e-07
1.551586396152222450e-07
1.206050218205577252e-07
9.456970231993928315e-08
7.432189568561821790e-08
5.812424206186568100e-08
4.493650221485641273e-08
3.415037920923900510e-08
2.539688138353062319e-08
1.841963833704304142e-08
