# bin_15_12
1.363409470836178313e-07
1.529150951056857206e-07
1.683878473330274538e-07
1.812335315767171650e-07
1.895152065240779120e-07
1.913525715386855170e-07
1.844592612300229850e-07
1.678036455088582667e-07
1.443395287115412022e-07
1.186608967542033371e-07
9.779869158856147062e-08
8.422643225908983705e-08
7.098544178871158719e-08
5.153688885442811155e-08
3.706693656931016986e-08
2.986578568477055646e-08
1.980888118463323489e-08
1.496593624480310893e-08
1.040241651092744784e-08
7.213422637863227733e-09
5.065469321602371842e-09
3.565592553326556748e-09
2.540007588649730238e-09
1.836323481093197675e-09
1.354492497342683020e-09
1.017863211317213025e-09
7.772768430157497740e-10
6.002483333917133523e-10
4.654802481117987515e-10
3.598449864793838297e-10
2.754313349833653986e-10
