# bin_13_1
1.851376420035143500e-52
2.030067863064267871e-52
2.174204314885216769e-52
2.260028795755337676e-52
2.266955513161716237e-52
2.165195069716229178e-52
1.952031202109951356e-52
1.663696881005168794e-52
1.363318714082070589e-52
1.129534964400374201e-52
9.760619108959723683e-53
8.091757841957451572e-53
5.762554423145894088e-53
4.276584010132545017e-53
3.366451917127837521e-53
2.286479691053320776e-53
1.702987201916823384e-53
1.219379998494027403e-53
8.651118164866470342e-54
6.214738437209505184e-54
4.519728711166999204e-54
3.344824755489062228e-54
2.519560550745910399e-54
1.932025000253197222e-54
1.500857325725604484e-54
1.174355874059117120e-54
9.192670139441376085e-55
7.147410074589506860e-55
5.485523857408680908e-55
4.134098292396464232e-55
3.046877436418608209e-55
