# bin_14_6
7.441764766078664302e-22
8.252899708949206092e-22
8.963275108863527279e-22
9.482572686940857112e-22
9.703670780653929335e-22
9.543215071185463944e-22
8.879525006963421560e-22
7.810502010520822462e-22
6.504671897578209320e-22
5.319626861449110684e-22
4.503325288363844421e-22
3.887956969199897014e-22
3.013915348876029355e-22
2.085581709451549026e-22
1.677683068286468694e-22
1.179249033127634852e-22
8.733266776287641993e-23
5.980169759574068703e-23
4.302172701204005038e-23
3.059454740124247439e-23
2.186252090536430439e-23
1.581330941876424217e-23
1.160585685893866307e-23
8.683937261999549695e-24
6.613608759439354289e-24
5.105606179335312339e-24
3.974081878840231000e-24
3.096700507463632843e-24
2.398630464887357167e-24
1.835056710316286468e-24
1.379593417497739349e-24
