# bin_8_3
2.930197237399695183e-14
3.144876961142766795e-14
3.279052126276434134e-14
3.301345159247130061e-14
3.171340274849490315e-14
2.875998503016390623e-14
2.466445269588366599e-14
2.025405478904257466e-14
1.670998954719570605e-14
1.438784080037821440e-14
1.206484535584334009e-14
8.745010748079476656e-15
6.365657824513231583e-15
5.105419372104388380e-15
3.463580033772060852e-15
2.630081551487157472e-15
1.879978256384696767e-15
1.350196325877009012e-15
9.868997069841772414e-16
7.305273436878725152e-16
5.504780842371656601e-16
4.220444127698606333e-16
3.287690812092578325e-16
2.586435899678868458e-16
2.041233575468887717e-16
1.604885126640392296e-16
1.248378868822605861e-16
9.551035743891271442e-17
7.151872022049018301e-17
5.221800479741339171e-17
3.710391494434692223e-17
