# bin_5_5
1.602251455916094250e-05
1.706656099624370045e-05
1.762397909305305266e-05
1.754466849571070859e-05
1.659117118950365771e-05
1.482047031926836570e-05
1.251853713547996720e-05
1.024075617962270117e-05
8.542430717425717154e-06
7.385175768232978332e-06
5.994962044329750931e-06
4.219292119149308498e-06
3.231853315315821402e-06
2.466031294801050065e-06
1.733827920385816182e-06
1.265581005161281876e-06
9.268635716822172361e-07
6.714209569753273500e-07
4.928281649118265839e-07
3.682820659539206034e-07
2.803063979535915511e-07
2.170116229149749587e-07
1.702963500194555303e-07
1.345689591842760169e-07
1.063407843808072954e-07
8.344986693186035855e-08
6.460317596078314486e-08
4.906632287833004124e-08
3.639901956603829357e-08
2.629148852702540230e-08
1.847417951373063221e-08
