# bin_19_11
2.275642052870818920e-17
2.564922651440622485e-17
2.841304389583006833e-17
3.080574250069810276e-17
3.251132232632079577e-17
3.316712713100671642e-17
3.246959082514014412e-17
3.003927853969387740e-17
2.627849246621820177e-17
2.179628814770734954e-17
1.784765549760683054e-17
1.519260186885987958e-17
1.307385478798654567e-17
9.950024519487518867e-18
6.899577392225646006e-18
5.603054878688161371e-18
3.811023840699968537e-18
2.863259480798415806e-18
1.933915082043546129e-18
1.353522937413141746e-18
9.472023532333790172e-19
6.627717861099244641e-19
4.658670329461523711e-19
3.309835695634845658e-19
2.396447448460706095e-19
1.769380174427946844e-19
1.330883894470646525e-19
1.017005253364791579e-19
7.847310265447055389e-20
6.070556325660157634e-20
4.673252866688120007e-20
