# bin_20_16
2.942693273141481034e-08
3.335705133174155748e-08
3.720768160540600495e-08
4.068477292809708748e-08
4.339332263298026388e-08
4.483998041300108576e-08
4.465065674184755227e-08
4.219232903430692601e-08
3.764951468870337846e-08
3.174794095651980550e-08
2.596786724788919012e-08
2.172240333861548304e-08
1.882868357004506143e-08
1.520636130927376173e-08
1.056088331353508714e-08
8.142491817501666721e-09
6.088541017660565043e-09
4.219862367458669915e-09
2.952676113617644655e-09
2.106282496662899320e-09
1.447814325994238961e-09
9.909727011720716807e-10
6.842861427726233778e-10
4.765360932938351069e-10
3.364368414979574125e-10
2.420477354345192148e-10
1.776177226365318631e-10
1.329779221915102691e-10
1.012050822367671217e-10
7.783715594039417853e-11
6.004922462487241659e-11
