# bin_19_14
5.811252503802293613e-10
6.568907724640061365e-10
7.301969880537540888e-10
7.950630127136412839e-10
8.435330912455911013e-10
8.659497169837329284e-10
8.551258226371491048e-10
7.994750873259085691e-10
7.063288301542569206e-10
5.902898807901507543e-10
4.826561014138772428e-10
4.073034083904310404e-10
3.524855350370875250e-10
2.764625570847107817e-10
1.906636853532128086e-10
1.518683138241509764e-10
1.081295114745011348e-10
7.836451118218425623e-11
5.306346558217672577e-11
3.784081870657180736e-11
2.622726197621365470e-11
1.813726314353532179e-11
1.264406714075928410e-11
8.894007230564526374e-12
6.361646581305798245e-12
4.639761474550033998e-12
3.450472086906731294e-12
2.613115186930840089e-12
2.005050903703684571e-12
1.548339144298747049e-12
1.194250197796096205e-12
