# bin_15_6
1.652543262546751955e-25
1.837565461977366475e-25
2.002290168173968563e-25
2.126955169597988694e-25
2.187320149141910792e-25
2.165408754207173938e-25
2.031349628337642954e-25
1.800475571106856143e-25
1.509018245248319311e-25
1.233519728772508645e-25
1.037205924274508839e-25
8.979807145828471598e-26
7.123104935163366323e-26
4.928835772987940960e-26
3.886207368091089726e-26
2.832179832071548475e-26
2.031528703736301532e-26
1.408553288659990555e-26
1.021001508319823034e-26
7.208094426973286935e-27
5.105666571908706455e-27
3.669989887945437366e-27
2.676178173981380419e-27
1.988075087761180982e-27
1.504552379553114595e-27
1.155788650017706363e-27
8.969629547563847601e-28
6.983984003176934396e-28
5.416668239640383271e-28
4.156818913926606072e-28
3.139257718222192532e-28
