# bin_12_1
1.186143379098666124e-46
1.294456070760168821e-46
1.378169408240040881e-46
1.421763805737608489e-46
1.413402732608482726e-46
1.333483106883208594e-46
1.188349252593651006e-46
1.001136287245381853e-46
8.185441275878453374e-47
6.845225215025873369e-47
5.925702872618448563e-47
4.778745269977549230e-47
3.334745559985049848e-47
2.579619407146351318e-47
1.940178480675793199e-47
1.367457248942250647e-47
9.788650020256164182e-48
7.146748103600511224e-48
5.112195686850010867e-48
3.687741870009143359e-48
2.706691073053495332e-48
2.021088746449998487e-48
1.536596152158827495e-48
1.187346322299866130e-48
9.274229373156495299e-49
7.277320390142721264e-49
5.696315864533854753e-49
4.417176881678446544e-49
3.373349803200266774e-49
2.524908084602778552e-49
1.845268177729158493e-49
