# bin_14_9
2.093978349256183549e-11
2.333797062302233810e-11
2.550209530186717632e-11
2.718560973326843920e-11
2.808112262287600305e-11
2.795417012776500659e-11
2.641229921822548530e-11
2.356774227659141351e-11
1.987552018160255546e-11
1.625420466815616310e-11
1.358763512588210660e-11
1.177162700007992217e-11
9.516030728071195809e-12
6.626251375180082176e-12
5.106461567514908203e-12
3.839557387418168044e-12
2.676542956513197030e-12
1.898850721897323218e-12
1.371063938539806891e-12
9.624734232147348131e-13
6.778259580180144870e-13
4.842367666496825202e-13
3.510373867765746581e-13
2.590369299836730377e-13
1.948512841938023175e-13
1.489487466606792855e-13
1.152172846413748111e-13
8.959995787001009840e-14
6.954162054496635395e-14
5.349733186047837469e-14
4.055590925089467800e-14
