# bin_1_20
8.810658362522026541e-07
8.472428189911244880e-07
7.712961961210362400e-07
6.649502858496319191e-07
5.496252518848838955e-07
4.539076661623194878e-07
3.869057100156801323e-07
3.232308138259330399e-07
2.417089017809055042e-07
1.764836432578385854e-07
1.383117948871741779e-07
9.925742654593610416e-08
7.405899234216235947e-08
5.418154641232264462e-08
4.037318397311672211e-08
3.049446629401644978e-08
2.345673740912379409e-08
1.838263467406849752e-08
1.462440327849184358e-08
1.174341116498088200e-08
9.447483756320271671e-09
7.557433243563913860e-09
5.969472965263566563e-09
4.627530963390003058e-09
3.503565599613913422e-09
2.582460449927682837e-09
1.851202159621014674e-09
1.291619756472794229e-09
8.792519215441311475e-10
5.857934595268279852e-10
3.832429510428244492e-10
