# bin_1_12
7.759538809952014057e-07
7.458499311273104147e-07
6.786880206892397241e-07
5.848631193016333516e-07
4.833344727232092211e-07
3.992380761226083126e-07
3.403668753773628291e-07
2.841766704399913024e-07
2.123172862941970284e-07
1.551307439241284389e-07
1.215471329440117070e-07
8.720256900255571180e-08
6.507617217870556374e-08
4.761585636641182985e-08
3.548385003119091672e-08
2.680735183525928109e-08
2.062542228363016683e-08
1.616727566333788153e-08
1.286413517643970776e-08
1.033093746792226168e-08
8.311327512669633562e-09
6.648198631732407530e-09
5.250622690135172065e-09
4.069523149695905655e-09
3.080381580369322157e-09
2.269959126225453620e-09
1.626775161097310285e-09
1.134764580642892475e-09
7.723147120655605511e-10
5.144578934542889803e-10
3.365253292925805149e-10
