# bin_14_3
2.317549880425485849e-45
2.552076962415545925e-45
2.747810863122654222e-45
2.875668310940427192e-45
2.906681143215136831e-45
2.807495530262522653e-45
2.559630805361162706e-45
2.206863057324404804e-45
1.816003485683523812e-45
1.494281605503587228e-45
1.284090471027478552e-45
1.086306311469135259e-45
7.956073933148466936e-46
5.688709242303944187e-46
4.610886269309382624e-46
3.084412167466192690e-46
2.350981989526032033e-46
1.647442358747774285e-46
1.163128865847792058e-46
8.350002721708668397e-47
6.037221908720808146e-47
4.429391720914764149e-47
3.306782949433652487e-47
2.515217582516344326e-47
1.942370259176658686e-47
1.514798421893883090e-47
1.185287052161817281e-47
9.238019293660484457e-48
7.124884450831399347e-48
5.407067547890572164e-48
4.019897470441301636e-48
