# bin_13_13
7.448504305954885844e-09
8.307352920021481095e-09
9.085692433101098619e-09
9.696314890027253179e-09
1.003024580785352910e-08
1.000210672362255454e-08
9.472773854580747294e-09
8.471315789677045658e-09
7.160051517593231620e-09
5.857670043551651613e-09
4.887547366342409795e-09
4.233467438805723283e-09
3.441496785098203921e-09
2.405430753236147967e-09
1.838383451056167861e-09
1.395504088651637089e-09
9.648296113792903634e-10
6.906525459377323223e-10
4.965897850604553349e-10
3.479616950171224923e-10
2.447938093249867100e-10
1.744879783399142782e-10
1.262259800144200774e-10
9.294252563958337281e-11
6.976041146540311441e-11
5.324557583459661161e-11
4.115146324435551123e-11
3.199853612255692213e-11
2.485276781483101726e-11
1.914652662524910140e-11
1.454465365544976831e-11
