# bin_7_5
9.226435034796734475e-11
9.894610316128527601e-11
1.030663896399219037e-10
1.036507801349103241e-10
9.941556200922241888e-11
9.002547431100209644e-11
7.709158137647069618e-11
6.328234727754431597e-11
5.226408260493064942e-11
4.501928137962070157e-11
3.763496274285465937e-11
2.719967013501356398e-11
1.989487360726876651e-11
1.588024317286948325e-11
1.080889346021915284e-11
8.174987798361220737e-12
5.858076269216729474e-12
4.211066784144591840e-12
3.079301842396435320e-12
2.281995356604224866e-12
1.721754125646646998e-12
1.322282641471195978e-12
1.031346865182866258e-12
8.123289489619870161e-13
6.417338925254010670e-13
5.049208006637868856e-13
3.929700862400580605e-13
3.007669257648900167e-13
2.252762154585834552e-13
1.645145921574233950e-13
1.169236293616139069e-13
