# bin_14_8
8.376970269502340318e-19
9.298755643811268884e-19
1.011103311733811506e-18
1.071264197601943874e-18
1.098183623289081608e-18
1.082657039194115951e-18
1.010359421542805569e-18
8.911946827868618488e-19
7.438436392203561622e-19
6.081460849886752896e-19
5.135694826773898704e-19
4.439724758092198537e-19
3.470655617917554164e-19
2.399447815101966675e-19
1.917899500470584777e-19
1.365460033858933302e-19
1.000192211212845286e-19
6.865067198774891126e-20
4.957583309752183010e-20
3.515743353461955665e-20
2.504098396195534402e-20
1.807052882437908261e-20
1.323621336504615977e-20
9.880049021943476821e-21
7.509367100901306677e-21
5.789972814685957193e-21
4.504731653808362366e-21
3.511681308788115466e-21
2.723527494276758397e-21
2.087797149703086022e-21
1.573695359569779286e-21
