# bin_15_4
8.439502963656918737e-43
9.337618592575346002e-43
1.011260845486544577e-42
1.066089330863471462e-42
1.086482366356039021e-42
1.062356798572572133e-42
9.816922129461872590e-43
8.578551992446773521e-43
7.110824786111164700e-43
5.822352488922853708e-43
4.956333671550463744e-43
4.259840099721969342e-43
3.238503974329421604e-43
2.253222381957603360e-43
1.831506325387402174e-43
1.253559292762128577e-43
9.471452347169946987e-44
6.498983889853112950e-44
4.626725604622706574e-44
3.308596418690930502e-44
2.379153907630127322e-44
1.729095132272869865e-44
1.276680032392902814e-44
9.609334512432601171e-45
7.356849451053349717e-45
5.703333602190977849e-45
4.450883570121975056e-45
3.471340369726070535e-45
2.687114499818640161e-45
2.051802528531435776e-45
1.537975288016358555e-45
