# bin_5_6
6.519786166470883859e-08
6.901709444274639667e-08
7.073579182615317661e-08
6.973406898991983786e-08
6.514136042123590000e-08
5.752420637297148876e-08
4.811042684809252804e-08
3.935393282131255462e-08
3.314304959896790721e-08
2.857028408943917664e-08
2.249027640732459530e-08
1.574052496483941016e-08
1.243379358677441706e-08
9.073515738842572035e-09
6.621435911883504334e-09
4.725239281767635968e-09
3.472454238352528161e-09
2.537387904751792605e-09
1.877372933016481323e-09
1.414510235480194498e-09
1.085040759459322784e-09
8.461052057641367619e-10
6.674473137886364253e-10
5.290832047641127032e-10
4.184538234523714059e-10
3.279191704554552767e-10
2.530190056571811768e-10
1.912140753241271152e-10
1.409691291366428574e-10
1.011340415070226349e-10
7.059153546447227902e-11
