# bin_4_11
3.253142768348771171e-07
3.403063907080975627e-07
3.440036247611215457e-07
3.326244851799252963e-07
3.039837505856442415e-07
2.627897907361250656e-07
2.168403477061398852e-07
1.783848036830979183e-07
1.525501506162004956e-07
1.289783041685820256e-07
9.596103943684309842e-08
6.887422296228048479e-08
5.520106040209144859e-08
3.835891143410927013e-08
2.897072543796715035e-08
2.070712470952203646e-08
1.512127953320222739e-08
1.117903261858580126e-08
8.383080161746902321e-09
6.399876206057375444e-09
4.970406392443923990e-09
3.915227597512909014e-09
3.108346713310724589e-09
2.469490090120679558e-09
1.949391258011134643e-09
1.518772387297444204e-09
1.161148891498101105e-09
8.671059513461853359e-10
6.304946084249968518e-10
4.459253249716739634e-10
3.070690844680564987e-10
