# bin_13_19
8.043595520498900292e-08
8.986783874556918901e-08
9.849919621406197821e-08
1.054011633615597070e-07
1.094072006149454490e-07
1.095405327642670660e-07
1.043269348125833403e-07
9.379440902376718930e-08
7.970603252065218322e-08
6.528250362579533978e-08
5.424042023450409845e-08
4.693305505047408629e-08
3.863290605093005532e-08
2.728255770649352313e-08
2.044864577101300020e-08
1.585587135701163387e-08
1.077947173483095590e-08
7.870524970267512942e-09
5.600920935475915738e-09
3.909718547329078854e-09
2.746559711904245691e-09
1.948536948509605239e-09
1.402496094255847168e-09
1.026920563523215159e-09
7.666542928847937482e-10
5.824775769584174028e-10
4.486699361600286638e-10
3.482784264701542810e-10
2.704886256184873278e-10
2.086928901737515428e-10
1.589665349511679528e-10
