# bin_9_3
1.795071554595177232e-22
1.931767008351980307e-22
2.021089948389154343e-22
2.042706620979457816e-22
1.973508176101832361e-22
1.800226091887037570e-22
1.553124783508443480e-22
1.278551702440759683e-22
1.051492306381731491e-22
9.023814352273699295e-23
7.638374219917538079e-23
5.620058518318319039e-23
4.020984839811578717e-23
3.259530018069877396e-23
2.205599118392288470e-23
1.686080359932777251e-23
1.193051450154093441e-23
8.561313705871564060e-24
6.253702009427277464e-24
4.618495317333769858e-24
3.467748336344002397e-24
2.650187180151266832e-24
2.058972678025599600e-24
1.617516345550284061e-24
1.276447680952874212e-24
1.004799845734570364e-24
7.835146120533706104e-25
6.015842205362314890e-25
4.524952995069913288e-25
3.321101040772273568e-25
2.373033229931316948e-25
