# bin_8_16
1.758518550487247319e-07
1.919490611043504655e-07
2.044217318799704382e-07
2.109830675812600900e-07
2.098330035027345232e-07
1.981291794404328079e-07
1.767134214767681321e-07
1.490379056174988377e-07
1.219180088583144164e-07
1.018957041699290628e-07
8.813462798032606031e-08
7.117396860703067705e-08
4.986463957412604299e-08
3.839487810263632707e-08
2.896192755755808237e-08
2.037240910980207877e-08
1.465839640239416040e-08
1.065075932097115099e-08
7.614593936810242294e-09
5.495871016113165942e-09
4.030797545763548815e-09
3.008072847884628699e-09
2.285986666646416790e-09
1.765698023232076807e-09
1.379192760090298512e-09
1.082561983634678516e-09
8.478964593718425447e-10
6.581226385162538462e-10
5.032342337961884146e-10
3.772400076170705768e-10
2.761891336893977989e-10
