# bin_16_19
3.485126088950143456e-08
3.925215965001354108e-08
4.344393158298937462e-08
4.705285746433955271e-08
4.959337184935560615e-08
5.052009219855029453e-08
4.935204894793431729e-08
4.554871379090175229e-08
3.975214287699125502e-08
3.292743252772548100e-08
2.698187972008694897e-08
2.300840321150989672e-08
1.975079476269753927e-08
1.493279547317279708e-08
1.039415101656966393e-08
8.447990948795989190e-09
5.711245942237950185e-09
4.302791167274995569e-09
2.917350983808736467e-09
2.036106326809241675e-09
1.425757212580442681e-09
9.982303248746329979e-10
7.025078397723878964e-10
5.003483630708002511e-10
3.630622168051896775e-10
2.686686287613023694e-10
2.025353271570141085e-10
1.550329004136675704e-10
1.197550679620155866e-10
9.268220615748053572e-11
7.133906487866914050e-11
