# bin_17_6
1.696368902339444765e-38
1.891498195258283353e-38
2.068084328254409942e-38
2.206224080270290346e-38
2.281044103285823674e-38
2.273333569869441180e-38
2.151213861492124333e-38
1.922257607732738038e-38
1.623315392031263783e-38
1.327773238296544437e-38
1.108603069708751879e-38
9.604465936650997337e-39
7.793491674566371913e-39
5.436811309199943030e-39
4.168447756969942327e-39
3.153956766273596448e-39
2.186065361966043542e-39
1.559242193672723874e-39
1.123675898547147849e-39
7.878103510916986385e-40
5.542392010842388493e-40
3.953681055360350592e-40
2.862379442481351794e-40
2.109422367751267843e-40
1.584579159443064920e-40
1.210302235453480890e-40
9.358820767931108135e-41
7.279243359969563249e-41
5.653835012949944543e-41
4.354819760789567348e-41
3.306836116338917054e-41
