# bin_7_13
1.716952386635656304e-07
1.860035949416726652e-07
1.962364674494642272e-07
2.002444848969202349e-07
1.961784207144692070e-07
1.818076659795273611e-07
1.593178018873677202e-07
1.324170123914625277e-07
1.084049324252121295e-07
9.195251007468622905e-08
7.902483441453926235e-08
6.076014065466723967e-08
4.245022659219237029e-08
3.413673750027468741e-08
2.400335059352735392e-08
1.790398724050485276e-08
1.251986219487710969e-08
9.083741880477085935e-09
6.583727622274563172e-09
4.816513990102391040e-09
3.579381930202046945e-09
2.706289116395644830e-09
2.082674408904023123e-09
1.624785801650539894e-09
1.277289207403478855e-09
1.004980790067882557e-09
7.858108663010531796e-10
6.067189647131042855e-10
4.600331853201975666e-10
3.410610330981889541e-10
2.464781101905718336e-10
