# bin_3_4
1.081339462187053595e-07
1.104916688914807574e-07
1.085038666909446873e-07
1.009598560548858879e-07
8.883830304757873247e-08
7.416243754636783898e-08
6.073386225670847085e-08
5.124861465062587953e-08
4.398904780631473952e-08
3.435825746984095189e-08
2.424838419258289299e-08
1.915104440046768278e-08
1.395264207133517852e-08
1.025817224777972424e-08
7.403476027807644696e-09
5.471553488574218792e-09
4.052069718319512318e-09
3.047526826561343878e-09
2.335944121904153486e-09
1.822375618039533762e-09
1.442108534079825970e-09
1.150381335045582991e-09
9.183327972968507224e-10
7.282899627468237290e-10
5.699299364800743068e-10
4.375089053506534983e-10
3.279020524047341441e-10
2.392229632047696593e-10
1.697051035592250417e-10
1.172094746194610286e-10
7.901982398465714777e-11
