# bin_5_11
2.445667837981257438e-07
2.595824221738765909e-07
2.669184001192371755e-07
2.642512078191720597e-07
2.481859047048889790e-07
2.202953627763639739e-07
1.850844451091990817e-07
1.514249587272426370e-07
1.269871928085838776e-07
1.095754611549383319e-07
8.743767387991469695e-08
6.141222007420733717e-08
4.781484381930034865e-08
3.559387422677067869e-08
2.555433289512824067e-08
1.842995994945899069e-08
1.350933756509353615e-08
9.834228346255144665e-09
7.252764475942800884e-09
5.445303450512788357e-09
4.163103047089884685e-09
3.236732932446282719e-09
2.547896722173553264e-09
2.017505195588271613e-09
1.595603695230130094e-09
1.251640094666176934e-09
9.676024633260635130e-10
7.332333680865615462e-10
5.423685145610993750e-10
3.905366409944582995e-10
2.735994133295006837e-10
