# bin_8_20
2.184308264315940806e-07
2.384504899516590870e-07
2.539777748898996174e-07
2.621726152512919983e-07
2.607958359617279698e-07
2.463152629291791188e-07
2.197464648822684890e-07
1.853761423108901992e-07
1.516488566499071953e-07
1.267175799636756227e-07
1.096037795713294791e-07
8.856845158466577319e-08
6.207184143849099092e-08
4.775371459961640360e-08
3.605867767666075854e-08
2.534244169308716863e-08
1.824833377918443950e-08
1.325558306266900891e-08
9.475058765895078009e-09
6.837713664116681996e-09
5.013943004131823699e-09
3.741033157435695298e-09
2.842443687084985801e-09
2.195149385643497572e-09
1.714444958963152982e-09
1.345635675888805966e-09
1.053950889251645253e-09
8.181091655502154006e-10
6.256372791911960360e-10
4.690680216314798418e-10
3.434824241340150364e-10
