# bin_7_11
1.305586982742623475e-07
1.414057653746836845e-07
1.491414146912033611e-07
1.521351452652439225e-07
1.489741805812281443e-07
1.379823956221195488e-07
1.208473249794766939e-07
1.004023178507715917e-07
8.220343581330646565e-08
6.975875046421860626e-08
5.992935748029746437e-08
4.600553948875279769e-08
3.215439606192657060e-08
2.587982630386920020e-08
1.816230886852953141e-08
1.356769646574198935e-08
9.485769248259057552e-09
6.879733730718504023e-09
4.988240664381441056e-09
3.650858373173136714e-09
2.714175574390793954e-09
2.052931512268781645e-09
1.580445906562221281e-09
1.233317020019920782e-09
9.697050391092294490e-10
7.630043032477594225e-10
5.965596454558586423e-10
4.605154901415588278e-10
3.490814197240705036e-10
2.587122394769861369e-10
1.868906993308807333e-10
