# bin_16_7
3.640771181376734438e-29
4.054865224221299794e-29
4.427127344572453165e-29
4.714479870433057776e-29
4.863398478633115483e-29
4.833713056493180937e-29
4.557476891593813245e-29
4.058638368268969070e-29
3.416303892329781333e-29
2.793243488526300562e-29
2.339033037234757228e-29
2.026361173076617669e-29
1.629340345529342277e-29
1.131582791247681168e-29
8.782714436198987359e-30
6.544493673293001216e-30
4.598500583259251874e-30
3.237139380189997510e-30
2.342750194030892398e-30
1.646981260598506755e-30
1.161253810883620541e-30
8.310499756068936828e-31
6.035460738155815743e-31
4.463133824112761519e-31
3.363461148674237175e-31
2.575839781416827616e-31
1.995422540851356910e-31
1.553246830491214627e-31
1.206136538757988664e-31
9.279549363547361142e-32
7.033262146647290982e-32
