# bin_14_10
1.361975511189321114e-13
1.516572750940446389e-13
1.655387520868500182e-13
1.762283612458360013e-13
1.817246145061754367e-13
1.805266932314875320e-13
1.701042250429122587e-13
1.513980042612121890e-13
1.273716039880483716e-13
1.041396574455742018e-13
8.724935159122624855e-14
7.557914674071952048e-14
6.066974746650475758e-14
4.211968535836932465e-14
3.275198917055461269e-14
2.433937471964554513e-14
1.714539891659611242e-14
1.204819542170474385e-14
8.719805084260454817e-15
6.133193294560312570e-15
4.326955170741887087e-15
3.098173415866780827e-15
2.251202421468189593e-15
1.665690917235213795e-15
1.255947695370841586e-15
9.622549156711053791e-16
7.456376007770869210e-16
5.804682189367993718e-16
4.507188211300320753e-16
3.466909199704817134e-16
2.626803579185187102e-16
