# bin_7_7
1.515424511764892568e-08
1.635605688091516082e-08
1.717550479378170818e-08
1.743171733863469911e-08
1.694594443604634782e-08
1.556408076159528022e-08
1.352003539215741392e-08
1.117179800576625869e-08
9.164764403907180030e-09
7.827332086971052886e-09
6.678538554608169354e-09
5.008231188654727539e-09
3.534006839168272651e-09
2.868232781781639616e-09
1.963515108484606556e-09
1.493244646172561209e-09
1.046917237350487402e-09
7.542133445327242610e-10
5.496201380324506314e-10
4.046091465653266867e-10
3.024734629192390796e-10
2.300985238691998296e-10
1.780621315958600705e-10
1.394908553622676109e-10
1.099180032832006737e-10
8.652432856489239971e-11
6.756045059574582839e-11
5.200550178168359542e-11
3.925755759303307211e-11
2.894153697891866653e-11
2.078204046610933438e-11
