# bin_18_7
1.125100274243338527e-36
1.258554992877824982e-36
1.381480738433184256e-36
1.481011390347725777e-36
1.540942454644013788e-36
1.547047832718509319e-36
1.479004637446108876e-36
1.334377551898207924e-36
1.138012912122906920e-36
9.327430918447570380e-37
7.727833083312181955e-37
6.682555804936561514e-37
5.546181191640778948e-37
3.942479155663871821e-37
2.917767468455037447e-37
2.294327626053306851e-37
1.542392406884834810e-37
1.141305728909462853e-37
8.065660023801646072e-38
5.616251662316179439e-38
3.942039615568103133e-38
2.787743008691661438e-38
1.999864816714676858e-38
1.458928810738961236e-38
1.085290198288310783e-38
8.220340391507797043e-39
6.317725460933927360e-39
4.898493503177223637e-39
3.804342201695216988e-39
2.938227183385978610e-39
2.242304328917015748e-39
