# bin_19_16
2.263210684391209931e-11
2.557390603173454968e-11
2.841651786386488007e-11
3.092622927383903784e-11
3.279265328252652113e-11
3.364071193662909580e-11
3.318958808965248294e-11
3.099421842012547219e-11
2.735415777782383443e-11
2.284023072061047432e-11
1.867721135403377989e-11
1.577672547775674436e-11
1.364778716909320900e-11
1.066897916128403356e-11
7.358552491620326586e-12
5.877075307748124005e-12
4.161944444945550509e-12
3.030033349300526380e-12
2.048089191568234949e-12
1.457889116460253454e-12
1.011243499953122570e-12
7.000679132130644952e-13
4.882133426881860609e-13
3.437437044837631285e-13
2.460815792710312735e-13
1.796334210451072400e-13
1.337368772503232299e-13
1.013815209224200013e-13
7.785186623296118596e-14
6.015393198918282380e-14
4.641423951078184627e-14
