# bin_11_10
1.745950030865297388e-09
1.929541548630140945e-09
2.086748296597838330e-09
2.196026086238532307e-09
2.233601912058373865e-09
2.177640954703785541e-09
2.005699323908552970e-09
1.747042942910167665e-09
1.445378189496729697e-09
1.184627404174117640e-09
1.010862222317785022e-09
8.659715867292125790e-10
6.524278850558391147e-10
4.562822215840392559e-10
3.713994611198516439e-10
2.521250363323005177e-10
1.913779949649907456e-10
1.318955512429335387e-10
9.358959321188093195e-11
6.702628665686970957e-11
4.827932498009336700e-11
3.516765382478732258e-11
2.603529085689244238e-11
1.964726454414003992e-11
1.507468919357788140e-11
1.170456176302114173e-11
9.141009291586558221e-12
7.128671472062758587e-12
5.513647652186447875e-12
4.203991157336154993e-12
3.145060048405052354e-12
