# bin_6_8
9.196609638907100062e-08
9.862354517769224004e-08
1.027274824323408683e-07
1.033043537501644394e-07
9.908978966449246160e-08
8.975503563962521055e-08
7.688560909100204562e-08
6.314528005646330615e-08
5.216345957251961371e-08
4.489914715084494878e-08
3.751157007413658575e-08
2.717109093901688504e-08
1.987694408792299791e-08
1.582020766883196397e-08
1.081709566850980740e-08
8.154220469475762104e-09
5.839181983866443005e-09
4.202411827693484050e-09
3.073015612600797593e-09
2.277752121581259398e-09
1.718240717011641453e-09
1.319231765787108165e-09
1.028690042668884043e-09
8.100411872096956833e-10
6.398020321367153132e-10
5.033312822927583072e-10
3.917051491600539635e-10
2.997965423587640728e-10
2.245644528688816912e-10
1.640215919784781894e-10
1.166034739218296150e-10
