age = 13.80953921212913
#age unit = Gyr
chistar = 13886.287942403373
#chistar unit = Mpc
cmbshift = 1.7499016199918576
da_star = 13.886287942403372
#da_star unit = Gpc
k_d = 0.14069673472648528
#k_d unit = 1/Mpc
k_equality = 0.01036163545436353
#k_equality unit = 1/Mpc
nz = 401
r_star = 144.6145061231058
#r_star unit = Mpc
rs_zdrag = 147.33205862734886
#rs_zdrag unit = Mpc
theta_d = 0.16079764643377042
#theta_d unit = 100 radian
theta_equality = 0.8142588033977591
#theta_equality unit = 100 radian
theta_rs_equality = 0.45001440482074073
#theta_rs_equality unit = 100 radian
thetastar = 1.0414194687804854
#thetastar unit = 100 radian
z_equality = 3394.9153043499405
zdrag = 1059.3605041503906
zstar = 1089.9079824013772
