# bin_14
0.000000000000000000e+00
0.000000000000000000e+00
0.000000000000000000e+00
0.000000000000000000e+00
0.000000000000000000e+00
0.000000000000000000e+00
0.000000000000000000e+00
0.000000000000000000e+00
0.000000000000000000e+00
0.000000000000000000e+00
0.000000000000000000e+00
0.000000000000000000e+00
1.274801071351877601e-279
5.522813776316749201e-240
1.748688615115350866e-205
1.938634061130234962e-175
2.848704123917567159e-149
1.727765237310006465e-126
1.144530274507842813e-106
1.912027892371616215e-89
1.658509977844176223e-74
1.396014747847319442e-61
1.963193581316864262e-50
7.405802506679589992e-41
1.133639105387371463e-32
1.012237637035142054e-25
7.254643742815031348e-20
5.531013184037069182e-15
5.757452188327195637e-11
1.021936872532888292e-07
3.776035421646168136e-05
3.482135030226397258e-03
9.484190747211253270e-02
8.961588887338450826e-01
3.432440280691498202e+00
6.133498460475609093e+00
5.661955492170516635e+00
2.843871771369941737e+00
7.949724071352607391e-01
1.262992178254577491e-01
1.175217531232720936e-02
6.649921162171042914e-04
2.383591639726308082e-05
5.638792842003652607e-07
9.158905106439451198e-09
1.060127230487021383e-10
9.051843103049670427e-13
5.885985943664964108e-15
3.001293524331720192e-17
1.232637721694556190e-19
4.178598396557909948e-22
1.195639672038056771e-24
2.947144512644121415e-27
6.375478410333886194e-30
1.231123774581060664e-32
2.155191638390949635e-35
3.468885645712440617e-38
5.199931670049407356e-41
7.345119710524875857e-44
9.881737128012926632e-47
1.278584262422958613e-49
1.605240635799729451e-52
1.971405260672163710e-55
2.385797724974026070e-58
2.864335382533591778e-61
3.432379969531413249e-64
4.128166386406991046e-67
5.008401806229671363e-70
6.157582666452618504e-73
7.703631326281088964e-76
9.844447673950560773e-79
0.000000000000000000e+00
0.000000000000000000e+00
0.000000000000000000e+00
0.000000000000000000e+00
0.000000000000000000e+00
0.000000000000000000e+00
0.000000000000000000e+00
0.000000000000000000e+00
0.000000000000000000e+00
0.000000000000000000e+00
0.000000000000000000e+00
