# bin_2
0.000000000000000000e+00
9.860541311900524914e-121
5.344872996853636135e-88
7.383002518067942505e-63
1.289438545930511180e-43
4.447179555536318814e-29
2.524538710556971962e-18
1.261822253315524548e-10
2.145780341710442200e-05
3.808911673424694028e-02
1.913876830109317861e+00
7.842347551192762722e+00
7.854663057094872336e+00
2.225584717224755593e+00
1.240348283063399532e-01
1.378731329575425555e-03
3.707082132354750981e-06
2.995500612085945474e-09
8.889555870067429293e-13
1.155003586315186020e-16
7.642561972983516494e-21
2.930397931451999688e-25
7.267764574079552119e-30
1.280203601506178568e-34
1.734174901219076810e-39
1.932836002234932880e-44
1.877288278301546303e-49
1.668375004854977198e-54
1.414089257960785509e-59
1.183976685299712067e-64
1.008836763927949110e-69
8.970982598792265582e-75
8.503891225742828552e-80
8.747852018391827062e-85
9.912339271533995356e-90
1.252683312250720574e-94
1.783865660530117594e-99
2.886687644197555558e-104
5.344690658159138381e-109
1.138418645937472028e-113
2.801530683073896412e-118
7.991294046743532994e-123
2.648501504642222750e-127
1.021526577890575111e-131
4.589743589300103224e-136
2.403241720210619884e-140
1.466393110954530801e-144
1.042182402151827358e-148
8.620308860301678457e-153
8.289050682827053432e-157
9.253334289869437953e-161
1.197348375468382027e-164
1.792720846651850590e-168
3.099934140471113161e-172
6.178255031143477666e-176
1.416239355226541473e-179
3.725764744061971551e-183
1.122345773323647608e-186
3.862562081894389267e-190
1.515141050410698366e-193
6.758366540422577161e-197
3.419944510738906583e-200
1.958670937714779302e-203
1.266623397288707566e-206
9.226997010479767313e-210
7.554233080619904520e-213
6.934845513121792329e-216
7.122124486638523863e-219
8.164520959300452981e-222
1.042402620801749098e-224
1.479017768533391860e-227
0.000000000000000000e+00
0.000000000000000000e+00
0.000000000000000000e+00
0.000000000000000000e+00
0.000000000000000000e+00
0.000000000000000000e+00
0.000000000000000000e+00
0.000000000000000000e+00
0.000000000000000000e+00
0.000000000000000000e+00
0.000000000000000000e+00
