# bin_8_20
2.027081079694379518e-07
2.217078082633211896e-07
2.366996295652583048e-07
2.450589747105801573e-07
2.446429330852845157e-07
2.321692766718580779e-07
2.080680885212441529e-07
1.762999666329121696e-07
1.443286212900878434e-07
1.201601604497993071e-07
1.038950553240889861e-07
8.489841004551648202e-08
5.990723860419341691e-08
4.538462050114331470e-08
3.489258997442981753e-08
2.416878492203004531e-08
1.764599279259879387e-08
1.274659857934884807e-08
9.082326838593783851e-09
6.540511830524621802e-09
4.779327347636985969e-09
3.553051891718542780e-09
2.689031064812928407e-09
2.070015589067179586e-09
1.612493889035712589e-09
1.263469769076487785e-09
9.889289688718772033e-10
7.677951414521706115e-10
5.877309833198734841e-10
4.413549681245648747e-10
3.238726469626198357e-10
