# bin_6_17
2.625179264150208306e-07
2.824557486618429946e-07
2.954403267405862326e-07
2.985194406291033698e-07
2.883218241091111606e-07
2.630370278725146829e-07
2.269578885751602566e-07
1.869789248681013154e-07
1.538906137050745502e-07
1.319471481490855720e-07
1.114769070318199504e-07
8.221222840307017209e-08
5.901110999988715946e-08
4.748048502339055485e-08
3.246218314767806871e-08
2.459828694858826503e-08
1.742755000203941490e-08
1.254581618086987135e-08
9.155476320109350850e-09
6.759284956796634737e-09
5.073720874736301025e-09
3.874143923797173131e-09
3.007603906382924140e-09
2.360468139263989791e-09
1.860668108271069067e-09
1.463003690088177775e-09
1.139441750672902212e-09
8.737707977154927078e-10
6.563966888174939954e-10
4.811761732240644294e-10
3.434291058434018995e-10
