# bin_19_13
1.213577313008246102e-16
1.369828252662368020e-16
1.520057978346774401e-16
1.651569099618226523e-16
1.747621632470206438e-16
1.788379980986118913e-16
1.758414055134793077e-16
1.635294384858166895e-16
1.437665445527390622e-16
1.196697623129630006e-16
9.790049616459560868e-17
8.298348749768282724e-17
7.165391352856480983e-17
5.534965349565367629e-17
3.822511958532634536e-17
3.079901932259899643e-17
2.140201408715257928e-17
1.583125635428811892e-17
1.066621524269974423e-17
7.540617725761974394e-18
5.252534268434777454e-18
3.655998346652520898e-18
2.559458934856026032e-18
1.809309423740230095e-18
1.302214686347203958e-18
9.557719858091959532e-19
7.150143330571216119e-19
5.440969074791497488e-19
4.187794530137149331e-19
3.237548498121742910e-19
2.495172597644947241e-19
