# bin_6_15
2.385043510168593228e-07
2.566018118014529527e-07
2.683759839839483703e-07
2.711478353312791095e-07
2.618498044913806566e-07
2.388522526316983400e-07
2.060606846704219454e-07
1.697511124664393704e-07
1.397206449506187933e-07
1.198080577128836061e-07
1.012007933480344669e-07
7.460605685522549407e-08
5.356971847306754902e-08
4.309624714623125870e-08
2.946203538370901938e-08
2.232449539841494759e-08
1.581966534305638826e-08
1.138795993846931776e-08
8.310878350181017764e-09
6.136196182655378299e-09
4.606438418105607981e-09
3.517677064466268587e-09
2.731086685350290665e-09
2.143564808866560017e-09
1.689734911326948321e-09
1.328596512000013851e-09
1.034726253456331432e-09
7.934246868441713830e-10
5.959917655748864215e-10
4.368540642230422883e-10
3.117625952335921828e-10
