# bin_2_14
6.016254042712442212e-07
6.029719874156007524e-07
5.765459188926254752e-07
5.213104538500049770e-07
4.462313901860171761e-07
3.672158041709451731e-07
3.040179909420168461e-07
2.605236501286687632e-07
2.159840599988248902e-07
1.582230448211177104e-07
1.167297813972395264e-07
9.150985261257910715e-08
6.467791225290715391e-08
4.844268785417047888e-08
3.527476480494104860e-08
2.607596825734538568e-08
1.957284100246423547e-08
1.494827170860202473e-08
1.162729410799361364e-08
9.182871775782777867e-09
7.327659563776684175e-09
5.864115158960599335e-09
4.671621059899786459e-09
3.679078681015535418e-09
2.846385290484114524e-09
2.152363173558136489e-09
1.585180075067765865e-09
1.135282149720380378e-09
7.911463562426692973e-10
5.376698057628427374e-10
3.574962618124642292e-10
