# bin_10_17
1.150781661976737596e-07
1.272830181588410195e-07
1.377891731188862981e-07
1.451820420091970071e-07
1.478791208185282591e-07
1.444657171893114374e-07
1.333882464609822715e-07
1.164631449358859705e-07
9.652369103012949337e-08
7.908054890569367804e-08
6.734189073998265337e-08
5.777560269772461613e-08
4.384892284030822634e-08
3.061532474026313125e-08
2.481036302213866362e-08
1.702385776268357484e-08
1.281733084166173849e-08
8.830925373328334570e-09
6.292061840235418302e-09
4.496614401799858988e-09
3.231272304070727908e-09
2.349856795066847238e-09
1.735326405607765222e-09
1.306647245121572660e-09
1.000453708227141200e-09
7.753522343117481397e-10
6.047309808356866778e-10
4.712283617684112022e-10
3.643489750607536989e-10
2.778226371002768507e-10
2.079216842758463365e-10
