# bin_5_16
3.121012787442626243e-07
3.320322808848193003e-07
3.423911166611246298e-07
3.401886556446316938e-07
3.209983453731393025e-07
2.861917607008168781e-07
2.414211035146138395e-07
1.975930129309487446e-07
1.651185860334369083e-07
1.425384205319414195e-07
1.150210510693836925e-07
8.114033885393641716e-08
6.236483347949590765e-08
4.719591937252023817e-08
3.344529932447932215e-08
2.435509408815375513e-08
1.779347291592828528e-08
1.291214512584128778e-08
9.497271146696533638e-09
7.106756492536161247e-09
5.414725639557785513e-09
4.195840932872688320e-09
3.294475749134587793e-09
2.603796777150547842e-09
2.057188031761836098e-09
1.613436151950204622e-09
1.247960140285429324e-09
9.467715692200354700e-10
7.014584636275072502e-10
5.060366489628829220e-10
3.551730677011040373e-10
