# bin_12_16
6.044873991249919105e-08
6.740699460600361496e-08
7.370508088312749235e-08
7.863436841926405001e-08
8.131132103277532354e-08
8.104246893419107149e-08
7.670776206223775547e-08
6.856188066086588219e-08
5.792515211818248342e-08
4.739148599732679055e-08
3.956200625212604277e-08
3.425918304640089964e-08
2.780309582085665602e-08
1.943753107779800864e-08
1.487806784003115864e-08
1.126468770548558389e-08
7.810172777446512582e-09
5.582791889263466238e-09
4.012465030575651003e-09
2.813312630747997102e-09
1.981030079876171142e-09
1.412941991020871629e-09
1.022623411665396458e-09
7.532428501482495376e-10
5.656348710890151449e-10
4.317551208040953888e-10
3.336202120060427355e-10
2.592977710543825353e-10
2.012420415211995020e-10
1.548813641030110488e-10
1.175134779044375504e-10
