# bin_8_11
8.299638328188615636e-08
9.071984830919735904e-08
9.678017370817991084e-08
1.001005972399768331e-07
9.981469766208760138e-08
9.457467689996951615e-08
8.462806119609837582e-08
7.159860681085428236e-08
5.859616556641935622e-08
4.884184564569167558e-08
4.224144211482434498e-08
3.439486705796542777e-08
2.420528889187994691e-08
1.843502515212498386e-08
1.409206386311021654e-08
9.805151631652499056e-09
7.125636597013755944e-09
5.159180895082098420e-09
3.679847804687502650e-09
2.651503223108589893e-09
1.939722271927893701e-09
1.443719382063019243e-09
1.093976092075328674e-09
8.429961832426924754e-10
6.571503474047807555e-10
5.151065736044322971e-10
4.031801607177690574e-10
3.129191418329347705e-10
2.393796166904935039e-10
1.796013404411934301e-10
1.316493855874619709e-10
