# bin_12_9
4.434041891376154048e-12
4.914114444214356386e-12
5.332803940496645448e-12
5.636124460310309304e-12
5.760840028419488651e-12
5.656297981095494826e-12
5.252713535007370553e-12
4.611823521229415164e-12
3.835738575411306226e-12
3.137998263849834728e-12
2.660607610337461239e-12
2.294132976054914725e-12
1.768822077425926377e-12
1.225876731173453839e-12
9.889573178031012767e-13
6.900664285608422573e-13
5.138795934384303813e-13
3.521196662336707128e-13
2.525835303016076291e-13
1.799032558635698919e-13
1.287823173215857625e-13
9.327796444056495221e-14
6.856587367877240912e-14
5.138739501754558361e-14
3.919107562164565872e-14
3.028662656976783772e-14
2.358789304944147329e-14
1.838136646968490508e-14
1.423196615285840348e-14
1.087933134762828394e-14
8.169895946772182759e-15
