# bin_2_19
6.602342154344161667e-07
6.618305102042829476e-07
6.329790132936323494e-07
5.724793589121704184e-07
4.901472611189774196e-07
4.033898178771507246e-07
3.339207647237167361e-07
2.861251373183838263e-07
2.373084984732167172e-07
1.739268694060048028e-07
1.282447311812255295e-07
1.005745894855194346e-07
7.107982462855255973e-08
5.324275560611341783e-08
3.876261289881796397e-08
2.865311597478428490e-08
2.150488942076917257e-08
1.642159720116817132e-08
1.277165275530689415e-08
1.008556324008923379e-08
8.047433611029429525e-09
6.439985280230935462e-09
5.130500055620546710e-09
4.040722948480923947e-09
3.126493441466525513e-09
2.364481207721477546e-09
1.741657776685486869e-09
1.247538337156447389e-09
8.694983206430673806e-10
5.909927184497478941e-10
3.929920320746395455e-10
