# bin_6_2
3.822504343357547317e-16
4.010231599469898580e-16
4.066846951395082035e-16
3.950312851902676267e-16
3.625828328217723694e-16
3.148077569650041396e-16
2.600765152225574954e-16
2.133499191891450565e-16
1.821512119143758593e-16
1.552896841480393312e-16
1.165534655907648989e-16
8.250820007021588037e-17
6.692393074462344018e-17
4.616271806812617164e-17
3.519661453884586468e-17
2.494331665982057012e-17
1.818160032603071976e-17
1.343495633969118146e-17
1.005646763671515394e-17
7.656227960090135077e-18
5.927899912010814261e-18
4.659126397181732647e-18
3.693202589018334055e-18
2.931662949935095113e-18
2.314022911168634614e-18
1.803840011165090154e-18
1.380535366514064313e-18
1.032327699160017408e-18
7.517028541532152022e-19
5.322963730588949684e-19
3.668528937236511790e-19
