# bin_19_20
1.037885227007120492e-08
1.177155352826203455e-08
1.313967044170187021e-08
1.437999113722997748e-08
1.535388783088250396e-08
1.588782790271625545e-08
1.584682540972303180e-08
1.500808160225718464e-08
1.342032549350901605e-08
1.134050907091539937e-08
9.278787459434151205e-09
7.747604127541433929e-09
6.714659307643563109e-09
5.452518550227618245e-09
3.800337291846156548e-09
2.906947081713431843e-09
2.194352817599221312e-09
1.508801189329134115e-09
1.065663141308383367e-09
7.572986649449649950e-10
5.197754862506388590e-10
3.554883786305575183e-10
2.449413218311318633e-10
1.702033465992792710e-10
1.198263185567952991e-10
8.594703487921199676e-11
6.287503521285941149e-11
4.694131874406145252e-11
3.564854425891378140e-11
2.738216776345214038e-11
2.111752566809587029e-11
