# bin_5_1
1.251666025719452396e-16
1.288137533373748959e-16
1.277283969375888154e-16
1.202106676066165117e-16
1.069226761460149378e-16
8.997494021389381279e-17
7.358294618467438315e-17
6.156916131326928062e-17
5.316955635796090537e-17
4.273026601924146017e-17
3.004346399914973224e-17
2.329282012661283094e-17
1.755162585265146132e-17
1.256197697567813517e-17
9.149808586725201753e-18
6.770063829051794715e-18
4.977823180622333869e-18
3.716072418938477766e-18
2.829101288755080357e-18
2.193412484742377263e-18
1.726833103387121659e-18
1.373100015838758535e-18
1.094679438378550850e-18
8.686638314844233012e-19
6.813939981077296609e-19
5.250696726843551618e-19
3.954459044142481702e-19
2.900540831467383066e-19
2.068359619334906367e-19
1.435085431229384923e-19
9.710494775123103932e-20
