# bin_4_8
2.235570263650267671e-07
2.342198867319859138e-07
2.371842726049749875e-07
2.299140433652183727e-07
2.106908463000559830e-07
1.826315789390059766e-07
1.509168507873985580e-07
1.240255945633473042e-07
1.058857604744223354e-07
8.982061097845230155e-08
6.729480554312884371e-08
4.806306176822753755e-08
3.855352766594474157e-08
2.688802170084485011e-08
2.027171687145914069e-08
1.446102557102320584e-08
1.056599488407622907e-08
7.800172453529003869e-09
5.837990534614352294e-09
4.447773064585333264e-09
3.446238086681262723e-09
2.709555147596965878e-09
2.147906684257147863e-09
1.704557037099707079e-09
1.344700674532521903e-09
1.047410172830183305e-09
8.008511019612054444e-10
5.982512373396284547e-10
4.352117797333322819e-10
3.079465649154039363e-10
2.121177747443082897e-10
