# bin_14_3
1.562130561606342413e-45
1.723343309469857098e-45
1.859648552525626252e-45
1.951607938542796129e-45
1.978808803432817204e-45
1.920210355227319325e-45
1.759381894184820046e-45
1.524548300912376256e-45
1.257574395792774548e-45
1.032482353253838087e-45
8.843746734978340333e-46
7.533275463113081858e-46
5.593356963442059400e-46
3.949015950312693431e-46
3.217231716881854016e-46
2.159394069688550986e-46
1.648525330303836784e-46
1.145274267318513045e-46
8.092767798607834597e-47
5.807356306850168185e-47
4.192745528361223738e-47
3.065858877014920843e-47
2.278392281893876659e-47
1.726298999942238586e-47
1.328641115303235010e-47
1.033527806016096754e-47
8.075736269144073063e-48
6.292195582173823637e-48
4.855983602240538630e-48
3.690407167431315670e-48
2.749296325647957722e-48
