# bin_17_2
1.891696770793095886e-70
2.105367065301433492e-70
2.296605571098595109e-70
2.442918600466030487e-70
2.516507995914134200e-70
2.496682969007185720e-70
2.348579074778150899e-70
2.087014515956645728e-70
1.753240549661025053e-70
1.433286191414405870e-70
1.202459230649778265e-70
1.041481975492874253e-70
8.323469038284314493e-71
5.769681773511496012e-71
4.511061560044855879e-71
3.328070858576479660e-71
2.360383375688264086e-71
1.649630938820191134e-71
1.195344562107822699e-71
8.419862914639064137e-72
5.948786774946830843e-72
4.266191260019372609e-72
3.103995448904714715e-72
2.300040620442467276e-72
1.736678678791193964e-72
1.331666502026314141e-72
1.032231033416030049e-72
8.033875342334938830e-73
6.232940682332723173e-73
4.787866697270807281e-73
3.621194493501184520e-73
