# bin_20_11
4.369487574076331258e-25
4.930381257509845178e-25
5.468854258963723048e-25
5.939007911377051396e-25
6.280470969262503683e-25
6.422185717032540385e-25
6.308071216499088360e-25
5.859075299966071070e-25
5.144954575566445716e-25
4.278777921459815554e-25
3.501050529452428612e-25
2.970688328039831704e-25
2.563350258562694009e-25
1.972979928157447546e-25
1.363519376971659382e-25
1.101095861475374323e-25
7.609407009675437257e-26
5.652982395578501113e-26
3.808297740333582206e-26
2.685769362438324014e-26
1.873074220195776091e-26
1.305630800286700073e-26
9.149281697283572335e-27
6.475421830602651027e-27
4.667306957297813745e-27
3.430598489180774911e-27
2.569888051254121411e-27
1.957651544106411291e-27
1.507748728170679206e-27
1.165862152037248462e-27
8.983160578313639863e-28
