# bin_2_11
5.465401590081575263e-07
5.476520428402367316e-07
5.235055853120846103e-07
4.732178258045997695e-07
4.049557431467875911e-07
3.332165734860010600e-07
2.759129731497576205e-07
2.364613254795870405e-07
1.959416474000625401e-07
1.434633343735332310e-07
1.059071107658431439e-07
8.299008789607904202e-08
5.866088298788104045e-08
4.393120026199102514e-08
3.199660622581548184e-08
2.365375872861366177e-08
1.775694739311032125e-08
1.356352259579671968e-08
1.055173434739705086e-08
8.334450161073500719e-09
6.651158364868598297e-09
5.322866375944653418e-09
4.240329890222557600e-09
3.339176482518806404e-09
2.583117252651225555e-09
1.952997683069763395e-09
1.438109817579433300e-09
1.029774807062629713e-09
7.175049135048606296e-10
4.875526674199568124e-10
3.241344976848534874e-10
