# bin_15_11
1.939391012246643381e-13
2.170449904814651606e-13
2.383751396509857531e-13
2.557195758676023017e-13
2.662914918834315798e-13
2.676037830810820748e-13
2.561871204831761235e-13
2.314508739523187427e-13
1.976724852513937445e-13
1.620902380675690431e-13
1.341681466612988817e-13
1.159498224938038994e-13
9.649092972209972437e-14
6.882597980320530580e-14
5.068912575353543253e-14
4.003997482340381530e-14
2.684361758979914909e-14
1.994559256673518503e-14
1.405668476779615238e-14
9.781798451951517235e-15
6.867441093226240756e-15
4.852871356641842851e-15
3.478064951709547030e-15
2.533224558753652367e-15
1.882180801900074439e-15
1.423681664350443242e-15
1.092810581915674946e-15
8.465339084505461897e-16
6.570248874225856109e-16
5.072530871759001901e-16
3.870478363631228443e-16
