# bin_6_14
2.243942548139232357e-07
2.414103407632253948e-07
2.524732926547164070e-07
2.550646001978028060e-07
2.462951554832849474e-07
2.246415617569011538e-07
1.937817323200388938e-07
1.596282516355004338e-07
1.313945372136712418e-07
1.126752702683570923e-07
9.516266929357479717e-08
7.013675961065102649e-08
5.037242054226585158e-08
4.052012033557802927e-08
2.769918371520532276e-08
2.098844213039124044e-08
1.487489115169116256e-08
1.070761717423078719e-08
7.814602476139657440e-09
5.770076516143884783e-09
4.331868717853783471e-09
3.308221310721973807e-09
2.568608402557353966e-09
2.016114950171151429e-09
1.589296564971793951e-09
1.249620426933272676e-09
9.731966527271041305e-10
7.462142524792293106e-10
5.604985398001955446e-10
4.108109119446638506e-10
2.931557244774715900e-10
