# bin_16_19
3.193857219790823719e-08
3.602636474303873989e-08
3.994526431209513539e-08
4.335844370847669647e-08
4.582400923722463324e-08
4.682698250702656421e-08
4.595004444151206444e-08
4.263265248414014722e-08
3.739652580785689730e-08
3.108194824181949232e-08
2.544044248225783474e-08
2.160392830595939433e-08
1.862101233810371168e-08
1.429094935284935758e-08
9.893004195729868017e-09
7.992275847180183429e-09
5.506836775383491464e-09
4.096293365969548864e-09
2.766499041920551849e-09
1.947479890450683262e-09
1.358994199666303112e-09
9.477657637339332570e-10
6.646818476625807299e-10
4.709377844150542526e-10
3.398473208602840433e-10
2.500919727984380898e-10
1.875427762628403418e-10
1.429726985915019588e-10
1.101584668715700878e-10
8.517954315751899399e-11
6.560850154427154431e-11
