# bin_4_12
3.290002028205561659e-07
3.448909109487040909e-07
3.494886464671224179e-07
3.390982365204113973e-07
3.110720725365450705e-07
2.699233432656132016e-07
2.231816120695685514e-07
1.833479183192191648e-07
1.564236484012474665e-07
1.328435936294856117e-07
9.979857622036371072e-08
7.115643544528398463e-08
5.707520014174502533e-08
3.987455348304274416e-08
3.003172141273598182e-08
2.141152938731419497e-08
1.564895129794583532e-08
1.154689683489077697e-08
8.636887659777365435e-09
6.576055027082140369e-09
5.092298617524408835e-09
4.001884793696847045e-09
3.171475123669469220e-09
2.516650965104787289e-09
1.985585713694915380e-09
1.547076969576453482e-09
1.183446532747318414e-09
8.845816776107371883e-10
6.439462147239387353e-10
4.559588828119992205e-10
3.142760231222342475e-10
