# bin_20_13
9.549940846324225668e-19
1.079374748321995222e-18
1.199654731121439187e-18
1.305992143916803441e-18
1.385303859166329897e-18
1.421735253156584967e-18
1.403461186965104024e-18
1.311541582891777396e-18
1.158256110641087816e-18
9.676331676792469418e-19
7.912129383416126244e-19
6.679365597958601106e-19
5.779607492890990292e-19
4.527278964069097747e-19
3.122197190870699188e-19
2.489719493993348199e-19
1.768952778214707708e-19
1.284410161075207145e-19
8.690162219374287054e-20
6.193837607192492021e-20
4.294622160091573830e-20
2.971547309370681551e-20
2.072316950082551889e-20
1.458300225971231824e-20
1.043637257775146355e-20
7.615749642337407453e-21
5.666579566161841749e-21
4.293258879247072252e-21
3.295171525602469775e-21
2.544895079675300517e-21
1.962807197048048537e-21
