# bin_1_18
8.312817851411940193e-07
8.002155223055373408e-07
7.293701914115844565e-07
6.295707240614973163e-07
5.207869269071940575e-07
4.299612928800294813e-07
3.662225153583748993e-07
3.063172973777609661e-07
2.297796968435185472e-07
1.675715977172414871e-07
1.312544437474813875e-07
9.440364771509615009e-08
7.033604373008096330e-08
5.145822411010562277e-08
3.832903271677864484e-08
2.892176574393418178e-08
2.222088682454349887e-08
1.739259464132155813e-08
1.381847414018368868e-08
1.108392332675180904e-08
8.908381967665106624e-09
7.120253373254985917e-09
5.620298232639922413e-09
4.354318518589074656e-09
3.294977575483253164e-09
2.427445877404087805e-09
1.739094169257412465e-09
1.212602185319460093e-09
8.248409039535988609e-10
5.490838554683676940e-10
3.589065312397173022e-10
