# bin_4_14
3.632645888344463074e-07
3.808541172561197655e-07
3.859826195986507432e-07
3.745782886231778557e-07
3.436915484806766189e-07
2.982893209812726622e-07
2.466644759247510196e-07
2.026250601128439085e-07
1.728462354678201516e-07
1.468241676472965319e-07
1.103608699522186692e-07
7.866076460996934599e-08
6.309392777747322083e-08
4.409460428555617916e-08
3.320329295660566205e-08
2.367013695353784090e-08
1.730068822486045711e-08
1.276441720920275654e-08
9.546405925723006173e-09
7.267652904800657991e-09
5.627195771717088546e-09
4.421834992787188713e-09
3.504089770635134145e-09
2.780545712691871116e-09
2.193845115603351000e-09
1.709446664730375576e-09
1.307773192140593775e-09
9.776264564970636200e-10
7.117757106719039370e-10
5.040563659388632859e-10
3.474729537568426357e-10
