# bin_7_12
1.424185001387356976e-07
1.545750287801130978e-07
1.634556026328196022e-07
1.672476048612219230e-07
1.644654921858728788e-07
1.531000642580429576e-07
1.347354173150412512e-07
1.123406700791876219e-07
9.191085635924961100e-08
7.768935749568904055e-08
6.694297990250646761e-08
5.210307752885292332e-08
3.631707109311008318e-08
2.898988811532226279e-08
2.070289043773837668e-08
1.525512129165108797e-08
1.069504843059019588e-08
7.780743085534041604e-09
5.622105051488489396e-09
4.098933352769479544e-09
3.036732793214389881e-09
2.287899901572155497e-09
1.754992870902324099e-09
1.365517689693423811e-09
1.071313637456003728e-09
8.419617029112794128e-10
6.581578638642714358e-10
5.083782256663436235e-10
3.858735515600015550e-10
2.865293255626810131e-10
2.074653659751105577e-10
