# bin_9_11
5.078405121978372149e-08
5.583552045031208002e-08
6.000003196161727593e-08
6.263495052994363093e-08
6.313187032281181733e-08
6.072830825984461997e-08
5.514481358524953195e-08
4.735023742833015187e-08
3.890956392970830482e-08
3.209777703207806979e-08
2.763449492607009098e-08
2.320501646415589035e-08
1.683475768783512992e-08
1.220108007299266410e-08
9.778272665565949288e-09
6.585873070908558592e-09
4.974144172266214849e-09
3.512119851239590139e-09
2.485294181525416812e-09
1.784590669126576500e-09
1.293090230741462077e-09
9.517412283543688004e-10
7.125943300038352974e-10
5.435492416383458456e-10
4.205442281598492547e-10
3.282388925965842701e-10
2.567636946113780057e-10
1.998422370821171117e-10
1.537658164788203131e-10
1.163238984200680158e-10
8.614981793367174004e-11
