# bin_5_9
1.790391438932129009e-07
1.903584966529939405e-07
1.961508164484157895e-07
1.947077488182996156e-07
1.834987986154503834e-07
1.634099549022639662e-07
1.376962459616431817e-07
1.126824425631569933e-07
9.425041478692562967e-08
8.136057503934602038e-08
6.546514309456649062e-08
4.611705680913718283e-08
3.557279442442698523e-08
2.680536266177923533e-08
1.905964097971890250e-08
1.384228061633738876e-08
1.012370144736458452e-08
7.352155048985971744e-09
5.410974387416135810e-09
4.052172353169149786e-09
3.089736067170551571e-09
2.395921792351310156e-09
1.882186187508880110e-09
1.488012011494411557e-09
1.175685907222664868e-09
9.218969607606203808e-10
7.127739177756915829e-10
5.404248620076424334e-10
4.000984106442732915e-10
2.883918035117108445e-10
2.022419073934724078e-10
