# bin_16_1
3.205900140570148678e-75
3.554392115396652323e-75
3.859081438594201320e-75
4.081008328007002021e-75
4.174174505382844896e-75
4.102426726229904022e-75
3.814074189220279756e-75
3.352373385388538541e-75
2.790317901285115784e-75
2.282234440607271992e-75
1.933279706931788051e-75
1.668350247488035310e-75
1.290392351435911858e-75
8.933502941488378536e-76
7.196450291006285353e-76
5.042090599537916359e-76
3.743707571545602838e-76
2.563304160718758299e-76
1.841867389724094635e-76
1.310733251701315081e-76
9.373859173276712312e-77
6.784084578060854030e-77
4.982202977588813544e-77
3.730399593869412957e-77
2.842701502779091363e-77
2.195491147597755723e-77
1.709340883588922978e-77
1.332007964502014148e-77
1.031578824099817455e-77
7.889478442696907870e-78
5.928596193167815998e-78
