# bin_19_4
2.136940618856574757e-62
2.393682207965059214e-62
2.631809937955376023e-62
2.827153037487934493e-62
2.949162123832812232e-62
2.969571095156030354e-62
2.851016185268419640e-62
2.582956741067794219e-62
2.212406795195525721e-62
1.815842819168522520e-62
1.500230481065974291e-62
1.294942418944142564e-62
1.083536540802264398e-62
7.781450349566229288e-63
5.674718112416196563e-63
4.523270430857265715e-63
3.015226188070297425e-63
2.258612174536714264e-63
1.582535929938236650e-63
1.099483300047995075e-63
7.719343318337442725e-64
5.444552007013919557e-64
3.892381292573013444e-64
2.826559027585664025e-64
2.094067472864058644e-64
1.579898693387202032e-64
1.210315114461125212e-64
9.364912701390045554e-65
7.266739402519384039e-65
5.613750812349359173e-65
4.289156809973430584e-65
