# bin_7_8
4.072739314970542453e-08
4.412562352085103779e-08
4.655761947294627245e-08
4.751221853250432758e-08
4.655316810728131592e-08
4.314596057745904247e-08
3.781152161590806067e-08
3.142408728335321554e-08
2.572163856940047247e-08
2.181844300115414475e-08
1.875937990915483443e-08
1.442494600568357399e-08
1.006781553013083332e-08
8.107021962468550588e-09
5.694701610719338313e-09
4.253494123775577513e-09
2.970110326041715171e-09
2.155687100593394901e-09
1.562700222965728430e-09
1.143280896815771420e-09
8.495833522106715262e-10
6.419825236807295050e-10
4.938598931339286554e-10
3.850965427264276624e-10
3.025307076294819280e-10
2.378595770928402716e-10
1.858345467379374083e-10
1.433490263320892810e-10
1.085805264597005021e-10
8.041021159247822964e-11
5.804104716276056566e-11
