# bin_17_5
3.738669849875221366e-45
4.171380126057335482e-45
4.564267669665156088e-45
4.873670907303442141e-45
5.044910198803701555e-45
5.034893731329452852e-45
4.773483094575895359e-45
4.273000775314098763e-45
3.614875536150266406e-45
2.957557267667751743e-45
2.465597163620978601e-45
2.135805081958766702e-45
1.740950390446517289e-45
1.218112899579981320e-45
9.278334873077476903e-46
7.074673011201579336e-46
4.871991887521521320e-46
3.500422911768730429e-46
2.515022856520562928e-46
1.761158866666558913e-46
1.238243585249236134e-46
8.819195932630618281e-47
6.374868178167297669e-47
4.688740370001244951e-47
3.516275261513647416e-47
2.681146469886980176e-47
2.070326281454586509e-47
1.608758920579246815e-47
1.248850553034113084e-47
9.617432029103071467e-48
7.303749886099420511e-48
