# bin_13_14
1.736334682411052756e-08
1.941181094934153826e-08
2.129239559093501044e-08
2.280555817395304931e-08
2.370026271493535790e-08
2.376166480775882211e-08
2.267348145837833645e-08
2.042062959940207653e-08
1.738470439757293122e-08
1.424406536302549417e-08
1.181795977403985541e-08
1.022222832145602827e-08
8.449211172126057728e-09
5.987326847008017488e-09
4.458956941620733948e-09
3.481939742292066764e-09
2.354320661977706371e-09
1.730505554396602145e-09
1.227416984787521079e-09
8.558822949207776382e-10
6.011128187632823229e-10
4.258635534456703796e-10
3.060888776034526758e-10
2.236741662547715277e-10
1.667154301928592849e-10
1.264508575839779422e-10
9.726337080840772491e-11
7.542683155473812256e-11
5.854708804649482051e-11
4.516331629498678197e-11
3.440600798702795005e-11
