# bin_15_7
9.247149043756742533e-26
1.029178255136252196e-25
1.122682737734688688e-25
1.194233689187353348e-25
1.230241143649150617e-25
1.220593050546101255e-25
1.148236687508568749e-25
1.020396062572354095e-25
8.572325771765263930e-26
7.007910768928319737e-26
5.879101876669658996e-26
5.092121435047999553e-26
4.070093428810043186e-26
2.821281604834980577e-26
2.205617647834356043e-26
1.627520163519681937e-26
1.154084687419579276e-26
8.066219275608335991e-27
5.845239688100624545e-27
4.117159853675103710e-27
2.908685058975071852e-27
2.085904124427689674e-27
1.517611760517213550e-27
1.124497400630904229e-27
8.490391702470653989e-28
6.510168808335229595e-28
5.046226820116356870e-28
3.927473245187810060e-28
3.047083161878851631e-28
2.340672856956218689e-28
1.770358225679832143e-28
