# bin_16_12
2.962899301619371573e-13
3.325806229706890112e-13
3.665987596750919413e-13
3.950528800670436898e-13
4.137498112293953683e-13
4.184930514689682199e-13
4.044751012354070260e-13
3.689527943255189439e-13
3.182428971627450766e-13
2.619403540574253550e-13
2.155771724724147229e-13
1.853523808717283462e-13
1.568907422449921325e-13
1.147611803981987312e-13
8.184955027554916956e-14
6.630153643513019125e-14
4.392719678561220747e-14
3.330883310102106760e-14
2.303380817985623148e-14
1.596077504712956541e-14
1.120979909230054107e-14
7.883773790124446773e-15
5.603594987147835429e-15
4.039541607071643272e-15
2.970999848450903177e-15
2.226688927416951579e-15
1.696676268424633602e-15
1.308421990473790556e-15
1.014134494845896173e-15
7.842700613661454807e-16
6.009585932124788210e-16
