# bin_10_12
4.387154911538083874e-08
4.849025018024287357e-08
5.244714537345410961e-08
5.520110232239411212e-08
5.615623590379757045e-08
5.476085450130219213e-08
5.045604815151167581e-08
4.396408274749106016e-08
3.638834549950747411e-08
2.982753242112804306e-08
2.544092543835403105e-08
2.178857158741065834e-08
1.643872140575071482e-08
1.150677498588700453e-08
9.343471142929943531e-09
6.369418279997700752e-09
4.817276386053022489e-09
3.323570027410720225e-09
2.362596753011288865e-09
1.690621975143026671e-09
1.216725657756377328e-09
8.861735446636111058e-10
6.555421719599272665e-10
4.944557727113574712e-10
3.791362516976780781e-10
2.941400212154566235e-10
2.295365374102294464e-10
1.788636852359078696e-10
1.382286619145850072e-10
1.053075267835389926e-10
7.871472942863067448e-11
