# bin_10_16
1.037936862897980114e-07
1.147961778972307381e-07
1.242642332886482929e-07
1.309216760616039141e-07
1.333423748902255500e-07
1.302483770118451276e-07
1.202438261925170417e-07
1.049719310282019452e-07
8.699187930472975118e-08
7.127368114061512006e-08
6.070056386047129541e-08
5.207153694294245710e-08
3.950384909236766812e-08
2.758626378119121092e-08
2.235876690098033017e-08
1.533480096483238724e-08
1.154924150265790231e-08
7.957921280914770016e-09
5.669158837280014765e-09
4.051819288016167066e-09
2.911945395800649125e-09
2.117854277049235122e-09
1.564179342109039481e-09
1.177918101637302917e-09
9.019800775517397394e-10
6.990857238978143980e-10
5.452677792560630760e-10
4.248926712552141345e-10
3.285118591937222925e-10
2.504808612657123815e-10
1.874433633676949498e-10
