# bin_1_7
6.079883821325467204e-07
5.845593288637425107e-07
5.321206259684030479e-07
4.587510529734368978e-07
3.792640408859641830e-07
3.132851844536389454e-07
2.669852267669915936e-07
2.229330989435608881e-07
1.668026067466676576e-07
1.218718051641810596e-07
9.540661349411882805e-08
6.855621110231815849e-08
5.111037543617660806e-08
3.740307825528452617e-08
2.786727525269524549e-08
2.104101716898276699e-08
1.617697306130050681e-08
1.266983065919094614e-08
1.007116603126003510e-08
8.080550745570450724e-09
6.494925462075813540e-09
5.190426695558433866e-09
4.095544503696468627e-09
3.171334357433742079e-09
2.398211317093005073e-09
1.765500316453683497e-09
1.263925507382426505e-09
8.806829873608388806e-10
5.987014542861358719e-10
3.983452187115173871e-10
2.602697272878741308e-10
