# bin_1_2
1.991119367195732252e-07
1.897999120065256649e-07
1.711994404788916012e-07
1.463144954757969533e-07
1.204859826573108535e-07
9.992613803381484092e-08
8.546766338126123237e-08
7.045560693404952124e-08
5.175529858406701424e-08
3.837493646692176774e-08
2.987736872772470543e-08
2.135049655760445126e-08
1.597518226304237358e-08
1.172365502694346012e-08
8.750091822377637783e-09
6.636933945479031718e-09
5.127729832467487110e-09
4.033968659263976868e-09
3.217746377369988737e-09
2.587016293495768503e-09
2.080191128827453178e-09
1.660428980224247867e-09
1.306745642255414519e-09
1.007964539633092315e-09
7.585913854084543734e-10
5.555075558872594063e-10
3.955683167480684329e-10
2.742593023518767026e-10
1.856319844915297107e-10
1.230568360539623376e-10
8.016171980767915882e-11
