# bin_20_2
1.432587855476409752e-86
1.606871605464922691e-86
1.769641711576585656e-86
1.904878458999649251e-86
1.992238036400010305e-86
2.011911268885616656e-86
1.939938702717992286e-86
1.765237001028789123e-86
1.518811573448985513e-86
1.248736868475968556e-86
1.029032147961382178e-86
8.860987173503145195e-87
7.471405299685319533e-87
5.428082055385422200e-87
3.900683894262858807e-87
3.145010553291380774e-87
2.085324470069605605e-87
1.576361636879649727e-87
1.095131148806438663e-87
7.593282073403629616e-88
5.332376339600149415e-88
3.753035996816466975e-88
2.672997724595588536e-88
1.931982288803281590e-88
1.424698938308412560e-88
1.070383257280354255e-88
8.172390066684213199e-89
6.310436012441034188e-89
4.893495625753461111e-89
3.783174713703047469e-89
2.896045277163140068e-89
