# bin_20_4
8.225889554724794601e-62
9.237846551201602404e-62
1.018866979050965951e-61
1.098737341771814604e-61
1.151780051595254147e-61
1.166163936577800331e-61
1.128815771593745197e-61
1.031310570046030340e-61
8.909978170402051208e-62
7.338929203485950953e-62
6.035054698754571046e-62
5.183740800599530207e-62
4.398450537865536329e-62
3.231485551289682177e-62
2.293973366759937013e-62
1.863322511409369821e-62
1.234363784942857649e-62
9.376273056623756490e-63
6.465407694475645863e-63
4.479293284808501442e-63
3.146728920351358283e-63
2.212593822259663090e-63
1.571028301359732059e-63
1.130953166354219376e-63
8.306167373552195924e-64
6.217111509474681978e-64
4.732124398902631483e-64
3.646696300037310856e-64
2.825738695350341449e-64
2.185627721421856248e-64
1.675685048950634589e-64
