# bin_8_4
6.210099840745234673e-11
6.694821758233373956e-11
7.019852739624851326e-11
7.112592028038208506e-11
6.896904162589996650e-11
6.316214325563275702e-11
5.470981588736724405e-11
4.512809009637691930e-11
3.705104853465858825e-11
3.171358491432941561e-11
2.698469081726458766e-11
2.007121312938892970e-11
1.422664229235069027e-11
1.156829127206229724e-11
7.859148827982215338e-12
6.006388428090983831e-12
4.225879308628982313e-12
3.036721179725367680e-12
2.216380842284121829e-12
1.634289135252043187e-12
1.224140557741265069e-12
9.326408752745297065e-13
7.228048539787438785e-13
5.666805103702696865e-13
4.465385033275614342e-13
3.512434009832868401e-13
2.738541726325724092e-13
2.103486814762068147e-13
1.583509981515408729e-13
1.163608589352754638e-13
8.325663101488197847e-14
