# bin_17_8
5.732775604481599389e-23
6.419450305559864655e-23
7.055261818978149520e-23
7.575192167228771899e-23
7.897144202331941446e-23
7.946114709938786921e-23
7.620952410721383654e-23
6.897266113858374733e-23
5.901453983728868383e-23
4.841824095742510374e-23
4.002880396874566453e-23
3.456871364118042478e-23
2.886928127360946016e-23
2.067829761602677456e-23
1.513460076593649295e-23
1.202631163481050335e-23
8.031636916774023015e-24
6.000508486668453117e-24
4.213651520884701803e-24
2.929544677935241216e-24
2.057090272989635525e-24
1.452130105835882395e-24
1.039368410527637812e-24
7.558175945832670978e-25
5.607125082338504039e-25
4.235515759033861087e-25
3.247789381088828576e-25
2.514419146206933226e-25
1.951360590540392034e-25
1.507104684057318986e-25
1.150829545969964149e-25
