# bin_7_3
2.677361402392438384e-11
2.855235888993984786e-11
2.952893446814709300e-11
2.945032051235909289e-11
2.791670631308100269e-11
2.499345505660939764e-11
2.115564442504317479e-11
1.731048962517751129e-11
1.441286516786793143e-11
1.246075868283962440e-11
1.017337217077722151e-11
7.178388804040389738e-12
5.458727218175334360e-12
4.202581043008950021e-12
2.932749720037007446e-12
2.154491076363023463e-12
1.574841977381110995e-12
1.139122385848168443e-12
8.351836730337188640e-13
6.232768126197771295e-13
4.738247564655234774e-13
3.664185919913845977e-13
2.873137638669292561e-13
2.269440412171757181e-13
1.793375183837610155e-13
1.407887882965743803e-13
1.090731482167296609e-13
8.292762217373186462e-14
6.159639375134208426e-14
4.455352843082138159e-14
3.134957350196509480e-14
