# bin_19_15
2.126823021558781781e-08
2.406320885239206046e-08
2.677845673532191410e-08
2.919729913869021944e-08
3.103020870420920379e-08
3.192152421781212029e-08
3.160922518103654134e-08
2.965375142982171947e-08
2.628258461316814403e-08
2.202545001140462518e-08
1.800776836296185696e-08
1.515310041940408454e-08
1.312508440877789227e-08
1.039550003385955677e-08
7.175070687143637078e-09
5.661892083100159962e-09
4.096970506551642602e-09
2.926079495768685518e-09
1.997103787099338349e-09
1.428524961792523667e-09
9.873805349196534256e-10
6.802013558620915904e-10
4.729529975611679069e-10
3.317302495437709921e-10
2.363894514041724644e-10
1.717407710358265935e-10
1.272458340643549222e-10
9.606766312933874812e-11
7.355854681957352677e-11
5.675223326544006876e-11
4.378697173699970938e-11
