# bin_9_3
9.160480646954515454e-18
9.889510711946018792e-18
1.038812403006886327e-17
1.054641295383301965e-17
1.025702042756476735e-17
9.423783451504836175e-18
8.189102243985844514e-18
6.766321246391289528e-18
5.548434030023444431e-18
4.738702111416522400e-18
4.047924464519772293e-18
3.037159581151913627e-18
2.138291904188151565e-18
1.740714104643939448e-18
1.188034637162571157e-18
9.065839002064303548e-19
6.347962012533556981e-19
4.568891738943922583e-19
3.331730457718326975e-19
2.453625226340910502e-19
1.834243436040172606e-19
1.394528732768147230e-19
1.078845032919320639e-19
8.447676640154963119e-20
6.652579074041504738e-20
5.233134211184518042e-20
4.082927260691708186e-20
3.140004435449625538e-20
2.367846883816486423e-20
1.743608679649785341e-20
1.250429067793104205e-20
