# bin_9_8
5.809780941389480202e-06
6.378958244849766299e-06
6.843109064206219088e-06
7.128216518844683902e-06
7.167250621803815099e-06
6.869235543112524190e-06
6.213976216718690772e-06
5.314697152268381499e-06
4.359935422932336285e-06
3.604014504883533102e-06
3.109925457228433761e-06
2.595460045065836674e-06
1.863297707353333927e-06
1.366528735725360594e-06
1.087160070894788603e-06
7.334702564545958511e-07
5.512879875884960045e-07
3.921525101732558516e-07
2.777491149717455498e-07
1.995118462723193627e-07
1.448228254952408410e-07
1.069230798695873892e-07
8.033539316696859760e-08
6.146721924819558657e-08
4.767170162846043523e-08
3.726554787052387957e-08
2.916603119215567214e-08
2.268980151120895038e-08
1.743514965860553298e-08
1.316262684479730805e-08
9.722191915746541936e-09
