# bin_9_2
4.052421606409242707e-23
4.359103576562770373e-23
4.558047734425457483e-23
4.603825661800118285e-23
4.443518439769403613e-23
4.049284810477489358e-23
3.489909159131961077e-23
2.871675989202980700e-23
2.362862830794145928e-23
2.028983689413929485e-23
1.714864937578876536e-23
1.258644281651111828e-23
9.030228705465091750e-24
7.309513624977240970e-24
4.947681907572441401e-24
3.779353999726604360e-24
2.679369232839951412e-24
1.923171474076775749e-24
1.405209690637635324e-24
1.038324396342083741e-24
7.801983300869938554e-25
5.963966052664546221e-25
4.634945828235201176e-25
3.640718252133208346e-25
2.871468800892293915e-25
2.258367930109665938e-25
1.758809740179988192e-25
1.348274475979067266e-25
1.012233651985948856e-25
7.413632314173499483e-26
5.285366801630588904e-26
