# bin_12_9
6.096609382677453766e-08
6.764883937930330999e-08
7.352202582932200403e-08
7.784791851875253405e-08
7.974493669595254742e-08
7.853569659104330339e-08
7.319961610467431035e-08
6.449060687682570829e-08
5.377949767496174861e-08
4.397570990631201807e-08
3.717412766460798087e-08
3.211536155523168443e-08
2.501911733843743522e-08
1.730890446465328600e-08
1.386735610277183630e-08
9.823868294613894699e-09
7.226685400237848106e-09
4.960018588710309336e-09
3.576149360289337794e-09
2.539736652807553080e-09
1.811910512911679064e-09
1.309349093179518608e-09
9.600560953017451143e-10
7.175659099299472253e-10
5.459788034786477239e-10
4.211889079919331130e-10
3.277139520257101227e-10
2.553528238595915492e-10
1.978478813500921794e-10
1.514495835295514149e-10
1.139512188409148319e-10
