# bin_18_12
2.581748995271956190e-12
2.908697509202630375e-12
3.220481786469891796e-12
3.489496211401698683e-12
3.679821472774733104e-12
3.750700750530086045e-12
3.667072094717831449e-12
3.387486700476146498e-12
2.959050235244746721e-12
2.452014694270622806e-12
2.008497406965815456e-12
1.711705040191550542e-12
1.471142345931766888e-12
1.114896417240683944e-12
7.744416057872004224e-13
6.298842285931105712e-13
4.262080931347242576e-13
3.212827548950773953e-13
2.174195092846580245e-13
1.518121492658836339e-13
1.063666446603078201e-13
7.452353948054804470e-14
5.245940977915107862e-14
3.733903029082706502e-14
2.709085837586795731e-14
2.004278743766163848e-14
1.510308886933286748e-14
1.155688111515946582e-14
8.924317546768308513e-15
6.904704221446462052e-15
5.313045510290604369e-15
