# bin_20_12
1.060595372663696613e-16
1.198174567718343799e-16
1.330946977768105289e-16
1.447924968107604198e-16
1.534541639484175227e-16
1.573269405619910843e-16
1.550887181431480713e-16
1.446823611400535813e-16
1.275691260555596459e-16
1.064325416665753282e-16
8.703852606433674126e-17
7.358297181417490396e-17
6.363130454246434542e-17
4.959760120906801214e-17
3.421062610730579534e-17
2.739199539501605978e-17
1.930695086219651528e-17
1.411762686933676224e-17
9.529345448248270934e-18
6.775983536717349375e-18
4.706515537188308708e-18
3.264276840746812431e-18
2.280257156609791333e-18
1.607747336264500288e-18
1.153366761521834118e-18
8.437288957842715232e-19
6.292504648754694653e-19
4.776587550377259075e-19
3.670772684512847214e-19
2.836437320559619273e-19
2.187174052690391049e-19
