# bin_15_9
1.265173400918175270e-13
1.412935667239832662e-13
1.547804139701385593e-13
1.655113245277752667e-13
1.716450139389568397e-13
1.716769212074241459e-13
1.632525815908101625e-13
1.465465338965108369e-13
1.243290013268631486e-13
1.017743888947329778e-13
8.464710432746662688e-14
7.329628977631407239e-14
6.015456215702825391e-14
4.230656443558000455e-14
3.189257240158913291e-14
2.460338513565993984e-14
1.678299313894279979e-14
1.219438956598369280e-14
8.714340473625646759e-15
6.090774548219290213e-15
4.279575247651348962e-15
3.040903775926184117e-15
2.193045799025087804e-15
1.608768813339597604e-15
1.203525729339463921e-15
9.157819690305081931e-16
7.060972604961611424e-16
5.482902773809780772e-16
4.256631770765873580e-16
3.280677777160162271e-16
2.494888611322761623e-16
