# bin_19_14
5.828681223035412291e-10
6.588606061161935317e-10
7.323860863202471807e-10
7.974458152511766412e-10
8.460601738737918655e-10
8.685427310744839821e-10
8.576849704524140198e-10
8.018660738072187222e-10
7.084395869351523349e-10
5.920523290099481204e-10
4.840958546314820987e-10
4.085172524491869304e-10
3.535350816644141625e-10
2.772855499882548201e-10
1.912324571680491456e-10
1.523227057252456735e-10
1.084558959883918405e-10
7.860450731054495612e-11
5.323056097787279007e-11
3.796410153112297733e-11
2.631698937469185964e-11
1.820329502462285143e-11
1.269358046410002780e-11
8.931804999315745562e-12
6.391066718590504869e-12
4.663024424653003576e-12
3.469041330777594335e-12
2.627977815304931315e-12
2.016885395825402083e-12
1.557644482729502975e-12
1.201428248896364217e-12
