# bin_20_13
6.484733169482596253e-14
7.332275556815937087e-14
8.153328076817662858e-14
8.881364246722628738e-14
9.427752308602070108e-14
9.684464665931289604e-14
9.571535251199108523e-14
8.958051212062114066e-14
7.922074180952271352e-14
6.626067222423550972e-14
5.417550508420419704e-14
4.567727180511099162e-14
3.954252320079850520e-14
3.110784433579554122e-14
2.145478794111535354e-14
1.704396753659649235e-14
1.219558923298752509e-14
8.800110023112684328e-15
5.970778886511899027e-15
4.263733605212415496e-15
2.952910571028701432e-15
2.039892918221200274e-15
1.421260931089143348e-15
9.991068905246046760e-16
7.140217601718907134e-16
5.203037336291948391e-16
3.866136942129681775e-16
2.925905554376374355e-16
2.244065645138680754e-16
1.732642016096653644e-16
1.336577686167851023e-16
