# bin_18_3
8.709134441663096940e-61
9.730330447045826404e-61
1.066454084318642443e-60
1.141114863668517061e-60
1.184371985800683589e-60
1.185713194734722437e-60
1.129023995496780448e-60
1.014751033673879339e-60
8.620127143773046379e-61
7.058283142564601787e-61
5.864616722305044793e-61
5.076871017705771984e-61
4.178634295926728525e-61
2.946192843912630364e-61
2.210805808907427317e-61
1.713968787218643653e-61
1.164646868270372220e-61
8.502833931766927540e-62
6.060218751814395907e-62
4.232009762789035995e-62
2.972840567070144464e-62
2.110029123114359879e-62
1.519954535767553579e-62
1.113540137591724130e-62
8.320096873009947290e-63
6.324172506938724816e-63
4.872355326819374043e-63
3.781942347518087080e-63
2.936100683675028040e-63
2.263735478810353216e-63
1.722652149344661261e-63
