# bin_19_7
1.903922333793324195e-35
2.138154768252979643e-35
2.358242332795690690e-35
2.543126414299370700e-35
2.665922476842351698e-35
2.699243170552301908e-35
2.612832299055497747e-35
2.387167370640209558e-35
2.062410274406197464e-35
1.698756865265481517e-35
1.396928591759271219e-35
1.199872976051531667e-35
1.018137691283270684e-35
7.480284159335631007e-36
5.309712730144914516e-36
4.313356875561149013e-36
2.857089624920033105e-36
2.170470253055610171e-36
1.496622062121546747e-36
1.036832250854564775e-36
7.283859440559060984e-37
5.121520318075909349e-37
3.636439981127288329e-37
2.617768770427748708e-37
1.922571161398934663e-37
1.439017914779401146e-37
1.095294225443315374e-37
8.440598405686898301e-38
6.540433381595748596e-38
5.058867097908815150e-38
3.878584034722803890e-38
