# bin_16_12
6.872568439897526857e-09
7.720192654817316264e-09
8.517684118348320957e-09
9.189230904728946477e-09
9.637912564788584232e-09
9.763977649631394360e-09
9.459680375971614895e-09
8.650757616345080298e-09
7.480984359078355293e-09
6.164786354491436708e-09
5.067358849061011255e-09
4.349796242603142985e-09
3.695721479531861795e-09
2.722505809933764845e-09
1.927861383669629153e-09
1.567507720257011504e-09
1.039107994350832382e-09
7.895873043446919565e-10
5.434939123042840606e-10
3.765629243040618199e-10
2.645374340877266951e-10
1.859752028203144930e-10
1.319494298645933395e-10
9.489282515413160449e-11
6.962088358808408256e-11
5.206029679661817788e-11
3.959321244461445370e-11
3.049485229034053617e-11
2.362415517064052575e-11
1.827400235319615847e-11
1.401529641748085414e-11
