# bin_18_15
2.628105715753799674e-07
2.969754636806126347e-07
3.299851192693008193e-07
3.591282296774586933e-07
3.808051898584335855e-07
3.906628992618706778e-07
3.854561756683476481e-07
3.600033734099737940e-07
3.177453386042232495e-07
2.653033636876670301e-07
2.168702894199600455e-07
1.830858129117500053e-07
1.583877819074943194e-07
1.239394881911464368e-07
8.544791952111437182e-08
6.817503722906415413e-08
4.836642691002335433e-08
3.515137575031609027e-08
2.377217859860236924e-08
1.693591071816078665e-08
1.174423773646333949e-08
8.128530616986248629e-09
5.669971924679632337e-09
3.991217300626890991e-09
2.857471458850145276e-09
2.086104686042775465e-09
1.552845494264716217e-09
1.176917616749976201e-09
9.035192954672541253e-10
6.978595676533251581e-10
5.382112064844040818e-10
