# bin_19_19
8.658640832110647367e-06
9.828761902813800349e-06
1.098286742691681715e-05
1.203554331260883690e-05
1.287219005588834127e-05
1.334888222253901396e-05
1.334904164859597143e-05
1.268782338255388607e-05
1.138268399831709617e-05
9.649801771345059296e-06
7.897138625743609365e-06
6.572022529974058897e-06
5.693687358673520257e-06
4.665216652777142227e-06
3.269946449705875818e-06
2.467865912731894200e-06
1.892404600368480973e-06
1.283744779089628584e-06
9.207028991383977324e-07
6.501846203105169246e-07
4.451026565874531178e-07
3.040001639358561885e-07
2.087063457801028360e-07
1.444894258905258366e-07
1.012391049019179468e-07
7.224248432276068833e-08
5.257280881003458981e-08
3.906159815949433880e-08
2.955414887929336371e-08
2.265012814219087038e-08
1.745762404525199320e-08
