# bin_20_16
2.951756582866142168e-08
3.345600893638958408e-08
3.731323908171711788e-08
4.079426855212820332e-08
4.350314844043797180e-08
4.494565364356853561e-08
4.474785466972969250e-08
4.227576923121581114e-08
3.771521063827969681e-08
3.179504699592968864e-08
2.599821747448907537e-08
2.174126887979041322e-08
1.884259082415359842e-08
1.521798128688782411e-08
1.056651056387192962e-08
8.143091312864094357e-09
6.090671365253710977e-09
4.218797515602587990e-09
2.952629875721162868e-09
2.105944210950537444e-09
1.447301189020548344e-09
9.905091363807264645e-10
6.838804326359938005e-10
4.762262711552570373e-10
3.361940253912951471e-10
2.418636148128118757e-10
1.774778621413157014e-10
1.328702890643307744e-10
1.011218064292072349e-10
7.777229443777152217e-11
5.999869798222749226e-11
