# bin_20_4
8.226019443638326295e-62
9.236876919777275214e-62
1.018620010500311075e-61
1.098303579906575768e-61
1.151134368099185699e-61
1.165299643793808591e-61
1.127773217140738957e-61
1.030134018510629633e-61
8.897719836415378778e-62
7.326671846142059086e-62
6.023064979929725891e-62
5.172309975264500800e-62
4.388696865203839246e-62
3.224228989643415907e-62
2.287585441799821715e-62
1.858184088080706635e-62
1.230658584110621857e-62
9.347284915189027131e-63
6.442469666522411212e-63
4.462132916442100097e-63
3.134073252401838066e-63
2.203107799426058169e-63
1.563748253751182119e-63
1.125267180518833298e-63
8.261266049611707955e-64
6.181375841004249731e-64
4.703557801861674959e-64
3.623938488959180582e-64
2.807786055801762600e-64
2.171692867611787015e-64
1.665092862386504687e-64
