# bin_10_2
8.178632997003645154e-28
8.849190779439877917e-28
9.321484232040519131e-28
9.493769113129658314e-28
9.277398887845283091e-28
8.569797221481774596e-28
7.486301030755527286e-28
6.204600107923052536e-28
5.078186884942555655e-28
4.318055069279055760e-28
3.708107531401715553e-28
2.825353473348400887e-28
1.971917155840738875e-28
1.599891957194543850e-28
1.107657663391931250e-28
8.374066725400569119e-29
5.828764719883016600e-29
4.215332426193373324e-29
3.064688022253782988e-29
2.249139302051072075e-29
1.674941069567533203e-29
1.268278215145865839e-29
9.776397241111708707e-30
7.635105162370424816e-30
6.003760525889198589e-30
4.721631300447594438e-30
3.687426961190820059e-30
2.841585309756854224e-30
2.149116966956298390e-30
1.588423054976646653e-30
1.143906540600362642e-30
