# bin_8_2
8.528128888121287778e-19
9.110799737318509569e-19
9.443953445093863463e-19
9.444498457245416088e-19
8.986603826157382619e-19
8.074028932160400228e-19
6.858231362891518323e-19
5.614257963692210898e-19
4.659358471027851304e-19
4.025060782660803576e-19
3.314980896930220188e-19
2.353983211535050533e-19
1.766055479448825648e-19
1.379002564354200890e-19
9.512759150975021367e-20
7.069625816326910028e-20
5.135348835429922454e-20
3.704179207631822819e-20
2.711551357584457360e-20
2.017617214458809997e-20
1.529519070016121203e-20
1.179647498952664440e-20
9.231274014585698294e-21
7.282784069499539231e-21
5.752963683409554197e-21
4.518597655437372109e-21
3.505121922803679113e-21
2.670132479712461318e-21
1.988285726368658428e-21
1.442304752331887094e-21
1.017881475622406804e-21
