# bin_16_14
1.596614094609609165e-06
1.797682087165403394e-06
1.988905566595173838e-06
2.153118532252464173e-06
2.268076533673148347e-06
2.308915959450463990e-06
2.253547755244929121e-06
2.077604077395752945e-06
1.811264697466949014e-06
1.498861749203562142e-06
1.227923318140542266e-06
1.047627495290999265e-06
8.988983156526915190e-07
6.778425596246763218e-07
4.717344965270737226e-07
3.841627283442509348e-07
2.584906739644234419e-07
1.954246514947519669e-07
1.325334863386627271e-07
9.228279158351197392e-08
6.470845121665736385e-08
4.536951555638189914e-08
3.196990039274938714e-08
2.278619320167094295e-08
1.655827376590400859e-08
1.226936233398189666e-08
9.258173869421336459e-09
7.091437477214379550e-09
5.478901893389328011e-09
4.239011998656427532e-09
3.260303450434862770e-09
