# bin_16_13
1.724544336164183005e-07
1.939375178956314568e-07
2.142570233553035751e-07
2.315343346063325553e-07
2.433534765194353596e-07
2.471180518438865137e-07
2.402941656383321922e-07
2.206112955019986032e-07
1.915340893366377120e-07
1.581257927511410181e-07
1.297151137272325579e-07
1.110056910804207083e-07
9.482057279249855247e-08
7.066967395166416296e-08
4.953584107005331060e-08
4.038237712857898097e-08
2.690257905109924535e-08
2.043267630646691402e-08
1.395259366505584150e-08
9.677155824817209650e-09
6.794791527401890067e-09
4.771356390173289168e-09
3.373083335411227637e-09
2.414381781703536036e-09
1.762667289061232101e-09
1.311959315507851709e-09
9.938443201505402175e-10
7.633812207886976482e-10
5.906356832133486575e-10
4.569699740117706486e-10
3.510062306046876067e-10
