# bin_20_2
5.130803073486501625e-81
5.756564853143267036e-81
6.341851174566280695e-81
6.829507937141099399e-81
7.146885023473721377e-81
7.222244477137327869e-81
6.971370734349081104e-81
6.350407870716875098e-81
5.469857504202235514e-81
4.498405804190656401e-81
3.703156635398116411e-81
3.185616743415328091e-81
2.691705421827914952e-81
1.962472978934201652e-81
1.403710770845283290e-81
1.134963879856450683e-81
7.517887417059898811e-82
5.694115527381707212e-82
3.944643720536662376e-82
2.733539000162897817e-82
1.919662639529266651e-82
1.350387168143967909e-82
9.606175643454204532e-83
6.932543607422616306e-83
5.104544228749829322e-83
3.829782279760721024e-83
2.920717483788631898e-83
2.253606348951543498e-83
1.747057971274672019e-83
1.350835093051720217e-83
1.034593293516839780e-83
