# bin_18_17
5.964083379545436862e-06
6.752310812687597172e-06
7.520380060921440674e-06
8.208027699528550058e-06
8.734552206715319152e-06
9.000064275724694842e-06
8.930944554533308839e-06
8.401269870613142275e-06
7.464802127946325399e-06
6.269308197927863857e-06
5.124498638327718905e-06
4.300565570787646831e-06
3.726314603703271910e-06
2.975476523228469561e-06
2.056650040460182594e-06
1.607912182671430554e-06
1.179668800772338633e-06
8.315141835561136507e-07
5.726419816086530578e-07
4.097553325225678104e-07
2.824677999327079714e-07
1.939377934291185273e-07
1.344466391662093844e-07
9.400814880220872931e-08
6.672207434771766299e-08
4.827389726126605157e-08
3.562313803770865454e-08
2.680215203915978852e-08
2.047240941612541397e-08
1.577609869499501315e-08
1.217289824743515846e-08
