# bin_14_12
1.322256357857852737e-06
1.480398979293890413e-06
1.626723396638578967e-06
1.746235339625479494e-06
1.820016415355372335e-06
1.830824766302466316e-06
1.755378427989175820e-06
1.588165232186762482e-06
1.358393907006627200e-06
1.114126805019152039e-06
9.208699076435069641e-07
7.951349473392422530e-07
6.638921798631749740e-07
4.753858929858766801e-07
3.478743930801088870e-07
2.763528557577486236e-07
1.845345174455665140e-07
1.378230422436586585e-07
9.675834803874503767e-08
6.725766246798010228e-08
4.721534497961256917e-08
3.332296520832925432e-08
2.384422531774581900e-08
1.733395856318325463e-08
1.285576005484035643e-08
9.708539428960627090e-09
7.442917697404713662e-09
5.761376301408946944e-09
4.470796942160914974e-09
3.452823624977147473e-09
2.636611654124479870e-09
