# bin_4_3
8.497132208995291112e-06
8.845339582764684880e-06
8.891538778496480922e-06
8.527331503899329720e-06
7.723723998017501682e-06
6.616851375971977533e-06
5.433084591861676692e-06
4.484218616524162587e-06
3.856249693250942169e-06
3.224810769957807512e-06
2.342906135667383151e-06
1.712675691846906680e-06
1.366992415448424019e-06
9.398574995564023707e-07
7.125307300131288415e-07
5.141071729742023986e-07
3.743838052577837108e-07
2.776172060138454912e-07
2.090748762482594388e-07
1.603669725520192600e-07
1.250504353310934673e-07
9.880220850090976850e-08
7.854285780356329715e-08
6.236984976239981414e-08
4.912686305464822958e-08
3.812960596655735727e-08
2.899922010726536835e-08
2.151787110986812718e-08
1.553446982433031950e-08
1.090678048711011979e-08
7.458273717636886189e-09
