# bin_11_7
5.171869854911717416e-10
5.697204920686414872e-10
6.136740631009190706e-10
6.425768021308090703e-10
6.499064423671585218e-10
6.283530568163237767e-10
5.734812916851051776e-10
4.949676837805859790e-10
4.074419773085222268e-10
3.349663505144445682e-10
2.875411017606314560e-10
2.436712722075624742e-10
1.791077100764740872e-10
1.275938656224442059e-10
1.035456622153867910e-10
6.933742774034838517e-11
5.286238440025037611e-11
3.695307690719085689e-11
2.609830065989325658e-11
1.873470119006488797e-11
1.354071303510104143e-11
9.926812999141950669e-12
7.399357654015579731e-12
5.621922285530126773e-12
4.336470859641864087e-12
3.378177369039897670e-12
2.641035132487114077e-12
2.056981917927660578e-12
1.585594480472952544e-12
1.202785206987500609e-12
8.939126133299226358e-13
