# bin_14_14
8.797985576040409045e-06
9.878633546073075321e-06
1.089324909683774985e-05
1.174451073265880817e-05
1.230828172015021551e-05
1.245842272989625550e-05
1.205531558144684471e-05
1.100979284092979600e-05
9.508054244864599675e-06
7.828662865724065337e-06
6.436289524433736149e-06
5.527730323321086917e-06
4.689073051805035674e-06
3.443364711586837482e-06
2.444240902420497825e-06
1.984866631857584033e-06
1.314596932577892007e-06
9.982973857552336101e-07
6.882755288984102570e-07
4.767283271104480413e-07
3.348387686133563336e-07
2.353896258331939195e-07
1.671019645632432518e-07
1.202684437456829877e-07
8.831315355425929514e-08
6.609077964238876650e-08
5.029746134137489278e-08
3.875630977338396419e-08
3.002912258334821218e-08
2.322572440906001047e-08
1.780656606564816281e-08
