# bin_12_3
1.311847125055783982e-30
1.436855057621284438e-30
1.536760904074979548e-30
1.594659899618157930e-30
1.596387518439044677e-30
1.520561905320162044e-30
1.367205445274656332e-30
1.162038298309620129e-30
9.513090603311768879e-31
7.893520244618818334e-31
6.825130708377410385e-31
5.628878313472572416e-31
3.986969495818636075e-31
2.983339109301504849e-31
2.328854958274465250e-31
1.590878164111319222e-31
1.176049968225949865e-31
8.459594530832418550e-32
6.010212885822694030e-32
4.318829132121338320e-32
3.146174684976869181e-32
2.332566795204355451e-32
1.760417560738933809e-32
1.352090685319732178e-32
1.051579222368939958e-32
8.233317317833373917e-33
6.445026054829831210e-33
5.008348992905718314e-33
3.839844975804731919e-33
2.889689489663680969e-33
2.125959082617804441e-33
