# bin_9_7
7.878135937034199623e-07
8.623529043785951817e-07
9.216047603797966587e-07
9.553883945835618980e-07
9.553248653687641313e-07
9.085043679613382714e-07
8.156555100079601551e-07
6.922054001001468414e-07
5.664975910777899642e-07
4.706093213991552522e-07
4.070336083449985555e-07
3.345394480483565676e-07
2.362945692215364489e-07
1.777587798115627175e-07
1.379737851785674124e-07
9.467727194164697585e-08
6.963791159685542614e-08
5.022738374506583400e-08
3.572088511140861478e-08
2.567912327226659526e-08
1.872843070073896080e-08
1.390142362553698712e-08
1.050426748252972728e-08
8.075959120224758729e-09
6.285588701896504705e-09
4.923196195203230237e-09
3.853914231563121969e-09
2.993837247242606276e-09
2.293895011915778847e-09
1.724766393984904838e-09
1.267549057013141572e-09
