# bin_14_9
2.100183060802894978e-11
2.340410233731965660e-11
2.557064992984150252e-11
2.725433330236614705e-11
2.814721931352182302e-11
2.801494439731096820e-11
2.646446923672318066e-11
2.360881857371701414e-11
1.990498406739805770e-11
1.627319471469051597e-11
1.359943981050166851e-11
1.178032682741133724e-11
9.523323992797217524e-12
6.629862146494732705e-12
5.106929088535373863e-12
3.840964997663474356e-12
2.676012004199837872e-12
1.898932153428082731e-12
1.370964312353631150e-12
9.622715979603933522e-13
6.776498922771011024e-13
4.840915805289376271e-13
3.509388607062302829e-13
2.589676710810770313e-13
1.948055382384065267e-13
1.489182563072170671e-13
1.151952768688530885e-13
8.958283892874330063e-14
6.952699579070663743e-14
5.348423869663518024e-14
4.054402964960922543e-14
