# bin_14_11
1.066510464951008308e-07
1.192280861500933465e-07
1.307730310351471647e-07
1.400615686954176976e-07
1.455541109435813720e-07
1.459322358646949522e-07
1.392524185593207791e-07
1.254070411938271274e-07
1.067500109337270833e-07
8.743156278322645595e-08
7.250114726280867337e-08
6.271258501694484501e-08
5.186970074676841081e-08
3.674244569263701773e-08
2.733453442739666201e-08
2.137307011177351284e-08
1.442544708597047621e-08
1.061735146420295622e-08
7.527931086969401494e-09
5.247557370145396940e-09
3.684249595881653688e-09
2.609164005588548589e-09
1.874895275808190150e-09
1.369751260083733404e-09
1.020742505426565901e-09
7.740988535812351283e-10
5.953628646700609625e-10
4.616845670350918534e-10
3.583737993667343000e-10
2.764700866026686860e-10
2.106397379986127920e-10
