# bin_16_6
2.291623452226465103e-29
2.554250817375178209e-29
2.791374066412534858e-29
2.976064497866061122e-29
3.074733960900705369e-29
3.061704817012165840e-29
2.894023863200244613e-29
2.583214925626934486e-29
2.179133699235598296e-29
1.781643673885442334e-29
1.488172973082893579e-29
1.289130124403531108e-29
1.043753732763316838e-29
7.271494786788819277e-30
5.589748543451104620e-30
4.214906804613246412e-30
2.929743858274624468e-30
2.083514876854725427e-30
1.503237644399536910e-30
1.054632935930090793e-30
7.423996829164656888e-31
5.300594066134427488e-31
3.840659888341579870e-31
2.832475929361332963e-31
2.129558348920630356e-31
1.627213389454251525e-31
1.258347567706761862e-31
9.784447614860122480e-32
7.594252106050321869e-32
5.843108424984651024e-32
4.430824147101807837e-32
