# bin_2_2
3.005025029583099596e-05
3.019967381957063243e-05
2.897113031085999377e-05
2.626410625128824589e-05
2.252740310475495191e-05
1.851949026710081539e-05
1.528298609624706384e-05
1.311425725511512237e-05
1.096685298853859364e-05
8.026234996488913152e-06
5.863878816676099272e-06
4.667185741312405041e-06
3.249448763927028575e-06
2.460728529633799229e-06
1.785471668569715659e-06
1.315628596933327312e-06
9.866303072105543281e-07
7.525693876092566325e-07
5.847126406728618973e-07
4.613885780474435934e-07
3.680652968691892867e-07
2.946092123047028603e-07
2.348541725494525994e-07
1.851545585076242288e-07
1.434429908550894610e-07
1.086327309637369522e-07
8.012393848763355580e-08
5.745672543242279803e-08
4.008042026689081770e-08
2.725945528802311029e-08
1.813478034573707034e-08
