# bin_3_6
-2.191205655665995776e-15
-2.313834145495735590e-15
-2.364313814767742447e-15
-2.321530827510791940e-15
-2.157691984415720112e-15
-1.896268756581366913e-15
-1.579436121707727460e-15
-1.292079604264306699e-15
-1.092678565362554063e-15
-9.406310380630018170e-16
-7.305527217118834950e-16
-5.105066313354730807e-16
-4.085956930940340635e-16
-2.922550802688297335e-16
-2.169470245910484160e-16
-1.535206115707249016e-16
-1.128236477033015211e-16
-8.276362987689433610e-17
-6.144950792663942894e-17
-4.644149439112748928e-17
-3.571457177615616759e-17
-2.790838964814221378e-17
-2.204111107467236975e-17
-1.747271164382376518e-17
-1.380477680451102435e-17
-1.079516851440853377e-17
-8.303806130632848932e-18
-6.250767577280519349e-18
-4.587064713779697196e-18
-3.274524113911221606e-18
-2.274221728851028530e-18
