# bin_9_7
-2.996067788876206330e-10
-3.247439908061484573e-10
-3.428349801835331276e-10
-3.501049733959457744e-10
-3.433683917390744852e-10
-3.186135223393654799e-10
-2.795377979279264417e-10
-2.325222051511576040e-10
-1.903031915085571983e-10
-1.612704320439991519e-10
-1.387402788442190818e-10
-1.070393430392910418e-10
-7.468298527938602132e-11
-5.999085995565338354e-11
-4.233829302575818722e-11
-3.150284545611782842e-11
-2.202244984697330983e-11
-1.599683638468642376e-11
-1.158656558572762564e-11
-8.469127103121824287e-12
-6.288332058420890181e-12
-4.748810500088540358e-12
-3.650356006708154788e-12
-2.844700777256936279e-12
-2.233993605971171590e-12
-1.756167435812224306e-12
-1.372137532520313178e-12
-1.058709221007393050e-12
-8.022623248635659745e-13
-5.944543563602316585e-13
-4.293669235750789658e-13
