# bin_16_7
-8.523959228154653403e-10
-9.248881359865490169e-10
-9.777008031625076180e-10
-1.000003655882976537e-09
-9.828776368853833944e-10
-9.144051152337503875e-10
-8.042642681274903284e-10
-6.702876121325484142e-10
-5.484253857023165148e-10
-4.637885921091784544e-10
-3.995211627796473176e-10
-3.104535664125600544e-10
-2.164303338012931173e-10
-1.729680838030441381e-10
-1.232596096122944406e-10
-9.099061891108311439e-11
-6.375632692610707771e-11
-4.637405652653633170e-11
-3.352492731343435853e-11
-2.445514214428234421e-11
-1.812545078150562499e-11
-1.366370071794103538e-11
-1.048541998780173872e-11
-8.160670866395797628e-12
-6.403652322458814130e-12
-5.032800785454690288e-12
-3.933517534407793466e-12
-3.037468293914355300e-12
-2.304562539031621312e-12
-1.710345764250143585e-12
-1.237649756081180376e-12
