# bin_20_10
-5.649114542927775696e-10
-6.244716750602936413e-10
-6.755703072710322184e-10
-7.112460650321350842e-10
-7.238008296005788825e-10
-7.061740716653251808e-10
-6.510549482376754371e-10
-5.676205309935974959e-10
-4.700049853252489752e-10
-3.852161025676082093e-10
-3.284043217035233452e-10
-2.813837741063682239e-10
-2.126699403289498692e-10
-1.487822231868094608e-10
-1.207098759629158343e-10
-8.247668553261916816e-11
-6.227726194636639737e-11
-4.296270974113749792e-11
-3.056777391640885466e-11
-2.186703248823037725e-11
-1.573231812340422308e-11
-1.145418394364082107e-11
-8.472347908387087095e-12
-6.388020014995487267e-12
-4.896685161114425060e-12
-3.798233827000824542e-12
-2.963650502260548990e-12
-2.309322785970261221e-12
-1.784790201833445046e-12
-1.359894344740227340e-12
-1.016676216378699673e-12
