# bin_19_4
-1.866135711640805851e-09
-1.956546951165227916e-09
-1.982975140177241203e-09
-1.924534499517526186e-09
-1.765960255279421372e-09
-1.532777415503630692e-09
-1.267497500737767813e-09
-1.041125668722407392e-09
-8.881082522749931920e-10
-7.545554565113624250e-10
-5.672274646452337052e-10
-4.041626478121437742e-10
-3.243126312386935795e-10
-2.265850261056386423e-10
-1.706877101163382909e-10
-1.216565388516794031e-10
-8.892367520730106147e-11
-6.561474417462977484e-11
-4.907649712466128883e-11
-3.736215415554550149e-11
-2.893292722582437555e-11
-2.273543287458158700e-11
-1.801668902045394489e-11
-1.429660482499179509e-11
-1.127964182857601612e-11
-8.788595821262769665e-12
-6.722968537801717705e-12
-5.025211860235891165e-12
-3.658196677904065939e-12
-2.590227229131654446e-12
-1.785301970243608086e-12
