# bin_14_7
-7.401805559011483572e-10
-8.030589183206663607e-10
-8.488219474132148070e-10
-8.680716382857820703e-10
-8.530528719816852074e-10
-7.934530626734335417e-10
-6.977372694347358404e-10
-5.814134667177214914e-10
-4.757201362122400831e-10
-4.023729044681657687e-10
-3.465786485499468444e-10
-2.691553154063064585e-10
-1.876515235691871152e-10
-1.500317722412564924e-10
-1.068299056718847012e-10
-7.891343437835965689e-11
-5.528312126428199618e-11
-4.020666408267883736e-11
-2.907091588065940408e-11
-2.120963804039843942e-11
-1.572229623728595370e-11
-1.185383778723171625e-11
-9.097813377336720521e-12
-7.081471727375530546e-12
-5.557172864718283403e-12
-4.367615886823684501e-12
-3.413534701088717697e-12
-2.635760724681206777e-12
-1.999578300408659207e-12
-1.483804442093968398e-12
-1.073554997165881376e-12
