# bin_6_7
-8.898034561663006726e-12
-9.591948632602761354e-12
-1.005709906435212272e-11
-1.018950612178439762e-11
-9.880249754670424396e-12
-9.048878086051434907e-12
-7.838376220113045426e-12
-6.466596645230573944e-12
-5.309982262667759793e-12
-4.544292020123415440e-12
-3.865516044556033597e-12
-2.876354159015126386e-12
-2.040167851917590200e-12
-1.656434850002496500e-12
-1.127603985989965072e-12
-8.602810112280447402e-13
-6.052623271186918898e-13
-4.352109982473007044e-13
-3.175386409047953577e-13
-2.340951459947317573e-13
-1.752944206621599385e-13
-1.335417678159763094e-13
-1.034653348943243702e-13
-8.109837161997016464e-14
-6.389449868632681340e-14
-5.025196203723621066e-14
-3.917630980440708683e-14
-3.009001766543287344e-14
-2.265162684214208613e-14
-1.664564688090371746e-14
-1.191093876863436469e-14
