# bin_13_13
-2.553242344034684056e-11
-2.850429532231181058e-11
-3.121277656264024694e-11
-3.336124763497222500e-11
-3.457781171542671671e-11
-3.456085268912191502e-11
-3.283589088024400222e-11
-2.945217198155390389e-11
-2.496770878744381286e-11
-2.043680992265117743e-11
-1.700985438214172753e-11
-1.472846623042585850e-11
-1.206190847857999788e-11
-8.474464278753296754e-12
-6.406656818198762142e-12
-4.924798971362875125e-12
-3.369993852716117075e-12
-2.440732566113165817e-12
-1.745909032490156416e-12
-1.220907472332371253e-12
-8.581432708355515210e-13
-6.101287587471753041e-13
-4.402229270746395457e-13
-3.231529511705230474e-13
-2.418537511681950777e-13
-1.841087216120654955e-13
-1.419920199940572381e-13
-1.102632610407981584e-13
-8.559047996163506252e-14
-6.594578910791224019e-14
-5.012777683975593235e-14
