# bin_14_15
-5.142079460153425048e-12
-5.770197172513386607e-12
-6.358368139248801817e-12
-6.849357682252226129e-12
-7.170316993256506154e-12
-7.248934408052318523e-12
-7.001071448096819579e-12
-6.381528541284058614e-12
-5.500289453302316918e-12
-4.525808833908794375e-12
-3.726267473056780874e-12
-3.205211436206920664e-12
-2.709809641674405265e-12
-1.978240554975750862e-12
-1.414177835384108649e-12
-1.143738401762684946e-12
-7.581296710882829124e-13
-5.742174249120570075e-13
-3.976356308690070544e-13
-2.755991580246204570e-13
-1.935524860152978052e-13
-1.361578135715314738e-13
-9.682196109994013632e-14
-6.986445965885451100e-14
-5.141587969966566540e-14
-3.855964005953334809e-14
-2.939725947580765951e-14
-2.267677136597489091e-14
-1.757718463722056667e-14
-1.359057330335084888e-14
-1.040986516471347602e-14
