# bin_5_19
-1.256708985692053661e-56
-1.407677762669913172e-56
-1.547753134488960168e-56
-1.662726888353119535e-56
-1.734640153522082819e-56
-1.746835730385124969e-56
-1.677376718407323254e-56
-1.519921811732294380e-56
-1.302092215197151565e-56
-1.068760964980454026e-56
-8.829086694507596200e-57
-7.620415127878337001e-57
-6.378491454039704144e-57
-4.582493107028505199e-57
-3.339913725032095644e-57
-2.663709920037955215e-57
-1.774965767601735088e-57
-1.330248006473240967e-57
-9.317431715974563637e-58
-6.472615599342373215e-58
-4.544221464681833929e-58
-3.204610042860109855e-58
-2.290330673343987213e-58
-1.663059732337517408e-58
-1.231625868009871142e-58
-9.289780354865597282e-59
-7.115175312206870129e-59
-5.504425603472591957e-59
-4.270672036619535833e-59
-3.299012631193387231e-59
-2.520554710154944698e-59
