# bin_1_6
-1.040300429291850172e-22
-1.083773983632562296e-22
-1.090405300593328007e-22
-1.046950222282409283e-22
-9.492809808995727744e-23
-8.141040612196181120e-23
-6.686893183099734491e-23
-5.516577725738781849e-23
-4.745033161080991930e-23
-3.976529014462044382e-23
-2.892007983252070169e-23
-2.109059515791673349e-23
-1.689464215183471252e-23
-1.157965827487502188e-23
-8.808028101480455893e-24
-6.348139617425526702e-24
-4.619589024837622005e-24
-3.425408796105310925e-24
-2.578702778483360126e-24
-1.977199194376384352e-24
-1.541525424913146267e-24
-1.217732031489366419e-24
-9.680293413374741135e-25
-7.688067275280803154e-25
-6.057140601341006947e-25
-4.702814252518287543e-25
-3.578147998470068124e-25
-2.656173602533213645e-25
-1.918348650854418156e-25
-1.347334355073427462e-25
-9.215741881478644160e-26
