# bin_10_5
-8.992382830401570456e-10
-9.559658843038968361e-10
-9.849138798209346085e-10
-9.775127017726407122e-10
-9.210472448905803103e-10
-8.200537641760069248e-10
-6.908770164627075473e-10
-5.653510282672405139e-10
-4.729463492291018732e-10
-4.082759672582680333e-10
-3.283645454984279895e-10
-2.312442141586160027e-10
-1.784911482720057421e-10
-1.344127046461862192e-10
-9.562606101094595618e-11
-6.941791572490021718e-11
-5.078835180277571279e-11
-3.689219691378833147e-11
-2.715665204815545931e-11
-2.034177576375492161e-11
-1.551443524236662823e-11
-1.203353721462767539e-11
-9.454181922276111924e-12
-7.474825498365015920e-12
-5.905843563694271739e-12
-4.630506603130643836e-12
-3.579497637744433986e-12
-2.713313296760611445e-12
-2.008169421217069188e-12
-1.446998761900295153e-12
-1.014384872664384810e-12
