# bin_16_10
-4.095798362551166969e-10
-4.527019629522191788e-10
-4.896638241878219848e-10
-5.154149747579259199e-10
-5.243880902065452999e-10
-5.114404924943921453e-10
-4.713342682652049329e-10
-4.107723055766379962e-10
-3.400474443078272282e-10
-2.787324393757392411e-10
-2.376958589673688472e-10
-2.035894541831836442e-10
-1.537019271226859848e-10
-1.075876667513400898e-10
-8.731203274965386275e-11
-5.959068055005360337e-11
-4.502902370550556596e-11
-3.107447505214376685e-11
-2.210045600945131220e-11
-1.581331806603456902e-11
-1.137992882805122743e-11
-8.287707449960889236e-12
-6.132180539562429996e-12
-4.625057647242954048e-12
-3.546257884229097101e-12
-2.751273194655928646e-12
-2.146943781187753548e-12
-1.672923763284343982e-12
-1.292816465980375469e-12
-9.848718784280445610e-13
-7.361302892276910883e-13
