# bin_7_20
-3.645374492879973037e-47
-4.097256796157391839e-47
-4.523722409589814481e-47
-4.884805244139318078e-47
-5.129245507239855885e-47
-5.203066642687452586e-47
-5.050866425101621147e-47
-4.628664081012219482e-47
-4.011272030161696834e-47
-3.308969808578227902e-47
-2.717391796875621376e-47
-2.329354336916939035e-47
-1.984885785679274720e-47
-1.470793000519644505e-47
-1.035884662343650372e-47
-8.440746413947358793e-48
-5.603707585030422535e-48
-4.261060327997005162e-48
-2.921355775494320842e-48
-2.024212208788418328e-48
-1.421721953065533090e-48
-9.988438505694146309e-49
-7.071887748107923913e-49
-5.074188332890470718e-49
-3.712612961862535142e-49
-2.769178646254330511e-49
-2.101633820931685602e-49
-1.616319222576484142e-49
-1.251291157849210438e-49
-9.680097501675830481e-50
-7.430014916947433325e-50
