# bin_3_18
-2.003716676493888335e-68
-2.236128572388394417e-68
-2.447511546638134921e-68
-2.614517590024185847e-68
-2.707882138597228889e-68
-2.704299618658474385e-68
-2.566239011403326086e-68
-2.299154447675579500e-68
-1.946708434147047697e-68
-1.592956525543199671e-68
-1.327032160278098005e-68
-1.149432545866382906e-68
-9.389381498194396185e-69
-6.579217742364630036e-69
-4.995659800173105544e-69
-3.823072824900508739e-69
-2.624780317737546177e-69
-1.892413134729850990e-69
-1.357602033148277105e-69
-9.501299161361911110e-70
-6.678651882326047261e-70
-4.753434837027445344e-70
-3.433610591268931109e-70
-2.523672866849246211e-70
-1.891044152647179201e-70
-1.441039037618271935e-70
-1.112250987611289657e-70
-8.640766274174387064e-71
-6.707639205356308454e-71
-5.166604172336864278e-71
-3.925074676503454643e-71
