# bin_5_17
-1.865575335873816562e-47
-2.080114843754708693e-47
-2.274268902362951455e-47
-2.426149911882407014e-47
-2.508405522883900339e-47
-2.499909515360983810e-47
-2.365608899319661822e-47
-2.113841537674148007e-47
-1.785112269977763880e-47
-1.460113273695513925e-47
-1.219089797236433780e-47
-1.056158285356797695e-47
-8.570258356497984000e-48
-5.979081330392882619e-48
-4.584262842835511562e-48
-3.468870097007122397e-48
-2.404590674900001475e-48
-1.715444056470881900e-48
-1.236376775980307607e-48
-8.670088865060446363e-49
-6.101086977722330002e-49
-4.353114537610822951e-49
-3.152041875260758989e-49
-2.322950691510541166e-49
-1.745027699394206803e-49
-1.332578292270889120e-49
-1.030062160977044356e-49
-8.007702572436701584e-50
-6.215441731682247439e-50
-4.783416793185559186e-50
-3.628758074796607647e-50
