# bin_5_18
-5.149770156133454627e-52
-5.755637946194284728e-52
-6.311207335847031296e-52
-6.757181597439103701e-52
-7.018992445842461963e-52
-7.033542730264069056e-52
-6.706157322342316703e-52
-6.034972758074873121e-52
-5.133217273887909550e-52
-4.204386173019211341e-52
-3.489950654390862210e-52
-3.020313060355419829e-52
-2.493024960971165234e-52
-1.762212230611987238e-52
-1.316327234864046949e-52
-1.025469165576128198e-52
-6.941602057012286726e-53
-5.091538831688655307e-53
-3.618932761583499842e-53
-2.524731245681731767e-53
-1.772908087752652953e-53
-1.256746111332118961e-53
-9.039964800719260045e-54
-6.613193794231784778e-54
-4.933287261420319045e-54
-3.744963271745175153e-54
-2.882457548891838315e-54
-2.236144453775541459e-54
-1.735867971778212268e-54
-1.338795352737064625e-54
-1.019470780939751059e-54
