# bin_16_17
-4.704670656473590152e-12
-5.305939973492082351e-12
-5.882150414130825522e-12
-6.383642363293887603e-12
-6.745287138138227794e-12
-6.891190280369634465e-12
-6.760037004131653085e-12
-6.269332263492829183e-12
-5.497248546231072100e-12
-4.567185256065779787e-12
-3.738129418054178147e-12
-3.175730639775549837e-12
-2.737357805928348422e-12
-2.097931455984913211e-12
-1.451830508184367693e-12
-1.174786696295250694e-12
-8.071177959314557533e-13
-6.020596007973169213e-13
-4.060447165071533381e-13
-2.855579935864283660e-13
-1.993995532197173885e-13
-1.391850683032711909e-13
-9.763516356013421447e-14
-6.921889841882737423e-14
-4.997361787778819740e-14
-3.679259845333244293e-14
-2.760509095994908898e-14
-2.105326853526612863e-14
-1.622561093475291261e-14
-1.254788262118863688e-14
-9.664429156130818001e-15
