# bin_4_7
-3.350870119516688130e-15
-3.583255435117589781e-15
-3.718863078019079631e-15
-3.724308610289252634e-15
-3.550868894005852100e-15
-3.196833114148619258e-15
-2.721323815828202104e-15
-2.229862226449809891e-15
-1.848939967561278745e-15
-1.596124928992627079e-15
-1.319076256746488556e-15
-9.412065112223005308e-16
-7.019568213450847101e-16
-5.508837641641199304e-16
-3.790621160299632782e-16
-2.828562194606147935e-16
-2.047928385820633978e-16
-1.476220146864719197e-16
-1.080606376628118641e-16
-8.033825435626452503e-17
-6.083480447706178085e-17
-4.687200574156031283e-17
-3.664632386665897936e-17
-2.889605752650798189e-17
-2.282219296230222680e-17
-1.792829675950276793e-17
-1.391385493715147016e-17
-1.060735719297628732e-17
-7.906461866170684525e-18
-5.742036483747548520e-18
-4.057347110684365780e-18
