# bin_4_2
-1.072608390699019052e-09
-1.072493757368362191e-09
-1.022180504172297184e-09
-9.211532092673052284e-10
-7.859120316624590897e-10
-6.459021363887658462e-10
-5.356865224012132376e-10
-4.596639640907971663e-10
-3.790219657992256467e-10
-2.756989415619728253e-10
-2.049270111587870349e-10
-1.599486558013602795e-10
-1.130537295094154715e-10
-8.461179629660487483e-11
-6.178166998264224818e-11
-4.569120739433142664e-11
-3.435110665767827850e-11
-2.628614428402422237e-11
-2.048419554427953246e-11
-1.620395056166349599e-11
-1.294282379004983891e-11
-1.036139343691366516e-11
-8.252034889325409415e-12
-6.492967419353691470e-12
-5.016197283865206851e-12
-3.786021121158482258e-12
-2.782354836334532526e-12
-1.988210233192512499e-12
-1.382573302743994292e-12
-9.378181562080867043e-13
-6.225464382291084870e-13
