# bin_18_16
-7.704768097764538628e-11
-8.683044158497450514e-11
-9.617537991746491983e-11
-1.042622756605031232e-10
-1.100209428377944508e-10
-1.122282550072286060e-10
-1.098483216041862459e-10
-1.016127390040151441e-10
-8.887745875383675702e-11
-7.372176084388950572e-11
-6.037543717922718642e-11
-5.139423675331439747e-11
-4.420578720767692715e-11
-3.363736990391607015e-11
-2.334665454910806492e-11
-1.893962837089913339e-11
-1.289891640511143019e-11
-9.675241440401041054e-12
-6.543893091333606983e-12
-4.583225173108299424e-12
-3.205874698193466863e-12
-2.241927305254300503e-12
-1.575756912913137717e-12
-1.119972583468584431e-12
-8.109238873016551395e-13
-5.987480598733971590e-13
-4.503902826860635189e-13
-3.441568610149406197e-13
-2.655270298746805444e-13
-2.053764327653916400e-13
-1.580733448100669058e-13
