# bin_5_7
-3.720088244178279477e-13
-3.995888247651053892e-13
-4.170779463782644129e-13
-4.204207653971698797e-13
-4.046085214335041464e-13
-3.676534570035149177e-13
-3.159391965406260765e-13
-2.596954203127154041e-13
-2.140529106957077923e-13
-1.840633809693371570e-13
-1.547900068881674630e-13
-1.128315813312951847e-13
-8.167026536168560975e-14
-6.567904739060238706e-14
-4.458297627240938947e-14
-3.389489485687705779e-14
-2.414776309706858221e-14
-1.734538421709540889e-14
-1.267664988072772086e-14
-9.377757439782126110e-15
-7.057811939779179535e-15
-5.405063811316606896e-15
-4.205921204845615283e-15
-3.306445756416233987e-15
-2.608581652929034602e-15
-2.050981954708009538e-15
-1.595963781989047014e-15
-1.221856024938850091e-15
-9.157889135590923432e-16
-6.694168953570380573e-16
-4.762625413707967994e-16
