# bin_16_16
-1.891522149482640402e-11
-2.129757601817333570e-11
-2.356415890612001269e-11
-2.551152059568586200e-11
-2.687584159833057063e-11
-2.736274856261616343e-11
-2.670848404081573896e-11
-2.462646686322025337e-11
-2.147253000852108919e-11
-1.777443894505164941e-11
-1.456754808779895124e-11
-1.243186868231761094e-11
-1.066457861302421742e-11
-8.040656786251127270e-12
-5.601653372264169590e-12
-4.559331441563397676e-12
-3.070339557222436000e-12
-2.319840937958292466e-12
-1.574319058715537186e-12
-1.096947024436069602e-12
-7.689802567228925196e-13
-5.390615835295672241e-13
-3.798361696918483582e-13
-2.708366396166055062e-13
-1.968179377524336563e-13
-1.458439422332268121e-13
-1.100587912212768187e-13
-8.430091198497080293e-14
-6.512832576913790692e-14
-5.038554259455490477e-14
-3.874820989883735411e-14
