# bin_16_12
-2.276821940992809789e-10
-2.537199062171740609e-10
-2.772074704682337202e-10
-2.954638385328018044e-10
-3.051563814399138891e-10
-3.037096325337163940e-10
-2.869121904359617471e-10
-2.559835146801893546e-10
-2.158906866584275076e-10
-1.765881194719981635e-10
-1.476396139150382795e-10
-1.278584597567729188e-10
-1.032802998321559512e-10
-7.201772457543542298e-11
-5.547932969484803750e-11
-4.167814884336267148e-11
-2.909304691492651711e-11
-2.066043220859546346e-11
-1.488507442243326405e-11
-1.045200425069317283e-11
-7.367867228228037000e-12
-5.264130818283976596e-12
-3.816638575254655475e-12
-2.816872612319913517e-12
-2.118890388446595820e-12
-1.619794892389748037e-12
-1.252907971510418833e-12
-9.741990396621712389e-13
-7.559636287606997271e-13
-5.814171058341714049e-13
-4.406546467092941775e-13
