# bin_9_9
-4.294025693935614734e-11
-4.708879644139730610e-11
-5.043925057733277888e-11
-5.244117827831769655e-11
-5.261406683835363947e-11
-5.027302385081248885e-11
-4.534529435010580463e-11
-3.866763102022613296e-11
-3.169598879260755375e-11
-2.625593242638654067e-11
-2.267760641982012058e-11
-1.881112299497633790e-11
-1.342129769383230230e-11
-9.943690415911414669e-12
-7.833136024212703801e-12
-5.321834327491313541e-12
-3.965662875433425607e-12
-2.836235711095604020e-12
-2.012201460609476170e-12
-1.445924023433431257e-12
-1.051563136279331638e-12
-7.779650006551146329e-13
-5.858895788356815325e-13
-4.490905584378129767e-13
-3.487763114449621238e-13
-2.728496550843163680e-13
-2.135531698111118441e-13
-1.660310136569399747e-13
-1.274282812219762635e-13
-9.604168625808291293e-14
-7.079285225356988251e-14
