# bin_19_18
-3.648212674534241205e-11
-4.127586396801787796e-11
-4.593469507558239991e-11
-5.008714611150147029e-11
-5.323691509631513787e-11
-5.477447930107308537e-11
-5.424842978095349915e-11
-5.090567500720861366e-11
-4.513038260815047360e-11
-3.783072739663589523e-11
-3.093229916046938681e-11
-2.602342366687531964e-11
-2.253891239576567810e-11
-1.786425375730326334e-11
-1.233765684238231194e-11
-9.723264604929082574e-12
-7.044928875814192210e-12
-5.024704290589140972e-12
-3.435499615472290799e-12
-2.455163826921022362e-12
-1.696443034493557059e-12
-1.168262285917665102e-12
-8.117702644744754102e-13
-5.690911332352109511e-13
-4.052182937476449673e-13
-2.941330970876345921e-13
-2.177598255357867013e-13
-1.642875848151387132e-13
-1.257242733787064735e-13
-9.696668918442546752e-14
-7.480568878998595230e-14
