# bin_6_5
-2.689122040036032095e-10
-2.851666582279417466e-10
-2.928956588396061632e-10
-2.895634358030317776e-10
-2.714489131348068293e-10
-2.405117735429273242e-10
-2.017213003572856244e-10
-1.649974511833057385e-10
-1.385747608926139602e-10
-1.195836490795786478e-10
-9.499454588136538201e-11
-6.656353897379040258e-11
-5.214022251018626676e-11
-3.854244664099697157e-11
-2.783452503448225217e-11
-1.998063425009406381e-11
-1.467434033432725308e-11
-1.069614797020092372e-11
-7.894944357804779436e-12
-5.933412541435121235e-12
-4.539656676014617966e-12
-3.531308492248319801e-12
-2.780150109373435491e-12
-2.200546032583318899e-12
-1.738836264408750720e-12
-1.362139140773142977e-12
-1.051112796995086844e-12
-7.947401842413702541e-13
-5.863531043146059758e-13
-4.210237747465459488e-13
-2.941055946822471177e-13
