# bin_10_12
-5.360575562705968607e-13
-5.947377896798952442e-13
-6.462898573943045983e-13
-6.842245446138357444e-13
-7.007982432368879093e-13
-6.900429924201627395e-13
-6.430205490957160316e-13
-5.664042741738303753e-13
-4.722668909197837528e-13
-3.861891958369686907e-13
-3.265145238448446233e-13
-2.820443372347044948e-13
-2.195966504587687647e-13
-1.519454946234453963e-13
-1.217721630568520980e-13
-8.620002363732414925e-14
-6.344437653436797799e-14
-4.354256510004454731e-14
-3.138380414102516669e-14
-2.228882049522356384e-14
-1.590162039463611716e-14
-1.148967915735733758e-14
-8.425483885994958591e-15
-6.296884048739012881e-15
-4.790585911874441936e-15
-3.695466364202363746e-15
-2.875097752692294044e-15
-2.240035402636283658e-15
-1.735406634447451792e-15
-1.328280052666542491e-15
-9.992836756794526700e-16
