# bin_9_18
-2.287894359886183491e-29
-2.566734546863689015e-29
-2.827522467912406177e-29
-3.044733316041424175e-29
-3.185919292127256630e-29
-3.219169747061908094e-29
-3.106604090220984394e-29
-2.829260250293117987e-29
-2.436421273989114937e-29
-2.003901572411825967e-29
-1.650550128952106673e-29
-1.420585678057710745e-29
-1.199545392119208750e-29
-8.734857087776319437e-30
-6.259452478564817096e-30
-5.057135716668753997e-30
-3.350464320547898008e-30
-2.536599266214272977e-30
-1.759405313827056400e-30
-1.219458690742650077e-30
-8.563770337829741756e-31
-6.024973530725487348e-31
-4.287246715079101749e-31
-3.096314612829505178e-31
-2.280762331337626746e-31
-1.711916899716263063e-31
-1.306055226150776836e-31
-1.007949086402772018e-31
-7.814326327680478824e-32
-6.041522459889042045e-32
-4.626111054579889432e-32
