# bin_12_2
-2.562613496522061608e-09
-2.569756975012709519e-09
-2.458926040713518599e-09
-2.224945050835078045e-09
-1.905746351689200041e-09
-1.568530720498398924e-09
-1.297992040277616052e-09
-1.112193104769455602e-09
-9.233573556925104480e-10
-6.770986035504933195e-10
-4.987112435304427020e-10
-3.915778314389445310e-10
-2.765487874427060251e-10
-2.072706841315534921e-10
-1.508570807934319578e-10
-1.115029138870636010e-10
-8.367637878338945625e-11
-6.388747708266597089e-11
-4.967994570838937655e-11
-3.922943037632734195e-11
-3.129904363207170677e-11
-2.504691799283589345e-11
-1.995501854918093276e-11
-1.571769075749575387e-11
-1.216292463166638980e-11
-9.199741426625012217e-12
-6.777365885413603187e-12
-4.855161408422315923e-12
-3.384221799503797173e-12
-2.300384748126849759e-12
-1.529746125917286152e-12
