# bin_14_8
-5.641319592541606471e-10
-6.165155344925922339e-10
-6.575705345727453316e-10
-6.799765388488973790e-10
-6.778543072911337925e-10
-6.420479059547978770e-10
-5.743430579171258070e-10
-4.857685718641740446e-10
-3.975382811932160408e-10
-3.314503090179704671e-10
-2.866585811532893859e-10
-2.332253782701338069e-10
-1.640683519304054052e-10
-1.250882037460675735e-10
-9.549837766869047421e-11
-6.652147632393207600e-11
-4.829981592787666936e-11
-3.498333667948366743e-11
-2.496017462161367777e-11
-1.798954187960057054e-11
-1.316459653228895671e-11
-9.801429087650706055e-12
-7.429788173721086832e-12
-5.726228683887504736e-12
-4.464560928971880822e-12
-3.499737194702379311e-12
-2.739087704444511386e-12
-2.125517828412281152e-12
-1.625572366464809820e-12
-1.219215698700826889e-12
-8.933339214244836659e-13
