# bin_3_12
-6.059560793843174396e-38
-6.628701285696884058e-38
-7.078653156324465323e-38
-7.330718198602262548e-38
-7.321548113840670272e-38
-6.950809300998037534e-38
-6.230675845928088251e-38
-5.279180561060137748e-38
-4.320017330997857994e-38
-3.595011466659448565e-38
-3.111092476597973321e-38
-2.546500421024854700e-38
-1.792441800461045528e-38
-1.358030789460659879e-38
-1.046681341350153024e-38
-7.224517233037223078e-39
-5.279843758430967516e-39
-3.822805274063221421e-39
-2.722600712543253716e-39
-1.958379792416718066e-39
-1.430563819495133067e-39
-1.063508061066400375e-39
-8.049755276448601667e-40
-6.196688732989311843e-40
-4.827652093083938822e-40
-3.783300615996614678e-40
-2.961684833511462112e-40
-2.299776308030433937e-40
-1.760674240537265025e-40
-1.322322640023254935e-40
-9.703948183478842709e-41
