# bin_16_8
-6.736535400399718452e-10
-7.362821763583617107e-10
-7.854127254710368831e-10
-8.123060827318244311e-10
-8.099280879471006589e-10
-7.673476600081816029e-10
-6.866020834124746269e-10
-5.808584958292481651e-10
-4.753787566240047332e-10
-3.962713053781031619e-10
-3.427089372962514780e-10
-2.789963937172118079e-10
-1.963475369867652063e-10
-1.495683507996326783e-10
-1.142990242225669551e-10
-7.955505149108773396e-11
-5.780800675522370364e-11
-4.185525598017678427e-11
-2.985795027378469818e-11
-2.151723251960317140e-11
-1.574314315398675418e-11
-1.171896930022250724e-11
-8.881591266136410217e-12
-6.844028528152003053e-12
-5.335455240641766913e-12
-4.182178194631967823e-12
-3.273212531246896045e-12
-2.540144981421487674e-12
-1.942884171011841456e-12
-1.457423416984881208e-12
-1.068066174127067298e-12
