# bin_7_16
2.018556097580275347e-07
2.192235252698030247e-07
2.320003350817389280e-07
2.376051049873574240e-07
2.339504131155704887e-07
2.181213267536340813e-07
1.922400985505237877e-07
1.604729933856446096e-07
1.312707047931602452e-07
1.108210921863161461e-07
9.555943714330968889e-08
7.468927122265176046e-08
5.204647232628055871e-08
4.141379565638660990e-08
2.974897717465099710e-08
2.181800482892604488e-08
1.532299131527984555e-08
1.115652243957713159e-08
8.053700297611682353e-09
5.866115481790021463e-09
4.342411179462210163e-09
3.269048103102841550e-09
2.505665551268643515e-09
1.948464838369751672e-09
1.528131608083947896e-09
1.200876465963083454e-09
9.388866276775131369e-10
7.255151443080407489e-10
5.510195989376844086e-10
4.094720643293976258e-10
2.967441321059480151e-10
