# bin_6_9
1.182170182234489771e-07
1.271580232794686314e-07
1.329541102236952497e-07
1.342825995175151741e-07
1.296145810822323690e-07
1.181673143190679966e-07
1.018892985881407704e-07
8.391081236385117741e-08
6.908014430183176022e-08
5.925600395061908360e-08
5.002025214081120862e-08
3.682166481222309187e-08
2.646906419647936473e-08
2.129068446127747081e-08
1.454475082160391994e-08
1.102556256403993435e-08
7.818713419681508699e-09
5.627918603340470995e-09
4.108863783303878171e-09
3.035275892153236727e-09
2.279918707505677357e-09
1.742079261165571575e-09
1.353216461095015858e-09
1.062490919974601711e-09
8.377047324361743834e-10
6.586760159447876793e-10
5.129051176593756336e-10
3.931734851310096019e-10
2.952078933284390410e-10
2.162644221875450235e-10
1.542430399087189383e-10
