# bin_1_3
3.253693795159250998e-07
3.124593731376683000e-07
2.840411479356774062e-07
2.445417822515787350e-07
2.019955973637546711e-07
1.669177025480806794e-07
1.423740116207068969e-07
1.187254940621401813e-07
8.852484656600432041e-08
6.478021144830723489e-08
5.074839242865974843e-08
3.638156729495728581e-08
2.717035823020068789e-08
1.988545095192886578e-08
1.482245542992910010e-08
1.120284455202354389e-08
8.622186608850327284e-09
6.759661915232940009e-09
5.377612544676002523e-09
4.317084505754832351e-09
3.470732096141250745e-09
2.773370054240199292e-09
2.187473940409589926e-09
1.692705971291748072e-09
1.278911585371077576e-09
9.405331939563376628e-10
6.726079523921926671e-10
4.681836986732799191e-10
3.179871394261753309e-10
2.114073697752680206e-10
1.380397942634137465e-10
