# bin_5_19
3.415613480597005386e-07
3.636217567306173083e-07
3.752839445813135991e-07
3.732638506149187468e-07
3.526963630078358129e-07
3.148674204840357316e-07
2.659353708676008635e-07
2.176894877499535261e-07
1.817208558767228747e-07
1.568729823117475832e-07
1.269994395892251709e-07
8.972994208596146771e-08
6.869370964949329280e-08
5.223905698894358341e-08
3.688246135489487070e-08
2.694080362023239418e-08
1.966325050040532270e-08
1.425944274252494600e-08
1.048372881206444679e-08
7.840218562401201339e-09
5.970174857443511474e-09
4.623749332191666728e-09
3.629108858181630347e-09
2.867756242593850456e-09
2.265775419676429562e-09
1.777413948255056278e-09
1.375327545748515911e-09
1.043958563567021361e-09
7.739650663378129614e-10
5.587391917535638443e-10
3.924425677723945595e-10
