# bin_3_4
1.027253123475195347e-07
1.052765458050099098e-07
1.037896274511938726e-07
9.703831643643616785e-08
8.578190899436723840e-08
7.187535281395867286e-08
5.884540712083192591e-08
4.947774231106435165e-08
4.255251895968110545e-08
3.363622506273609725e-08
2.375209794687100453e-08
1.858404106781523059e-08
1.374042389264336872e-08
9.989134063998946468e-09
7.249915584860574781e-09
5.350960381639869366e-09
3.950773162654094620e-09
2.962728798183188562e-09
2.263964175394419769e-09
1.760864839191057179e-09
1.389796410778965942e-09
1.106611793300374625e-09
8.823702422617105849e-10
6.994831869459463923e-10
5.475381006309047851e-10
4.206662078471680824e-10
3.156688393051960054e-10
2.306305026643386076e-10
1.638370998718432076e-10
1.132868355622804472e-10
7.643582127233399898e-11
