# bin_16_18
2.244449406684588241e-08
2.531489821680583778e-08
2.806561043665661757e-08
3.045969276369008393e-08
3.218647040137582524e-08
3.288447617827740475e-08
3.225987073541390075e-08
2.992087634451705301e-08
2.623773986782678814e-08
2.180194836467971776e-08
1.784546698128375349e-08
1.515847863510030700e-08
1.306334188025225472e-08
1.001590382032495354e-08
6.934576681261510767e-09
5.606090077679275276e-09
3.856975584090515052e-09
2.872715450451203635e-09
1.939947092919152403e-09
1.365007269477511431e-09
9.529925343541740381e-10
6.650253076276626730e-10
4.666437791088309068e-10
3.308364427557560153e-10
2.389211306777536986e-10
1.759511504550201404e-10
1.320342469016242735e-10
1.007095929400170218e-10
7.762141027648738050e-11
6.002747464749930330e-11
4.623118553593570582e-11
