# bin_14_19
5.832519107027277076e-08
6.547290583535764978e-08
7.217472361020283677e-08
7.778334289679814353e-08
8.147345222108041958e-08
8.241718501698401529e-08
7.967415180991427715e-08
7.270052799203434870e-08
6.272893740267975613e-08
5.164649198181579349e-08
4.250609005202479587e-08
3.653274690154874749e-08
3.092386007758974118e-08
2.264953550402649700e-08
1.615452617827558939e-08
1.306512455417209621e-08
8.680778086472986916e-09
6.569293275182915666e-09
4.540466122042888601e-09
3.149392255370100287e-09
2.211920878990699590e-09
1.556193682526653615e-09
1.106126073987984613e-09
7.973377808410464288e-10
5.863536438852960082e-10
4.393952469894789400e-10
3.347525733969414480e-10
2.581072219182396717e-10
2.000236866910735935e-10
1.546672379886296424e-10
1.185066713491772711e-10
