# bin_9_18
1.520388779911172283e-07
1.673469646307016835e-07
1.800750283275644210e-07
1.883095897251815285e-07
1.901765361838622726e-07
1.834668431354143075e-07
1.671007078434015626e-07
1.439227549300636087e-07
1.184240591136019457e-07
9.753866876707671384e-08
8.382876740905970333e-08
7.072521583199708547e-08
5.172040219430154786e-08
3.716536858127667152e-08
2.993583920935340025e-08
2.015612174370296208e-08
1.526945821877423026e-08
1.072471432084245004e-08
7.589685478443614809e-09
5.448590927367168800e-09
3.943422559742382710e-09
2.896695228581976048e-09
2.163914258975601517e-09
1.647218281456176210e-09
1.272426334826937303e-09
9.921275316937864357e-10
7.758265306857318470e-10
6.040322639840885044e-10
4.651885025886888801e-10
3.524066952272738570e-10
2.614641675903828715e-10
