# bin_9_12
7.076017817358283593e-08
7.784641204016972361e-08
8.371625433021657691e-08
8.747700532717992386e-08
8.826728430635390036e-08
8.504347654581041105e-08
7.735287170579388238e-08
6.653216462178535585e-08
5.471119030664066432e-08
4.509275618001505557e-08
3.878567363673780667e-08
3.265590580153267085e-08
2.379522353838860099e-08
1.716247096936097502e-08
1.379611651180545288e-08
9.287962076893460354e-09
7.028751174897045082e-09
4.948423864058400364e-09
3.501706867961198120e-09
2.514387001156531171e-09
1.820903109766286309e-09
1.338897128836309114e-09
1.001322184970897434e-09
7.630045207113479526e-10
5.898697420288801006e-10
4.601678979558232697e-10
3.599090392889441872e-10
2.801723959669658577e-10
2.156778461645242940e-10
1.632780783844274780e-10
1.210361316858453008e-10
