# bin_20_2
2.639190470309535667e-86
2.960648494364826968e-86
3.261066254477500226e-86
3.510964531190002777e-86
3.672887780032072730e-86
3.710188200714492721e-86
3.578944792932971353e-86
3.258028752615595322e-86
2.804432589093596308e-86
2.306166445437135396e-86
1.899963294202435916e-86
1.635636146642622459e-86
1.380104601951193772e-86
1.003843873029081067e-86
7.203927587227741036e-87
5.813885846053403802e-87
3.854004759542518317e-87
2.915493221948759029e-87
2.024006764938591415e-87
1.403355080299417021e-87
9.856922331194574228e-88
6.937852972891052345e-88
4.940726423627160272e-88
3.570375644084106495e-88
2.632403907607356826e-88
1.977397279412900978e-88
1.509526544777893913e-88
1.165499572222793288e-88
9.037739390009086751e-89
6.987339079221654309e-89
5.349315530388095694e-89
