# bin_14_17
3.845205534572220180e-08
4.315538585948010827e-08
4.756082354218275015e-08
5.124078976303928511e-08
5.365064825244577752e-08
5.424820826255458154e-08
5.240807372263508990e-08
4.778751214841441388e-08
4.120363744448727860e-08
3.391275495405658750e-08
2.792012275894793342e-08
2.400731760164736642e-08
2.030077081863904007e-08
1.483984677606711055e-08
1.060447191649109132e-08
8.568538529514056342e-09
5.691449244794970541e-09
4.305159131720654893e-09
2.979449888918181566e-09
2.066519738093883144e-09
1.451435874018658805e-09
1.021387392994711539e-09
7.264079099846652839e-10
5.240094721226731990e-10
3.856433102918816750e-10
2.891925216211252819e-10
2.204496868051953006e-10
1.700409136490313367e-10
1.317964143898716625e-10
1.019038963675985522e-10
7.805839427933251134e-11
