# bin_19_11
2.686641112814809280e-22
3.027365904018627800e-22
3.352519974892782677e-22
3.633429890626633586e-22
3.832744243802821111e-22
3.907893317473112470e-22
3.822644376586401193e-22
3.533220024291088712e-22
3.088073895080378429e-22
2.559840281385386114e-22
2.096534062575337394e-22
1.785942535982667833e-22
1.535698040013011449e-22
1.165696222532719524e-22
8.091744434284309972e-23
6.577729571003974493e-23
4.459447717329391295e-23
3.357600292230477044e-23
2.270500794737140704e-23
1.586823302008784923e-23
1.111389192776665937e-23
7.783712360622800826e-24
5.476775762490033188e-24
3.895998785778165668e-24
2.824874043900769497e-24
2.088628843798160883e-24
1.572987684914598655e-24
1.203149208837461633e-24
9.288685490091877130e-25
7.186405207083646948e-25
5.530671398402216332e-25
