# bin_11_3
6.421835940998119311e-31
6.999802908879963157e-31
7.441292084236383250e-31
7.662202608317691263e-31
7.599249324680875785e-31
7.147609937096271821e-31
6.351477340844219289e-31
5.336541590140971819e-31
4.362213057226777837e-31
3.656980142277072769e-31
3.165056142187119730e-31
2.532608623155385994e-31
1.762218254312597172e-31
1.376451476776227976e-31
1.022328861120950162e-31
7.288174110273384469e-32
5.169901578959257013e-32
3.783741343488543043e-32
2.713603179390928858e-32
1.962179306993014296e-32
1.444072820449972366e-32
1.080991359338765356e-32
8.239428722754958496e-33
6.379746868608507172e-33
4.990159447601878859e-33
3.918271240827899676e-33
3.066639786821220608e-33
2.376049625442110774e-33
1.811954476445560065e-33
1.353573884686852014e-33
9.868865202736954721e-34
