# bin_8_18
1.843069567485806764e-07
2.016371153773374164e-07
2.153451417428313865e-07
2.230467748517236299e-07
2.227829714795619351e-07
2.115727510098701388e-07
1.897365225290476336e-07
1.608734710197069381e-07
1.317166097413622505e-07
1.096019861976693987e-07
9.475550721392279306e-08
7.755261899039939836e-08
5.478754070690233730e-08
4.141033036225080310e-08
3.191922638098212727e-08
2.206632437092577743e-08
1.614570918540751266e-08
1.165263356931803063e-08
8.300465776788456174e-09
5.977139362458745508e-09
4.366502856231340819e-09
3.245308526296491231e-09
2.455417159572249551e-09
1.889745052284631997e-09
1.471838757486527765e-09
1.153179159294195863e-09
9.026291305919137644e-10
7.008736186235634746e-10
5.366064684589787135e-10
4.030639526335141167e-10
2.958615581034701950e-10
