# bin_7_10
9.805869497208807750e-08
1.064304237870515465e-07
1.125471211981943119e-07
1.151599455028286609e-07
1.132478226458340867e-07
1.054242622059471167e-07
9.278039407556887902e-08
7.735820910147048467e-08
6.328794494961636569e-08
5.349432608887812206e-08
4.609809303214314684e-08
3.588155943180806426e-08
2.500607616929132692e-08
1.996439833201814869e-08
1.425767493020672017e-08
1.050759985637472813e-08
7.365380238012780355e-09
5.359986775269846191e-09
3.873698984444031954e-09
2.824827556546270247e-09
2.093324383456842824e-09
1.577524453564765165e-09
1.210364741529416800e-09
9.419374008001313460e-10
7.390959675099840063e-10
5.809088687429167119e-10
4.540978258374909462e-10
3.507388897324772151e-10
2.661925322863636483e-10
1.976296196427370557e-10
1.430678492863410243e-10
