# bin_6_13
2.074568500327875746e-07
2.232825091663843434e-07
2.336389230655313695e-07
2.361795502962300501e-07
2.282599753297878269e-07
2.083841380139882125e-07
1.799243809390496227e-07
1.482764739614702672e-07
1.219965087593633092e-07
1.045585254285936694e-07
8.842447560039871192e-08
6.532577331106127849e-08
4.681246676820988649e-08
3.769637225445219301e-08
2.578169240110165244e-08
1.954218341392831808e-08
1.383366963703881739e-08
9.961302089218628160e-09
7.269381455784428139e-09
5.366117879790555119e-09
4.027156474720184746e-09
3.074341605390837017e-09
2.386274659933373857e-09
1.872628640170857170e-09
1.476076080523772879e-09
1.160662422333645075e-09
9.040764885634601654e-10
6.934089300244673587e-10
5.210240577872932238e-10
3.820409358519199141e-10
2.727484612289800582e-10
