# bin_17_8
5.274162208654027933e-28
5.904392899587950016e-28
6.487158267100870703e-28
6.962515071934903706e-28
7.254824481446868924e-28
7.295689514406026994e-28
6.991432401704767650e-28
6.322447583732094216e-28
5.405123701715580504e-28
4.433412318046016393e-28
3.667183406834409481e-28
3.168099597225977553e-28
2.641650895096927106e-28
1.888421708417536341e-28
1.386063942935430933e-28
1.098562830854676004e-28
7.348446674663538261e-29
5.477494970252193830e-29
3.852780215238733865e-29
2.679879120550566394e-29
1.881740984731086437e-29
1.329056643437203842e-29
9.519534956541364114e-30
6.928365593740617413e-30
5.144110947756016443e-30
3.888588735147749925e-30
2.983445400486769706e-30
2.310509237312256010e-30
1.793229416854925609e-30
1.384727202853749403e-30
1.056979673850446489e-30
