# bin_15_16
1.421790667306255270e-08
1.599059721223643784e-08
1.766784274082517911e-08
1.909472249459656753e-08
2.007183605416199980e-08
2.038516324863378564e-08
1.982445211281345076e-08
1.820426626121098573e-08
1.580823858424552298e-08
1.305575515177020633e-08
1.071480861960726146e-08
9.170897313960360501e-09
7.831436030085669745e-09
5.837306472161133603e-09
4.097085429908113960e-09
3.335824022251525124e-09
2.226535393283117472e-09
1.688816175800032117e-09
1.153897240278345475e-09
8.012778001540444699e-10
5.625155908371269814e-10
3.950276320990654328e-10
2.793577275964480852e-10
2.000425896164183044e-10
1.460993591547093895e-10
1.087778686178517875e-10
8.242362506635828040e-11
6.332043410356611392e-11
4.899429803549763831e-11
3.790482693003948156e-11
2.911183765925457700e-11
