# bin_15_3
1.731403213677018131e-50
1.917112309342738664e-50
2.078119403422542465e-50
2.193249619542435504e-50
2.238094729027478230e-50
2.192412592868624469e-50
2.030326417243707170e-50
1.777905102419623000e-50
1.475802822201333718e-50
1.207845875292748922e-50
1.026417727103649772e-50
8.836046188092013106e-51
6.758902728274658433e-51
4.692603119628686290e-51
3.804211358298903655e-51
2.624505229879199044e-51
1.972270578573296759e-51
1.351486238513497145e-51
9.654822490993852808e-52
6.894943263846802593e-52
4.950708803384821853e-52
3.594115515759092179e-52
2.648629413113297499e-52
1.990331423397239649e-52
1.521426294304576105e-52
1.177779573081212933e-52
9.181757046063844574e-53
7.156266289396901666e-53
5.537613793343174346e-53
4.227983937792124504e-53
3.169541422297587308e-53
