# bin_15_10
1.367831979993934272e-15
1.529013176333875232e-15
1.676882593153929276e-15
1.795704105240632180e-15
1.865683574819585266e-15
1.869997064833728386e-15
1.783560538889490957e-15
1.605573552122251714e-15
1.366143880674369617e-15
1.119058759751018253e-15
9.286788839043806110e-16
8.035944540452644196e-16
6.637410492140872868e-16
4.695623894278789691e-16
3.503267098252474556e-16
2.732363530876823378e-16
1.848270618866162472e-16
1.357190026532988187e-16
9.639931988704195702e-17
6.724544602341855346e-17
4.722771946104974547e-17
3.347473308312108450e-17
2.407737379225203061e-17
1.760927115845514148e-17
1.313579065391346009e-17
9.970560240646833392e-18
7.673596239989587421e-18
5.952965020196574792e-18
4.621349878989463280e-18
3.564575026691225980e-18
2.714756498879842209e-18
