# bin_5_13
2.676169966351833025e-07
2.848443615115998984e-07
2.939063293557276200e-07
2.922337464906408170e-07
2.760177413655374031e-07
2.463163257592709185e-07
2.079606125488133597e-07
1.702230623492561570e-07
1.421408526620011621e-07
1.227063774752457599e-07
9.924538807110890982e-08
7.008497946887581438e-08
5.371932505662797791e-08
4.079413672610686248e-08
2.883344027217392931e-08
2.104235115441239582e-08
1.536413702675804059e-08
1.114462114342967366e-08
8.195236466976477548e-09
6.130372733781520027e-09
4.669348133016192461e-09
3.617160631938965600e-09
2.839547745421299595e-09
2.244056189129772483e-09
1.773027037784001828e-09
1.390781307112297461e-09
1.076011432612956694e-09
8.165956197251993120e-10
6.052524041403192700e-10
4.368199599338282133e-10
3.067223818845350929e-10
