# bin_11_12
2.183338721599717545e-08
2.423312019352094037e-08
2.634572963240348657e-08
2.790746552766921549e-08
2.860271992675413102e-08
2.818799976878019921e-08
2.629624221175016062e-08
2.318700453245155362e-08
1.935156765056267687e-08
1.582482647429369193e-08
1.336683365780031542e-08
1.154817008794593355e-08
9.020097964650930027e-09
6.245180724774142428e-09
4.987512611984094981e-09
3.549897677685886052e-09
2.599581379868151730e-09
1.789793385632309023e-09
1.290626962967411828e-09
9.157515055268403800e-10
6.526104461697212747e-10
4.712287489367172767e-10
3.452641302520856162e-10
2.578379347015828731e-10
1.960340731681232053e-10
1.511365302495327913e-10
1.175480779434956407e-10
9.157925459191287305e-11
7.096212335959996664e-11
5.433676708406129715e-11
4.090245927138161570e-11
