# bin_18_10
4.952507662694546454e-23
5.566242933596414413e-23
6.145131391692445615e-23
6.634817707528980726e-23
6.965629332759802267e-23
7.064472808851922895e-23
6.855660865834063867e-23
6.280478639709324378e-23
5.440916430746648748e-23
4.487535582324157450e-23
3.685771392373822736e-23
3.160139599101153227e-23
2.691535920558323157e-23
1.992578257361642541e-23
1.404574875706386361e-23
1.144138175788017462e-23
7.594216805026019610e-24
5.774296989483567018e-24
3.961659967158959266e-24
2.745335818698008948e-24
1.928577693244070786e-24
1.355351964626531277e-24
9.602791550015397448e-25
6.893235689385471795e-25
5.047761887158791197e-25
3.767797328489049643e-25
2.861191184390301739e-25
2.201468654238767170e-25
1.704721004644072375e-25
1.318848763899133061e-25
1.012161592705553353e-25
