# bin_20_7
1.034341062001497255e-44
1.163504260847728931e-44
1.285814713512099346e-44
1.390018620689408667e-44
1.461622276660386319e-44
1.484957280951168087e-44
1.444885906887623728e-44
1.327483021058587127e-44
1.153366183977601425e-44
9.527137854855150807e-45
7.816300799354539460e-45
6.688182886413031909e-45
5.716814597116100521e-45
4.266712850275083078e-45
2.988920298507077793e-45
2.437383194796040285e-45
1.625084486840210388e-45
1.234412111570446158e-45
8.424986609420962154e-46
5.846197224444679194e-46
4.105504035407527746e-46
2.883490681226896031e-46
2.038412017074100624e-46
1.458920541402899067e-46
1.064981936248844753e-46
7.925693517244958778e-47
6.003313220900171303e-47
4.610964586553793855e-47
3.567602923681330397e-47
2.760454591972371248e-47
2.120654872825335871e-47
