# bin_13_11
1.514232416455593660e-10
1.687984154209482821e-10
1.844954443491821104e-10
1.967342687693129799e-10
2.032949179150200509e-10
2.024687280630926994e-10
1.914244110013774011e-10
1.709118393782390524e-10
1.442265101755661551e-10
1.179620620173731325e-10
9.855790405511634821e-11
8.537749085587462140e-11
6.912230013050096281e-11
4.819123674333117487e-11
3.704951563506545493e-11
2.793190244573358209e-11
1.943015985274643471e-11
1.382403311192381074e-11
9.968518978126973171e-12
6.996026124222140247e-12
4.927497732359797551e-12
3.519152714384405036e-12
2.550589267816315160e-12
1.881624768747616544e-12
1.415043702291449949e-12
1.081475174974617504e-12
8.364428154847261705e-13
6.504350548898207098e-13
5.048439882208992910e-13
3.884163311263666670e-13
2.945113767638076713e-13
