# bin_8_11
8.268403683686567925e-08
9.040695384057295626e-08
9.648428729964478832e-08
9.984427510911439603e-08
9.961869102197851079e-08
9.446548287002659030e-08
8.459523197280783891e-08
7.162465392759663947e-08
5.862521832557852124e-08
4.883579140665144305e-08
4.223218716299795865e-08
3.445149789387093592e-08
2.427545745769890916e-08
1.843958402705190110e-08
1.413853666210579698e-08
9.814167312087834932e-09
7.150087424516625091e-09
5.171934651362257053e-09
3.687563485141451345e-09
2.656725227578817362e-09
1.942860170743151658e-09
1.445572407035089160e-09
1.094982181040432602e-09
8.435262561274222015e-10
6.574342704361623796e-10
5.152835805293891057e-10
4.033322164005917618e-10
3.130814989741321355e-10
2.395603046338805158e-10
1.797926921659940139e-10
1.318381533069562762e-10
