# bin_11_5
8.621568254217352854e-21
9.445119025633139900e-21
1.010429443547648943e-20
1.048792053184986877e-20
1.050247929832527436e-20
1.000735018104770055e-20
9.001691451908032900e-21
7.654161429998069819e-21
6.268368041743478647e-21
5.202129475887696754e-21
4.498405572863991676e-21
3.711245003141020882e-21
2.630193929095917466e-21
1.967881883844442934e-21
1.536825782223490598e-21
1.049974503726142441e-21
7.765380112135166391e-22
5.585844548097796948e-22
3.969320227380505779e-22
2.853081399642829331e-22
2.078842828932838675e-22
1.541581508178415259e-22
1.163698907904076451e-22
8.939462436603181487e-23
6.953714003249739102e-23
5.445103527683708194e-23
4.262829206177634902e-23
3.312811064656831111e-23
2.539987068043688495e-23
1.911487905202687070e-23
1.406253826815235443e-23
