# bin_19_10
6.143587265962737790e-26
6.916326676268920626e-26
7.650738185845988323e-26
8.280561432306302578e-26
8.720027478498438491e-26
8.873950997080949377e-26
8.655950474700954644e-26
7.974718245760957371e-26
6.947892629952816063e-26
5.748139438672837922e-26
4.711735241818174772e-26
4.023593900059171393e-26
3.449555129046660435e-26
2.594697788055664009e-26
1.808931348443398145e-26
1.474162440122793142e-26
9.893510553359452018e-27
7.492817459291587645e-27
5.090036258794549587e-27
3.541067839035493896e-27
2.484565195596874431e-27
1.743337581962898527e-27
1.229733822710048919e-27
8.776338412437704035e-28
6.386679608075919329e-28
4.738872869966203198e-28
3.580150308647880969e-28
2.744708130934173922e-28
2.121640710781493515e-28
1.641650845554277207e-28
1.262260660697184532e-28
