# bin_17_15
2.033584692268759684e-10
2.293471249322028063e-10
2.542424098719353040e-10
2.758956082796706404e-10
2.914905321884594701e-10
2.977507558141840886e-10
2.920186552365377205e-10
2.707480833111055563e-10
2.373430086379060844e-10
1.971495105472240231e-10
1.613687394959796763e-10
1.371202601160226360e-10
1.181716279152760260e-10
9.049748268883000682e-11
6.263941044823180150e-11
5.070917342803794566e-11
3.479959556422883730e-11
2.598190953883842149e-11
1.752605635706997051e-11
1.232029227208737014e-11
8.606637007609299536e-12
6.010671452214244061e-12
4.218976167259920431e-12
2.992124062861712491e-12
2.161806864898094602e-12
1.592777888649625750e-12
1.195752394442114900e-12
9.124041948116558496e-13
7.034161650695999715e-13
5.440501639270104339e-13
4.190096186267406788e-13
