# bin_18_5
4.134737418084566985e-08
3.698966630465987916e-08
3.217643589224499784e-08
2.724488791993945910e-08
2.254100821564245434e-08
1.832587985819208282e-08
1.471123453197041039e-08
1.165745249621550815e-08
9.059167763903223572e-09
6.877793293608607745e-09
5.162594850772148649e-09
3.896421808864313352e-09
2.938820579748413523e-09
2.218241199107252455e-09
1.693473112636696874e-09
1.302871656365127081e-09
1.011917715005843630e-09
7.913234745968948124e-10
6.208332423064298469e-10
4.865757008411528959e-10
3.792675713347534276e-10
2.927774709017591092e-10
2.230024356405788468e-10
1.670901884990266060e-10
1.228748520320567069e-10
8.854697805362076269e-11
6.248312763814248346e-11
4.317790686442856791e-11
2.924451009263225363e-11
1.944433661578462757e-11
1.271738637019325035e-11
