# bin_16_1
1.856590847654752504e-08
1.558977443990079411e-08
1.281855562038309460e-08
1.038043323500578400e-08
8.306787198630188441e-09
6.549044291230915726e-09
5.053216635212474215e-09
3.824458791930146583e-09
2.887493668361033366e-09
2.193316785074682084e-09
1.665145987820595918e-09
1.275018210227057662e-09
9.869438327167659545e-10
7.718803133808626930e-10
6.089199712574194518e-10
4.828212516135471813e-10
3.830241455847958530e-10
3.025229153686300046e-10
2.367906711332828853e-10
1.829146600558946297e-10
1.389695041585469332e-10
1.035697822744074498e-10
7.558015566013040669e-11
5.395758413365416466e-11
3.768621575709568708e-11
2.577511316923641979e-11
1.729110963605310320e-11
1.140199400670963016e-11
7.407983783918708482e-12
4.753423984007960952e-12
3.018984771069245460e-12
