# bin_18_11
6.287960573184270111e-08
5.853750562197274838e-08
5.308291306783386760e-08
4.683041095583626969e-08
4.019890454978706719e-08
3.365008827297679711e-08
2.759500912752000900e-08
2.228308934012893573e-08
1.776515920019938863e-08
1.394208163213771669e-08
1.070681525840957407e-08
8.058384025416859822e-09
6.033412956011530410e-09
4.534213501457856694e-09
3.393422398509059878e-09
2.551438240119545019e-09
1.933834138023037061e-09
1.477221305784727547e-09
1.136903646018348749e-09
8.799166347445417079e-10
6.825232041024615186e-10
5.285151336346585668e-10
4.069458077755727533e-10
3.103925174479668720e-10
2.337478287113612200e-10
1.733385348181305196e-10
1.263226559472915778e-10
9.035006367439482906e-11
6.337993536616440970e-11
4.360729672226883815e-11
2.944621933771616367e-11
