# bin_19_1
1.885814248511788253e-08
1.584216820488221968e-08
1.303039197115691756e-08
1.055491183634723517e-08
8.449067855798475917e-09
6.663669207670194936e-09
5.143087620641446736e-09
3.892522179283875734e-09
2.938431930329936983e-09
2.231763123045705481e-09
1.693944573148433597e-09
1.296672721635947718e-09
1.003429299877045704e-09
7.845879594855611649e-10
6.188553687668554008e-10
4.906837069526350757e-10
3.892947180473069280e-10
3.075348373679085757e-10
2.407815364858597089e-10
1.860625980827599523e-10
1.414169764831180425e-10
1.054378520826492767e-10
7.697570988676341436e-11
5.497607870417683739e-11
3.841187053114973837e-11
2.628009942902340361e-11
1.763487341866511434e-11
1.163141941909950804e-11
7.558488423993471380e-12
4.850730567354682012e-12
3.081145511100205918e-12
