# bin_18_7
5.006028074430373545e-08
4.559815470336173191e-08
4.040389298962983981e-08
3.481993174278059992e-08
2.924069942725018188e-08
2.403634241845888039e-08
1.944857885898072628e-08
1.554441403304572953e-08
1.224236434260367940e-08
9.436144119598992970e-09
7.118451233478817937e-09
5.338954733515356957e-09
4.026280394727398575e-09
3.024651605673659105e-09
2.283653665983892211e-09
1.740009746538269604e-09
1.337096365798369192e-09
1.035860692111328005e-09
8.073025239394597138e-10
6.306030702102776873e-10
4.916290814579336678e-10
3.809259527205867447e-10
2.921674302931428963e-10
2.210575520581218385e-10
1.645337239486331475e-10
1.202187471606770228e-10
8.611261314501099418e-11
6.043332743482897592e-11
4.155865275904639857e-11
2.802865509968379551e-11
1.856734624299014988e-11
