# bin_16_2
2.459739026984140068e-08
2.106170274922336076e-08
1.758874372341849451e-08
1.440032469570928265e-08
1.162434666396623084e-08
9.273175197364587001e-09
7.277679513127647783e-09
5.583239864258188939e-09
4.210290298450062095e-09
3.179216040452669056e-09
2.411864968213078941e-09
1.827246847844391003e-09
1.399329987126765728e-09
1.081687103186341823e-09
8.449275083056267763e-10
6.651920439362898478e-10
5.259991460253437841e-10
4.158637974330299169e-10
3.271663206028862610e-10
2.549650023804699910e-10
1.960411632288485977e-10
1.482311431614763141e-10
1.099425268628498892e-10
7.985252482701751317e-11
5.674825825411217874e-11
3.946387342663809014e-11
2.688121809914747784e-11
1.796513112270500683e-11
1.180554543759653629e-11
7.646201401915136652e-12
4.892537075483014105e-12
