# bin_20_15
7.335003883966946210e-08
6.925294482574789618e-08
6.375672369759884625e-08
5.713834708666151574e-08
4.981368351058884020e-08
4.228850798651717872e-08
3.507261020938605542e-08
2.855991043527908458e-08
2.293244736163357332e-08
1.816407399557496769e-08
1.412322587342184090e-08
1.073669245871540574e-08
8.037755915744030209e-09
6.015316138408574436e-09
4.502978949916007017e-09
3.358229774604296465e-09
2.524196877257623908e-09
1.908169551617267861e-09
1.454598145097813311e-09
1.116076094646890672e-09
8.601315893666972432e-10
6.636090567804692267e-10
5.106124972863401449e-10
3.903611800531286404e-10
2.954606670066225474e-10
2.207478910689246866e-10
1.624169477826529067e-10
1.174751475555477224e-10
8.343764971208859381e-11
5.816709334357073405e-11
3.980630428813311041e-11
