# bin_9_2
2.263218158554459735e-08
1.931660168235357793e-08
1.609117853014557233e-08
1.314964135736147826e-08
1.059712521150517315e-08
8.436806371043807331e-09
6.606249950916258862e-09
5.060772265753102192e-09
3.817392365107552791e-09
2.885159426435491525e-09
2.190108888896434580e-09
1.661990925167221852e-09
1.275044008686725305e-09
9.873243010692301871e-10
7.722943981875471727e-10
6.085310297813236425e-10
4.812777197665426379e-10
3.803055543152714203e-10
2.988426516112373953e-10
2.324946072891638276e-10
1.783854197016206080e-10
1.345583677812743304e-10
9.954788665544467194e-11
7.211746073878820817e-11
5.112461996092215085e-11
3.547193830025252822e-11
2.411309001246512210e-11
1.608716540286572661e-11
1.055622407157263283e-11
6.829083754544057687e-12
4.365688851290513527e-12
