# bin_12_9
5.164037950142615671e-08
4.728728343958699091e-08
4.215236012029573974e-08
3.656085039635707432e-08
3.089555960839476429e-08
2.552877398776078147e-08
2.073108931123384642e-08
1.661054527952577234e-08
1.312690221461392986e-08
1.018017338079084275e-08
7.728114858683024903e-09
5.798126210739623944e-09
4.361231246358301194e-09
3.281842478829994585e-09
2.468489375396938985e-09
1.875077204631395456e-09
1.434108543770730361e-09
1.106519714965451450e-09
8.590635413808717196e-10
6.690516098793495213e-10
5.206804097043976728e-10
4.032378392340209190e-10
3.095422221863169542e-10
2.346991874017024320e-10
1.752603798910397732e-10
1.286101001110728452e-10
9.260243071417762332e-11
6.536928594583104780e-11
4.523542593895310766e-11
3.070344315658404110e-11
2.046498815606974649e-11
