# bin_14_1
1.831440962019560402e-08
1.537256322915879932e-08
1.263624879537057752e-08
1.023027689870739153e-08
8.184340714947155431e-09
6.450398554236284253e-09
4.975874181840045190e-09
3.765883836630981016e-09
2.843656449781516564e-09
2.160230029259946346e-09
1.640362006025378720e-09
1.256382356010015449e-09
9.727564234842990166e-10
7.609440801101970410e-10
6.003695322797137397e-10
4.760547923886132263e-10
3.776276706362822469e-10
2.982096457673981682e-10
2.333561324028981429e-10
1.802055517250432855e-10
1.368632210221123710e-10
1.019621348355885870e-10
7.437915504736579918e-11
5.308107967620116606e-11
3.706172718817312775e-11
2.534052973844637774e-11
1.699527226853706161e-11
1.120455458548503990e-11
7.278462305738755111e-12
4.669683825223333249e-12
2.965490476059023011e-12
