# bin_19_2
2.505981133034299836e-08
2.147233254379198098e-08
1.794112781584345947e-08
1.469461666322212107e-08
1.186605717761103179e-08
9.469977321060393082e-09
7.435670723783582158e-09
5.706179565226878956e-09
4.302741481402017732e-09
3.248409250440022990e-09
2.464045430816426951e-09
1.866132469192875713e-09
1.428575128108571563e-09
1.103891142206809629e-09
8.620184280937344882e-10
6.785246458653708817e-10
5.365223058947432307e-10
4.242308203255539648e-10
3.338310186285415429e-10
2.602524016329377598e-10
2.001956551700772487e-10
1.514484252521371035e-10
1.123884481775772161e-10
8.167263413653631508e-11
5.807153726653102358e-11
4.040320290702779252e-11
2.753257801479989558e-11
1.840702991300151392e-11
1.209951987363541902e-11
7.838475234345166683e-12
5.016508406299064257e-12
