# bin_19_12
2.117234888588081565e-14
2.388689515438636184e-14
2.649138097740215165e-14
2.876305061486088530e-14
3.040918901712024511e-14
3.108624624244711329e-14
3.052133929742471703e-14
2.833488001503295253e-14
2.486973176640320290e-14
2.067566265988490353e-14
1.691892515190372792e-14
1.436179389689712952e-14
1.238882696221849730e-14
9.522052439537435371e-15
6.582870689855437581e-15
5.320237498826579958e-15
3.668927768771647969e-15
2.729947023624947856e-15
1.839346090255239608e-15
1.295902119494166638e-15
9.041918912556279907e-16
6.306078906788263371e-16
4.420701408496546949e-16
3.130225964901844129e-16
2.257453626966114192e-16
1.660226257477154779e-16
1.244332641597192786e-16
9.482715519637967384e-17
7.305202832126107781e-17
5.649102058573657643e-17
4.352278571517337149e-17
