# bin_13_6
1.872222555649804422e-18
2.070386620351144036e-18
2.240739774707713074e-18
2.360245831199901190e-18
2.403097539361391236e-18
2.346398085202715017e-18
2.164717447243177116e-18
1.888648463281607814e-18
1.563956662440835305e-18
1.281106301954431503e-18
1.091897582927124119e-18
9.370999305860657065e-19
7.092304063086516776e-19
4.945361565520533842e-19
4.025161996620871875e-19
2.741786275869495836e-19
2.078120490069900824e-19
1.428803769342685957e-19
1.015235236798427969e-19
7.267254718301113436e-20
5.231097349779363816e-20
3.806691860759136009e-20
2.812957428461144218e-20
2.119715710336304415e-20
1.624118368176858714e-20
1.259401688855262354e-20
9.826370378352497697e-21
7.658334177149347463e-21
5.921098147576238100e-21
4.513898453548200702e-21
3.376874799807569031e-21
