# bin_17_6
2.168041238672849552e-33
2.422491624349271565e-33
2.655390913036216050e-33
2.841711176004442258e-33
2.949995911458682988e-33
2.953988133583457427e-33
2.813619517774672250e-33
2.529566641684565227e-33
2.149452570487145730e-33
1.760110575218454767e-33
1.462115638878960536e-33
1.265661168833496678e-33
1.042426405736193206e-33
7.353692734664257591e-34
5.512353702471476311e-34
4.278318913437867252e-34
2.904308897473162365e-34
2.122551580028448072e-34
1.511755311955710800e-34
1.055322833327512573e-34
7.411346213861825996e-35
5.257730940804903877e-35
3.785372930305774429e-35
2.771589679637535371e-35
2.069705815510310278e-35
1.572443985587190596e-35
1.211038283659799029e-35
9.398385830341536315e-36
7.296301865447661977e-36
5.626241051224755971e-36
4.282585040849906907e-36
