# bin_5_3
5.399350735152999817e-07
5.673839256597538430e-07
5.764774093662087745e-07
5.614959563758511636e-07
5.169729184179257386e-07
4.502247484952183773e-07
3.726396631990339776e-07
3.054095244027990009e-07
2.601537488553346647e-07
2.224563322141785046e-07
1.683895203998735807e-07
1.186334493146919190e-07
9.609989417942854387e-08
6.676542264359229421e-08
5.067254757972219791e-08
3.582354642741023568e-08
2.616840769352083891e-08
1.930708802683436478e-08
1.442610953824943348e-08
1.096349964771262385e-08
8.474097763918502501e-09
6.651178179242077090e-09
5.267838963699077458e-09
4.180502940875113304e-09
3.300790446687589019e-09
2.575258589200353110e-09
1.973548619199771960e-09
1.478301206545630654e-09
1.078580326960099910e-09
7.653221123177951183e-10
5.284679034411400958e-10
