# bin_17_7
8.882431340490372450e-28
9.935400789270086275e-28
1.090469834979401995e-27
1.168866511372098606e-27
1.215927068684088238e-27
1.220472878333409890e-27
1.166408545178746301e-27
1.052023810149834250e-27
8.969245772268926788e-28
7.350748309881405194e-28
6.091447439468812545e-28
5.267991354706257286e-28
4.369299935714313628e-28
3.103942865348258937e-28
2.299733160825113355e-28
1.806420057986222220e-28
1.215500774430311132e-28
8.985578239142580344e-29
6.355315933917115432e-29
4.427062855463629247e-29
3.108111631162596186e-29
2.199019282440024719e-29
1.578487257996714787e-29
1.151781689665398692e-29
8.572834976961222817e-30
6.494610439986621177e-30
4.991232766778672016e-30
3.869068558740609840e-30
3.003354091083354509e-30
2.317867576802999995e-30
1.767187693631601183e-30
