# bin_20_19
6.243233991973004488e-06
7.093351968566599785e-06
7.935365118273910302e-06
8.708054511967307766e-06
9.329368443500425342e-06
9.696009339167873563e-06
9.720313069798550265e-06
9.270789546990401971e-06
8.344402088223067026e-06
7.098273741121216144e-06
5.814672794404753620e-06
4.828492010084182415e-06
4.181185186217804498e-06
3.450150729157107577e-06
2.433949349915852125e-06
1.817361541225057389e-06
1.410669359963425037e-06
9.485212096876806034e-07
6.888385699383778437e-07
4.832984694550803605e-07
3.302816336652561939e-07
2.255732554027882303e-07
1.544460612342765961e-07
1.065968156347095431e-07
7.439458245635126036e-08
5.285279954306990894e-08
3.828515786095268515e-08
2.832207636056586991e-08
2.135325255426534654e-08
1.632772704207245871e-08
1.257393449444146500e-08
