# bin_20_9
2.150304257724414398e-28
2.423064901204757296e-28
2.683386731911718644e-28
2.908326231624817509e-28
3.067991512062239325e-28
3.128291031779770680e-28
3.060257676640968563e-28
2.828773404961381478e-28
2.472568139647864073e-28
2.049712960083359044e-28
1.678704088866179859e-28
1.429939048230142522e-28
1.229674093708725915e-28
9.335932346033496134e-29
6.479789369664214295e-29
5.267145614560178324e-29
3.571464949653230218e-29
2.688637519167267413e-29
1.817714027259688868e-29
1.270302016225460703e-29
8.895189392964177345e-30
6.228195639432856583e-30
4.380747134662495060e-30
3.115007930720059186e-30
2.257575043086678602e-30
1.668436782426422076e-30
1.256032738568433101e-30
9.604251730059773389e-31
7.413435127627696993e-31
5.735274678549472245e-31
4.414178057392430440e-31
