# bin_5_4
7.484686419482575490e-06
7.920978414369189366e-06
8.114702385324954945e-06
7.996056710316651691e-06
7.463303280856479284e-06
6.585457166056774646e-06
5.501890112555064420e-06
4.498702275492447708e-06
3.791768479671524293e-06
3.271241482751408047e-06
2.569372213101427767e-06
1.792728682644320039e-06
1.423743736120903857e-06
1.033482291921388636e-06
7.581041752708166525e-07
5.379293711141117440e-07
3.961263182507128305e-07
2.896976254373022201e-07
2.144171751876885050e-07
1.616178729691632635e-07
1.239665323780021481e-07
9.666162848111313525e-08
7.623349900279343726e-08
6.039529963078712180e-08
4.772831414641582212e-08
3.736258002529047175e-08
2.879065634387763097e-08
2.172388887810344309e-08
1.598680442320190333e-08
1.144643255691876046e-08
7.972825505726682507e-09
