# bin_8_8
1.139558315222675207e-05
1.247187647052678795e-05
1.332601128026126501e-05
1.381037007707486387e-05
1.380427885001758721e-05
1.312035807456952203e-05
1.177386194677675448e-05
9.987356319430210495e-06
8.175098628255994090e-06
6.797371518935551007e-06
5.880495791043272736e-06
4.824835505451823782e-06
3.404351313606475020e-06
2.568811613565681173e-06
1.987868559288257633e-06
1.367914351484970757e-06
1.003400434962045077e-06
7.247805914744403413e-07
5.157853393927058303e-07
3.709214217405009336e-07
2.707050096279917299e-07
2.010617911376007540e-07
1.520279381142344664e-07
1.169471461472453308e-07
9.105807393180919992e-08
7.133884629592693295e-08
5.584800678405054866e-08
4.337995425532513217e-08
3.322964418343385155e-08
2.497582975308036032e-08
1.834618562701504109e-08
