# bin_15_15
8.657428544293012095e-06
9.748159134961564820e-06
1.078564378318022894e-05
1.167670351238490488e-05
1.230057432646251965e-05
1.252249968959497711e-05
1.222177317492690468e-05
1.126719408152268911e-05
9.822695075632255905e-06
8.129674684230687228e-06
6.662727824190627194e-06
5.686903879904076293e-06
4.878574967098814554e-06
3.676258002323446489e-06
2.560587551171919251e-06
2.085779363691765242e-06
1.402472263195052194e-06
1.060969732899638336e-06
7.199656633968791384e-07
5.012305734451003650e-07
3.515094813326369048e-07
2.465045346575439740e-07
1.737460362671951645e-07
1.238776387153282208e-07
9.005127979026819694e-08
6.674802858690536270e-08
5.038113583460584198e-08
3.859853856923814123e-08
2.982538177155201796e-08
2.307666001897415965e-08
1.774787044614017383e-08
