# bin_6_6
1.396113491697432005e-05
1.503624497982170150e-05
1.574698174618988851e-05
1.593307882764503542e-05
1.541863440626932232e-05
1.409047284861198956e-05
1.217881192193780493e-05
1.003580796618695966e-05
8.247883701789252920e-06
7.069157153936870018e-06
5.996985824141435616e-06
4.435667639656911081e-06
3.161141608367522360e-06
2.564008671901860270e-06
1.740238174840786150e-06
1.328870671095874084e-06
9.378286385018650726e-07
6.736296481959577615e-07
4.917635332034518699e-07
3.628504205097169370e-07
2.720818339058794136e-07
2.075320929505183221e-07
1.609917301040124595e-07
1.262973659280967364e-07
9.954810498339505345e-08
7.829526769336518590e-08
6.101627438645318041e-08
4.683088591833764718e-08
3.521841600286449175e-08
2.584798869556354147e-08
1.847017781886450872e-08
