# bin_12_8
9.498121986389064888e-10
1.051758489566173537e-09
1.140183676499748367e-09
1.203475499553359979e-09
1.228239842753141836e-09
1.203376728011512967e-09
1.114657984357364803e-09
9.762799610394358723e-10
8.105404946564044842e-10
6.633721542872897483e-10
5.636227043464702588e-10
4.852296278001754004e-10
3.714100332982513692e-10
2.578663582204220634e-10
2.089103086578349007e-10
1.442915059642035299e-10
1.083098511255233751e-10
7.423062922964952636e-11
5.304394264507873234e-11
3.786279634672827378e-11
2.717070017890451810e-11
1.971628956545315186e-11
1.452247490554719195e-11
1.090751270275739666e-11
8.334106528173552667e-12
6.449460505433099727e-12
5.026820764327611758e-12
3.917627608561204600e-12
3.031692189415012410e-12
2.315104457357317816e-12
1.735998020406395998e-12
