# bin_17_2
4.648747139931711796e-65
5.176528308574617076e-65
5.650345372538850462e-65
6.015115262415470508e-65
6.202513152298521954e-65
6.161361012429041162e-65
5.805266564098405314e-65
5.166542014353226105e-65
4.346342140979098210e-65
3.553522081330502436e-65
2.977293079770426080e-65
2.579107780763718894e-65
2.070065428592594547e-65
1.436961580850981043e-65
1.117691846346815882e-65
8.304435151332102583e-66
5.851600124438402118e-66
4.111023924070219574e-66
2.976336381461817588e-66
2.093815437348803748e-66
1.477369536011846562e-66
1.058026737125229305e-66
7.687801637364644803e-67
5.688013703630613277e-67
4.288957080814069649e-67
3.285087699358301417e-67
2.544549518187948912e-67
1.979882890187441780e-67
1.536309395595377736e-67
1.180777604893370295e-67
8.938256681916449416e-68
