# bin_19_16
3.177460241404080720e-07
3.598191539202159586e-07
4.008529342800864739e-07
4.376402903415444232e-07
4.658820459181014932e-07
4.802488518312162382e-07
4.767961285817925384e-07
4.487910075112095670e-07
3.990101672452132799e-07
3.353148344305767201e-07
2.741780683539959437e-07
2.300857724916135616e-07
1.993925023969243880e-07
1.593873776788565019e-07
1.102380467060745473e-07
8.610674978065327220e-08
6.327402593062333270e-08
4.455037400316604239e-08
3.071891394893723853e-08
2.197861071794056591e-08
1.514982752852482342e-08
1.039925500377317235e-08
7.207339614836703889e-09
5.037792027516189597e-09
3.573934860621854554e-09
2.584440119598019523e-09
1.906171828319475392e-09
1.433518129103410220e-09
1.094609218675099278e-09
8.433654482162289029e-10
6.507425849672985577e-10
