# bin_20_18
2.241912021803305257e-06
2.545276852652134373e-06
2.844667181637290979e-06
3.117979927224133995e-06
3.335536327214511768e-06
3.460032774445244984e-06
3.461135060523428995e-06
3.290917792918306397e-06
2.953564234366072015e-06
2.504977524109078302e-06
2.050710200858103518e-06
1.706896130156140421e-06
1.478964229262492008e-06
1.212265916912992723e-06
8.501192016719442541e-07
6.415332428137483731e-07
4.921561451866584005e-07
3.338699532529001088e-07
2.395659002229709650e-07
1.691573378680572997e-07
1.158083865349183505e-07
7.910230624443740398e-08
5.430403068165713354e-08
3.759208178410058905e-08
2.633653369422412677e-08
1.879015919146655595e-08
1.367153720973024100e-08
1.015616254126988101e-08
7.683094866788985125e-09
5.887785685424266006e-09
4.537942838632854063e-09
