# bin_9_8
5.775093866252848197e-06
6.340889809263458923e-06
6.802293221808706345e-06
7.085729606180861666e-06
7.124568233551902746e-06
6.828371903111752405e-06
6.177057666464291021e-06
5.283165549952425816e-06
4.334102790257944291e-06
3.582688507050115067e-06
3.091555911690555489e-06
2.580150605037394973e-06
1.852254934485905993e-06
1.358361721772548832e-06
1.080622975177414746e-06
7.289321943774320788e-07
5.478043291122801483e-07
3.895794269209312853e-07
2.758338395352247191e-07
1.980563373515028062e-07
1.436973879811266212e-07
1.060368508627127947e-07
7.962765071323267582e-08
6.089718370332002500e-08
4.721216385307241312e-08
3.689754421897574912e-08
2.887527020099827027e-08
2.246452960806010274e-08
1.726483698406881282e-08
1.303752728590719706e-08
9.633260923797926421e-09
