# bin_8_7
5.994390209104269863e-06
6.538473717660257531e-06
6.956963285093536325e-06
7.171442154806949533e-06
7.122274073718789460e-06
6.711109536763511975e-06
5.973718916362194343e-06
5.027285549276763053e-06
4.110159878607170568e-06
3.440692683925028772e-06
2.978076934587293568e-06
2.393856454012600328e-06
1.668951373327831321e-06
1.295868584294549058e-06
9.695634736355692196e-07
6.865404618974784544e-07
4.897042933192610707e-07
3.576561614558570236e-07
2.560393431989123543e-07
1.848356623263444235e-07
1.357567525514368084e-07
1.014302284608439936e-07
7.716425139904501605e-08
5.965512622877154963e-08
4.661073616282366263e-08
3.657886222943186566e-08
2.862927284486959051e-08
2.219412695921090760e-08
1.694188624638208214e-08
1.267351312748317528e-08
9.255956946190033204e-09
