# bin_16_13
1.714194654946328840e-07
1.927969253617194331e-07
2.130262917913477982e-07
2.302396764659381782e-07
2.420333436762642305e-07
2.458226874586320970e-07
2.390787548496459651e-07
2.195433853503693714e-07
1.906522304669447720e-07
1.574443803283013335e-07
1.291978474739611411e-07
1.105896752151868527e-07
9.446826916498168171e-08
7.040703867374228354e-08
4.937593066343233131e-08
4.025319925358953175e-08
2.681744355936966286e-08
2.037033157316689910e-08
1.391272342156460825e-08
9.649748359888039689e-09
6.774413484759728530e-09
4.756259448886933881e-09
3.361751052453128826e-09
2.405750536253969304e-09
1.755932343930319560e-09
1.306618531559213171e-09
9.895932362961086084e-10
7.600068333646972323e-10
5.879893711717371536e-10
4.549331922784557036e-10
3.494769869847923526e-10
