# bin_19_12
2.110893923898380787e-14
2.381536709893602939e-14
2.641207300010862330e-14
2.867696733102418041e-14
3.031821157726274789e-14
3.099328286943789527e-14
3.043011116833178002e-14
2.825023640178665435e-14
2.479548778414291498e-14
2.061398229538143015e-14
1.686848625055939821e-14
1.431900440228198069e-14
1.235193028365800193e-14
9.493677130784671857e-15
6.563197241492325584e-15
5.304280155927696729e-15
3.657802764508855882e-15
2.721557225965802898e-15
1.833537775972937472e-15
1.291671161201539221e-15
9.011093199300454788e-16
6.283405918464156865e-16
4.403787960072848433e-16
3.117400170679162894e-16
2.247544236176011808e-16
1.652456804670679383e-16
1.238188138778529302e-16
9.434024434206325860e-17
7.266844152932514741e-17
5.619276549197580500e-17
4.329534392943306515e-17
