# bin_11_1
6.504747223989572534e-41
7.061138436807768067e-41
7.468240885279109230e-41
7.642255963879182249e-41
7.517499715453154029e-41
6.998603777409302503e-41
6.159680171603894606e-41
5.133331715885915775e-41
4.197326045911462093e-41
3.548415526805025277e-41
3.062125243905375937e-41
2.382927648198848081e-41
1.654393981393913997e-41
1.326846433947636697e-41
9.440873684666472233e-42
6.988145580202700750e-42
4.864207701898934485e-42
3.546756572585416836e-42
2.564150123080743485e-42
1.870049978005962914e-42
1.385596258536439282e-42
1.043798580124708488e-42
8.006928339583826234e-43
6.230482221968481028e-43
4.888791869834149378e-43
3.842951835409299679e-43
3.004727155957184324e-43
2.321525444401735233e-43
1.762562544210194479e-43
1.309113205748986655e-43
9.480546485709020063e-44
