# bin_17_3
1.183980697221512534e-55
1.319333198818353886e-55
1.441344586432783387e-55
1.536055440586372130e-55
1.586076993511109755e-55
1.578209832211622612e-55
1.490282930337086787e-55
1.329051836878981302e-55
1.120240707986535878e-55
9.160730409810493820e-56
7.661518566237860419e-56
6.637573907708197479e-56
5.357832015080996687e-56
3.727941705444607397e-56
2.878608460911278670e-56
2.159047207810781911e-56
1.508306932493411959e-56
1.067709890744818507e-56
7.714611423394546479e-57
5.417532813797214626e-57
3.816241351257452996e-57
2.727449139698132543e-57
1.977961705018990033e-57
1.460233467522038258e-57
1.098871720203337431e-57
8.403051426080448777e-58
6.501787701808840790e-58
5.056886799126272487e-58
3.924880710696900396e-58
3.019052574020007561e-58
2.288283628183677578e-58
