# bin_7_5
6.420383964683501414e-07
6.917783277667413548e-07
7.248710464336361228e-07
7.338849689259112756e-07
7.108265179703068248e-07
6.501956163996304796e-07
5.625081797481632756e-07
4.637171879959513839e-07
3.809261809724940615e-07
3.263107227013445908e-07
2.772109751641125493e-07
2.055202885216099456e-07
1.460791951849643215e-07
1.186650775557336834e-07
8.051359154644917190e-08
6.152986115706246838e-08
4.335318719427874038e-08
3.113004133096624383e-08
2.271812452587733662e-08
1.675210695379751032e-08
1.255046870939465788e-08
9.564256236566850164e-09
7.413826244468842049e-09
5.813032485360496417e-09
4.580606766800885442e-09
3.602679928692402514e-09
2.808320807182954705e-09
2.156464539214274139e-09
1.622827203753386216e-09
1.192035347994395467e-09
8.525656427735080556e-10
