# bin_17_15
1.735560766272719341e-06
1.959087146574941585e-06
2.174032707135754413e-06
2.362245944286806439e-06
2.499790460087239623e-06
2.558282783481085961e-06
2.515679816341091650e-06
2.339831957678715020e-06
2.057302288567519718e-06
1.712625929928471201e-06
1.401054202600911760e-06
1.187457629889549761e-06
1.025414649588906060e-06
7.923656350688767907e-07
5.471651638764049516e-07
4.407748813021233840e-07
3.064427340538976075e-07
2.265829085716103594e-07
1.526385727172503245e-07
1.079277033458902252e-07
7.515969087056130549e-08
5.229861748155520856e-08
3.660170425087653846e-08
2.586481319163793888e-08
1.860817832499116037e-08
1.365214452426552375e-08
1.020948678430356823e-08
7.766849382457348091e-09
5.976998308463520757e-09
4.620595917773917561e-09
3.561380980234776793e-09
