# bin_11_11
9.515442245154149219e-06
1.057763659226867284e-05
1.152160627770142856e-05
1.223336187566738608e-05
1.257355550530627615e-05
1.243848437747006769e-05
1.165780144127225253e-05
1.032408266572599795e-05
8.646606051479700561e-06
7.068213878112572465e-06
5.947776447246357675e-06
5.148102120229910109e-06
4.073328702598542878e-06
2.818081146899316235e-06
2.227234085613683326e-06
1.616589963431531970e-06
1.163787531706082176e-06
8.054498258697170751e-07
5.834441099692129151e-07
4.122033416458506527e-07
2.922375666741178812e-07
2.101954104942866212e-07
1.533745391257285188e-07
1.140236755828950415e-07
8.634994760917257816e-08
6.636979310602958083e-08
5.152569579529779578e-08
4.012504653814712825e-08
3.111847043314672081e-08
2.387495919100900395e-08
1.802361117761024404e-08
