# bin_6_3
6.879013071192543430e-09
7.286215373305606817e-09
7.472276696010801918e-09
7.373145335604786821e-09
6.893870170643004744e-09
6.093000217513978254e-09
5.097835490361084413e-09
4.168382095934494846e-09
3.508420778772344370e-09
3.027973223808640749e-09
2.389363246316528243e-09
1.668455573402632017e-09
1.318627516751415587e-09
9.638046471627404668e-10
7.025659896356667568e-10
5.004854522456193729e-10
3.683064058833981382e-10
2.689399237661211818e-10
1.987476197725288548e-10
1.495897292328485919e-10
1.145922320503550958e-10
8.924714524772318569e-11
7.032774334300118172e-11
5.569222547783401437e-11
4.401044728071166818e-11
3.446502687320588163e-11
2.657721275161348887e-11
2.007467447318685189e-11
1.479218096385656958e-11
1.060613067242698296e-11
7.397990718703590922e-12
