# bin_20_4
8.176733998508195119e-62
9.182659006434580351e-62
1.012782026276895676e-61
1.092177780001947322e-61
1.144906884938533529e-61
1.159208699350191547e-61
1.122087654813809317e-61
1.025168294606055520e-61
8.856957754470044000e-62
7.295296965934366030e-62
5.999206189717442713e-62
5.152976708290977223e-62
4.372364394093643280e-62
3.212296044229647884e-62
2.280291199389727031e-62
1.852160131712386061e-62
1.226842498175453126e-62
9.318215185669220235e-63
6.424090535237779933e-63
4.449440106285609911e-63
3.124689479699652286e-63
2.196142149833078140e-63
1.558537883889840104e-63
1.121305098735078250e-63
8.230398373593319131e-64
6.156971997073421228e-64
4.684214623310191453e-64
3.608662733290354838e-64
2.795879374274387473e-64
2.162591137693277133e-64
1.658309781451270947e-64
