# bin_13_9
1.654961744481104493e-09
1.840578846730796013e-09
2.006008517822051446e-09
2.131483176780202636e-09
2.192728008592866684e-09
2.171695447402785282e-09
2.038388294223770388e-09
1.807665054096305614e-09
1.515791892497433360e-09
1.239107221306288687e-09
1.041424041632190627e-09
9.016700632369329008e-10
7.163215963486546426e-10
4.959165116281497779e-10
3.902728318725346406e-10
2.851381108320608407e-10
2.040390001553273987e-10
1.417418881029949440e-10
1.027024212667568682e-10
7.246908315592763304e-11
5.130347281600691552e-11
3.685634954659108238e-11
2.686139773085963732e-11
1.994288319919635341e-11
1.508463511818690492e-11
1.158320974168284286e-11
8.987077959248670219e-12
6.997184090410276067e-12
5.427593349688674960e-12
4.166395003885027463e-12
3.147789648556198306e-12
