# bin_8_4
6.173052040984619540e-11
6.654907823584775559e-11
6.978035060594137255e-11
7.070265916249871589e-11
6.855915405227548486e-11
6.278735840248930700e-11
5.438574968426205965e-11
4.486121689769790667e-11
3.683226090374555149e-11
3.152671950321582912e-11
2.682611426250355260e-11
1.995279413539514907e-11
1.414163520397141324e-11
1.149901437513447460e-11
7.810482854142190207e-12
5.968557200335873057e-12
4.197993002033577172e-12
3.015589657238995478e-12
2.200039975622538603e-12
1.621430565138027820e-12
1.213848164121865580e-12
9.242991457691461789e-13
7.160042941271748039e-13
5.611483264612147837e-13
4.420814989729959754e-13
3.477114395234424709e-13
2.711174164507611500e-13
2.082861656297387159e-13
1.568462096460557787e-13
1.153018026338393013e-13
8.253763571409782853e-14
