# bin_15_2
3.654049085047213515e-54
4.043225914316569409e-54
4.379126004042617645e-54
4.616915713421109497e-54
4.705670848242004493e-54
4.601662199543212900e-54
4.252860657750455434e-54
3.716870926444492726e-54
3.081286366063748495e-54
2.522949594896437159e-54
2.147414155929281109e-54
1.845744410866891530e-54
1.403842028923143987e-54
9.767352716138606790e-55
7.936570780308681971e-55
5.436397067720579823e-55
4.104984354857089965e-55
2.816882413595499916e-55
2.005953828787962971e-55
1.434103935835780187e-55
1.030877657878322685e-55
7.490911016918959009e-56
5.526317911111524669e-56
4.157550603992277036e-56
3.181116546499671422e-56
2.464305853921165267e-56
1.921790367056918795e-56
1.497797015161765622e-56
1.158585841907560221e-56
8.840043757743726520e-57
6.621149550170852222e-57
