# bin_11_5
4.553728773130365305e-16
4.991507008233582931e-16
5.343590677863366292e-16
5.551434911258403406e-16
5.564895292877357947e-16
5.310259802881208026e-16
4.783252970792284788e-16
4.073014993160908338e-16
3.336791382443063747e-16
2.766355680271859847e-16
2.391239436112240908e-16
1.978761621537784135e-16
1.406354584915233718e-16
1.046974383842230319e-16
8.216734177141610178e-17
5.591944760885892754e-17
4.153548881408357585e-17
2.978930314871325904e-17
2.114195041085141531e-17
1.518598588190922638e-17
1.104796436653496044e-17
8.179349695524077025e-18
6.164019531132276423e-18
4.728378080668016529e-18
3.674116815906082544e-18
2.875232181938837903e-18
2.250664166398670617e-18
1.749665349186438336e-18
1.342488379475520566e-18
1.011390288263257372e-18
7.450839670516895182e-19
