# bin_9_7
7.832259531033927491e-07
8.574547057697201865e-07
9.165159501871099784e-07
9.502772516517781850e-07
9.503869414110607448e-07
9.039859288756326269e-07
8.117879789215371340e-07
6.890989479687182182e-07
5.641314382441077335e-07
4.687888300297104171e-07
4.055238713645119011e-07
3.332914066880718690e-07
2.354442494919658716e-07
1.772041117177404704e-07
1.375087517515840477e-07
9.439654646662075181e-08
6.941217046652776877e-08
5.007007370653970616e-08
3.560761070847896220e-08
2.559432253401463557e-08
1.866355274267120602e-08
1.385069049784908062e-08
1.046412753926595551e-08
8.043858353325639395e-09
6.259950160786982083e-09
4.902941688777119249e-09
3.838180287022365611e-09
2.981901909059469008e-09
2.285092510123212098e-09
1.718483957558717979e-09
1.263224619950904568e-09
