# bin_15_6
2.282261309812493694e-30
2.539545934919927307e-30
2.769505653577630461e-30
2.944963898990068317e-30
3.032403820106242330e-30
3.006869932682894091e-30
2.826486849113554692e-30
2.510132895382714257e-30
2.107398627364624679e-30
1.722739990471907298e-30
1.446124840911404942e-30
1.252415550550261893e-30
9.990660126572052474e-31
6.921540192116452068e-31
5.423452703675607853e-31
3.988933543001700086e-31
2.837083793557549093e-31
1.978554191064592728e-31
1.434037297230240293e-31
1.010704746774741060e-31
7.145358805622317288e-32
5.127695786313966408e-32
3.732946622933067757e-32
2.768064284649324584e-32
2.091576691095651212e-32
1.604677895074294605e-32
1.244349293949784052e-32
9.686860287830069439e-33
7.515528190691772581e-33
5.772249742194674474e-33
4.364505214289470883e-33
