# bin_8_2
1.541472360769589549e-23
1.648307553260423652e-23
1.710510552438596069e-23
1.712844625302740203e-23
1.632610224781611658e-23
1.469401871306917792e-23
1.250321622753773041e-23
1.024251733661399845e-23
8.493570554229068351e-24
7.335380883652087632e-24
6.060630183426982376e-24
4.317417481773995095e-24
3.223766117507673128e-24
2.529384872442218860e-24
1.739205986056530069e-24
1.297752166407517394e-24
9.403339180180288534e-25
6.777033572483785576e-25
4.959083203359281544e-25
3.686271209468743802e-25
2.791743685803502167e-25
2.150964800203411806e-25
1.682129363704473476e-25
1.326569176818091003e-25
1.047869745682341214e-25
8.233009698652442104e-26
6.390467344252076170e-26
4.872546182143352313e-26
3.632392669195584878e-26
2.638330407288282691e-26
1.864434067871228531e-26
