# bin_6_1
1.869347999223609704e-20
1.953426836482069631e-20
1.972221622728884779e-20
1.903049589374541401e-20
1.734446436674194980e-20
1.495236102933894233e-20
1.230854090944386021e-20
1.012709259946400713e-20
8.686093558209802294e-21
7.338370383682945682e-21
5.405518006559366902e-21
3.886863156325188902e-21
3.139463661221319026e-21
2.149479917946317850e-21
1.642002741480873253e-21
1.174004658177207860e-21
8.540804708135604169e-22
6.324486567427938768e-22
4.748932318809779427e-22
3.630263920292956477e-22
2.821589058022542691e-22
2.224434492557341853e-22
1.766377863462452957e-22
1.402744771099347258e-22
1.106246546620912484e-22
8.605444904320735775e-23
6.565354042262634721e-23
4.890001539547726948e-23
3.544801252936591433e-23
2.498856920072296804e-23
1.715011023494113072e-23
