# bin_20_9
2.382810149151147799e-33
2.686784854873688418e-33
2.977674255515879316e-33
3.230229916019911714e-33
3.411423989718879012e-33
3.483063913646965684e-33
3.413590569852461902e-33
3.162280195169919098e-33
2.769939109962658609e-33
2.299481963789550109e-33
1.882361630801247979e-33
1.600641973350896356e-33
1.378787540603752454e-33
1.053327197631691367e-33
7.294557685729458115e-34
5.913790607827241305e-34
4.043051843816780888e-34
3.027110839707146315e-34
2.042076961638325913e-34
1.432826165375063922e-34
1.001628910613294019e-34
7.000616446519380439e-35
4.916435632904000454e-35
3.488008291212669992e-35
2.521914314594611967e-35
1.859434066251901661e-35
1.396803930015495310e-35
1.066360562672746331e-35
8.223836080579739223e-36
6.361424120601717245e-36
4.898997071911417579e-36
