# bin_13_11
1.568374045113738327e-11
1.751513746740936720e-11
1.918621809473172376e-11
2.051512147199360194e-11
2.127347636251575628e-11
2.127530741674544297e-11
2.022794883682537907e-11
1.815629626433077279e-11
1.540138707761908000e-11
1.260734600689265543e-11
1.048691350613207021e-11
9.080593257783692866e-12
7.449961462627601424e-12
5.238594194807511633e-12
3.950809412427077919e-12
3.045975341160352210e-12
2.078721527592138394e-12
1.509476357523776822e-12
1.078741740496169852e-12
7.539192255591671667e-13
5.296569352566255297e-13
3.763019614014898021e-13
2.713418327676382561e-13
1.990046989105266425e-13
1.488640895787911826e-13
1.132586196141985221e-13
8.731879936853436639e-14
6.780260857644833933e-14
5.263996969616212166e-14
4.057396862355680297e-14
3.085949345186770257e-14
