# bin_10_7
5.007720412448842865e-13
5.504350589056136762e-13
5.912808871297395268e-13
6.169622801554060244e-13
6.215493160631182722e-13
5.973685778296526937e-13
5.419351502208713986e-13
4.648566187961955606e-13
3.817678918786830871e-13
3.150342369624496755e-13
2.714489393975404224e-13
2.276982408483063257e-13
1.646565233139378155e-13
1.196126048386455690e-13
9.585034556695619834e-14
6.442798087668247424e-14
4.869481304658630380e-14
3.444473855098643896e-14
2.436122815241471702e-14
1.749231443191664607e-14
1.267557097406339099e-14
9.335598355170232219e-15
6.994251823056861325e-15
5.339105725558726589e-15
4.133295646560505244e-15
3.227422157942567039e-15
2.525234608282502069e-15
1.965485005796796084e-15
1.512090241448615099e-15
1.143555451335947400e-15
8.465545808571252636e-16
