# bin_12_10
1.486639295117056691e-11
1.653984840958235257e-11
1.803426103473043708e-11
1.917244631127260761e-11
1.973622261622288102e-11
1.956296840623869562e-11
1.838107874566080070e-11
1.631692989266843001e-11
1.369401270614664632e-11
1.119452014441299185e-11
9.400523747640909730e-12
8.140462001710327358e-12
6.485745066528766092e-12
4.492658033095994737e-12
3.524638160851551787e-12
2.587263877650466254e-12
1.843462359095557701e-12
1.284287994234379303e-12
9.306963731548710439e-13
6.562004919921632999e-13
4.641203576652207545e-13
3.331860633231345421e-13
2.426439075043201385e-13
1.799989678035096921e-13
1.360578932844239355e-13
1.044147581197861258e-13
8.098308219467681049e-14
6.304617330309776022e-14
4.891111657147279316e-14
3.755959104738039095e-14
2.839246351301413264e-14
