# bin_6_6
2.453114688115098292e-10
2.643990668350588389e-10
2.771524294119071946e-10
2.807248309688770625e-10
2.720679899933762610e-10
2.490419978996592986e-10
2.156068395139347172e-10
1.778170352955342238e-10
1.460368479866003301e-10
1.250315146626288900e-10
1.062944937463214502e-10
7.896688961244440316e-11
5.606573104675602649e-11
4.552373104091671206e-11
3.094990824473612383e-11
2.362631192633714355e-11
1.663207822155196076e-11
1.195256559564117430e-11
8.721117171427432265e-12
6.429790538565193470e-12
4.816183981001917567e-12
3.668832914272517083e-12
2.843383341428029763e-12
2.229148847127842909e-12
1.756452774116368591e-12
1.381560641157461863e-12
1.077131422472522466e-12
8.273346268467340459e-13
6.228216522699769756e-13
4.576815443274489162e-13
3.274945060883882017e-13
