# bin_17_14
2.334850188717006439e-12
2.634365194221064076e-12
2.921777133614738782e-12
3.172525708596672784e-12
3.354341007182371489e-12
3.429381840123023978e-12
3.367374654162403415e-12
3.126562414805243050e-12
2.744586971014065824e-12
2.281987579692197238e-12
1.867301921022172678e-12
1.584882608149095310e-12
1.367215061950174179e-12
1.051305611896389568e-12
7.267856477108615533e-13
5.871664945985741232e-13
4.052379281423600527e-13
3.013209680388793567e-13
2.030605422042853748e-13
1.431140093720170458e-13
9.984001054408658517e-14
6.961790312546514918e-14
4.880538686158840911e-14
3.455027135569881815e-14
2.491573432142320989e-14
1.832326337560886617e-14
1.373192695057414285e-14
1.046423490235177574e-14
8.061286348866886066e-15
6.233952090999297318e-15
4.803195322829111276e-15
