# bin_8_8
1.830427569463986742e-10
2.004766236736523343e-10
2.143971530881408591e-10
2.224406047178625645e-10
2.226370087016527731e-10
2.119883969614382955e-10
1.905699210628276185e-10
1.619358574613531540e-10
1.326059383146451481e-10
1.101100784989954005e-10
9.521916425732896481e-11
7.843393270927130480e-11
5.553007470465985955e-11
4.163965750496138779e-11
3.243211229774091738e-11
2.220456707044790442e-11
1.638154233695079875e-11
1.179366746408846700e-11
8.382435113834731024e-12
6.024913909420204489e-12
4.390751664198128487e-12
3.256469163975768244e-12
2.458428228568994186e-12
1.888874681865213848e-12
1.469400989132504294e-12
1.150644791878536552e-12
9.007992745973952260e-13
7.000070423499745716e-13
5.366583806086885795e-13
4.038222926100217772e-13
2.970506995661325925e-13
