# bin_12_7
5.258662040024690255e-17
5.814530418665440582e-17
6.291882526275743572e-17
6.625974503713836342e-17
6.744716461983193968e-17
6.582869394227311410e-17
6.070521019667516868e-17
5.294069347538752424e-17
4.382842093569844145e-17
3.590601801740744877e-17
3.061286339628865089e-17
2.626132897177282842e-17
1.985181956994733494e-17
1.385190178539760760e-17
1.127618875933163348e-17
7.672787836293197756e-18
5.818672189206684483e-18
4.003029608606303066e-18
2.843120960266499531e-18
2.035419705649158264e-18
1.465354464888323792e-18
1.066716802121489831e-18
7.883911718962566141e-19
5.943170160051284841e-19
4.555044551660227190e-19
3.532880648521548346e-19
2.756886509681283698e-19
2.148741768286498901e-19
1.661273667909697680e-19
1.266348275262728768e-19
9.472340368831092585e-20
