# bin_17_11
1.202500227304877270e-17
1.352109761856106406e-17
1.493492377941786281e-17
1.613504238928361317e-17
1.695261300245094311e-17
1.720835804991408345e-17
1.672081484792786442e-17
1.533951684993636136e-17
1.330759601518285031e-17
1.098387391903469028e-17
9.016367873200398850e-18
7.723097177648799650e-18
6.589619285834543003e-18
4.897624955324080752e-18
3.441503646813749794e-18
2.805229620115058470e-18
1.865604767894157069e-18
1.417977938313145697e-18
9.702546514255539520e-19
6.726438893069186423e-19
4.723674621486755198e-19
3.317900166293067680e-19
2.347737474440473841e-19
1.681976601931527110e-19
1.229444424422337055e-19
9.160831469365265340e-20
6.945970762025381279e-20
5.338897485465166583e-20
4.132273992405513662e-20
3.197230006709407755e-20
2.455239473956899595e-20
