# bin_9_6
3.715231338529145945e-13
4.057227252466705394e-13
4.323201599663840656e-13
4.464693209644850072e-13
4.444002456705142047e-13
4.199885109678266500e-13
3.748996940736804315e-13
3.163542037269086083e-13
2.587317178590740058e-13
2.160721619569609700e-13
1.870105812650320388e-13
1.514233662629413623e-13
1.059759500291531723e-13
8.147810136956726537e-14
6.169713653637512060e-14
4.323898605845484559e-14
3.114530523531099628e-14
2.266684769069357354e-14
1.619325725886973160e-14
1.167357393685222821e-14
8.555532763120217730e-15
6.379755786658413726e-15
4.843678527232487524e-15
3.738832399781131740e-15
2.918113152359664628e-15
2.288950574304685519e-15
1.791810006436068247e-15
1.390096215709025360e-15
1.062465277802545856e-15
7.961243701314741313e-16
5.826197994834276747e-16
