# bin_4_3
1.639647305887277309e-10
1.708405442934431548e-10
1.719132218050828401e-10
1.650994369619430051e-10
1.497627269207991744e-10
1.284906017002548576e-10
1.055870803688791925e-10
8.711205283137340258e-11
7.488136266332860742e-11
6.275077784063388370e-11
4.572764912130759422e-11
3.332549360937637584e-11
2.665771359906634894e-11
1.832045880892556415e-11
1.390717717979540199e-11
1.001710408948461201e-11
7.293773291564119910e-12
5.406753203721199201e-12
4.069341346464686282e-12
3.119204255971891731e-12
2.430565318435977658e-12
1.919628351503672411e-12
1.525752220578424083e-12
1.211685831606198468e-12
9.547495175932101993e-13
7.414626384601550063e-13
5.643601787584883076e-13
4.191576254953388591e-13
3.029128673319646988e-13
2.128905627666811677e-13
1.457138785289861549e-13
