# bin_16_16
9.177909081693150554e-11
1.036576513208165868e-10
1.151067468404927655e-10
1.251722374261500467e-10
1.325918452554959576e-10
1.358557933492564161e-10
1.338070045893411419e-10
1.246974654567618416e-10
1.098434961678191724e-10
9.157229049410834232e-11
7.489367431888041440e-11
6.337132921724260721e-11
5.477515280347516398e-11
4.256767645478266399e-11
2.937141828262146433e-11
2.356782526300775990e-11
1.653279704062494568e-11
1.213614404521964078e-11
8.184873423529892446e-12
5.808922845710842221e-12
4.038264295025113107e-12
2.803869454060071373e-12
1.959976690773184785e-12
1.382711744872984185e-12
9.928865604255940545e-13
7.270568449222676307e-13
5.427132973619506865e-13
4.122698166886122110e-13
3.169788506733511921e-13
2.449763583721017703e-13
1.888808244411780237e-13
