# bin_17_5
9.445829474992701101e-45
1.055109063521762892e-44
1.156079005150407890e-44
1.236558347159196022e-44
1.282808021643444268e-44
1.283550709018199863e-44
1.221190399892694532e-44
1.096815641339333438e-44
9.309899969378965330e-45
7.621862191347811422e-45
6.336639345898392353e-45
5.486364435728105746e-45
4.508004276140509827e-45
3.173550291811323459e-45
2.387894850859090094e-45
1.845782957102346233e-45
1.256986721842313861e-45
9.150171868406285592e-46
6.531166685383811282e-46
4.562481042738812666e-46
3.204730025413044075e-46
2.275528072459866323e-46
1.639879727920587754e-46
1.201906286839030637e-46
8.985206518674235295e-47
6.832510907632992604e-47
5.265641025213977263e-47
4.087984990930876481e-47
3.173831708596004379e-47
2.446806336490343625e-47
1.861607040178327607e-47
