# bin_13_10
1.095049413697464831e-12
1.220841900668943912e-12
1.334536041801846501e-12
1.423267035281155820e-12
1.470978464943938623e-12
1.465304389821296127e-12
1.385712324576511283e-12
1.237567144563603535e-12
1.044549823029197284e-12
8.543449446685367124e-13
7.136613325696322419e-13
6.182402042177842634e-13
5.008745071720718619e-13
3.492654296326437206e-13
2.682971275207407618e-13
2.024862463184706300e-13
1.407019012482987294e-13
1.001728224998261829e-13
7.221741591336708584e-14
5.066338513947694257e-14
3.566768278560903305e-14
2.546095296962512379e-14
1.844370595704794367e-14
1.359835655582372715e-14
1.022196314039309370e-14
7.809137339982172736e-15
6.038238762124990420e-15
4.695102887073934630e-15
3.644485784797441180e-15
2.804650965926755518e-15
2.127349625959367485e-15
