# bin_18_2
2.469563905411118392e-75
2.759423375392739394e-75
3.024691986649776585e-75
3.236856801643330641e-75
3.360067447739829309e-75
3.364498844159288402e-75
3.204359961752243583e-75
2.880827620241902023e-75
2.447761629827340267e-75
2.004403844530633269e-75
1.665128231780272090e-75
1.441359171002385582e-75
1.186971335272003858e-75
8.373090739251302083e-76
6.277526443458848735e-76
4.870981683828495698e-76
3.307410506447243990e-76
2.416531606204279085e-76
1.721211803470579010e-76
1.201569560106355916e-76
8.438606054249161951e-77
5.986652194352488058e-77
4.310381870996626939e-77
3.155847641528364859e-77
2.356900297830052883e-77
1.790693977159076555e-77
1.379166669842279672e-77
1.070364292525628940e-77
8.309956754502381122e-78
6.408143384652290422e-78
4.877984410219066319e-78
