# bin_16_3
2.273119099286050733e-55
2.527508331499839423e-55
2.753884074462738373e-55
2.925053619893762542e-55
3.007708365115133599e-55
2.977035097989298281e-55
2.792087259176867744e-55
2.474318371242079837e-55
2.073406822507560632e-55
1.694871575234825851e-55
1.425390240903266324e-55
1.233967699185159220e-55
9.782488619041849201e-56
6.768966238009299685e-56
5.339819644951758918e-56
3.887860026465780560e-56
2.791125622475147942e-56
1.934571134196406116e-56
1.401975318741242893e-56
9.899708849507657084e-57
7.014062531005612628e-57
5.042903894389559703e-57
3.677832287537167948e-57
2.732863658198779877e-57
2.068793921721863149e-57
1.589543343837500284e-57
1.233779859858998153e-57
9.607614347609551252e-58
7.451932115053117193e-58
5.718773826872443482e-58
4.318765536162853246e-58
