# bin_20_4
9.722822558991633896e-67
1.092606053791923155e-66
1.205998063122478237e-66
1.301767955931684379e-66
1.366225666482934936e-66
1.385143447023498257e-66
1.343408239771438285e-66
1.229972610418753469e-66
1.064894562461720010e-66
8.780446775652057946e-67
7.213542031872033713e-67
6.187320443080525276e-67
5.265581132843740529e-67
3.891571118311601721e-67
2.747297836104022019e-67
2.236580736137837733e-67
1.483708215420601651e-67
1.127901547624176478e-67
7.746084414387061262e-68
5.366632518212298541e-68
3.769309391987830571e-68
2.648617992493068202e-68
1.877106631264982887e-68
1.347622422411265976e-68
9.872193939572155786e-69
7.371260510095683466e-69
5.598991988063959147e-69
4.308825647693675423e-69
3.336885012140177435e-69
2.581546520220072532e-69
1.981052855766675487e-69
