# bin_17_13
1.148246387372643483e-13
1.294122121638460632e-13
1.433433005477415530e-13
1.553946180534494752e-13
1.639712407748949228e-13
1.672510676641191610e-13
1.636836726401393297e-13
1.513832174994633086e-13
1.323895379228886816e-13
1.097883452018569152e-13
8.990551115693900433e-14
7.654908579849104790e-14
6.585297824560780249e-14
5.007511116902070282e-14
3.473929413057266702e-14
2.821579235884678838e-14
1.917551153810069469e-14
1.441280172501595226e-14
9.739780402348247812e-15
6.814457191250083827e-15
4.769410878725088135e-15
3.337704454623810938e-15
2.346985582720813515e-15
1.667755260568999230e-15
1.208067530991817832e-15
8.923446795461694712e-16
6.714300622081045390e-16
5.132236663982219507e-16
3.960789418982509969e-16
3.064179739727683809e-16
2.358764485667189637e-16
