# bin_9_7
1.259254152883690438e-11
1.379603122075399875e-11
1.475946910985104558e-11
1.532048797136147475e-11
1.534253328410988057e-11
1.461989680258916792e-11
1.315217637170607444e-11
1.118411931374559003e-11
9.159790091305534214e-12
7.601483340688720219e-12
6.572663084812634130e-12
5.423038266182348472e-12
3.844543548279726580e-12
2.875445734744539599e-12
2.245757547783551085e-12
1.534195401190672002e-12
1.134721208380687733e-12
8.158163505327679935e-13
5.795642395803409934e-13
4.164808550140568069e-13
3.033432280948201694e-13
2.248547374381721666e-13
1.696526501581640660e-13
1.302858277353837528e-13
1.013173291804491037e-13
7.932396452382173057e-14
6.209968100227330384e-14
4.826512005529341329e-14
3.701356560290248439e-14
2.786356905303785942e-14
2.050703695223373951e-14
