# bin_11_7
4.472160694224062364e-08
4.044158801758484747e-08
3.558639915092042290e-08
3.047853130421602275e-08
2.546787096820717623e-08
2.085858790119388403e-08
1.682859647071376316e-08
1.340601023015675290e-08
1.051234090608973137e-08
8.070785858919057091e-09
6.083670251762735968e-09
4.571312388659767750e-09
3.450229801290306138e-09
2.597557565850386009e-09
1.968807990037077842e-09
1.505319160595967615e-09
1.160970087815099359e-09
9.020809640592172029e-10
7.043730283947368791e-10
5.505617812581051896e-10
4.289554240086843424e-10
3.317510490008529746e-10
2.537118450890163638e-10
1.912421789609461161e-10
1.417195086448426341e-10
1.030549068130467685e-10
7.345311548718072420e-11
5.129650524662040213e-11
3.511159261670211803e-11
2.358049734273231241e-11
1.556310968041080662e-11
