# bin_16_4
3.563564552338974953e-08
3.148216874626932970e-08
2.705070634677136520e-08
2.265675293257802334e-08
1.858868844643704459e-08
1.502459774282973759e-08
1.200002529074966374e-08
9.437933787708617500e-09
7.259027713469788825e-09
5.473781318252355322e-09
4.119738925132916914e-09
3.118004954205587769e-09
2.351987789962214121e-09
1.789627235456499618e-09
1.373951620714075633e-09
1.065326969527379838e-09
8.326986492951834015e-10
6.543144844804602758e-10
5.147093255658681213e-10
4.034912926607294523e-10
3.138200368710133816e-10
2.411815341928772783e-10
1.825341830037245679e-10
1.356813366050570393e-10
9.886366138945733311e-11
7.053570831821056575e-11
4.926300524039057923e-11
3.369899410282090714e-11
2.260872000416814475e-11
1.490517672771863595e-11
9.677969634623418433e-12
