# bin_16_6
4.490117675805765778e-08
4.052128490834837907e-08
3.556678968979098742e-08
3.037474458569930485e-08
2.531095609033071362e-08
2.068576111455696829e-08
1.666855474426019183e-08
1.326716053164855607e-08
1.038315903323657407e-08
7.942171076973387021e-09
5.970454370287291844e-09
4.491416280245756351e-09
3.390574110425564278e-09
2.550506473205526609e-09
1.937903361222026359e-09
1.483281830840190669e-09
1.146504760848852360e-09
8.927015117911189277e-10
6.982977298259038941e-10
5.465683600878244953e-10
4.262037691512844421e-10
3.297031785919281929e-10
2.520460692909300169e-10
1.897947560366772177e-10
1.404228319378605619e-10
1.018947956485997293e-10
7.243896535609741608e-11
5.044068244593212659e-11
3.441858420893519785e-11
2.304312061043209533e-11
1.516364020242516786e-11
