# bin_14_1
1.828838706042231343e-08
1.535342228928978704e-08
1.262287637817158731e-08
1.022141092248902878e-08
8.178456324635255506e-09
6.446405255467866931e-09
4.973222450949622236e-09
3.764253952625690179e-09
2.842709720894092486e-09
2.159640578113918497e-09
1.639999715400888322e-09
1.256172667590172156e-09
9.726363142492005085e-10
7.608914339621770465e-10
6.003640868422881634e-10
4.760828027859239723e-10
3.776786131463411513e-10
2.982745075536757649e-10
2.334271700888988033e-10
1.802764057686806766e-10
1.369291333081760338e-10
1.020199621593340541e-10
7.442730532705055123e-11
5.311932693861988890e-11
3.709085427838957377e-11
2.536189958847932062e-11
1.701044658062376645e-11
1.121502818246500724e-11
7.285517292880096491e-12
4.674339474162008032e-12
2.968511379801236404e-12
