# bin_8_7
4.045943527697620849e-08
3.631545233699317286e-08
3.172353731519577087e-08
2.699075599709378853e-08
2.243149445662347714e-08
1.829686626274434146e-08
1.471313823372005590e-08
1.167710503539629388e-08
9.112270553165038053e-09
6.964944092998625220e-09
5.244882899725241911e-09
3.948531465761851153e-09
2.982571610754214087e-09
2.250645587721805501e-09
1.712902400257731166e-09
1.314460755311818947e-09
1.017648539449985490e-09
7.931515024937251312e-10
6.205114917720068637e-10
4.853087677224515027e-10
3.778322652813846505e-10
2.916188370941559958e-10
2.223148751100238449e-10
1.668915911139927770e-10
1.230822417450466161e-10
8.903091640159490843e-11
6.310802141703166570e-11
4.382927076518468328e-11
2.984216438051029298e-11
1.994458797371778037e-11
1.310730911669631724e-11
