# bin_17_9
5.634418831674567953e-08
5.193938948990972283e-08
4.660926147264899476e-08
4.068307197393693934e-08
3.456923017391296081e-08
2.868879909641100244e-08
2.337446617470627050e-08
1.878508406598299253e-08
1.490099795956198858e-08
1.160714356962588366e-08
8.837463997610631556e-09
6.627815687745183407e-09
4.978910778247027560e-09
3.744914334031698262e-09
2.808214614588862850e-09
2.126736188788384948e-09
1.620856861879994172e-09
1.246808646937531847e-09
9.656166887517515345e-10
7.509549951397359279e-10
5.842548811755257537e-10
4.528687843632731987e-10
3.483224977488930656e-10
2.648660648798999235e-10
1.985069502754717767e-10
1.462806220728120773e-10
1.058058162005267616e-10
7.504207129328678016e-11
5.217181353887810515e-11
3.556901934630609963e-11
2.380435931345152121e-11
