# bin_16_1
1.853945956515782485e-08
1.557030560992608920e-08
1.280494629713847349e-08
1.037140964947781883e-08
8.300799963371488031e-09
6.544980387066210145e-09
5.050516587360144848e-09
3.822799058096176015e-09
2.886530902847212574e-09
2.192718273125546405e-09
1.664778510543786978e-09
1.274806179210457768e-09
9.868227183764047536e-10
7.718276603572288351e-10
6.089151422251810544e-10
4.828502820288248014e-10
3.830763666765317582e-10
3.025891955045926519e-10
2.368631642360457986e-10
1.829869185271689487e-10
1.390367022204868936e-10
1.036287307605558401e-10
7.562923904554802349e-11
5.399657461778481719e-11
3.771591142404369621e-11
2.579690249332443869e-11
1.730658357007739243e-11
1.141267561614395243e-11
7.415179632794649433e-12
4.758173010362978718e-12
3.022066484883632830e-12
