# bin_14_14
6.434714519025720242e-08
6.009949496758012826e-08
5.469990049898266363e-08
4.845098034657748834e-08
4.176359915947445698e-08
3.509845920744822060e-08
2.887693289782628637e-08
2.337429038488395721e-08
1.867024583138036050e-08
1.468914751465412568e-08
1.132407799553021316e-08
8.552700624039163377e-09
6.403640161718651268e-09
4.806468399995503193e-09
3.600246744408336451e-09
2.700195036512081353e-09
2.042806193926333635e-09
1.555744996235870769e-09
1.194275559933616488e-09
9.220931025417379661e-10
7.138896124700927507e-10
5.521582741244496414e-10
4.249821196167746650e-10
3.242829906825466067e-10
2.444956020810501193e-10
1.816495851454173957e-10
1.327126089845850758e-10
9.521092535562553200e-11
6.702341079431018274e-11
4.628955191752133881e-11
3.138125526033294473e-11
