# bin_16_9
5.558403174410707200e-08
5.118975023033108540e-08
4.589294636810943009e-08
4.002209840906137739e-08
3.398141897750641431e-08
2.818413632034550463e-08
2.295304366819480568e-08
1.843893905885540369e-08
1.461890881210702486e-08
1.138045715744789880e-08
8.661389684864769363e-09
6.496243908466006522e-09
4.881034094509189271e-09
3.671577779548767896e-09
2.754446998636403938e-09
2.086930149335043149e-09
1.591336168249122004e-09
1.224645991990357470e-09
9.487942807313554896e-10
7.380323735689694922e-10
5.742301006599070345e-10
4.450467840297685068e-10
3.422132120327310905e-10
2.601152561581133807e-10
1.948468561897625985e-10
1.434989219910354109e-10
1.037275699346003151e-10
7.351966522175503989e-11
5.108014585619667314e-11
3.480328886351116385e-11
2.327883195643006465e-11
