# bin_18_13
6.740246247584432152e-08
6.318115688173244457e-08
5.772004940843365814e-08
5.131607250640341623e-08
4.438625003803557592e-08
3.741170717361210175e-08
3.084887894525457810e-08
2.501308745580853104e-08
2.001347128039790228e-08
1.578176420454176047e-08
1.219677802326893673e-08
9.223261060277718054e-09
6.901270462599698875e-09
5.177153426085545835e-09
3.875980141467558089e-09
2.900946937543953537e-09
2.190861067512281223e-09
1.664772290536051808e-09
1.275514486902114946e-09
9.832999628547174782e-10
7.605320486278065128e-10
5.880472475340806089e-10
4.527649360377636401e-10
3.458251571478412143e-10
2.611398079249267240e-10
1.944033693984035498e-10
1.423644766879293436e-10
1.024001510559575598e-10
7.228036358222229693e-11
5.005687009075358023e-11
3.402505981031276675e-11
