# bin_20_4
3.675277929354766936e-08
3.251907623046910789e-08
2.797893724970090070e-08
2.345872677275314452e-08
1.926156349731791536e-08
1.557859380722379439e-08
1.245200876782613254e-08
9.802513919320539352e-09
7.544795265124492070e-09
5.689347650613462453e-09
4.280402131707717271e-09
3.239039871548291498e-09
2.441885275984501964e-09
1.856659006706027226e-09
1.424396267113079581e-09
1.103727805642744478e-09
8.623086633886818848e-10
6.774353092392835395e-10
5.329297449610460389e-10
4.179120047023865113e-10
3.252195827172230998e-10
2.501312900055013211e-10
1.894768867757027592e-10
1.409801832028114219e-10
1.028292117685777213e-10
7.343883094527243596e-11
5.133943410636698389e-11
3.514975158978751331e-11
2.359979828779135487e-11
1.556841825199216496e-11
1.011382941865506992e-11
