# bin_7_4
2.990979817013100407e-08
2.616752420876712220e-08
2.229308426348433875e-08
1.854626001158050171e-08
1.513988871363745330e-08
1.218510928779086183e-08
9.683399706608305989e-09
7.569291696229879669e-09
5.794337007799577343e-09
4.368904298484862583e-09
3.296265670374010311e-09
2.497644972618780699e-09
1.891221454814701594e-09
1.446058198163877740e-09
1.115399243274186233e-09
8.685046905138038117e-10
6.809334200634172278e-10
5.358093864831844525e-10
4.213211116687047759e-10
3.295783759737047106e-10
2.553920293356749959e-10
1.953098618977277056e-10
1.469496014147321931e-10
1.085222969443077308e-10
7.853838918117233052e-11
5.565587295488897559e-11
3.862035807483978438e-11
2.626320084306281051e-11
1.752899333300218676e-11
1.150576310557835359e-11
7.443990897875581057e-12
