# bin_13_7
4.668310054027082074e-08
4.234049486099623834e-08
3.736416461777490612e-08
3.208369707132884697e-08
2.686531352993694191e-08
2.203759631162445904e-08
1.780222744200881662e-08
1.420173552342999717e-08
1.115672161762466866e-08
8.579753132017119582e-09
6.469734262490252572e-09
4.857961099638838451e-09
3.665476650013271089e-09
2.757230513513927760e-09
2.086593915897963797e-09
1.593164785231325217e-09
1.226935505873441555e-09
9.522166302478817589e-10
7.429704836838726784e-10
5.805942552725692361e-10
4.524844470288436968e-10
3.502214435034171507e-10
2.681618860275882807e-10
2.024492093755243964e-10
1.502970834599423704e-10
1.095093153713746692e-10
7.821438875028804221e-11
5.473329832759919988e-11
3.753687861434079301e-11
2.525397170955664244e-11
1.669344158487906299e-11
