# bin_13_5
5.163952475992927419e-23
5.701298691406946264e-23
6.158126649758474717e-23
6.470412154601767910e-23
6.569412193334359350e-23
6.387735566207117011e-23
5.865614647954324671e-23
5.093926360959334238e-23
4.206803094767459157e-23
3.450942823925645968e-23
2.951391543476488014e-23
2.520792330031314008e-23
1.883113248800520501e-23
1.323289976114454790e-23
1.078858840846029167e-23
7.265739244082302121e-24
5.540990092117790930e-24
3.835361806438593239e-24
2.713201394054898960e-24
1.946008166221177634e-24
1.403921971785067299e-24
1.025002664695976513e-24
7.603426459667721569e-25
5.751081239173012694e-25
4.420113594140802842e-25
3.435025637250243464e-25
2.682924017203909368e-25
2.090667925708104866e-25
1.614464224067156732e-25
1.228201306787321759e-25
9.162358319499227375e-26
