# bin_20_10
7.744857819564843510e-24
8.735533323122420819e-24
9.684947666376354858e-24
1.051136597853895628e-23
1.110758242808406682e-23
1.134848464387987854e-23
1.113340335703929665e-23
1.032598588305104657e-23
9.055003564785976686e-24
7.523000923781052141e-24
6.157077232690620101e-24
5.230588520768908562e-24
4.509321814993714210e-24
3.456426816918879358e-24
2.391201818730569398e-24
1.935453295821153029e-24
1.329382908935644300e-24
9.920812250601212567e-25
6.686850991043917070e-25
4.702255689875727156e-25
3.283816169167970698e-25
2.292528396176392987e-25
1.608303693814159892e-25
1.139856846126029686e-25
8.229411512802364202e-26
6.058869395546479553e-26
4.545642106748897580e-26
3.466795733404845853e-26
2.671963351500586497e-26
2.066480628638534160e-26
1.591770888899456190e-26
