# bin_18_1
7.608350819279924618e-81
8.493181902970591371e-81
9.298827666853616388e-81
9.936783848276500221e-81
1.029605896359740943e-80
1.028750022216495210e-80
9.768933719194498034e-81
8.757746223660517304e-81
7.420096285658790302e-81
6.072506028255766999e-81
5.056094291969188750e-81
4.378959052106267330e-81
3.582449299155753219e-81
2.513382620854993908e-81
1.903880332319066209e-81
1.460776026630636889e-81
1.000804817211694243e-81
7.233581920944904742e-82
5.182187356522958209e-82
3.624909848782482883e-82
2.547436944570542364e-82
1.811877669703982642e-82
1.307923989616726208e-82
9.605082000023989504e-83
7.192917926636426475e-83
5.477934701734869151e-83
4.226291219377508355e-83
3.282713800145977572e-83
2.548428190770119292e-83
1.963458937135968615e-83
1.492297249714363271e-83
