# bin_17_14
2.160082871636880250e-07
2.435934834179159526e-07
2.700084789820419043e-07
2.929686996270327633e-07
3.094816062711610726e-07
3.160704650809591874e-07
3.099075218820762431e-07
2.872438147603968703e-07
2.517296764649685530e-07
2.090505166388963602e-07
1.711165467233910223e-07
1.454435635550089071e-07
1.253270028875747253e-07
9.588701909655249789e-08
6.637732858364124765e-08
5.377061796528744785e-08
3.684118851502537287e-08
2.753987488468506721e-08
1.857324822437618546e-08
1.304534375164713157e-08
9.114906204977900899e-09
6.366965755861156847e-09
4.468951731054180493e-09
3.169317709206062024e-09
2.289859495115900944e-09
1.687148325135318884e-09
1.266626561432979753e-09
9.665038862547816625e-10
7.451343571841225892e-10
5.763176691753284257e-10
4.438556231880726109e-10
