# bin_11_4
1.961270609286856893e-20
2.145065534197134039e-20
2.290045305125948006e-20
2.370714700521057564e-20
2.366685587611980529e-20
2.245463408864131340e-20
2.011632575677237418e-20
1.703458292308146690e-20
1.393805410071850623e-20
1.160431897094916651e-20
1.004304015317278686e-20
8.208596558782158562e-21
5.772236223988847877e-21
4.382519314559986398e-21
3.369751160551848990e-21
2.330383918776757837e-21
1.699384077415419966e-21
1.231628690875677871e-21
8.774831495774562720e-22
6.312762654672972330e-22
4.613248211873308652e-22
3.430917146362887917e-22
2.597737735042490335e-22
2.000570862535507067e-22
1.558971418070033690e-22
1.221904571105412973e-22
9.565960243321399946e-23
7.427683547411326412e-23
5.685743255075168788e-23
4.269304872575121717e-23
3.132246987907311870e-23
