# bin_20_2
9.411646377352499220e-81
1.056215501542539136e-80
1.163947638784317473e-80
1.253884927828133155e-80
1.312694613064701629e-80
1.327140458208904892e-80
1.281803196469775067e-80
1.168383894259350264e-80
1.007053069259103380e-80
8.286043155477662024e-81
6.821842048605948059e-81
5.868147100161734910e-81
4.961693418082783684e-81
3.621879741890343650e-81
2.588636903945294394e-81
2.094590899773093717e-81
1.387581223918927233e-81
1.051524260358158474e-81
7.281478918667211222e-82
5.046030409487542709e-82
3.543920444437673837e-82
2.492837948160783382e-82
1.772914989118839484e-82
1.279069446325286708e-82
9.414827941766449568e-83
7.061421505488060343e-83
5.383935505749333152e-83
4.153613717058555437e-83
3.219934616066631417e-83
2.489926647505632804e-83
1.907412078786549574e-83
