# bin_13_3
2.760378877023219902e-35
3.036913964295224538e-35
3.266025388726261383e-35
3.412911511903718447e-35
3.443954374609347198e-35
3.318101297330440574e-35
3.017373057580158123e-35
2.594680052520983649e-35
2.132749901235407755e-35
1.757337288653265887e-35
1.512444638293766359e-35
1.274210562512751530e-35
9.268846018415600123e-36
6.679929562174320649e-36
5.387756612450345628e-36
3.608912894518634048e-36
2.741944427900950444e-36
1.930800109001380628e-36
1.364193119447967047e-36
9.795184945584978662e-37
7.089400066208833176e-37
5.212028931218072386e-37
3.897751174722835282e-37
2.970165026774615524e-37
2.296355950618403084e-37
1.791630666372609951e-37
1.401483248392306675e-37
1.091156994950410959e-37
8.401066254934410531e-38
6.360927591366926960e-38
4.715908803362426693e-38
