# bin_8_8
1.135480537896689312e-05
1.243122061850137121e-05
1.328786230367555496e-05
1.377785810228617484e-05
1.378001188215224983e-05
1.310812799495839451e-05
1.177210006465430641e-05
9.993774671486032644e-06
8.181741910329925831e-06
6.798712057473128702e-06
5.880726482682129616e-06
4.833751337737374548e-06
3.415677700625706803e-06
2.570116677646350517e-06
1.994829000087169539e-06
1.369463450483601341e-06
1.007199743870231155e-06
7.265004103200978326e-07
5.167310497290453231e-07
3.715155914144312263e-07
2.709728712424546934e-07
2.011377846375557386e-07
1.519888114325967475e-07
1.168551749794584677e-07
9.095177787917688589e-08
7.124106322259968881e-08
5.577106682240141918e-08
4.332765350365170759e-08
3.320051100736207977e-08
2.496539189539430441e-08
1.834891916111677896e-08
