# bin_13_4
1.318041981506773836e-28
1.452574566548037572e-28
1.565480203163293188e-28
1.640277850698560572e-28
1.660183915221670522e-28
1.606711860391318010e-28
1.467931355766478125e-28
1.268323359219397072e-28
1.044721714287054852e-28
8.587852687838386316e-29
7.369985849951084220e-29
6.253817665133020530e-29
4.606886133587430606e-29
3.275337926458222941e-29
2.662114620247074731e-29
1.782193633741957100e-29
1.360217219201603875e-29
9.497262107241297240e-30
6.706417674257187151e-30
4.814275431934704918e-30
3.478762374643774395e-30
2.548902190629258564e-30
1.898713760624167651e-30
1.441777967424622991e-30
1.111612910719502941e-30
8.657272541141543431e-31
6.767782068838796466e-31
5.271884883035766034e-31
4.065083380383856995e-31
3.085113044193702898e-31
2.294220255297857694e-31
