# bin_13_8
9.327841371052927116e-12
1.035655948081710459e-11
1.126404914477384519e-11
1.193778845662052025e-11
1.224208842673307171e-11
1.207451136777482696e-11
1.127462520000573660e-11
9.950149933630633201e-12
8.308696788035469484e-12
6.792761986766671432e-12
5.733592382977827595e-12
4.957550405454077815e-12
3.881821018307691113e-12
2.683837946626382273e-12
2.142209551654017266e-12
1.529183878699339883e-12
1.117639206889724257e-12
7.678997843897679469e-13
5.548793478071943630e-13
3.933298401708783083e-13
2.799897219276064377e-13
2.019883010796872979e-13
1.478331411021524091e-13
1.102768336434574513e-13
8.376218844230852718e-14
6.453084177094983476e-14
5.016888682806167014e-14
3.908269636348435097e-14
3.029125314412621066e-14
2.320596772817354867e-14
1.748076689824514029e-14
