# bin_19_19
8.634019031748012198e-06
9.802694766476478946e-06
1.095626269228662431e-05
1.200962369421703350e-05
1.284851953133370272e-05
1.332932542884481026e-05
1.333500888910794055e-05
1.268111295195152599e-05
1.138276173473491373e-05
9.655352137361120044e-06
7.904611908191840349e-06
6.578581740563180602e-06
5.699973968696974357e-06
4.673678563112008342e-06
3.278398660383238400e-06
2.472717521198165459e-06
1.898078782523315155e-06
1.287031790048816454e-06
9.240580878388553467e-07
6.522786070979264229e-07
4.465220530836999710e-07
3.049900515517231751e-07
2.093486828913903044e-07
1.449009075505622722e-07
1.014967526652167023e-07
7.239933266266264590e-08
5.266581477799005112e-08
3.911599957679116245e-08
2.958638215722273225e-08
2.267063678329396754e-08
1.747251637492733678e-08
