# bin_11_5
4.978677834036143783e-16
5.459012251730853834e-16
5.846341846044724705e-16
6.076767985687573634e-16
6.094988794452607331e-16
5.820824947074946445e-16
5.247244968348317487e-16
4.471711225953603874e-16
3.664212777204998985e-16
3.036059954083700669e-16
2.623674744352786098e-16
2.174684954254690097e-16
1.548295455711576315e-16
1.149448262694616609e-16
9.045656340350579907e-17
6.144745930230891453e-17
4.575558890247470494e-17
3.276893465382090378e-17
2.324969506140179105e-17
1.670192256494346810e-17
1.214727019094671807e-17
8.990266349539264569e-18
6.772668649319416415e-18
5.193721728739181061e-18
4.034863042405044971e-18
3.157209427455322734e-18
2.471433918363824963e-18
1.921540944444869953e-18
1.474700449594791727e-18
1.111332232179355454e-18
8.190098169231311161e-19
