# bin_19_3
1.103092575147395446e-65
1.235614684003116553e-65
1.358524631951584850e-65
1.459344754373436659e-65
1.522304628519848305e-65
1.532816557138463075e-65
1.471591085683145369e-65
1.333203178741301745e-65
1.141919728403605472e-65
9.372318181152416323e-66
7.743428580103432867e-66
6.683871968713191739e-66
5.592459604772985469e-66
4.016086561754112017e-66
2.928980814700873636e-66
2.334492379599434498e-66
1.556263633456804364e-66
1.165662199166365070e-66
8.167782062071814173e-67
5.674692490902722159e-67
3.984103856717356577e-67
2.810062104495471095e-67
2.008965993154588431e-67
1.458878191890155608e-67
1.080823119758249571e-67
8.154459251466344420e-68
6.246907610087014740e-68
4.833584904150330611e-68
3.750616180361630506e-68
2.897425020073512631e-68
2.213737105947737789e-68
