# bin_10_9
5.646628136561071091e-06
6.235854173358750191e-06
6.737718685619661993e-06
7.082298081916001828e-06
7.194005824866983135e-06
6.999883566840517135e-06
6.432782136886500501e-06
5.590834119239151814e-06
4.619324268284356919e-06
3.788467408877078221e-06
3.238150139194170706e-06
2.767878629730739224e-06
2.072315151698869577e-06
1.454444037185556092e-06
1.185287585844411667e-06
7.999590497590576328e-07
6.093304027426511646e-07
4.212851885525064597e-07
2.982820969407283715e-07
2.138627617317192257e-07
1.542302674286481047e-07
1.125435124059526450e-07
8.343244936349893815e-08
6.306840231445970626e-08
4.844836104055246738e-08
3.763771272433492107e-08
2.939209349895312132e-08
2.290444266419896960e-08
1.769092386936267267e-08
1.346299859241384792e-08
1.004805012789934735e-08
