# bin_18_13
3.403443765922774780e-10
3.839015913739526203e-10
4.256554597961084542e-10
4.620166015652448440e-10
4.882752043744800599e-10
4.989287529462926106e-10
4.895598665162463937e-10
4.541547801869173019e-10
3.983360975494081996e-10
3.309949579868438393e-10
2.708892348267709432e-10
2.300846339719308618e-10
1.983799160833897521e-10
1.521565575561580037e-10
1.052520550404718815e-10
8.515629563135225239e-11
5.854941071575943839e-11
4.365902160881964366e-11
2.942801943394481946e-11
2.070367477621917971e-11
1.445505607238179985e-11
1.008874823411358961e-11
7.076463256726430973e-12
5.014281747448273540e-12
3.619242426656094772e-12
2.663978223149854564e-12
1.998172752115108631e-12
1.523653710157616354e-12
1.174191455821460364e-12
9.080798114082545712e-13
6.995039124673119618e-13
