# bin_16_16
8.590392498766163799e-06
9.697263083552427597e-06
1.076187942205978055e-05
1.169445235937135289e-05
1.237653552062537215e-05
1.266754101259258887e-05
1.245850968332727479e-05
1.158982352453192883e-05
1.019215892021286411e-05
8.485737552690812732e-06
6.941770479491466653e-06
5.882528695734607553e-06
5.080275542146186758e-06
3.927816379014519967e-06
2.712108600617815358e-06
2.184010870748359551e-06
1.519736289480806460e-06
1.122967935348846208e-06
7.565968067748508571e-07
5.352188737528592276e-07
3.727013990164760496e-07
2.593229289983444800e-07
1.815005685062989621e-07
1.282668226499510212e-07
9.228425143126153608e-08
6.770826648296596935e-08
5.063563547619017404e-08
3.852147348414633085e-08
2.964429366289313427e-08
2.291662990072031763e-08
1.766287836299107088e-08
