# bin_3_3
2.307397436084697431e-05
2.379865728487155131e-05
2.366098322006711786e-05
2.234997458570807372e-05
1.994904277797496413e-05
1.684574111728099417e-05
1.378578061848824504e-05
1.150271909432324050e-05
9.928712515656836030e-06
8.045230004198036791e-06
5.690091635726166634e-06
4.359468366262382175e-06
3.327385511498961871e-06
2.358165658641897527e-06
1.733661543525561669e-06
1.276415911128440245e-06
9.362855901251819062e-07
6.979495806644973319e-07
5.301326932461871858e-07
4.101483516244622857e-07
3.223117432153688756e-07
2.559836415923879161e-07
2.039764533633997677e-07
1.618931296526585767e-07
1.271006811221868074e-07
9.808351031547034318e-08
7.401437802954687654e-08
5.441359168214536334e-08
3.889692566551621533e-08
2.705120337619518505e-08
1.834237368397557071e-08
