# bin_6_5
6.781216971563701506e-06
7.270318350116753697e-06
7.570250208764192253e-06
7.609984708805344520e-06
7.294293907855619965e-06
6.600961368233085291e-06
5.648706383947160484e-06
4.635572084550541862e-06
3.829911447355608230e-06
3.300376555385684555e-06
2.756065152039220139e-06
1.988405561416216367e-06
1.457547504368495937e-06
1.161824037874641447e-06
7.912568837954710094e-07
5.978669617343120593e-07
4.289785418166385153e-07
3.084049501995475075e-07
2.254929894380951078e-07
1.671146096191015252e-07
1.261044032208390734e-07
9.681784610434640999e-08
7.550177652004780734e-08
5.943780726979859595e-08
4.691989737286742670e-08
3.688198590725541899e-08
2.867107495349017512e-08
2.191385114524968199e-08
1.638821680164246358e-08
1.194771621639256349e-08
8.476328479251886358e-09
