# bin_17_13
1.045495239865127675e-08
1.177710512961241635e-08
1.303706423736449785e-08
1.412284021677314543e-08
1.488887096844060663e-08
1.517075257593498453e-08
1.482543910093894074e-08
1.368769280318097555e-08
1.195017351289741188e-08
9.899320818433777379e-09
8.109955395228910078e-09
6.914405183147605394e-09
5.939625220912326344e-09
4.494475600587082979e-09
3.124333293271894383e-09
2.542055590812908654e-09
1.717234314138880543e-09
1.295591730614246666e-09
8.773445235535162804e-10
6.120892328788163014e-10
4.288979950588408719e-10
3.005157987102774812e-10
2.115713633290432366e-10
1.506222540413662311e-10
1.093101158497391884e-10
8.089141107791871886e-11
6.096843814552878062e-11
4.666013864066577526e-11
3.603374555985380467e-11
2.787845113968653529e-11
2.144965501376500155e-11
