# bin_11_9
9.734170008357575761e-07
1.077762446232440256e-06
1.168194423967624271e-06
1.232804828423754508e-06
1.257888533258852920e-06
1.232033740705421336e-06
1.140765640006072833e-06
9.987844250825889004e-07
8.289982411902530201e-07
6.785206910116708788e-07
5.766765581308715742e-07
4.963553476084422301e-07
3.795050704532042356e-07
2.635581269424907451e-07
2.136585810644637433e-07
1.473373965144175332e-07
1.107364818149077711e-07
7.589298201866187382e-08
5.419823685678540249e-08
3.870047196694205838e-08
2.778325509370178225e-08
2.016646712870723208e-08
1.485866997464019580e-08
1.116369010723511429e-08
8.532248906640044964e-09
6.604191497893145940e-09
5.148028207780714684e-09
4.012158881148390047e-09
3.104611980138491774e-09
2.370422194419859076e-09
1.777089155068911353e-09
