# bin_7_5
1.207417488703823615e-11
1.299750851253531953e-11
1.360370398007302938e-11
1.375532700972161302e-11
1.329813425622339919e-11
1.213956212963479924e-11
1.048118384014176059e-11
8.631883689699927914e-12
7.096943774014482970e-12
6.087227515543187256e-12
5.157430647664986805e-12
3.803278511817816188e-12
2.716495428966726625e-12
2.203011654176841701e-12
1.492548799196730936e-12
1.140631210714507879e-12
8.063583960674808736e-13
5.788951795024317487e-13
4.227855049865222461e-13
3.121215615816915188e-13
2.342086221398753902e-13
1.788165209453458520e-13
1.388025114838841822e-13
1.089395034691440956e-13
8.588650367990746872e-14
6.754661539066624541e-14
5.262343286584615147e-14
4.036776125701287248e-14
3.033574433983540514e-14
2.224446873507700167e-14
1.587942405053936199e-14
