# bin_17_5
1.020960596272562288e-44
1.138676664041573601e-44
1.245369883859082068e-44
1.329086448731792633e-44
1.374872608324712838e-44
1.371079350991552342e-44
1.298525536654301100e-44
1.161246067263605193e-44
9.814242173329041375e-45
8.028375420986798691e-45
6.698564894908950723e-45
5.803075768522082366e-45
4.718607380284192571e-45
3.296015222483010122e-45
2.519746497436840297e-45
1.913278849101106902e-45
1.322292946185196693e-45
9.463340911472083319e-46
6.811694515133095486e-46
4.773755574972419396e-46
3.357927596100396486e-46
2.394053915381455159e-46
1.732233257716000340e-46
1.275554153997110601e-46
9.574783417208588693e-47
7.307051611521881232e-47
5.645724846966611632e-47
4.388108167741172863e-47
3.406120256133233178e-47
2.622045975548334984e-47
1.989987892739621909e-47
