# bin_19_8
8.628543039699585958e-35
9.690232290139646270e-35
1.068830127566719109e-34
1.152739387722888066e-34
1.208572000220433852e-34
1.223880918266771787e-34
1.185013099101898077e-34
1.082965521291841135e-34
9.358962387480041681e-35
7.709778219942179631e-35
6.339131925975185974e-35
5.443986472864710125e-35
4.621412170264928628e-35
3.397911333697404737e-35
2.409955093818133294e-35
1.958621309132904126e-35
1.297248676365979341e-35
9.857219016991993140e-36
6.792868944523228919e-36
4.705017935806596229e-36
3.304731557372752704e-36
2.322935153795646802e-36
1.648269399835308813e-36
1.186066889817686208e-36
8.704148007515633239e-37
6.510688037967863011e-37
4.952992561646147672e-37
3.815385372531691985e-37
2.955818772703050044e-37
2.286175359968959171e-37
1.752992266158672206e-37
