# bin_18_17
6.341101026306653650e-11
7.174397892261756918e-11
7.984242473269720851e-11
8.706090133930885811e-11
9.253656620705298094e-11
9.520847475201186485e-11
9.429602105842512102e-11
8.848464095799236754e-11
7.844401587261050952e-11
6.575104424399965701e-11
5.375693716158344443e-11
4.522635880973205786e-11
3.917655202466493679e-11
3.105112535061432108e-11
2.143192844978007078e-11
1.690125929873018509e-11
1.224367799909187347e-11
8.735018367365844653e-12
5.964183083387309999e-12
4.266875967510552232e-12
2.948113738480635322e-12
2.029862894154443913e-12
1.410615438693004160e-12
9.889560484831072671e-13
7.042239566841951653e-13
5.112068613976307825e-13
3.785014336882955700e-13
2.855865717994230742e-13
2.185734283566259766e-13
1.685948821126503809e-13
1.300751998288555971e-13
