# bin_18_10
5.326870158052883591e-23
5.983632877767447790e-23
6.601701148220250380e-23
7.122330709123559169e-23
7.470410734403008755e-23
7.568547290072893428e-23
7.333344090922776060e-23
6.706830133511684123e-23
5.800413873704808317e-23
4.780028650408153561e-23
3.928875707591652406e-23
3.372419249834517719e-23
2.865893734307863099e-23
2.111591902691695748e-23
1.494640980051034829e-23
1.215798649766797083e-23
8.055921189377757289e-24
6.123668214570294994e-24
4.214108569068559461e-24
2.918908006039363338e-24
2.050230982947597272e-24
1.440935873960246533e-24
1.021831158464625509e-24
7.347246991129565381e-25
5.387588693573149987e-25
4.026886613275397104e-25
3.061526919129164879e-25
2.357366719668680989e-25
1.825955114485776744e-25
1.412379525078319382e-25
1.083288663909914512e-25
