# bin_13_7
1.574570661656298997e-19
1.743002469147664991e-19
1.888846442524284305e-19
1.992826301632842366e-19
2.032810875427909294e-19
1.990284953999403412e-19
1.842011130785101156e-19
1.612060331160114227e-19
1.337589590740467950e-19
1.094855458948072736e-19
9.308654762610596628e-20
8.010174811483466120e-20
6.116524662679316730e-20
4.248860759899749289e-20
3.447488572271504331e-20
2.372877699787948740e-20
1.786248252282119136e-20
1.224305538640881205e-20
8.738097810935885630e-21
6.242918296717940654e-21
4.484666994076509569e-21
3.256600183530773684e-21
2.401339552426955143e-21
1.805164158335515269e-21
1.380308158514364924e-21
1.068826315598474519e-21
8.333318682356913603e-22
6.494763922110786349e-22
5.024929929580128380e-22
3.835497179860123344e-22
2.874254001186054926e-22
