# bin_17_14
2.524733195828560600e-12
2.844450994600455195e-12
3.149453588458649950e-12
3.412769528605266635e-12
3.599282956337600646e-12
3.669078788901032780e-12
3.587978454608706797e-12
3.315192846457136729e-12
2.896561152884837003e-12
2.400598467261082384e-12
1.966285842300371953e-12
1.675441004916378818e-12
1.440266841657231714e-12
1.092207633134892477e-12
7.584775782915259680e-13
6.167411850267725132e-13
4.176474819730969694e-13
3.146515406438817283e-13
2.128471764505066998e-13
1.486621848394169233e-13
1.041230105513747366e-13
7.292188089460736481e-14
5.129993597814504905e-14
3.650175780360223051e-14
2.646422470744033556e-14
1.956572216113169271e-14
1.473546835891905930e-14
1.127041975826545015e-14
8.700523369535009693e-15
6.730796585448143458e-15
5.179485463969761173e-15
