# bin_15_15
1.053937947856777204e-10
1.185731401499826961e-10
1.310670452258191825e-10
1.417316869853371212e-10
1.490917457999141464e-10
1.515402477905676807e-10
1.475528587997136722e-10
1.356676808530265301e-10
1.179635682072987159e-10
9.748316425950147314e-11
7.995731339559598163e-11
6.838012744826732309e-11
5.850033370049920381e-11
4.375513725193849950e-11
3.060771941029982036e-11
2.495812726522213309e-11
1.666687171254972840e-11
1.265136397834868985e-11
8.622177878991175038e-12
5.985762127863661059e-12
4.201933033664103174e-12
2.949843436165994199e-12
2.083119597952390614e-12
1.489592443478824219e-12
1.085926755323907028e-12
8.071637273699523209e-13
6.107627662964517410e-13
4.687450444367790865e-13
3.625202417515402164e-13
2.804811498868301810e-13
2.155252169036505365e-13
