# bin_18_7
1.999231629768897122e-36
2.238952802746951808e-36
2.461145037001036392e-36
2.643167785681273972e-36
2.756421037320377542e-36
2.774583555521546022e-36
2.662554801003907553e-36
2.411080652111657679e-36
2.064168494583022666e-36
1.693877319584498245e-36
1.399881075929737524e-36
1.208627810586909154e-36
1.010457269337761443e-36
7.247542230236849480e-37
5.294077339220609736e-37
4.214222251975608507e-37
2.811165680768339723e-37
2.103438615101677998e-37
1.475204795818001561e-37
1.025152566556269687e-37
7.197174639655622794e-38
5.077474555441890652e-38
3.630979815790544508e-38
2.638374840743651770e-38
1.955269103858156656e-38
1.475713317407338282e-38
1.130821582250100768e-38
8.750800188283484085e-39
6.789968150989191283e-39
5.244490801719513550e-39
4.005801800957772348e-39
