# bin_12_1
2.087227872213154346e-51
2.275752306588772271e-51
2.420252856783778058e-51
2.493391580204956346e-51
2.474552968373793773e-51
2.329493418298078475e-51
2.071711841850915252e-51
1.741953175687183659e-51
1.423987196612254888e-51
1.192948960588831806e-51
1.032588080864057265e-51
8.281175501736511852e-52
5.766001028346591083e-52
4.491767081014973772e-52
3.348101886819736364e-52
2.378982117471260820e-52
1.691555686351218270e-52
1.237338084955879176e-52
8.866544829678280665e-53
6.405920378524310508e-53
4.710208670893282637e-53
3.523094191831806464e-53
2.683094967408632360e-53
2.075895988184876681e-53
1.622932519051048232e-53
1.273977030549848245e-53
9.970353440454867685e-54
7.726448949648558593e-54
5.894272141757207646e-54
4.405464973013136424e-54
3.214094819162551852e-54
