# bin_15_1
6.869795356185543675e-69
7.587687163185300249e-69
8.199997501780265385e-69
8.621733274312738703e-69
8.760478418154366239e-69
8.528286539024559520e-69
7.841491696237206935e-69
6.818767136409129276e-69
5.635396897815657767e-69
4.620773502967172179e-69
3.948136683519300300e-69
3.377082759615936263e-69
2.532060382051107844e-69
1.775019036193685343e-69
1.446999778412031670e-69
9.772395916902868000e-70
7.443517806905301308e-70
5.142154538330062982e-70
3.641842297014727367e-70
2.611361677288132797e-70
1.883323256089889849e-70
1.373902229571440693e-70
1.018503417765791953e-70
7.696912717827747711e-71
5.911501727682477231e-71
4.591992990952975725e-71
3.585805431736953133e-71
2.794367728175140869e-71
2.158489054353912831e-71
1.642840838790980338e-71
1.226323071804018798e-71
