# bin_18_1
5.642066004582312938e-86
6.291827884324470449e-86
6.880343379731398864e-86
7.341493662172179224e-86
7.592615072223669081e-86
7.569512501717651540e-86
7.166253231772700463e-86
6.406397541692012126e-86
5.412529889283279673e-86
4.427449182272213810e-86
3.695211437326293608e-86
3.201213832936452498e-86
2.600551281703903664e-86
1.815680112114868325e-86
1.389802625733113850e-86
1.053657755398093670e-86
7.292088750723611663e-87
5.211665302371027049e-87
3.753051958834629808e-87
2.630924994910289852e-87
1.851030169723669360e-87
1.320136525989758375e-87
9.554922206326669479e-88
7.038364753761258796e-88
5.284977020466910346e-88
4.034345792864674166e-88
3.117671838430469935e-88
2.423379410548494185e-88
1.881012912826948266e-88
1.447834436065017310e-88
1.098609465404069017e-88
