# bin_20_2
6.657113981573598222e-86
7.463690185342410800e-86
8.215615379800785617e-86
8.838208051229842778e-86
9.236769377061549236e-86
9.320348180306915907e-86
8.976111212265339847e-86
8.157717998166349347e-86
7.010013647180827027e-86
5.760529365110826912e-86
4.750342296213886474e-86
4.093475709315735044e-86
3.444467348264885804e-86
2.494055740828803423e-86
1.799476279675640976e-86
1.446760785911268741e-86
9.602351725220347200e-87
7.243455483470358390e-87
5.044031251977915796e-87
3.498914837097378130e-87
2.456821970077646781e-87
1.729910217306009275e-87
1.233134873080232876e-87
8.925519162548560907e-88
6.589120064450517062e-88
4.955727913146786153e-88
3.786997562952944813e-88
2.925605057560317113e-88
2.268910279102465998e-88
1.753606294813175374e-88
1.341578425017805481e-88
