# bin_13_6
2.969132941883085622e-23
3.280487520353708436e-23
3.546655579026252746e-23
3.730959968328992574e-23
3.793160323032972447e-23
3.695762950977356689e-23
3.401340650067751580e-23
2.960493200784327274e-23
2.447994976685442958e-23
2.006615277474819867e-23
1.713357972505791092e-23
1.467059460849294537e-23
1.102838129321338672e-23
7.717775312209038662e-24
6.290956869291870967e-24
4.256961227456951643e-24
3.239486943575664149e-24
2.234642535257977818e-24
1.583800084568147909e-24
1.135291401495551767e-24
8.184630085776453833e-25
5.966834543852437503e-25
4.419923145159281726e-25
3.337693332652895480e-25
2.561896594895686606e-25
1.989206881191151463e-25
1.553035635614811540e-25
1.210311049650760485e-25
9.351340854316174109e-26
7.120433087791280069e-26
5.318213326560588316e-26
