# bin_15_5
5.773654800929159212e-36
6.405733589903881852e-36
6.961052222694884088e-36
7.369711757004872007e-36
7.548164666912593869e-36
7.432435593173189877e-36
6.925828945428031098e-36
6.100551145241137841e-36
5.086135287304273287e-36
4.158803118052109560e-36
3.516342103801065907e-36
3.038043580061504153e-36
2.365035587205554268e-36
1.635585388678100027e-36
1.311795366754598993e-36
9.279978335964352779e-37
6.836777538665386486e-37
4.685524892430938598e-37
3.378446214177909650e-37
2.399566709019825273e-37
1.712236546604763843e-37
1.237256466908761568e-37
9.073186589098685940e-38
6.781350529813711909e-38
5.159478906305607584e-38
3.980275035393321010e-38
3.096862871707894787e-38
2.412934000648506248e-38
1.869421823143315687e-38
1.430884161712400512e-38
1.076481748834492300e-38
