# bin_14_8
5.621920222652855443e-19
6.249899097471003321e-19
6.808452096297244627e-19
7.230276814460706090e-19
7.432951042191510889e-19
7.355351497365342820e-19
6.896281212436166583e-19
6.109453757630481060e-19
5.118199842637101262e-19
4.183754084142555342e-19
3.519487447449036700e-19
3.046756694413108196e-19
2.413245563173355563e-19
1.669433249039741917e-19
1.318356812145517423e-19
9.585124930858840133e-20
6.890904616859247828e-20
4.771417032201063020e-20
3.458413491809699325e-20
2.442878992364589721e-20
1.731446407580541088e-20
1.245189156976236470e-20
9.085820295139561390e-21
6.753621930584150048e-21
5.113361322202302498e-21
3.929725462175315611e-21
3.050453694684709056e-21
2.375265869330827340e-21
1.841982938516578079e-21
1.413156243130084680e-21
1.066780833490348502e-21
