# bin_16_2
1.933017181696982578e-64
2.144099557067471236e-64
2.329256389573643912e-64
2.465055680584884927e-64
2.523599365717991549e-64
2.483354373536331213e-64
2.312330298692160794e-64
2.035347495767847731e-64
1.695964877834299620e-64
1.386870854333564735e-64
1.173355695216118766e-64
1.013379865889462229e-64
7.872007028529375203e-65
5.445745168657492226e-65
4.374270801601247023e-65
3.084547684364538352e-65
2.278533808889489891e-65
1.560945696342567312e-65
1.124299176012446030e-65
7.990907632072381877e-66
5.706637275474801620e-66
4.125883324929639684e-66
3.027482958710925269e-66
2.264234776447515629e-66
1.723689960503460821e-66
1.330316388854789613e-66
1.035314575433613206e-66
8.067078817450241414e-67
6.249095354638746659e-67
4.781713655667015962e-67
3.595829172334758126e-67
