# bin_17_12
2.226371349096194645e-15
2.502611551856702835e-15
2.763439989418544625e-15
2.984474110556334103e-15
3.134422971314132633e-15
3.180214395007283610e-15
3.088189318538839803e-15
2.831055215354139352e-15
2.454317327104096054e-15
2.024996247721851604e-15
1.662744304233940616e-15
1.424949582664623327e-15
1.214752997498908138e-15
9.010424059499722407e-16
6.341273188238106593e-16
5.167584991917922944e-16
3.432815146608466602e-16
2.609873868575039565e-16
1.788150511991548266e-16
1.239258613165837109e-16
8.703684220384553754e-17
6.114469461355295414e-17
4.327943784196984696e-17
3.104279745042876018e-17
2.270452377604631661e-17
1.692896040800291012e-17
1.284416213460859776e-17
9.876108345522147415e-18
7.644966796646851608e-18
5.914328939440263698e-18
4.540133622442949910e-18
