# bin_15_4
1.447318722327319694e-42
1.603688791742001357e-42
1.739943743491136395e-42
1.838447347942510888e-42
1.878562365397119706e-42
1.843766020632418051e-42
1.711360280392540093e-42
1.501874908121094179e-42
1.248599996362148558e-42
1.021471287674846280e-42
8.664589302900442793e-43
7.470637857224762352e-43
5.751329446184249479e-43
3.985270351486565896e-43
3.220163284712299601e-43
2.240914741621485983e-43
1.673194381644693133e-43
1.145244777579605913e-43
8.210405219260283622e-44
5.852115596326144214e-44
4.193044153012405212e-44
3.038560562243728647e-44
2.235328703685538982e-44
1.676318813900558402e-44
1.279137003346963111e-44
9.889727166642633072e-45
7.704394784350487798e-45
6.004195753904025243e-45
4.648272955583796924e-45
3.552275657875682324e-45
2.666484870295930556e-45
