# bin_14_12
1.779197206540217100e-11
1.990554539413782866e-11
2.185433383940927385e-11
2.343518857268230214e-11
2.439212827697986084e-11
2.449885095513875950e-11
2.343515490294162224e-11
2.115594995268238609e-11
1.805368769039862168e-11
1.480000800454026970e-11
1.225689998741231158e-11
1.059635485091416236e-11
8.804842512877276460e-12
6.268082331769785290e-12
4.629248054677767731e-12
3.647542792288577262e-12
2.449200604806892394e-12
1.815821659051876596e-12
1.281824288844215687e-12
8.924300596407859939e-13
6.265496406679981302e-13
4.430006635138525771e-13
3.177110777374007876e-13
2.316364844908703643e-13
1.722297614224705077e-13
1.303690436069991394e-13
1.001266284180443409e-13
7.758364502166224915e-14
6.021629325592606624e-14
4.647862653623956229e-14
3.544830468903458937e-14
