# bin_18_12
3.096207731368385825e-17
3.485409509211646908e-17
3.855339158586794442e-17
4.172607607131140607e-17
4.393989329200080553e-17
4.471509109518091846e-17
4.361660575129062973e-17
4.018389416576230110e-17
3.500983522163774344e-17
2.896444798577733495e-17
2.374211655333040361e-17
2.027483721308081051e-17
1.738263607952811815e-17
1.307471666402383195e-17
9.114990125172570294e-18
7.428310825607311634e-18
4.984850381101619266e-18
3.775292769981076671e-18
2.564355877841263757e-18
1.783698490756841616e-18
1.251313325210364939e-18
8.778144981689543748e-19
6.189296247191744900e-19
4.416795621360940814e-19
3.212712619298773157e-19
2.382850063592471691e-19
1.799668482828358939e-19
1.379342724632601920e-19
1.066028473234205973e-19
8.247851221660535263e-20
6.341719809345888671e-20
