# bin_5
0.000000000000000000e+00
6.024253045889921833e-203
2.005796903998057632e-161
6.306220615961077863e-128
9.546213625812410325e-101
1.126989159948724217e-78
8.985599685069530347e-61
2.675953953688538768e-46
1.173097620573045421e-34
2.296892840803460501e-25
4.967340758599225862e-18
2.497587737312317212e-12
5.410332783258516565e-08
8.464902390924694639e-05
1.485576355699874673e-02
4.307471877430382179e-01
2.954015791562330406e+00
6.697084694103947911e+00
6.413361288224439072e+00
2.838393443487801981e+00
5.889733874780544998e-01
5.930181471387649395e-02
3.090337094700169440e-03
8.999000218064906410e-05
1.580774042409515268e-06
1.798668293904078486e-08
1.413541803841144144e-10
8.122487072836291796e-13
3.588367780035711709e-15
1.273700486701704564e-17
3.775331048550824070e-20
9.665247090814329753e-23
2.201132734423588825e-25
4.575513644751576905e-28
8.878910739479901524e-31
1.640321030992655319e-33
2.934823189734106034e-36
5.161781902353974591e-39
9.041202254613496878e-42
1.595040380565593761e-44
2.862210683022003101e-47
5.268837115994461469e-50
1.002332193210569339e-52
1.983143564272604030e-55
4.103153159603992402e-58
8.919438613303320601e-61
2.045260130324723034e-63
4.963878874717074070e-66
1.278769476950751397e-68
3.505037558176917815e-71
1.024168731159884458e-73
3.195343005275163571e-76
1.065805194310482374e-78
3.804302495628550702e-81
1.454191649541031858e-83
5.955707185059136255e-86
2.614210714232244787e-88
1.229982625204404470e-90
6.202950533207817633e-93
3.352515663624652073e-95
1.941325132592658942e-97
1.203977958458998658e-99
7.993393014070698377e-102
5.678093772174494136e-104
4.312910536583033785e-106
3.500643835261029084e-108
3.034079980592060473e-110
2.805962752592918846e-112
2.766761174137154953e-114
2.906316655148318200e-116
3.249615574800207872e-118
0.000000000000000000e+00
0.000000000000000000e+00
0.000000000000000000e+00
0.000000000000000000e+00
0.000000000000000000e+00
0.000000000000000000e+00
0.000000000000000000e+00
0.000000000000000000e+00
0.000000000000000000e+00
0.000000000000000000e+00
0.000000000000000000e+00
