# bin_20_2
-1.812001144146610920e-83
-2.033200945287868797e-83
-2.240175074399618123e-83
-2.412727096701515374e-83
-2.525170050651207986e-83
-2.552143571745872674e-83
-2.463780320304649734e-83
-2.244661129378313178e-83
-1.933737521279967016e-83
-1.590727069402073421e-83
-1.309972447931251046e-83
-1.127178317863599773e-83
-9.523160844546134209e-84
-6.942145711457105513e-84
-4.969346269631088994e-84
-4.017153938622001144e-84
-2.661813122809897209e-84
-2.015962469834516487e-84
-1.397423164875654419e-84
-9.686656802460251336e-85
-6.804049862858349349e-85
-4.787771764651398450e-85
-3.407302843181277417e-85
-2.460163152597629071e-85
-1.812306152510015490e-85
-1.360293875575306439e-85
-1.037771901509108999e-85
-8.009338146537939882e-86
-6.209848669237869232e-86
-4.801546633872794059e-86
-3.677148627627547520e-86
