# bin_18_20
-6.907136044676247148e-09
-7.841650456741007739e-09
-8.763851716490656779e-09
-9.605633158475773789e-09
-1.027554345700951499e-08
-1.065864118197966137e-08
-1.066154008129224215e-08
-1.013655223799258544e-08
-9.096898445973172499e-09
-7.714779642104541201e-09
-6.315651508546854293e-09
-5.257044720543330494e-09
-4.555077166075489931e-09
-3.733141136465092358e-09
-2.617622076167237606e-09
-1.975807606979370006e-09
-1.515398403321779357e-09
-1.028252726597528417e-09
-7.376654058399915730e-10
-5.209726329341437827e-10
-3.567258199780040877e-10
-2.437035205824814705e-10
-1.673506728659883300e-10
-1.158886158330107707e-10
-8.122365385483777162e-11
-5.797652020498762519e-11
-4.220281476010866882e-11
-3.136458440461838094e-11
-2.373528565723825470e-11
-1.819305206900721126e-11
-1.402324180583861009e-11
