# bin_17_6
-7.955090174127762932e-36
-8.888542959833307675e-36
-9.742836006342208712e-36
-1.042611973862948579e-35
-1.082295786208021683e-35
-1.083707955365608656e-35
-1.032141911603202899e-35
-9.278806887168377164e-36
-7.883966331041414232e-36
-6.455786915003352562e-36
-5.363035920391537336e-36
-4.642496048734078856e-36
-3.823121785836902861e-36
-2.696660563927849489e-36
-2.021916182532358436e-36
-1.568934320971013543e-36
-1.065324470139878574e-36
-7.784450611060514217e-37
-5.545683405455092709e-37
-3.872077922075267318e-37
-2.719847880044393750e-37
-1.930064690292196797e-37
-1.390028630595069436e-37
-1.018114734076664859e-37
-7.605410086665919134e-38
-5.779835803524428511e-38
-4.452366761781207420e-38
-3.455710193512145455e-38
-2.682838383290693645e-38
-2.068609269412290414e-38
-1.574353334403580051e-38
