# bin_2_3
-4.514004812855055871e-08
-4.598934086654814126e-08
-4.498457963507243197e-08
-4.164506541712050557e-08
-3.646663366389036567e-08
-3.031207379806693259e-08
-2.482256782085500783e-08
-2.103419257142100592e-08
-1.803464476546216701e-08
-1.389543452832235734e-08
-9.784214258128023706e-09
-7.835285146960511029e-09
-5.595385269982358586e-09
-4.183004448847537127e-09
-2.993076046118236341e-09
-2.214415362482308117e-09
-1.645974615570958354e-09
-1.241718058428308830e-09
-9.544612297356145986e-10
-7.461653046538835313e-10
-5.913949481012310865e-10
-4.720394569723379389e-10
-3.766220064328261026e-10
-2.982171165151637375e-10
-2.327763449378894115e-10
-1.780743369404640387e-10
-1.328995999298187427e-10
-9.650018330540403755e-11
-6.812382344280974705e-11
-4.682919855782865622e-11
-3.143531497809994105e-11
