# bin_2_1
-5.616974519006755027e-08
-5.553870203996223643e-08
-5.212926410367924273e-08
-4.626479571857729907e-08
-3.889358049505583330e-08
-3.183798861705749320e-08
-2.667601990901289527e-08
-2.296716831898790995e-08
-1.835671244047158611e-08
-1.299914376342843166e-08
-1.007983203408963437e-08
-7.573682091935349779e-09
-5.468983290648492067e-09
-4.014256515914094172e-09
-2.978639465235282384e-09
-2.215242646529729911e-09
-1.676869815629802832e-09
-1.294303850997597142e-09
-1.016809346954389151e-09
-8.096409606139402169e-10
-6.492443228828193905e-10
-5.202807925581108346e-10
-4.136128270874625533e-10
-3.240038020782593283e-10
-2.486349845217299864e-10
-1.860635511648903543e-10
-1.354400967794085316e-10
-9.584651930741364604e-11
-6.605064863427420311e-11
-4.444995019055367753e-11
-2.931255349062950167e-11
