# bin_20_3
-2.036545909854237768e-73
-2.285986414619701538e-73
-2.519806520338522494e-73
-2.715380517991996641e-73
-2.843886758540455079e-73
-2.876485499219365433e-73
-2.780108986368942826e-73
-2.535902160601355001e-73
-2.187317130613617348e-73
-1.800294510204151866e-73
-1.481619658268221591e-73
-1.273925815832834137e-73
-1.078336994515672117e-73
-7.886998369710738571e-74
-5.624914382972562878e-74
-4.557476194699451702e-74
-3.018695263116042893e-74
-2.289692743759282941e-74
-1.583591711381157760e-74
-1.097372614791837397e-74
-7.708604649271880606e-75
-5.422327245021276434e-75
-3.855072362951657037e-75
-2.779904325694443544e-75
-2.045204482830314312e-75
-1.533279081005189857e-75
-1.168600637580303759e-75
-9.013384227405099784e-76
-6.986673140642060533e-76
-5.403033307581048478e-76
-4.139806370855092409e-76
