# bin_19_7
-6.673084154077482000e-38
-7.493903348439091304e-38
-8.265081975926968377e-38
-8.912797950483566665e-38
-9.342814834197259673e-38
-9.459202682240411733e-38
-9.155819862309965347e-38
-8.364505204279680539e-38
-7.226095281465709588e-38
-5.951771827110889659e-38
-4.894436520231556138e-38
-4.204189623168740737e-38
-3.567076472103793415e-38
-2.620259434232240147e-38
-1.860268710467575814e-38
-1.511063005455538082e-38
-1.000875408347943209e-38
-7.603113674405481520e-39
-5.243276182568144095e-39
-3.632455349939987678e-39
-2.551835066850256182e-39
-1.794302975156893471e-39
-1.274078125829003193e-39
-9.172354820829468878e-40
-6.736940714651802083e-40
-5.042840137082570016e-40
-3.838520028171892445e-40
-2.958163925368278358e-40
-2.292251022901839328e-40
-1.772989628148361061e-40
-1.359299713479299929e-40
