# bin_18_2
-6.983147679929373158e-73
-7.797346643255027302e-73
-8.539775492304460114e-73
-9.129373797226303974e-73
-9.464414846452924874e-73
-9.462341234309128900e-73
-8.992974982894973218e-73
-8.068478893585624917e-73
-6.841592013701067763e-73
-5.599887162906873972e-73
-4.659506139901879252e-73
-4.035010640464869062e-73
-3.307397345682535126e-73
-2.323821979635044541e-73
-1.755174704513438246e-73
-1.351128637751058997e-73
-9.232686149557970371e-74
-6.694666715182735846e-74
-4.789136541075018334e-74
-3.348591778270029455e-74
-2.353194671511201000e-74
-1.672915492112271975e-74
-1.207075912819359211e-74
-8.859821811735038732e-75
-6.631578405533460884e-75
-5.048354142953716680e-75
-3.893717940770163661e-75
-3.023995880171940298e-75
-2.347658229815970607e-75
-1.809106796550205330e-75
-1.375403274229736648e-75
