# bin_17_7
-3.232496602108645122e-30
-3.615617468770401852e-30
-3.968254961827270693e-30
-4.253406964313289865e-30
-4.424474888598129353e-30
-4.440807420374179958e-30
-4.243805725285458311e-30
-3.827385722915704130e-30
-3.262895764183188810e-30
-2.674050859844350950e-30
-2.216035659317957566e-30
-1.916503377857389804e-30
-1.589349290551193733e-30
-1.128918103183417592e-30
-8.366234788005116202e-31
-6.570282782264604425e-31
-4.421953732765316722e-31
-3.268461880291919691e-31
-2.312269453216963431e-31
-1.611013303087885762e-31
-1.131261768572171048e-31
-8.006032797357063777e-32
-5.748701527247007174e-32
-4.196162880720754374e-32
-3.124320405824851813e-32
-2.367637042610550010e-32
-1.819988430385423727e-32
-1.410992146226887997e-32
-1.095312958201435080e-32
-8.452661302785605917e-33
-6.443578297359154540e-33
