# bin_12_12
-3.408470896211760323e-08
-3.803373505228071964e-08
-4.162149842461408856e-08
-4.445029134552403675e-08
-4.602194735344748599e-08
-4.594200595237083178e-08
-4.357201824690929724e-08
-3.901649863766562971e-08
-3.301854286627314744e-08
-2.701633551629374209e-08
-2.251612120187858690e-08
-1.950313067436075570e-08
-1.591000259201297465e-08
-1.113967824753219432e-08
-8.474523552835865591e-09
-6.470815185313648432e-09
-4.451609631092891603e-09
-3.203058967955656682e-09
-2.299903990125572303e-09
-1.610425294057523872e-09
-1.132461715163737016e-09
-8.065508638217559718e-10
-5.830103831152350543e-10
-4.287995782645471042e-10
-3.215706989428688359e-10
-2.451946637433968508e-10
-1.893332657204971109e-10
-1.471236654074211618e-10
-1.142118820708974433e-10
-8.795807672846187980e-11
-6.680106731487815869e-11
