# bin_6_6
-5.963123100447360840e-08
-6.422103888594448480e-08
-6.725370159709932119e-08
-6.804511807910847277e-08
-6.584327441011948690e-08
-6.016681666176139723e-08
-5.199982310602657717e-08
-4.284809227191134414e-08
-3.521551263517006128e-08
-3.018402863570971793e-08
-2.560329960634380420e-08
-1.893391668875709769e-08
-1.349634751327667282e-08
-1.094626319950144541e-08
-7.429627804465433453e-09
-5.673586650622270414e-09
-4.004989010773839639e-09
-2.877100589458346277e-09
-2.100737320716424003e-09
-1.550404425756344283e-09
-1.162875063482904495e-09
-8.872268570606471091e-10
-6.884167535462661658e-10
-5.401498066115311581e-10
-4.257879664878318982e-10
-3.348904086133070126e-10
-2.609683560858842363e-10
-2.002719869560548282e-10
-1.505833612488993249e-10
-1.104919695069541857e-10
-7.893292038481549548e-11
