# bin_10_5
-1.713128802125294532e-15
-1.870512003042001609e-15
-1.992738975053460612e-15
-2.057413647544653641e-15
-2.047321038005517565e-15
-1.934051079481556022e-15
-1.725629242227287173e-15
-1.455437531951047562e-15
-1.190132877655019795e-15
-9.942349189000877762e-16
-8.606995665661642515e-16
-6.963392110714682884e-16
-4.866435600806962357e-16
-3.748847316863084410e-16
-2.834472900625435014e-16
-1.988757159588575181e-16
-1.429627431734050563e-16
-1.042600666295030522e-16
-7.452372195641936590e-17
-5.373130850200802053e-17
-3.940975992178886232e-17
-2.941010207198887873e-17
-2.234610647815596002e-17
-1.725874118359260814e-17
-1.347637258496458324e-17
-1.057340638416998810e-17
-8.277097396584983090e-18
-6.420224960653591026e-18
-4.905225652972476828e-18
-3.673605279023231534e-18
-2.686579150010728305e-18
