# bin_6_10
-1.101125603670435101e-12
-1.205916412367710196e-12
-1.289557152291621271e-12
-1.337826135249499196e-12
-1.338876388498189482e-12
-1.274699521015860285e-12
-1.145714120691361724e-12
-9.734400473903247035e-13
-7.970745942938667914e-13
-6.619046911357698095e-13
-5.724410008687281661e-13
-4.714199237043732153e-13
-3.336330868338020211e-13
-2.503102364852808783e-13
-1.948921524109429213e-13
-1.334767230555685166e-13
-9.844571442547495778e-14
-7.091665160224657413e-14
-5.042078276640921002e-14
-3.624953172721376621e-14
-2.642922510493617230e-14
-1.961064332073407184e-14
-1.481274889393241891e-14
-1.138495046086052227e-14
-8.859263232215062774e-15
-6.938592105628764958e-15
-5.432039854007870777e-15
-4.220700635132342477e-15
-3.235006156128040709e-15
-2.433412239647050836e-15
-1.789216887424889083e-15
