# bin_12_2
-2.317327628439588281e-40
-2.533452487658106720e-40
-2.703302733676194929e-40
-2.796705672894244993e-40
-2.789790780959803394e-40
-2.644109485995855692e-40
-2.366423917761442895e-40
-2.001922901521382496e-40
-1.637729234194412242e-40
-1.364616457470943766e-40
-1.181138773439723050e-40
-9.630674769274257003e-41
-6.761318727595960130e-41
-5.151829156924164137e-41
-3.945644704868733801e-41
-2.738014502007470054e-41
-1.989836006885726330e-41
-1.444694588587536345e-41
-1.030234167667825614e-41
-7.416484040456290022e-42
-5.425767027505828414e-42
-4.039491326767463712e-42
-3.061821927376261707e-42
-2.360091638384102749e-42
-1.840324391607831087e-42
-1.442925297313220071e-42
-1.129652014561656662e-42
-8.769017015229868630e-43
-6.708936440724585187e-43
-5.033818043872780149e-43
-3.689698884053077151e-43
