# bin_16_14
-5.448954722758740630e-09
-6.135767267741683022e-09
-6.789199122062099947e-09
-7.350637059870475816e-09
-7.744090644644824116e-09
-7.884630069116831665e-09
-7.696475284340280723e-09
-7.096588105126171443e-09
-6.187846630551902318e-09
-5.121838111973195328e-09
-4.197410119677686594e-09
-3.582176703147720753e-09
-3.073547117282630616e-09
-2.317230956256619787e-09
-1.613582154326462302e-09
-1.314266922265731431e-09
-8.841771337230909021e-10
-6.687389213381273427e-10
-4.537221446543606185e-10
-3.159795405512546120e-10
-2.216152989801973091e-10
-1.554345409361105122e-10
-1.095703520162667255e-10
-7.813170045481660509e-11
-5.680409667235114873e-11
-4.210975430213486999e-11
-3.178767080656694857e-11
-2.435551245495177425e-11
-1.882066507866149842e-11
-1.456234275474580609e-11
-1.119957528446963668e-11
