# bin_8_10
-3.471570992302165553e-09
-3.823326355015105420e-09
-4.117061258962391336e-09
-4.309222957304194072e-09
-4.356377775072895621e-09
-4.208645014463834516e-09
-3.838069899890964497e-09
-3.309982023136656560e-09
-2.724157712375190569e-09
-2.241346870851981798e-09
-1.925658866198110688e-09
-1.629511494529617987e-09
-1.194493814994212025e-09
-8.536678304909606045e-10
-6.919384240844665776e-10
-4.632371601185271332e-10
-3.530352082076930345e-10
-2.473453347045042336e-10
-1.747150184057988838e-10
-1.254581572173546449e-10
-9.073051541755795538e-11
-6.658418532701357346e-11
-4.968945824787772677e-11
-3.779338509759555921e-11
-2.917680626449657228e-11
-2.274252857566338958e-11
-1.778467068461756555e-11
-1.385098681861343655e-11
-1.067332086533712378e-11
-8.091906157304694461e-12
-6.009307921007632142e-12
