# bin_11_5
-1.857415549233419590e-18
-2.035925259815840622e-18
-2.179458833816640998e-18
-2.264133156524744879e-18
-2.269509036866772278e-18
-2.165510111993650068e-18
-1.950463652104553871e-18
-1.660731656409640480e-18
-1.360509709838412867e-18
-1.127967163277795778e-18
-9.750238374239037612e-19
-8.067265755775154177e-19
-5.733032067930851163e-19
-4.269151526188667372e-19
-3.349903804350437121e-19
-2.280547279841238674e-19
-1.693868674448385321e-19
-1.215286915371171317e-19
-8.628397408741301387e-20
-6.200323959985314112e-20
-4.513215655162188932e-20
-3.343282046090122601e-20
-2.520974513426335028e-20
-1.934798107179410297e-20
-1.503991324432444365e-20
-1.177252786004722841e-20
-9.216012385984023451e-21
-7.164039431111880649e-21
-5.495748849264216328e-21
-4.139026947989085236e-21
-3.047917987120420070e-21
