# bin_5_5
-6.979008654818623632e-08
-7.433485784955045589e-08
-7.675904217722156636e-08
-7.640911527310776092e-08
-7.225086098744848210e-08
-6.453501649689661237e-08
-5.450740118263646828e-08
-4.458896883046008540e-08
-3.719624658416008043e-08
-3.215705045810572982e-08
-2.609913345481840449e-08
-1.836757802635982140e-08
-1.407266699847064834e-08
-1.073551448853006058e-08
-7.550471487804225596e-09
-5.510893426592700740e-09
-4.036900549989551631e-09
-2.925122286418757099e-09
-2.147701598121515874e-09
-1.605483584699796787e-09
-1.222377001111009180e-09
-9.466506930699048672e-10
-7.430499628876776554e-10
-5.872561748044788197e-10
-4.641014716487410118e-10
-3.641916629782499531e-10
-2.819118389957756346e-10
-2.140744828592828519e-10
-1.587688722640317409e-10
-1.146479071235593025e-10
-8.053536112615216940e-11
