# bin_8_18
-8.441555489123512621e-29
-9.470617892889892387e-29
-1.043276920175049889e-28
-1.123379158160017332e-28
-1.175393424535437986e-28
-1.187563985476196510e-28
-1.145886139077842949e-28
-1.043440685934823272e-28
-8.984358688985236634e-29
-7.388946720931426422e-29
-6.086434385398908815e-29
-5.238837827747123987e-29
-4.422623454243656869e-29
-3.219313318045801648e-29
-2.308036791829165572e-29
-1.864124117740934879e-29
-1.235254695988082033e-29
-9.350218319710078037e-30
-6.487664866130781512e-30
-4.497599365587413601e-30
-3.159089370441757662e-30
-2.223233108480136971e-30
-1.582867734365066945e-30
-1.143495461914594100e-30
-8.428323158214364088e-31
-6.329402382843013101e-31
-4.830735091886336068e-31
-3.729284536761208146e-31
-2.891713298691021932e-31
-2.235780533991242664e-31
-1.711871452811545295e-31
