# bin_16_9
-1.415442383490747498e-18
-1.583807439963879281e-18
-1.739091917026087262e-18
-1.865144017322287209e-18
-1.941606352693124712e-18
-1.950433944293346881e-18
-1.866185994333850195e-18
-1.685054855792745413e-18
-1.438296453056066449e-18
-1.179148720956448574e-18
-9.763663079641120402e-19
-8.440223121939344725e-19
-7.016451191668923651e-19
-4.997517670737815791e-19
-3.687943623597455116e-19
-2.908207442236860123e-19
-1.951779615726243562e-19
-1.448172108679628347e-19
-1.021904067939927669e-19
-7.114578034803278403e-20
-4.995707152291530062e-20
-3.532291815298917539e-20
-2.533576808479614175e-20
-1.846983989313610680e-20
-1.373514804083167409e-20
-1.039740954651760115e-20
-7.985859970271659641e-21
-6.188406906817031935e-21
-4.803522058469279599e-21
-3.707986955537749701e-21
-2.828285257751865216e-21
