# bin_6_2
-4.675335630456041868e-14
-4.917197118364367472e-14
-5.000759800008891081e-14
-4.877635175399386742e-14
-4.497630126125620868e-14
-3.922743508045812779e-14
-3.249350356533898783e-14
-2.661642379714916202e-14
-2.264952468985227991e-14
-1.940067083154845389e-14
-1.474287530666068583e-14
-1.035893728199897980e-14
-8.392365545686585432e-15
-5.844035373939617355e-15
-4.430845792658772628e-15
-3.128805119593235849e-15
-2.286811174366926860e-15
-1.686877861493211635e-15
-1.259979811289326934e-15
-9.570222384680229610e-16
-7.393150756421887370e-16
-5.800355445835395888e-16
-4.592988029777958012e-16
-3.644926611521129092e-16
-2.878489620883181680e-16
-2.246655500944898803e-16
-1.722663982896784309e-16
-1.291228622605690728e-16
-9.427799176418990897e-17
-6.694450044348873852e-17
-4.625684292441489569e-17
