# bin_15_5
-1.456719211439295919e-33
-1.617572132453828829e-33
-1.759576927721800328e-33
-1.865172578326071660e-33
-1.913146346676936901e-33
-1.887532415211909212e-33
-1.763147739554224165e-33
-1.556562697075755216e-33
-1.300142949467515139e-33
-1.062890195490406784e-33
-8.968723740289375839e-34
-7.755909744896299649e-34
-6.079445653072785400e-34
-4.202996782188535687e-34
-3.352020322934588556e-34
-2.396899303521278934e-34
-1.749445965073266952e-34
-1.202683980596743670e-34
-8.696199926228342683e-35
-6.163827551513221193e-35
-4.387246726121070733e-35
-3.165347334271929868e-35
-2.316990091892304626e-35
-1.728549991963412524e-35
-1.313084986938198443e-35
-1.011711710766189719e-35
-7.866186742508017613e-36
-6.128464636476109716e-36
-4.750263189176061335e-36
-3.639398604827238302e-36
-2.741673696869056919e-36
