# bin_17_17
-2.784743312836924625e-08
-3.149931003607357406e-08
-3.504315051465449868e-08
-3.819449781630141471e-08
-4.057365364344413985e-08
-4.171551299437693346e-08
-4.127717642043986085e-08
-3.868789936548612694e-08
-3.426017247091804437e-08
-2.868909807550581838e-08
-2.345580201561222158e-08
-1.975251683222537485e-08
-1.710581153117160216e-08
-1.351308316382163300e-08
-9.323200906719202695e-09
-7.376851338444975299e-09
-5.314793556215344444e-09
-3.811095778284977920e-09
-2.594581192203475640e-09
-1.855040594625931246e-09
-1.283142513275570489e-09
-8.848647334343721789e-10
-6.157490504877359595e-10
-4.322592050303921039e-10
-3.083702641545597712e-10
-2.242956724936920982e-10
-1.663705902804409117e-10
-1.257245457327999378e-10
-9.632947451837779041e-11
-7.434285431946664405e-11
-5.735562425078569430e-11
