# bin_16_8
-3.211491699427926538e-22
-3.588847791763245084e-22
-3.934474839093005916e-22
-4.211336295409836027e-22
-4.372871560748612357e-22
-4.380012660437278700e-22
-4.173524712738303941e-22
-3.753571942850636998e-22
-3.190752375614804000e-22
-2.613015965992360977e-22
-2.169978010722780343e-22
-1.878237010920497988e-22
-1.548261516907962070e-22
-1.093063716939049789e-22
-8.182569930748641323e-23
-6.360109212934334640e-23
-4.312999385917435324e-23
-3.156697483304066571e-23
-2.246734138518142649e-23
-1.568229526710971292e-23
-1.101489742755094247e-23
-7.813398492485130123e-24
-5.624880685930201196e-24
-4.117968256114371033e-24
-3.074792081933669991e-24
-2.335835193134816752e-24
-1.798848269873916456e-24
-1.395972437535198271e-24
-1.083753773987436884e-24
-8.357322130555802437e-25
-6.361931462780267687e-25
