# bin_16_19
-1.017308873340143533e-09
-1.151991289481538730e-09
-1.283335692627806878e-09
-1.401072436317648250e-09
-1.491435298708604099e-09
-1.537362119588095578e-09
-1.526227489893885547e-09
-1.436483921046368663e-09
-1.277063097546521183e-09
-1.073136879902168766e-09
-8.774698922831265375e-10
-7.363968493742690818e-10
-6.381561262752457409e-10
-5.100262630478121411e-10
-3.527341943788289302e-10
-2.755817510119793614e-10
-2.024484619239855528e-10
-1.425873415768302178e-10
-9.830295788523300752e-11
-7.034177394726476992e-11
-4.849639525971064047e-11
-3.329832350679539438e-11
-2.308548240873565823e-11
-1.614267796964020010e-11
-1.145733642157134897e-11
-8.289301122895994292e-12
-6.116784877896706635e-12
-4.601996621746799272e-12
-3.515095053203469984e-12
-2.708754621241926211e-12
-2.090150739361248827e-12
