# bin_5_16
-7.164440762601760634e-38
-7.977072009132961147e-38
-8.706206463993831672e-38
-9.266894775384267064e-38
-9.553819866429766068e-38
-9.488264888088878842e-38
-8.937191538194307973e-38
-7.951615033559244379e-38
-6.687452876229906329e-38
-5.467399739161354219e-38
-4.581918505038384527e-38
-3.969074784084720773e-38
-3.183237162525445267e-38
-2.208935563947709568e-38
-1.719926738605841685e-38
-1.276309281999128567e-38
-9.004587831177265105e-39
-6.320061178833031671e-39
-4.577831142279561230e-39
-3.221927802695640872e-39
-2.274477934438335395e-39
-1.629887767411526262e-39
-1.185070725311653085e-39
-8.774154201764629694e-40
-6.620287581779586611e-40
-5.073483784300756052e-40
-3.931286799986765417e-40
-3.059467414261405455e-40
-2.374033559801701065e-40
-1.824343930841472452e-40
-1.380587143102599160e-40
