# bin_19_2
-3.243306038535235698e-78
-3.630694467700159430e-78
-3.988820737095759302e-78
-4.280809280714105737e-78
-4.460132659748708702e-78
-4.484798496987939782e-78
-4.297146838117587061e-78
-3.885440251228626658e-78
-3.321233194235117923e-78
-2.724057736425328258e-78
-2.253483290475812809e-78
-1.946878316071794712e-78
-1.622891869162963433e-78
-1.159808982232159883e-78
-8.516887161298864692e-79
-6.746922023123093930e-79
-4.514774612563969603e-79
-3.363695571342539555e-79
-2.366680016458670252e-79
-1.646352844846854356e-79
-1.156046596219644074e-79
-8.166097273594486348e-80
-5.849916492928404746e-80
-4.258307885464866848e-80
-3.162183200000875290e-80
-2.390733907866868415e-80
-1.834448703889502069e-80
-1.420767322338333691e-80
-1.102699722491776598e-80
-8.514744802553709163e-81
-6.498956384427545713e-81
