# bin_13_7
-3.923903515945319317e-17
-4.347373379552902097e-17
-4.715943484172302371e-17
-4.981762056891898921e-17
-5.089022568557150961e-17
-4.992674740229784991e-17
-4.631843374159177667e-17
-4.062920908323135797e-17
-3.376625926746921134e-17
-2.762639311909982356e-17
-2.344305774075286606e-17
-2.020566180800428761e-17
-1.553391271254008919e-17
-1.076873236485054307e-17
-8.707296715191151566e-18
-6.048035870861344985e-18
-4.522092807446143871e-18
-3.096369382727433822e-18
-2.218065499460751612e-18
-1.581762829666167661e-18
-1.133950527606354538e-18
-8.221975671146107504e-19
-6.050585695574305240e-19
-4.540129227925551797e-19
-3.466213579972558208e-19
-2.680840653077922948e-19
-2.088918268897048451e-19
-1.628058168963353936e-19
-1.260303424755547251e-19
-9.629599690131998426e-20
-7.226340844167346000e-20
