# bin_4_19
-2.069150871257799965e-59
-2.318647318686716042e-59
-2.550521129657787992e-59
-2.741443881000781407e-59
-2.861894896093723829e-59
-2.884147882528458004e-59
-2.772439600479825785e-59
-2.514887283900594344e-59
-2.156864672591237409e-59
-1.771072350049338919e-59
-1.462109987882409186e-59
-1.261236358953471346e-59
-1.057736390924296087e-59
-7.620558934448653143e-60
-5.533662712926483209e-60
-4.426838829135367506e-60
-2.945304427960134295e-60
-2.213049440452255339e-60
-1.546932059805899045e-60
-1.074199696386637320e-60
-7.543536454649107406e-61
-5.317939997926207137e-61
-3.798682558587583540e-61
-2.755607364959710711e-61
-2.039398327380687881e-61
-1.537229175199624567e-61
-1.176761290679959557e-61
-9.101319170012843980e-62
-7.061410234735104302e-62
-5.456220885140206065e-62
-4.170719327476468250e-62
