# bin_5_7
-3.656751950657764348e-13
-3.931260910951254829e-13
-4.107720819266262341e-13
-4.145615613957258435e-13
-3.996679492205412368e-13
-3.638183344034781124e-13
-3.132182317838926203e-13
-2.576580054183582413e-13
-2.121712234134183036e-13
-1.822605741053819801e-13
-1.537078014147212619e-13
-1.125617112367258770e-13
-8.105840835544932016e-14
-6.538084615967642236e-14
-4.436255265972236290e-14
-3.378330410826082260e-14
-2.399394921427082457e-14
-1.723157671018852952e-14
-1.258859464130699309e-14
-9.304420612010066222e-15
-6.994268533663804741e-15
-5.348793514711209901e-15
-4.158099329804361295e-15
-3.266666929858420421e-15
-2.576456701303269867e-15
-2.026031715021932695e-15
-1.577405254457296429e-15
-1.208719219199119013e-15
-9.070142088625082810e-16
-6.639418109594595371e-16
-4.730893499105182065e-16
