# bin_6_12
-1.778409622174696220e-22
-1.959637170918618201e-22
-2.111563465095902345e-22
-2.211935038203238379e-22
-2.238193088505832172e-22
-2.165260136208704794e-22
-1.977430795092103015e-22
-1.707835564214920204e-22
-1.406488894220336880e-22
-1.156398412666950549e-22
-9.926572982652213985e-23
-8.418057273468764083e-23
-6.194386311684296294e-23
-4.409163165576354460e-23
-3.581353052617932669e-23
-2.397648223408968625e-23
-1.829298346584206163e-23
-1.278172902847249248e-23
-9.026185114778308699e-24
-6.479741433674022298e-24
-4.682889991366081358e-24
-3.432217745671869206e-24
-2.557615009054874778e-24
-1.942735217882409057e-24
-1.498235018666621286e-24
-1.167027281113857003e-24
-9.123769542199221166e-25
-7.106852546601882826e-25
-5.479298195837967074e-25
-4.157557614063409450e-25
-3.090913284383400525e-25
