# bin_12_10
-1.688884580723291893e-10
-1.867049782254966244e-10
-2.019888249980000377e-10
-2.126587866836744982e-10
-2.164120883947175819e-10
-2.111397931786407013e-10
-1.946513103754520727e-10
-1.696999774899566535e-10
-1.405047846337870020e-10
-1.151528535488033787e-10
-9.817702244664845382e-11
-8.412876111174535411e-11
-6.357146210737053531e-11
-4.446018912382990062e-11
-3.609228148718920528e-11
-2.463895402768885523e-11
-1.861879477328038764e-11
-1.283786528468272644e-11
-9.130789024215463572e-12
-6.531980400955283778e-12
-4.699424495117280834e-12
-3.421349499607525288e-12
-2.529763904102471058e-12
-1.907260771725160589e-12
-1.461889195307059141e-12
-1.133853095925101540e-12
-8.847041379719449319e-13
-6.894044435031510201e-13
-5.328580133328930026e-13
-4.060514063127746230e-13
-3.036157091236282430e-13
