# bin_5_17
-1.810421670374387921e-47
-2.020262413460448840e-47
-2.210951949910076411e-47
-2.361372215773216711e-47
-2.445063589541249506e-47
-2.441060985840981577e-47
-2.315426369196298895e-47
-2.073585303306449045e-47
-1.754996843057234031e-47
-1.435980444697713471e-47
-1.196668985131751958e-47
-1.036560686577155583e-47
-8.458684550210018904e-48
-5.922912864432434751e-48
-4.504049524209980100e-48
-3.440812778197900272e-48
-2.365750393751580282e-48
-1.702783234513005506e-48
-1.222432962517283929e-48
-8.557306856497446839e-49
-6.015489950427648394e-49
-4.282643331810562002e-49
-3.094408868931528914e-49
-2.274902404990276853e-49
-1.705309737831472104e-49
-1.299823081581396016e-49
-1.003439973117252900e-49
-7.796357463493883992e-50
-6.052274391484275655e-50
-4.661530339510238083e-50
-3.540951213230097887e-50
