# bin_4_11
-1.007678252228937852e-27
-1.101128880373733937e-27
-1.174246747172411575e-27
-1.213887983876429516e-27
-1.209778343984476012e-27
-1.145182703208184494e-27
-1.023728472388971241e-27
-8.650496170554431467e-28
-7.075509145667817836e-28
-5.901329922654724454e-28
-5.108410916880513068e-28
-4.153182664744370538e-28
-2.910380172296795951e-28
-2.226800635104834493e-28
-1.697207337587142926e-28
-1.182453593221467547e-28
-8.556825016908859874e-29
-6.223006964617495940e-29
-4.440720234110133192e-29
-3.197726437276298517e-29
-2.341025870124519112e-29
-1.743963131856132225e-29
-1.322727092203415060e-29
-1.020102339030486289e-29
-7.957230831422689222e-30
-6.239943820661652191e-30
-4.884929137547629684e-30
-3.791046131171268711e-30
-2.899242292215362893e-30
-2.174167192279394268e-30
-1.592592604246024252e-30
