# bin_9_17
-2.726791760292414978e-26
-3.055977623583847395e-26
-3.362114020406555873e-26
-3.614491165890094259e-26
-3.774230901805589005e-26
-3.804640449259112840e-26
-3.658773610398477073e-26
-3.320246440658560472e-26
-2.848778577154239730e-26
-2.339596619820816334e-26
-1.930981407336269937e-26
-1.665339970457059454e-26
-1.397668600019967454e-26
-1.008027506650756455e-26
-7.309412894620411615e-27
-5.854039854950113447e-27
-3.892299879887602293e-27
-2.927196700799263833e-27
-2.044256303855792537e-27
-1.419039065217526236e-27
-9.963499818728982028e-28
-7.020753877474864529e-28
-5.011865758353885841e-28
-3.632970962472412064e-28
-2.686759657011323660e-28
-2.023850153702831804e-28
-1.548463687596517928e-28
-1.197228630177719355e-28
-9.287941425300540459e-29
-7.177383986193128736e-29
-5.487925502595113088e-29
