# bin_7_6
-2.089825607733341173e-10
-2.244056093197305056e-10
-2.341286049858272807e-10
-2.358871759351598683e-10
-2.268684436627696256e-10
-2.060455029005873117e-10
-1.769789158489083399e-10
-1.454893760027964471e-10
-1.199927795859103024e-10
-1.031635682389378025e-10
-8.660650933254218669e-11
-6.311985118561654626e-11
-4.580670096685693117e-11
-3.668616291488724418e-11
-2.501400498822044190e-11
-1.893924129303846688e-11
-1.350391695925398893e-11
-9.711504408501291073e-12
-7.096543022422092126e-12
-5.251328563286617641e-12
-3.953312670785792835e-12
-3.027732933178382110e-12
-2.356392682042232991e-12
-1.852522616312072112e-12
-1.461444314542951478e-12
-1.148933155296641464e-12
-8.939029355793125046e-13
-6.842351400077842645e-13
-5.127375326258508487e-13
-3.747321899315006016e-13
-2.665757790179457096e-13
