# bin_4_14
-1.365154392059334857e-40
-1.508593745877887177e-40
-1.631318403062966383e-40
-1.716476076136226465e-40
-1.745515796387637126e-40
-1.701279028423423385e-40
-1.566355421712395313e-40
-1.363861280363452698e-40
-1.128020831819641636e-40
-9.245408650654962042e-41
-7.891953178308284455e-41
-6.759871175476444855e-41
-5.087121261884665259e-41
-3.557963069381491508e-41
-2.899413032613823257e-41
-1.963994067515536495e-41
-1.493510529610843117e-41
-1.029632368602464808e-41
-7.299661323511892608e-42
-5.230667017214600184e-42
-3.769395915293520587e-42
-2.746984351137369290e-42
-2.033308702673438291e-42
-1.534755970437543879e-42
-1.177551915608137953e-42
-9.140211630616935665e-43
-7.135027954788611044e-43
-5.560589180417253047e-43
-4.297038415156530501e-43
-3.272872156943671599e-43
-2.445469812393727495e-43
