# bin_11_17
-7.466505675788639390e-20
-8.386459972264121363e-20
-9.251545434933277296e-20
-9.979309339763520779e-20
-1.046440024568841055e-19
-1.059884113052367526e-19
-1.026491220638882698e-19
-9.383589860096332514e-20
-8.111616560255105526e-20
-6.683198830382139790e-20
-5.494400865537572393e-20
-4.717595862981395096e-20
-4.006163992748592609e-20
-2.947984195181739015e-20
-2.089490420876137658e-20
-1.698365882734099097e-20
-1.125375203625791480e-20
-8.550496623161989211e-21
-5.889202467013363275e-21
-4.079593312875598481e-21
-2.865478041786567474e-21
-2.014182877517770673e-21
-1.429142792522186450e-21
-1.027909027461658591e-21
-7.542562494603883193e-22
-5.640807468667414864e-22
-4.290471624252687531e-22
-3.304799920541656276e-22
-2.560298616680928467e-22
-1.980449031101658416e-22
-1.518833199442074430e-22
