# bin_7_14
-7.374177209740121778e-25
-8.188080907952043201e-25
-8.906419883804511067e-25
-9.440277054305315530e-25
-9.682317575430510494e-25
-9.551645148389790035e-25
-8.921029248968294043e-25
-7.874804119091649263e-25
-6.576926326664513779e-25
-5.376866933704127032e-25
-4.537570471642544311e-25
-3.923749891461222873e-25
-3.074442464426621470e-25
-2.125564258565568360e-25
-1.695638756921785872e-25
-1.211707720682409322e-25
-8.847599748759895070e-26
-6.080889253906200818e-26
-4.395249399726823665e-26
-3.114908625897345253e-26
-2.216714717404940912e-26
-1.598876745943306490e-26
-1.169977812877509579e-26
-8.725647797546706598e-27
-6.626437728627860842e-27
-5.104301647079964248e-27
-3.967943688151058406e-27
-3.091049733834333973e-27
-2.395828249414672232e-27
-1.835599731912740735e-27
-1.382919549714889975e-27
