# bin_1_18
-9.111540924130844397e-89
-1.016608541190343280e-88
-1.112357209307100705e-88
-1.187759373242266275e-88
-1.229490582637416662e-88
-1.227043977923914288e-88
-1.163337087310113057e-88
-1.041367998462246785e-88
-8.809862882110316574e-89
-7.207980873890038203e-89
-6.009021914867971695e-89
-5.205159357579535842e-89
-4.242763747658910395e-89
-2.968822525400057150e-89
-2.261276154359280701e-89
-1.724172999775890352e-89
-1.187428776909356274e-89
-8.531649514727327999e-90
-6.129304046909563395e-90
-4.292098086931556294e-90
-3.017836223332641659e-90
-2.149408517964969366e-90
-1.553669095859784938e-90
-1.142723665212820873e-90
-8.569689898082307832e-91
-6.534308487396437699e-91
-5.045617130206153720e-91
-3.920693711174024559e-91
-3.043540774005528224e-91
-2.343825055192876401e-91
-1.779960135247549377e-91
