# bin_3_2
-6.314570334423059292e-10
-6.300195270479255047e-10
-5.986615846657950518e-10
-5.378286032464215445e-10
-4.574971135145017440e-10
-3.755976108953791505e-10
-3.120578476613270844e-10
-2.680473968403827160e-10
-2.198247125482340903e-10
-1.589194348964020865e-10
-1.190016630056068755e-10
-9.240060266943380334e-11
-6.539004806312901081e-11
-4.885558176875579403e-11
-3.577124497858456315e-11
-2.646566478776932855e-11
-1.992246942427516411e-11
-1.526976207125631155e-11
-1.191786276122227358e-11
-9.439233668520734307e-12
-7.545871149127864356e-12
-6.042481188935667067e-12
-4.811064118744152033e-12
-3.782645935926935846e-12
-2.918842810073351894e-12
-2.199639083861123821e-12
-1.613707807181586460e-12
-1.151050287768656178e-12
-7.990773859950875221e-13
-5.412222431306985721e-13
-3.588325335225154010e-13
