# bin_16_16
-1.824192285932400240e-11
-2.055569012735848307e-11
-2.276387910988783030e-11
-2.467184467907674661e-11
-2.602598698036013736e-11
-2.653760674259429014e-11
-2.596000261372626249e-11
-2.399700118517481217e-11
-2.097544403170221560e-11
-1.738995920304485496e-11
-1.424330730961874886e-11
-1.213155334152963282e-11
-1.043026866738488540e-11
-7.920423849160554750e-12
-5.499901820079502661e-12
-4.467113165068480362e-12
-3.032826206449336536e-12
-2.280222925800081788e-12
-1.542535268410020997e-12
-1.078788575621799579e-12
-7.551113548584995230e-13
-5.284777766722268055e-13
-3.717062046258868772e-13
-2.643088966537423946e-13
-1.915472493928289119e-13
-1.415533426597886747e-13
-1.065572637447753154e-13
-8.147293632362563667e-14
-6.288346608482745022e-14
-4.864532862822362705e-14
-3.743802400460057857e-14
