# bin_10_1
-3.191715256942625680e-09
-3.078085026345745239e-09
-2.810994698969053657e-09
-2.430735705679908570e-09
-2.012348229111553179e-09
-1.660032762783578355e-09
-1.412947271920135188e-09
-1.184946337448148802e-09
-8.920471860386626826e-10
-6.487401428548824437e-10
-5.086693448161313365e-10
-3.662520657766785979e-10
-2.726679292418624804e-10
-1.994083695940464986e-10
-1.484630031152945586e-10
-1.119195985023980327e-10
-8.590352168759208003e-11
-6.717629020576280418e-11
-5.333344741529634467e-11
-4.276113296701724995e-11
-3.436522814463243784e-11
-2.747403805923121893e-11
-2.169813565090790644e-11
-1.682398143854037146e-11
-1.274345719046956093e-11
-9.398341664201618631e-12
-6.740512382201695411e-12
-4.704578023086640168e-12
-3.202955858869051877e-12
-2.133713194541466270e-12
-1.395519961530771790e-12
