# bin_12_8
-4.161533969525304522e-10
-4.550913972180866605e-10
-4.857742549486699279e-10
-5.028106426386109260e-10
-5.018163863994544098e-10
-4.760438190343267087e-10
-4.264649081658277500e-10
-3.612135979884349375e-10
-2.956816418674213120e-10
-2.462385782925283531e-10
-2.129266711710657902e-10
-1.738467973252929686e-10
-1.225805579676799376e-10
-9.298812983357870530e-11
-7.139433160267349106e-11
-4.950175749418068127e-11
-3.610183145761956037e-11
-2.609496481755697036e-11
-1.859785650503104747e-11
-1.339445111541682986e-11
-9.790328166730467514e-12
-7.280467725846658813e-12
-5.511720832523322718e-12
-4.244013193306360413e-12
-3.306603608357539806e-12
-2.591153297979448389e-12
-2.028134718684699442e-12
-1.574501576714858204e-12
-1.205062156356482691e-12
-9.047415866428276760e-13
-6.637330096078982556e-13
