# bin_1_8
-7.091927914313769022e-32
-7.536291072797970524e-32
-7.759300236840907834e-32
-7.696269779905525669e-32
-7.242600057481199048e-32
-6.440025470781748826e-32
-5.415557397501168761e-32
-4.427409924404364616e-32
-3.707290135834132135e-32
-3.205658902808693956e-32
-2.572165014629314911e-32
-1.798831591590017341e-32
-1.399671449822794713e-32
-1.048389510110466371e-32
-7.486853549073398891e-33
-5.388842227529731040e-33
-3.968097167276555071e-33
-2.884265639219665878e-33
-2.122172132076258871e-33
-1.591136114911103871e-33
-1.214702137898978294e-33
-9.430807125853455955e-34
-7.415813049832452614e-34
-5.866677390732982861e-34
-4.636867946733523306e-34
-3.635904194492543915e-34
-2.810180125377597385e-34
-2.129268881142588288e-34
-1.574866167477897984e-34
-1.133746434323981873e-34
-7.939382048318200711e-35
