# bin_18_16
-7.424530578481092187e-11
-8.373772890011485274e-11
-9.283304268919539871e-11
-1.007471654209428428e-10
-1.064522396168591350e-10
-1.087532592343495217e-10
-1.066771044179088957e-10
-9.893092972278393209e-11
-8.674329538691840835e-11
-7.207272140686675290e-11
-5.899485630046876260e-11
-5.011696160699900887e-11
-4.318666740191908841e-11
-3.310076801982667734e-11
-2.291955688485404789e-11
-1.853177911104593959e-11
-1.274335725636417129e-11
-9.494204626893517315e-12
-6.411140333988266785e-12
-4.509594109247995487e-12
-3.148195395585382333e-12
-2.196669263246375152e-12
-1.541111794852699721e-12
-1.092375421546226927e-12
-7.887156177843521508e-13
-5.807172761537996382e-13
-4.356881363228129055e-13
-3.322722898532126866e-13
-2.560718373475097679e-13
-1.980213190700671753e-13
-1.525112232510717944e-13
