# bin_8_2
-2.065022632739614641e-09
-2.071377301829717212e-09
-1.982808034477587193e-09
-1.794855469941002405e-09
-1.537967702591206037e-09
-1.266051520710789823e-09
-1.047483313084400215e-09
-8.973784474342428826e-10
-7.454499760615265025e-10
-5.471220110371437934e-10
-4.026433004762801377e-10
-3.162591384193334296e-10
-2.233845694636097913e-10
-1.674089557986493352e-10
-1.218046103220377694e-10
-9.001936235193204024e-11
-6.753512462116649542e-11
-5.154694862173237587e-11
-4.007230134746425439e-11
-3.163297308951211767e-11
-2.523489081644813325e-11
-2.019305118349233513e-11
-1.608856085074539065e-11
-1.267417351504764188e-11
-9.810132880730356264e-12
-7.422521369295141452e-12
-5.470148326397402004e-12
-3.920253550673118639e-12
-2.733611356584272124e-12
-1.858795921057079412e-12
-1.236472796112258676e-12
