# bin_6_5
-2.650040003229044259e-10
-2.812648374305632127e-10
-2.891883736559502156e-10
-2.862765935085546313e-10
-2.688188151287828737e-10
-2.385587324971946071e-10
-2.003634455743490956e-10
-1.638950923371600145e-10
-1.374681465742361941e-10
-1.186655274708471782e-10
-9.465924976120489248e-11
-6.639727767972513137e-11
-5.177863546608770667e-11
-3.850917466030911789e-11
-2.766860719103360165e-11
-1.992551074692310543e-11
-1.462176582444001268e-11
-1.064426536497921659e-11
-7.847906115595136991e-12
-5.891088806133223757e-12
-4.502066649878039030e-12
-3.498514625204700996e-12
-2.752552477980576341e-12
-2.177935156246061742e-12
-1.721009521320478778e-12
-1.348705260018033573e-12
-1.041485309198166775e-12
-7.882416856841581614e-13
-5.822631077135259127e-13
-4.186434874138359572e-13
-2.928331660076967311e-13
