# bin_20_16
-1.341014151367132098e-10
-1.512947880812406907e-10
-1.677921146545546510e-10
-1.821823364324652131e-10
-1.926118445933055816e-10
-1.969114508237248509e-10
-1.933391438773243314e-10
-1.795094554072395604e-10
-1.575693208047532130e-10
-1.310288376028681841e-10
-1.072344822631520055e-10
-9.100991681861221787e-11
-7.847776329052549397e-11
-6.035262892263325701e-11
-4.176013623883294467e-11
-3.369629996959995625e-11
-2.328667876672868581e-11
-1.728260428469308895e-11
-1.167216517225045202e-11
-8.226550880195390989e-12
-5.737157238729103333e-12
-3.998176168108754729e-12
-2.802390637666198782e-12
-1.984168595043973225e-12
-1.430667392276170854e-12
-1.051948470474806378e-12
-7.882504973528516807e-13
-6.005631202326809600e-13
-4.625574685192428149e-13
-3.576330313081377560e-13
-2.755016156393524329e-13
