# bin_1_17
-4.016197372889584087e-83
-4.467915199192251140e-83
-4.871185550003518860e-83
-5.178120340173266587e-83
-5.329746406631813011e-83
-5.282270410420052091e-83
-4.962331631970815962e-83
-4.404209559316236211e-83
-3.695700798436307573e-83
-3.021110327476573732e-83
-2.537324342410901030e-83
-2.197232289980917668e-83
-1.749734665813940447e-83
-1.211794035722131516e-83
-9.513166494562980516e-84
-6.977357949988854375e-84
-4.975456200418816030e-84
-3.463739536239617512e-84
-2.510494742007673319e-84
-1.770270991966105621e-84
-1.252235554204123390e-84
-8.990446519200302100e-85
-6.548307336798003397e-85
-4.858202699670807998e-85
-3.672300049080654240e-85
-2.818377197423005424e-85
-2.185901681639467841e-85
-1.701639669358277052e-85
-1.319987495648037354e-85
-1.013484456673702916e-85
-7.659791590862629472e-86
