# bin_11_10
-9.669685126423041076e-11
-1.068314237085996141e-10
-1.154884448415671446e-10
-1.214727848911252924e-10
-1.234812753187648951e-10
-1.202806410411375519e-10
-1.106842219977005221e-10
-9.632291964842822142e-11
-7.966059999847949669e-11
-6.531862358136720808e-11
-5.576723618681950298e-11
-4.770860117580040101e-11
-3.586382763494456052e-11
-2.514524037389275878e-11
-2.044101372825150692e-11
-1.387931784198492869e-11
-1.052528614871741372e-11
-7.269541450329174031e-12
-5.159859720612719284e-12
-3.695191614631276339e-12
-2.661794830102879288e-12
-1.940437364264714158e-12
-1.436925450414008962e-12
-1.084964047882247964e-12
-8.326510245463905677e-13
-6.463922690444114043e-13
-5.045835193646975510e-13
-3.931891144404516731e-13
-3.037721311996376007e-13
-2.312980499961022134e-13
-1.727596299558534671e-13
