# bin_6_17
-5.653843058261102860e-41
-6.315562624259946461e-41
-6.920273444148474579e-41
-7.402553608276045779e-41
-7.680226732003254757e-41
-7.685530491439166009e-41
-7.313532210056147541e-41
-6.569439954949247854e-41
-5.577227562115308330e-41
-4.566097276101204566e-41
-3.795681487791947120e-41
-3.286307799400629722e-41
-2.701252124667624710e-41
-1.902187978995107700e-41
-1.430473585795916972e-41
-1.106420769613966496e-41
-7.531001609644334137e-42
-5.485541579453033764e-42
-3.914274092937785643e-42
-2.734113551154361987e-42
-1.920398123086259169e-42
-1.363408862039952586e-42
-9.823918678113788707e-43
-7.199482221088474794e-43
-5.380916825473965808e-43
-4.091145099971475592e-43
-3.152564577082303561e-43
-2.447257578845153538e-43
-1.899898050223628162e-43
-1.464661427085505266e-43
-1.114364628126595774e-43
