# bin_3_9
-7.057609066084500434e-25
-7.613492882038329202e-25
-7.989727777082943419e-25
-8.102770906741879879e-25
-7.867871492727607333e-25
-7.216083310359822095e-25
-6.259732422181374927e-25
-5.167250417325958981e-25
-4.239877596605041468e-25
-3.625586664579658256e-25
-3.090864022630432159e-25
-2.308001214259693215e-25
-1.630422868745667568e-25
-1.327000773675297254e-25
-9.028336946213955244e-26
-6.898437157681262666e-26
-4.841327095719764683e-26
-3.480165865059503320e-26
-2.538760610420178250e-26
-1.870612756818055528e-26
-1.399534709945366988e-26
-1.064965585196106280e-26
-8.245052184559114055e-27
-6.459418471712327533e-27
-5.088027970403489053e-27
-4.002187994077049695e-27
-3.121489382150330486e-27
-2.399226383525605939e-27
-1.807831134645206799e-27
-1.329982254838044836e-27
-9.528227784499346569e-28
