# bin_1_13
-7.575636505242621045e-60
-8.302214295940033638e-60
-8.885538765705035634e-60
-9.228099086358499758e-60
-9.246950246260793207e-60
-8.819089711940817774e-60
-7.939812439827230541e-60
-6.757314085511309239e-60
-5.535153042666618605e-60
-4.590628142356344591e-60
-3.968686852802953881e-60
-3.280484398312934310e-60
-2.329108885550939672e-60
-1.737103812885091831e-60
-1.360853526230579799e-60
-9.274843659868525470e-61
-6.878495324737468544e-61
-4.938857667643128613e-61
-3.507024508277556392e-61
-2.519890296459033414e-61
-1.834464828873611099e-61
-1.359106485010321386e-61
-1.024977066170249008e-61
-7.867447681095642455e-62
-6.116173258484252165e-62
-4.787646425027265597e-62
-3.747926786520688165e-62
-2.913278605155933453e-62
-2.234652059356638131e-62
-1.682781526656753860e-62
-1.238996018350863579e-62
