# bin_17_9
-5.593324000321711332e-10
-6.155979117127860461e-10
-6.623510012966570000e-10
-6.925493158082757107e-10
-6.993128862827099756e-10
-6.744940055978736037e-10
-6.141875969099042662e-10
-5.288748477053798359e-10
-4.351316414084137435e-10
-3.584343299695115980e-10
-3.080959566116617731e-10
-2.598460532370782895e-10
-1.899056315639634810e-10
-1.365462909577353043e-10
-1.099438514563900049e-10
-7.402085652881025493e-11
-5.606090013677369467e-11
-3.938635068339933419e-11
-2.786869986773815203e-11
-2.000384971752045890e-11
-1.447615759085923722e-11
-1.063287997972719403e-11
-7.942610342462119587e-12
-6.045768506954157027e-12
-4.669959910544718682e-12
-3.641109219598020652e-12
-2.847222197998234345e-12
-2.216725649257755952e-12
-1.707182909637061728e-12
-1.293298890522939340e-12
-9.595664596425212320e-13
