# bin_7_13
-7.706555525527506282e-22
-8.534181816637395400e-22
-9.252288039112413335e-22
-9.766677731550107115e-22
-9.968525344615782959e-22
-9.768037228837675836e-22
-9.049183751311891785e-22
-7.926901896367679857e-22
-6.581625905804178731e-22
-5.386313801104749002e-22
-4.575937996458424450e-22
-3.940189533836374656e-22
-3.017037957099666633e-22
-2.094059127565641308e-22
-1.696617153153531106e-22
-1.172088106694878276e-22
-8.797975115196868932e-23
-6.027196095415796212e-23
-4.307599986440628802e-23
-3.074647283403683208e-23
-2.206335456169419355e-23
-1.600864284218363246e-23
-1.179010784649200628e-23
-8.854292085079988694e-24
-6.764671792696054821e-24
-5.234594087672286886e-24
-4.079819605529840184e-24
-3.179616700469190803e-24
-2.460679002586038899e-24
-1.879187529606660323e-24
-1.409248839224764337e-24
