# bin_4_2
-1.064585808932950338e-09
-1.065294605041195548e-09
-1.016376921406710474e-09
-9.168912298567537460e-10
-7.830711675870822100e-10
-6.437946585838459914e-10
-5.336181964418547904e-10
-4.577362962145206533e-10
-3.781230567233903209e-10
-2.755999898601341152e-10
-2.043484805033842762e-10
-1.597704881185579152e-10
-1.128748545879469296e-10
-8.451893463713820730e-11
-6.165442950922633657e-11
-4.558509546405910289e-11
-3.425226686631251828e-11
-2.619303499483057311e-11
-2.039903481522005593e-11
-1.612731117232494611e-11
-1.287787696037516396e-11
-1.030842706407312370e-11
-8.210817920168214645e-12
-6.462714156242731283e-12
-4.995431807259879166e-12
-3.772878770758163368e-12
-2.774815513363263862e-12
-1.984394936159917538e-12
-1.380958453892137943e-12
-9.373532614582941594e-13
-6.225955842514788400e-13
