# bin_20_11
-4.487621003138923536e-10
-4.986894510253476432e-10
-5.429722016580599796e-10
-5.762276904953258138e-10
-5.919265781093360293e-10
-5.850909109018772072e-10
-5.478797173229735335e-10
-4.848077079249218298e-10
-4.058435179216266979e-10
-3.318523803121956446e-10
-2.794418947425335544e-10
-2.416784125601809024e-10
-1.907456487524022271e-10
-1.321938078200689192e-10
-1.045192100011258583e-10
-7.562258029620099172e-11
-5.457447495955922735e-11
-3.785274074757985467e-11
-2.733238664295207596e-11
-1.932665647490266325e-11
-1.371944136769145089e-11
-9.873000849816836972e-12
-7.209009526224196130e-12
-5.363254287466961085e-12
-4.064014592783620595e-12
-3.124945096210226713e-12
-2.426413095531280868e-12
-1.889346718774136616e-12
-1.464767211890646006e-12
-1.123223957478676629e-12
-8.473778208933476741e-13
