# bin_19_3
-2.319649375437370669e-09
-2.388157369854208819e-09
-2.368250490042067383e-09
-2.230959903870918118e-09
-1.986609673036281837e-09
-1.675354018202879529e-09
-1.372418271927109400e-09
-1.147559805120353926e-09
-9.878635709339743026e-10
-7.947472647830566720e-10
-5.648428441663571864e-10
-4.336227234004543672e-10
-3.281604838170796856e-10
-2.344707291505102364e-10
-1.721678607801709987e-10
-1.263823329657193381e-10
-9.289818090832125965e-11
-6.939113294906385317e-11
-5.278045338699108003e-11
-4.087574952161343847e-11
-3.214483073274920981e-11
-2.553700964463802852e-11
-2.034575042416877523e-11
-1.613908399845479735e-11
-1.265888059873285121e-11
-9.757128672719860172e-12
-7.352775270660579201e-12
-5.398178794311390918e-12
-3.854181426250608286e-12
-2.677782203104777580e-12
-1.814342294862051874e-12
