# bin_11_1
-3.298276192839287210e-09
-3.181240064655562249e-09
-2.905580461301697105e-09
-2.512840642162711416e-09
-2.080453558681595621e-09
-1.716130045117102141e-09
-1.460606341284841465e-09
-1.225112017842475587e-09
-9.225348179213003773e-10
-6.707957018715244400e-10
-5.259765243072347956e-10
-3.787608399290155081e-10
-2.819566260072071524e-10
-2.061980245776828219e-10
-1.535139030980527031e-10
-1.157197040631106876e-10
-8.881415166171062748e-11
-6.944793384163936033e-11
-5.513416344294781250e-11
-4.420350119496401932e-11
-3.552411077268021339e-11
-2.840094431177529973e-11
-2.243096710431605358e-11
-1.739311718902061252e-11
-1.317543197512963033e-11
-9.717644935856717869e-12
-6.970042035416235122e-12
-4.865121085552695664e-12
-3.312461243212839406e-12
-2.206777218167394868e-12
-1.443367566996790437e-12
