# bin_19_1
1.295190085767763508e-86
1.449286025698633850e-86
1.591435057620165069e-86
1.706867657815138893e-86
1.776969979747756477e-86
1.785186370602554649e-86
1.708319769289800236e-86
1.542638402096374604e-86
1.316782451877392971e-86
1.079273878922312550e-86
8.932191963671207788e-87
7.719737945092971710e-87
6.421702193704305752e-87
4.576559388617438474e-87
3.371871535564022788e-87
2.662327627379308717e-87
1.784639376531754843e-87
1.325492024021201804e-87
9.343473551072604130e-88
6.501369661751745994e-88
4.563797651944970527e-88
3.224805522652434024e-88
2.311330965985312992e-88
1.683552168152106253e-88
1.250973198034862888e-88
9.463015591722049786e-89
7.264104593803251015e-89
5.627128185044728572e-89
4.367286068551331077e-89
3.371511777610576598e-89
2.572291296997094226e-89
