# bin_14_8
3.811275134626750113e-14
4.240235287225813200e-14
4.623365827377546450e-14
4.915261317320553196e-14
5.059946393507495727e-14
5.015912394941107365e-14
4.713314484572358863e-14
4.183888457137191622e-14
3.511014211130650140e-14
2.869140341699183842e-14
2.408209951034061660e-14
2.085578779659346829e-14
1.662935548238185518e-14
1.151459921303330264e-14
9.025301781370001147e-15
6.633898602825002641e-15
4.719672340761252356e-15
3.289745448676243568e-15
2.384234965954023515e-15
1.680460294655512964e-15
1.188041396478555505e-15
8.525829611292368347e-16
6.207130917221794180e-16
4.602844831395577755e-16
3.477797231384766074e-16
2.668193432043614628e-16
2.068958649084966457e-16
1.610466944749132543e-16
1.249318530012263951e-16
9.593767161323449173e-17
7.252658070382052043e-17
