# bin_17_12
1.802836323752040073e-10
2.028033314603751285e-10
2.241317680952193892e-10
2.423093494963015630e-10
2.548113752575133663e-10
2.588995879515437083e-10
2.519538858767949380e-10
2.315152065736351538e-10
2.011674260074141900e-10
1.661469587784878030e-10
1.362504076290429938e-10
1.165367973951414885e-10
9.965795848910838598e-11
7.444720258152116596e-11
5.209129434118003522e-11
4.247809676891167510e-11
2.833877562796970688e-11
2.151566217064213917e-11
1.466824238145354386e-11
1.018123541804021918e-11
7.146138458127664649e-12
5.016490900680538896e-12
3.543632515300844614e-12
2.533954726395019124e-12
1.847999471884322341e-12
1.374068286510817843e-12
1.039979804489666424e-12
7.983233271841013169e-13
6.174831170361029686e-13
4.777519493138197280e-13
3.670847230856017339e-13
