# bin_18_5
2.246837705390740804e-44
2.513684849747772396e-44
2.759597873349168517e-44
2.958915911952973809e-44
3.079314040182555544e-44
3.092261288246973632e-44
2.957328128085597290e-44
2.668926727627316745e-44
2.276764191123192435e-44
1.865735463931691108e-44
1.544722581959917226e-44
1.335391004250604397e-44
1.109552039922660274e-44
7.895884079770931608e-45
5.829833842595948725e-45
4.594047766098856082e-45
3.083385671812206529e-45
2.286074446855252217e-45
1.613490289105696352e-45
1.123095966842610620e-45
7.883826759380575431e-46
5.573081866462711298e-46
3.996590596904270349e-46
2.912954423954404107e-46
2.165836411284359110e-46
1.639255353971601840e-46
1.258880906975581038e-46
9.754302501407139585e-47
7.570846869358272243e-47
5.843887585858892761e-47
4.457342814117743799e-47
