# bin_14_10
2.776882471075688076e-09
3.099669691728436048e-09
3.393502685442998836e-09
3.626084508152072291e-09
3.756927125508428720e-09
3.753476613424049774e-09
3.563936948344134815e-09
3.194517447694929144e-09
2.706019407896362849e-09
2.213837640585284992e-09
1.842648164741010821e-09
1.595767101945569816e-09
1.305787168902288421e-09
9.160472206236029630e-10
6.934190848207434762e-10
5.323212429798626534e-10
3.644448236880774579e-10
2.635565673323568868e-10
1.887071152373007814e-10
1.319676130397092151e-10
9.273216207638294999e-11
6.593963489973367350e-11
4.758739083386267412e-11
3.493780127232448022e-11
2.615743479814069094e-11
1.991660768597493681e-11
1.536332498660453949e-11
1.193194388119976833e-11
9.262489357025690516e-12
7.136373485319630067e-12
5.424138835342298649e-12
