# bin_13_5
4.464335361147131709e-23
4.927067231532213087e-23
5.319473030090771972e-23
5.586131916006920725e-23
5.668026394393543395e-23
5.506311662908431164e-23
5.051032958114191755e-23
4.381760641216041409e-23
3.615824251323428760e-23
2.966037045006342178e-23
2.537738937160678501e-23
2.165591036000748328e-23
1.613958400639064060e-23
1.135400150542694240e-23
9.256696807130293274e-24
6.223694392088824695e-24
4.748890031260317384e-24
3.290372134961283497e-24
2.326650338401432437e-24
1.668904955007255240e-24
1.204269614134012617e-24
8.796683805425752381e-25
6.529192357771921128e-25
4.941372797256222399e-25
3.799562125902870490e-25
2.953699000804069489e-25
2.307271409650201028e-25
1.797818932330307811e-25
1.387987860925911522e-25
1.055509731903239731e-25
7.870208116983958620e-26
