# bin_8_1
9.761332953163658145e-25
1.038178266574320376e-24
1.070043582083779894e-24
1.062785091701034599e-24
1.001901466919497498e-24
8.922795147439467954e-25
7.513866456561203706e-25
6.141597323670556947e-25
5.133287042919200648e-25
4.439249892929267380e-25
3.579357405768203426e-25
2.507094614639253964e-25
1.938645475991028971e-25
1.463418490103535072e-25
1.037837725291880991e-25
7.510488822849460119e-26
5.520960832785336451e-26
4.006931984194785111e-26
2.944609684025468446e-26
2.204699907455213067e-26
1.681037652523494445e-26
1.303638023617423921e-26
1.024255342683010086e-26
8.099178301694218594e-27
6.400886304225323655e-27
5.020673140502654634e-27
3.882990269952864895e-27
2.944953264361142792e-27
2.180785092673157987e-27
1.572055463477800460e-27
1.102370569247764411e-27
