# bin_19_12
2.123845221616142868e-14
2.395933804492694645e-14
2.656892704183467722e-14
2.884366404340232854e-14
3.048991052945357811e-14
3.116323904396145800e-14
3.059030864129520245e-14
2.839100120696652121e-14
2.491067321715470490e-14
2.070174246643953603e-14
1.693458182776738206e-14
1.437300117980988022e-14
1.239843089392959191e-14
9.527128987667223960e-15
6.583398229969927804e-15
5.321048375878385033e-15
3.668600436989537589e-15
2.729594053809056599e-15
1.838506061235901172e-15
1.295320072434719295e-15
9.036925427556154210e-16
6.302101703753188260e-16
4.417644143804585701e-16
3.127925774544505105e-16
2.255743898861645449e-16
1.658960837796873838e-16
1.243387528110604696e-16
9.475584653908761303e-17
7.299757458838235945e-17
5.644904959871706639e-17
4.349033560169962512e-17
