# bin_10_2
8.183583600223928318e-28
8.854648367726049594e-28
9.327220959321110159e-28
9.499450813615507037e-28
9.282333142101018468e-28
8.573474597290974168e-28
7.488511688302489810e-28
6.205696539235616525e-28
5.079095795877329957e-28
4.319480441318161180e-28
3.709410409741913997e-28
2.825322727914945364e-28
1.971977724396425929e-28
1.600373241670362496e-28
1.107493579000643684e-28
8.375772365489244552e-29
5.829179660589728262e-29
4.215536690326172354e-29
3.064739647660424147e-29
2.249178052211307783e-29
1.674928371076156952e-29
1.268248050739386417e-29
9.776061306972752787e-30
7.634751604766399346e-30
6.003432426353685467e-30
4.721357810366404714e-30
3.687211121971118854e-30
2.841430469590189103e-30
2.149016933643178567e-30
1.588367186765364543e-30
1.143884829470640476e-30
