# bin_6_5
6.829750151244136429e-06
7.317265356011164236e-06
7.612459378936406981e-06
7.644713552901281889e-06
7.317189930581304003e-06
6.611999109518310913e-06
5.649370421938649541e-06
4.632559376630181010e-06
3.829315588193904606e-06
3.301345884139304789e-06
2.750651552353746577e-06
1.978401247126655518e-06
1.455425946351175587e-06
1.156569236466314793e-06
7.888282616593522522e-07
5.945882711019012471e-07
4.274707393378867196e-07
3.074455759990624498e-07
2.248198347138325735e-07
1.667125509629426571e-07
1.258952636240637045e-07
9.672883723746286421e-08
7.547529073648503519e-08
5.943738067486925248e-08
4.692411914434954704e-08
3.687961894012482684e-08
2.865831665792364261e-08
2.189148073783558862e-08
1.635949427326725126e-08
1.191670174252609410e-08
8.446868014174674917e-09
