# bin_16_14
1.596806660258693521e-06
1.797949088812052766e-06
1.989257005143308182e-06
2.153550980358613069e-06
2.268564749217877734e-06
2.309414947730620951e-06
2.253938698594920910e-06
2.077810224754183380e-06
1.811252086594502110e-06
1.498703475480461598e-06
1.227796641053554837e-06
1.047658470685672384e-06
8.989632115950034277e-07
6.776821235122641811e-07
4.716537171265614413e-07
3.841763455663212184e-07
2.584101236794378621e-07
1.954183444260236254e-07
1.325174820251895649e-07
9.228850949719639462e-08
6.470207024176481085e-08
4.536319013346488540e-08
3.196396608844198893e-08
2.278162895499239743e-08
1.655470476125508531e-08
1.226644224394892399e-08
9.255814225505855080e-09
7.089535562318668296e-09
5.477388595888989916e-09
4.237827546346243229e-09
3.259400555196540001e-09
