# bin_16_5
1.910690514054415436e-35
2.127237147497371667e-35
2.321451684218153589e-35
2.470677104636971631e-35
2.546833097042376206e-35
2.528957248227857727e-35
2.381588546608121734e-35
2.118393713175098815e-35
1.781028967731796656e-35
1.455590051699378719e-35
1.219560456372521441e-35
1.056433015595994285e-35
8.472736949956428921e-36
5.876984323552350103e-36
4.574784204307301373e-36
3.395053031261994035e-36
2.394094680128031127e-36
1.680216047311760892e-36
1.216662235408352678e-36
8.560218387965245467e-37
6.040528230589805897e-37
4.326807526715798658e-37
3.144449004812665022e-37
2.326985757848336915e-37
1.754979251397949451e-37
1.344430183878933000e-37
1.041472085968336824e-37
8.103820834797762497e-38
6.287969372046688618e-38
4.832287932304215201e-38
3.657360725721281053e-38
