# bin_16_13
1.724793733265280995e-07
1.939709407046705889e-07
2.142998784149851717e-07
2.315860162749378140e-07
2.434108557940262194e-07
2.471761159858433926e-07
2.403394567359661545e-07
2.206359423655798362e-07
1.915342712130774411e-07
1.581110261110638803e-07
1.297047670620135693e-07
1.110119111573348180e-07
9.482786708948496890e-08
7.065281449017445043e-08
4.952953659794447139e-08
4.038300941657792177e-08
2.689442709788039399e-08
2.043058639922471334e-08
1.395176306570156012e-08
9.678086436582894852e-09
6.794191614031723824e-09
4.770578308371570474e-09
3.372383752376963716e-09
2.413821293236841284e-09
1.762207565566442393e-09
1.311571262146893388e-09
9.935231669625977074e-10
7.631177679777066049e-10
5.904237867229850811e-10
4.568032291137198454e-10
3.508789161865886321e-10
