# bin_17_7
8.911015648629716651e-28
9.966387582771688691e-28
1.093742959889966932e-27
1.172212362783385988e-27
1.219203872593351991e-27
1.223521316932755319e-27
1.169024386909177788e-27
1.054054738248829086e-27
8.983193092309052347e-28
7.359422600717019325e-28
6.097149437789864093e-28
5.272725107675518406e-28
4.372754610657398320e-28
3.105130244576362252e-28
2.300206159934000309e-28
1.806812273962395577e-28
1.215352178812573957e-28
8.984069454054400108e-29
6.353340815382154896e-29
4.424897428367415806e-29
3.106243153602028142e-29
2.197355468342585342e-29
1.577107563371565454e-29
1.150625817578890949e-29
8.563260951621682018e-30
6.486688647767590192e-30
4.984694422601850470e-30
3.863715828262688572e-30
2.999022967733513842e-30
2.314422542432664195e-30
1.764504482061551041e-30
