# bin_17_11
1.028949096610605083e-12
1.156104972708248590e-12
1.275868664030845479e-12
1.376919090068870413e-12
1.444766822726700980e-12
1.464345594947586675e-12
1.419769432094137202e-12
1.299324607407607556e-12
1.124413917783390878e-12
9.266946003232834205e-13
7.611393859301254758e-13
6.528552840468498285e-13
5.554934302563749876e-13
4.102613718328166615e-13
2.895989084226555349e-13
2.357841189256668641e-13
1.563121258371808013e-13
1.188404699790149168e-13
8.162081255537929679e-14
5.654130592448634946e-14
3.970683776328137436e-14
2.789849889230789801e-14
1.977009355826196223e-14
1.419635574531805864e-14
1.039950208484276650e-14
7.765207284008264887e-15
5.898486005813420566e-15
4.539271438246048869e-15
3.515183506179937731e-15
2.719255393816991424e-15
2.086468465005418331e-15
