# bin_16_9
3.913936540550347316e-16
4.379155448864832488e-16
4.808074731188676700e-16
5.156025223626117638e-16
5.366726396469678038e-16
5.390326801184406760e-16
5.156535802079851041e-16
4.654906535387875979e-16
3.972032343979012088e-16
3.255216341222562272e-16
2.694626131262528761e-16
2.329226639461478579e-16
1.936366859704068219e-16
1.378835028193696172e-16
1.017073850509920996e-16
8.022182470646417107e-17
5.380880172011385990e-17
3.992871892097775469e-17
2.816534717069921316e-17
1.960175707549745006e-17
1.375986439776833198e-17
9.724950349730405932e-18
6.972329707298365997e-18
5.080427041743767581e-18
3.776373574222099124e-18
2.857544545880590756e-18
2.194080328678807837e-18
1.699889341119475379e-18
1.319357050052351687e-18
1.018469115826603337e-18
7.769242777631168582e-19
