# bin_13_2
2.689564081321005913e-43
2.953080039528405581e-43
3.168003600456606499e-43
3.300092373197730283e-43
3.318264380081489709e-43
3.180474710735626083e-43
2.877022563963407424e-43
2.460471555352107971e-43
2.017826445694551552e-43
1.667184632346830288e-43
1.438468913146633387e-43
1.201170360970002548e-43
8.624405475563368546e-44
6.317030627964999562e-44
5.031426170566647154e-44
3.389944960308994975e-44
2.550416427395222555e-44
1.812769374249414659e-44
1.283266980456233651e-44
9.214986524179029332e-45
6.685260712784198969e-45
4.933095369980053363e-45
3.704373844286524464e-45
2.832986088714532389e-45
2.196339919376648549e-45
1.716489597676341021e-45
1.343287542283976873e-45
1.045054839885243708e-45
8.031617460575702619e-46
6.065044723760754647e-46
4.481363168439567897e-46
