# bin_8_16
-3.557846821226519670e-22
-3.976568369003214808e-22
-4.360432779573513533e-22
-4.668465137937581665e-22
-4.849136998426044397e-22
-4.858902304562295354e-22
-4.632321797609650926e-22
-4.168318559238578442e-22
-3.545177226113481569e-22
-2.903633063026723132e-22
-2.410384847504835447e-22
-2.086055275801064871e-22
-1.721512300749757885e-22
-1.216665889890938353e-22
-9.090906630746310304e-23
-7.079670716621654524e-23
-4.793630941141173582e-23
-3.514776492470303141e-23
-2.498588694065452299e-23
-1.743161956011261267e-23
-1.224043570083598147e-23
-8.676912117887896626e-24
-6.241925805260099608e-24
-4.565954306887862083e-24
-3.406619841119678408e-24
-2.586161583715474401e-24
-1.990627953678694743e-24
-1.544384897437622570e-24
-1.198938719735325721e-24
-9.247346841275407095e-25
-7.042084074092839675e-25
