# bin_5_15
-1.800565273574588337e-33
-1.999800297266755128e-33
-2.175914077820053911e-33
-2.307225275725610031e-33
-2.367476866201764984e-33
-2.336977873435194929e-33
-2.184361322034485661e-33
-1.929566052821188501e-33
-1.612500993980458823e-33
-1.318209233200217564e-33
-1.111737952106037680e-33
-9.616097281988554384e-34
-7.550979942989255579e-34
-5.220228731048602191e-34
-4.156722579300997983e-34
-2.980495706872799348e-34
-2.169781696644298151e-34
-1.492889569265968720e-34
-1.079913157586293998e-34
-7.648083082405337516e-35
-5.438153698967706628e-35
-3.920184719341972480e-35
-2.866872335660695630e-35
-2.136672481216227910e-35
-1.621679793214507362e-35
-1.248599761431078835e-35
-9.703613906716784499e-36
-7.558659880451190800e-36
-5.859345581676953286e-36
-4.490538676444446798e-36
-3.384559652042697648e-36
