# bin_15_2
-2.221476404842541130e-56
-2.458563891107558358e-56
-2.663464344882136721e-56
-2.808946806930284388e-56
-2.863944084624789689e-56
-2.802057241655655689e-56
-2.591186075779246824e-56
-2.265905707147288049e-56
-1.879137730597615005e-56
-1.538423303148072022e-56
-1.308826544246706306e-56
-1.125493744657314215e-56
-8.574529401598917721e-57
-5.961929247717290657e-57
-4.841418659091387314e-57
-3.323037429866599783e-57
-2.505916544252446589e-57
-1.718832156898581452e-57
-1.225154936163298198e-57
-8.756610038309263345e-58
-6.292836582289467961e-58
-4.571678498602227972e-58
-3.371769139715122643e-58
-2.535895591903174541e-58
-1.939832820277685495e-58
-1.502440167703817314e-58
-1.171556746651241549e-58
-9.130721643089355189e-59
-7.063361505533689914e-59
-5.390129764315889783e-59
-4.037981926985668258e-59
