# bin_13_15
-5.086896089363186357e-09
-5.713577046354179863e-09
-6.302841329085438976e-09
-6.798506684599458825e-09
-7.128792253803624241e-09
-7.220169759914856297e-09
-6.992380320319649038e-09
-6.391729586586295349e-09
-5.525047335505334026e-09
-4.552007495769173733e-09
-3.742378231946674270e-09
-3.213373082394546124e-09
-2.728609174945602014e-09
-2.007625106442018208e-09
-1.423121104672720618e-09
-1.156700762847095927e-09
-7.664135661700049996e-10
-5.823088701741741068e-10
-4.011072336583397343e-10
-2.778527356982920284e-10
-1.951612037871204148e-10
-1.371821996671356602e-10
-9.733945051655188354e-11
-7.001431672144954272e-11
-5.137723313867712060e-11
-3.842476951036468796e-11
-2.922740047933745555e-11
-2.251335810035090050e-11
-1.744173254885267151e-11
-1.349150979013482674e-11
-1.034664664015179586e-11
