# bin_6_6
-5.908062320896083146e-08
-6.365834638597111400e-08
-6.670444555239932524e-08
-6.753500338492452745e-08
-6.541503275436746744e-08
-5.983920441356187395e-08
-5.177224761004844597e-08
-4.268309758566166164e-08
-3.506378407480640905e-08
-3.003361055857519967e-08
-2.551226144097507426e-08
-1.891983847530465829e-08
-1.345187853016535748e-08
-1.091997060716213017e-08
-7.417623812244579912e-09
-5.664380587965757090e-09
-3.991533614024616997e-09
-2.867859389334070836e-09
-2.093099562170677276e-09
-1.543750618199899105e-09
-1.156851872244377005e-09
-8.818139180062250282e-10
-6.836844901785181958e-10
-5.361441671886550865e-10
-4.225133911038251476e-10
-3.323178357159013165e-10
-2.590357718939971988e-10
-1.988917037865322384e-10
-1.496536754865887660e-10
-1.099078190513970995e-10
-7.859293606018342404e-11
