# bin_1_1
-1.843419734862882906e-07
-1.785965823639412452e-07
-1.637256440150512449e-07
-1.420392533609471657e-07
-1.175329713768978565e-07
-9.661101573714873165e-08
-8.229065049148677120e-08
-6.972032003296874681e-08
-5.260742903214415616e-08
-3.773738246737308516e-08
-3.008789621605752899e-08
-2.137837130530015199e-08
-1.608871580590300378e-08
-1.167167927854523338e-08
-8.684365403673673760e-09
-6.541547882822603380e-09
-5.013595719372872291e-09
-3.915741830082637875e-09
-3.106091689274184844e-09
-2.489936074505705172e-09
-2.001936828354645902e-09
-1.602115965203734958e-09
-1.267188542935139515e-09
-9.843111285799448737e-10
-7.470234982283961079e-10
-5.519354484190636232e-10
-3.964688483116770885e-10
-2.770573149475808459e-10
-1.888003306696040564e-10
-1.258592757002449852e-10
-8.235721941426907679e-11
