# bin_11_19
-8.320893530125099262e-20
-9.379614164713282886e-20
-1.039158241569305288e-19
-1.126836876849143408e-19
-1.189448092135904279e-19
-1.213703111100925288e-19
-1.188546924792273408e-19
-1.099987041722949200e-19
-9.626127307149971877e-20
-7.986120188238393144e-20
-6.538839044123852841e-20
-5.564501794372814287e-20
-4.789840102998545163e-20
-3.649135024234345288e-20
-2.529439828514544737e-20
-2.053244350382509901e-20
-1.398443570559328646e-20
-1.049729213722090978e-20
-7.087449063486116790e-21
-4.963659419571476851e-21
-3.472628170918238167e-21
-2.429130552819434767e-21
-1.706970847157763170e-21
-1.212313435095862875e-21
-8.773975058334473469e-22
-6.475485073387996151e-22
-4.868907520843639923e-22
-3.719580497857122962e-22
-2.869608461880664343e-22
-2.219818751626896616e-22
-1.709023165928078540e-22
