# bin_6_15
-7.344392189998626590e-28
-8.168128876154731347e-28
-8.902274969578221845e-28
-9.459097171532647191e-28
-9.730804160758763274e-28
-9.637477445785650532e-28
-9.045757203765123791e-28
-8.021734292088723149e-28
-6.726225269647216980e-28
-5.498268506971665167e-28
-4.621152896118445187e-28
-4.001265319105208945e-28
-3.178711347409973766e-28
-2.200091435935923946e-28
-1.731922623619465731e-28
-1.265265449605337932e-28
-9.055374769223937554e-29
-6.287454114109409428e-29
-4.557917854158157191e-29
-3.216340084469099521e-29
-2.276979645216934161e-29
-1.635980622108563140e-29
-1.192444790690741308e-29
-8.854011999331396181e-30
-6.697638140730991054e-30
-5.143266511678050193e-30
-3.990589923797915388e-30
-3.106944463082612472e-30
-2.409864307587056851e-30
-1.849721274099124968e-30
-1.397334902154858674e-30
