# bin_11_17
-3.745435339170369607e-15
-4.209178006715769174e-15
-4.646389122460363598e-15
-5.015922097809318358e-15
-5.265061482366234962e-15
-5.338700663906749654e-15
-5.179314592636413480e-15
-4.743221403868039362e-15
-4.107797354127873933e-15
-3.387456552539877564e-15
-2.782635883261941562e-15
-2.386340749025642696e-15
-2.031587735498111977e-15
-1.502608693432281945e-15
-1.060034222373312310e-15
-8.632455660739059179e-16
-5.727571671459419493e-16
-4.354621057581042988e-16
-2.989180228523891410e-16
-2.071013325110618607e-16
-1.454641258529257517e-16
-1.022121319342318667e-16
-7.241839634267635952e-17
-5.198725004618870933e-17
-3.807133934270383811e-17
-2.841912314605359333e-17
-2.158201625227487589e-17
-1.660623673363665560e-17
-1.285924221356190763e-17
-9.948309042313491211e-18
-7.634608247728290534e-18
