# bin_15_8
-3.175218636157988782e-19
-3.541429112010678467e-19
-3.873258097754265008e-19
-4.133520615410547848e-19
-4.275705169531846179e-19
-4.263609817387740001e-19
-4.037599936821302986e-19
-3.610398825446212374e-19
-3.051066530930997440e-19
-2.495846246505059702e-19
-2.082583084857263573e-19
-1.804171994592698271e-19
-1.466630640440711280e-19
-1.024364334052610090e-19
-7.833521337263223050e-20
-5.945533508214615339e-20
-4.110539469318978588e-20
-2.940630671358285009e-20
-2.116818184256334300e-20
-1.483528720951143343e-20
-1.043532055847910821e-20
-7.440023983402539668e-21
-5.383263614706331806e-21
-3.963847141112019282e-21
-2.975745315617744921e-21
-2.270979756601352608e-21
-1.754687239273083572e-21
-1.363879696409575264e-21
-1.058707382091775588e-21
-8.150322349294907920e-22
-6.185960196010203955e-22
