# bin_2_13
-1.545683077532169071e-45
-1.697772521886622237e-45
-1.822186617232217564e-45
-1.899275479527502008e-45
-1.911017768388099399e-45
-1.833393808661150431e-45
-1.660119885436784203e-45
-1.421293772475724792e-45
-1.166320337613111408e-45
-9.634685955190799521e-46
-8.310702044415014166e-46
-6.949269775708226033e-46
-4.999919671205034913e-46
-3.654463180788499382e-46
-2.916330332472949594e-46
-1.963335190898455247e-46
-1.479538668591676346e-46
-1.050315941683491803e-46
-7.433671204881947643e-47
-5.338266837967120888e-47
-3.871633674837756083e-47
-2.855544007020660722e-47
-2.143186335429125888e-47
-1.638301424027024973e-47
-1.269710113186687601e-47
-9.921262967697434574e-48
-7.764088776090971210e-48
-6.041255897255614895e-48
-4.644288717389248411e-48
-3.508548413488227763e-48
-2.593706274268676409e-48
