# bin_13_10
-3.018228860089573028e-10
-3.363258382069985926e-10
-3.674274417553258181e-10
-3.915694125832571164e-10
-4.043215839802349742e-10
-4.023116315133108026e-10
-3.799011420969320757e-10
-3.388037469314270702e-10
-2.855849325834274316e-10
-2.335430648221269140e-10
-1.953195997732891091e-10
-1.692061479964535431e-10
-1.365769649821020162e-10
-9.505814765203969923e-11
-7.338777753461070167e-11
-5.504365938166703190e-11
-3.845934941853593629e-11
-2.723570482208084965e-11
-1.966976943194751599e-11
-1.381406083903665993e-11
-9.733354872365921199e-12
-6.956795315253951359e-12
-5.045519215234422464e-12
-3.725167971003497481e-12
-2.803482895507825788e-12
-2.143891058465485403e-12
-1.658809795108334932e-12
-1.290116024767678658e-12
-1.001242230675856237e-12
-7.700860714888110184e-13
-5.836148900046832739e-13
