# bin_1_14
-1.819048701873647161e-60
-2.003635227105350581e-60
-2.157930911977190411e-60
-2.259131475319542921e-60
-2.284392843144567965e-60
-2.207697716075181832e-60
-2.014025328809116584e-60
-1.737544937502810145e-60
-1.430236345062206728e-60
-1.176530709348984975e-60
-1.010625532190307074e-60
-8.556969621774253378e-61
-6.278236353116789824e-61
-4.481957075392373989e-61
-3.635285199255974968e-61
-2.433057190127579479e-61
-1.855019722960924359e-61
-1.298651432218864649e-61
-9.170719545797002834e-62
-6.583891614812138771e-62
-4.759713387822493016e-62
-3.491151121423975676e-62
-2.603821245995489367e-62
-1.979409740271661489e-62
-1.527481323421728265e-62
-1.190299549866845302e-62
-9.307094827233446969e-63
-7.248851483943577265e-63
-5.586882712972800761e-63
-4.236954095426731712e-63
-3.147778688727019922e-63
