# bin_8_11
-1.774748980640409489e-10
-1.960537791494840233e-10
-2.119114029024718229e-10
-2.228531432315782047e-10
-2.264884215759940599e-10
-2.205498735568339756e-10
-2.028643490465887066e-10
-1.764696171676573522e-10
-1.458838744661971498e-10
-1.196147669998049986e-10
-1.021698704406926047e-10
-8.740688933967850594e-11
-6.560882897134567141e-11
-4.598611789574993223e-11
-3.745355550373418210e-11
-2.534342468634359963e-11
-1.927442850331379765e-11
-1.330941904836253732e-11
-9.433511883781299835e-12
-6.760408126342522209e-12
-4.872896387731410543e-12
-3.553519305289830103e-12
-2.632384908446680648e-12
-1.988418438712551488e-12
-1.526549391218187398e-12
-1.185404289660502287e-12
-9.255108555154366064e-13
-7.212365858918770943e-13
-5.571917984324717373e-13
-4.241964609025081766e-13
-3.167671737591267511e-13
