# bin_20_18
-6.907944656444160762e-09
-7.843206602713530431e-09
-8.766502933374086154e-09
-9.609762144297083479e-09
-1.028159267250355680e-08
-1.066710557596798890e-08
-1.067253780243781269e-08
-1.015037303327081527e-08
-9.112109442826382132e-09
-7.730142862645229576e-09
-6.328619440099650859e-09
-5.266492194196868459e-09
-4.563045668621124889e-09
-3.742423809581171781e-09
-2.625715092203213091e-09
-1.979641382454726241e-09
-1.520276475320842432e-09
-1.030490346235855824e-09
-7.402109347160445078e-10
-5.223828821859872241e-10
-3.575759696082269519e-10
-2.442335854607897372e-10
-1.676273188034282084e-10
-1.160104451762980770e-10
-8.124858541446642745e-11
-5.794682088940472853e-11
-4.214565163023633518e-11
-3.129766525459772748e-11
-2.366990052571186712e-11
-1.813571787634596723e-11
-1.397703344104591350e-11
