# bin_12_10
-4.072616590609856126e-09
-4.528729490960893053e-09
-4.934879318647771553e-09
-5.242374325437336693e-09
-5.391488855944519003e-09
-5.337872717594231228e-09
-5.007916986161996360e-09
-4.439155589473809115e-09
-3.720929093361617105e-09
-3.041658470445913245e-09
-2.557363354125010934e-09
-2.214048209810589607e-09
-1.756744245895731617e-09
-1.215797679694176939e-09
-9.582007001939966793e-10
-6.986562920409209863e-10
-5.009044432497505998e-10
-3.474877593490253042e-10
-2.518330034671460693e-10
-1.777760674585414367e-10
-1.259135607186309364e-10
-9.049868395498342282e-11
-6.598639812805929251e-11
-4.901491888095310647e-11
-3.709049579704370812e-11
-2.849052122584357191e-11
-2.210920027247464960e-11
-1.721435733823683036e-11
-1.335122886053936142e-11
-1.024619999454259079e-11
-7.738389598443111871e-12
