# bin_20_5
-7.929582486440355119e-56
-8.910934512317404408e-56
-9.835919101064278818e-56
-1.061737905268841499e-55
-1.114368228147041364e-55
-1.129834679567418445e-55
-1.095927653228333275e-55
-1.003478465858504077e-55
-8.688964371252802836e-56
-7.164642600691023970e-56
-5.885837820854262276e-56
-5.048187752634749694e-56
-4.296751242616542483e-56
-3.176428306450882940e-56
-2.241775749627809601e-56
-1.825375303713163070e-56
-1.210885573339156447e-56
-9.206233721965876916e-57
-6.321489982029595323e-57
-4.379531788733027028e-57
-3.076129407147716252e-57
-2.161547792585161219e-57
-1.531677859672761669e-57
-1.099739581035736262e-57
-8.055066359129087345e-58
-6.013880714207186606e-58
-4.567703095546256763e-58
-3.514945730814507879e-58
-2.721952464875267696e-58
-2.105756051198027241e-58
-1.615912696792972543e-58
