# bin_9_19
-1.833348777766319319e-27
-2.062724283621403976e-27
-2.280140633654934270e-27
-2.465695538126831204e-27
-2.593724172363816716e-27
-2.636282437588721134e-27
-2.566826132934781880e-27
-2.359970647745685837e-27
-2.051916510330984215e-27
-1.695616197326630107e-27
-1.390781042103980879e-27
-1.189444897845138503e-27
-1.017543132081890175e-27
-7.609762353633426057e-28
-5.323384848309290512e-28
-4.341084683139379099e-28
-2.898412779090203258e-28
-2.200333768291743431e-28
-1.499674120229435492e-28
-1.041014841859941887e-28
-7.308010481766469018e-29
-5.130491738269846060e-29
-3.623718751261117991e-29
-2.590698235170612125e-29
-1.888934903838811000e-29
-1.404177555105825444e-29
-1.062556350725230001e-29
-8.155460677888475401e-30
-6.307756561645402141e-30
-4.880580250510763584e-30
-3.750501015087030703e-30
