# bin_6_12
-9.990541931346973488e-18
-1.101715557705783563e-17
-1.188266013439898760e-17
-1.246249950680168274e-17
-1.262743352068296471e-17
-1.224068222089857578e-17
-1.120284754886747957e-17
-9.696543320207965800e-18
-7.993921693542579383e-18
-6.566131039287912707e-18
-5.628509491692389214e-18
-4.787489340595413705e-18
-3.543636971767826654e-18
-2.508392529497375740e-18
-2.042120949450627751e-18
-1.368911976682483637e-18
-1.045193106496492010e-18
-7.275349010347353360e-19
-5.139014526834994388e-19
-3.688410984602975950e-19
-2.663857425303200076e-19
-1.949432829762637815e-19
-1.450072817174977381e-19
-1.099649178361164975e-19
-8.469340166863182918e-20
-6.591279756727184411e-20
-5.151270733681212481e-20
-4.013269356276029065e-20
-3.096207199571790709e-20
-2.351771547140716355e-20
-1.750798861291794102e-20
