# bin_14_4
-1.898854123479249044e-35
-2.099698625849102990e-35
-2.272279351023345069e-35
-2.393225207671597882e-35
-2.436395297734747978e-35
-2.378509170873202841e-35
-2.193918503257276209e-35
-1.913763653825699061e-35
-1.584568010128796361e-35
-1.298056081740538919e-35
-1.106506212655499860e-35
-9.494706542555629159e-36
-7.182052217662817413e-36
-5.009271193692302184e-36
-4.077764702019528363e-36
-2.776029883112885075e-36
-2.104818501361920564e-36
-1.447498230480229893e-36
-1.028273015751286253e-36
-7.361372424884104234e-37
-5.299449546181078897e-37
-3.856937251392487032e-37
-2.850519162123642081e-37
-2.148345286074597981e-37
-1.646261435995965381e-37
-1.276687020587772160e-37
-9.961672186053952655e-38
-7.763748374254914950e-38
-6.002312564405978778e-38
-4.575426556715272086e-38
-3.422514460026579432e-38
