# bin_9_15
-4.897009111677645868e-16
-5.469769798155922431e-16
-5.992986682487032891e-16
-6.409963716328741585e-16
-6.649494238942541549e-16
-6.653032459000716470e-16
-6.329615107595204650e-16
-5.684462996401151202e-16
-4.824900666595147203e-16
-3.949998840503964384e-16
-3.284079260386448112e-16
-2.843467431534550711e-16
-2.336113106542975784e-16
-1.644416297288586887e-16
-1.237560232646810510e-16
-9.564144442359512432e-17
-6.514302913833464724e-17
-4.741151265731598683e-17
-3.384558356152336597e-17
-2.364456672190739223e-17
-1.660838019968287788e-17
-1.179355021954981980e-17
-8.499359703502118138e-18
-6.230126777301998412e-18
-4.657370438535578355e-18
-3.541647309084084184e-18
-2.729477568107862986e-18
-2.118958404373825673e-18
-1.645023426983710033e-18
-1.268096028266753466e-18
-9.647045966681043198e-19
