# bin_11_4
-8.014836695367397936e-23
-8.765708325806730882e-23
-9.357873534740093836e-23
-9.687133560153237279e-23
-9.670220207250548684e-23
-9.174324138368577185e-23
-8.218465201965404475e-23
-6.959008897164801772e-23
-5.693943437440518089e-23
-4.740803292696224817e-23
-4.102996737216532370e-23
-3.353067291607865923e-23
-2.357607398955959312e-23
-1.790381811524039790e-23
-1.376307767843669393e-23
-9.519852236613581701e-24
-6.940667043798833694e-24
-5.030781112692058136e-24
-3.584372622617240279e-24
-2.578713577657379563e-24
-1.884567797255171029e-24
-1.401636667418464078e-24
-1.061307924107780606e-24
-8.173673740725004508e-25
-6.369623811522835227e-25
-4.992513632123609968e-25
-3.908502363557473825e-25
-3.034793509496460242e-25
-2.323013747977967714e-25
-1.744239829839225385e-25
-1.279634608895591032e-25
