# bin_2_10
-4.278001085632747243e-30
-4.631299991277750834e-30
-4.881722607957255459e-30
-4.975699869159075517e-30
-4.867215584740495110e-30
-4.501256613684018777e-30
-3.936722744484043404e-30
-3.265670230429954573e-30
-2.673070533206071525e-30
-2.271838654996534444e-30
-1.952511068369419033e-30
-1.491629467559824709e-30
-1.040391268975379085e-30
-8.433680305956902227e-31
-5.856160977592355282e-31
-4.419106694818523983e-31
-3.074467548424901310e-31
-2.225730156805248789e-31
-1.617281749417124101e-31
-1.186168031021741632e-31
-8.828111160659075098e-32
-6.680565240190966592e-32
-5.146721058098741071e-32
-4.017802634917298682e-32
-3.158670054446294172e-32
-2.484127032058585040e-32
-1.940419344971859772e-32
-1.495895249803755572e-32
-1.131968514763589495e-32
-8.371963072275226599e-33
-6.033528867723853046e-33
