# bin_3_13
-1.103084577326053056e-37
-1.213562845318083584e-37
-1.305078216033565718e-37
-1.363721866807766233e-37
-1.376068039943096902e-37
-1.325699513661429933e-37
-1.205470810452970073e-37
-1.036532757609355570e-37
-8.519760508101864166e-38
-7.020335467820821545e-38
-6.042245205975513114e-38
-5.089962874207843409e-38
-3.701903281393231848e-38
-2.668443575459970891e-38
-2.151972351207511584e-38
-1.441527627297256401e-38
-1.095129285857071371e-38
-7.712506534850001927e-39
-5.449312799663888589e-39
-3.912724644926874191e-39
-2.831960787611547115e-39
-2.082116585334881593e-39
-1.557168873998799580e-39
-1.186650651816847488e-39
-9.174821712235387062e-40
-7.158419934109721902e-40
-5.599636987273443694e-40
-4.359691485871734881e-40
-3.356553377949907249e-40
-2.541355135964107049e-40
-1.884047847895331940e-40
