# bin_18_14
-5.046303927289210813e-11
-5.697868625777487342e-11
-6.325210768763500679e-11
-6.875728702939878215e-11
-7.279924915697995472e-11
-7.454956473521267917e-11
-7.337172664550405456e-11
-6.831522785611667698e-11
-6.012561496867503085e-11
-5.009122118436198147e-11
-4.097281296567666099e-11
-3.469541528014532604e-11
-2.997627643025051070e-11
-2.323452454354685348e-11
-1.603733700443727902e-11
-1.289220674970552471e-11
-9.006560590087393775e-12
-6.633716766345921610e-12
-4.471463025216377748e-12
-3.168221783500115870e-12
-2.204341613697716731e-12
-1.532138863103358708e-12
-1.071613945663152808e-12
-7.566911880380978095e-13
-5.438658382909486520e-13
-3.986216086437312339e-13
-2.978249626741226542e-13
-2.264005386004027834e-13
-1.741433815988860276e-13
-1.346003687333541896e-13
-1.037578425402153067e-13
