# bin_10_10
-3.867902674124831948e-08
-4.281651244599792131e-08
-4.639752512425896615e-08
-4.894843348844709943e-08
-4.992662376580979651e-08
-4.887527151635106257e-08
-4.522764228435931481e-08
-3.957564930256384849e-08
-3.283573777599726621e-08
-2.687904942707581964e-08
-2.285503465255150855e-08
-1.966220712096377012e-08
-1.500862158335575369e-08
-1.043005724629989603e-08
-8.460784450926631285e-09
-5.823135424325035513e-09
-4.382297303660253967e-09
-3.005081125106206345e-09
-2.144403730918941441e-09
-1.531798129672184154e-09
-1.100128666350027367e-09
-7.988669475784828468e-10
-5.888923068948366404e-10
-4.426680046914822981e-10
-3.384659655784352910e-10
-2.620616731238248541e-10
-2.043117338162800801e-10
-1.592325020692152286e-10
-1.231973227419532120e-10
-9.403919734823838589e-11
-7.047581510947252633e-11
