# bin_18_15
-8.682222729988516036e-10
-9.812906681321994137e-10
-1.090626219103488522e-09
-1.187280105203114418e-09
-1.259357328929805075e-09
-1.292446309666072482e-09
-1.275792461189411476e-09
-1.192188071381304025e-09
-1.052814390233903847e-09
-8.795211720148523463e-10
-7.191702270148882865e-10
-6.071381948616933934e-10
-5.253405978383764190e-10
-4.114650511482034637e-10
-2.837708997106701827e-10
-2.262994968487192613e-10
-1.607599186846749063e-10
-1.167398557330838573e-10
-7.898610223902801841e-11
-5.629175597944639644e-11
-3.903258308031971386e-11
-2.700881230450813597e-11
-1.883615316934410701e-11
-1.325560620129014299e-11
-9.486860725763787238e-12
-6.923190329582929857e-12
-5.151502207400656571e-12
-3.903151014790421275e-12
-2.995822544263734601e-12
-2.313722776299962343e-12
-1.784498597030723230e-12
