# bin_15_14
-1.947649219950781420e-08
-2.190446521096345005e-08
-2.420160929666013929e-08
-2.615559794826728770e-08
-2.749326990964404757e-08
-2.792130250653630625e-08
-2.715180021047396577e-08
-2.492952294619490122e-08
-2.164568879827110728e-08
-1.787386166915745155e-08
-1.466774210328564401e-08
-1.255648917755608909e-08
-1.072444911760344552e-08
-7.989608535789904822e-09
-5.604348616835274022e-09
-4.569358125173619265e-09
-3.043054647549779755e-09
-2.312092340375221644e-09
-1.579694394273083383e-09
-1.095630257617909250e-09
-7.693436861561496480e-10
-5.403010564164768307e-10
-3.820370859589714711e-10
-2.735228322470722146e-10
-1.997405272629103625e-10
-1.487010782029162217e-10
-1.126678304595252465e-10
-8.655444684370224830e-11
-6.697460158721853069e-11
-5.181978613122823083e-11
-3.980322103571891162e-11
