# bin_9_17
-2.625468686339691826e-21
-2.943681103755064214e-21
-3.240261472994735818e-21
-3.485747769470478424e-21
-3.642785237529919798e-21
-3.675547028704955011e-21
-3.539459990352486273e-21
-3.216415523302248010e-21
-2.763619125842523714e-21
-2.270901500768352660e-21
-1.872750554912984182e-21
-1.613897574703038568e-21
-1.357785578187781320e-21
-9.828493031554405994e-22
-7.093660913616412135e-22
-5.702047122039253850e-22
-3.784690105409473818e-22
-2.854584515907320458e-22
-1.988209770715890311e-22
-1.379243570254755151e-22
-9.684848141659111520e-23
-6.819815510899076041e-23
-4.862663622197450677e-23
-3.519624665431383149e-23
-2.599150831544779276e-23
-1.955281351525445184e-23
-1.494426231723076718e-23
-1.154705089743531461e-23
-8.956310849536982319e-24
-6.922780070286849831e-24
-5.296470898795243415e-24
