# bin_1_17
-1.086826170677914054e-77
-1.209706842629172349e-77
-1.319752293427624751e-77
-1.404048183577073056e-77
-1.446623721516157957e-77
-1.435575286131584054e-77
-1.350842099657162457e-77
-1.200751154171149753e-77
-1.008993084291877558e-77
-8.248758874081178187e-78
-6.918527409110555011e-78
-5.992486328536822615e-78
-4.793168463670142074e-78
-3.323490086194662330e-78
-2.595841583847457472e-78
-1.917757667296489475e-78
-1.358405544818441308e-78
-9.503553219375421734e-79
-6.885128365361901192e-79
-4.848594199461062588e-79
-3.424751722407647333e-79
-2.455400295973300901e-79
-1.786039293251672535e-79
-1.323054590807194299e-79
-9.987267535160117033e-80
-7.656487926785763413e-80
-5.934029009626396752e-80
-4.618222419033640067e-80
-3.583081733728121765e-80
-2.752659678533100061e-80
-2.082261268345757634e-80
