# bin_9_7
-3.227504240351327324e-09
-3.534224720957669758e-09
-3.778779602863808810e-09
-3.919462062167818808e-09
-3.921649902017536907e-09
-3.732479992271820197e-09
-3.353761807967043384e-09
-2.848581686204139287e-09
-2.332299236791440671e-09
-1.937233846295486853e-09
-1.675561673509730593e-09
-1.378942994122553276e-09
-9.752476806960469697e-10
-7.324804567691092685e-10
-5.696661903950668825e-10
-3.904305172444259489e-10
-2.876749607080073776e-10
-2.073173629491939439e-10
-1.474033664300622324e-10
-1.059586783062664405e-10
-7.725098819146849790e-11
-5.731933828811523519e-11
-4.329545021768352426e-11
-3.327606682064603850e-11
-2.589350100897819459e-11
-2.027945007401928694e-11
-1.587583551090492655e-11
-1.233516672109993102e-11
-9.454114278431172278e-12
-7.111266404429983736e-12
-5.228547901770275937e-12
