# bin_19_3
-3.955935367706768213e-68
-4.431097526057875884e-68
-4.871747571661430890e-68
-5.233130130238506541e-68
-5.458682776645305858e-68
-5.496127132800155802e-68
-5.276245832885795306e-68
-4.779754261929223969e-68
-4.093692128761368913e-68
-3.359821118745827068e-68
-2.776006461871994726e-68
-2.396235626112469174e-68
-2.004707841792118202e-68
-1.439388838680026846e-68
-1.050004441684784992e-68
-8.367235268747693396e-69
-5.578541108171299785e-69
-4.177703794385031932e-69
-2.927701120786979043e-69
-2.034137811661755101e-69
-1.428129663292181403e-69
-1.007325706779314766e-69
-7.201980055088199371e-70
-5.230330699893040399e-70
-3.875206369119865444e-70
-2.923898777784269500e-70
-2.240028176328984024e-70
-1.733286386672679641e-70
-1.344952167963519499e-70
-1.038988460196203034e-70
-7.938005461037669667e-71
