# bin_11_5
-2.016276456391401426e-18
-2.210749651255315419e-18
-2.367535849845129255e-18
-2.460753771706101265e-18
-2.468022332914456308e-18
-2.356856705178805845e-18
-2.124483619935557133e-18
-1.810374071202921951e-18
-1.483431595528827100e-18
-1.229182054896913885e-18
-1.062246302141406632e-18
-8.803522031021667596e-19
-6.266921126878072932e-19
-4.653551723166210765e-19
-3.661381555982070254e-19
-2.487550185272160037e-19
-1.851962496441980069e-19
-1.326488565980327904e-19
-9.411840097000192141e-20
-6.761249442730820601e-20
-4.917650599592276257e-20
-3.639756630003596371e-20
-2.742089827117052082e-20
-2.102903078401819241e-20
-1.633741167331907289e-20
-1.278397128258060501e-20
-1.000720069708689917e-20
-7.780512846442225261e-21
-5.971066415567090274e-21
-4.499632075184557305e-21
-3.315915055915145422e-21
