# bin_12_4
-8.846247779229044587e-27
-9.713399888454632135e-27
-1.042082861693956292e-26
-1.085587112210773252e-26
-1.091634280605362504e-26
-1.046367117901035757e-26
-9.466430156732923230e-27
-8.097225361104463342e-27
-6.642534130001839128e-27
-5.490306856280164927e-27
-4.737809994869992971e-27
-3.955188134029573770e-27
-2.839517792140972658e-27
-2.081682816088409483e-27
-1.657064654462163016e-27
-1.117177938103736525e-27
-8.401619647616178561e-28
-5.974465271213855267e-28
-4.230301181933424658e-28
-3.037987101613866605e-28
-2.204418093477765529e-28
-1.626976804913027394e-28
-1.222006833300012932e-28
-9.347279514872568079e-29
-7.247813548714698086e-29
-5.664963751227456365e-29
-4.433551743621928757e-29
-3.449280528755370044e-29
-2.650821574689853565e-29
-2.001626187339847536e-29
-1.478817447491738533e-29
