# bin_11_10
-2.133475158136131365e-08
-2.367157098449510893e-08
-2.572432920583335210e-08
-2.723474370311351250e-08
-2.789435161518436367e-08
-2.746616265943021861e-08
-2.559375578474210667e-08
-2.254362570230705110e-08
-1.879547381705909735e-08
-1.536913397718377116e-08
-1.299485552743420949e-08
-1.122620089988836065e-08
-8.739210053358333095e-09
-6.045134874979332988e-09
-4.846982062444755690e-09
-3.429153404514510392e-09
-2.525483670582276691e-09
-1.731772961872618889e-09
-1.248213844063109843e-09
-8.864581798982371560e-10
-6.324279998115259051e-10
-4.569420255402652625e-10
-3.349762637213919000e-10
-2.503246107615840332e-10
-1.904348791906914595e-10
-1.468886993197397395e-10
-1.142781740887970352e-10
-8.903911220211991680e-11
-6.898547463716653427e-11
-5.280708131955681306e-11
-3.973298766381853577e-11
