# bin_3_14
-1.275863123135164906e-42
-1.408797276548799188e-42
-1.521908380290665037e-42
-1.599387004365441245e-42
-1.624200992271748280e-42
-1.579782830504724386e-42
-1.451162929515536554e-42
-1.260686443998410646e-42
-1.041337320973646588e-42
-8.541327659473192033e-43
-7.303066537391595208e-43
-6.240010308303961724e-43
-4.666049737280999847e-43
-3.276752390653859282e-43
-2.671420351683928162e-43
-1.800405313623140664e-43
-1.372565675352536565e-43
-9.495372829237203606e-44
-6.718953301445440689e-44
-4.818521397746459611e-44
-3.475764992766592728e-44
-2.537023197217097726e-44
-1.881403595205727773e-44
-1.422657976253599121e-44
-1.093162276635035844e-44
-8.493983775112005999e-45
-6.633730067800157466e-45
-5.169408499921676176e-45
-3.992315516492642142e-45
-3.037632003476901223e-45
-2.266552429106879719e-45
