# bin_7_12
-1.453652749649483937e-14
-1.606517256534906328e-14
-1.737376505293174633e-14
-1.828292103969343278e-14
-1.859480566627744477e-14
-1.812721869468013641e-14
-1.669348116649267928e-14
-1.453871804630256088e-14
-1.202636830527191101e-14
-9.856355770380071466e-15
-8.411987780160857466e-15
-7.206867086559778411e-15
-5.427073808304541640e-15
-3.794448420863173423e-15
-3.091635316632822500e-15
-2.095596124013893379e-15
-1.592929656405880783e-15
-1.097870824746018224e-15
-7.785522411970348832e-16
-5.578076370556317110e-16
-4.019171738345820579e-16
-2.928516981860050354e-16
-2.167259128035695716e-16
-1.635549209040015064e-16
-1.254685871659777333e-16
-9.737813046244816795e-17
-7.601093686078173670e-17
-5.923826995910569036e-17
-4.577994750698099844e-17
-3.487219110517191710e-17
-2.605990785722045349e-17
