# bin_11_10
5.568616629602156151e-06
6.177397146803691069e-06
6.711546887135692527e-06
7.103585836134136905e-06
7.273146282844683960e-06
7.158155107201465325e-06
6.666368667118555157e-06
5.868771254540585478e-06
4.890936411833319581e-06
3.999573869294701158e-06
3.383303411635449682e-06
2.922074350650835834e-06
2.271051375483756248e-06
1.571227222375599558e-06
1.261330649489254070e-06
8.901652856660656605e-07
6.569583804762951239e-07
4.502858933084721098e-07
3.243063514154831289e-07
2.304364709299491850e-07
1.645031991500954638e-07
1.189068303638221172e-07
8.720774044707320662e-08
6.520156812519043569e-08
4.962344776644510829e-08
3.828874936592958445e-08
2.979401635759645590e-08
2.321472442667154343e-08
1.798440674196640259e-08
1.376365599276379379e-08
1.035270508253974963e-08
