# bin_10_4
7.293596382553115869e-17
7.939946319989390356e-17
8.427409197416795295e-17
8.660637749667460876e-17
8.567989814659316909e-17
8.033075119864158407e-17
7.117043788378515770e-17
5.963806564871512799e-17
4.874539261788346718e-17
4.097175294638740983e-17
3.544196655582295158e-17
2.812051628351308009e-17
1.952802248697941493e-17
1.539652813487796606e-17
1.128182713699935204e-17
8.140197649453819691e-18
5.726633391941510260e-18
4.193076271665641919e-18
3.014115422062075365e-18
2.184464975900930620e-18
1.610918114558824496e-18
1.208075984594213774e-18
9.225310981812667539e-19
7.153528234838660001e-19
5.600656556575169943e-19
4.399156321787496430e-19
3.442056944776488422e-19
2.664740380279360411e-19
2.029475689661147227e-19
1.513506335881311959e-19
1.101299945282109795e-19
