# bin_18_1
3.976574148011748945e-81
4.438342362911949870e-81
4.858419172379259689e-81
5.190489854456569565e-81
5.376497118817521098e-81
5.370083583848150972e-81
5.096848982082748636e-81
4.567142491684995846e-81
3.867735553433256365e-81
3.165031271255710965e-81
2.636293417091297472e-81
2.283368967305794296e-81
1.865911632892571684e-81
1.307986905355534460e-81
9.925039955804684056e-82
7.600350342787059913e-82
5.215481265258251892e-82
3.762652995100441314e-82
2.698029305221854430e-82
1.887900881609020941e-82
1.326935647070047506e-82
9.441988477634787347e-83
6.818725009005854881e-83
5.009941688213787748e-83
3.753480847073038774e-83
2.859651997448618783e-83
2.206864248152579959e-83
1.714378845182433562e-83
1.330886305077062465e-83
1.025245600615980260e-83
7.790275073336916506e-84
