# bin_19_13
6.009622198695324180e-12
6.786671168985509254e-12
7.535361138381551747e-12
8.193166920909370290e-12
8.677390563640203817e-12
8.889153217274041987e-12
8.752965662688210582e-12
8.154554469681044870e-12
7.180949490129222374e-12
5.985070983593826387e-12
4.895198126616929799e-12
4.143178144165760101e-12
3.580716434703489027e-12
2.780082203832220000e-12
1.918386177964628322e-12
1.540445479647111160e-12
1.078973911310536324e-12
7.930608882099991118e-13
5.346644725219736033e-13
3.792443985545716256e-13
2.637175671334467159e-13
1.831722667987962860e-13
1.280559095319890989e-13
9.037285114941045290e-14
6.491027154161952164e-14
4.754243090386950115e-14
3.549779464738570673e-14
2.697086840129431789e-14
2.073884737818231402e-14
1.602796608429016552e-14
1.235659926050131223e-14
