# bin_13_3
2.094407942260564440e-35
2.303591361941032335e-35
2.476534231796326968e-35
2.586795180774972244e-35
2.609052079861470433e-35
2.511898984995351297e-35
2.282559504732763318e-35
1.961322909514275922e-35
1.611656935642317286e-35
1.328516499898666551e-35
1.143857929170226676e-35
9.624999212955204693e-36
6.987849615987845515e-36
5.047810655557065257e-36
4.064836716548933142e-36
2.724342697011975223e-36
2.067509168666863147e-36
1.457874334081408791e-36
1.030287738227926572e-36
7.397823728461399775e-37
5.355934060432874898e-37
3.939757134367096033e-37
2.948126036281511574e-37
2.247761596930086228e-37
1.738575634699078817e-37
1.356812271745439841e-37
1.061440330358148412e-37
8.263308940902984458e-38
6.360513514339845331e-38
4.814079894214437359e-38
3.567351063414399797e-38
