# bin_12_12
8.603296642578253894e-06
9.607210981445077721e-06
1.052287975145642752e-05
1.125048582822797971e-05
1.166470980192143269e-05
1.166377064533134760e-05
1.108704214727860142e-05
9.949437039428766575e-06
8.437960081696307534e-06
6.906918314753337593e-06
5.746271161758499621e-06
4.975813058095827809e-06
4.080174030810351703e-06
2.867947244177541028e-06
2.164639480051196001e-06
1.667417967341730329e-06
1.138752100939090920e-06
8.262077540403075352e-07
5.906958738482467191e-07
4.128946724049832807e-07
2.900939907548960321e-07
2.061428058527504750e-07
1.486736040775213731e-07
1.090633494273819720e-07
8.160133507045347567e-08
6.209500719752104242e-08
4.787949107809605637e-08
3.718052966601692352e-08
2.886575742245048316e-08
2.224776190429929139e-08
1.691911567657763284e-08
