# bin_20_1
5.114431855528983161e-92
5.741422465767757802e-92
6.329332945520386335e-92
6.821379193782447211e-92
7.145192857704308274e-92
7.228402073108667991e-92
6.987610874162144922e-92
6.375482304984597613e-92
5.500393722116599958e-92
4.527756358571255440e-92
3.725860425545010025e-92
3.203038555829084957e-92
2.712240411120194817e-92
1.985122571267372572e-92
1.414794189247714498e-92
1.146597836467811464e-92
7.595503378293135459e-93
5.761401050048828294e-93
3.982423603200440625e-93
2.759299533439866042e-93
1.937927073115344364e-93
1.362790507647424858e-93
9.685221933253639192e-94
6.978945679514304816e-94
5.131909408779432970e-94
3.845376709366148712e-94
2.929486690170522149e-94
2.258902502736379195e-94
1.750814960939311844e-94
1.354072701917463222e-94
1.037735179530105668e-94
