# bin_20_7
1.783859154638100110e-39
2.008422671176366155e-39
2.221908250874701339e-39
2.405088553343377507e-39
2.533070494431549198e-39
2.578228692204049417e-39
2.515360655618602148e-39
2.317959602914133509e-39
2.019976188357783817e-39
1.671415961199935069e-39
1.369948291761355493e-39
1.169666566247419880e-39
1.003033195226704530e-39
7.549762580992338286e-40
5.261540141443327472e-40
4.287047669259021588e-40
2.879122975792767719e-40
2.179508204854747084e-40
1.479872862901657826e-40
1.029718472699629233e-40
7.222699704630117830e-41
5.066106685035169403e-41
3.572275203653165372e-41
2.547509894127080056e-41
1.852824010525262037e-41
1.373997352914892537e-41
1.037478389626728690e-41
7.950853567337931615e-42
6.144806344209014097e-42
4.754617223714356285e-42
3.656437678690522273e-42
