# bin_13_8
8.391555278148629013e-12
9.322088430180555652e-12
1.014555087388629644e-11
1.076101586260741045e-11
1.104610565202507141e-11
1.090875859440735277e-11
1.020219040810317639e-11
9.017254505835419893e-12
7.539047899648154476e-12
6.163006830275788839e-12
5.195210651447485298e-12
4.494269614881376417e-12
3.534928397300619713e-12
2.444242903780827456e-12
1.943053290062185248e-12
1.396935888134200498e-12
1.014483474190618838e-12
6.989301711648663830e-13
5.057254422410701947e-13
3.579804938813247042e-13
2.543882327305373562e-13
1.833075515001181960e-13
1.339848231907865495e-13
9.981214364265729231e-14
7.572760874810832352e-14
5.828759117414712378e-14
4.529173770196786229e-14
3.528077371379942875e-14
2.735368498474903167e-14
2.096999497026703620e-14
1.581188744452091956e-14
