# bin_10_5
3.892914624296339469e-13
4.254023439127855749e-13
4.536547506429110417e-13
4.689709719477897993e-13
4.673819118273398632e-13
4.424143880811154217e-13
3.955051929160182708e-13
3.341930407802342967e-13
2.733501359316343779e-13
2.279928919137533250e-13
1.973534499223077118e-13
1.604478248015901676e-13
1.124348904871578053e-13
8.602582979792626797e-14
6.556280291961364175e-14
4.567733714285219025e-14
3.305278055254598994e-14
2.403530198103733743e-14
1.715004510868515620e-14
1.234841523718082773e-14
9.039085728999362185e-15
6.732919475783223562e-15
5.105904989704167189e-15
3.937611418896854782e-15
3.071329108501990529e-15
2.408454327043239999e-15
1.885522761538297121e-15
1.463401452663419054e-15
1.119270279722319276e-15
8.394675307176128248e-16
6.150189300468858278e-16
