# bin_17_11
9.600093335327625044e-13
1.079492271350668139e-12
1.192425893459735388e-12
1.288321190372483416e-12
1.353701467229265620e-12
1.374236522375198217e-12
1.335468750786726360e-12
1.225313105798033574e-12
1.063150139216836229e-12
8.775703062290048806e-13
7.203367262497933327e-13
6.169559058327453281e-13
5.264964132617891955e-13
3.914601919242130558e-13
2.749949161237543491e-13
2.241627816516957390e-13
1.491118239829110085e-13
1.133279462893160991e-13
7.752587028202819691e-14
5.374974477870771640e-14
3.774529992420053033e-14
2.651141144161478284e-14
1.875740556039562680e-14
1.343636041249015896e-14
9.819854741317601577e-15
7.315919036360202233e-15
5.546427973293857206e-15
4.262794838087547062e-15
3.299238350976912570e-15
2.552701158867759414e-15
1.960374643049774416e-15
