# bin_3_3
2.207037365772053885e-05
2.275817662774621663e-05
2.261937877681817697e-05
2.135703707457869318e-05
1.905604948979606233e-05
1.608599174604954056e-05
1.316382575953182067e-05
1.098719550533708324e-05
9.483113358831262316e-06
7.676809887777094176e-06
5.427855022890097639e-06
4.162795972530197288e-06
3.172863536186746637e-06
2.250992689526294792e-06
1.653570334826377516e-06
1.217618949600416148e-06
8.933036113447770931e-07
6.659808036081784306e-07
5.059182056862965541e-07
3.914561894890750557e-07
3.076470286529418565e-07
2.443610490123245867e-07
1.947205273767210716e-07
1.545457284441322024e-07
1.213283515987268425e-07
9.362344285248001026e-08
7.064334588911976461e-08
5.193100634583633161e-08
3.711944142146238698e-08
2.581344608982188587e-08
1.750238112720961081e-08
