# bin_20_4
7.675566246074223782e-62
8.625795027548112907e-62
9.521453155340033310e-62
1.027818032069049510e-61
1.078792319048404517e-61
1.093821705682168100e-61
1.060999142228701481e-61
9.715421397743676228e-62
8.412649935454399859e-62
6.937017355526134722e-62
5.698748497860426266e-62
4.887575295341169862e-62
4.160220453792989345e-62
3.075829777027889872e-62
2.170693955523025144e-62
1.767356971644276299e-62
1.172600267693227218e-62
8.914117269785428554e-63
6.120406466041497429e-63
4.240460419316795394e-63
2.978312531233230029e-63
2.092745457500545579e-63
1.482993265722746388e-63
1.064525377879186439e-63
7.797156456828453115e-64
5.821071165995154282e-64
4.420980479604656282e-64
3.401978041868355735e-64
2.634491968777118771e-64
2.038158995069752394e-64
1.564132964534844149e-64
