# bin_8_1
9.154665212701713466e-25
9.746107829908395636e-25
1.005747447989677389e-24
1.000405595653750966e-24
9.449191739509250322e-25
8.431551832069947716e-25
7.113501701793518329e-25
5.817492524832993764e-25
4.856872928298817123e-25
4.200299969660442087e-25
3.400888351266994673e-25
2.387857040684416610e-25
1.836737269471041986e-25
1.395508979796609500e-25
9.844400786883465343e-26
7.158306789526416397e-26
5.253043892136430900e-26
3.807845016468142677e-26
2.795724860889211138e-26
2.090688549028025690e-26
1.592370331378804979e-26
1.233616543454117524e-26
9.686055369600358719e-27
7.656458905557384492e-27
6.051138132791042083e-27
4.748221270014651100e-27
3.674903197358650854e-27
2.789913134930979517e-27
2.068491124443874862e-27
1.493117445101801541e-27
1.048444210826311206e-27
