# bin_18_17
5.574908221916694467e-06
6.316364254672575846e-06
7.041062035797220471e-06
7.693022586492998010e-06
8.197098814291918026e-06
8.459765215704709822e-06
8.411098845964966797e-06
7.931814091130507020e-06
7.064662618937970424e-06
5.946469334614283205e-06
4.862890636493090041e-06
4.074587955046775230e-06
3.531539806779470808e-06
2.837277522894063515e-06
1.965837984778748988e-06
1.526056145511081191e-06
1.131001910886118432e-06
7.901506219303309026e-07
5.485716119777372931e-07
3.921070668201881237e-07
2.699219563867316053e-07
1.850085195201216017e-07
1.280116545081159115e-07
8.932494344913182777e-08
6.322940664475047495e-08
4.562160554986316347e-08
3.357173075625946809e-08
2.519735773287220100e-08
1.921313108912987911e-08
1.479258724615577121e-08
1.141421502188172262e-08
