# bin_20_9
2.013685902459387252e-28
2.270656199741431944e-28
2.516604753543658298e-28
2.730203544630195493e-28
2.883545849146732350e-28
2.944332476304461073e-28
2.885929857698670022e-28
2.673823067482896210e-28
2.342384546420961558e-28
1.944717934394586892e-28
1.591910089203501184e-28
1.353514450686449160e-28
1.166022800482787540e-28
8.911241363484631305e-29
6.170525111816804974e-29
5.001610725394853669e-29
3.421236751993411463e-29
2.560601151873798171e-29
1.727198048619128593e-29
1.212201588762065772e-29
8.473034523301000760e-30
5.921263567148297393e-30
4.157992247289399917e-30
2.949545402095896526e-30
2.132269400236883584e-30
1.571909791344813750e-30
1.180655960924921754e-30
9.012537733141505009e-31
6.950105145883196739e-31
5.376080378101753788e-31
4.140305426435289673e-31
