# bin_13_7
9.469055782286458955e-15
1.049908381728724018e-14
1.139985142679664786e-14
1.205632221888614323e-14
1.233274524566421452e-14
1.212183526227711547e-14
1.127111965946835753e-14
9.907988721196147948e-15
8.247495578371873938e-15
6.745510079462706263e-15
5.713611414206213358e-15
4.930972581197886925e-15
3.815218507971248515e-15
2.641133994961865335e-15
2.127038924258976550e-15
1.491013701061052498e-15
1.106628488920946231e-15
7.577141296941281436e-16
5.445608913290472696e-16
3.874847001930925200e-16
2.770822727159200976e-16
2.005313387607224509e-16
1.472417540238796450e-16
1.102433955538674361e-16
8.400996838788664110e-17
6.488199469634821343e-17
5.051703079441459474e-17
3.936880523096683608e-17
3.049285413127820727e-17
2.332429762300238366e-17
1.753028207855216756e-17
