# bin_20_18
2.104093835553336639e-06
2.390212187096938109e-06
2.673306274122457655e-06
2.932731658933863310e-06
3.140781946967694917e-06
3.262574508405127566e-06
3.268918161057579048e-06
3.115144669263660369e-06
2.801847710364259389e-06
2.381481971043633966e-06
1.950501023099560048e-06
1.620658967874703098e-06
1.403640387525296868e-06
1.156264900187333822e-06
8.143826011709574828e-07
6.097560924219805253e-07
4.718819549261165573e-07
3.179988000579156693e-07
2.302345967992466441e-07
1.618122768189646464e-07
1.106371778736603744e-07
7.556674404979182802e-08
5.177812204173050884e-08
3.576982397246030413e-08
2.499025227990393831e-08
1.777816580513362716e-08
1.289513001821235557e-08
9.551413477450780309e-09
7.208798782751928267e-09
5.516064369395504580e-09
4.249176061705579657e-09
