# bin_8_2
7.996749798622831798e-19
8.551455934693769988e-19
8.874795002510783723e-19
8.887636329437517792e-19
8.472294263056398412e-19
7.626187625218581861e-19
6.489901533505298158e-19
5.316628183780578702e-19
4.408439170842945269e-19
3.807170076808770023e-19
3.146294703228229726e-19
2.241850154475599823e-19
1.673320786558824977e-19
1.313380016235869045e-19
9.028468387709643337e-20
6.738864156313057007e-20
4.881928806547399710e-20
3.518208367827775105e-20
2.574381029302538175e-20
1.913498068657563440e-20
1.449052031077732801e-20
1.116374761959390367e-20
8.729959890871446709e-21
6.884433648092528140e-21
5.438023783273153839e-21
4.272658708807829736e-21
3.316555271922591522e-21
2.528912581697520502e-21
1.885387168303649206e-21
1.369530055509687126e-21
9.678889123223554884e-22
