# bin_16_5
1.781115319944365053e-35
1.984631810893979344e-35
2.167998164721875273e-35
2.310203696992117444e-35
2.385087193088764075e-35
2.372816828590040396e-35
2.240033063206521996e-35
1.997299353471079913e-35
1.683096119153273209e-35
1.376307778356079205e-35
1.151293538110744261e-35
9.974091576253749139e-36
8.046224721094866564e-36
5.596900182661237565e-36
4.325277779486256369e-36
3.240864658310869076e-36
2.266214961854175697e-36
1.602961885959729842e-36
1.158561382326704449e-36
8.138248755881549251e-37
5.734471207286802070e-37
4.099955921552762136e-37
2.974400682596763961e-37
2.196739548147697566e-37
1.653884478250216230e-37
1.265142010384324400e-37
9.791311822678599759e-38
7.616449243124425837e-38
5.911610156439185872e-38
4.546916857168511533e-38
3.445800574038014150e-38
