# bin_16_3
1.263113645438354370e-55
1.401832274939665454e-55
1.523942904205004584e-55
1.614178978361884556e-55
1.654213357412376109e-55
1.630120026068338123e-55
1.520461980720670536e-55
1.340479643039087514e-55
1.118392433510091678e-55
9.144048100711219140e-56
7.725347922283219323e-56
6.677133108080377591e-56
5.212101496217366027e-56
3.603835755938716562e-56
2.884152515684655816e-56
2.048898867633923311e-56
1.503997918679615152e-56
1.031811862913762758e-56
7.448319393899033528e-57
5.285586133554299854e-57
3.767570186940900056e-57
2.720469092667903649e-57
1.993455258581359685e-57
1.488666132061882924e-57
1.131787330193610338e-57
8.726182434355752387e-58
6.787131364213487921e-58
5.287800083674618641e-58
4.097385749521511297e-58
3.137358510773192435e-58
2.361559464353527938e-58
