# bin_5_20
3.605699109491366246e-07
3.835347519782770194e-07
3.954289375573175532e-07
3.928054242877117924e-07
3.705461212400954101e-07
3.302815060496932794e-07
2.785407236077613666e-07
2.279606126315609285e-07
1.905330198721510664e-07
1.644854119617124357e-07
1.326543865344066540e-07
9.353655880043284447e-08
7.195649686325361351e-08
5.440858115939740937e-08
3.858314830662066239e-08
2.807941321242110839e-08
2.052417579015004127e-08
1.489742923912927809e-08
1.095974827136462123e-08
8.203341307870216892e-09
6.252095075484970649e-09
4.846125073146407129e-09
3.805539327475693117e-09
3.008006930387514275e-09
2.376540158776369953e-09
1.863699432250694578e-09
1.441255791939972118e-09
1.093118619499555212e-09
8.096107313119874515e-10
5.838323334784268014e-10
4.096107003019684459e-10
