# bin_18_14
6.705096476110145812e-13
7.560041314985979366e-13
8.378409896896946622e-13
9.089211468068813778e-13
9.599511626302054467e-13
9.801611488541977290e-13
9.607425395608052386e-13
8.901487337751546864e-13
7.798143526727597755e-13
6.474455060443286531e-13
5.300013990772703976e-13
4.506207032101537652e-13
3.881899408987160043e-13
2.966884212845600729e-13
2.054549535732265554e-13
1.665118131280504617e-13
1.139259529853236688e-13
8.524478163882525556e-14
5.750900221697163780e-14
4.036563529240141031e-14
2.821227751152618931e-14
1.971331518028185517e-14
1.383872553085081643e-14
9.820115379232402796e-15
7.097556587754370098e-15
5.231249536334196544e-15
3.928883729292726417e-15
2.998723385888126157e-15
2.312177173615470767e-15
1.788318913200887173e-15
1.377094018011540922e-15
