# bin_17_13
4.668871771860520896e-13
5.251368935930476750e-13
5.802924325295177815e-13
6.272731742121876382e-13
6.595357685314472255e-13
6.700156991468767419e-13
6.518697302983172694e-13
5.988447125161793933e-13
5.202471041464402973e-13
4.297261676773554463e-13
3.525812351241753238e-13
3.017124258381976750e-13
2.578517859736663093e-13
1.923949794045783791e-13
1.348233683633438799e-13
1.099146977975855700e-13
7.329157833732122948e-14
5.565720749861881882e-14
3.799018486822557166e-14
2.636127954092258935e-14
1.850777526690399510e-14
1.299543420133159076e-14
9.183306831027358310e-15
6.572626709491015379e-15
4.796076090469532712e-15
3.568157169585383090e-15
2.702066402246839549e-15
2.074910006335758474e-15
1.605129541581078213e-15
1.241848475807524105e-15
9.539719000351049526e-16
