# bin_13_9
7.880603934260377489e-14
8.750604170780367751e-14
9.518912537295255561e-14
1.009055330579820454e-13
1.035079839037012776e-13
1.021318069987693634e-13
9.541415113086436073e-14
8.424576444258826494e-14
7.037709207780401823e-14
5.753614831293244945e-14
4.854441523678156833e-14
4.197915531298649841e-14
3.291815559480248978e-14
2.276247595413544532e-14
1.814285711968787502e-14
1.298231906673555402e-14
9.468040295065659915e-15
6.513151972665109947e-15
4.708258625290651818e-15
3.336299371168465026e-15
2.373891568036457087e-15
1.712002814820592419e-15
1.252861438621031642e-15
9.342759527265210212e-16
7.094046630491983543e-16
5.464210115705147062e-16
4.247473906620180630e-16
3.308644220687328578e-16
2.564425639588781539e-16
1.964761297775970084e-16
1.480233792833299947e-16
