# bin_10_15
9.441999877259057041e-08
1.043589472314654985e-07
1.128769641184809047e-07
1.188096704342553530e-07
1.208740393637708559e-07
1.178838637950700746e-07
1.086334803975494989e-07
9.466989562107590010e-08
7.836715428562089188e-08
6.423733902057466218e-08
5.478238202957755983e-08
4.691969705296555117e-08
3.541674154923631205e-08
2.479242104726421656e-08
2.012141758610590623e-08
1.373029696210791153e-08
1.037656447928869715e-08
7.161063309540836739e-09
5.092677164399554475e-09
3.644051703092952562e-09
2.622527903863422937e-09
1.909998389496740715e-09
1.413298168409035123e-09
1.065998151166319359e-09
8.173854576542736166e-10
6.341658890665712285e-10
4.948759999176208946e-10
3.856133996940371342e-10
2.979938756150108704e-10
2.270072992285808138e-10
1.696681690035085288e-10
