# bin_20_10
5.406901429242898163e-29
6.091788050759490198e-29
6.745239930297977193e-29
7.309515670417908643e-29
7.709422570530633977e-29
7.859399720823852562e-29
7.686386761334921617e-29
7.102717487597380544e-29
6.206429604284558125e-29
5.143993472992515289e-29
4.213201006862086499e-29
3.589760837520733343e-29
3.086253490425764761e-29
2.341036916832188268e-29
1.625409977081242438e-29
1.321686109734723348e-29
8.951706196889417396e-30
6.743950689480104182e-30
4.561013796869698664e-30
3.185771214272435714e-30
2.231319537792064564e-30
1.562699699940098383e-30
1.099271397876283793e-30
7.820981708123966918e-31
5.669740414032374369e-31
4.191388911712913516e-31
3.156384788880682138e-31
2.414022536129391539e-31
1.863527566699376725e-31
1.441652475047403556e-31
1.109422795617982958e-31
