# bin_9_1
1.099493857973845165e-34
1.176477909471266274e-34
1.221972080949377982e-34
1.224906451993579904e-34
1.169307177902394879e-34
1.053863835686487119e-34
8.980625291696450266e-35
7.359346869753506360e-35
6.096167569363647751e-35
5.262891105558452010e-35
4.361610397731473930e-35
3.116113137628298381e-35
2.315382921209102110e-35
1.825652165215977617e-35
1.250971733209849336e-35
9.372733799981214300e-36
6.775821415445349069e-36
4.880069084715938997e-36
3.570538227900978282e-36
2.652283508586433329e-36
2.007026285495023938e-36
1.545429126281497210e-36
1.207741425670604199e-36
9.520973444163371525e-37
7.519643215324005237e-37
5.908441120073948577e-37
4.587329094432567450e-37
3.499222588439046803e-37
2.610076995677024659e-37
1.897020768725873285e-37
1.341462559762666399e-37
