# bin_18_1
2.592164280855494325e-86
2.889883285211632114e-86
3.159113671327941480e-86
3.369414327845090459e-86
3.482769437666054952e-86
3.469907006939138748e-86
3.282166093552217947e-86
2.931745985940727535e-86
2.474931670587674284e-86
2.024260197530823632e-86
1.690663922538589371e-86
1.464695443062824604e-86
1.187331394969108260e-86
8.279516275839227372e-87
6.356600087042628601e-87
4.801873111695590150e-87
3.333669467231040175e-87
2.374811497702767469e-87
1.712372929314854212e-87
1.201159651695224855e-87
8.454595072558520554e-88
6.034471701591898646e-88
4.370969660687239238e-88
3.222478415919300446e-88
2.421611772406619174e-88
1.849781431126141169e-88
1.430133123673419727e-88
1.111876099325198376e-88
8.629916235181179993e-89
6.640718818961063938e-89
5.036656690665974916e-89
