# bin_8_5
1.192287917373277799e-12
1.287777669481635051e-12
1.353537431318123491e-12
1.375163218180405984e-12
1.338872984305350560e-12
1.231714779840242850e-12
1.071699628999274225e-12
8.863095089941017116e-13
7.266139099254532615e-13
6.199083856705332717e-13
5.300157967592719539e-13
3.991948646817222056e-13
2.807258001113691412e-13
2.280532845827365864e-13
1.564570580514751646e-13
1.189245395685662686e-13
8.319791089724009328e-14
5.999146402091583917e-14
4.369469790264374840e-14
3.213812871016437346e-14
2.399758354958265461e-14
1.822729599037658101e-14
1.408583150656673779e-14
1.102063070814432782e-14
8.674599987503188368e-15
6.822457348302686594e-15
5.323582739684617273e-15
4.095776568878038921e-15
3.090563830796270255e-15
2.277731309301295835e-15
1.635102699473931925e-15
