# bin_20_15
2.976022336852710205e-14
3.366827385000830829e-14
3.746495315573361001e-14
4.084705766921811142e-14
4.340942948717213709e-14
4.465442650505325913e-14
4.421554819586638771e-14
4.147784452853712243e-14
3.676076971848086809e-14
3.080500041199522423e-14
2.518584311634814364e-14
2.119450690681396149e-14
1.835795102840831048e-14
1.453778360356407542e-14
1.003356088724618945e-14
7.919018071990611013e-15
5.728543716283269141e-15
4.092255732317771098e-15
2.792228401875734830e-15
1.997052472975959945e-15
1.380176951278731924e-15
9.506411359220695297e-16
6.607965306499925360e-16
4.634053452739134312e-16
3.301067043573239499e-16
2.397215944278353763e-16
1.775573699099929430e-16
1.340120070437672168e-16
1.025877044729746516e-16
7.913756512787709869e-17
6.105495996974100446e-17
