# bin_6_20
2.987301655295343915e-07
3.213148011910747064e-07
3.359580738288606460e-07
3.393162908834245389e-07
3.275288208608306141e-07
2.986155377453530674e-07
2.574912789511270912e-07
2.120670774771447008e-07
1.745876685352764506e-07
1.497518326604030836e-07
1.264127299905932045e-07
9.307197895004548198e-08
6.690405804750211065e-08
5.380528084905111009e-08
3.676736422459171688e-08
2.786370912084728290e-08
1.975820009826881345e-08
1.422215394741827683e-08
1.038192618942878850e-08
7.668059137065425799e-09
5.758385057310911435e-09
4.399727062365879859e-09
3.416838880989935362e-09
2.682336801706831232e-09
2.114638958981825006e-09
1.662576955177983876e-09
1.294572760484895238e-09
9.923568413443890006e-10
7.451046873123573730e-10
5.458718173253297276e-10
3.893448362854530466e-10
