# bin_1_17
8.295521261517825299e-07
7.999069812873717839e-07
7.303772556131505288e-07
6.314700471981151707e-07
5.227126049148668096e-07
4.312059323913338488e-07
3.670692187225351840e-07
3.078113263762139656e-07
2.316245112953028012e-07
1.684577946975000595e-07
1.321217934497960814e-07
9.508997302431546493e-08
7.081773525594013459e-08
5.178673097999076176e-08
3.855995122879456097e-08
2.907309659256655733e-08
2.231828177837303754e-08
1.745497128153459464e-08
1.386019962444540275e-08
1.111329153405770615e-08
8.931302317936588818e-09
7.140119758518321533e-09
5.638557199602407732e-09
4.371353904919127513e-09
3.310548326196823012e-09
2.441053375111738662e-09
1.750358392718458158e-09
1.221418210520158461e-09
8.314014068480567288e-10
5.537594064292983001e-10
3.621231167526733025e-10
