# bin_4_11
3.139121399392582784e-07
3.290316833989853334e-07
3.333719614270438826e-07
3.234028693244732573e-07
2.966100799851559919e-07
2.573202135537778150e-07
2.127269410284219728e-07
1.747638994292578151e-07
1.491264455571271936e-07
1.266326760212805206e-07
9.507404199470322673e-08
6.779662099545956905e-08
5.440302979419381455e-08
3.797864063001754407e-08
2.862320302940251154e-08
2.040643851009754267e-08
1.491379484712640303e-08
1.100706550878283328e-08
8.235085158749625816e-09
6.271228857360761507e-09
4.857711057750148077e-09
3.818003194406475694e-09
3.025968189631300007e-09
2.401253568762584680e-09
1.894418553802149036e-09
1.475835947170593244e-09
1.128717236960544604e-09
8.434474688414330684e-10
6.138088651330375084e-10
4.344737282624830523e-10
2.993679276234086185e-10
