# bin_13_10
6.087257604334806358e-12
6.770229259350200331e-12
7.379325624162425225e-12
7.841886121228366201e-12
8.068631828462567104e-12
7.993074771089030205e-12
7.504724974515228135e-12
6.657250539906544707e-12
5.583874909232975575e-12
4.564747156617067946e-12
3.835539122496719561e-12
3.320881610681167162e-12
2.640470663130778870e-12
1.828658710561809670e-12
1.437582685111102346e-12
1.051851197844099835e-12
7.517398168507620945e-13
5.228762920176723277e-13
3.787977349872975942e-13
2.672595596540907208e-13
1.891883087784366083e-13
1.358937776590946089e-13
9.904321918982075452e-14
7.352509679177310464e-14
5.560285277041721291e-14
4.269188851174676037e-14
3.311943673007958090e-14
2.578311484978607443e-14
1.999750883881163510e-14
1.534940023494062762e-14
1.159584634767824740e-14
