# bin_2_16
6.370872637653897380e-07
6.390512120881762332e-07
6.117355158786420796e-07
5.537535611017086382e-07
4.744976710673043273e-07
3.905947128160405399e-07
3.231534825468611037e-07
2.768558391171095570e-07
2.300063186021054996e-07
1.688003219609533754e-07
1.242157091009715504e-07
9.758888827166751920e-08
6.891647554657802168e-08
5.165925130385317464e-08
3.758697544986831016e-08
2.778005212478178489e-08
2.084349259164595057e-08
1.591057252338666608e-08
1.236966827456474978e-08
9.765876768160458340e-09
7.790778533577159228e-09
6.234292695920652535e-09
4.967072495322606169e-09
3.912755912144171075e-09
3.028336729701788175e-09
2.291052392139048491e-09
1.688208603955208015e-09
1.209701246799393629e-09
8.434046253587775233e-10
5.734141254810907875e-10
3.813848196983820792e-10
