# bin_6_19
2.898600893120338433e-07
3.117686555601016315e-07
3.259696487487975007e-07
3.292197021728208306e-07
3.177712819719003282e-07
2.897081402032926661e-07
2.498008331424259209e-07
2.057295795061111970e-07
1.693733229052089377e-07
1.452825679266845993e-07
1.226331775315058329e-07
9.028028180304034428e-08
6.490343228964532602e-08
5.219408342373414194e-08
3.566572779223975459e-08
2.702854669816035309e-08
1.916702699581607498e-08
1.379652643035348585e-08
1.007133898837679240e-08
7.438809258093141780e-09
5.586368541591549807e-09
4.268406823943486012e-09
3.314926143315320061e-09
2.602369716694171414e-09
2.051610185440127923e-09
1.613019965529041795e-09
1.255973532360793491e-09
9.627532827100516615e-10
7.228614934559070839e-10
5.295624351761897497e-10
3.777014428296171156e-10
