# bin_18_4
2.647233934431496211e-57
2.956403469741690596e-57
3.238716684265363606e-57
3.463501807547421358e-57
3.592246277482660372e-57
3.593402945560897430e-57
3.417732809468571151e-57
3.068559743692247594e-57
2.603816438993482170e-57
2.131533976355846810e-57
1.772573870156476529e-57
1.534853254166230020e-57
1.260224490392471799e-57
8.865761726888468261e-58
6.679019696328118771e-58
5.156297184055706603e-58
3.514945529083046025e-58
2.555664458457847435e-58
1.825564455582167176e-58
1.275657851085527715e-58
8.961454225280672459e-59
6.365600096568348246e-59
4.588968173822785390e-59
3.365354674749879608e-59
2.516417647718292024e-59
1.914158614348271881e-59
1.475517206079582794e-59
1.145562797108443457e-59
8.893061978892513922e-60
6.854362109488287115e-60
5.213196576910028788e-60
