# bin_6_14
2.301549184547670186e-07
2.475128097060771849e-07
2.587367865169636239e-07
2.612587831614826267e-07
2.520925349062319309e-07
2.297517614629886703e-07
1.980358513804603094e-07
1.630713940541291820e-07
1.342751617297562376e-07
1.151996031350503260e-07
9.719271994040403794e-08
7.148915517145788377e-08
5.143706684089260075e-08
4.134899023079800752e-08
2.825052871294206419e-08
2.140700459874866684e-08
1.518779553509519161e-08
1.093159500233374765e-08
7.980752728702885397e-09
5.895710731347157355e-09
4.428512158103723341e-09
3.384480196664555834e-09
2.628943657507433489e-09
2.064105104551236558e-09
1.627358651582112000e-09
1.279448047932277764e-09
9.961591536667300854e-10
7.634894503063335677e-10
5.731408449043333448e-10
4.197827312211504880e-10
2.993288684211484440e-10
