# bin_9_11
5.242666065137365127e-08
5.760794380967537351e-08
6.186197829927500567e-08
6.452357023622714379e-08
6.497316114843987428e-08
6.241282801301895185e-08
5.659511581466649334e-08
4.852561881617978328e-08
3.985352073789601431e-08
3.290344011476618960e-08
2.834841800806559102e-08
2.374720920779929211e-08
1.716719017284034040e-08
1.249667171948051262e-08
9.984066310383556763e-09
6.732965309679615742e-09
5.073855307335420140e-09
3.592162572306765816e-09
2.543119175181542930e-09
1.826596956278647789e-09
1.324633289106698684e-09
9.760540616134009440e-10
7.318697436890387511e-10
5.588521789365803068e-10
4.327649284071160298e-10
3.379654067369874441e-10
2.644073058299290846e-10
2.057400403463684163e-10
1.582109396869020459e-10
1.195822738514191266e-10
8.846441978484528487e-11
