# bin_14_11
7.860097135877726723e-12
8.773683770901480402e-12
9.605611564441211139e-12
1.026445347979532751e-11
1.063558594273811800e-11
1.062677505975193522e-11
1.009138211358375702e-11
9.047155229330059946e-12
7.665675629702213212e-12
6.273700177009720839e-12
5.223585593106212398e-12
4.523758422132126852e-12
3.700966870951911312e-12
2.597120782850655869e-12
1.967024519884101593e-12
1.509330577726659647e-12
1.034144527144689154e-12
7.475856896373066502e-13
5.354461458611994871e-13
3.745551406318284742e-13
2.632592246927723150e-13
1.872523611305842554e-13
1.351697597817364111e-13
9.927484444267304703e-14
7.433602000670295635e-14
5.661190128671398542e-14
4.367551069626906052e-14
3.392206972002387592e-14
2.633230059634311126e-14
2.028619671846402271e-14
1.541669259062357520e-14
