# bin_13_8
2.761231887999830710e-16
3.060759090998967724e-16
3.322414503088639785e-16
3.512616838006581870e-16
3.591813131522059007e-16
3.528769627426285993e-16
3.279282873091908159e-16
2.881122934217206549e-16
2.397321139970158836e-16
1.960912211969040398e-16
1.661697370813078287e-16
1.433644371663776243e-16
1.107478242157941725e-16
7.669183971847161232e-17
6.182922655812158985e-17
4.324327335630296943e-17
3.215665204302304051e-17
2.201746353507564343e-17
1.581237667113303869e-17
1.125855174447581931e-17
8.056750482471771502e-18
5.833366189877107099e-18
4.287197297972046042e-18
3.211776034444224267e-18
2.448616317109154844e-18
1.891900356544822850e-18
1.473292501419970134e-18
1.148097931978902949e-18
8.890287791516360651e-19
6.797340514318010415e-19
5.105838400007416632e-19
