# bin_13_3
2.180430120529370661e-40
2.395051641801192595e-40
2.570748520432596576e-40
2.679817364471163323e-40
2.696759736826107771e-40
2.587769867505019071e-40
2.343684792754411181e-40
2.006937868346166107e-40
1.647008654452243826e-40
1.360369180431819916e-40
1.173334020625001921e-40
9.815398050576371865e-41
7.065225988143653405e-41
5.160593645541370807e-41
4.121024507607950167e-41
2.773215762153278596e-41
2.091213835639532619e-41
1.484084714524150530e-41
1.050367255341400578e-41
7.543659149433251000e-42
5.471059424629499105e-42
4.034908672206930613e-42
3.028718516005147527e-42
2.314993133063064603e-42
1.794128116529164262e-42
1.401897838197366427e-42
1.097062679427709477e-42
8.536125487887125104e-43
6.562139447428930655e-43
4.957276411163907410e-43
3.664570989088460407e-43
