# bin_15_4
8.085129610889624351e-43
8.955793600094006902e-43
9.712891287384295003e-43
1.025774890483616095e-42
1.047559035745377492e-42
1.027326839601106365e-42
9.526352083659942927e-43
8.352594821489201537e-43
6.939426159811294247e-43
5.678018698390637824e-43
4.820118057794947953e-43
4.153395166277742667e-43
3.188839860699959560e-43
2.211254492932379233e-43
1.789424822150561551e-43
1.240558802328425385e-43
9.289656457793192999e-44
6.360045614381737068e-44
4.552851756382119527e-44
3.247759762205333291e-44
2.329146155672506435e-44
1.689025142940060801e-44
1.243509438748367543e-44
9.332926121821682935e-45
7.126612854469548282e-45
5.512865529608030387e-45
4.295919810011395526e-45
3.348012732324632959e-45
2.591419793444360991e-45
1.979617244201917647e-45
1.485158799760539376e-45
