# bin_9_18
1.576690337939919239e-07
1.733974052678740778e-07
1.863966713093655978e-07
1.946746609756932272e-07
1.963264546074076570e-07
1.890083946568392633e-07
1.717816537165349034e-07
1.476329784591575642e-07
1.213660555192947943e-07
1.000756145454737911e-07
8.611289362190529514e-08
7.240672823875852417e-08
5.265652742431447566e-08
3.807082922024028478e-08
3.055005811761228254e-08
2.058069789765585496e-08
1.555464177867919567e-08
1.096640987228634626e-08
7.761548757719796613e-09
5.573274375978923459e-09
4.037404915399243491e-09
2.969926427077482718e-09
2.222734066359192214e-09
1.694415027813793710e-09
1.310407160189320126e-09
1.022512077805204850e-09
7.997564614973413403e-10
6.224840561772267751e-10
4.790496233956127877e-10
3.625088542038064927e-10
2.685808763756609020e-10
