# bin_19_10
6.406688137161283063e-26
7.206798482134634268e-26
7.964799700260788324e-26
8.611051762846000258e-26
9.055812594952841875e-26
9.201799509514849937e-26
8.955682142880755541e-26
8.230205979178432145e-26
7.152630235195265374e-26
5.909154996628866788e-26
4.847565068029464806e-26
4.147176700241023007e-26
3.546052134126481574e-26
2.648522139157255585e-26
1.854318296230680632e-26
1.512225855187653374e-26
1.008657458590423872e-26
7.660483861110634891e-27
5.225283609099051220e-27
3.625889861926023470e-27
2.545710123335190411e-27
1.787433525866283493e-27
1.262743232430325139e-27
9.034228727289965477e-28
6.589706111034171256e-28
4.900724641024145300e-28
3.709997937116568872e-28
2.848280312914153971e-28
2.203192831853907759e-28
1.704606331322055960e-28
1.309638895892846804e-28
