# bin_7_2
1.496559390433681304e-19
1.583996965534536789e-19
1.622951442586308974e-19
1.599624666086997791e-19
1.493389284348290367e-19
1.318027129390935515e-19
1.101166952259789157e-19
9.002050540295865227e-20
7.586272254525814807e-20
6.548228220519248792e-20
5.146325867672244399e-20
3.586290212632502287e-20
2.850869506847100126e-20
2.069820831719733058e-20
1.518928472895933050e-20
1.075679376947832627e-20
7.932441464462832641e-21
5.801563203984745261e-21
4.294024391199791949e-21
3.237011409607418300e-21
2.483341916942377528e-21
1.936551886098028417e-21
1.527367182039371662e-21
1.210150070329914509e-21
9.563925042281046697e-22
7.486981510264450060e-22
5.769263251587210739e-22
4.353007211105635452e-22
3.203160912470417204e-22
2.293143220919205803e-22
1.596989197769847945e-22
