# bin_2_17
6.489304394429118662e-07
6.509531941751652832e-07
6.231579092540817350e-07
5.641203517649730846e-07
4.834029360247391427e-07
3.979321574517578820e-07
3.292155216918784126e-07
2.820446032320845637e-07
2.343356246927987832e-07
1.719937267207635853e-07
1.265523311913618590e-07
9.943140258770493104e-08
7.021706809252428861e-08
5.263498929746717897e-08
3.829550142500047934e-08
2.830352638789382240e-08
2.123580734045228730e-08
1.620961709446637637e-08
1.260184628601406321e-08
9.948974844375163272e-09
7.936740911873001766e-09
6.351065150786838368e-09
5.060130020936472746e-09
3.986109647649899946e-09
3.085169521031168665e-09
2.334106806778374265e-09
1.719982794267166193e-09
1.232505352263397232e-09
8.593272619963374024e-10
5.842537838778746266e-10
3.886023173166018745e-10
