# bin_6_2
4.169325243045404641e-16
4.374288080806536497e-16
4.436350098740718734e-16
4.309744275231437210e-16
3.956258934389142613e-16
3.435412201937801654e-16
2.838353258497890672e-16
2.328242418705994184e-16
1.987584043276939005e-16
1.694795140067077223e-16
1.272539469845403884e-16
9.005204624905493754e-17
7.305416108475084886e-17
5.040021122772737709e-17
3.842695894911961844e-17
2.723207784835842689e-17
1.985299643101274565e-17
1.467086938629086791e-17
1.098204939201182333e-17
8.360769862481339136e-18
6.474381319669671705e-18
5.088537529305499031e-18
4.033540224518166647e-18
3.201831203115288870e-18
2.527193220618526747e-18
1.969911137009900734e-18
1.507534786437626049e-18
1.127198175602590185e-18
8.207019370980016161e-19
5.810923342160418065e-19
4.004376910921685517e-19
