# bin_10_10
9.605163561657521558e-09
1.059178020914477042e-08
1.142374441975854880e-08
1.198130148551230219e-08
1.214018873744584474e-08
1.176921817190507133e-08
1.077318381546671138e-08
9.326155156936252805e-09
7.690279405893411493e-09
6.317361186735122999e-09
5.413885645540618513e-09
4.604038168676312984e-09
3.410416426572656867e-09
2.415537616279221106e-09
1.963175475601540261e-09
1.319537889737168204e-09
1.005433715120978283e-09
6.998350335044769367e-10
4.949111996251666934e-10
3.551514541419071594e-10
2.565180618837324131e-10
1.877205563692361678e-10
1.396728457026934993e-10
1.059142046617496303e-10
8.157214919140418047e-11
6.348310973402481305e-11
4.961068222512404405e-11
3.864764454707572519e-11
2.981355129701245937e-11
2.264290374715447579e-11
1.685474979090035787e-11
