# bin_8_2
1.629493983150361412e-23
1.738025163463499829e-23
1.797875278802227745e-23
1.793594366836018355e-23
1.700842445718036037e-23
1.523257423335890550e-23
1.289776574877296295e-23
1.055372171437724822e-23
8.784640114185657012e-24
7.595083403275555163e-24
6.206566771505168693e-24
4.380530716177202004e-24
3.327609115813078230e-24
2.565824966460048940e-24
1.787949299015059290e-24
1.314877127755861152e-24
9.608443097583543464e-25
6.947606937694903149e-25
5.092374219287970938e-25
3.798850518341503085e-25
2.886898772443519852e-25
2.231894316426083890e-25
1.749501380560896573e-25
1.381672565585502085e-25
1.091760470880489639e-25
8.570946889666835304e-26
6.640803569766307105e-26
5.049822442961625275e-26
3.751718663253571445e-26
2.714369302641900498e-26
1.910421612093884204e-26
