# bin_20_13
1.055809408925900237e-18
1.192536528360210239e-18
1.324426893874042998e-18
1.440528690182572658e-18
1.526331736951142676e-18
1.564411612450820594e-18
1.541581180187615689e-18
1.437486230799890188e-18
1.266929396081316496e-18
1.056654336551087285e-18
8.641514504169090074e-19
7.308472778787087184e-19
6.318913026852198660e-19
4.918821487292543081e-19
3.393153683971036477e-19
2.719566537601309019e-19
1.912764816402448802e-19
1.401103147419609666e-19
9.452092140532856929e-20
6.715270388721723605e-20
4.665610314766010933e-20
3.237038908150025820e-20
2.261178508433792878e-20
1.594751078174079658e-20
1.144173309715815463e-20
8.370728960842423403e-21
6.243934524195210531e-21
4.740212476658716465e-21
3.642939482780989710e-21
2.814852731781662416e-21
2.170321609348258287e-21
