# bin_4_2
6.710301908375175025e-11
6.886990146961923459e-11
6.804372671457403161e-11
6.375908655064176202e-11
5.647900918464579433e-11
4.736870907241443282e-11
3.874586543387953402e-11
3.252843239134868229e-11
2.804973236377540873e-11
2.229668633288136949e-11
1.566836798262676504e-11
1.226458947885918737e-11
9.107852142260375385e-12
6.599263593734790205e-12
4.776951300747154624e-12
3.536015161758826932e-12
2.607573998563434311e-12
1.952233547271449917e-12
1.490045515037059603e-12
1.157827153255201578e-12
9.131991353181627965e-13
7.268606042531444416e-13
5.796137788140524070e-13
4.596820284632115299e-13
3.601050188772451771e-13
2.769486931014572292e-13
2.080677577308815569e-13
1.521987752547549653e-13
1.082360700486894058e-13
7.490787337697998241e-14
5.057631178681314759e-14
