# bin_9_19
1.673179248376994436e-07
1.840133693811938205e-07
1.978145462631769441e-07
2.066076287053577600e-07
2.083698285769407066e-07
2.006158084085385153e-07
1.823432499959096388e-07
1.567204852802411440e-07
1.288403343016490540e-07
1.062348972424811756e-07
9.140945409342110400e-08
7.686856940953124157e-08
5.591096347674564031e-08
4.041589970513578461e-08
3.243590927175904732e-08
2.185055583205441235e-08
1.651572895157382286e-08
1.164260312978645090e-08
8.240068607121417954e-09
5.916834185544731167e-09
4.286155031528104927e-09
3.152753011074222924e-09
2.359434845144561354e-09
1.798535340485953306e-09
1.390877320065385435e-09
1.085276812124625455e-09
8.488413376259895846e-10
6.606943659371365177e-10
5.084667947175217445e-10
3.847826501699468996e-10
2.850959050455241801e-10
