# bin_3_20
5.425046269221059468e-07
5.581250953610071134e-07
5.529788923167147477e-07
5.203227454537652325e-07
4.628197133135390151e-07
3.899151073263042746e-07
3.193711612645065352e-07
2.672660259610104589e-07
2.300585488628949466e-07
1.846084680965545146e-07
1.310525738382089701e-07
1.009045704644144449e-07
7.610716495294418062e-08
5.451306776392538784e-08
3.996036102331408002e-08
2.936246249329192456e-08
2.159816024597487780e-08
1.614348238332093125e-08
1.228839920661975484e-08
9.523797110532492020e-09
7.494348575983865822e-09
5.955812797204144000e-09
4.745735671214041960e-09
3.764073524493158001e-09
2.951316673338222971e-09
2.273489617285354671e-09
1.711969862797638393e-09
1.255783855184729168e-09
8.957873622292189649e-10
6.218264198292071474e-10
4.209924140632067020e-10
