# bin_1_6
-1.030905468106285890e-22
-1.075100081070207509e-22
-1.082947282511885537e-22
-1.041421014816533898e-22
-9.458601107511354348e-23
-8.121170233428823531e-23
-6.679771866343226146e-23
-5.508171767831882172e-23
-4.735100416137309032e-23
-3.977591273503783632e-23
-2.902899876011592821e-23
-2.109461460496361142e-23
-1.694025315104276162e-23
-1.160463851377045215e-23
-8.839874923963757999e-24
-6.357624841523302730e-24
-4.625416434132252672e-24
-3.428231260109915513e-24
-2.578748959541394207e-24
-1.975492961915198971e-24
-1.538742509511285622e-24
-1.214882139004332977e-24
-9.655035620521105936e-25
-7.668328662428460396e-25
-6.043854679337731450e-25
-4.695602373011522482e-25
-3.575899536687648656e-25
-2.657402124330439744e-25
-1.921526610783911950e-25
-1.351162003815991718e-25
-9.251942381677019315e-26
