# bin_16_2
-2.821694202545586812e-09
-2.832851990858443250e-09
-2.714746280446750665e-09
-2.460333123854620879e-09
-2.110047757487422881e-09
-1.738676485487885387e-09
-1.438218116904963658e-09
-1.231884962380875879e-09
-1.024962227609161156e-09
-7.537870719884365370e-10
-5.538007389073864125e-10
-4.355266998618385318e-10
-3.076642488374191669e-10
-2.306332138430182999e-10
-1.677037913781974944e-10
-1.239322212971262630e-10
-9.294075385348120089e-11
-7.090336647609381813e-11
-5.509436962715594148e-11
-4.347521826123576754e-11
-3.467458373237563711e-11
-2.774592062446826921e-11
-2.210954211423560620e-11
-1.742287343338615740e-11
-1.349194656171736326e-11
-1.021407550945942732e-11
-7.532224282013219353e-12
-5.401585553988356806e-12
-3.768865450955583109e-12
-2.564142122523781151e-12
-1.706454121382417096e-12
