# bin_10_4
-1.241370458141144018e-09
-1.302254409430026986e-09
-1.320699066947589381e-09
-1.282794769321723296e-09
-1.178173489507492850e-09
-1.023191435467935186e-09
-8.469929456268575027e-10
-6.957769711530710549e-10
-5.933706496480337081e-10
-5.045232121029940668e-10
-3.799507558579841659e-10
-2.705528538349618210e-10
-2.170753295373202924e-10
-1.518553850477166612e-10
-1.143145261910088951e-10
-8.145736665023637895e-11
-5.954877182680682899e-11
-4.392211621874313284e-11
-3.283569047482916871e-11
-2.498704720038517924e-11
-1.933934164119773281e-11
-1.519237212540186098e-11
-1.203743637441368119e-11
-9.551943659355286183e-12
-7.537671450491643117e-12
-5.875109921261618161e-12
-4.496475323298173601e-12
-3.363023697734156067e-12
-2.449848154271894957e-12
-1.735861523903530606e-12
-1.197234789190378999e-12
