# bin_19_11
-4.194136815984278995e-10
-4.661250887496588791e-10
-5.075748827441013308e-10
-5.387286284362885236e-10
-5.534807628287861685e-10
-5.471486090596711393e-10
-5.124066713429849499e-10
-4.534664347352094847e-10
-3.797034941278683761e-10
-3.105785229691501268e-10
-2.616201169863203004e-10
-2.262804480844768214e-10
-1.785525092362083135e-10
-1.237757607946591986e-10
-9.791870664676893982e-11
-7.080890960103222084e-11
-5.114369600380585636e-11
-3.546582156521790155e-11
-2.560984257645600886e-11
-1.811467283670145326e-11
-1.286296910215471134e-11
-9.259193289679700612e-12
-6.762567748915236077e-12
-5.032544497082771929e-12
-3.814391901622642961e-12
-2.933642753593823880e-12
-2.278271552888255631e-12
-1.774210294001199503e-12
-1.375603983879702074e-12
-1.054879967913512219e-12
-7.958095652368973684e-13
