# bin_8_13
-1.014814323804764104e-18
-1.125955980045725774e-18
-1.223563143139075625e-18
-1.295333364268315286e-18
-1.326608789817004713e-18
-1.305996320813160272e-18
-1.216661805103949365e-18
-1.071341293377981602e-18
-8.933488137012547468e-19
-7.307083932533411137e-19
-6.182145105044617615e-19
-5.340144425039348977e-19
-4.151890014243094440e-19
-2.873293762201107206e-19
-2.306682887080560343e-19
-1.628582949445026241e-19
-1.201973973691455174e-19
-8.239209926000730483e-20
-5.935395471139095504e-20
-4.218010452748521177e-20
-3.011497076861841556e-20
-2.177053138605144737e-20
-1.596861273517914013e-20
-1.194051406990399489e-20
-9.088690046685290373e-21
-7.013481660902670742e-21
-5.458086391535001755e-21
-4.253274126091601484e-21
-3.295371550062134046e-21
-2.522257263404338500e-21
-1.897380827852878747e-21
