# bin_10_6
-6.176569887720136199e-10
-6.646086518186837838e-10
-6.951967422204951064e-10
-7.024874262863869590e-10
-6.784704241811365501e-10
-6.189831724352480792e-10
-5.338434559865209043e-10
-4.400862122553170378e-10
-3.623433586048014792e-10
-3.107858256819509427e-10
-2.625187386149171981e-10
-1.934850368761629649e-10
-1.390046365714137295e-10
-1.118423088168825236e-10
-7.644279214760312229e-11
-5.794214513831139013e-11
-4.106795721641064643e-11
-2.956137219287205192e-11
-2.157473635667252201e-11
-1.593012295918748059e-11
-1.195934496994079763e-11
-9.133242105553938592e-12
-7.091412446378472590e-12
-5.566215723148679762e-12
-4.388016616267055413e-12
-3.450391286375597135e-12
-2.687346299124380187e-12
-2.060741265180117978e-12
-1.548006034548410880e-12
-1.134688303839969215e-12
-8.097776582275337524e-13
