# bin_9_13
-2.864963873990247498e-16
-3.184219050067845562e-16
-3.467593033487503530e-16
-3.680683624444819735e-16
-3.781575310334520277e-16
-3.738788154543178532e-16
-3.501520439601555102e-16
-3.098823447240076843e-16
-2.594228278189801143e-16
-2.121357312522790795e-16
-1.786966794325892679e-16
-1.546456670826344761e-16
-1.220416884319825824e-16
-8.444187316802561315e-17
-6.692850000734959154e-17
-4.836862930262018557e-17
-3.497292867708564892e-17
-2.415856312225367700e-17
-1.749107607263319097e-17
-1.237175974882709934e-17
-8.782579554823088623e-18
-6.323461702582977773e-18
-4.618765548275995081e-18
-3.437593768071989900e-18
-2.605856392862654773e-18
-2.004459092788131548e-18
-1.556923197629848894e-18
-1.212649308941139445e-18
-9.403360280675636039e-19
-7.211709807487287613e-19
-5.440973102309647885e-19
