# bin_11_13
-5.600606203735804454e-13
-6.243893017226202136e-13
-6.825297675747559711e-13
-7.278934239131447542e-13
-7.522588122880171851e-13
-7.492894095969948932e-13
-7.084896333729635177e-13
-6.327085997431765117e-13
-5.338943063277973079e-13
-4.368762918024427120e-13
-3.651560799476253712e-13
-3.163599137330221863e-13
-2.560724683769917782e-13
-1.785414765854459152e-13
-1.373642717336404925e-13
-1.034935617995192164e-13
-7.205262699828839277e-14
-5.123256991364232797e-14
-3.694890413725259446e-14
-2.593366715960847466e-14
-1.826504331639345423e-14
-1.304399007021344837e-14
-9.452780191517895889e-15
-6.972752270953069341e-15
-5.243137523486706716e-15
-4.006786507774884904e-15
-3.098805337512710926e-15
-2.409684569811456038e-15
-1.870395350179129635e-15
-1.439168954626040946e-15
-1.091364092004532737e-15
