# bin_10_15
-4.957740222348704461e-18
-5.542526710678762887e-18
-6.079243268983112664e-18
-6.510818080194044754e-18
-6.765389312355271902e-18
-6.781979529141555483e-18
-6.469180803245061951e-18
-5.825080740977876863e-18
-4.954828077791871323e-18
-4.061506393931387612e-18
-3.371905528312875551e-18
-2.918214368740853362e-18
-2.410015031374965999e-18
-1.704864840035101510e-18
-1.272929706942840598e-18
-9.923312334428970432e-19
-6.716649357915885624e-19
-4.929517765377309000e-19
-3.502425563880171168e-19
-2.443278386679531838e-19
-1.715773292313595177e-19
-1.216002182397648062e-19
-8.745179846062814173e-20
-6.395003957389442649e-20
-4.769697845486317230e-20
-3.619882965200170346e-20
-2.785701984062508626e-20
-2.160984114372958920e-20
-1.677624800488313869e-20
-1.294087560538947672e-20
-9.856802561815917226e-21
