# bin_15_1
-3.612640974491286764e-09
-3.486159993038237328e-09
-3.185811616613742564e-09
-2.756116505451218167e-09
-2.283393981112140051e-09
-1.883922297366879541e-09
-1.603486440915294036e-09
-1.345590142556707436e-09
-1.014032887063685959e-09
-7.372492729768402877e-10
-5.781706009613716056e-10
-4.165152365060941625e-10
-3.100435302754255581e-10
-2.267462939004778278e-10
-1.688151395956827026e-10
-1.272437320306734863e-10
-9.764953120694075066e-11
-7.635027024532925935e-11
-6.061090289204178480e-11
-4.859449954182247785e-11
-3.905513444090917476e-11
-3.122735709773847637e-11
-2.466712722896401968e-11
-1.913079069480333182e-11
-1.449497290121079657e-11
-1.069343611715408961e-11
-7.671763064855636475e-12
-5.356125634399917324e-12
-3.647494000119901736e-12
-2.430391217790964661e-12
-1.589847296160232234e-12
