# bin_11_12
-5.855552040646360376e-12
-6.512404843639475430e-12
-7.097784035887122996e-12
-7.541668529863306701e-12
-7.758215925349395866e-12
-7.683002139659058832e-12
-7.210411197202826615e-12
-6.393758812085580627e-12
-5.361616244776018172e-12
-4.384611795253262085e-12
-3.687152432712058379e-12
-3.192094964601996819e-12
-2.533638405310760027e-12
-1.754945800657487325e-12
-1.382384943625476641e-12
-1.008461578854960565e-12
-7.228699988014806515e-13
-5.021334497228625611e-13
-3.636427014410849897e-13
-2.567549316632274158e-13
-1.818894376132858017e-13
-1.307346019597327844e-13
-9.532909229665440802e-14
-7.081416366894101404e-14
-5.358846685898046692e-14
-4.116462826199956165e-14
-3.194583521529589080e-14
-2.487446779519964184e-14
-1.929356463777497466e-14
-1.480773760319155366e-14
-1.118448708285516467e-14
