# bin_11_8
-3.361023346733346584e-10
-3.675286841267787794e-10
-3.922712282397219475e-10
-4.059679130885836235e-10
-4.050845220886625154e-10
-3.841471491347061964e-10
-3.440626407459816404e-10
-2.912529200162269908e-10
-2.385249429534575820e-10
-1.987820512588113321e-10
-1.719278449987835124e-10
-1.402091794735161271e-10
-9.878645979220211081e-11
-7.510592920264223660e-11
-5.754362392545728847e-11
-3.997560077376723418e-11
-2.910439681058792480e-11
-2.105703945104866609e-11
-1.501416589961065570e-11
-1.081585693195123789e-11
-7.908790382779388579e-12
-5.883685181996655094e-12
-4.456214961208784482e-12
-3.432513676108876792e-12
-2.675061109173185750e-12
-2.096604754601865946e-12
-1.641123804757107172e-12
-1.273981097037271507e-12
-9.749062740117560569e-13
-7.317720057377653441e-13
-5.366744108524454423e-13
