# bin_6_14
-3.254436842381581342e-29
-3.608278588367766004e-29
-3.917628363313084374e-29
-4.142888468762610092e-29
-4.237408968803572792e-29
-4.164087960075980532e-29
-3.870789222743058744e-29
-3.401338730114391465e-29
-2.831864068186140727e-29
-2.316858318063752159e-29
-1.963689795806145599e-29
-1.694439992021337348e-29
-1.309253800568589284e-29
-9.068709000876396774e-30
-7.312353208403634258e-30
-5.114934497076970191e-30
-3.804313445560373225e-30
-2.604546059079326557e-30
-1.870608338349360638e-30
-1.331938179989488174e-30
-9.531486197576976455e-31
-6.901342799321797823e-31
-5.070781845475961331e-31
-3.798705712983126104e-31
-2.896085695369779454e-31
-2.237557612204102688e-31
-1.742549455464808474e-31
-1.358071904925004010e-31
-1.051787178653932191e-31
-8.043394641472656004e-32
-6.043266385140192571e-32
