# bin_11_5
-9.900461015366543608e-10
-1.053710470579066236e-09
-1.087121158440758200e-09
-1.080754532230286897e-09
-1.020502098756401353e-09
-9.104992461630571518e-10
-7.684452219603251748e-10
-6.292895030662088640e-10
-5.258218569477697796e-10
-4.539877228897974782e-10
-3.667956687491451395e-10
-2.589148931730452420e-10
-1.988024887727987762e-10
-1.506932798027317496e-10
-1.066763005596406855e-10
-7.775279131376425498e-11
-5.679364971061283254e-11
-4.120309401920741793e-11
-3.029881068246574508e-11
-2.266566892039772628e-11
-1.726427384048657690e-11
-1.337458695790550539e-11
-1.049964209594426992e-11
-8.297876347661730139e-12
-6.556232150780431027e-12
-5.142790829402633078e-12
-3.978821629284909808e-12
-3.019524041956502950e-12
-2.237991450180224670e-12
-1.615152507344996766e-12
-1.134081144150936628e-12
