# bin_4_9
-1.312912596822244526e-20
-1.421565970817435202e-20
-1.498697839289019998e-20
-1.527873779380904793e-20
-1.494836755935008202e-20
-1.382750078683629527e-20
-1.209323612171482366e-20
-1.003864614397192507e-20
-8.219083023754445733e-21
-6.986812146990154420e-21
-6.005033730820700709e-21
-4.588042378976632004e-21
-3.201587398021299749e-21
-2.595285150500506116e-21
-1.802585543224949152e-21
-1.360281997110758128e-21
-9.465671679168968715e-22
-6.853695591084355730e-22
-4.980093623743498922e-22
-3.652636931328374497e-22
-2.718620953014762912e-22
-2.057395213422437804e-22
-1.585110874748913985e-22
-1.237488624272734273e-22
-9.729318682753372538e-23
-7.652100905666266437e-23
-5.977681417611176655e-23
-4.608610144766094211e-23
-3.487660602215637010e-23
-2.579621303864378385e-23
-1.859203539701564050e-23
