# bin_12_4
-1.436848416182071213e-09
-1.507605784091578121e-09
-1.529294733583453717e-09
-1.485868335206598372e-09
-1.365158232466955172e-09
-1.185989326849130359e-09
-9.819493214294712643e-10
-8.065499114124024003e-10
-6.876797526515212189e-10
-5.849225270308548187e-10
-4.408959071900372945e-10
-3.137861411044760374e-10
-2.517447135749274141e-10
-1.762202346907284909e-10
-1.326031456244076114e-10
-9.447546845259032198e-11
-6.907256508646672861e-11
-5.093813225121563890e-11
-3.807295130059350693e-11
-2.896645485305224638e-11
-2.241494171037851840e-11
-1.760571769238831724e-11
-1.394829579963738899e-11
-1.106793044604782750e-11
-8.734296758325675247e-12
-6.808471202307191566e-12
-5.211609357629245796e-12
-3.898649972279035559e-12
-2.840669541793600106e-12
-2.013243913772063881e-12
-1.388848518157127219e-12
