# bin_15_9
-4.683174127323894595e-10
-5.154518624241868162e-10
-5.546219268228703103e-10
-5.799219651271092930e-10
-5.856070575304412599e-10
-5.647821670994739527e-10
-5.142855221440613379e-10
-4.426063540127051703e-10
-3.644127692604389797e-10
-3.003138185251815091e-10
-2.582238419667417002e-10
-2.177103418086139750e-10
-1.590099327897118268e-10
-1.144701583435565757e-10
-9.212612370223079398e-11
-6.203768927744400646e-11
-4.697499938673151662e-11
-3.302618245415639470e-11
-2.337016659425161014e-11
-1.677530541489561655e-11
-1.214115683469651903e-11
-8.919527194495147012e-12
-6.664235457767566118e-12
-5.073697903698890458e-12
-3.919710864349292475e-12
-3.056503740364195961e-12
-2.390237123167671429e-12
-1.860967170930656987e-12
-1.433159911249220796e-12
-1.085637732695467333e-12
-8.054089862079404697e-13
