# bin_9_17
-2.745531739719555847e-26
-3.077360721410927462e-26
-3.386113478144156940e-26
-3.640857490112490184e-26
-3.802392808135951080e-26
-3.833793470085648089e-26
-3.687420727240659038e-26
-3.347165810241118794e-26
-2.870761292232821700e-26
-2.359702132910841549e-26
-1.948267435829294381e-26
-1.680536646141732594e-26
-1.410476083761919244e-26
-1.017302604134059274e-26
-7.380787030845482135e-27
-5.910425707959385086e-27
-3.931017210219017870e-27
-2.956003479206521364e-27
-2.065082334399283850e-27
-1.433634281151194761e-27
-1.006615301347005266e-27
-7.093138518651950411e-28
-5.063704133434552208e-28
-3.670637072818729805e-28
-2.714635473624550113e-28
-2.044830484344774568e-28
-1.564510531667139337e-28
-1.209635898634377070e-28
-9.384295752495027252e-29
-7.251987450627253144e-29
-5.545140381155029786e-29
