# bin_17_9
-5.622411811178511540e-10
-6.188855862801209334e-10
-6.659915536655785792e-10
-6.964722834521934097e-10
-7.034146086727030061e-10
-6.785634111862871924e-10
-6.180480864633064923e-10
-5.320438102247928142e-10
-4.380993325786010190e-10
-3.609930899064284751e-10
-3.103528576605111196e-10
-2.617611390809200818e-10
-1.913107054036255679e-10
-1.376277422712293653e-10
-1.108060058333357449e-10
-7.461748922037223841e-11
-5.651218333873729209e-11
-3.971389540088584340e-11
-2.810280670259197368e-11
-2.017166562023842943e-11
-1.459763320984909142e-11
-1.072221155685809781e-11
-8.009438309416301457e-12
-6.096692210480647763e-12
-4.709329981683964352e-12
-3.671876725483250010e-12
-2.871371527893537341e-12
-2.235624304080731750e-12
-1.721828453754924250e-12
-1.304471663325016680e-12
-9.679145606197852177e-13
