# bin_3_17
-2.995046561514116650e-63
-3.336703510711987998e-63
-3.644244225075082205e-63
-3.882248614890011217e-63
-4.006655718338419009e-63
-3.984174753961367823e-63
-3.758790724899303879e-63
-3.349646047443439176e-63
-2.820905024287661953e-63
-2.307516543576040009e-63
-1.932195327958008802e-63
-1.674079474082801575e-63
-1.347543987250682506e-63
-9.366419829314991082e-64
-7.262221521545772166e-64
-5.420347208458687677e-64
-3.805029091659720683e-64
-2.682775712374427017e-64
-1.940929166028912104e-64
-1.364588298780035718e-64
-9.622171981789758313e-65
-6.885670100009772960e-65
-4.999470900592584660e-65
-3.695798000957521748e-65
-2.784569439556047876e-65
-2.131467393070328129e-65
-1.650333481258148226e-65
-1.283970428600830056e-65
-9.964872395928085180e-66
-7.662084953795056008e-66
-5.803679606868749169e-66
