# bin_2_9
-2.693326451639890323e-30
-2.895272601805212937e-30
-3.024832947687592612e-30
-3.052325975055140827e-30
-2.941535120157265398e-30
-2.676540533986866495e-30
-2.301933930087934937e-30
-1.894293895190942097e-30
-1.560584628573042815e-30
-1.341703799398408097e-30
-1.130955050656543894e-30
-8.262921120125273735e-31
-5.960516231449712283e-31
-4.810800347627035580e-31
-3.257334917372396409e-31
-2.483999637271410043e-31
-1.766560972471872817e-31
-1.267949483229699520e-31
-9.264330217898387818e-32
-6.848436642848162017e-32
-5.150352350125841274e-32
-3.940670322957358611e-32
-3.064811763688144842e-32
-2.408584918101906869e-32
-1.900104416710834723e-32
-1.494315010412247114e-32
-1.163385479072732062e-32
-8.913301684898426468e-33
-6.686688084872501172e-33
-4.892856913985264574e-33
-3.484789293169286442e-33
