# bin_6_18
-3.536640759440429575e-45
-3.959834503507167182e-45
-4.351407970187519968e-45
-4.671157078024793308e-45
-4.868292675342085272e-45
-4.896921642352580281e-45
-4.693841330086080618e-45
-4.246281916952028598e-45
-3.629159768321329202e-45
-2.979243557734821972e-45
-2.465116640339823059e-45
-2.129908387522420522e-45
-1.776273026538829993e-45
-1.270073218114969769e-45
-9.324847598675542124e-46
-7.390974740827099937e-46
-4.944821674098295555e-46
-3.685780145758013764e-46
-2.592663829786540781e-46
-1.803209603131420183e-46
-1.265961869693982815e-46
-8.938907142062356389e-47
-6.400612486683368933e-47
-4.656745192587893944e-47
-3.456233756172803619e-47
-2.611783425956906531e-47
-2.003323651056743405e-47
-1.551221880934765323e-47
-1.203889495802633271e-47
-9.297097458302285408e-48
-7.097797503854395315e-48
