# bin_10_17
-8.970011701683735225e-23
-1.006533015365430342e-22
-1.109024976729864873e-22
-1.194467470496365372e-22
-1.250123251385730560e-22
-1.263484257537308499e-22
-1.219575863830623765e-22
-1.111042290700821623e-22
-9.564813688716231561e-23
-7.874109691359668986e-23
-6.487633696883461166e-23
-5.584504325368927191e-23
-4.716109819986437584e-23
-3.434961782983516617e-23
-2.462469205139999508e-23
-1.989319254665059494e-23
-1.318443334281740364e-23
-9.981097824651463443e-24
-6.924550516042913571e-24
-4.800145526622214400e-24
-3.371053792357483344e-24
-2.371797380929180119e-24
-1.687993324408147986e-24
-1.218868967007800366e-24
-8.979492633461334289e-25
-6.740171098955923776e-25
-5.142310953389641860e-25
-3.968854805390718744e-25
-3.077212255448213646e-25
-2.379358438912703003e-25
-1.822170416299432893e-25
