# bin_10_14
-4.613402481684422476e-16
-5.147118647079515595e-16
-5.631519916587883388e-16
-6.012632637039499845e-16
-6.222866563519884847e-16
-6.209115974866779874e-16
-5.884679570784939165e-16
-5.266731897721583874e-16
-4.453229272217905232e-16
-3.645228848115777409e-16
-3.041180513136153264e-16
-2.634674090424977343e-16
-2.144745184080339618e-16
-1.499956572069906967e-16
-1.145085639192424880e-16
-8.709947998025463429e-17
-6.013459043785241595e-17
-4.311443735737506550e-17
-3.100224691581950336e-17
-2.172265135110801130e-17
-1.528017504671429174e-17
-1.089001602308696784e-17
-7.876349659092113217e-18
-5.796948470090190632e-18
-4.350015863680868790e-18
-3.318564115025612471e-18
-2.563487830982069763e-18
-1.992368475502577340e-18
-1.546684014307530307e-18
-1.190956834188021185e-18
-9.042237231785294373e-19
