# bin_15_8
-6.101046476614189873e-10
-6.674608087727212020e-10
-7.128078987996379863e-10
-7.382401841951514271e-10
-7.372807950578997341e-10
-7.000172766097800034e-10
-6.276997620921750810e-10
-5.319524220850275734e-10
-4.357674937575410572e-10
-3.628369467594755099e-10
-3.137527256510482354e-10
-2.565560916525828341e-10
-1.811376347229408871e-10
-1.371625539863939473e-10
-1.055432383550620432e-10
-7.307563447502790024e-11
-5.339029746104287870e-11
-3.855835826060499940e-11
-2.747182400315514418e-11
-1.978187784290548685e-11
-1.445256127396682263e-11
-1.074229041815746959e-11
-8.128457896634431784e-12
-6.256295612145640956e-12
-4.873000595230627120e-12
-3.818126346269401222e-12
-2.988620718652882264e-12
-2.320609100889146083e-12
-1.776689088464650168e-12
-1.334495499501516089e-12
-9.795213057479619500e-13
