# bin_3_13
-8.400202627316377760e-43
-9.235952141778370424e-43
-9.924850321589862092e-43
-1.036045602941995347e-42
-1.044256829964344519e-42
-1.004250271690648923e-42
-9.116213231242235985e-43
-7.819924004993856582e-43
-6.427911588798242608e-43
-5.304477144831919906e-43
-4.571212486806285618e-43
-3.837998157328782714e-43
-2.777081479263820393e-43
-2.015678433422731665e-43
-1.617989663716549716e-43
-1.086123602230654805e-43
-8.223138301093446728e-44
-5.814479753338323905e-44
-4.111410540298854143e-44
-2.952198522621017050e-44
-2.138582863470395648e-44
-1.574676913876958900e-44
-1.179650067382029387e-44
-9.002906940330161634e-45
-6.968765315556425740e-45
-5.441217505001015820e-45
-4.257434435002334715e-45
-3.313986475053286329e-45
-2.549862287460834404e-45
-1.928721260429536479e-45
-1.428070352619586537e-45
