# bin_14_15
-5.004692374712135403e-12
-5.621169720381350425e-12
-6.200739679080544874e-12
-6.688047324452021554e-12
-7.012348754073970125e-12
-7.101646342863006158e-12
-6.875827364874734047e-12
-6.283986357249155301e-12
-5.427848213289257045e-12
-4.475154530246264351e-12
-3.681274859783558361e-12
-3.162265972569368659e-12
-2.683375473380020120e-12
-1.972240247361953640e-12
-1.400851873529947687e-12
-1.137165463450072364e-12
-7.541111232874102357e-13
-5.724350602397182826e-13
-3.947332480231015290e-13
-2.735546167921363643e-13
-1.921291850623579014e-13
-1.350762137179420422e-13
-9.588256515751492686e-14
-6.899996677244769093e-14
-5.065669559572365815e-14
-3.790156122176323142e-14
-2.883913166549859578e-14
-2.221893554980726206e-14
-1.721490706026672339e-14
-1.331527575716995092e-14
-1.020979838546307620e-14
