# bin_5_7
-3.670815703864522234e-13
-3.946989595111023911e-13
-4.124843270043677753e-13
-4.163724939764402864e-13
-4.014805560333925681e-13
-3.655590255629790057e-13
-3.146255495438766858e-13
-2.590285277049340837e-13
-2.133666350282292397e-13
-1.833212574757159071e-13
-1.546087584608293102e-13
-1.132239391354221614e-13
-8.157624469928398132e-14
-6.579311656980600521e-14
-4.465058439869742644e-14
-3.400205817975741471e-14
-2.415466976049700933e-14
-1.734772064292287488e-14
-1.267292929745279411e-14
-9.366499805927795368e-15
-7.040801736174236839e-15
-5.384332859684352245e-15
-4.185722993117304521e-15
-3.288402592117053662e-15
-2.593675857906871114e-15
-2.039668511506754840e-15
-1.588118587341178354e-15
-1.217013428744328290e-15
-9.133056091398302556e-16
-6.685953820482840470e-16
-4.764378206905052396e-16
