# bin_14_8
-5.535682574452193694e-10
-6.055741501159964554e-10
-6.466697509445705946e-10
-6.696805115192416905e-10
-6.687367433671925013e-10
-6.348418118873429000e-10
-5.691750558061207891e-10
-4.822872455699307786e-10
-3.950690634224919015e-10
-3.289863831160654911e-10
-2.844890536036963739e-10
-2.325494019619509760e-10
-1.641454650376370887e-10
-1.243579735802478744e-10
-9.563911288606198775e-11
-6.624585688507896718e-11
-4.837919710050570828e-11
-3.494718316635116062e-11
-2.490134444392745219e-11
-1.793185385750805546e-11
-1.310233868975055502e-11
-9.739781056727443489e-12
-7.370739690586893022e-12
-5.673646577977041407e-12
-4.419486001184067745e-12
-3.462914208582056446e-12
-2.710583435966631623e-12
-2.104651905181898605e-12
-1.611252232130111590e-12
-1.210131709477458609e-12
-8.881457928039139943e-13
