# bin_7_8
-7.923702392319865529e-12
-8.622141825642631788e-12
-9.146385018385535981e-12
-9.393284282958888891e-12
-9.283624256786726936e-12
-8.693679585702049766e-12
-7.693896748434643393e-12
-6.442879951533479037e-12
-5.268741284570856476e-12
-4.434655827663348322e-12
-3.833873047695919346e-12
-3.030548431367635695e-12
-2.106446384027195401e-12
-1.665643259859239248e-12
-1.213895761935288769e-12
-8.801983654153227316e-13
-6.186222281311233956e-13
-4.523069512301022121e-13
-3.255303512098247283e-13
-2.362534567102254446e-13
-1.743915666104638211e-13
-1.309042871585579819e-13
-1.000573412257810890e-13
-7.764335530544182402e-14
-6.081721537977334396e-14
-4.777882712451663485e-14
-3.737961582178091712e-14
-2.892758947659461493e-14
-2.201835631346741738e-14
-1.640770315002356306e-14
-1.192823698351233819e-14
