# bin_6_11
-1.455699423657948956e-19
-1.598817386522972092e-19
-1.715791636213953010e-19
-1.788070756829076626e-19
-1.798783870861982731e-19
-1.725054572756474155e-19
-1.561621665490413364e-19
-1.335758990532207054e-19
-1.096829728201700338e-19
-9.067089333668807706e-20
-7.824188924230211327e-20
-6.535758004243401600e-20
-4.696572460189471805e-20
-3.441125963042636648e-20
-2.741068309312676472e-20
-1.847912760119498644e-20
-1.390417276621538963e-20
-9.883696866205148987e-21
-6.997908110756215939e-21
-5.025513733377957858e-21
-3.645970127646451032e-21
-2.690265479328652285e-21
-2.020085443035517674e-21
-1.544819597926172234e-21
-1.197625956139215701e-21
-9.359876647136870038e-22
-7.325297520152768414e-22
-5.699575419392102883e-22
-4.380960047187864051e-22
-3.308830130334817361e-22
-2.445290113140591601e-22
