# bin_11_6
-7.171364981095773388e-10
-7.717723600250321201e-10
-8.074541509005212557e-10
-8.161083726665608045e-10
-7.884692951649297126e-10
-7.195923843828333785e-10
-6.208378510412954204e-10
-5.118908573400499686e-10
-4.213967306748237401e-10
-3.613575742168907780e-10
-3.053840200851548872e-10
-2.252880489385000873e-10
-1.617197165697677469e-10
-1.301584958921482922e-10
-8.898678093392521735e-11
-6.744997387977690567e-11
-4.778452594898592730e-11
-3.439939510198045963e-11
-2.510282151070341614e-11
-1.853169030015638191e-11
-1.390924603903768843e-11
-1.061984339729537754e-11
-8.244029052162424422e-12
-6.470048786488669908e-12
-5.100200867540825436e-12
-4.010434899255787772e-12
-3.123788214670866592e-12
-2.395758979323934076e-12
-1.800018026979166849e-12
-1.319725822500212817e-12
-9.420751434660692290e-13
