# bin_17_11
-3.458588527091563290e-10
-3.843484874404884444e-10
-4.184865673208954221e-10
-4.441196342167394625e-10
-4.562147852832544397e-10
-4.509096756158762879e-10
-4.221773434200154905e-10
-3.735306531267757012e-10
-3.127116109804455840e-10
-2.557822791271466540e-10
-2.155039843819157300e-10
-1.863823048880928671e-10
-1.469735226283185495e-10
-1.018760001316441329e-10
-8.064626636366827968e-11
-5.825798087602976173e-11
-4.211703318360856207e-11
-2.919128330021670746e-11
-2.107773928620097647e-11
-1.491196548577702736e-11
-1.059111299102936702e-11
-7.625313445775772305e-12
-5.570329530845001474e-12
-4.146210361856147499e-12
-3.143207002972713625e-12
-2.417805469231625289e-12
-1.877852427560627561e-12
-1.462427361844521920e-12
-1.133832128000472910e-12
-8.694022990418764805e-13
-6.557982830566502145e-13
