# bin_9_11
-4.857074443717419427e-13
-5.369878814548315137e-13
-5.809915742277755343e-13
-6.117269656805371454e-13
-6.225616973843934065e-13
-6.073914015478235532e-13
-5.598979291219171077e-13
-4.879385572536421212e-13
-4.041410851758862276e-13
-3.312634980649169748e-13
-2.825992573571905923e-13
-2.422437756626966706e-13
-1.828402919805584075e-13
-1.278296697020801213e-13
-1.040060201204195669e-13
-7.075418720703443536e-14
-5.365369972267105796e-14
-3.696281235164688398e-14
-2.625575316382544304e-14
-1.879851175722275437e-14
-1.353650256393900979e-14
-9.858338390489340935e-15
-7.291660830519995504e-15
-5.499572248179683674e-15
-4.216852961246910760e-15
-3.271633285961580891e-15
-2.553348085533696268e-15
-1.989998942243560436e-15
-1.538227750241865701e-15
-1.172157188974505488e-15
-8.763830811280025536e-16
