# bin_6_17
-5.690618866238588875e-41
-6.357450806739860759e-41
-6.967167582095517896e-41
-7.453891084570711056e-41
-7.734788735852426069e-41
-7.741567532237307598e-41
-7.368168114759898427e-41
-6.620656680688726071e-41
-5.619636411690598464e-41
-4.603815932330651279e-41
-3.828349123312059214e-41
-3.315027222908046677e-41
-2.724873872951287397e-41
-1.919055613907159927e-41
-1.443914915200602062e-41
-1.116559069134857042e-41
-7.604063296656651526e-42
-5.537597672406897433e-42
-3.952334235470469140e-42
-2.761138426862821092e-42
-1.939561402890973363e-42
-1.377141911594293240e-42
-9.923679412642932744e-43
-7.273234944969597495e-43
-5.436420049587302243e-43
-4.133569038990453508e-43
-3.185420319853308342e-43
-2.472869660551001707e-43
-1.919858903347887589e-43
-1.480102830112368564e-43
-1.126151550938525630e-43
