# bin_5_18
-5.023782419464064381e-52
-5.620062482580758844e-52
-6.169267223407632376e-52
-6.613877347390637065e-52
-6.881373202818881947e-52
-6.908499517573057707e-52
-6.603721240065363249e-52
-5.958096068786096818e-52
-5.078233324379885205e-52
-4.165079663532987703e-52
-3.452732206544462640e-52
-2.986385396585653102e-52
-2.477041514564538028e-52
-1.759925701694365861e-52
-1.304572558420945019e-52
-1.024577266997281107e-52
-6.897116473706511943e-53
-5.097877169452113695e-53
-3.606463499991452824e-53
-2.512477893581354570e-53
-1.764006297318022777e-53
-1.248061954611105526e-53
-8.958788012039120311e-54
-6.536951039270823302e-54
-4.865398385300434254e-54
-3.685796943332942130e-54
-2.832537187662823254e-54
-2.195679018893694602e-54
-1.704400684013360658e-54
-1.315418562176014186e-54
-1.002941558876741241e-54
