# bin_11_19
-9.050622951299673595e-25
-1.019944120750190383e-24
-1.129618506841472261e-24
-1.224421278310163850e-24
-1.291758822698390988e-24
-1.317297137392840681e-24
-1.288697940033432042e-24
-1.191268923115442907e-24
-1.041053692222983279e-24
-8.635445777203637727e-25
-7.074265647957589621e-25
-6.028054275450483953e-25
-5.183491142805811767e-25
-3.933796024195293307e-25
-2.732085729950794958e-25
-2.221340804501103652e-25
-1.505519679948444834e-25
-1.133982714573725465e-25
-7.669655806995484203e-26
-5.359377996707576158e-26
-3.753343521881905799e-26
-2.628496804963691616e-26
-1.849161126313744070e-26
-1.315182998205718518e-26
-9.534088015425828564e-27
-7.047669053105982925e-27
-5.306699401050166400e-27
-4.058397324872835331e-27
-3.132953998963558675e-27
-2.423855517888136456e-27
-1.865510291101157716e-27
