# bin_14_4
-1.586826668129417529e-09
-1.665159304371543711e-09
-1.689337401514734460e-09
-1.641674235563753701e-09
-1.508620166962549819e-09
-1.310894173949517738e-09
-1.085493080289786609e-09
-8.915392014682659130e-10
-7.600373484841796126e-10
-6.466079956307030542e-10
-4.876553894971095372e-10
-3.469563941677547961e-10
-2.783444081891995774e-10
-1.949138917368136180e-10
-1.466348831241767637e-10
-1.044634605444002873e-10
-7.637958830428635655e-11
-5.632109157558922400e-11
-4.209118068511981563e-11
-3.201961053359272334e-11
-2.477466118981401197e-11
-1.945732986038238146e-11
-1.541438113735677603e-11
-1.223105420512843465e-11
-9.652394026965095310e-12
-7.524582118819971931e-12
-5.760287883339232120e-12
-4.309603195955393325e-12
-3.140522850050849051e-12
-2.226062430399189303e-12
-1.535861996225183109e-12
