# bin_14_14
-2.235786094623980693e-11
-2.506208636355630380e-11
-2.757930468428497646e-11
-2.965781189945742557e-11
-3.097844196351899376e-11
-3.123966614145471022e-11
-3.005560078738538998e-11
-2.729137441839443087e-11
-2.341552796087683710e-11
-1.925105670475882568e-11
-1.589248587706456275e-11
-1.370423851940704266e-11
-1.150638430381853970e-11
-8.309186800188205228e-12
-6.022403604043639632e-12
-4.823474056453406018e-12
-3.209968051594992021e-12
-2.413313995481597222e-12
-1.684930200014837234e-12
-1.169746997550164286e-12
-8.213833867582732602e-13
-5.788391664841829787e-13
-4.131246157093671712e-13
-2.993646715888494481e-13
-2.213163962675437312e-13
-1.666523938571833216e-13
-1.274692656101867232e-13
-9.853519706817862505e-14
-7.643495350608463271e-14
-5.906720129885058864e-14
-4.516921755042654223e-14
