# bin_13_2
-2.626793145061536896e-09
-2.636812047209816343e-09
-2.526397303051314442e-09
-2.289184740292292717e-09
-1.962896852125769123e-09
-1.617305278919102555e-09
-1.337958662681540282e-09
-1.146092578719319927e-09
-9.532777089770596243e-10
-7.007934093375150880e-10
-5.150840909625833215e-10
-4.049734949079924999e-10
-2.860841919286194302e-10
-2.144459745513300268e-10
-1.559559983150612566e-10
-1.152534954820238994e-10
-8.643988226858770066e-11
-6.595102969498360091e-11
-5.125149522159803590e-11
-4.044628503132321101e-11
-3.226058602299016285e-11
-2.581479287836991216e-11
-2.057038240616044782e-11
-1.620918007347566511e-11
-1.255110034031228837e-11
-9.500840124678980218e-12
-7.005446598372330959e-12
-5.023213723388840069e-12
-3.504466090727889854e-12
-2.384019432798322616e-12
-1.586447644697047306e-12
