# bin_17_7
-8.842916451031013847e-10
-9.604923747913068720e-10
-1.016601980722322147e-09
-1.041313497838728924e-09
-1.025411998665088995e-09
-9.561487070151209247e-10
-8.427284315157323517e-10
-7.037251026536828774e-10
-5.758522574319384499e-10
-4.863090751887593729e-10
-4.193610609731696715e-10
-3.277041446454125628e-10
-2.284256976267420038e-10
-1.818355875981734702e-10
-1.305552513203205656e-10
-9.580470157903250428e-11
-6.726886572324221643e-11
-4.897058056217892978e-11
-3.535051821741339396e-11
-2.574611160733132697e-11
-1.905575587057818650e-11
-1.434298386058745235e-11
-1.099202133056326804e-11
-8.546665383022153211e-12
-6.702494508980601987e-12
-5.267116029543207932e-12
-4.118233431070562062e-12
-3.182662399057156539e-12
-2.417554118453099602e-12
-1.796859149773368258e-12
-1.302459406631209039e-12
