# bin_6_2
1.116295144567621651e-11
1.175137652854618667e-11
1.196389991622757664e-11
1.168737017900200826e-11
1.079591460185396825e-11
9.432170263193263319e-12
7.821728504421714539e-12
6.404235732973600385e-12
5.442546350957208701e-12
4.668841731126006228e-12
3.564969758943621542e-12
2.499385563226565662e-12
2.021886331667714581e-12
1.414594139160858611e-12
1.068790694686853664e-12
7.540017259000332973e-13
5.517127677483218019e-13
4.064717003205944912e-13
3.031789601759341694e-13
2.299772844760810195e-13
1.774368413030887217e-13
1.390634681099180325e-13
1.100420232114173597e-13
8.730355192563845794e-14
6.895492524540377505e-14
5.384719024984546372e-14
4.132384176228241152e-14
3.100990576909549348e-14
2.267209305887706736e-14
1.612148441087739103e-14
1.115438740118558129e-14
