# bin_12_10
1.076967077405879262e-06
1.197609638057064185e-06
1.305051707794489854e-06
1.386419022155808689e-06
1.425916508843622089e-06
1.411815612833861442e-06
1.324639737243575793e-06
1.174275113015846039e-06
9.843430082855896431e-07
8.046479182930313262e-07
6.764917064584792268e-07
5.856835723119996905e-07
4.648033356003113152e-07
3.216897788703628346e-07
2.534791335008361777e-07
1.848787083021798744e-07
1.325110403709671591e-07
9.194255084689502678e-08
6.663368759805709103e-08
4.703580140493290614e-08
3.331176910848963086e-08
2.394099209147449252e-08
1.745538531924760135e-08
1.296507753519251713e-08
9.810345141905233527e-09
7.535324810333026340e-09
5.847386814846319754e-09
4.552766471324149047e-09
3.531097526691931742e-09
2.709956696401153256e-09
2.046759647664854618e-09
