# bin_5_4
7.447089806235705447e-06
7.886720574933704436e-06
8.086432530498649396e-06
7.977224007503046080e-06
7.456120447193242750e-06
6.587762966806196188e-06
5.509756045654636896e-06
4.504792484494385918e-06
3.792648998707645188e-06
3.273634661696980782e-06
2.580809075193101826e-06
1.800843710369170981e-06
1.425585679366105207e-06
1.040332507892385514e-06
7.596996505889282515e-07
5.401205802863423810e-07
3.978697249563003628e-07
2.906702552305600059e-07
2.149120124924302565e-07
1.618475627551552905e-07
1.240438364716659916e-07
9.665253588821405396e-08
7.618938772274671346e-08
6.034668357771840397e-08
4.769180806638248775e-08
3.734517498985743634e-08
2.879233731016028328e-08
2.174078392756038898e-08
1.601307722751257375e-08
1.147588536887847049e-08
8.000612981029667170e-09
