# bin_18_4
6.067862560983083210e-52
6.785015561430612924e-52
7.444055193229834183e-52
7.975353608634271649e-52
8.291275312451879933e-52
8.316330813867525431e-52
7.939857159287426477e-52
7.154274097450500035e-52
6.093362618287405721e-52
4.992483169814906866e-52
4.140156393163062472e-52
3.581610152603940497e-52
2.964461979750654306e-52
2.101382927745306882e-52
1.562400753357491249e-52
1.222919726467229462e-52
8.249683536147015122e-53
6.078168920176134297e-53
4.308045610216443493e-53
3.002844995563434734e-53
2.108345612787145902e-53
1.492856125609231772e-53
1.072562398040927685e-53
7.834386805581802455e-54
5.837062725939160092e-54
4.425911634569591082e-54
3.403646154894387451e-54
2.639364087679830581e-54
2.048893468264962953e-54
1.580862805602637995e-54
1.204694084135605015e-54
