# bin_16_7
4.162656350057090255e-24
4.646794831278605422e-24
5.087622824475636223e-24
5.436719883004038166e-24
5.633355550580429416e-24
5.628767564520794028e-24
5.345115291504292163e-24
4.791890149553146544e-24
4.059988711913583950e-24
3.322599820629002346e-24
2.766416332251760494e-24
2.395990556480528184e-24
1.960300068859826009e-24
1.375214320302615018e-24
1.041698701231971234e-24
7.993287278009384260e-25
5.475616215878028273e-25
3.957854700505814169e-25
2.835642272532961071e-25
1.983482278021156527e-25
1.393833974791213339e-25
9.913527194642259194e-26
7.156149197695991541e-26
5.255265735842139852e-26
3.935469372065718253e-26
2.997143055417906297e-26
2.312337468849705523e-26
1.796088725138313172e-26
1.394348874600308656e-26
1.074300868435725459e-26
8.165160972345477432e-27
