# bin_14_4
4.864662645995747820e-33
5.379327573712631297e-33
5.821634490664331126e-33
6.131715560267963236e-33
6.242570925649587256e-33
6.094609969607240184e-33
5.621997689152930151e-33
4.904411788126705210e-33
4.060946633871498639e-33
3.326612827237581197e-33
2.835570829852038912e-33
2.433293166297716361e-33
1.840953734610036251e-33
1.283894971723330274e-33
1.045091849889602318e-33
7.116121061182063886e-34
5.394851532278199313e-34
3.709779790646921059e-34
2.635567115284347711e-34
1.886721504029869356e-34
1.358194057165133369e-34
9.884462900754314555e-35
7.304839627504758271e-35
5.505124029350340513e-35
4.218344300311754285e-35
3.271247524784087847e-35
2.552431541939002771e-35
1.989269584509247969e-35
1.537969880930457968e-35
1.172393655294305474e-35
8.770097569336315424e-36
