# bin_17_5
9.561001845011198224e-40
1.067431262416979147e-39
1.168872188012007588e-39
1.249312401596905340e-39
1.294812545550756215e-39
1.294125019602445834e-39
1.229393330304668627e-39
1.102555661554257663e-39
9.345051931837668612e-40
7.648322591711157726e-40
6.366102885613076525e-40
5.513358905886886921e-40
4.514794191507589974e-40
3.169478378001405300e-40
2.397545241102317360e-40
1.842501664675345213e-40
1.260612659632495272e-40
9.125228632073650854e-41
6.532957835488562155e-41
4.568475854939691824e-41
3.210049096583448215e-41
2.282347544153843367e-41
1.646971260046273935e-41
1.209023968670041013e-41
9.050666185210646022e-42
6.890628251279154806e-42
5.315044713572096096e-42
4.127973390789228000e-42
3.204672022473978745e-42
2.469371775570533657e-42
1.877199383051696088e-42
