# bin_5_5
1.591797478602466191e-05
1.696537185034547549e-05
1.753272305240394160e-05
1.746987934318544044e-05
1.654075996306200432e-05
1.479257161022690295e-05
1.250896027658601583e-05
1.023468576915580236e-05
8.529344685484031906e-06
7.373332004375976577e-06
6.002403931218978644e-06
4.231467876541107513e-06
3.228636831122077118e-06
2.474650868690542200e-06
1.733510460028568771e-06
1.269576574160114668e-06
9.284992062311482647e-07
6.720504781938067759e-07
4.930137003072281876e-07
3.681197603115493785e-07
2.799702289092748521e-07
2.165959714268678290e-07
1.698816410276633617e-07
1.342018852388802907e-07
1.060452653175606882e-07
8.323383709487052935e-08
6.446204323957396063e-08
4.898822896108046913e-08
3.636811773481850487e-08
2.629112443454208656e-08
1.848963638610238173e-08
