# bin_20_1
1.103956408476351897e-91
1.238589598210407399e-91
1.364496911918141099e-91
1.469362284227819072e-91
1.537528127187077984e-91
1.553597031134683218e-91
1.499296137592892489e-91
1.365476602729513973e-91
1.175914587220013497e-91
9.671841461163281945e-92
7.966365961752237590e-92
6.856195913160498354e-92
5.789255705364216032e-92
4.216152448652915394e-92
3.021360674306614006e-92
2.440539069920211553e-92
1.617410252360336979e-92
1.224244025629857664e-92
8.491009937056047116e-93
5.885721501247084109e-93
4.133447586832502623e-93
2.908320380572360451e-93
2.069858750239738051e-93
1.494646913009277110e-93
1.101161093491501129e-93
8.265955370361714214e-94
6.306634272711623903e-94
4.867589355403918802e-94
3.774022722767678804e-94
2.918065282732358341e-94
2.234612312238363267e-94
