# bin_15_1
7.443196733023083194e-64
8.230177699275972694e-64
8.906247766659701992e-64
9.379780408769549928e-64
9.548403047899685617e-64
9.320691937781495974e-64
8.596505086788148855e-64
7.498038923319396831e-64
6.207981422797874592e-64
5.085693016297907270e-64
4.335486633137116458e-64
3.719719616161380033e-64
2.812990211878676785e-64
1.962410862258564694e-64
1.597386979250980469e-64
1.087355661402527194e-64
8.244312396103708628e-65
5.670852164065678466e-65
4.028346360831421987e-65
2.883886246946509523e-65
2.076122307987376671e-65
1.511097192497191133e-65
1.116883135533652515e-65
8.418201729629546728e-66
6.451186243056526931e-66
5.003138269270358946e-66
3.903886701948353250e-66
3.042516121915905063e-66
2.352162680673571545e-66
1.792917086259073207e-66
1.341058411178056364e-66
