# bin_4_4
1.881228678498621294e-05
1.977113845615136400e-05
2.009127387956861918e-05
1.957342532910208479e-05
1.802710000405600261e-05
1.570419790153772810e-05
1.300197446979467002e-05
1.065664826898742689e-05
9.074648593302509232e-06
7.759299673574863006e-06
5.879541008187837062e-06
4.143590826118123814e-06
3.351820830518547852e-06
2.333999776471891422e-06
1.767847014915612241e-06
1.250522024688397004e-06
9.140384902548402642e-07
6.740819894833809775e-07
5.034579489307076834e-07
3.825334210727993519e-07
2.956181005273578286e-07
2.319832144407187885e-07
1.837108205577259906e-07
1.457810481555178057e-07
1.151032893364286732e-07
8.980797314340224178e-08
6.883200587876809093e-08
5.156767327880703616e-08
3.763216004021196981e-08
2.670882675621601879e-08
1.844741368033872834e-08
