# bin_19_7
2.383728715552496959e-35
2.677355011331980940e-35
2.953432246392517871e-35
3.185628794969542650e-35
3.340306083470066146e-35
3.383023809004188990e-35
3.276141165465596749e-35
2.994557228313843970e-35
2.588371737384166343e-35
2.132449965603318327e-35
1.753192063149594277e-35
1.505435569722526491e-35
1.278263613901193439e-35
9.403435869458020109e-36
6.666359763864490826e-36
5.418582697797957638e-36
3.589657710347176454e-36
2.727638760064835689e-36
1.879030396410065096e-36
1.301562118548995936e-36
9.142208455668996699e-37
6.426239771593964613e-37
4.560019303319338085e-37
3.280121625731492276e-37
2.407139860260618895e-37
1.800396611066438310e-37
1.369525065046778475e-37
1.054961612242887868e-37
8.173250861047722686e-38
6.322174751088935190e-38
4.848404471499529576e-38
