# bin_17_8
5.298321263297011919e-08
4.854007459832103893e-08
4.327463499445926782e-08
3.752362345349603480e-08
3.168828476963687024e-08
2.616419873989679107e-08
2.123699767282629741e-08
1.701700796101271656e-08
1.345059660558335127e-08
1.042290499482244783e-08
7.896255488565388151e-09
5.917942140732481209e-09
4.455141015237697024e-09
3.349084314061724140e-09
2.518554000296122167e-09
1.913843140932471201e-09
1.464438268195482444e-09
1.130557100437306586e-09
8.784847071298685031e-10
6.848067775227225505e-10
5.334182435419690008e-10
4.134371081137552547e-10
3.175805134191855974e-10
2.409034320881100707e-10
1.799324806341930453e-10
1.320316752243026112e-10
9.503376125787484856e-11
6.704364841897869755e-11
4.635292724387421876e-11
3.142748754382583385e-11
2.092200170602373206e-11
