# bin_14_13
6.266586019364951462e-08
5.837510361722209710e-08
5.298188416025313482e-08
4.679458852627338640e-08
4.022335313123417514e-08
3.371970167359243701e-08
2.768662229080672335e-08
2.237547684123836149e-08
1.784652884883736171e-08
1.401571332991066980e-08
1.078145762382494504e-08
8.130693953782105704e-09
6.088462322964676815e-09
4.572180358370814611e-09
3.425021690810289283e-09
2.572486826334429991e-09
1.948790039781956453e-09
1.486687490784680019e-09
1.142963869896833645e-09
8.835995526626343077e-10
6.846795929710616279e-10
5.297620475809125431e-10
4.076877874583570741e-10
3.108888459140329459e-10
2.341435777468526078e-10
1.737034377961973659e-10
1.266805787362258808e-10
9.069890738182802154e-11
6.370700945358211500e-11
4.389891552474650626e-11
2.969296377920264508e-11
