# bin_6_3
2.479249485768857200e-08
2.137236588511335648e-08
1.796323494350598838e-08
1.478018305708716135e-08
1.196665217366580079e-08
9.566904404832652053e-09
7.541513911333240810e-09
5.830997976606053879e-09
4.422117910471705558e-09
3.332685350163732713e-09
2.525895198970713371e-09
1.915473331774720502e-09
1.459913855483381898e-09
1.125054173562686878e-09
8.747128780293615937e-10
6.858594215369582902e-10
5.405749846460365972e-10
4.264959307201410537e-10
3.352974761691240928e-10
2.614983075076944184e-10
2.015047725862354797e-10
1.528977081875159819e-10
1.139357809231837791e-10
8.322196713983653948e-11
5.951929251843646681e-11
4.166868579879234279e-11
2.857238439060769816e-11
1.921506572237845460e-11
1.269768565308728251e-11
8.263499398493345177e-12
5.308497174546884186e-12
