# bin_10_1
1.729391530526946179e-08
1.448412284278115954e-08
1.188636077814112421e-08
9.610779815198911170e-09
7.678047457606925366e-09
6.040434748667659629e-09
4.651701782021024379e-09
3.519026218912488806e-09
2.659293429283366289e-09
2.021104093113549392e-09
1.536070330836969336e-09
1.178315192549453984e-09
9.135266342399318082e-10
7.155151520422299688e-10
5.650122654474109859e-10
4.481764605160139250e-10
3.554427761705444433e-10
2.804866920272880250e-10
2.192268374034920902e-10
1.690298214106769796e-10
1.281391449794847581e-10
9.526991419221339338e-11
6.935134115826591759e-11
4.938983847415476503e-11
3.441628784041140971e-11
2.348937782431206016e-11
1.572889339317474009e-11
1.035579637296274734e-11
6.719708144561152564e-12
4.307400434745375321e-12
2.733539965137208971e-12
