# bin_14_3
2.950623688342813859e-08
2.565553806172667888e-08
2.171703598600302215e-08
1.796509993305977813e-08
1.460590437192439766e-08
1.172647414813206407e-08
9.293729611150080532e-09
7.224354844067061607e-09
5.490102931505642338e-09
4.129646527317189148e-09
3.124690340243418736e-09
2.364596381524558686e-09
1.793649491869753998e-09
1.376565352391952284e-09
1.065686249147904823e-09
8.329810893278316364e-10
6.554031586032507819e-10
5.170638662929787569e-10
4.071572922908637742e-10
3.185359958344029989e-10
2.465360792077321686e-10
1.880690656826319634e-10
1.409871347103346907e-10
1.036354127007401410e-10
7.459243791640750184e-11
5.254208199352558642e-11
3.623227564356089077e-11
2.448839356737706382e-11
1.625149190533210694e-11
1.061354395309090403e-11
6.837443461052573246e-12
