# bin_7_7
3.834657561520157084e-08
3.426068618834941991e-08
2.979227228172271526e-08
2.524112044895731933e-08
2.090391193370289816e-08
1.700482286025429966e-08
1.364377217636165612e-08
1.080157630031185236e-08
8.402209217927692454e-09
6.403529063915935123e-09
4.818794896341134451e-09
3.631898279128856837e-09
2.744480225922217552e-09
2.073950884495252293e-09
1.582410049546437363e-09
1.217037032569450428e-09
9.443808004856491596e-10
7.373894174170200479e-10
5.775175585911797658e-10
4.518061326039941307e-10
3.515501558971522948e-10
2.709652555530008484e-10
2.061444610274127478e-10
1.543444303171439857e-10
1.134770902351773669e-10
8.180352743639440105e-11
5.777767501998933829e-11
3.998304773420924214e-11
2.712914354971911330e-11
1.807349205566589956e-11
1.184413280087759737e-11
