# bin_15_11
5.987880379246393797e-08
5.553547347364771748e-08
5.016781680510886347e-08
4.409298545868368185e-08
3.771999177789624872e-08
3.148645214626798528e-08
2.576624336258151428e-08
2.077147053708841684e-08
1.652925087311196898e-08
1.294022574534252687e-08
9.913905091052825546e-09
7.456345239255147945e-09
5.587653363070220957e-09
4.200691064059272704e-09
3.146910522975476697e-09
2.371170794615427311e-09
1.800590159966495848e-09
1.378397414485742929e-09
1.062817303318673871e-09
8.236849666195575841e-10
6.393658713029334823e-10
4.951126675911834295e-10
3.809809870015136825e-10
2.902206649288461530e-10
2.181662175383074954e-10
1.614264414758210286e-10
1.173451522943525637e-10
8.370117723228326977e-11
5.855164576998706416e-11
4.017402184054061653e-11
2.705671141883995260e-11
