# bin_20_14
7.127066029346155348e-08
6.710969951576995873e-08
6.160438385263089529e-08
5.504066154518595786e-08
4.783729985828406554e-08
4.049395106694564547e-08
3.350393740137695463e-08
2.723349597563786240e-08
2.183639732204697097e-08
1.726735554611247120e-08
1.339445879947004659e-08
1.015878697516437371e-08
7.600561959098750025e-09
5.693533000506991828e-09
4.262046118344335825e-09
3.181787428481813340e-09
2.396225223575172951e-09
1.814782096725432934e-09
1.386187691542573551e-09
1.065629400691294468e-09
8.224911330488172233e-10
6.351980824267208217e-10
4.889536705447960029e-10
3.737348841574534807e-10
2.826642236880335802e-10
2.109218507230693104e-10
1.549233567896311284e-10
1.118230203867175280e-10
7.923584371813937681e-11
5.509661761956489729e-11
3.760470024934799633e-11
