# bin_20_13
6.913532359561765726e-08
6.491262410143564269e-08
5.940264494478395565e-08
5.290028558527044340e-08
4.582676033884992584e-08
3.867471019676916238e-08
3.191947439745596483e-08
2.589780622660453638e-08
2.073471449691804749e-08
1.636623165256344694e-08
1.266244738092715548e-08
9.580458805896748335e-09
7.165610518794584302e-09
5.373304440237094751e-09
4.021651456088807947e-09
3.006705114822870961e-09
2.268625908071862291e-09
1.721850706163392455e-09
1.317907151342924181e-09
1.015128226735248779e-09
7.847047035762315625e-10
6.065902533199019494e-10
4.670831900996019007e-10
3.569060287669566098e-10
2.696904136118197205e-10
2.009507610410405221e-10
1.473184123646437830e-10
1.060908360190619217e-10
7.498050087540432485e-11
5.199336270756436521e-11
3.538532436017539167e-11
