# bin_18_18
7.569858696580979876e-08
7.168960717527865116e-08
6.622212040630976117e-08
5.956149811235939661e-08
5.211803313082425640e-08
4.440154558523388331e-08
3.693734357623743579e-08
3.014857599437472649e-08
2.425114698155534516e-08
1.924463423511583248e-08
1.500389534167848572e-08
1.144135371936867386e-08
8.577096351011378597e-09
6.412486780408111660e-09
4.798980514149224707e-09
3.576918909647952752e-09
2.681613926276296483e-09
2.023187398569412139e-09
1.538195615915787508e-09
1.177309859063630448e-09
9.054925363074446379e-10
6.975907792621009487e-10
5.363394181117438737e-10
4.099996075385517241e-10
3.105207018792646489e-10
2.322944396928071546e-10
1.712275732274027564e-10
1.241375055960658823e-10
8.841156134868668895e-11
6.182249915570814347e-11
4.244518541552144216e-11
