# bin_10_7
4.339142562977076419e-08
3.914069367553929936e-08
3.435694667035238018e-08
2.935874681590779200e-08
2.448531123921449258e-08
2.002394807606645823e-08
1.613542169219970897e-08
1.283711957348626681e-08
1.004993716406679657e-08
7.703941726285363300e-09
5.804188593803546977e-09
4.363351423084750840e-09
3.293857059570618165e-09
2.481255388463446365e-09
1.882961622697704045e-09
1.441208230464743366e-09
1.112798638096804715e-09
8.654416775469408855e-10
6.761431854735796423e-10
5.285758416656405836e-10
4.117118195608142017e-10
3.181985023218846417e-10
2.430955824534763496e-10
1.829974543602481478e-10
1.354004180548369189e-10
9.829307906525399497e-11
6.993516721987219508e-11
4.875329418965805298e-11
3.331415288826161789e-11
2.233841280331089898e-11
1.472300885016771938e-11
