# bin_9_7
4.198585554947461359e-08
3.778088158073808823e-08
3.308481088739774693e-08
2.821099821656845717e-08
2.348683640373519818e-08
1.918208319165488519e-08
1.544055292504572251e-08
1.226942494881629745e-08
9.590391257319502857e-09
7.341209677369858832e-09
5.529243855822773533e-09
4.159234080176279526e-09
3.140578735415832147e-09
2.367595469877821966e-09
1.799097266093390121e-09
1.378659265915656685e-09
1.065813937957406350e-09
8.297214957361878974e-10
6.486354135687782850e-10
5.071668094546896326e-10
3.949361550165413040e-10
3.050288469993788316e-10
2.327931839237031683e-10
1.750086278662851244e-10
1.292876545571767144e-10
9.369502171460008892e-11
6.654471053527258295e-11
4.630712261299933657e-11
3.158876751625499758e-11
2.114844937177751119e-11
1.391962287376490954e-11
