# bin_20_9
5.815394217299673250e-08
5.370543960058442426e-08
4.827963105477761180e-08
4.220921843502335101e-08
3.591371509201175803e-08
2.983318753347218616e-08
2.432296677846255429e-08
1.955930028137525567e-08
1.552908814415523155e-08
1.210932073712201045e-08
9.225018917921608419e-09
6.915953422241306483e-09
5.192946700816673066e-09
3.904839301500493342e-09
2.925161073459186054e-09
2.213288809793014376e-09
1.684990353610853578e-09
1.294944848495982959e-09
1.002158410987516061e-09
7.790253754972293518e-10
6.060253010300957468e-10
4.698457989532217438e-10
3.615699288672903246e-10
2.751544742363524478e-10
2.064202979275477159e-10
1.522829695693430046e-10
1.102800776965773680e-10
7.831144652130110630e-11
5.450991612050518155e-11
3.720454203231809806e-11
2.492380731008179712e-11
