# bin_14_8
5.073333812372797893e-08
4.634152123060677973e-08
4.119502666374380640e-08
3.562541968913452555e-08
3.001842967304496732e-08
2.474373584001165754e-08
2.005823824805501782e-08
1.605172624962831466e-08
1.266614145852214273e-08
9.797373064591410368e-09
7.416259955340468466e-09
5.561182265806510278e-09
4.188432257165868618e-09
3.150070227578845295e-09
2.372543200078538674e-09
1.805223571073998359e-09
1.383470326196082156e-09
1.069409358460568050e-09
8.317355802554718593e-10
6.486566208325504102e-10
5.052262440060444152e-10
3.913640257374855639e-10
3.003183292348930453e-10
2.274916595452235532e-10
1.696295716709549696e-10
1.242375924177828533e-10
8.924599681141352024e-11
6.283418329430262454e-11
4.335821993506839573e-11
2.934410147509355116e-11
1.950370224528127738e-11
