# bin_17_17
7.305048853898669734e-08
6.896681407157846464e-08
6.349468062011136918e-08
5.690996941633472423e-08
4.962554304936710549e-08
4.214240920019973352e-08
3.496410125163537375e-08
2.847986180830205434e-08
2.287134779062989173e-08
1.811624079154064115e-08
1.408900772353670677e-08
1.071732141314904747e-08
8.027982398543930679e-09
6.007044662274924990e-09
4.496690322103118999e-09
3.354732935878171748e-09
2.520531974458502745e-09
1.905350184254104088e-09
1.451949088547201406e-09
1.113638734156060029e-09
8.579502998898722877e-10
6.616972627325365548e-10
5.089829398861574076e-10
3.890151048298046707e-10
2.943878877211836523e-10
2.199238868232595268e-10
1.618086677349564828e-10
1.170450816432562760e-10
8.314753454254726285e-11
5.798128829458957342e-11
3.969407593028098649e-11
