# bin_5_5
2.934195551534254899e-08
2.566318877255076597e-08
2.186327672808994103e-08
1.819182120633136709e-08
1.485226436158969404e-08
1.195157557576863611e-08
9.494003865089603351e-09
7.420873494172733562e-09
5.685796722753660912e-09
4.291675654842730209e-09
3.237111080328821721e-09
2.452638096125795516e-09
1.858539940669823166e-09
1.420340105703447246e-09
1.095601555655883316e-09
8.526751249077739043e-10
6.681646514806575669e-10
5.254450017780267312e-10
4.129092938407475616e-10
3.228022345885948371e-10
2.500075963248133858e-10
1.911129669883374642e-10
1.437537337153350898e-10
1.061524046699901832e-10
7.683073571583972293e-11
5.446117033703415440e-11
3.780820209980806420e-11
2.572543146920449295e-11
1.718075674652643085e-11
1.128419316893942862e-11
7.304825247158064465e-12
