# bin_18_8
5.359124566000215842e-08
4.913424043159644550e-08
4.383665755941597219e-08
3.803662219349585278e-08
3.213957217685691704e-08
2.654808715010009651e-08
2.155556466433056889e-08
1.727788156911258582e-08
1.366260095406879291e-08
1.059195948931259171e-08
8.025977803789582135e-09
6.014359077709002461e-09
4.527220963135228495e-09
3.402869274267238779e-09
2.558014402217942224e-09
1.943198280656490921e-09
1.486320348471346860e-09
1.147082632169862317e-09
8.911189190000803633e-10
6.945765545504655447e-10
5.410372856895265173e-10
4.194024826079321958e-10
3.222457200071293242e-10
2.445280467496459793e-10
1.827169095212260035e-10
1.341380804349307049e-10
9.659794721982277469e-11
6.818128893330067097e-11
4.716227107506012746e-11
3.199054006991473913e-11
2.130530936524007925e-11
