# bin_15_14
6.579724917277896523e-08
6.155320523474547802e-08
5.611857424107557341e-08
4.979361983701841389e-08
4.299169436593725886e-08
3.618193011175600193e-08
2.980032382546216391e-08
2.414013843320012560e-08
1.929561263441984072e-08
1.519664521979809457e-08
1.173035632093308016e-08
8.866887029795702082e-09
6.637067080520190245e-09
4.979064309981558771e-09
3.728778592277236236e-09
2.793506253431301360e-09
2.111166045474998872e-09
1.605741684879109455e-09
1.231244722250956882e-09
9.496893581123418902e-10
7.347290998278116308e-10
5.680644974603204845e-10
4.372170710674900144e-10
3.337294286843210408e-10
2.517799580772110258e-10
1.872323590488650815e-10
1.369466403308149387e-10
9.837668800169813858e-11
6.935025417186656276e-11
4.796734371967837956e-11
3.256675874190438511e-11
