# bin_19_1
1.854431827670248224e-08
1.556250874678241949e-08
1.279051588311363526e-08
1.035506084995588923e-08
8.284746609385025492e-09
6.528782744434238649e-09
5.033995252041609885e-09
3.808228818294774515e-09
2.875801955875669173e-09
2.184535954960394447e-09
1.658462356521280195e-09
1.270422929196063852e-09
9.836903608253385772e-10
7.696502851908338268e-10
6.073728414423702177e-10
4.817216846059873286e-10
3.822075843789093298e-10
3.018817281330775516e-10
2.362599560443721077e-10
1.824589588968879907e-10
1.385726576111984507e-10
1.032262745108949703e-10
7.528904670482333043e-11
5.371846677704760883e-11
3.749691074196089178e-11
2.563092750139774004e-11
1.718533093706803479e-11
1.132700174346918036e-11
7.356379742579603508e-12
4.718796538519055483e-12
2.996226481099794659e-12
