# bin_16_16
8.587639930007707529e-06
9.691943374331561214e-06
1.075303365699614580e-05
1.168091254898442300e-05
1.235704151193255018e-05
1.264134640482417891e-05
1.242422261228977914e-05
1.154832947394990141e-05
1.014775687124165299e-05
8.443741149403425933e-06
6.908231272656383753e-06
5.858157814188946527e-06
5.056949005060307495e-06
3.900469701065680059e-06
2.694455013397208017e-06
2.173056674219421089e-06
1.506589992464897862e-06
1.116446558483393791e-06
7.521333079904019335e-07
5.312061024852895260e-07
3.702025284798182025e-07
2.578318673593728617e-07
1.805736672030661395e-07
1.277121494692555218e-07
9.197336937717903425e-08
6.754535942670023783e-08
5.055895569438924423e-08
3.849023867700956461e-08
2.963318263680662230e-08
2.291111121341144475e-08
1.765585257517278478e-08
