# bin_18_1
2.070950781041148523e-81
2.311069247533641527e-81
2.529316122668555093e-81
2.701541490192012427e-81
2.797486500257145276e-81
2.793130405010694294e-81
2.649686303277213557e-81
2.373198943022492721e-81
2.008822354240525968e-81
1.643716474293720339e-81
1.369660206515959544e-81
1.186366369864687755e-81
9.683507004516230955e-82
6.782445544565235395e-82
5.155437055086872771e-82
3.940158222067180556e-82
2.708225328697237617e-82
1.950179834039657328e-82
1.399624188928795147e-82
9.797025645376167536e-83
6.887085326282389776e-83
4.902740535203562927e-83
3.542132953241736021e-83
2.603786907025256700e-83
1.951660144504782084e-83
1.487475228678929064e-83
1.148235592595115328e-83
8.921103374572116808e-84
6.925423527013507024e-84
5.334206085438305256e-84
4.052146565726079476e-84
