# bin_16_1
4.200400249912026724e-70
4.658824123962658254e-70
5.060625111167740388e-70
5.354858303468142712e-70
5.480996166016823122e-70
5.392079790984692073e-70
5.019054623834317806e-70
4.416426140603718346e-70
3.679157973036395123e-70
3.008776528795185531e-70
2.546237997624361474e-70
2.198642928586967163e-70
1.706302618184512858e-70
1.180647299557756170e-70
9.488739729566316117e-71
6.681530283985769248e-71
4.940559256576409818e-71
3.384585301474409602e-71
2.436101786677622738e-71
1.731771866268386305e-71
1.236950745811539977e-71
8.944305139622095257e-72
6.562448377096730536e-72
4.908587437977279501e-72
3.737219048146108149e-72
2.884413809985164760e-72
2.244853608033804453e-72
1.749189698480648312e-72
1.354970668529231197e-72
1.036767724196040778e-72
7.796110697313596314e-73
