# bin_19_12
1.997260052892856859e-14
2.253068480170057529e-14
2.498379915566437508e-14
2.712152384315622842e-14
2.866758111634800245e-14
2.929852397221389507e-14
2.875596857888244797e-14
2.668468900705419096e-14
2.341196884817602608e-14
1.945805363260640437e-14
1.592368468955018912e-14
1.352167000995928953e-14
1.166103318241554840e-14
8.951849139849643765e-15
6.190571457730465778e-15
5.006525760398973993e-15
3.446449022444440923e-15
2.567780773412466677e-15
1.730358036573448686e-15
1.218092602940630056e-15
8.502347736593045051e-16
5.932422806789104934e-16
4.160124505992453499e-16
2.946910758530732618e-16
2.126282280263395474e-16
1.564515531285143502e-16
1.173118929235029663e-16
8.943098305188114948e-17
6.890929638829874092e-17
5.329040896047299477e-17
4.105323931024227147e-17
