# bin_13_1
1.166749125372344756e-52
1.278985100276397329e-52
1.369292493857451964e-52
1.422675418306042581e-52
1.426265810586039822e-52
1.361199742900548860e-52
1.226284613405738483e-52
1.044355826974884403e-52
8.556207777272697697e-53
7.092762350479261344e-53
6.130556568705895698e-53
5.074492776061123150e-53
3.607950697625433717e-53
2.684630567548357172e-53
2.107938406453583252e-53
1.434291324995938183e-53
1.065864089135936038e-53
7.643037337212721068e-54
5.424951527476033060e-54
3.897534031250699160e-54
2.835994389306988526e-54
2.099986107639034787e-54
1.582822663172049256e-54
1.214351128311422874e-54
9.437054087830230552e-55
7.385684497484368327e-55
5.781570292307533304e-55
4.494600593982307667e-55
3.448523793112758649e-55
2.597853355160492769e-55
1.913647705230666039e-55
