# bin_8_2
7.487430774934843903e-19
7.995600873112206549e-19
8.283226855015642371e-19
8.277974042670967172e-19
7.868633733505187095e-19
7.063070587091046232e-19
5.994024729620792411e-19
4.907002837911864882e-19
4.077213857095848155e-19
3.523657401866954401e-19
2.894527863108752848e-19
2.051202608970483949e-19
1.545819773782758768e-19
1.201861275471657823e-19
8.320061592355717721e-20
6.161222071585559556e-20
4.485057131125216985e-20
3.237745452182233795e-20
2.370984392134414470e-20
1.765645751392624426e-20
1.339587098384373723e-20
1.033977035663882788e-20
8.096162993667224979e-21
6.389688512126011207e-21
5.048214117314623372e-21
3.964692124270721683e-21
3.074500855752356071e-21
2.340912140021353827e-21
1.741975522960006768e-21
1.262647762946375485e-21
8.903673216872710437e-22
