# bin_15_12
1.354399989343246620e-07
1.518821643166538399e-07
1.672202159216156775e-07
1.799366217847279632e-07
1.881058841302690944e-07
1.898691229172289071e-07
1.829426904223183318e-07
1.663433497519483023e-07
1.430123129296314749e-07
1.175457656189955251e-07
9.690598420251335116e-08
8.348125322389065646e-08
7.030038721036864134e-08
5.097228644715384116e-08
3.671881322097945046e-08
2.955221781673399495e-08
1.960870175632599656e-08
1.480241450605266806e-08
1.029828137951909505e-08
7.142536657095232068e-09
5.015543856204416475e-09
3.531116682858960155e-09
2.516476415798663390e-09
1.820255017454562207e-09
1.343334320621291185e-09
1.009954651813361516e-09
7.715326802274386535e-10
5.959555807843000193e-10
4.621891653714667912e-10
3.572747446091897729e-10
2.734080416611754311e-10
