# bin_14_4
2.983995788150472722e-33
3.298122595098825475e-33
3.567215495254436710e-33
3.754469080025818832e-33
3.819179702511128485e-33
3.724108970223350132e-33
3.430551449844369565e-33
2.988599026589385791e-33
2.472562828391762687e-33
2.026235106858391011e-33
1.728942909708677422e-33
1.481702950668374906e-33
1.116674982991509636e-33
7.803632539453897115e-34
6.357684428210323085e-34
4.312308955754829840e-34
3.276796234679034310e-34
2.257364248907329282e-34
1.601221249130489319e-34
1.147082793590881011e-34
8.263927596684402306e-35
6.020085086313212013e-35
4.454040939454840660e-35
3.360459672904860062e-35
2.577388918213138511e-35
2.000054952852501574e-35
1.561078782833753437e-35
1.216614086231571213e-35
9.402805961574614567e-36
7.163381636917918978e-36
5.354131349546512104e-36
