# bin_2_1
1.239502262507749518e-05
1.223193981469359923e-05
1.145315687820153746e-05
1.014118924008675431e-05
8.508707460927829633e-06
6.965037938989060463e-06
5.846508416915742445e-06
5.030762738609367688e-06
3.997523851220303600e-06
2.827229485850457849e-06
2.204617115276536320e-06
1.643832411041801692e-06
1.193932107671005542e-06
8.731888104831253819e-07
6.485658216705949501e-07
4.829377148457259501e-07
3.659264355282186201e-07
2.827282348259595524e-07
2.222956905628525808e-07
1.771133737649022328e-07
1.420627715209443037e-07
1.138341865787406728e-07
9.045856292367963739e-08
7.081044880931341271e-08
5.428719353535843297e-08
4.057985732274190083e-08
2.950414773096875188e-08
2.085523295716753104e-08
1.435715490388081763e-08
9.653431288492879392e-09
6.361381566840317683e-09
