# bin_19_5
4.332006521017615195e-49
4.856917119048264887e-49
5.346073570495255619e-49
5.750852060449332788e-49
6.009608594908875970e-49
6.063283481849078501e-49
5.838267113176484249e-49
5.304936811099646194e-49
4.557705641983671006e-49
3.744999853365924722e-49
3.088567330186595170e-49
2.661786266449516155e-49
2.239020853504933410e-49
1.620370879758157414e-49
1.169854653044133513e-49
9.401128193106895599e-50
6.240808280836246104e-50
4.706103463882308931e-50
3.278361888087227626e-50
2.274350422218150493e-50
1.597014833041462189e-50
1.124636360357894539e-50
8.019553272966874306e-51
5.805197731088794153e-51
4.287423882285253756e-51
3.225629144011772606e-51
2.465539508362409760e-51
1.905147376167269366e-51
1.477723551402420882e-51
1.142189374571218206e-51
8.738297153081678413e-52
