# bin_11_4
1.505717263863312644e-20
1.645719976424193705e-20
1.755485058345215723e-20
1.815387641526443644e-20
1.810006247835736085e-20
1.714338030210090533e-20
1.533333640344063388e-20
1.296342619114865318e-20
1.060401448177759205e-20
8.840352685381591632e-21
7.652273953033406214e-21
6.229726309552234443e-21
4.368984895899198547e-21
3.336509401046360230e-21
2.548640693288178501e-21
1.772258532282994948e-21
1.284909102193852531e-21
9.337354551207781854e-22
6.660360076442975200e-22
4.794734483851145527e-22
3.508569070895147916e-22
2.612614252840011828e-22
1.980694828347274711e-22
1.526983990138347958e-22
1.190809210815000843e-22
9.336947091245028819e-23
7.309461675051271967e-23
5.673381930418403058e-23
4.339799635388346841e-23
3.255508763435815424e-23
2.385628406007369014e-23
