# bin_5_3
5.299959972996308036e-07
5.566088701314669081e-07
5.651460939945141056e-07
5.499186249305741409e-07
5.057569129002508284e-07
4.399811186081976930e-07
3.639251495648036695e-07
2.983646501600090893e-07
2.543521009408999661e-07
2.172621937233966191e-07
1.639754633945850802e-07
1.157087546423811862e-07
9.377697051929983638e-08
6.499035463922626667e-08
4.940389526181147152e-08
3.495319807270018833e-08
2.551561293831042902e-08
1.883587018235805307e-08
1.408321784985074046e-08
1.070981841371525141e-08
8.283115331325740889e-09
6.504518010499393150e-09
5.153248394913023354e-09
4.089960583714435420e-09
3.228942494897699541e-09
2.518430761994845342e-09
1.929081427297733373e-09
1.444108350620038438e-09
1.052889981170781910e-09
7.465530290060657997e-10
5.151559466772212271e-10
