# bin_4_4
1.913363090963563244e-05
2.007714603393194041e-05
2.036556073024147040e-05
1.978887758421851202e-05
1.817277602048233162e-05
1.578595980855700297e-05
1.304791782820016312e-05
1.070421291507031082e-05
9.133748979463878661e-06
7.786530404762213265e-06
5.854792279786802857e-06
4.145406886306049032e-06
3.355555995234317519e-06
2.323124807320528418e-06
1.765797818936393039e-06
1.251849759358100545e-06
9.136118599240383603e-07
6.746571335274193683e-07
5.047084235373826574e-07
3.841273778519971958e-07
2.973272535113423726e-07
2.336248992920591904e-07
1.851547692598945916e-07
1.469611921141169868e-07
1.159990452433109517e-07
9.043252300602782065e-08
6.922323080600440281e-08
5.177696830606810682e-08
3.771484235165477392e-08
2.671682480648875944e-08
1.842009531935415470e-08
