# bin_15_6
1.403597931874207924e-25
1.560436303146736712e-25
1.699901782549757658e-25
1.805188816753818165e-25
1.855723685537336107e-25
1.836238436222235265e-25
1.721498833838446575e-25
1.524966328484660891e-25
1.277462335296450086e-25
1.044236227137676109e-25
8.784911126438521755e-26
7.604735328928199211e-26
6.022099541400769662e-26
4.165916165921465333e-26
3.290492135036333126e-26
2.391438550521065442e-26
1.719742803879613488e-26
1.190554522908724632e-26
8.628371661626391644e-27
6.094658051357100905e-27
4.319686114903960017e-27
3.106567777418935346e-27
2.266443037927428674e-27
1.684632414688827882e-27
1.275545740493727599e-27
9.802549569292028837e-28
7.609287832779837844e-28
5.925264713029588215e-28
4.595171087747692757e-28
3.525608947628444192e-28
2.661673637171123844e-28
