# bin_9_8
5.801089223366702382e-06
6.367581354885798834e-06
6.828461614486484711e-06
7.109708728108480555e-06
7.144925634432425149e-06
6.842684668316447709e-06
6.185366256666905980e-06
5.286168245214481659e-06
4.335441177491435602e-06
3.585531063143405157e-06
3.095025662512216210e-06
2.579355417089237655e-06
1.848361442520768408e-06
1.359041079930780016e-06
1.078781790809955732e-06
7.287374923926322302e-07
5.466754055747215195e-07
3.893933742957836718e-07
2.758550557368922921e-07
1.981194929857747868e-07
1.438410913038300663e-07
1.062313486353992228e-07
7.984435870743839553e-08
6.110993077569620976e-08
4.740501059089955085e-08
3.706160578494938392e-08
2.900657707984404581e-08
2.256342835239354802e-08
1.733461165444586302e-08
1.308315710568158686e-08
9.660264789729113582e-09
