# bin_12_7
3.391104303030984461e-12
3.746001495839915283e-12
4.048859734926393552e-12
4.257741884508183720e-12
4.326955151271867336e-12
4.213198809524638184e-12
3.874870085031525917e-12
3.370319721692726292e-12
2.785822508298955428e-12
2.284096948935808098e-12
1.951247957677552201e-12
1.669404482693269314e-12
1.252552339098137466e-12
8.777044755786111669e-13
7.154092632559624584e-13
4.834424595443085980e-13
3.680688675563119038e-13
2.541675427628428006e-13
1.800324635814264172e-13
1.290542542209489782e-13
9.304287679419124474e-14
6.785695928678253045e-14
5.027201349744465584e-14
3.797817930167898226e-14
2.915957287216375248e-14
2.264500281830721222e-14
1.768118059025835568e-14
1.377899825542073776e-14
1.064490540694292703e-14
8.103816670631636802e-15
6.051156503231845725e-15
