# bin_9_3
8.172342452307838649e-18
8.818664234520482943e-18
9.257930360295320977e-18
9.392881383080707425e-18
9.126317489174275802e-18
8.375997802366700690e-18
7.270881807757141055e-18
6.004106444286288145e-18
4.925253030803496983e-18
4.209683742283090553e-18
3.591759153456594598e-18
2.687003553859817131e-18
1.895472191638959080e-18
1.543033880078751624e-18
1.050894023694857441e-18
8.026667689589525267e-19
5.627410340540025701e-19
4.046674054235060150e-19
2.951374389663348758e-19
2.173986919704997004e-19
1.625791512182117136e-19
1.236552786121677561e-19
9.569648634994126864e-20
7.495026070745763874e-20
5.902906338020456091e-20
4.643168115511256326e-20
3.621929701892278522e-20
2.784603375554256673e-20
2.098983097141467932e-20
1.544873058096785432e-20
1.107325000665554769e-20
