# bin_10_8
8.661654216395362317e-07
9.536978353349263083e-07
1.026659557419312640e-06
1.074171350133397382e-06
1.085464094355622344e-06
1.047990382142653277e-06
9.550861241619400270e-07
8.231226675380237488e-07
6.772428639934546666e-07
5.574034131667306480e-07
4.790887798689788845e-07
4.049982741831678830e-07
2.963506590347460707e-07
2.121945067073674944e-07
1.718014784529535200e-07
1.150193784075187482e-07
8.759425966523104630e-08
6.143663964761824057e-08
4.339283674313051011e-08
3.115459551220141546e-08
2.253108777650241922e-08
1.653856268383902294e-08
1.234574331455663118e-08
9.392488835125994061e-09
7.252506084599138808e-09
5.653821029373636569e-09
4.421414202678903028e-09
3.443247934010939396e-09
2.652921666299922862e-09
2.010875681753136699e-09
1.492951447845795602e-09
