# bin_20_8
1.184978826736049902e-33
1.334064371196332404e-33
1.475773901214620815e-33
1.597331173402930614e-33
1.682195197688661022e-33
1.711991698506302426e-33
1.670083655938316232e-33
1.538799874535664397e-33
1.340797280801328495e-33
1.109333683427294715e-33
9.092925609622982503e-34
7.764400614301164261e-34
6.657392793857861445e-34
5.008927756813644909e-34
3.491422941390153373e-34
2.845192250636303568e-34
1.909826351041319694e-34
1.446187333580975329e-34
9.821598913773965898e-35
6.832338247538458769e-35
4.792845429614161090e-35
3.362071838395074565e-35
2.370687991703628394e-35
1.691150913409296373e-35
1.230090006201670709e-35
9.122942450387834661e-36
6.889451427265688184e-36
5.280173179336709562e-36
4.080830737867564140e-36
3.157481067738890340e-36
2.427984190708928996e-36
