# bin_8_3
2.716470697354431827e-14
2.913913545168573151e-14
3.036141203084555405e-14
3.054391914189645287e-14
2.930770287871750190e-14
2.654795901177894856e-14
2.274071007589024401e-14
1.866625917866413256e-14
1.541070766109651304e-14
1.327660326517615562e-14
1.111052711031039866e-14
8.030562854747814142e-15
5.866980428755058033e-15
4.692744942708447920e-15
3.187584337202547401e-15
2.415700716646530259e-15
1.730253864118632884e-15
1.243116928556228481e-15
9.087507218363093242e-16
6.730457522345541593e-16
5.075417958728480976e-16
3.894215334407115466e-16
3.035371874597893058e-16
2.388857907100063113e-16
1.885592228909348553e-16
1.482382627448517370e-16
1.152729646001924064e-16
8.814776462108400892e-17
6.596138550746087188e-17
4.812219664522740423e-17
3.416470349374676926e-17
