# bin_17_10
1.556643561426741463e-15
1.746866705645906614e-15
1.924956093648797565e-15
2.073578510909881569e-15
2.170678474245942731e-15
2.194391750105846425e-15
2.119167425990915152e-15
1.931397710258532009e-15
1.664483751354790010e-15
1.369445064461454815e-15
1.127522014967259176e-15
9.699843929680381112e-16
8.200007779335711380e-16
5.983380756384073096e-16
4.277961275936951068e-16
3.461095535652738213e-16
2.292537472785151164e-16
1.737265473126372719e-16
1.203310362438802988e-16
8.338773033408710430e-17
5.856425612952727707e-17
4.119517345220888737e-17
2.930110972658840320e-17
2.114214596178820949e-17
1.556423782549823533e-17
1.167519077289560500e-17
8.902643875959515119e-18
6.868740726687916133e-18
5.324906479592709931e-18
4.117629502601589884e-18
3.154168979787847732e-18
