# ell
2.000000000000000355e+01
2.460343031299716898e+01
3.026643915832541154e+01
3.723291133272139319e+01
4.580286696623065978e+01
5.634538227695679780e+01
6.931448431551464751e+01
8.526870422690498685e+01
1.048951311163111910e+02
1.290390024296432046e+02
1.587401051968198544e+02
1.952775558043899196e+02
2.402248867962862562e+02
2.955178130870029349e+02
3.635375960267701316e+02
4.472135954999579894e+02
5.501494265954056573e+02
6.767781539487709779e+02
8.325532074018732374e+02
1.024183241008712685e+03
1.259921049894872795e+03
1.549918987548337100e+03
1.906666190046830934e+03
2.345526436848251706e+03
2.885399811814427267e+03
3.549536659755568053e+03
4.366538892586244401e+03
5.371591767636877194e+03
6.607979186246155223e+03
8.128947770927154124e+03
1.000000000000000000e+04
