# bin_18_19
-1.897575429547965655e-08
-2.152282738954981849e-08
-2.402536204211401292e-08
-2.629480605171628075e-08
-2.807788561299568732e-08
-2.905728624884836555e-08
-2.898642048230906408e-08
-2.745665989724211175e-08
-2.455372533433987322e-08
-2.074752140147613478e-08
-1.696939176031339996e-08
-1.416113825175985201e-08
-1.227395761679704812e-08
-9.977235885514487256e-09
-6.952041612495844463e-09
-5.310426963170185762e-09
-4.015878655247699542e-09
-2.755445479039172807e-09
-1.948740024020367975e-09
-1.384723119412713339e-09
-9.500125720582102208e-10
-6.493640962930380441e-10
-4.472180539787577521e-10
-3.106163471646757371e-10
-2.185520764824339576e-10
-1.566668137041530342e-10
-1.145444761430955235e-10
-8.547457395759149090e-11
-6.488926603127284053e-11
-4.983414882116046407e-11
-3.843369177905428946e-11
