# bin_9_19
-1.596799548881394704e-27
-1.796180938484436776e-27
-1.984977785608789451e-27
-2.145825105268520343e-27
-2.256356843920001316e-27
-2.292346620085475578e-27
-2.230543032266096126e-27
-2.049273848525166395e-27
-1.780367753792452782e-27
-1.470286466329428351e-27
-1.205770676519780851e-27
-1.031438376238197622e-27
-8.819206380658302744e-28
-6.585157824547743746e-28
-4.608640011755128657e-28
-3.758699312569081135e-28
-2.506215730949216683e-28
-1.903390012502589251e-28
-1.297956435859183403e-28
-9.006957100432673628e-29
-6.322487626713186787e-29
-4.438682926600180853e-29
-3.135868958358136986e-29
-2.242740392103869004e-29
-1.635916366773915986e-29
-1.216589291480994014e-29
-9.209328650051675432e-30
-7.070194971128574086e-30
-5.468960358082330251e-30
-4.231414855403803919e-30
-3.251105950371591584e-30
