# bin_6_6
-5.954278806976987006e-08
-6.411663927506030948e-08
-6.713285393189683989e-08
-6.790918215368673123e-08
-6.569469656676671480e-08
-6.001175780169789130e-08
-5.184623936548019799e-08
-4.270481839749046563e-08
-3.508816497199319897e-08
-3.007304494982509527e-08
-2.550760409194654014e-08
-1.885537861232282459e-08
-1.343626749076766968e-08
-1.089834662535432392e-08
-7.393553375844911449e-09
-5.645977662585160164e-09
-3.984527182213038951e-09
-2.861800697235183129e-09
-2.089017757105309404e-09
-1.541346033158663774e-09
-1.155778823443246037e-09
-8.815807787342836199e-10
-6.838801145606224575e-10
-5.364907462655693644e-10
-4.228468815691669479e-10
-3.325516579231818226e-10
-2.591405903373508667e-10
-1.988764540630717954e-10
-1.495477548770478152e-10
-1.097479148731080907e-10
-7.841560096602576584e-11
