# bin_17_2
-1.745029213070681783e-67
-1.942899627833479568e-67
-2.120417050739475695e-67
-2.256896648002371542e-67
-2.326696706806674389e-67
-2.310647030238319353e-67
-2.176355450865010354e-67
-1.936139138042030557e-67
-1.628043970643825364e-67
-1.330585468042425842e-67
-1.114675727893324687e-67
-9.655756224051663827e-68
-7.747263119397316984e-68
-5.374979524146279306e-68
-4.181591597803716936e-68
-3.105442305169204405e-68
-2.188489018922038726e-68
-1.536899117996801274e-68
-1.112628575766878438e-68
-7.827271905166562571e-69
-5.522801363702867786e-69
-3.955360459528046614e-69
-2.874100834905897020e-69
-2.126581578797138744e-69
-1.603604108487819928e-69
-1.228319447961224466e-69
-9.514476374817179132e-70
-7.403065073268319725e-70
-5.744292266923331289e-70
-4.414699851351968786e-70
-3.341587512019814160e-70
