# bin_12_6
-9.276955698416026849e-18
-1.022635539928435243e-17
-1.102462433846671374e-17
-1.155594873243610359e-17
-1.170125437858737580e-17
-1.133224430640422575e-17
-1.036057540868784857e-17
-8.957557898428525204e-18
-7.379099142504898341e-18
-6.061305253575332169e-18
-5.197896894514483311e-18
-4.416633817222677411e-18
-3.261315786817061493e-18
-2.311990944243567240e-18
-1.881226119738929668e-18
-1.259744274065978675e-18
-9.617974465850812401e-19
-6.702635360372446260e-19
-4.733541309452214939e-19
-3.397365210590051980e-19
-2.454071807049358154e-19
-1.796815398452117880e-19
-1.337348469475636073e-19
-1.014735583730308188e-19
-7.818850158127524844e-20
-6.086804843129014495e-20
-4.757479857434006079e-20
-3.706129538324296953e-20
-2.858502297064748305e-20
-2.170351223542135881e-20
-1.614912190787141967e-20
