# bin_11_11
-3.621999307221903874e-08
-4.025789478808680762e-08
-4.384373986198119767e-08
-4.654348296022101045e-08
-4.782693029207363575e-08
-4.730001757464442509e-08
-4.431546850076763243e-08
-3.922955697417619118e-08
-3.284061385905069218e-08
-2.683628290206072734e-08
-2.257988043567576641e-08
-1.954331533213344021e-08
-1.545702312157365764e-08
-1.068849918396300590e-08
-8.449591147592005202e-09
-6.129724972095294624e-09
-4.413894273768200334e-09
-3.053764939934386061e-09
-2.211895539825446039e-09
-1.562879306962018636e-09
-1.108145278275601195e-09
-7.971561407287979587e-10
-5.817374784588011588e-10
-4.325438908172685556e-10
-3.276054652759035402e-10
-2.518226424176448639e-10
-1.955048819127625446e-10
-1.522405357791169093e-10
-1.180555710461424737e-10
-9.056105120268220544e-11
-6.835235579947945598e-11
