# bin_17_12
-6.199942778663688472e-13
-6.974252493682202815e-13
-7.707534269924785510e-13
-8.332383222981356317e-13
-8.761966936465160424e-13
-8.902172360342269053e-13
-8.662802106169939587e-13
-7.959514005081364409e-13
-6.915672382197613058e-13
-5.711529238059670244e-13
-4.683905362831953002e-13
-4.006408064150676255e-13
-3.425862412037647623e-13
-2.558709698652279877e-13
-1.790580781959413122e-13
-1.460145359929726676e-13
-9.739723144857891927e-14
-7.395145646144044372e-14
-5.042234272908430990e-14
-3.499620044416052035e-14
-2.456402711657547497e-14
-1.724396993045058872e-14
-1.218174576757609980e-14
-8.711455523216485457e-15
-6.353708647686446784e-15
-4.724609238396739024e-15
-3.576105443218123034e-15
-2.745262926869428205e-15
-2.123440056380422213e-15
-1.642921794535192262e-15
-1.262324447826984184e-15
