# bin_7_10
-1.290477137648349251e-10
-1.417229131051460790e-10
-1.520794762454316879e-10
-1.584759604145905994e-10
-1.594118819006130953e-10
-1.528855368784604950e-10
-1.383886252697211614e-10
-1.184321975774685569e-10
-9.715666400902791748e-11
-8.024693853675005225e-11
-6.920663363745663280e-11
-5.784800658534532461e-11
-4.161684420440783365e-11
-3.041629095348541233e-11
-2.425648374249998873e-11
-1.633923748676455558e-11
-1.230186507179403409e-11
-8.733312286319792375e-12
-6.181107525178559828e-12
-4.438594016097727831e-12
-3.219381448058157958e-12
-2.374411911191339758e-12
-1.781959224237845729e-12
-1.362084737932234077e-12
-1.055561680992492535e-12
-8.247262854354308399e-13
-6.453482898203873166e-13
-5.021002531200907314e-13
-3.859601620617264467e-13
-2.915502034889530787e-13
-2.155137037564739404e-13
