# bin_17_20
-1.187173469820951065e-09
-1.346650082718865376e-09
-1.503406281313580861e-09
-1.645655135826097649e-09
-1.757564384833151953e-09
-1.819291573919161471e-09
-1.815349419920074339e-09
-1.720185564696687991e-09
-1.538847103595467113e-09
-1.300754780408890757e-09
-1.063943336316833916e-09
-8.876031272750775351e-10
-7.692985279959688376e-10
-6.259021807611297978e-10
-4.363837782420959061e-10
-3.329048003978055681e-10
-2.521397839129562487e-10
-1.727803930559539709e-10
-1.223843744320986273e-10
-8.690666391824996005e-11
-5.960919054745727375e-11
-4.074015682637496374e-11
-2.804779339749463989e-11
-1.947363311015891072e-11
-1.369542954268945699e-11
-9.812482504913946842e-12
-7.170555398186162819e-12
-5.348246011336266411e-12
-4.058719336018384942e-12
-3.116361616810958374e-12
-2.403294416462068789e-12
