# bin_19_3
-2.418493253925828017e-68
-2.708338569267997550e-68
-2.976808591591552680e-68
-3.196500022577647689e-68
-3.332808360330994102e-68
-3.353977551730972466e-68
-3.217533033464202945e-68
-2.912556460768420919e-68
-2.492414931913021384e-68
-2.044502762328197044e-68
-1.689291878662303156e-68
-1.458429779566517710e-68
-1.218999253465901708e-68
-8.739148421841518913e-69
-6.383492492060512271e-69
-5.080273364912806054e-69
-3.388393953272452453e-69
-2.534490398890159321e-69
-1.777574024463400100e-69
-1.235103811191710617e-69
-8.670181228189918453e-70
-6.116115561581427699e-70
-4.373977935478691587e-70
-3.177604513870729411e-70
-2.355121298818852596e-70
-1.777506639248247638e-70
-1.362070382908985478e-70
-1.054054418906053967e-70
-8.178821700353818414e-71
-6.317322914201162834e-71
-4.825345518854116566e-71
