# bin_10_6
-1.099438650705138390e-12
-1.203921091948642973e-12
-1.287235616159115398e-12
-1.335182216829292111e-12
-1.335952270665937782e-12
-1.271572206149751268e-12
-1.142531562567386213e-12
-9.703606190811629203e-13
-7.942590854406078176e-13
-6.594246430259666350e-13
-5.702849812430734905e-13
-4.695745060349020050e-13
-3.321720432296903243e-13
-2.491865206210766196e-13
-1.939955562127634084e-13
-1.328184609347148829e-13
-9.794140923855119919e-14
-7.053718024744043317e-14
-5.013581517785826860e-14
-3.603367949331428620e-14
-2.626276655447810344e-14
-1.948044112126665390e-14
-1.470937347468027585e-14
-1.130213965213042413e-14
-8.792703858333812535e-15
-6.885291380536619530e-15
-5.389803914937483782e-15
-4.187786227128611824e-15
-3.209914271925153656e-15
-2.414787844137511090e-15
-1.775810587984679937e-15
