# bin_11_7
-2.051129062653181318e-12
-2.259460839309688443e-12
-2.433732004508461004e-12
-2.548250312497396431e-12
-2.577161305538582308e-12
-2.491351798797329988e-12
-2.273410229760839058e-12
-1.961755314919622879e-12
-1.614649233246228300e-12
-1.327530318820055171e-12
-1.139794172436528427e-12
-9.657528795575848789e-13
-7.094740965011519732e-13
-5.056252125742875240e-13
-4.103117938808121929e-13
-2.746855290166854606e-13
-2.094238887883786394e-13
-1.464442062126513208e-13
-1.034296832325920733e-13
-7.424042939408817480e-14
-5.365709636793478030e-14
-3.933918190370660343e-14
-2.932558909076094497e-14
-2.228287414718637846e-14
-1.718894805406792114e-14
-1.339107451768367015e-14
-1.046931112445469863e-14
-8.154103593332785720e-15
-6.285383137750237146e-15
-4.767771417862304789e-15
-3.543272269954582982e-15
