# bin_15_20
-3.129238002296699040e-12
-3.543911126688487510e-12
-3.948525912632494303e-12
-4.311537794872157099e-12
-4.590658168489317850e-12
-4.733407861092837440e-12
-4.700893564329032662e-12
-4.426617152243135243e-12
-3.936853696336553834e-12
-3.309078749508293993e-12
-2.704887518510379933e-12
-2.268195716761643318e-12
-1.965705257457158628e-12
-1.573976530290070774e-12
-1.088751694780796037e-12
-8.485040391931755824e-13
-6.253530944544286300e-13
-4.389672036269669086e-13
-3.033574297367625459e-13
-2.169592889884637859e-13
-1.494654981533820588e-13
-1.025267568404318948e-13
-7.100995246804302782e-14
-4.959912680310903728e-14
-3.515554553534749629e-14
-2.539905830333070968e-14
-1.871660265633600377e-14
-1.406483591733108391e-14
-1.073372926620251779e-14
-8.267662936131525703e-15
-6.379280758406443046e-15
