# bin_19_4
-2.065690846252804565e-59
-2.314547857174615634e-59
-2.545723051356703248e-59
-2.735919008826258238e-59
-2.855665573805127584e-59
-2.877326702831192728e-59
-2.765205848272621192e-59
-2.507566489430052958e-59
-2.149800678107515360e-59
-1.764610848773480349e-59
-1.456393801056375360e-59
-1.256234471748634380e-59
-1.053468452419473303e-59
-7.586943160395472702e-60
-5.507647667574137174e-60
-4.406374009807679386e-60
-2.930246757899303153e-60
-2.201593963575589976e-60
-1.538594501965031605e-60
-1.068040157615106894e-60
-7.497841183571347231e-61
-5.283553158929922285e-61
-3.772594821411633312e-61
-2.735434478751708993e-61
-2.023579488066298681e-61
-1.524694566237636721e-61
-1.166783208389450579e-61
-9.022080786564096904e-62
-6.999072750361704619e-62
-5.407936507850098316e-62
-4.134078087898788289e-62
