# bin_3_5
-2.388971515433838963e-09
-2.509895400776080258e-09
-2.549494348903225709e-09
-2.482443861371309730e-09
-2.284703787681865943e-09
-1.988832162392073727e-09
-1.645373880853768050e-09
-1.348144159900756919e-09
-1.148334422991608852e-09
-9.818267991747956495e-10
-7.427861253712751392e-10
-5.231853085122947032e-10
-4.238738414830979763e-10
-2.943313297372127700e-10
-2.234273829349243756e-10
-1.579367350290338926e-10
-1.153628272691073147e-10
-8.511545828561206357e-11
-6.359998194885610261e-11
-4.833654511117166594e-11
-3.736235537423940834e-11
-2.932565372521477099e-11
-2.322622084205946804e-11
-1.843144348514370460e-11
-1.455200677453156381e-11
-1.135250306622718062e-11
-8.699193641197765417e-12
-6.515563151067134033e-12
-4.753345300723797020e-12
-3.372493486507942556e-12
-2.328570511897868591e-12
