# bin_13_20
-2.108217406482669586e-16
-2.383509734452124367e-16
-2.650084755662614361e-16
-2.886298061818505072e-16
-3.063329421843282888e-16
-3.146077749808197391e-16
-3.108589862190026689e-16
-2.908378955111504039e-16
-2.571044402203062855e-16
-2.149513038093758930e-16
-1.756860026188513430e-16
-1.481100008093051523e-16
-1.282133970063367584e-16
-1.008289234634632737e-16
-6.950605671351261876e-17
-5.522567205440599113e-17
-3.949611363152926785e-17
-2.850229804545676374e-17
-1.932966048299569152e-17
-1.379932731005752416e-17
-9.555637749532123713e-18
-6.599636438227872235e-18
-4.596987151271235013e-18
-3.230480810463284110e-18
-2.307922352304661576e-18
-1.681218112467524118e-18
-1.248857028331746389e-18
-9.449039343530662725e-19
-7.245796427204327977e-19
-5.593940515316582282e-19
-4.315158230589996181e-19
