# bin_18_15
-8.597499488007980484e-10
-9.715250081534652343e-10
-1.079520122170079931e-09
-1.174858194828348585e-09
-1.245752278864825291e-09
-1.277952484799873497e-09
-1.260812569672187894e-09
-1.177398553116251212e-09
-1.039026694569608559e-09
-8.674028898777957216e-10
-7.090339521112096640e-10
-5.986819958817312503e-10
-5.179426110527188686e-10
-4.051293490653150924e-10
-2.792739179459062221e-10
-2.229331836648792024e-10
-1.580432563771873252e-10
-1.149423898416931042e-10
-7.770250169306059476e-11
-5.534133842056379083e-11
-3.838655927300555238e-11
-2.657327668372615178e-11
-1.853790604634380945e-11
-1.305016975995895304e-11
-9.344209172737657141e-12
-6.822514705068339645e-12
-5.079058033359206198e-12
-3.849827070198711209e-12
-2.955706554778044586e-12
-2.283005911855533453e-12
-1.760733321370163463e-12
