# bin_1_13
-7.507546474197083688e-55
-8.230945170749432641e-55
-8.813789374554248113e-55
-9.159724408604342757e-55
-9.185473141077753477e-55
-8.770217622480132732e-55
-7.903713597975937588e-55
-6.733201523903207599e-55
-5.515348134612714075e-55
-4.568713907904648055e-55
-3.947909741023024482e-55
-3.272033758343132769e-55
-2.328835799693387739e-55
-1.728473475870288303e-55
-1.360284514673416516e-55
-9.237655129732926565e-56
-6.878423635499752813e-56
-4.925273420953128714e-56
-3.493982143695572200e-56
-2.509782252121822370e-56
-1.825156929377229475e-56
-1.350681143516022484e-56
-1.017407022167833943e-56
-7.801442368334860879e-57
-6.060240684761707037e-57
-4.741690974957243979e-57
-3.711528143501212312e-57
-2.885573041922048983e-57
-2.214471914518109793e-57
-1.668783564634346600e-57
-1.229821065248543806e-57
