# bin_16_11
-3.294029854980741805e-13
-3.695143705800970239e-13
-4.069964807183534617e-13
-4.381707887405306913e-13
-4.583639849479128003e-13
-4.629986475327376043e-13
-4.466082812456914510e-13
-4.065285253352989964e-13
-3.498819371000549196e-13
-2.876360037715862328e-13
-2.368787953295393528e-13
-2.038830795820377246e-13
-1.720841569495839499e-13
-1.251977957919726887e-13
-8.975287616782524364e-14
-7.247689510257821643e-14
-4.801248613997041379e-14
-3.633222797774623808e-14
-2.520708187378326393e-14
-1.747073124466947711e-14
-1.226727899007709085e-14
-8.630415838988593038e-15
-6.142622298862438900e-15
-4.435976124019531742e-15
-3.268481821784736938e-15
-2.453742713336496089e-15
-1.872247307616040743e-15
-1.445073365549802541e-15
-1.120386182629336650e-15
-8.662088055840666448e-16
-6.632456285531586718e-16
