# bin_12_15
-4.841917117130536467e-10
-5.429880690680542627e-10
-5.978468762888592653e-10
-6.433469404682324854e-10
-6.726090665125534014e-10
-6.789702747883339609e-10
-6.543064428274709931e-10
-5.950036537234783968e-10
-5.115801959139497346e-10
-4.203952815449772192e-10
-3.464020745719359488e-10
-2.983206588372401778e-10
-2.513789449902067701e-10
-1.824059832512518794e-10
-1.311806072880876731e-10
-1.056904469244875916e-10
-7.007306583677986459e-11
-5.293598876576183588e-11
-3.679540579320629679e-11
-2.551177011874268656e-11
-1.791263873645555319e-11
-1.260725209238779531e-11
-8.980618232630628001e-12
-6.492345318958801128e-12
-4.788701011655103425e-12
-3.598493367666482329e-12
-2.747868825355902750e-12
-2.121961423765617105e-12
-1.645467953228435932e-12
-1.271981444596840918e-12
-9.735358401634336542e-13
