# bin_13_3
-8.391109507776434095e-38
-9.227868814133460778e-38
-9.918957601951136201e-38
-1.035841663170625922e-37
-1.044501679780259088e-37
-1.005284849698769792e-37
-9.131520965498681540e-38
-7.842903129807679285e-38
-6.442012375026135775e-38
-5.309047182246837988e-38
-4.571006623524050121e-38
-3.845547084054223104e-38
-2.790331654269704243e-38
-2.015558969244065236e-38
-1.622947093667081990e-38
-1.087364360021102649e-38
-8.251225117442416898e-39
-5.818547094795256565e-39
-4.111659349882467508e-39
-2.952100578660620441e-39
-2.137208914716477160e-39
-1.572154140533057438e-39
-1.176481886800764485e-39
-8.970258445914794085e-40
-6.938375879505935711e-40
-5.414823815818294739e-40
-4.235943568526228735e-40
-3.297526201915718170e-40
-2.538035240343150404e-40
-1.920808250657492394e-40
-1.423241468438903137e-40
