# bin_10_20
-2.291423388669399250e-26
-2.583946728403976362e-26
-2.864014391756144313e-26
-3.107395024795333348e-26
-3.282350090431224140e-26
-3.351975090808703533e-26
-3.286387520633633399e-26
-3.045713741040729369e-26
-2.668697019073051606e-26
-2.215599750930728710e-26
-1.812879978613233529e-26
-1.540481617095730166e-26
-1.327620883662943039e-26
-1.015959956810901586e-26
-7.028239411204830785e-27
-5.693182169789334848e-27
-3.901643636870694387e-27
-2.915747622111293217e-27
-1.965201520785792111e-27
-1.380675261522932798e-27
-9.644905625737226087e-28
-6.736073689364204331e-28
-4.727095424882237775e-28
-3.351660161055194778e-28
-2.421073435929040133e-28
-1.783471781265707756e-28
-1.338712468549585873e-28
-1.021385172829043387e-28
-7.873945954588547515e-29
-6.089995718458699702e-29
-4.690473365354140633e-29
