# bin_17_11
-3.579737687583896233e-15
-4.022036034750372952e-15
-4.438581970220152220e-15
-4.789981505636323911e-15
-5.025820917648303010e-15
-5.093717719586783498e-15
-4.938349469921626240e-15
-4.519104902528960577e-15
-3.910491777137186542e-15
-3.222753609686493954e-15
-2.647081422604174361e-15
-2.270596040159238851e-15
-1.931801255113956997e-15
-1.426466522721674765e-15
-1.007094336388889780e-15
-8.199047674319414203e-16
-5.435161730463595443e-16
-4.132186700083299079e-16
-2.838383171070021193e-16
-1.966208983424317977e-16
-1.380798427395698055e-16
-9.701774647360407388e-17
-6.875467171433242078e-17
-4.937429070936154883e-17
-3.617165704013846707e-17
-2.701088876879232208e-17
-2.051878858057269594e-17
-1.579117880268576148e-17
-1.222880684712702461e-17
-9.459846731526300688e-18
-7.258308399438268044e-18
