# bin_18_7
-5.379567854696224537e-34
-6.028965874603189958e-34
-6.632900669166239061e-34
-7.130810301912657257e-34
-7.446031927080929986e-34
-7.506075758097750853e-34
-7.218596774909294208e-34
-6.550588623902948190e-34
-5.620022114008368218e-34
-4.614273832546078136e-34
-3.806690960482259267e-34
-3.282318015925887748e-34
-2.755998217654652221e-34
-1.988423794001853991e-34
-1.440017969593492860e-34
-1.154352271981677458e-34
-7.668487733194173053e-35
-5.770968954014318293e-35
-4.027547450998216331e-35
-2.794799626209462568e-35
-1.962057204696202791e-35
-1.382089279681378071e-35
-9.862460688808145693e-36
-7.145708188233950039e-36
-5.282245998088241350e-36
-3.977334817283625707e-36
-3.042072719306039000e-36
-2.351512399830041751e-36
-1.824069137698118472e-36
-1.409574555028359964e-36
-1.077881289205376966e-36
