# bin_4_2
-2.260530436492963629e-09
-2.330382596733554309e-09
-2.315621325170253127e-09
-2.185538905868427421e-09
-1.949056752191967915e-09
-1.644191132636504772e-09
-1.344729655981903486e-09
-1.122239640611686717e-09
-9.689874683407185814e-10
-7.842358880036368827e-10
-5.534517449560813671e-10
-4.249731389689847238e-10
-3.237768362451954634e-10
-2.296726013471859423e-10
-1.685300767094756327e-10
-1.242654310946609015e-10
-9.117403581171534964e-11
-6.796562289254507573e-11
-5.164104290113634573e-11
-3.996704654388184408e-11
-3.141730642133828297e-11
-2.495689971288366827e-11
-1.988804616227577717e-11
-1.578420832353720994e-11
-1.239013650719175377e-11
-9.559044024404160490e-12
-7.210853349036444478e-12
-5.299093535021567576e-12
-3.786305024936133624e-12
-2.632057245687469666e-12
-1.783978325263384607e-12
