# bin_10_11
-2.139591907092142923e-08
-2.373183639954882375e-08
-2.577980358676791615e-08
-2.728047293037637526e-08
-2.792526810459228972e-08
-2.747592181144054535e-08
-2.557895565026817547e-08
-2.250926379704042517e-08
-1.875045865703807015e-08
-1.532814950575076445e-08
-1.296527160356101371e-08
-1.119722255395082297e-08
-8.698554727025129808e-09
-6.015496627797827910e-09
-4.830167343904628140e-09
-3.406819741627025499e-09
-2.514917270356685528e-09
-1.723178801856129466e-09
-1.240883062997365198e-09
-8.817393195978298191e-10
-6.294770766822124790e-10
-4.550171719653002825e-10
-3.337283790261887664e-10
-2.495296962928956034e-10
-1.899224103599031668e-10
-1.465473697707845245e-10
-1.140361325391832109e-10
-8.885276392087881876e-11
-6.883117089074962340e-11
-5.267376525261691967e-11
-3.961671228224111730e-11
