# bin_15_7
-3.448065860799215567e-23
-3.839070983927174372e-23
-4.189870374906439950e-23
-4.459592762652173088e-23
-4.597563341735631638e-23
-4.565924305040236161e-23
-4.300625464867522969e-23
-3.825991974854856950e-23
-3.217180615395883392e-23
-2.629350665313662297e-23
-2.202669630670001027e-23
-1.908072359101835366e-23
-1.531020926200658428e-23
-1.062138692036811937e-23
-8.263196678175776666e-24
-6.137076389045096889e-24
-4.324602867373816927e-24
-3.036849564849925409e-24
-2.198784128126651510e-24
-1.546806395872186834e-24
-1.091349666048067204e-24
-7.816087651566379208e-25
-5.679403509828001698e-25
-4.202224028757763185e-25
-3.168776680025102993e-25
-2.427193455674408117e-25
-1.880088477276069577e-25
-1.462874042022758119e-25
-1.135102715878405824e-25
-8.723765302712342925e-26
-6.603289222129930419e-26
