# bin_1_1
-1.875668037878210575e-07
-1.812324259568302260e-07
-1.656562057196126299e-07
-1.432949117896687081e-07
-1.183688024067653672e-07
-9.736903792283205143e-08
-8.305325115988696473e-08
-7.013986518747783031e-08
-5.258472379894067810e-08
-3.787144933247074472e-08
-3.017719491486917081e-08
-2.137426623016636258e-08
-1.611357082277129633e-08
-1.170139674215395360e-08
-8.706321621421564434e-09
-6.566001017502758135e-09
-5.039162947214576312e-09
-3.940649402665426827e-09
-3.128936370546497875e-09
-2.509729692638915267e-09
-2.018088575069907482e-09
-1.614502243711745947e-09
-1.276033847078059733e-09
-9.900921096095928064e-10
-7.503848504276435291e-10
-5.535838266778221811e-10
-3.970478796049318758e-10
-2.770711636248322130e-10
-1.885766834497494093e-10
-1.255805952977792127e-10
-8.210623403085256891e-11
