# bin_16_1
-2.899301666308884079e-72
-3.215943205497757363e-72
-3.493610497233469472e-72
-3.697164531668391342e-72
-3.784769602505969525e-72
-3.724176203729041304e-72
-3.467393521655186048e-72
-3.051555774587208219e-72
-2.542141113809791966e-72
-2.078104046287056746e-72
-1.757609036926660500e-72
-1.518036095610357145e-72
-1.179604254198909597e-72
-8.156661709120722367e-73
-6.548794374404775284e-73
-4.620697908856689550e-73
-3.410117855311646231e-73
-2.336276215546655987e-73
-1.682720195846638571e-73
-1.195597380619617703e-73
-8.534618740369704683e-74
-6.168850174054157917e-74
-4.524145067579592528e-74
-3.382447356468959300e-74
-2.574277732848073723e-74
-1.986256310986145539e-74
-1.545568365334112531e-74
-1.204248873941493072e-74
-9.329107123508190545e-75
-7.139491468228383140e-75
-5.370021787987009233e-75
