# bin_15_11
-1.592861939040313585e-11
-1.783867261824233371e-11
-1.960842912352836591e-11
-2.105749555484817963e-11
-2.195801662960505891e-11
-2.210043472629276503e-11
-2.120556963151760916e-11
-1.919953719078675571e-11
-1.643347231010064709e-11
-1.348139501889780122e-11
-1.113782925268396721e-11
-9.614493090473760271e-12
-8.038911007163722060e-12
-5.766563746249301541e-12
-4.209119692318394482e-12
-3.351623224472300425e-12
-2.234919447339725372e-12
-1.672392450633782621e-12
-1.172470853467841867e-12
-8.145888036745032715e-13
-5.718422103299504095e-13
-4.033586025269512558e-13
-2.884180783443301384e-13
-2.094871864859078115e-13
-1.552333131776614864e-13
-1.171401705765694246e-13
-8.974971094237704710e-14
-6.944806070323018557e-14
-5.388627723958538670e-14
-4.162333184989678061e-14
-3.179585457802332846e-14
