# bin_6_19
-3.113904496509312475e-44
-3.493835004677537592e-44
-3.849244532570846955e-44
-4.145424179140806906e-44
-4.338240249212108368e-44
-4.384121358141933194e-44
-4.231815401893928004e-44
-3.854748043247955951e-44
-3.320003183527505470e-44
-2.730174261179129950e-44
-2.247522516642433991e-44
-1.933645991144643590e-44
-1.633953985663089452e-44
-1.191038258271477126e-44
-8.519169717288409588e-45
-6.890030668856824363e-45
-4.562032542144762947e-45
-3.456072789010200169e-45
-2.394616288964740676e-45
-1.659252179778443481e-45
-1.165095424895954865e-45
-8.194571519905043809e-46
-5.828865144873239033e-46
-4.206130106352923868e-46
-3.096719195629915939e-46
-2.323133279377386467e-46
-1.771552843154325535e-46
-1.366840974075752608e-46
-1.059584723409284478e-46
-8.192779194905884068e-47
-6.274946618286827894e-47
