# bin_20_16
-9.270084011323104217e-11
-1.050709732295102871e-10
-1.171859716120528994e-10
-1.281188372355057263e-10
-1.366248976108058471e-10
-1.411503971975545003e-10
-1.405195071708758201e-10
-1.327400811882480450e-10
-1.184037293366618633e-10
-9.980071093177507096e-11
-8.160064894945777933e-11
-6.824907814440735067e-11
-5.915621672048582202e-11
-4.776152442977740300e-11
-3.315298382657246646e-11
-2.556432426429314491e-11
-1.910824984684968446e-11
-1.324390842103119324e-11
-9.263542908709286507e-12
-6.607550110200674698e-12
-4.541664020678979488e-12
-3.108397911313530953e-12
-2.146397195035127286e-12
-1.494702158089898195e-12
-1.055271397358295121e-12
-7.592321330587210898e-13
-5.571567504509931304e-13
-4.171466623419087270e-13
-3.174868238406630819e-13
-2.441836289769212088e-13
-1.883798026308804890e-13
