# bin_8_18
-8.427262316304352656e-29
-9.453687666245439183e-29
-1.041295483828194023e-28
-1.121097251392258379e-28
-1.172819572427642864e-28
-1.184743295309868362e-28
-1.142891143148323483e-28
-1.040402274163424728e-28
-8.954981110366030146e-29
-7.362003821380872871e-29
-6.062560429273843773e-29
-5.217918326109844008e-29
-4.404765635728324706e-29
-3.205179131191365571e-29
-2.297101494452628551e-29
-1.855489195825374555e-29
-1.228895919724528364e-29
-9.301794432189358418e-30
-6.452622453546125910e-30
-4.471881299016888661e-30
-3.139963563730184821e-30
-2.208892637157267105e-30
-1.572023713290313786e-30
-1.135139965347806269e-30
-8.362997709032108305e-31
-6.277753920706496990e-31
-4.789670450453318070e-31
-3.696677587379283133e-31
-2.866037825864989927e-31
-2.215858136008798187e-31
-1.696717100326215564e-31
