# bin_9_1
-3.050150800778975658e-32
-3.268771569873457452e-32
-3.401836166236018855e-32
-3.417629382825949215e-32
-3.272972537287281490e-32
-2.958938660099376791e-32
-2.529337299036258354e-32
-2.074189321705039117e-32
-1.713837391198032716e-32
-1.477512603251397089e-32
-1.232519453493410570e-32
-8.870140019820583193e-33
-6.514754867966690210e-33
-5.187838344790179084e-33
-3.531657257766354666e-33
-2.667142356231201957e-33
-1.915901135927823612e-33
-1.377365715095347796e-33
-1.007063373897069772e-33
-7.464833567992032320e-34
-5.635326769565114368e-34
-4.328493386093502136e-34
-3.376690449295275594e-34
-2.658846519414156361e-34
-2.099045016964510508e-34
-1.649866955624023719e-34
-1.282298216666129812e-34
-9.797675043419709824e-35
-7.324067434346145869e-35
-5.336868036752040629e-35
-3.784179408709191795e-35
