# bin_6_5
-2.676416208172390365e-10
-2.839826173353335820e-10
-2.918988676477968227e-10
-2.888772556687434337e-10
-2.711840633274227084e-10
-2.405901293683188760e-10
-2.020132216547475764e-10
-1.651987519498215040e-10
-1.385240600477269462e-10
-1.195472897394404751e-10
-9.534054347881395045e-11
-6.685818873671250544e-11
-5.212634060438733300e-11
-3.876010215329155808e-11
-2.784253841652912297e-11
-2.004671799378324018e-11
-1.470799949338735869e-11
-1.070498968737173958e-11
-7.891238450285345526e-12
-5.922608960832408480e-12
-4.525421485460649175e-12
-3.516112169627630844e-12
-2.765965392074589839e-12
-2.188191341542932641e-12
-1.728812372323118874e-12
-1.354565085720494128e-12
-1.045800390663349364e-12
-7.913437934980754473e-13
-5.844341853862886379e-13
-4.201207254938350002e-13
-2.938100598431162419e-13
