# bin_9_15
-9.630091550637028439e-21
-1.074683575999723661e-20
-1.176271373814095397e-20
-1.256588450651292955e-20
-1.301620792433657989e-20
-1.300137299226822255e-20
-1.234210771314170505e-20
-1.106109443998060649e-20
-9.368689923245918824e-21
-7.664970067378822644e-21
-6.380366123315272452e-21
-5.524473498003966627e-21
-4.518205705815795449e-21
-3.168813460920923138e-21
-2.400014285869366746e-21
-1.840847680831825571e-21
-1.260941635544440324e-21
-9.110730197388955650e-22
-6.525955597076635349e-22
-4.563800226401049627e-22
-3.206431414565300336e-22
-2.280088601185212128e-22
-1.645573037775345241e-22
-1.208250299609133391e-22
-9.046750033982996123e-23
-6.888821368785310002e-23
-5.314156832342636798e-23
-4.127205551419749036e-23
-3.203609076468644219e-23
-2.467882182144225114e-23
-1.875350784944946367e-23
