# bin_15_3
-2.140532983849499105e-09
-2.202867686933547286e-09
-2.183565075557358660e-09
-2.056013939268793836e-09
-1.829980432013596227e-09
-1.542587005311213410e-09
-1.263287763036533745e-09
-1.056168419833474560e-09
-9.089511411143310484e-10
-7.307846780305728101e-10
-5.191699164044775213e-10
-3.986624020217322320e-10
-3.014823712970636488e-10
-2.154544285814570086e-10
-1.581359918448762050e-10
-1.160823103448977938e-10
-8.532506203017802734e-11
-6.373329702766499676e-11
-4.847763541764017787e-11
-3.754375957040067881e-11
-2.952414147248579654e-11
-2.345360835404537618e-11
-1.868366903961921325e-11
-1.481802961637978545e-11
-1.161998507075418979e-11
-8.953859346081083624e-12
-6.745313071864310789e-12
-4.950530261889422023e-12
-3.533363102351925679e-12
-2.454074230558086523e-12
-1.662256392729687624e-12
