# bin_15_8
-6.144505284727819836e-10
-6.719241116366703124e-10
-7.172525767869662114e-10
-7.425007114340753033e-10
-7.411848292560751447e-10
-7.033955216518054124e-10
-6.303695955458763601e-10
-5.341154958109363397e-10
-4.371540697502898066e-10
-3.637713263395058174e-10
-3.144390792364400075e-10
-2.570523272066026392e-10
-1.814162216688240849e-10
-1.372744848254854465e-10
-1.056298717866056824e-10
-7.308353103255455640e-11
-5.339429161080847017e-11
-3.854673394424065354e-11
-2.745446141963272767e-11
-1.976451816878363716e-11
-1.443668293810672478e-11
-1.072841969148263298e-11
-8.116455289699595667e-12
-6.246012782124468595e-12
-4.864194648936212971e-12
-3.810544757617618901e-12
-2.982093829772095483e-12
-2.315019507094742330e-12
-1.771969911821206947e-12
-1.330601490529457163e-12
-9.764076640636774512e-13
