# bin_15_7
-7.910250694214896980e-10
-8.587536650747804846e-10
-9.084301407781869512e-10
-9.299721333464836813e-10
-9.152244317053580009e-10
-8.528512648089949562e-10
-7.512722705921484206e-10
-6.268369058944815206e-10
-5.126366048108303837e-10
-4.327467098973856140e-10
-3.730209684812653753e-10
-2.912897193356257765e-10
-2.029283904518829317e-10
-1.615185788049497150e-10
-1.158843282633381135e-10
-8.503072331185815439e-11
-5.967897704131827109e-11
-4.343336837654860067e-11
-3.134719308269469538e-11
-2.282711633302808075e-11
-1.689336803447020101e-11
-1.271423817311710783e-11
-9.742912263139427402e-12
-7.574629483522295344e-12
-5.939346021953243246e-12
-4.666481388859528808e-12
-3.647692499174454371e-12
-2.818159402464791265e-12
-2.139938815053876105e-12
-1.589935167961414175e-12
-1.152040175642418137e-12
