# bin_19_4
-1.855288628570508867e-09
-1.946287582579874050e-09
-1.973944801762471032e-09
-1.917862755051654330e-09
-1.762026126319017417e-09
-1.531228201293895705e-09
-1.266980183214033719e-09
-1.039909871918230000e-09
-8.859305196958765018e-10
-7.537065023848327368e-10
-5.686969074125938278e-10
-4.041846961435883861e-10
-3.241508123540329307e-10
-2.270522704720427260e-10
-1.707000160068317352e-10
-1.215604739300403406e-10
-8.887272428765151000e-11
-6.551378421780548472e-11
-4.894602910755645796e-11
-3.722331080861087273e-11
-2.879263335750261356e-11
-2.260671446513856041e-11
-1.790492043938161118e-11
-1.420401838856816338e-11
-1.120705467775828330e-11
-8.734893598122519134e-12
-6.685727578094179589e-12
-5.001299103261501252e-12
-3.644187442938267211e-12
-2.582822994053959801e-12
-1.781845032861739497e-12
