# bin_4_17
-7.203484345082669332e-55
-8.028569518247889789e-55
-8.773742881403560727e-55
-9.354522393407144399e-55
-9.665509986162455501e-55
-9.625851856961181647e-55
-9.100860118443760256e-55
-8.125520840285786630e-55
-6.856387300085878654e-55
-5.606146292093032935e-55
-4.681572412263761770e-55
-4.054828103754203043e-55
-3.284757572956872706e-55
-2.289340819546938411e-55
-1.758230804556527873e-55
-1.326923556080464912e-55
-9.215238501886818856e-56
-6.558515847917673331e-56
-4.729131153666296506e-56
-3.316710287943958395e-56
-2.333977086014415569e-56
-1.665638868868391207e-56
-1.206283195535381813e-56
-8.891865910441862055e-57
-6.682089691054797539e-57
-5.103808823142399149e-57
-3.945686446005373389e-57
-3.067451692770608510e-57
-2.380617379908708237e-57
-1.831664623545205133e-57
-1.389019928790122298e-57
