# bin_17_13
-1.955986504586392454e-10
-2.188214729651808054e-10
-2.402335116173826109e-10
-2.576081748382110616e-10
-2.681395173374976159e-10
-2.693346736966539853e-10
-2.577215157583489413e-10
-2.327498413880784563e-10
-1.987109632951967447e-10
-1.629211316100549089e-10
-1.348508738571427340e-10
-1.164738096586198487e-10
-9.683945809922783249e-11
-6.909846407833089348e-11
-5.089589320176842265e-11
-4.013756196960427058e-11
-2.695276433844825396e-11
-1.998758011544473754e-11
-1.408466773796172179e-11
-9.801262583096327971e-12
-6.880879454996281714e-12
-4.863174265905539542e-12
-3.484957553623834567e-12
-2.537788971982133365e-12
-1.885237468340318309e-12
-1.425730067491592185e-12
-1.094155847245778237e-12
-8.473773159557624209e-13
-6.575077166212332131e-13
-5.074817255317896505e-13
-3.871064753465852316e-13
