# bin_7_14
-7.472941180042376835e-25
-8.295335116855652971e-25
-9.020455776734270495e-25
-9.558361664061081837e-25
-9.800575587376701156e-25
-9.665502909848051681e-25
-9.024766665015113153e-25
-7.964094677780340841e-25
-6.649609832116352162e-25
-5.434757637197552142e-25
-4.585167224124446011e-25
-3.963886618098288514e-25
-3.105107117377855792e-25
-2.146187880415468050e-25
-1.711696016282715322e-25
-1.222889381408999527e-25
-8.927185056247351911e-26
-6.134042053824917610e-26
-4.432716948688149583e-26
-3.140755200554628543e-26
-2.234615443814947718e-26
-1.611456900564127905e-26
-1.178959182583519951e-26
-8.791147332844777781e-27
-6.675188852458076245e-27
-5.141164728138649128e-27
-3.996089136299781807e-27
-3.112562604845379582e-27
-2.412147537440014595e-27
-1.847791188253198894e-27
-1.391840011247780433e-27
