# bin_7_13
-7.807483115041850910e-22
-8.643436166629359741e-22
-9.368006171955995599e-22
-9.885946901052825673e-22
-1.008732137892170736e-21
-9.881577736898640767e-22
-9.151729334333262655e-22
-8.014441545265010288e-22
-6.652410476350371084e-22
-5.442711323142861764e-22
-4.622588297202087270e-22
-3.979327753151493291e-22
-3.046238002109685152e-22
-2.113770863922516833e-22
-1.712207627317467455e-22
-1.182578929526886085e-22
-8.874896464238144174e-23
-6.078523158528307113e-23
-4.343459012830685239e-23
-3.099691595142926640e-23
-2.223955592928443884e-23
-1.613432256826461223e-23
-1.188134942283853410e-23
-8.922024150159114587e-24
-6.815904278119241674e-24
-5.273844331911613529e-24
-4.110055502219272512e-24
-3.202828602230503764e-24
-2.478291665363575971e-24
-1.892304963415868939e-24
-1.418794699537783503e-24
