# bin_12_12
-2.815655241875544776e-11
-3.133864370606702805e-11
-3.418990026644292169e-11
-3.637699642833693237e-11
-3.748793560374361446e-11
-3.721278062772576535e-11
-3.503497558748622803e-11
-3.115756353657977287e-11
-2.619527319512840939e-11
-2.141235457948671160e-11
-1.794219120801835261e-11
-1.553495360355764587e-11
-1.244821482360805767e-11
-8.641958363887897115e-12
-6.726524052325465431e-12
-4.986154718915463397e-12
-3.519581402652022060e-12
-2.471205077287490348e-12
-1.786805795841119992e-12
-1.257213649586319159e-12
-8.874820703098050033e-13
-6.356226712974222472e-13
-4.619073816497232177e-13
-3.418186078116969579e-13
-2.577853496964049715e-13
-1.974687838320437206e-13
-1.529548703007892187e-13
-1.189976628049393063e-13
-9.231448399812357172e-14
-7.092537573539619194e-14
-5.366459021995550090e-14
