# bin_16_11
-3.056003980610638626e-10
-3.394456078004654756e-10
-3.694053619515539106e-10
-3.918172298738807682e-10
-4.022502169576450403e-10
-3.973289909408349295e-10
-3.717622088870455854e-10
-3.287133711680785080e-10
-2.749808487707196825e-10
-2.247856594492275879e-10
-1.893118749246272445e-10
-1.636650087123522295e-10
-1.289606794783846278e-10
-8.933388368011609625e-11
-7.071372166790008694e-11
-5.103798943583141069e-11
-3.689598978583328646e-11
-2.555649920291412695e-11
-1.844732808616661638e-11
-1.304666514775257795e-11
-9.263721095902021089e-12
-6.667856586532551965e-12
-4.869767211124997383e-12
-3.623986936309658461e-12
-2.746793573782974875e-12
-2.112492673452996911e-12
-1.640403852859092998e-12
-1.277229167688145992e-12
-9.899962742214888415e-13
-7.588915965681395434e-13
-5.722546875183823422e-13
