# bin_20_18
-6.067584601795039799e-11
-6.869948619467143169e-11
-7.652520509151712794e-11
-8.354195522428434989e-11
-8.893160202402122561e-11
-9.168084812301190168e-11
-9.103363485443361466e-11
-8.571314745203274455e-11
-7.622730841631759983e-11
-6.407883514976870734e-11
-5.238702016178953380e-11
-4.392788682734949781e-11
-3.805409931770097847e-11
-3.045650546390502367e-11
-2.108565285106108002e-11
-1.642483066626543881e-11
-1.209892084738486485e-11
-8.496613197489364176e-12
-5.876419519085886665e-12
-4.196597311476306411e-12
-2.890797697421813787e-12
-1.983515796667394338e-12
-1.373398703017165762e-12
-9.591215620088764049e-13
-6.797074975294192238e-13
-4.909897717182208806e-13
-3.617507554643592435e-13
-2.717955884168507375e-13
-2.073866862392866463e-13
-1.597099689546575952e-13
-1.232069576064517256e-13
