# bin_7_17
-2.555027386065898066e-35
-2.856292610595407301e-35
-3.132976765345867199e-35
-3.355819167026773501e-35
-3.488020383939861267e-35
-3.497873668025499012e-35
-3.339006812505376466e-35
-3.008150850814951297e-35
-2.561669118510119735e-35
-2.098326762125129297e-35
-1.739443273180766461e-35
-1.504322979324485982e-35
-1.245139183028048349e-35
-8.826265484782405138e-36
-6.557755487773920571e-36
-5.134175300184819139e-36
-3.461280691679806889e-36
-2.550782872348167420e-36
-1.806995581507915396e-36
-1.259108680158740914e-36
-8.838068039276647862e-37
-6.255760512622275763e-37
-4.492962242639656970e-37
-3.280676950833758733e-37
-2.443513715326054951e-37
-1.852267046105999605e-37
-1.424123757540739222e-37
-1.104150167606224624e-37
-8.570212533494461493e-38
-6.611832923007133018e-38
-5.038083924078346657e-38
