# bin_13_15
-6.280088903729019990e-13
-7.043735070395704116e-13
-7.757230599211774020e-13
-8.350607598852943158e-13
-8.734990619232812637e-13
-8.823171364257993299e-13
-8.511645701031322697e-13
-7.749196868263978226e-13
-6.671052392565121229e-13
-5.485350118680430511e-13
-4.517130283169082568e-13
-3.886595900419756977e-13
-3.280327577245505599e-13
-2.388153896160709351e-13
-1.711444876018703734e-13
-1.381499273827529043e-13
-9.157192832985629447e-14
-6.926334671541085204e-14
-4.803207194699906502e-14
-3.328849966878200164e-14
-2.337089946901292959e-14
-1.644056125644707189e-14
-1.169778955560241954e-14
-8.444855630302008814e-15
-6.220142548131702528e-15
-4.668171557349175711e-15
-3.560940158154507842e-15
-2.747898407016172509e-15
-2.130169788014946014e-15
-1.646746410445913332e-15
-1.260816443939646593e-15
