# bin_4_11
-1.019615329424466729e-27
-1.113849932627281232e-27
-1.187467438800049658e-27
-1.227198608149221724e-27
-1.222689917779991508e-27
-1.157071918878926194e-27
-1.034061235798606481e-27
-8.735333100264029576e-28
-7.142895950943500579e-28
-5.955899695404822669e-28
-5.154320128384581459e-28
-4.189477814932803311e-28
-2.935052699208970762e-28
-2.245145149312733923e-28
-1.710830880905538767e-28
-1.191655613444588219e-28
-8.621627512858027495e-29
-6.268895576207457636e-29
-4.472557493086601428e-29
-3.220034681906279726e-29
-2.356946616737969997e-29
-1.755546897180231223e-29
-1.331322429889561577e-29
-1.026595029825201563e-29
-8.006825359558265463e-30
-6.277964064220696064e-30
-4.913934821680659728e-30
-3.812887635383408487e-30
-2.915373547113108057e-30
-2.185804969796736854e-30
-1.600777505086062387e-30
