# bin_17_4
-1.767321327749975039e-09
-1.853918956585453918e-09
-1.880161956593998518e-09
-1.826603927803372884e-09
-1.678039341640858623e-09
-1.458120147628087069e-09
-1.206429125253544579e-09
-9.902378413890213083e-10
-8.436618325575688810e-10
-7.176829013117273415e-10
-5.413964099648801291e-10
-3.848306581881023795e-10
-3.086350366187625154e-10
-2.161504152485298127e-10
-1.625199677397980912e-10
-1.157393105820420271e-10
-8.461478146036919839e-11
-6.237757555021931910e-11
-4.660529715213597634e-11
-3.544499759535448780e-11
-2.741839958879041765e-11
-2.152855264959912628e-11
-1.705139276343948743e-11
-1.352700801748237722e-11
-1.067279225333888535e-11
-8.318282172808630150e-12
-6.366613648175653722e-12
-4.762356227282677356e-12
-3.469891749721737402e-12
-2.459152302535212241e-12
-1.696436659116639324e-12
