# bin_2_5
-1.368583969387821967e-15
-1.422215982565580174e-15
-1.426851078477187549e-15
-1.364719521601867960e-15
-1.232910017289304667e-15
-1.053488437317847256e-15
-8.643678600828005884e-16
-7.146402009554381307e-16
-6.150640305248995105e-16
-5.117329113778855971e-16
-3.697588008812642125e-16
-2.724637872058947595e-16
-2.159896036833446630e-16
-1.490654125587970199e-16
-1.124493224706824348e-16
-8.146585138273897742e-17
-5.937398442376432567e-17
-4.405381953916076964e-17
-3.322214867972974534e-17
-2.551888316666696183e-17
-1.992503438635592532e-17
-1.575655586699478934e-17
-1.253048274395123801e-17
-9.949022623982212194e-18
-7.831628400776039904e-18
-6.071932356416992600e-18
-4.611223952203253250e-18
-3.415696549728417149e-18
-2.461330965253281402e-18
-1.724991089307341970e-18
-1.177663766075022416e-18
