# bin_20_5
-1.522696814503471088e-09
-1.620493461060181015e-09
-1.671878842199406477e-09
-1.662272277627943904e-09
-1.570067989316036692e-09
-1.401134696293894347e-09
-1.182950717540699639e-09
-9.680621958373650894e-10
-8.079605606737828447e-10
-6.973149661782435452e-10
-5.642511713743095417e-10
-3.984983808145384387e-10
-3.050938473996695618e-10
-2.318706353393671390e-10
-1.637003226260984656e-10
-1.195087748616287683e-10
-8.720470204684568746e-11
-6.321754928966976114e-11
-4.646019202018210321e-11
-3.473162243214909704e-11
-2.643731526370563066e-11
-2.046775943522146405e-11
-1.605974222494201623e-11
-1.268708717157738169e-11
-1.002159046677705669e-11
-7.860055852765708227e-12
-6.081022080021717633e-12
-4.615345765717986731e-12
-3.421448754645858105e-12
-2.469907213113854782e-12
-1.734751400729274674e-12
