# bin_4_15
-3.005718889358795986e-45
-3.331132702664765602e-45
-3.615163577530066734e-45
-3.821334025185935948e-45
-3.906681861764236996e-45
-3.837404098472424775e-45
-3.565495167903725617e-45
-3.132035112584337672e-45
-2.605544691328515689e-45
-2.130577748721129650e-45
-1.804805786354788581e-45
-1.556851460062900603e-45
-1.202726524478376390e-45
-8.325270707208474893e-46
-6.709630362063510728e-46
-4.693138701385262595e-46
-3.488116609927132927e-46
-2.387158687736353225e-46
-1.714178218474333498e-46
-1.220007300138942249e-46
-8.726663779539566760e-47
-6.316247360844333161e-47
-4.639208313653338281e-47
-3.474179295722039267e-47
-2.647848473886219369e-47
-2.045198785187976719e-47
-1.592346863744847694e-47
-1.240724830115064633e-47
-9.606920859824895017e-48
-7.345133448530414952e-48
-5.517427897302236898e-48
