# bin_5_6
-9.916479059928638821e-12
-1.058531516648101391e-11
-1.096171766841217097e-11
-1.094963211619916349e-11
-1.040392083658239461e-11
-9.335599073957267950e-12
-7.920912222855089262e-12
-6.483993222627128576e-12
-5.386909075364982526e-12
-4.652431300978392441e-12
-3.818379847891740829e-12
-2.708655726392255485e-12
-2.040319458136207898e-12
-1.584411170214101585e-12
-1.098236426986870797e-12
-8.128034109565540631e-13
-5.909951174152324198e-13
-4.266643166282860611e-13
-3.125231950800869279e-13
-2.327280113903493985e-13
-1.765389673715853825e-13
-1.362376119965497964e-13
-1.066535252747642874e-13
-8.415449230163001586e-14
-6.647021681954197016e-14
-5.218931758509598093e-14
-4.045987101998182453e-14
-3.079724227707639615e-14
-2.291148233236051488e-14
-1.660346467495236715e-14
-1.170615541336932997e-14
