# bin_13_2
-2.642135288027252041e-09
-2.650964468486572952e-09
-2.538800941011471501e-09
-2.299279151752835922e-09
-1.971114360494743563e-09
-1.622639109028672680e-09
-1.341601681100086560e-09
-1.148727069683174108e-09
-9.552198278193841979e-10
-7.020059535310306415e-10
-5.156469757770333465e-10
-4.053599723042526357e-10
-2.862461019100218316e-10
-2.145230177325385387e-10
-1.559672713099194890e-10
-1.152374702813050827e-10
-8.641147144449557506e-11
-6.591697400636827115e-11
-5.121552986532233974e-11
-4.040988059269361201e-11
-3.222476778767206746e-11
-2.578031182234737908e-11
-2.053791507699995488e-11
-1.617943169334175590e-11
-1.252474108514569173e-11
-9.478355255541659051e-12
-6.987008464067975431e-12
-5.008686129614795322e-12
-3.493437759550567192e-12
-2.375938178307008947e-12
-1.580712052638500983e-12
