# bin_2_3
-1.574768956261083339e-11
-1.593303445826439276e-11
-1.543365357680800217e-11
-1.413519211845662986e-11
-1.224822238473475283e-11
-1.011725911805594472e-11
-8.309799916957582964e-12
-7.089566038345935344e-12
-6.013555043361065413e-12
-4.510721793290904273e-12
-3.222736055001490423e-12
-2.588503560829252443e-12
-1.812285921807118596e-12
-1.371925301827744324e-12
-9.853830941433093931e-13
-7.266245377362293148e-13
-5.426712932632309562e-13
-4.116617641771187817e-13
-3.180838680559892617e-13
-2.497972436297873220e-13
-1.986266882010807693e-13
-1.587670822121802552e-13
-1.266246166818597329e-13
-1.000504137558176503e-13
-7.780521032795485082e-14
-5.922281939916771023e-14
-4.393813078958619253e-14
-3.170306290531497317e-14
-2.224486640189881301e-14
-1.520772159879155881e-14
-1.016114549728579456e-14
