# bin_3_13
-8.460869550107316287e-43
-9.298655078462856704e-43
-9.987776530399955186e-43
-1.042138414512906269e-42
-1.049884661760340706e-42
-1.009203369312697219e-42
-9.156066076310427264e-43
-7.854719569674250474e-43
-6.449185774577564485e-43
-5.318723847141705088e-43
-4.581488819659963087e-43
-3.845526585495597172e-43
-2.781721118072031607e-43
-2.017437570600123976e-43
-1.619279080755288002e-43
-1.086397405111691211e-43
-8.224336881488809363e-44
-5.812293151784594749e-44
-4.108641897219522237e-44
-2.949631102782871340e-44
-2.136324879662746618e-44
-1.572716755446574550e-44
-1.177978170112001598e-44
-8.988792713851667388e-45
-6.956865200597867957e-45
-5.431100880364544214e-45
-4.248788345821839996e-45
-3.306592049097904620e-45
-2.543585778335847289e-45
-1.923480886941906676e-45
-1.423812022712274856e-45
