# bin_5_15
-1.258177982644405806e-38
-1.396232323162064398e-38
-1.517736840998926091e-38
-1.607524580393314800e-38
-1.647371035420819414e-38
-1.623489500393041620e-38
-1.514508774664771244e-38
-1.335394936902920320e-38
-1.114210883024313278e-38
-9.107026411791027658e-39
-7.689076712092264976e-39
-6.645123716000792676e-39
-5.192256533749859995e-39
-3.588937622030258502e-39
-2.868606415671199712e-39
-2.041266720512007748e-39
-1.495410825561030297e-39
-1.026185880386049821e-39
-7.408928250572978226e-40
-5.253770622528616660e-40
-3.741719460864566730e-40
-2.700130564278398832e-40
-1.976853491314297862e-40
-1.475248921834997817e-40
-1.120948144648036009e-40
-8.638095698159069228e-41
-6.716342828985919602e-41
-5.231803102520607081e-41
-4.053910112212716677e-41
-3.104379772014172725e-41
-2.337194767493341916e-41
