# bin_15_15
-2.036536967070364319e-11
-2.288334860498053548e-11
-2.525693958468986206e-11
-2.726310029037502110e-11
-2.861604082439164923e-11
-2.901593601186705958e-11
-2.815365989250170202e-11
-2.578891240844967701e-11
-2.233921128457301456e-11
-1.842260895801066726e-11
-1.512732785201125482e-11
-1.296409373828139455e-11
-1.103883023519969822e-11
-8.175148213155805324e-12
-5.762209213090897653e-12
-4.688002871359574348e-12
-3.115865307451634176e-12
-2.365612980541087594e-12
-1.621889125227525326e-12
-1.124228388967857468e-12
-7.892403782323811032e-13
-5.543355313209016408e-13
-3.924742366971278804e-13
-2.815110494573172936e-13
-2.059755349191733613e-13
-1.536274491465000744e-13
-1.165831405249243882e-13
-8.965478664903686055e-14
-6.940014230859497645e-14
-5.368093591949503445e-14
-4.119603151720253387e-14
