# bin_2_4
-2.955606733216777907e-13
-3.034943456815983861e-13
-3.000668828543821988e-13
-2.814469765951744408e-13
-2.495367174722184933e-13
-2.094467243877402712e-13
-1.712788532536516749e-13
-1.436147281754233923e-13
-1.238393848317827036e-13
-9.872134774231755492e-14
-6.941007239265274258e-14
-5.414291057361298446e-14
-4.037637103876359385e-14
-2.914272969968322521e-14
-2.113937182236950294e-14
-1.563471784625927184e-14
-1.151686284744041717e-14
-8.614112160612760596e-15
-6.568429798489580803e-15
-5.099352015177001408e-15
-4.018938564213868598e-15
-3.197403824319663036e-15
-2.549020713639655539e-15
-2.021572408790671687e-15
-1.584026950201451983e-15
-1.218769887312415683e-15
-9.162017329245878769e-16
-6.706702447504547637e-16
-4.773014173851208749e-16
-3.305598724539281216e-16
-2.233208367324068293e-16
