# bin_15_20
-9.132505292859158141e-17
-1.033624328635774475e-16
-1.150820757839414547e-16
-1.255609640133060788e-16
-1.335638686465070339e-16
-1.375644134873328907e-16
-1.364378086404785006e-16
-1.282691563677510396e-16
-1.139106557528995385e-16
-9.562510146105165656e-17
-7.816461356361675057e-17
-6.562521512947906066e-17
-5.684921708951756626e-17
-4.531754388864900403e-17
-3.131372714142941200e-17
-2.452337052887337820e-17
-1.794037097477783423e-17
-1.267748861016027694e-17
-8.712889444554374129e-18
-6.232917131630569747e-18
-4.298167017404404640e-18
-2.952144822350468041e-18
-2.047151509746396864e-18
-1.431759306462465472e-18
-1.016605837403653147e-18
-7.358405546803272050e-19
-5.432448813997607970e-19
-4.088856907784179095e-19
-3.124026856091939211e-19
-2.407606999142959587e-19
-1.857541533255137262e-19
