# bin_2_14
-3.772987218983861680e-56
-4.156512047058248023e-56
-4.477784960091221543e-56
-4.689706057865209716e-56
-4.744489457224139550e-56
-4.589272199660198341e-56
-4.190629819739578896e-56
-3.618850247376452089e-56
-2.979670719690405872e-56
-2.448976570665697308e-56
-2.101449129583934678e-56
-1.782079533665305407e-56
-1.311546259081763369e-56
-9.328959033245802466e-57
-7.577932146207039438e-57
-5.071785034504855145e-57
-3.869473698711646561e-57
-2.702357989092384109e-57
-1.907908590862187012e-57
-1.369393305562139876e-57
-9.894309551462706278e-58
-7.249928769164509054e-58
-5.401089945755527895e-58
-4.101672273170492179e-58
-3.162588194981549155e-58
-2.463043186296591107e-58
-1.925329423193608113e-58
-1.499527803279493122e-58
-1.155982652594900097e-58
-8.770294938200687473e-59
-6.519504995919863561e-59
