# bin_17_17
-1.694117806693187500e-11
-1.912825648347318776e-11
-2.123517107119109591e-11
-2.308609673840038658e-11
-2.444857964662849847e-11
-2.504467522441860668e-11
-2.466242917280786423e-11
-2.298011134275469178e-11
-2.023906602523566473e-11
-1.687049205338377325e-11
-1.379462246832218733e-11
-1.166752734015989109e-11
-1.008130400022588711e-11
-7.836002975217339518e-12
-5.407077979630757867e-12
-4.334194903520779706e-12
-3.042657096473183207e-12
-2.230341923394884159e-12
-1.505540540513937143e-12
-1.068113147098305725e-12
-7.421981324277879003e-13
-5.150081016766336664e-13
-3.597959159210334783e-13
-2.537378902378028655e-13
-1.820948833394480543e-13
-1.332621284203739044e-13
-9.942447780920174292e-14
-7.549324580555029098e-14
-5.802237660293646508e-14
-4.483023061436529537e-14
-3.455830410737083778e-14
