# bin_17_8
-7.114015899857085879e-10
-7.780041229193144092e-10
-8.305692616173562343e-10
-8.599121773444147842e-10
-8.585138013001991281e-10
-8.149064504982957071e-10
-7.304441788064388856e-10
-6.190278578778231211e-10
-5.066726637755502340e-10
-4.215576731350633270e-10
-3.643755477724679733e-10
-2.980076289364484195e-10
-2.103937076312600774e-10
-1.590947033137929533e-10
-1.225074211634545883e-10
-8.471397775918695989e-11
-6.192740963637249220e-11
-4.469358094166295366e-11
-3.182843874489062180e-11
-2.291180157132973043e-11
-1.673320061296362885e-11
-1.243320598477109137e-11
-9.404733960892081977e-12
-7.236474854356011193e-12
-5.635013842019029486e-12
-4.414177631399280377e-12
-3.454486579486770821e-12
-2.681854815578707553e-12
-2.052919630153699820e-12
-1.541744285716130991e-12
-1.131502737534598344e-12
