# bin_11_6
-7.220286247769140558e-10
-7.766933151276780314e-10
-8.122324684379903241e-10
-8.205393944802948651e-10
-7.923910373139975933e-10
-7.227926259535623871e-10
-6.235605436789866820e-10
-5.135988867160307047e-10
-4.225590774139171876e-10
-3.621888934369369808e-10
-3.059983262010492009e-10
-2.256810849061155586e-10
-1.618833274516083824e-10
-1.302694900952246275e-10
-8.902781395937814883e-11
-6.746583668837907341e-11
-4.777645102049088766e-11
-3.438557317147139440e-11
-2.508848809708112234e-11
-1.851799761942956653e-11
-1.389684552992926534e-11
-1.060876445432511928e-11
-8.234179328921700415e-12
-6.461274151794900307e-12
-5.092335041537306659e-12
-4.003383408391996716e-12
-3.117530963418947270e-12
-2.390319121200568562e-12
-1.795429089627521897e-12
-1.315998322564801369e-12
-9.391655298508231568e-13
