# bin_9_3
-1.596323567817991745e-09
-1.642045138121383899e-09
-1.626694240810726710e-09
-1.530504059259891035e-09
-1.361240222371808568e-09
-1.146708049097600403e-09
-9.390204344876973757e-10
-7.854989574418118611e-10
-6.759643149639914845e-10
-5.425236764647823238e-10
-3.851491505029785934e-10
-2.963159918758887649e-10
-2.235749976381992518e-10
-1.600405197233036006e-10
-1.173285507995116797e-10
-8.617505298771689837e-11
-6.336759709207093973e-11
-4.734936472809822195e-11
-3.603115584169870350e-11
-2.791590367911347904e-11
-2.196051953947229660e-11
-1.744896362903325559e-11
-1.390131614871544241e-11
-1.102446154059862356e-11
-8.643467373024368998e-12
-6.658218700668713662e-12
-5.013882537138841038e-12
-3.678085211260871926e-12
-2.623908991267007263e-12
-1.821585127254383955e-12
-1.233346063143391561e-12
