# bin_7_10
-9.579772347212452935e-15
-1.050594625204453986e-14
-1.125474847652217692e-14
-1.170380588862048532e-14
-1.174560721434666390e-14
-1.122834758247125742e-14
-1.013208877516237001e-14
-8.643799192878722957e-15
-7.084474144464879128e-15
-5.863686431887151203e-15
-5.062417360943590068e-15
-4.204932008355270675e-15
-3.003341772678586359e-15
-2.218965282563734346e-15
-1.752218095338785832e-15
-1.187668216628078702e-15
-8.867900804386879600e-16
-6.333075566198101791e-16
-4.489537801388348236e-16
-3.224510917292923068e-16
-2.343124186211225254e-16
-1.732146984988436980e-16
-1.303258122830469603e-16
-9.983444872317277560e-17
-7.749299425069718417e-17
-6.060223511725179144e-17
-4.742650305651484533e-17
-3.687507336267768378e-17
-2.830778835671247298e-17
-2.134295692262280836e-17
-1.573946636098800392e-17
