# bin_7_7
-5.967995895158554841e-11
-6.454648818508640664e-11
-6.796002476004945620e-11
-6.918536973590422191e-11
-6.756503739996172064e-11
-6.237889336128548813e-11
-5.446353945288722674e-11
-4.513951507340141276e-11
-3.696155808022738361e-11
-3.143262188473760620e-11
-2.695429271371612574e-11
-2.051567352025377010e-11
-1.435573523735817574e-11
-1.161767912152133044e-11
-8.059316174659390054e-12
-6.076035649812216209e-12
-4.240107133019441874e-12
-3.067324538596041064e-12
-2.228628146407574904e-12
-1.634690463961648781e-12
-1.217435329867101682e-12
-9.220017040593626847e-13
-7.107602093994561647e-13
-5.550755493199963962e-13
-4.364300486442075247e-13
-3.431583768138868684e-13
-2.679147997901204493e-13
-2.063813326331781707e-13
-1.560200865886688059e-13
-1.152612006949307618e-13
-8.296847786696955924e-14
