# bin_15_17
-6.838974884185295519e-13
-7.710561133237937620e-13
-8.544810698141840353e-13
-9.269539056934639946e-13
-9.790236925754159645e-13
-9.997107002713887385e-13
-9.801139293623063899e-13
-9.083871933512529261e-13
-7.960212028474462327e-13
-6.609924343032730662e-13
-5.408849968924223606e-13
-4.595122634036754537e-13
-3.958860813056599071e-13
-3.030253497535191746e-13
-2.096997931573431778e-13
-1.697379871807073406e-13
-1.164113987869644270e-13
-8.691009161074408501e-14
-5.860607251598208145e-14
-4.117622017269137088e-14
-2.875404434898350197e-14
-2.007276594071979822e-14
-1.408245828012604023e-14
-9.982155352397716420e-15
-7.208377383405175167e-15
-5.308397612334801553e-15
-3.983488513003493866e-15
-3.038514904056129159e-15
-2.341961715109144806e-15
-1.811083910019647688e-15
-1.394719130911671235e-15
