# bin_10_14
-4.648181545586365287e-16
-5.183749667621327135e-16
-5.669129890915336117e-16
-6.050062487829259979e-16
-6.258711261826333948e-16
-6.241938282871641572e-16
-5.912997379827944228e-16
-5.288910890677328621e-16
-4.470943548793214770e-16
-3.656732616807505833e-16
-3.048929786654223928e-16
-2.640380085400487728e-16
-2.148851249480047649e-16
-1.502181938386735205e-16
-1.145936490526494574e-16
-8.716611132025826159e-17
-6.012960925687636169e-17
-4.310942788433823229e-17
-3.098533774796968076e-17
-2.170073156180194526e-17
-1.525862778946692964e-17
-1.087024978724382366e-17
-7.859148308128269647e-18
-5.782161459919086987e-18
-4.337510825803315303e-18
-3.308093077539077105e-18
-2.554764043783188408e-18
-1.985158231544757823e-18
-1.540778483088323279e-18
-1.186178968307599934e-18
-9.004171901891238148e-19
