# bin_14_14
-2.252885146051666738e-11
-2.524329987704214496e-11
-2.776673554312626395e-11
-2.984602151905541701e-11
-3.116076529588381157e-11
-3.140812496447473306e-11
-3.020391257280224307e-11
-2.741070524702814415e-11
-2.351990667659127113e-11
-1.931476146072301331e-11
-1.593505195777048010e-11
-1.373486914378224038e-11
-1.152870299000645020e-11
-8.322806334978923192e-12
-6.027328679025407372e-12
-4.826957535709513093e-12
-3.210395036932260967e-12
-2.413304188762704352e-12
-1.683897324083742976e-12
-1.168572887372873476e-12
-8.203070091840549235e-13
-5.778982840006448437e-13
-4.123121755317938610e-13
-2.986774271998824199e-13
-2.207439225305700630e-13
-1.661804067770232911e-13
-1.270808429360803862e-13
-9.821675833281047004e-14
-7.617499161134532438e-14
-5.885654108273017727e-14
-4.500019807411650476e-14
