# bin_11_13
-5.642733411512085310e-13
-6.288221368451941158e-13
-6.870758446109335200e-13
-7.324113399094737984e-13
-7.565766915058643529e-13
-7.532368528888453174e-13
-7.118848651583180407e-13
-6.353702782560086744e-13
-5.359748405523920353e-13
-4.382444585505756882e-13
-3.660807777580279512e-13
-3.170426082724494488e-13
-2.565616501985934359e-13
-1.788012959819272844e-13
-1.374659385868320933e-13
-1.035724300817937169e-13
-7.204581827367309100e-14
-5.122498281910325198e-14
-3.692875927215570235e-14
-2.590694066783940499e-14
-1.823847555659923613e-14
-1.301945918241135895e-14
-9.431356902624468492e-15
-6.954256429408386047e-15
-5.227430141422242649e-15
-3.993583752527581946e-15
-3.087776557144309800e-15
-2.400555643876398688e-15
-1.862917065566284237e-15
-1.433125450877589721e-15
-1.086560968865830687e-15
