# bin_20_2
5.115407886654996153e-81
5.739994419608419237e-81
6.324475221289461152e-81
6.811845478757643685e-81
7.129596024339789655e-81
7.206083957265218433e-81
6.957061351794476626e-81
6.338777154760775132e-81
5.461146521888314320e-81
4.492585969043735457e-81
3.699543696365880287e-81
3.183180566728033029e-81
2.689663152222970344e-81
1.961061702922940965e-81
1.403454599735797792e-81
1.134669824490163920e-81
7.517871146188235952e-82
5.693994213033187170e-82
3.946066056635170181e-82
2.734918136984971827e-82
1.920737966180240317e-82
1.351246770118590971e-82
9.613489726818050014e-83
6.938795514723376528e-83
5.109763710497308897e-83
3.834100232964127344e-83
2.924296439618691751e-83
2.256546960198910613e-83
1.749450130378547168e-83
1.352750124460554583e-83
1.036097661181834212e-83
