# bin_10_5
4.156602537513770285e-13
4.538585441653875099e-13
4.835315629018532211e-13
4.992456515975880102e-13
4.968220849348480858e-13
4.693668446152544920e-13
4.188128422331833864e-13
3.532591044517916325e-13
2.888687121457928949e-13
2.413093157702006588e-13
2.089004315858927275e-13
1.690350911431467364e-13
1.181382262142199304e-13
9.098614767676126369e-14
6.880852871099856591e-14
4.826287112312765821e-14
3.469701996904067406e-14
2.529841133692175330e-14
1.807828725265095549e-14
1.303049337587948469e-14
9.554042436560145684e-15
7.127281715070473488e-15
5.413493677487768773e-15
4.179806529144415865e-15
3.263056979860859497e-15
2.559833115321205086e-15
2.003832036970081199e-15
1.554383916501792678e-15
1.187751640513366147e-15
8.897082589597324109e-16
6.508318722332120983e-16
