# bin_16_1
7.547010557592280537e-70
8.372350889331088086e-70
9.096659435474925759e-70
9.628495270719364928e-70
9.858883483557723737e-70
9.703791443888100913e-70
9.037971805032032974e-70
7.957335185539629067e-70
6.631922014614369449e-70
5.423145999386291476e-70
4.587147336400778298e-70
3.962084649647451895e-70
3.080160394367258832e-70
2.130776204161714845e-70
1.710363141980690303e-70
1.207491916036560701e-70
8.909274014370752059e-71
6.105732429164820302e-71
4.398355233394004494e-71
3.124978671396792897e-71
2.230629016852425583e-71
1.612236747303232011e-71
1.182335126557696891e-71
8.839049080932846776e-72
6.726691471090662430e-72
5.189924142919914589e-72
4.038361372054876607e-72
3.146572471194515297e-72
2.437693627319878965e-72
1.865668914634275805e-72
1.403393856486157011e-72
