# bin_16_7
3.599530088026000711e-24
4.017475252509397633e-24
4.397663640530913242e-24
4.698167717958794082e-24
4.866425165255707478e-24
4.860512279100978421e-24
4.613024095735089979e-24
4.133436753037290383e-24
3.500273198170792897e-24
2.864270545039838577e-24
2.385836493204464291e-24
2.066510107543173738e-24
1.688602451005194913e-24
1.183500046951111985e-24
8.981934386454240762e-25
6.877313719321063299e-25
4.719512403449799978e-25
3.404303732474457702e-25
2.441515792998733101e-25
1.708444669523845383e-25
1.200753803088830700e-25
8.544374436168654833e-26
6.170746916545054823e-26
4.534053798469108168e-26
3.397091980769566980e-26
2.588233675703778772e-26
1.997468713154731381e-26
1.551744822176776350e-26
1.204642372232257782e-26
9.279901299582685166e-27
7.051179534435685137e-27
