# bin_18_2
1.893678474267939527e-70
2.114519285085897902e-70
2.315918472640157327e-70
2.475898118800479340e-70
2.566875470348279484e-70
2.566445717729216471e-70
2.439315187977470210e-70
2.188696596082816310e-70
1.856013872807101390e-70
1.519184270837467524e-70
1.264007247651305467e-70
1.094588984827446541e-70
8.973462429341183975e-71
6.305594068520785101e-71
4.761380069337005700e-71
3.666167043585056455e-71
2.504511248187976774e-71
1.816347371040602474e-71
1.299036271515601351e-71
9.081026234905072386e-72
6.380174844836283849e-72
4.534337897744188447e-72
3.270577982166148136e-72
2.399684010096804621e-72
1.795530961362572493e-72
1.366452585193943881e-72
1.053692430928057883e-72
8.182367843772655198e-73
6.352227356287560595e-73
4.895410639179872695e-73
3.722390087109413716e-73
