# bin_12_3
1.308116068016562283e-30
1.432972262220823456e-30
1.532848843781112391e-30
1.590870954117678426e-30
1.592880095697931286e-30
1.517512168298158853e-30
1.364775097641976803e-30
1.160261574981238174e-30
9.501465202568592947e-31
7.886297993007604917e-31
6.819977381198068232e-31
5.624498181525846309e-31
3.984414463077196722e-31
2.982959347209278758e-31
2.328062339412803558e-31
1.591098607161294304e-31
1.175994794403342547e-31
8.461361774263424583e-32
6.012281830576231094e-32
4.320687506345131994e-32
3.147809815676088049e-32
2.333988903850451904e-32
1.761664845259260672e-32
1.353159180392545040e-32
1.052490110165464667e-32
8.241066947056691458e-33
6.451534518401420306e-33
5.013728604167685632e-33
3.844188745591018949e-33
2.893100313784272322e-33
2.128547845162249248e-33
