# bin_9_3
2.756260538779624046e-08
2.390011291662143029e-08
2.018807853201152448e-08
1.667479031754334580e-08
1.354055323390746520e-08
1.085619398603427830e-08
8.588712215772076995e-09
6.666326895476515588e-09
5.065570338331441231e-09
3.813833785961414302e-09
2.886619996114630201e-09
2.186436255931098191e-09
1.661142338676073023e-09
1.276393144922180320e-09
9.893722818836661234e-10
7.739778153282681103e-10
6.091752410855859960e-10
4.804894415240281142e-10
3.780783547997640936e-10
2.954358280426306255e-10
2.283063970344576484e-10
1.738540720031303852e-10
1.300831958469615715e-10
9.543644018948838480e-11
6.856422138491444306e-11
4.821410467784850568e-11
3.319847373237313511e-11
2.240999745398263572e-11
1.485715703890745587e-11
9.695197381533174488e-12
6.241991568889097649e-12
