# bin_10_10
5.066213372788030641e-08
4.633572714112198332e-08
4.125712263228170890e-08
3.574873610456728928e-08
3.018595198659866263e-08
2.492902574451863326e-08
2.023582627858603026e-08
1.620601044758778303e-08
1.279853841529546727e-08
9.919288462581236276e-09
7.529656535672741238e-09
5.651722860602625811e-09
4.251424283161557328e-09
3.199906705324943501e-09
2.408621720902541432e-09
1.830252510121288848e-09
1.400657366562960815e-09
1.081133260083342803e-09
8.395472609425782599e-10
6.538848949351220628e-10
5.088017307893287182e-10
3.939080915353285997e-10
3.022327923240254213e-10
2.290183160059377981e-10
1.709009708036043400e-10
1.253200051397888024e-10
9.016788890289629858e-11
6.360669505540027846e-11
4.398825046269111342e-11
2.984102455702732805e-11
1.988162413562581656e-11
