# bin_3_3
2.013417824109457178e-08
1.714180906080617015e-08
1.425772277619653983e-08
1.163794887191042041e-08
9.363806977137108398e-09
7.437476249221313976e-09
5.813867678144282654e-09
4.457666346683380920e-09
3.370336736813566816e-09
2.548203274404351955e-09
1.936212977013533380e-09
1.473296803908981657e-09
1.131352053304784717e-09
8.773584766118649118e-10
6.865815252878171748e-10
5.408800347476667430e-10
4.273751277592371472e-10
3.371827721730750222e-10
2.644163173528059372e-10
2.052302077937643205e-10
1.570806952306332666e-10
1.182044387512575096e-10
8.725794447171323119e-11
6.309669712239288128e-11
4.466479963354483860e-11
3.095790184118868253e-11
2.103074448889977001e-11
1.402571147259857115e-11
9.202103885677691586e-12
5.952923953039149520e-12
3.805766431895869336e-12
