# bin_19_1
1.893216618023628655e-08
1.591407347506104190e-08
1.309645253146186647e-08
1.061228394495133756e-08
8.496672537980389656e-09
6.702956576048366564e-09
5.176568470733447040e-09
3.920741850570846045e-09
2.959811376168026962e-09
2.247272354750301141e-09
1.706090660138427117e-09
1.305452709188001203e-09
1.009937564342107833e-09
7.893443162545341455e-10
6.223881149351733769e-10
4.933386799551948185e-10
3.913268040366796417e-10
3.091204492000029229e-10
2.420388688686813668e-10
1.870705635067370490e-10
1.422278099766187048e-10
1.060872830004938600e-10
7.748988812675227998e-11
5.537591821039770185e-11
3.871567848327690856e-11
2.650485958221060163e-11
1.779654811852066141e-11
1.174455892255047463e-11
7.635689582271089955e-12
4.902255401693695445e-12
3.114894887158811688e-12
