# bin_17_4
3.602732786704509055e-08
3.184199902108713456e-08
2.737061794374138988e-08
2.293188442073330788e-08
1.881828075120458622e-08
1.521189182658901214e-08
1.215113980006931176e-08
9.558873258639333947e-09
7.354250722894738629e-09
5.546607444951675934e-09
4.173726221179772071e-09
3.157939912889981463e-09
2.381939305007383675e-09
1.811564136815496435e-09
1.390361375608288531e-09
1.077583145967550644e-09
8.419953149720207228e-10
6.614477801052291214e-10
5.202371789717418154e-10
4.078041752370520398e-10
3.171924463487968309e-10
2.438116897206913920e-10
1.845697649120882290e-10
1.372377105982521666e-10
1.000348323902882408e-10
7.140047133596754912e-11
4.988825594139869629e-11
3.414120713543308936e-11
2.291462801657310735e-11
1.511235528017308752e-11
9.815581453708693452e-12
