# bin_11_9
5.020755421061661385e-08
4.587458281268209975e-08
4.080281657742386799e-08
3.531598362004091016e-08
2.978894707013294423e-08
2.457917101884118533e-08
1.993851852993178965e-08
1.595985220682077699e-08
1.259671549477199242e-08
9.754148391951731344e-09
7.397352160112509390e-09
5.551171213710772123e-09
4.177546768184412378e-09
3.144175818915858402e-09
2.367635827029615244e-09
1.800377633512140153e-09
1.378728818063194616e-09
1.064934838773386706e-09
8.274925685230463471e-10
6.447951937994691279e-10
5.018597929113207480e-10
3.885503107121244452e-10
2.980692236578911291e-10
2.257767318633780890e-10
1.683863279710038035e-10
1.233860563252991653e-10
8.869994839024902429e-11
6.251107472849872684e-11
4.318639723069519532e-11
2.926661830815890463e-11
1.947921934899705351e-11
