# bin_20_17
7.662864049833183183e-08
7.264082993726552435e-08
6.716922461477390856e-08
6.047600918989293948e-08
5.297132333114342002e-08
4.516896769642130926e-08
3.760279824795964189e-08
3.070822746513537362e-08
2.471245625089065900e-08
1.962135979547633089e-08
1.530836518602739193e-08
1.168046043033511740e-08
8.757010964450519009e-09
6.545437400591829210e-09
4.898276562083173872e-09
3.649536865599197421e-09
2.734544232115793976e-09
2.061923886766167597e-09
1.566710910476861952e-09
1.198476833722942369e-09
9.213893487849090681e-10
7.096614739314231273e-10
5.455852609302262791e-10
4.171188415354518462e-10
3.160058937204820202e-10
2.365027413139156723e-10
1.744284219604471368e-10
1.265417163437887917e-10
9.018928940624718884e-11
6.311354203653462090e-11
4.336472325736704228e-11
