# bin_7_7
3.851670238454418765e-08
3.442550493529820155e-08
2.994671674916161105e-08
2.538072205941597790e-08
2.102559270661623392e-08
1.710758557563339360e-08
1.372867979957736089e-08
1.087096236066686849e-08
8.458395638078332141e-09
6.447957023239552878e-09
4.852566331416827123e-09
3.656976880117947351e-09
2.763283772415034487e-09
2.087925247597149489e-09
1.592701973844529083e-09
1.224716238967484504e-09
9.501391802346381104e-10
7.417618533443668013e-10
5.808805980015601250e-10
4.544205070684009945e-10
3.535968210191253391e-10
2.725710149448341810e-10
2.074003764615019383e-10
1.553185037238294954e-10
1.142228383125423920e-10
8.236498876439624461e-11
5.819216911331356557e-11
4.028252308255416762e-11
2.734070800517737292e-11
1.821964310831837409e-11
1.194296292246326315e-11
