# bin_15_3
3.011079798975281302e-08
2.621935170190030452e-08
2.222409759102828231e-08
1.840478205581233599e-08
1.497559206983689725e-08
1.203096308088668019e-08
9.542271862177447068e-09
7.425498636579908218e-09
5.648617079619059857e-09
4.249324794387897847e-09
3.213545627669380269e-09
2.431770509239404704e-09
1.843426099020491917e-09
1.413643564759243241e-09
1.093501469178945829e-09
8.541184310839555480e-10
6.716603360434903880e-10
5.297313491810053798e-10
4.171263457419836865e-10
3.264220004150685943e-10
2.527723258107036541e-10
1.929709856590344139e-10
1.447969155636826320e-10
1.065501548353012464e-10
7.677981036972480103e-11
5.414810194727546718e-11
3.738425170302534174e-11
2.529536369836721159e-11
1.680400731674188605e-11
1.098397247368958144e-11
7.081228411223538339e-12
