# bin_9_1
1.738162106055155117e-08
1.457330379609170736e-08
1.196996091152041050e-08
9.683826069076031517e-09
7.739370381544918572e-09
6.092680072831517610e-09
4.697566808851936174e-09
3.557381343658892970e-09
2.687789371113505631e-09
2.042098860357441802e-09
1.552298020031834020e-09
1.189874569859245950e-09
9.219872234598758113e-10
7.216007326808806970e-10
5.694609383501970218e-10
4.514833778116838028e-10
3.579635939438280428e-10
2.824622923910246426e-10
2.208131007253237542e-10
1.703249828690337607e-10
1.292030738759598802e-10
9.613988105322526555e-11
7.005278244734157248e-11
4.994323492153787094e-11
3.484114694928021462e-11
2.380581361621222299e-11
1.595740771774392104e-11
1.051603994947193854e-11
6.829149643221281574e-12
4.380460711400624564e-12
2.781389906018790773e-12
