# bin_10_3
2.814851885262184403e-08
2.443338237839530364e-08
2.065622645764528301e-08
1.707257247965606305e-08
1.387051600160890781e-08
1.112631215887686153e-08
8.807967043160795034e-09
6.840885533155278050e-09
5.199632026772116990e-09
3.913967540906828263e-09
2.961790987662717666e-09
2.242846696484820038e-09
1.703055389580577294e-09
1.307951544414464459e-09
1.013315016887417496e-09
7.924047861753827968e-10
6.235426252488518163e-10
4.918117801440767156e-10
3.870567758251252353e-10
3.025605711768750352e-10
2.339319211960437738e-10
1.782496812200465559e-10
1.334663655718579468e-10
9.799185000578799997e-11
7.045325649804549079e-11
4.957852656521404464e-11
3.416092230114551663e-11
2.307343843744487837e-11
1.530480221433243370e-11
9.991529341089201664e-12
6.434959838846552076e-12
