# bin_18_10
6.009445478546012495e-08
5.570499988826873909e-08
5.028266126711421109e-08
4.415047936382563710e-08
3.772537185142923135e-08
3.145412338207094087e-08
2.571578588804289880e-08
2.071939565010077012e-08
1.648254791245171444e-08
1.289416526907161526e-08
9.863063022344843902e-09
7.407873459965675403e-09
5.553373533813605819e-09
4.175854353914992434e-09
3.126335263512813715e-09
2.358305813966776934e-09
1.791405125900369571e-09
1.372781221806212711e-09
1.059500277758586334e-09
8.218359043842481838e-10
6.384142767875017234e-10
4.946562565838949406e-10
3.807585253780064249e-10
2.900730421926515517e-10
2.180145306770435796e-10
1.612420750176162258e-10
1.171290842277340169e-10
8.346916990719405380e-11
5.832314088195907364e-11
3.996564291312130816e-11
2.687913088892280851e-11
