# bin_20_16
7.502346556135266500e-08
7.098158368501414213e-08
6.549721499773887847e-08
5.883980989599954950e-08
5.142237919207350928e-08
4.375491045780622830e-08
3.635960878506038728e-08
2.965182041516624941e-08
2.383665504673752723e-08
1.890423870660646000e-08
1.472517027655850135e-08
1.121576706174790064e-08
8.402339033401374724e-09
6.283859972293215893e-09
4.703427008534939346e-09
3.505774586789675603e-09
2.630789689180788689e-09
1.986067345933732239e-09
1.511450095979151162e-09
1.157878616354193583e-09
8.912283691015887039e-10
6.870042562136625944e-10
5.283920753586292335e-10
4.039734283388928371e-10
3.059179730868238254e-10
2.287697860695002786e-10
1.685339024712368356e-10
1.220923279695765700e-10
8.687528474476887273e-11
6.068469454904493091e-11
4.161650605666994996e-11
