# bin_17_17
7.309706844424528016e-08
6.901469952406559049e-08
6.354264239498071481e-08
5.695659626747221472e-08
4.966938107376995089e-08
4.218216004643024816e-08
3.499884976579030103e-08
2.850927647817004306e-08
2.289569114172153540e-08
1.813615211045068084e-08
1.410514298635780365e-08
1.073009165609381581e-08
8.037689204094921988e-09
6.014225364784397600e-09
4.502032242813591227e-09
3.358666581136814592e-09
2.523383823351082456e-09
1.907437020494050726e-09
1.453474436962637743e-09
1.114764843037177705e-09
8.587905574062806855e-10
6.623310762393357174e-10
5.094655451284864878e-10
3.893849321019387216e-10
2.946719489308636589e-10
2.201415314103949983e-10
1.619742765683831189e-10
1.171697307308583320e-10
8.324003033682058430e-11
5.804878609934840428e-11
3.974243304414086370e-11
