# bin_19_17
7.555677102167019578e-08
7.154021694493308816e-08
6.606841980552833710e-08
5.940766869024336854e-08
5.196892237230541284e-08
4.426215499253042937e-08
3.681214520979345348e-08
3.004048496193023198e-08
2.416073326482786985e-08
1.917031508105858484e-08
1.494295379053256256e-08
1.139181912058549360e-08
8.538507189500225549e-09
6.384060701303126888e-09
4.777913774890657538e-09
3.561173562452858683e-09
2.670396891337808927e-09
2.014994146986590507e-09
1.532315303453012000e-09
1.173050390479588439e-09
9.023774285619657039e-10
6.952880909185270527e-10
5.346173216422333245e-10
4.086979531223946540e-10
3.095286286775970180e-10
2.315354633340086885e-10
1.706474049411053815e-10
1.236964209728363632e-10
8.807947465195447266e-11
6.157580178766565992e-11
4.226487141594252884e-11
