# bin_13_1
1.823203244338184239e-08
1.530866176794810754e-08
1.258779599829413465e-08
1.019304763723865306e-08
8.154719946145015875e-09
6.427392003935995313e-09
4.960279799320697047e-09
3.756669848599128241e-09
2.836982414070866031e-09
2.154628206706861344e-09
1.636647052643862818e-09
1.253264499622452910e-09
9.702244263029115698e-10
7.587553481765147093e-10
5.984893545648761034e-10
4.744393187303601033e-10
3.762619655119672762e-10
2.970832129712835300e-10
2.324545754162582420e-10
1.795092556078463048e-10
1.363466137130669137e-10
1.015956275436465884e-10
7.413173304380961027e-11
5.292284105265939223e-11
3.696617003795226324e-11
2.528613058739760586e-11
1.696610141870392586e-11
1.118983261823040081e-11
7.271503973236159459e-12
4.666643857325158293e-12
2.964303809390261723e-12
