# bin_6_2
2.089550879329124385e-08
1.777830883377600583e-08
1.477445005921338665e-08
1.205227518450434720e-08
9.696888031071168406e-09
7.704053546441494213e-09
6.018494864919122443e-09
4.604754486785373677e-09
3.475637164605476093e-09
2.629220617326008819e-09
1.996928061512753789e-09
1.518295794152501767e-09
1.166742994671254900e-09
9.050596372991060191e-10
7.088580984681477234e-10
5.589628051849985159e-10
4.420963896812204123e-10
3.491165171855816971e-10
2.739825944104514709e-10
2.127690558225716749e-10
1.628923096510594370e-10
1.225708138646857511e-10
9.044637582436813679e-11
6.535611136912084881e-11
4.621865327265166195e-11
3.199697849873810688e-11
2.170877347904383942e-11
1.445947566489517903e-11
9.475481568572250102e-12
6.123402038676710773e-12
3.911322426817406405e-12
