# bin_18_4
3.631922918174967205e-08
3.211299804298133409e-08
2.761328192259414663e-08
2.314160518596195049e-08
1.899428085173413013e-08
1.535680178740880510e-08
1.226935032379330906e-08
9.654218399566021439e-09
7.429009409697764158e-09
5.603037581695204605e-09
4.215783803644604169e-09
3.189606866492357596e-09
2.405469748144837259e-09
1.829101382104514741e-09
1.403557727343618734e-09
1.087623909377432499e-09
8.497346302527745753e-10
6.674885817773205064e-10
5.249959134564693419e-10
4.115694333425560509e-10
3.201682945687606539e-10
2.461478173081146947e-10
1.863820307001622240e-10
1.386210395838174789e-10
1.010703040637939531e-10
7.215874375561201949e-11
5.043079312707503307e-11
3.452041546400094290e-11
2.317378774337658698e-11
1.528585603143407352e-11
9.929640649264144547e-12
