# bin_15_4
3.534718454535468328e-08
3.121056156574190455e-08
2.680520398783392978e-08
2.244323024545908877e-08
1.840819717780161742e-08
1.487424932081194505e-08
1.187570782025542752e-08
9.336718291460216172e-09
7.180062588830817300e-09
5.415124935946950133e-09
4.075731774354143679e-09
3.084155675336301956e-09
2.327113140817975508e-09
1.770702124313816822e-09
1.359613658648163117e-09
1.054187970242588406e-09
8.239625402620861379e-10
6.473725726472117227e-10
5.091492190177351037e-10
3.990310440576323866e-10
3.102586651348192421e-10
2.383684777043754074e-10
1.803471660046891400e-10
1.340145449325934310e-10
9.762218087390615789e-11
6.963369772754787536e-11
4.862414702666313191e-11
3.325765480334139619e-11
2.231078862346843360e-11
1.470810075012228776e-11
9.549825178693292321e-12
