# bin_9_9
4.679520780327550937e-08
4.251047516573191968e-08
3.758933650455661012e-08
3.235185516090266409e-08
2.715393209132772201e-08
2.231776903680708637e-08
1.805080261171717939e-08
1.440988413647744486e-08
1.133386912058583917e-08
8.739567068729562062e-09
6.609567176270231665e-09
4.962696066701905067e-09
3.739819993625560514e-09
2.816229597997999765e-09
2.127243688672159518e-09
1.622396266301430255e-09
1.246739179931232387e-09
9.658367675803655283e-10
7.522658366977632725e-10
5.870025600175727995e-10
4.570237348647395101e-10
3.535649094592863241e-10
2.707443166856423815e-10
2.045288108652874162e-10
1.520180177920426470e-10
1.109475519681677483e-10
7.940842292102769804e-11
5.570586608137543617e-11
3.830758198642785454e-11
2.584518290048099058e-11
1.713155553926335197e-11
