# bin_12_2
2.373663952610322142e-08
2.030332076899365048e-08
1.694315368803069581e-08
1.386474863884943877e-08
1.118615371167913453e-08
8.916764415512729194e-09
6.992289279002577090e-09
5.363203819890175133e-09
4.046669968306924361e-09
3.056563517930575679e-09
2.319070398994243148e-09
1.758519071844975729e-09
1.347288013146708202e-09
1.042115960251811056e-09
8.142876067077854802e-10
6.411637480165542148e-10
5.069432881027366537e-10
4.006561541514270229e-10
3.150262776126225111e-10
2.453285767889112304e-10
1.884782561984062812e-10
1.423902919734595735e-10
1.055204239659318947e-10
7.657954175730409938e-11
5.438381564882245782e-11
3.779720897291826758e-11
2.573382421944233938e-11
1.719213341224630044e-11
1.129458224274195320e-11
7.313862750317712147e-12
4.679255571717023007e-12
