# bin_19_14
7.043583662219989353e-08
6.626325318024755941e-08
6.076991358194759026e-08
5.424384532634843339e-08
4.710283313653338439e-08
3.984169167577644227e-08
3.294479701825015832e-08
2.676718155612554528e-08
2.145369128157461201e-08
1.695555737182026035e-08
1.314411791184347570e-08
9.964900459648218874e-09
7.456301488608294476e-09
5.586488071785859052e-09
4.182125554897863937e-09
3.123690192671080569e-09
2.353488004492599566e-09
1.783443053932707527e-09
1.362923247645625070e-09
1.048191227664921218e-09
8.092696418999406926e-10
6.250684198366030703e-10
4.811369119216786426e-10
3.676846884474212006e-10
2.779909878835104448e-10
2.073369402562738881e-10
1.522038338649516805e-10
1.097903053424313231e-10
7.774299435221627475e-11
5.402146016587507180e-11
3.684613843827085625e-11
