# bin_14_1
1.838270824667817538e-08
1.543895255318914926e-08
1.269726414959019832e-08
1.028327167504071912e-08
8.228311759329247591e-09
6.486696449008842878e-09
5.006827457095819352e-09
3.791979916802813782e-09
2.863416528271217824e-09
2.174566220453865713e-09
1.651592056085297189e-09
1.264495952015283782e-09
9.787711078255962219e-10
7.653384103268846304e-10
6.036326134472045385e-10
4.785066552411623607e-10
3.795040738515541099e-10
2.996737510048073262e-10
2.345172157410899128e-10
1.811365292124542968e-10
1.376123102941244677e-10
1.025622806501524620e-10
7.485444499256972648e-11
5.345077057031810924e-11
3.734268392725621390e-11
2.554841488575108470e-11
1.714482302991654807e-11
1.130921608782797501e-11
7.349880916090102296e-12
4.717350188081134765e-12
2.996712756464952088e-12
