# bin_16_20
-9.258812777451409877e-11
-1.049519453031213582e-10
-1.170647444639982333e-10
-1.280011812190254069e-10
-1.365182515237861338e-10
-1.410636283914534046e-10
-1.404609127911036296e-10
-1.327186340542787983e-10
-1.184214778706018136e-10
-9.985283073851569294e-11
-8.167289920215576901e-11
-6.832402585723158658e-11
-5.922229199337408460e-11
-4.782072981645444863e-11
-3.320884317192563735e-11
-2.561008004817634977e-11
-1.914431203357746713e-11
-1.327201781384019837e-11
-9.284065450545648641e-12
-6.623287861648798556e-12
-4.552920233553630437e-12
-3.116417395512446098e-12
-2.152086455283639934e-12
-1.498807043103435427e-12
-1.058253758485939682e-12
-7.614231808719250645e-13
-5.587922176327948936e-13
-4.183872705069692703e-13
-3.184398799052000991e-13
-2.449214957556647247e-13
-1.889513140635877636e-13
