# bin_17_15
-5.786414400896301721e-09
-6.531533071107909905e-09
-7.247986560696842063e-09
-7.875244447405273760e-09
-8.333494814095835735e-09
-8.528132016552098518e-09
-8.385628599000157523e-09
-7.798920519559964760e-09
-6.856765770341992930e-09
-5.707703941725664837e-09
-4.669358302460832099e-09
-3.957716431660287020e-09
-3.417513438355627125e-09
-2.640289765122461481e-09
-1.823320793460783962e-09
-1.468999856187840530e-09
-1.021020617554703280e-09
-7.551515841539649961e-10
-5.087421348213254113e-10
-3.597086991002188730e-10
-2.505465469210082651e-10
-1.743819871329642037e-10
-1.220746995480090459e-10
-8.629134807354346131e-11
-6.210259992234283567e-11
-4.557789151471924626e-11
-3.409492073664096921e-11
-2.594370620300375792e-11
-1.996778802654578584e-11
-1.543684772296716073e-11
-1.189731698260253008e-11
