# bin_9_14
-7.802337854584562892e-14
-8.695730316383418171e-14
-9.501825911325496757e-14
-1.012874399490831907e-13
-1.046194159847061622e-13
-1.041410088912221647e-13
-9.839005635477613179e-14
-8.778792654568055114e-14
-7.403004671532804287e-14
-6.054131041378622545e-14
-5.061209805707373242e-14
-4.384772883406521883e-14
-3.543980282588274956e-14
-2.467541643090572156e-14
-1.902036766637305648e-14
-1.429729195861255902e-14
-9.969164585557740858e-15
-7.070744093178389461e-15
-5.105869464800522690e-15
-3.584454795476633725e-15
-2.524467374853509178e-15
-1.803582862288333128e-15
-1.307546167436538326e-15
-9.649262493010258187e-16
-7.258754935768206717e-16
-5.549036572965566540e-16
-4.292530661369512661e-16
-3.338182086849593019e-16
-2.590866416362241779e-16
-1.993070908951365271e-16
-1.510877017888511880e-16
