# bin_5_7
-2.739952697134192098e-09
-2.952127478861701624e-09
-3.093224047960383379e-09
-3.131545456311406069e-09
-3.032949283286461835e-09
-2.774048332196069561e-09
-2.399754857292797345e-09
-1.978218207229300540e-09
-1.625070636776532999e-09
-1.392127729790827168e-09
-1.182541153337428603e-09
-8.765724344968987158e-10
-6.231707529353938791e-10
-5.062032907393565140e-10
-3.434720404226089457e-10
-2.625057568593068206e-10
-1.850081326554481693e-10
-1.328704329948374756e-10
-9.699084192713468158e-11
-7.154215240584094952e-11
-5.361711329149480193e-11
-4.087384903690891746e-11
-3.169326076299691324e-11
-2.485567885561619478e-11
-1.958871247458901832e-11
-1.540734288687196767e-11
-1.200962649010484707e-11
-9.220844108954458798e-12
-6.937689574238145505e-12
-5.094707239941348280e-12
-3.642746027929428767e-12
