# bin_15_20
-3.125389048518877508e-12
-3.539850646649680300e-12
-3.944394910850191425e-12
-4.307533802199307344e-12
-4.587035803330509662e-12
-4.730469082404548055e-12
-4.698918041862408392e-12
-4.425909112858415141e-12
-3.937466964813299487e-12
-3.310836951923982435e-12
-2.707295300293189582e-12
-2.270663526585915619e-12
-1.967884069491503218e-12
-1.575929987578613181e-12
-1.090607776979819499e-12
-8.500134950602912764e-13
-6.265422824409274084e-13
-4.398957130218465819e-13
-3.040425240297946175e-13
-2.174791536997867132e-13
-1.498336919296770468e-13
-1.027897549497386391e-13
-7.119571116821721494e-14
-4.973301842806202827e-14
-3.525268214804293664e-14
-2.547031910063974436e-14
-1.876971928185988963e-14
-1.410506972922643698e-14
-1.076459462876265511e-14
-8.291526469323636873e-15
-6.397739814174508868e-15
