# bin_12_20
-3.480978525092344404e-19
-3.932458552033420258e-19
-4.368132506031995648e-19
-4.751930134496367518e-19
-5.036036916460041761e-19
-5.162936453018591823e-19
-5.089221659724395451e-19
-4.747434886540249825e-19
-4.185655603351897805e-19
-3.491979620578385432e-19
-2.855700336375468377e-19
-2.414369838313165704e-19
-2.087792156894316928e-19
-1.627027000033330867e-19
-1.122271234183618029e-19
-8.987133400648666553e-20
-6.332356239090320600e-20
-4.631351501020604591e-20
-3.125621340609928244e-20
-2.222029031833278040e-20
-1.543227290783194800e-20
-1.070173971628773183e-20
-7.473947552445626856e-21
-5.268183437146086589e-21
-3.778132754290246220e-21
-2.762961956055543958e-21
-2.059997163068418167e-21
-1.563342969464870689e-21
-1.201210785798552255e-21
-9.281039741190736876e-22
-7.156564026415527985e-22
