# bin_1_19
-4.666038805048526052e-89
-5.221584182897525515e-89
-5.734242809792023857e-89
-6.150814104156146867e-89
-6.404226452071808657e-89
-6.434783992862569610e-89
-6.158844656101905412e-89
-5.562877486327203681e-89
-4.749863047567983603e-89
-3.894505996054511052e-89
-3.224089756605906379e-89
-2.786649503176775240e-89
-2.318003749263746089e-89
-1.652365916099485929e-89
-1.217952581648213747e-89
-9.614057676466077737e-90
-6.447916209384513560e-90
-4.788194986563117045e-90
-3.376151342659370534e-90
-2.349725328906732691e-90
-1.649643998881599705e-90
-1.165895083093894082e-90
-8.357902903137154691e-91
-6.089094333868326172e-91
-4.525400289101846196e-91
-3.423839044093258915e-91
-2.628625310560101086e-91
-2.036476585080691252e-91
-1.580642451525023458e-91
-1.220281875224961817e-91
-9.310131515469428468e-92
