# bin_15_7
-3.443413051126487923e-23
-3.834291258778390825e-23
-4.185171149213696582e-23
-4.455246050540385475e-23
-4.593897663778798764e-23
-4.563251588056755471e-23
-4.299289013056481400e-23
-3.826062860144823809e-23
-3.218486447477610510e-23
-2.631364275794532436e-23
-2.204769068999737005e-23
-1.909927002461217932e-23
-1.532770972537890946e-23
-1.063850086276815432e-23
-8.276701630527378306e-24
-6.148185753269647124e-24
-4.333050152215833455e-24
-3.043291527808968292e-24
-2.203694408401660483e-24
-1.550327672722325964e-24
-1.093893611792120600e-24
-7.834409819091081983e-25
-5.692888373889362271e-25
-4.212252021539673968e-25
-3.176339530359043340e-25
-2.432990236933969724e-25
-1.884592753228285900e-25
-1.466401018281236286e-25
-1.137868134670594465e-25
-8.745309641757511368e-26
-6.619857979837174469e-26
