# bin_9_17
-2.386999450245831034e-21
-2.675912185805050360e-21
-2.944980869592917181e-21
-3.167385732731870925e-21
-3.309140576035599924e-21
-3.337829667645131874e-21
-3.212723852267740609e-21
-2.918094039207356726e-21
-2.506053027603341818e-21
-2.058854277926713466e-21
-1.698357115992460001e-21
-1.464005001910732956e-21
-1.230654403177754186e-21
-8.896767580182890979e-22
-6.431564936840972563e-22
-5.163499354981600539e-22
-3.429087159012339008e-22
-2.583897861842156679e-22
-1.801348274636434048e-22
-1.249884179451088407e-22
-8.776251598649845810e-23
-6.181362459358613824e-23
-4.409245745113427942e-23
-3.193082748964861375e-23
-2.359210328142063246e-23
-1.775600839832892166e-23
-1.357600532916066686e-23
-1.049223790857315845e-23
-8.138747905121198698e-24
-6.290340743172069079e-24
-4.811598827219004552e-24
