# bin_11_17
-3.575095615046350365e-15
-4.017196026625321485e-15
-4.433730735322243596e-15
-4.785371381916978980e-15
-5.021767715940588802e-15
-5.090549094803416672e-15
-4.936429379211220882e-15
-4.518686622233523068e-15
-3.911504274018224518e-15
-3.224831729576355334e-15
-2.649577034004514824e-15
-2.272945028301060337e-15
-1.933838088139926957e-15
-1.428438793365048515e-15
-1.008868062585950455e-15
-8.212556523273392045e-16
-5.446509863340712783e-16
-4.140635562705424980e-16
-2.844743564873545107e-16
-1.970770708468432414e-16
-1.384253918341372561e-16
-9.727475361608641950e-17
-6.894568981734616303e-17
-4.951847384632733571e-17
-3.628192288294226517e-17
-2.709639990373764579e-17
-2.058589299294355863e-17
-1.584416596200800472e-17
-1.227064819271412280e-17
-9.492660495556699716e-18
-7.283707988077975901e-18
