# bin_2_8
-3.675922668255598205e-21
-3.927580927030759225e-21
-4.071748023588722524e-21
-4.072542717300867244e-21
-3.875614740545796640e-21
-3.482652641894973527e-21
-2.958801764317610562e-21
-2.422831909243288076e-21
-2.011442962918829054e-21
-1.737915048582520181e-21
-1.431114331719327725e-21
-1.016266873163800428e-21
-7.629648969311807129e-22
-5.955123003639967671e-22
-4.110360548054599552e-22
-3.053669929796207385e-22
-2.218837927405932074e-22
-1.600665052816708303e-22
-1.171783242232819967e-22
-8.719654667540573726e-23
-6.610688467106836564e-23
-5.098939834369528228e-23
-3.990424321155334735e-23
-3.148349698648773548e-23
-2.487162595420957256e-23
-1.953619819396551878e-23
-1.515513668866803314e-23
-1.154529354920610726e-23
-8.597278864149611011e-24
-6.236545557984678426e-24
-4.401345985645504154e-24
