# bin_3_1
-2.170398834121200579e-09
-2.183726365735258208e-09
-2.098022491148570356e-09
-1.904685631890025952e-09
-1.635978965763936669e-09
-1.345578536655355712e-09
-1.109748897437261782e-09
-9.522877891175656925e-10
-7.984940410203300833e-10
-5.854295699264643272e-10
-4.262792372372056140e-10
-3.406718211441913933e-10
-2.364560962653928332e-10
-1.796029196599922538e-10
-1.301396354597619821e-10
-9.581771387472669868e-11
-7.183214673603047604e-11
-5.475924352187558579e-11
-4.252215253432999627e-11
-3.353930746277390517e-11
-2.674991326134899689e-11
-2.141175789938354086e-11
-1.707294459919832545e-11
-1.346589216520932804e-11
-1.043855434727498178e-11
-7.911019612654091600e-12
-5.839343113966442810e-12
-4.190475505816888719e-12
-2.925115530020233255e-12
-1.990547959374608592e-12
-1.324855283055635488e-12
