# bin_14_20
-4.236543178235570185e-14
-4.794293085846073799e-14
-5.336635203174616524e-14
-5.820506095468980946e-14
-6.188311531631112045e-14
-6.369127798231015529e-14
-6.310743972383986786e-14
-5.924975294513769042e-14
-5.255230047870268031e-14
-4.406840102064346060e-14
-3.602996846750840481e-14
-3.029891710827756503e-14
-2.624811314090144780e-14
-2.083503110624104254e-14
-1.438505761191694218e-14
-1.132574404804826994e-14
-8.225054265083178904e-15
-5.854539707719567132e-15
-4.003837012387548805e-15
-2.864794146171043304e-15
-1.978546541540635887e-15
-1.361534656898555099e-15
-9.457976591046619363e-16
-6.626796541349880986e-16
-4.715955780692564445e-16
-3.421470222781499215e-16
-2.531633595284105123e-16
-1.909153202160735464e-16
-1.460661480497063607e-16
-1.126497639307122902e-16
-8.691695727456139717e-17
