# bin_19_10
-2.263024763860408068e-23
-2.548208439375220917e-23
-2.819503928392790076e-23
-3.052561607929619260e-23
-3.215818413424297548e-23
-3.274017177265384511e-23
-3.195660303860354932e-23
-2.946325474299653673e-23
-2.568824447600229923e-23
-2.126158349170172976e-23
-1.742444480260435704e-23
-1.487159784878988272e-23
-1.275927090941123630e-23
-9.617049385335787033e-24
-6.697122364866973212e-24
-5.455575902852824618e-24
-3.668632889774364956e-24
-2.775363830772231959e-24
-1.882992118625643112e-24
-1.310908951141050018e-24
-9.193348765742173409e-25
-6.447025079784788581e-25
-4.543740694595034095e-25
-3.239243994699696565e-25
-2.354451547474492781e-25
-1.744974772331186534e-25
-1.316969852722119334e-25
-1.008899813425904176e-25
-7.795561514593408730e-26
-6.031619724213876586e-26
-4.638959311824298116e-26
