# bin_6_9
-9.333997093721944754e-11
-1.018549004301549863e-10
-1.084311826874887203e-10
-1.118495063164622864e-10
-1.111732241092898965e-10
-1.048708890560193577e-10
-9.344470973636272140e-11
-7.872052024371600141e-11
-6.436857554202378797e-11
-5.383550758954260469e-11
-4.659500448814964358e-11
-3.755512150972057630e-11
-2.622493849829339258e-11
-2.028563804598654155e-11
-1.524628186477229524e-11
-1.075522580285014653e-11
-7.702516805714892655e-12
-5.617041816093596810e-12
-4.018680577115611681e-12
-2.900322466742741146e-12
-2.128894637046186906e-12
-1.589788490042689357e-12
-1.208803953673488216e-12
-9.341220244804253802e-13
-7.296575114949679027e-13
-5.725463768554569367e-13
-4.481421657070986199e-13
-3.474859367956314687e-13
-2.653475114121255244e-13
-1.985882555709554678e-13
-1.451178905949044750e-13
