# bin_14_17
-7.189163718575972226e-10
-8.106102814393029120e-10
-8.983601379524912974e-10
-9.745499224529918700e-10
-1.029213505384040526e-09
-1.050810499208876571e-09
-1.029881487153943224e-09
-9.540822076462747299e-10
-8.357165690947472972e-10
-6.937920075825597997e-10
-5.679528992225524660e-10
-4.829387697589044481e-10
-4.159938643023585900e-10
-3.178168232945035196e-10
-2.201063520524807492e-10
-1.784258679441311525e-10
-1.220048108500423756e-10
-9.132966416670805114e-11
-6.161708513359052870e-11
-4.323646947820042878e-11
-3.022271874057839422e-11
-2.112123194385456420e-11
-1.483074958614917261e-11
-1.052294256883821960e-11
-7.607319493891467123e-12
-5.608223974873186487e-12
-4.212569527919200576e-12
-3.215697849408307864e-12
-2.479749444455710768e-12
-1.918042050203431244e-12
-1.477021543162626220e-12
