# bin_10_20
-2.288550604957078945e-26
-2.580938198296246767e-26
-2.860982353746963203e-26
-3.104492853549554728e-26
-3.279771571001794202e-26
-3.349938469499061532e-26
-3.285107908664306013e-26
-3.045381722065781256e-26
-2.669299883506122382e-26
-2.216954478087095852e-26
-1.814590652624066926e-26
-1.542149869417557837e-26
-1.329062353929461365e-26
-1.017323578111498791e-26
-7.040789191965694344e-27
-5.702899327925840088e-27
-3.909319578715720752e-27
-2.921555569967139670e-27
-1.969776796344650601e-27
-1.383842079392088903e-27
-9.668239163167751313e-28
-6.752940348466871604e-28
-4.739255444140618775e-28
-3.360444011873458770e-28
-2.427487549094498601e-28
-1.788217559498821613e-28
-1.342280543438992835e-28
-1.024106242831898416e-28
-7.894913153734303358e-29
-6.106221565850345022e-29
-4.702994678401758478e-29
