# bin_18_4
-1.504723855258474579e-54
-1.682268101103267894e-54
-1.845270208267293832e-54
-1.976438746562887824e-54
-2.054017658822136321e-54
-2.059406737705379822e-54
-1.965069411043197049e-54
-1.769689427213307445e-54
-1.506417754789331499e-54
-1.234077627831839898e-54
-1.023805129860129858e-54
-8.858314571153853773e-55
-7.323425566181768939e-55
-5.185100660368749980e-55
-3.862711695253465348e-55
-3.017410834755428979e-55
-2.038460087136427090e-55
-1.499046649357106676e-55
-1.063730455290098975e-55
-7.417164650958352820e-56
-5.207934430720002968e-56
-3.689224613713692977e-56
-2.651900698380259387e-56
-1.938162200331815089e-56
-1.444838251764224538e-56
-1.096064941272813992e-56
-8.432084181769599843e-57
-6.539951282237804599e-57
-5.076963682558958044e-57
-3.916681671536812969e-57
-2.983891230129031601e-57
