# bin_3_9
-3.869704748101640847e-20
-4.177569881152806062e-20
-4.388061496897496866e-20
-4.454771974568520254e-20
-4.332310565073595122e-20
-3.980145954755970561e-20
-3.458483886342714217e-20
-2.857519462516605525e-20
-2.343245750801013799e-20
-2.001376837289457143e-20
-1.709530247505204984e-20
-1.282430929344523629e-20
-9.029474805593741577e-21
-7.350610707858531809e-21
-5.015596894075602422e-21
-3.827402836719408518e-21
-2.679725095916000654e-21
-1.928243848379583893e-21
-1.405824490468230804e-21
-1.035051644286779812e-21
-7.735612831438757203e-22
-5.879622443955413019e-22
-4.547565747691889352e-22
-3.560216806823453333e-22
-2.803336886157168531e-22
-2.205069651742301049e-22
-1.720421227819198830e-22
-1.323188620134120689e-22
-9.979224512554464579e-23
-7.349613928675205701e-23
-5.271830759749052293e-23
