# bin_12_14
-4.741674428934586729e-09
-5.309330525522856387e-09
-5.834782065396927977e-09
-6.264226142643653685e-09
-6.529733319217866253e-09
-6.569393041579826145e-09
-6.299438148722205866e-09
-5.700278846742269235e-09
-4.876433380411241573e-09
-4.000676706708400921e-09
-3.307904049722327639e-09
-2.856863974314087797e-09
-2.384987648870820013e-09
-1.707655909855045752e-09
-1.250590042487973676e-09
-9.931093101130937086e-10
-6.634968351646410968e-10
-4.953793984864257574e-10
-3.479476353561025294e-10
-2.418994959998527936e-10
-1.698265514933990983e-10
-1.198704528431245427e-10
-8.578621723162256790e-11
-6.237424233467080676e-11
-4.626656750359422719e-11
-3.494431237167009712e-11
-2.679243543184354780e-11
-2.074094279260885595e-11
-1.609566989290233410e-11
-1.243108001261186041e-11
-9.492537425575899852e-12
