# bin_12_5
-8.252579711978363758e-22
-9.078337723007672301e-22
-9.761913584146455310e-22
-1.019920727970391965e-21
-1.029000038430144211e-21
-9.911149809608718552e-22
-9.010241396568369378e-22
-7.745705380165251786e-22
-6.365948573972337731e-22
-5.246238919730311239e-22
-4.515919481022036305e-22
-3.802766933020039198e-22
-2.764044367631529478e-22
-1.993843857942651607e-22
-1.607172764921181438e-22
-1.076748436462390383e-22
-8.177391077835510364e-23
-5.761400550640846989e-23
-4.071018582472257766e-23
-2.923106017018469997e-23
-2.115890881945093512e-23
-1.555913891169203437e-23
-1.163861337585998294e-23
-8.870820640793655083e-24
-6.859578588140924220e-24
-5.352475180740926879e-24
-4.187066289790569414e-24
-3.259821977027699717e-24
-2.509564855845966604e-24
-1.899849997028487844e-24
-1.408250714987911320e-24
