# bin_6_1
-4.317412148174965673e-18
-4.508009937070930804e-18
-4.547187248638038990e-18
-4.382118300715448435e-18
-3.988350455483477286e-18
-3.433587675732276178e-18
-2.824676866344263780e-18
-2.325597151664690584e-18
-1.996320564524062235e-18
-1.683187973239122063e-18
-1.235501983900025002e-18
-8.915561284660654797e-19
-7.188473295869859503e-19
-4.919910589155755063e-19
-3.755967393093589347e-19
-2.690748156299888901e-19
-1.957111204508321442e-19
-1.449706894987790719e-19
-1.089198411153197897e-19
-8.331863377238347274e-20
-6.480799326354513726e-20
-5.111523980728078852e-20
-4.059894895575791160e-20
-3.224068198071493142e-20
-2.541879928616117732e-20
-1.976285172924989139e-20
-1.506665700772858140e-20
-1.121188806081307601e-20
-8.119468014523829432e-21
-5.717967122332595654e-21
-3.920689566844033800e-21
