# bin_2_10
-3.436659343437523932e-30
-3.718888126772540040e-30
-3.917886377476940001e-30
-3.990868695313227951e-30
-3.900407275379828706e-30
-3.603451132640184411e-30
-3.148399573513894470e-30
-2.610011299624883354e-30
-2.136885287237571667e-30
-1.817572078356625244e-30
-1.560827510276487206e-30
-1.189027261481092979e-30
-8.302757898074781768e-31
-6.737811091329256943e-31
-4.663522242452088612e-31
-3.527208642305145312e-31
-2.455471338220701075e-31
-1.775662013237989865e-31
-1.291065114396768333e-31
-9.475759990236028293e-32
-7.056952279969315626e-32
-5.343870803341727599e-32
-4.119488320652168584e-32
-3.217359437976085396e-32
-2.530045233262136298e-32
-1.989835768462176233e-32
-1.554056693606175212e-32
-1.197624780017058349e-32
-9.058021927033541948e-33
-6.694958958914755251e-33
-4.821442786862934257e-33
