# bin_19_16
8.542277811260957939e-13
9.673609176780374945e-13
1.077708158290033787e-12
1.176651084447866776e-12
1.252632024230792351e-12
1.291312835815381554e-12
1.282115077635707400e-12
1.206883852766363795e-12
1.073070089343667487e-12
9.017871969144766040e-13
7.373419604104354352e-13
6.187383759413728537e-13
5.362376984984737522e-13
4.287472308606849333e-13
2.964517635940359965e-13
2.315701974057017986e-13
1.702182744144790821e-13
1.198060696799119098e-13
8.258289233971737946e-14
5.912336163291009570e-14
4.075094582726397639e-14
2.796577577033365482e-14
1.938205986418419719e-14
1.354718451305586270e-14
9.610166059802951659e-15
6.949065435549973277e-15
5.125093853501022204e-15
3.854178827619000120e-15
2.942983982176701551e-15
2.267547873829791037e-15
1.749733266595596747e-15
