# bin_10_7
6.175184642666445553e-14
6.782477330028376635e-14
7.279071059595185904e-14
7.586441446274308559e-14
7.632709284165976436e-14
7.321683812120243611e-14
6.628702929397763625e-14
5.674179217212689264e-14
4.655844992121494112e-14
3.846309735767627950e-14
3.318170515830501503e-14
2.774076019743701845e-14
1.994907364504438594e-14
1.458677418746693865e-14
1.163954306352517015e-14
7.834205421735471892e-15
5.903848538599524334e-15
4.192572050716321035e-15
2.967213430874073388e-15
2.130749803501450043e-15
1.545342295965118624e-15
1.139896379956063312e-15
8.556389486876846505e-16
6.541461130613838893e-16
5.070210871005460856e-16
3.962016028394188097e-16
3.100646184016046695e-16
2.412602728635130708e-16
1.854644797735733453e-16
1.401006363751424609e-16
1.035604794848200388e-16
