# bin_10_1
3.003826286853525682e-55
3.241215863700114546e-55
3.402432575955634811e-55
3.451724683917708044e-55
3.353309953282624534e-55
3.076849966483197213e-55
2.670273311884141014e-55
2.204393846281945574e-55
1.808096459794676858e-55
1.545890086428047573e-55
1.319265121346580421e-55
9.860054925988611178e-56
6.950588673899894878e-56
5.669659732348111432e-56
3.849360206934568693e-56
2.947780946469208556e-56
2.066323848832545869e-56
1.484188335369852168e-56
1.082998180080810428e-56
7.980151344273406363e-57
5.968962590762055371e-57
4.540739678010961332e-57
3.514789296164984368e-57
2.753273319573760343e-57
2.168676088631852302e-57
1.705974819497271403e-57
1.330768062934493177e-57
1.023074914402159608e-57
7.711030944621283785e-58
5.674571078711468088e-58
4.066590956237358484e-58
