# bin_15_4
4.326089568357035398e-59
4.797606451408330130e-59
5.210532885804212447e-59
5.512354760937014876e-59
5.640682010107154365e-59
5.547307784220343490e-59
5.161188310574437484e-59
4.539586391399991010e-59
3.780074093848483463e-59
3.091137697030131851e-59
2.617018287423267259e-59
2.259920234879392342e-59
1.751337111534943239e-59
1.211175763894191850e-59
9.752764941696386471e-60
6.848561785962814617e-60
5.078715401274185142e-60
3.471705118728074675e-60
2.498403700041668056e-60
1.776983198336063909e-60
1.270174607865110530e-60
9.188231818677729030e-61
6.743905168904812513e-61
5.046550985956068553e-61
3.843785542228243236e-61
2.967614274365856815e-61
2.310103066409613262e-61
1.800191242255919429e-61
1.394430735283501821e-61
1.066806962210597569e-61
8.020118981562844733e-62
