# bin_9_2
2.659484593548749069e-36
2.860736654552387035e-36
2.991280324627761664e-36
3.021302602558019724e-36
2.915963968578396239e-36
2.656867724918069568e-36
2.289509016950124654e-36
1.883509988216550116e-36
1.549590096030946565e-36
1.331003382703948761e-36
1.125245712230115856e-36
8.252245440445277365e-37
5.917139543129962203e-37
4.798057484109561769e-37
3.238941138535832186e-37
2.479098297276724946e-37
1.757572336890297988e-37
1.260212669706755382e-37
9.208182299086639261e-38
6.802468930816731736e-38
5.110519498655777429e-38
3.906018114747907739e-38
3.035328792980728555e-38
2.384107313765806092e-38
1.880351333675828858e-38
1.478916378214252803e-38
1.151849284830479662e-38
8.830724914548582429e-39
6.630548456807233492e-39
4.856836656949800488e-39
3.462946268681389056e-39
