# bin_8_4
1.165093866859789705e-17
1.255805356628187417e-17
1.316471081258706817e-17
1.333504772432351557e-17
1.292520715916621000e-17
1.182987360152575020e-17
1.024081707592123811e-17
8.442770182404081112e-18
6.931325204570794550e-18
5.936516701332090680e-18
5.051212267226961414e-18
3.749381798227283681e-18
2.656453987968269786e-18
2.165947417949281181e-18
1.464463503168694300e-18
1.123240904061710474e-18
7.904858630737092614e-19
5.669895536024752500e-19
4.140247245788533049e-19
3.053646881033469366e-19
2.287661898386397635e-19
1.743231665798934332e-19
1.351311618390659716e-19
1.059611204429089222e-19
8.350613091569092958e-20
6.568900500172066967e-20
5.121529758951353713e-20
3.933612826938945756e-20
2.960875538267856142e-20
2.175348637911232019e-20
1.556106948132708683e-20
