# bin_8_8
2.198934527670591661e-10
2.406730987410254342e-10
2.571697949640497162e-10
2.665337604474305320e-10
2.664409886323153051e-10
2.532586939025497957e-10
2.272753997699762936e-10
1.927863468716707137e-10
1.577884404738589277e-10
1.311833191436030419e-10
1.135117490231884049e-10
9.316779949955456265e-11
6.570054122494394697e-11
4.957616494717204669e-11
3.838490545671123990e-11
2.639172927491416007e-11
1.936585118097528475e-11
1.399460572942280896e-11
9.958159721374537140e-12
7.159280609091834642e-12
5.224450393182426108e-12
3.880375949756896299e-12
2.934078605479752837e-12
2.257079175326404581e-12
1.757475748117322860e-12
1.376943187108575963e-12
1.078002824554462131e-12
8.373833030400773698e-13
6.414810675031097622e-13
4.821700184885847388e-13
3.541964792768004666e-13
