# bin_19_19
9.846858142631438481e-11
1.117920624129813952e-10
1.249400838392160774e-10
1.369419832698396882e-10
1.464940426906525364e-10
1.519573065787291028e-10
1.520015766611855716e-10
1.445177320570793315e-10
1.296949507945784208e-10
1.099874126517513002e-10
9.003733026281486477e-11
7.494365404892990896e-11
6.494177623342296472e-11
5.322847947448293648e-11
3.731502474603749365e-11
2.816616217025872034e-11
2.160470580067544864e-11
1.465553828431148631e-11
1.051398587973356424e-11
7.426349451130371228e-12
5.084294722093099353e-12
3.472345036701564525e-12
2.383819837195653819e-12
1.650327272490173209e-12
1.156299745594217234e-12
8.250635499918099323e-13
6.003767448145295990e-13
4.460550318787971441e-13
3.374769390944101097e-13
2.586436666820821374e-13
1.993609283809701685e-13
