# bin_20_18
1.361156687981826663e-11
1.545393165180921072e-11
1.727238312152276590e-11
1.893278689445264164e-11
2.025499598927706682e-11
2.101251923287305960e-11
2.102112249842006304e-11
1.998943338511456451e-11
1.794190186965640838e-11
1.521796806467064766e-11
1.245800037989263907e-11
1.036820696327607370e-11
8.984304605838254725e-12
7.366562903302580921e-12
5.165749350857384321e-12
3.896991349853781195e-12
2.991099180817301114e-12
2.027975587107143619e-12
1.455859274598733194e-12
1.027976207778224521e-12
7.037117547337588949e-13
4.805939131875846064e-13
3.298858110256892734e-13
2.283449307403724127e-13
1.599571156019099610e-13
1.141099655576387869e-13
8.301560196447988338e-14
6.166386724658627266e-14
4.664576026547587959e-14
3.574565599239570141e-14
2.755155239106774823e-14
