# bin_14_7
6.815568865750235071e-28
7.570393156369909133e-28
8.237970006745643750e-28
8.736248901600870359e-28
8.965608201989439223e-28
8.852009467697745718e-28
8.275807061387205993e-28
7.311940510365609494e-28
6.111005412612614844e-28
4.995154831885557121e-28
4.212000354402978240e-28
3.644260374902821268e-28
2.863363860073324392e-28
1.978182211833546942e-28
1.575560759355498242e-28
1.130515014412442262e-28
8.227675214610987778e-29
5.653361365193883448e-29
4.094582812741126370e-29
2.899125232350120974e-29
2.060806387106594927e-29
1.485463313651419165e-29
1.086181278110264826e-29
8.094163389946597564e-30
6.142570010670962785e-30
4.729083378831607079e-30
3.675190936365359100e-30
2.862905933669437503e-30
2.219458943586229340e-30
1.701167750717509177e-30
1.282369039502715766e-30
