# bin_3_1
3.161222382246644490e-12
3.180570221823032897e-12
3.055336309613608664e-12
2.772886455581432972e-12
2.380827600965719120e-12
1.957224218733416631e-12
1.613894126607456955e-12
1.385820410143991991e-12
1.162540156372171407e-12
8.506328141149481584e-13
6.191959593474456737e-13
4.961741666760958161e-13
3.430121303301301122e-13
2.613217509755397183e-13
1.893460254444806084e-13
1.392866767531845487e-13
1.044471167444632212e-13
7.963453510109426187e-14
6.185306867837180936e-14
4.879798022751541961e-14
3.892812233887479873e-14
3.116445261816131009e-14
2.485155039811943569e-14
1.960147132575588568e-14
1.519389993593436023e-14
1.151340628502378350e-14
8.496560354218814802e-15
6.095674955835061927e-15
4.253724552481239697e-15
2.893796967040026211e-15
1.925513619577100882e-15
