# bin_15_18
-8.561095670313810283e-10
-9.674961787273811398e-10
-1.075154681378720778e-09
-1.170250193239976902e-09
-1.241046564691285722e-09
-1.273347773498830832e-09
-1.256533759331744360e-09
-1.173722359271895280e-09
-1.036123737732098699e-09
-8.653098651735927452e-10
-7.075703042904174651e-10
-5.975463198839206226e-10
-5.169691549399473947e-10
-4.044409454474640995e-10
-2.789314892188047429e-10
-2.226529853272667836e-10
-1.578694461054744688e-10
-1.148252328690757659e-10
-7.763773754628961405e-11
-5.529579882797810834e-11
-3.835141620253231530e-11
-2.654656885958058659e-11
-1.851626322167618630e-11
-1.303243124309329912e-11
-9.329288785715543854e-12
-6.809843538731961136e-12
-5.068375352542353345e-12
-3.840961888189281872e-12
-2.948523293165974263e-12
-2.277361196376103751e-12
-1.756454017002220630e-12
