# bin_8_7
-2.471157414626902395e-08
-2.695375381048236554e-08
-2.867787498797861092e-08
-2.956065998475348631e-08
-2.935634016040659388e-08
-2.765958472933965212e-08
-2.461876682807363192e-08
-2.071700865338611324e-08
-1.693751253141179099e-08
-1.417955184111746542e-08
-1.227299900397701470e-08
-9.863524488164026948e-09
-6.876156740891025223e-09
-5.340282249060776101e-09
-3.994373211509517516e-09
-2.829142822141786668e-09
-2.017557555117351468e-09
-1.473612070607355462e-09
-1.054990099978469238e-09
-7.616375389466365372e-10
-5.594335635501774411e-10
-4.180005139254596825e-10
-3.180156017739570633e-10
-2.458659687951195044e-10
-1.921096225233838479e-10
-1.507644771682085711e-10
-1.179987969927165227e-10
-9.147392527712968015e-11
-6.982442146372878356e-11
-5.223050430620665330e-11
-3.814401389343764398e-11
