# bin_11_11
-3.606210846025833123e-08
-4.008670718926566349e-08
-4.366284239934128763e-08
-4.635844902247358879e-08
-4.764547102899391337e-08
-4.713087789179692871e-08
-4.416951832237932657e-08
-3.911358179999259284e-08
-3.275635881828300849e-08
-2.677686837411445796e-08
-2.253363086841590655e-08
-1.950367488133320147e-08
-1.542872045550283866e-08
-1.067387734829988570e-08
-8.437717029755053106e-09
-6.122312639553064285e-09
-4.408800559646481130e-09
-3.050772948647865664e-09
-2.209831433427882749e-09
-1.561344952564424956e-09
-1.107021561974477113e-09
-7.962859391369996296e-10
-5.810650083671566811e-10
-4.320116816795912451e-10
-3.271812137961884786e-10
-2.514879723996227101e-10
-1.952466231807181228e-10
-1.520475032626963750e-10
-1.179173451988846478e-10
-9.046706014483298694e-11
-6.829237437046446111e-11
