# bin_9_7
-3.189747893038266217e-09
-3.491956493277715465e-09
-3.732356717275108235e-09
-3.869678187953235275e-09
-3.869931133697268171e-09
-3.680732439672684713e-09
-3.305114818581471215e-09
-2.805410656041677909e-09
-2.296617785493500330e-09
-1.908569604064677056e-09
-1.651024101688898100e-09
-1.356737087747512615e-09
-9.583064352027828240e-10
-7.214281086493499416e-10
-5.596821190979257397e-10
-3.842834576875828355e-10
-2.825108008769223289e-10
-2.038121655384382734e-10
-1.449486025372746506e-10
-1.041891516640446713e-10
-7.597928559201945854e-11
-5.638902194977758968e-11
-4.260389890512676731e-11
-3.275141764140252954e-11
-2.548886904449190656e-11
-1.996383465215036912e-11
-1.562834466204427427e-11
-1.214156822253168105e-11
-9.304077081349866514e-12
-6.996781859390243431e-12
-5.142956114089465823e-12
