# bin_18_2
-6.941427891625799579e-73
-7.750776112802031550e-73
-8.488788849628336029e-73
-9.074890815566172017e-73
-9.407962781213924162e-73
-9.405938763476572333e-73
-8.939412958630888012e-73
-8.020467926370480063e-73
-6.800923375172178656e-73
-5.566633897279760018e-73
-4.631865198064771703e-73
-4.011101488745051070e-73
-3.287810078818246259e-73
-2.310014507174596728e-73
-1.744691245440609466e-73
-1.342995887821543473e-73
-9.175942466865291984e-74
-6.652526674672598511e-74
-4.757994922685116141e-74
-3.325797480096439012e-74
-2.336262845265587094e-74
-1.660100326219913526e-74
-1.197193065969811412e-74
-8.782337727793604871e-75
-6.570054897085578056e-75
-4.999217160586533214e-75
-3.854532699797421959e-75
-2.993018589631136159e-75
-2.323549574495490892e-75
-1.790733503685566012e-75
-1.361747548946343887e-75
