# bin_13_1
-7.474272262486790762e-55
-8.195482903092545499e-55
-8.777112536448884827e-55
-9.123238030169586066e-55
-9.150808631412047850e-55
-8.739504908884911937e-55
-7.878637268661101079e-55
-6.714479818120573886e-55
-5.502112629201282443e-55
-4.558826827462259448e-55
-3.939518242734153438e-55
-3.265532983060742997e-55
-2.325184218273939527e-55
-1.725936004993253123e-55
-1.358306874675468988e-55
-9.226030067811015686e-56
-6.869770070848148648e-56
-4.918875955658886409e-56
-3.489255655637714027e-56
-2.506029380444075606e-56
-1.822116281690653017e-56
-1.348125688379141846e-56
-1.015257709329398591e-56
-7.783408247692766344e-57
-6.045347607960347017e-57
-4.729682430159523027e-57
-3.702127039447418934e-57
-2.878468263731376023e-57
-2.209310262881943761e-57
-1.665196864495772994e-57
-1.227451135412834051e-57
