# bin_15_14
-1.943276404475219192e-08
-2.185236296640492231e-08
-2.414016477775646418e-08
-2.608402510549600660e-08
-2.741122516151856403e-08
-2.783028713049117002e-08
-2.705197867685086861e-08
-2.482651265817064414e-08
-2.154636042425420503e-08
-1.778752712487698377e-08
-1.459943126768464824e-08
-1.250207656328450786e-08
-1.067206865638345445e-08
-7.940290281159122086e-09
-5.575007979268835888e-09
-4.544847623462555940e-09
-3.024195997672570520e-09
-2.298166999996719826e-09
-1.571314247391713139e-09
-1.089388467461589606e-09
-7.648817462870718030e-10
-5.371049693423995281e-10
-3.798096412088201407e-10
-2.719716664964359708e-10
-1.986434907757760519e-10
-1.479093813900017076e-10
-1.120846329629172166e-10
-8.611491931664749447e-11
-6.663701874909058763e-11
-5.155721562266664487e-11
-3.959822726439241943e-11
