# bin_3_11
-2.070918414116756493e-28
-2.258528755378569586e-28
-2.402605098342328593e-28
-2.476028816777204801e-28
-2.458301792798298586e-28
-2.315387200797644483e-28
-2.060135023342043508e-28
-1.732996900033181875e-28
-1.416721026890838477e-28
-1.186379058884497633e-28
-1.026938580016953191e-28
-8.246476271715432693e-29
-5.744331061046921299e-29
-4.467684723591864546e-29
-3.336928541918901014e-29
-2.366310485803995773e-29
-1.684848842548003862e-29
-1.231826172878087192e-29
-8.821582806695673711e-30
-6.369425084833592728e-30
-4.680237515216007847e-30
-3.498229126524183990e-30
-2.662396437489904119e-30
-2.058972899969173842e-30
-1.609145672100874354e-30
-1.262988100645042466e-30
-9.885265994861068442e-31
-7.662647115616520509e-31
-5.848227060461631190e-31
-4.373672617618254729e-31
-3.193208473468372528e-31
