# bin_11_19
-7.667645499145518779e-20
-8.642203051696276114e-20
-9.573232531960786630e-20
-1.037913188849127620e-19
-1.095341781820021365e-19
-1.117394215743493503e-19
-1.093834291321470838e-19
-1.011896707958626084e-19
-8.851568072172954588e-20
-7.341499673541785415e-20
-6.011609325232584812e-20
-5.117593108841861804e-20
-4.403680537657726090e-20
-3.350841101656428799e-20
-2.323688410338721826e-20
-1.887164588426617181e-20
-1.283222652081709558e-20
-9.642116632673310200e-21
-6.512335647566056101e-21
-4.556781995599461838e-21
-3.188492971190638936e-21
-2.230678544122748109e-21
-1.567621583728801308e-21
-1.113467382935738219e-21
-8.059820252230141603e-22
-5.949302172640959004e-22
-4.473893192520784570e-22
-3.418160723987816151e-22
-2.637204133304013989e-22
-2.040030584251837277e-22
-1.570516051002343393e-22
