# bin_20_14
-4.223853569045636730e-14
-4.779934385815970454e-14
-5.320655413484748242e-14
-5.803081719595476965e-14
-6.169791552076416141e-14
-6.350073319068619198e-14
-6.291871778977473027e-14
-5.907264874521811352e-14
-5.239529584520748934e-14
-4.393681421036168735e-14
-3.592244019953189228e-14
-3.020852779374621823e-14
-2.616981725416079657e-14
-2.077285900934062968e-14
-1.434205511017961365e-14
-1.129177280911264464e-14
-8.200215974842840461e-15
-5.836643710442320068e-15
-3.991344274761846746e-15
-2.855620649410122875e-15
-1.971970173269870205e-15
-1.356787586958572757e-15
-9.423096695164842569e-16
-6.600754520176050480e-16
-4.696142366386578438e-16
-3.406131885546400213e-16
-2.519611194781383881e-16
-1.899667617922218420e-16
-1.453185157485254451e-16
-1.120656544726680140e-16
-8.646781016577007472e-17
