# bin_3_14
-9.274467517255602010e-43
-1.023829170377101424e-42
-1.105699054546043047e-42
-1.161551011388495453e-42
-1.179074703383317794e-42
-1.146104491421473423e-42
-1.052060407706766517e-42
-9.133343237791534991e-43
-7.541364307565298603e-43
-6.187188776221636006e-43
-5.292856640269010894e-43
-4.518780946082651683e-43
-3.372401151386212931e-43
-2.371483233201523147e-43
-1.933249833639959633e-43
-1.301138346315502417e-43
-9.924187920545168595e-44
-6.872427497812165376e-44
-4.859987337916431170e-44
-3.485444623469489616e-44
-2.514285018020392472e-44
-1.835668677661966950e-44
-1.361724378609452990e-44
-1.030008773832670393e-44
-7.916475951067322986e-45
-6.152212886025402165e-45
-4.805139150621658122e-45
-3.744308182153519661e-45
-2.891330636574811519e-45
-2.199465927942898783e-45
-1.640704037604703140e-45
