# bin_3_15
-8.125281603982991859e-48
-9.000114583257157650e-48
-9.760409408969415284e-48
-1.030696914972813365e-47
-1.052461243025116150e-47
-1.031941627722425271e-47
-9.567062705971923755e-48
-8.386493058298390211e-48
-6.966647696284405165e-48
-5.700595356794559353e-48
-4.840100785506356628e-48
-4.169856896074756218e-48
-3.199496070024202632e-48
-2.219143322586732135e-48
-1.796169286001264214e-48
-1.244148635381955032e-48
-9.320161450484309007e-49
-6.381717680873575345e-49
-4.565465698772018704e-49
-3.256532627740249882e-49
-2.335090562278479945e-49
-1.693132463126796318e-49
-1.246017539066525668e-49
-9.350307942447506220e-50
-7.138983953005683567e-50
-5.521637519720952171e-50
-4.302509779661187562e-50
-3.353188632312137161e-50
-2.595596011932205828e-50
-1.983044873784541427e-50
-1.487978508059234271e-50
