# bin_9_10
-2.215737984083597764e-08
-2.446287251790479036e-08
-2.642282624197969595e-08
-2.776250871845020971e-08
-2.818717426867241086e-08
-2.740731541395103941e-08
-2.516733321283960332e-08
-2.185640622304891569e-08
-1.805073903266648420e-08
-1.480806970716285640e-08
-1.266414344863492072e-08
-1.081548917283253656e-08
-8.079969149768382298e-09
-5.679135886569287008e-09
-4.628174617455751315e-09
-3.118513308258775999e-09
-2.376883978130299376e-09
-1.645156537720490851e-09
-1.163969669858210326e-09
-8.345858390249637348e-10
-6.019119553486596944e-10
-4.393394066455086258e-10
-3.258106260770585141e-10
-2.463703818495144163e-10
-1.893095503385818548e-10
-1.470940202410849691e-10
-1.148763981291360994e-10
-8.951526755389332741e-11
-6.912888425493901648e-11
-5.259510290152529357e-11
-3.924185943322583443e-11
