# bin_15_8
-2.914941911733880014e-19
-3.250546460879449479e-19
-3.554332483674818191e-19
-3.792116223790532447e-19
-3.921169866427542772e-19
-3.908425906154641099e-19
-3.699132622767961194e-19
-3.305984032052774707e-19
-2.792346254937942548e-19
-2.284034446810830394e-19
-1.906718745520592524e-19
-1.651864291074238997e-19
-1.340967437535041995e-19
-9.358082815686527771e-20
-7.170278140815300895e-20
-5.429370849148555166e-20
-3.761088434744997970e-20
-2.684745385549738089e-20
-1.934164938738547437e-20
-1.355943349442646777e-20
-9.539193127633022730e-21
-6.803615729337027709e-21
-4.924412245217532199e-21
-3.627406584203562456e-21
-2.724172181916974683e-21
-2.079640687808719387e-21
-1.607218193846398547e-21
-1.249402104158454928e-21
-9.698498838908062434e-22
-7.465539101798670257e-22
-5.665203888950310623e-22
