# bin_8_13
-3.419587420005653932e-14
-3.795879133695539116e-14
-4.127374634417277251e-14
-4.372774459238772815e-14
-4.482423506161054131e-14
-4.418648007643063325e-14
-4.123155304293186413e-14
-3.636509993590127674e-14
-3.035043331543682050e-14
-2.481426614779734644e-14
-2.095679313473127662e-14
-1.811561524817753092e-14
-1.415770154359695191e-14
-9.789225402145457861e-15
-7.825773944289095352e-15
-5.569618084221722767e-15
-4.081090534515127552e-15
-2.801556520455960761e-15
-2.022749318796292238e-15
-1.434621519899456869e-15
-1.021905355912907628e-15
-7.375284312822507657e-16
-5.400310620392216388e-16
-4.030458550192241149e-16
-3.062800253792984385e-16
-2.360478340747866124e-16
-1.835584163378042203e-16
-1.430105092059731775e-16
-1.108369659211102772e-16
-8.489829349535539962e-17
-6.393664519632504334e-17
