# bin_10_10
-3.871041694412283570e-08
-4.284139524676234630e-08
-4.641134700572766251e-08
-4.894573434489538658e-08
-4.990362415950681310e-08
-4.882417549945159481e-08
-4.514952242870256896e-08
-3.948127818822067739e-08
-3.274304004468345325e-08
-2.680725224798082063e-08
-2.280629058137269582e-08
-1.960986584449743838e-08
-1.493982705294621425e-08
-1.038969054847414511e-08
-8.434574609930457915e-09
-5.791146629290333923e-09
-4.365196447311930485e-09
-2.994613200180434611e-09
-2.134648353812712179e-09
-1.525333922157868373e-09
-1.095864076394588084e-09
-7.959912706844241592e-10
-5.869664473696252052e-10
-4.413771860481901945e-10
-3.375807457128508063e-10
-2.614350414399943292e-10
-2.038477874278356695e-10
-1.588721234198967643e-10
-1.229068506316585315e-10
-9.380049100718717289e-11
-7.027931224271313722e-11
