# bin_12_7
-1.385862388324676103e-14
-1.531229188513395157e-14
-1.655464601384581134e-14
-1.741447298385923791e-14
-1.770414492651133175e-14
-1.724824787900061003e-14
-1.587296757180132610e-14
-1.381459819618477404e-14
-1.142280320837879181e-14
-9.363734917253486398e-15
-7.995695808771835970e-15
-6.845322018764502027e-15
-5.144756682585867321e-15
-3.601119574919587964e-15
-2.934840774047369241e-15
-1.985781651691846114e-15
-1.510773730833943332e-15
-1.042155926037161089e-15
-7.384406978878294591e-16
-5.291284547087563635e-16
-3.812946782136632573e-16
-2.778897181042297033e-16
-2.057144678656713481e-16
-1.552914363440282931e-16
-1.191582600481840829e-16
-9.249610259184685176e-17
-7.220514712393118961e-17
-5.627035960784338672e-17
-4.348085494412126570e-17
-3.311423661946804494e-17
-2.473971446043619203e-17
