# bin_8_3
-1.252814502447718260e-16
-1.344567993728538340e-16
-1.401889191353950504e-16
-1.411370011215330740e-16
-1.355719911070513915e-16
-1.229399710614314161e-16
-1.054272165710935204e-16
-8.657364037052994423e-17
-7.142769536936948051e-17
-6.150382783477892543e-17
-5.156893550132270741e-17
-3.737275698429598861e-17
-2.720825894555094704e-17
-2.181857405103916418e-17
-1.480104793895439763e-17
-1.123739863795552052e-17
-8.032053188564756757e-18
-5.767513960353754910e-18
-4.214676798762828826e-18
-3.119024507677028415e-18
-2.349696795340746528e-18
-1.801045311085002145e-18
-1.402710769420085712e-18
-1.103347684257567381e-18
-8.706908598442233890e-19
-6.845477110883578011e-19
-5.325015092803675904e-19
-4.074403007511363712e-19
-3.051365979768323980e-19
-2.228301501980710286e-19
-1.583660887473271786e-19
