# bin_13_18
-1.105569344484417768e-12
-1.246889205587218603e-12
-1.382277491651827104e-12
-1.500055831985854893e-12
-1.584915316185170000e-12
-1.619025027949655761e-12
-1.587968523347440462e-12
-1.472401595716611383e-12
-1.290829352355648919e-12
-1.072249355245280934e-12
-8.776179623034611854e-13
-7.457218332391619965e-13
-6.427550662506612184e-13
-4.922962955794866433e-13
-3.406703675427836266e-13
-2.758248011523114387e-13
-1.892545853391447101e-13
-1.413226415475040221e-13
-9.527489060137199063e-14
-6.695731167750586544e-14
-4.676241757552401381e-14
-3.264719397777579284e-14
-2.290276321594833155e-14
-1.623177152398850953e-14
-1.171898583005383256e-14
-8.628162268869175536e-15
-6.473350937495031352e-15
-4.937047196064065030e-15
-3.805143518041031474e-15
-2.942855295327868655e-15
-2.266790012871103340e-15
