# bin_9_18
-2.417385311187368833e-24
-2.714813700539292762e-24
-2.994293655143634234e-24
-3.229089984814872338e-24
-3.385069042932926965e-24
-3.427447931078510894e-24
-3.317823260975278378e-24
-3.031364033306753515e-24
-2.619052715306054066e-24
-2.157287028317166820e-24
-1.773974525603643464e-24
-1.523714474556410699e-24
-1.292987665379075179e-24
-9.500235377388382150e-25
-6.742810368326226182e-25
-5.477661629471253671e-25
-3.627902722124359668e-25
-2.755852975643634554e-25
-1.899793654214374886e-25
-1.315769681616257419e-25
-9.240276152344178702e-26
-6.494265666632611240e-26
-4.608636122299723512e-26
-3.315586523334406660e-26
-2.433545772877570488e-26
-1.820411172178598142e-26
-1.384924305219472349e-26
-1.066909949257977477e-26
-8.266048079750536935e-27
-6.393777553402475034e-27
-4.902944197003022515e-27
