# bin_7_13
-3.900466881478477313e-17
-4.321416397067256573e-17
-4.687797996681268665e-17
-4.952046011728937278e-17
-5.058686839560267552e-17
-4.962937666827918454e-17
-4.604282507608641837e-17
-4.038772326758055515e-17
-3.356579767102264784e-17
-2.746256301716011757e-17
-2.330420463090027344e-17
-2.008615009198450956e-17
-1.544194669424675261e-17
-1.070454357468282688e-17
-8.655185308816918913e-18
-6.011181958433026444e-18
-4.494068254110817663e-18
-3.076464862469933839e-18
-2.203251551293703823e-18
-1.570682784166523757e-18
-1.125551814885193298e-18
-8.157246954333707504e-19
-5.999887555455746704e-19
-4.499866384727917868e-19
-3.434003228472447963e-19
-2.655073893298660203e-19
-2.068457517182107305e-19
-1.612039958565402385e-19
-1.248010887154112192e-19
-9.537552259882158021e-20
-7.159331556383316033e-20
