# bin_13_3
-8.354110009663096064e-38
-9.188286880464223708e-38
-9.877824099021169463e-38
-1.031724105732029936e-37
-1.040559686785531265e-37
-1.001752906811765520e-37
-9.102368615271551936e-38
-7.820863314467464221e-38
-6.426409459305538501e-38
-5.297609694139091061e-38
-4.561448696003254141e-38
-3.837838807301023099e-38
-2.785810016578462437e-38
-2.012743700841331815e-38
-1.620543787012561740e-38
-1.086090539749719926e-38
-8.241050688561618931e-39
-5.811055275167814180e-39
-4.106132914129805075e-39
-2.947797669564114908e-39
-2.133744017765130219e-39
-1.569238084223996324e-39
-1.174027513285315275e-39
-8.949600211678846641e-40
-6.921234883801765308e-40
-5.400921243597640402e-40
-4.224985150104870734e-40
-3.289180102075770133e-40
-2.531919404169527679e-40
-1.916516384737718676e-40
-1.420372448125269306e-40
