# bin_18_11
-2.150934491413364102e-17
-2.420676519755191262e-17
-2.676657840956437825e-17
-2.895594855131827725e-17
-3.047413081891764689e-17
-3.099086244258394028e-17
-3.019873489810795449e-17
-2.779014260308422911e-17
-2.418434170612498710e-17
-1.999509395000849378e-17
-1.639572211568607714e-17
-1.401308735062483088e-17
-1.199960120122758700e-17
-8.996705119620598075e-18
-6.283719167996413001e-18
-5.123074348721057330e-18
-3.427667281505313123e-18
-2.599508010067101078e-18
-1.768866621234048336e-18
-1.228731136685332724e-18
-8.621994450830743344e-19
-6.049816931257070810e-19
-4.268934881225361591e-19
-3.048248484751180417e-19
-2.219607620388151836e-19
-1.647891511336125264e-19
-1.245599708987047310e-19
-9.552779718716358489e-20
-7.385453252412086095e-20
-5.714360334774408562e-20
-4.392746353812841913e-20
