# bin_19_3
-2.408053003108069140e-68
-2.696912791439694697e-68
-2.964594988317207031e-68
-3.183824325871019246e-68
-3.320143881585987432e-68
-3.341882864132555166e-68
-3.206738629208548972e-68
-2.903686120201744822e-68
-2.485754293969902614e-68
-2.039814710040921642e-68
-1.685860731938456048e-68
-1.455551840693098840e-68
-1.216700610772017294e-68
-8.725954688768179624e-69
-6.375311477374903506e-69
-5.073297321635599294e-69
-3.384871180134971335e-69
-2.531720646065236963e-69
-1.775600610204593642e-69
-1.233739770497382355e-69
-8.659630182407254877e-70
-6.107863235720489267e-70
-4.367064083368360197e-70
-3.171792957455759204e-70
-2.350191070226157165e-70
-1.773356569952545402e-70
-1.358640032932992544e-70
-1.051286973594029942e-70
-8.157186993015519051e-71
-6.301002281346803255e-71
-4.813512795290505901e-71
