# bin_17_2
-1.737455073088207870e-67
-1.934670056652609520e-67
-2.111698172406579069e-67
-2.247949159262681252e-67
-2.317886497128896361e-67
-2.302388821599582102e-67
-2.169176141856256648e-67
-1.930390966130569574e-67
-1.623841704934365666e-67
-1.327630182040948351e-67
-1.112409025162250070e-67
-9.636302820980213399e-68
-7.732962597340843371e-68
-5.367518187643414381e-68
-4.175832296663239952e-68
-3.101647379599924133e-68
-2.186050050600839164e-68
-1.535371713355121954e-68
-1.111591808205017273e-68
-7.819776191554113374e-69
-5.517356108414454568e-69
-3.951160791103882125e-69
-2.870866918731346462e-69
-2.124026633954532094e-69
-1.601563972417389413e-69
-1.226703985363759945e-69
-9.501943283637145496e-70
-7.393631012769299309e-70
-5.737480129550474982e-70
-4.410021781871423322e-70
-3.338566174416025914e-70
