# bin_5_19
-2.170706557767421462e-51
-2.434027668553811630e-51
-2.679564520220420025e-51
-2.882977779036329902e-51
-3.013396438599866559e-51
-3.041109924404042065e-51
-2.929386598917138496e-51
-2.662838230722199618e-51
-2.288692629114390667e-51
-1.880894113374317325e-51
-1.550861041350979562e-51
-1.336269567090372784e-51
-1.124794059586031794e-51
-8.148635702994642396e-52
-5.875275129517246747e-52
-4.726001224581467609e-52
-3.135789923140052896e-52
-2.366286678471729451e-52
-1.646955091588535524e-52
-1.142175723358683486e-52
-8.018613301981499901e-53
-5.644242361228468245e-53
-4.022115670353032502e-53
-2.909228355972003004e-53
-2.146907867632848468e-53
-1.614046785975765366e-53
-1.232986980550365469e-53
-9.523788138737681447e-54
-7.385992359449618913e-54
-5.709324939983952063e-54
-4.369048935192800858e-54
