# bin_11_6
-5.117019783561667259e-15
-5.623106048004306449e-15
-6.038623591949568400e-15
-6.298679657419908224e-15
-6.342861403467979693e-15
-6.092541037905635832e-15
-5.523347288003016568e-15
-4.734604931026694540e-15
-3.886948538267937602e-15
-3.208531072194138806e-15
-2.766028374436186911e-15
-2.317986413484724299e-15
-1.672706507080454934e-15
-1.217647596696204394e-15
-9.748719862474934340e-16
-6.550691002500347661e-16
-4.949240471252581594e-16
-3.504921184695431009e-16
-2.478842526544179152e-16
-1.779642429637428157e-16
-1.289541592690428119e-16
-9.499871212491383482e-17
-7.120888506117997787e-17
-5.437303579835575075e-17
-4.210380565829377729e-17
-3.288157084593246333e-17
-2.572813249218626935e-17
-2.002312832634543134e-17
-1.540092718552825830e-17
-1.164370208715593480e-17
-8.616226812929313420e-18
