# bin_4_14
-1.485614704718349990e-35
-1.642362573429758088e-35
-1.776837181757816377e-35
-1.870733235424020714e-35
-1.903695416711230985e-35
-1.857341239806321216e-35
-1.712015326284299899e-35
-1.492387517031480404e-35
-1.235163682954273821e-35
-1.012023183448888452e-35
-8.631359765308136831e-36
-7.401621868848500308e-36
-5.587936473637313739e-36
-3.901199156638934404e-36
-3.177193723678750978e-36
-2.158542535048217099e-36
-1.638515468342895719e-36
-1.127678471514306053e-36
-8.003290086694072417e-37
-5.730708964235400200e-37
-4.126364537121415154e-37
-3.003943674903885202e-37
-2.220819028910689154e-37
-1.674316154062016870e-37
-1.283369586581362380e-37
-9.954592108012164789e-38
-7.768062326809515270e-38
-6.054049624814834164e-38
-4.679988905245892037e-38
-3.566763202117251110e-38
-2.667325318885671618e-38
