# bin_5_3
-2.378184008052937221e-09
-2.499005903316012778e-09
-2.538967216395601834e-09
-2.472855673683790153e-09
-2.276641021150494188e-09
-1.982583687017887013e-09
-1.640880604781735295e-09
-1.344870378489401076e-09
-1.145648112638666166e-09
-9.795908041177350457e-10
-7.413735050791628344e-10
-5.223373481360639439e-10
-4.231385017112086299e-10
-2.939051853478203765e-10
-2.230754572367560499e-10
-1.576894090952320519e-10
-1.151666846337294854e-10
-8.495690812417800327e-11
-6.346743908793507953e-11
-4.822410298000403898e-11
-3.726701948028335461e-11
-2.924556940602345552e-11
-2.316025106556126276e-11
-1.837853087008344659e-11
-1.451092796106408138e-11
-1.132180213296572678e-11
-8.677238036367289211e-12
-6.500622493457079762e-12
-4.743693673396857790e-12
-3.366563783940476136e-12
-2.325071738398730626e-12
