# bin_6_8
-2.949224618416506420e-09
-3.205560447821265390e-09
-3.395742328534031578e-09
-3.481487603452116070e-09
-3.433470092091714695e-09
-3.206624391603857454e-09
-2.830667413541222188e-09
-2.364753864069630549e-09
-1.933142590625974682e-09
-1.630022107822340758e-09
-1.408338939128980419e-09
-1.105633552906440252e-09
-7.673846199628542091e-10
-6.109636409528461081e-10
-4.405159325583192532e-10
-3.223810728779315820e-10
-2.252421351128195390e-10
-1.646407775313772476e-10
-1.186991821286016606e-10
-8.630639681440599463e-11
-6.380443907139481062e-11
-4.796063097814098082e-11
-3.671111430700043147e-11
-2.851867745750691241e-11
-2.235372715665366342e-11
-1.756518688197908925e-11
-1.373836742804818911e-11
-1.062455660892391503e-11
-8.078325301320812441e-12
-6.011592054248708412e-12
-4.363387290538787829e-12
