# bin_20_16
2.875368600025865949e-13
3.258982295516480978e-13
3.634622731272851044e-13
3.973523318508037870e-13
4.237047672835242665e-13
4.376977033547915010e-13
4.356894398503159876e-13
4.115011780236039208e-13
3.670280233803648339e-13
3.093612314029368403e-13
2.530257315547127519e-13
2.117430528520981616e-13
1.835344692922610488e-13
1.480410268688504648e-13
1.027526511772828443e-13
7.935460146457752539e-14
5.921131872710483170e-14
4.111572657700166776e-14
2.871372873404624498e-14
2.049408408695675879e-14
1.409195669130432405e-14
9.648198607593210153e-15
6.665376539729195175e-15
4.643919647170100340e-15
3.280615095875835723e-15
2.361745011240618945e-15
1.734200761664700350e-15
1.299102250150471014e-15
9.891307483687177139e-16
7.609274442502204352e-16
5.870567249243029941e-16
