# bin_10_1
3.560878704003349288e-40
3.840545627673057098e-40
4.029277472159487348e-40
4.085085275113335028e-40
3.964929157515445049e-40
3.634728454435595211e-40
3.151507322542427218e-40
2.600821512563553369e-40
2.134413624254110814e-40
1.825776967031084152e-40
1.555630163643148342e-40
1.160112262242094661e-40
8.203056926568996142e-41
6.675773368065178452e-41
4.538426249448952267e-41
3.468841740146537489e-41
2.436032450743164817e-41
1.750677436271941945e-41
1.277283950836051197e-41
9.413187294770168568e-42
7.044677899803897088e-42
5.362243390864134151e-42
4.152586566622627258e-42
3.253858725823499087e-42
2.563274691793209400e-42
2.016234265799763240e-42
1.572398627818062550e-42
1.208353560689297307e-42
9.102747092972113953e-43
6.694642188376601267e-43
4.794538381289427076e-43
