# bin_17_13
1.172012583936542727e-13
1.319837199204681752e-13
1.460523742065027651e-13
1.581475935145379818e-13
1.666354283286693920e-13
1.696861109922123718e-13
1.656744747723434752e-13
1.528020553756865925e-13
1.332700755337942698e-13
1.103297121913361141e-13
9.041132608098433840e-14
7.714359168919643649e-14
6.620493834349031393e-14
4.995133708640832437e-14
3.477207907682093252e-14
2.831378951493734690e-14
1.906545190983411306e-14
1.441088654497932158e-14
9.772961920544357215e-15
6.808309100609083993e-15
4.773372210738286336e-15
3.346544530485367691e-15
2.357955094320243938e-15
1.680424875871444297e-15
1.220948823135803612e-15
9.045515292689994750e-16
6.824550577039863671e-16
5.226821201746096855e-16
4.038093941720028758e-16
3.124309952033826383e-16
2.403145151859715225e-16
