# bin_12_3
1.710782502250784641e-35
1.873392443045295088e-35
2.003060464509514432e-35
2.077675589460229995e-35
2.078899954012496451e-35
1.978671091017647075e-35
1.777925499531910312e-35
1.510115862502412767e-35
1.236377815973822435e-35
1.026910217075757776e-35
8.882591931084386507e-36
7.310931750687827310e-36
5.169712428775600513e-36
3.882866094967691073e-36
3.020365948143985913e-36
2.069487669889743400e-36
1.524991911747777917e-36
1.099157092873812067e-36
7.814774824801326044e-37
5.617116130052004332e-37
4.095119286188327045e-37
3.038511719049859392e-37
2.295103566195766490e-37
1.763979501345851332e-37
1.372637033563607295e-37
1.075044762083229031e-37
8.416156122264266677e-38
6.539275457756955455e-38
5.012023188467367522e-38
3.770045468320087922e-38
2.771959802421871251e-38
