# bin_2_1
2.595982997293082867e-10
2.561598494286012893e-10
2.398238904172205583e-10
2.123292259275568250e-10
1.781333523547632689e-10
1.458158705009645938e-10
1.224092640509544635e-10
1.053269182209675530e-10
8.367195892152822546e-11
5.917336217328290295e-11
4.615403498170044471e-11
3.440193307537445187e-11
2.499321830595365733e-11
1.827607431913025384e-11
1.357538751558223587e-11
1.010924589284398017e-11
7.660318348015589343e-12
5.918999434451068203e-12
4.654061290944082397e-12
3.708250327522429786e-12
2.974445748655222916e-12
2.383406169981165293e-12
1.893941245678074014e-12
1.482511907153942409e-12
1.136517611986076404e-12
8.494988897919007152e-13
6.175997060031067273e-13
4.365273773860537296e-13
3.004968339651765585e-13
2.020374678043395409e-13
1.331324978913887484e-13
