# bin_5_5
3.049685859991730061e-10
3.246200011808738523e-10
3.349364317556358455e-10
3.330796363763314273e-10
3.145402709931957044e-10
2.806036138511443231e-10
2.367243248685457690e-10
1.936193641554148493e-10
1.616832600873720628e-10
1.397833446787247235e-10
1.130985065239676387e-10
7.946529865935804604e-11
6.113106781801151119e-11
4.640559465576159674e-11
3.276689039817438832e-11
2.382933223732080178e-11
1.747615877969756902e-11
1.267185946044168078e-11
9.307651158161716065e-12
6.961914098220414729e-12
5.303358986567275860e-12
4.109119542761033788e-12
3.226428342505385669e-12
2.550355094009205451e-12
2.015469507074172805e-12
1.581264348587941460e-12
1.223575611992915479e-12
9.286811175993825557e-13
6.883457651884109722e-13
4.967326349602865774e-13
3.487045932969658858e-13
