# bin_8_1
1.509499912109665981e-29
1.604592194723716873e-29
1.652731181095000637e-29
1.640126308989858661e-29
1.544455467427142283e-29
1.374139397966159271e-29
1.156207987133478964e-29
9.452770052428652712e-30
7.910987747104336555e-30
6.841017108263422840e-30
5.497964062302282528e-30
3.847419057585110812e-30
2.987775194150812877e-30
2.243584535934810836e-30
1.598767464123050277e-30
1.152756261134356647e-30
8.483786703402304012e-31
6.163642761802518640e-31
4.533385766731340788e-31
3.397493150714143799e-31
2.592713881385518921e-31
2.012240054284935306e-31
1.581906505003254130e-31
1.251287076414848145e-31
9.889776974516366374e-32
7.755772088631726919e-32
5.995771941003198731e-32
4.544453922836019468e-32
3.362542956975359668e-32
2.421763793539595805e-32
1.696661917260510068e-32
