# bin_13_3
2.545098336252707517e-40
2.798384728568926923e-40
3.007261618815472243e-40
3.139545350238562219e-40
3.164730152682092257e-40
3.044294083692447269e-40
2.763956743652194838e-40
2.372861964808133071e-40
1.949144893574643146e-40
1.607512853091604898e-40
1.384733269289104597e-40
1.163467835293261630e-40
8.427867639016102087e-41
6.105065753772592967e-41
4.906370774869100572e-41
3.291080552335287212e-41
2.493916879241617058e-41
1.761399736114205612e-41
1.245172637063503845e-41
8.940980034930247153e-42
6.475657350022887891e-42
4.766485525418566716e-42
3.569368365583143749e-42
2.723163768271081392e-42
2.107329121589916746e-42
1.645105286988959632e-42
1.287093172472511604e-42
1.001885836028428336e-42
7.709506188614031163e-43
5.832466645323794062e-43
4.319503044580541001e-43
