# bin_13_8
1.259937402916715766e-16
1.398254618877195684e-16
1.519928857165505904e-16
1.609724680147681072e-16
1.649383461104221818e-16
1.624973312186208044e-16
1.515226165917439781e-16
1.335499902149176817e-16
1.114011305401761676e-16
9.108606072311424112e-17
7.697154349732768148e-17
6.651712078134024556e-17
5.188020631302687206e-17
3.587753557891849001e-17
2.872761097303071957e-17
2.038257617105995197e-17
1.497570518169562853e-17
1.027310262653995522e-17
7.411344931434086346e-18
5.260176734627188019e-18
3.750107181419843054e-18
2.708172165060698597e-18
1.984242527241174213e-18
1.481936236017236316e-18
1.126809913523711884e-18
8.688064044813456872e-19
6.757712564951795484e-19
5.264996467697815213e-19
4.079706374185649521e-19
3.123776802577381711e-19
2.351287904483259760e-19
