# bin_20_4
6.459118575388416383e-67
7.252497945434604827e-67
7.997331661635793854e-67
8.622063250108372371e-67
9.035412816738613561e-67
9.144989738234357007e-67
8.847332538695879507e-67
8.078526028110469659e-67
6.975393883527924356e-67
5.743921872810453225e-67
4.724736541457754670e-67
4.059768914279990671e-67
3.441866729757991791e-67
2.524642048136530400e-67
1.795058661364850082e-67
1.456871467498275212e-67
9.649119054439590069e-68
7.326024427168491517e-68
5.056553719070744057e-68
3.502921985212192853e-68
2.460375517998121998e-68
1.729848036398737686e-68
1.228520867215070599e-68
8.846753810178218719e-69
6.499581432202300134e-69
4.866410708587429026e-69
3.705024833333993689e-69
2.855681381294620893e-69
2.212948635700513220e-69
1.711582713844554383e-69
1.312066704575503339e-69
