# bin_2_2
6.292533179013751402e-10
6.315249345908913255e-10
6.046461831170608951e-10
5.470827058719583712e-10
4.683553021243317223e-10
3.848435661813001957e-10
3.180831720788785966e-10
2.732392229537006868e-10
2.276444142957155476e-10
1.658467673483264563e-10
1.219086852834489263e-10
9.664052407999695426e-11
6.737899616426537081e-11
5.092997665726120784e-11
3.705391496428879910e-11
2.731313408950169539e-11
2.049930080600043982e-11
1.565401456697598341e-11
1.217644781694325502e-11
9.617863757678450367e-12
7.677462613719057203e-12
6.146833128835673011e-12
4.899464617054443976e-12
3.860753049453289582e-12
2.988573628626008142e-12
2.260886693037475165e-12
1.665514259629825724e-12
1.192821525675027880e-12
8.310985436935970565e-13
5.646585688818583865e-13
3.753227661957221506e-13
