# bin_12_4
2.553339356576748174e-29
2.801892660501446438e-29
3.003640994556923733e-29
3.125955621701587548e-29
3.139845514117000957e-29
3.004781941530554528e-29
2.714100264284422819e-29
2.317731397846993343e-29
1.900341927956571702e-29
1.572367027150646225e-29
1.357784124344165821e-29
1.130006435304653477e-29
8.081872592793502437e-30
5.957764803081833303e-30
4.719466689678054044e-30
3.191592175087946800e-30
2.390301082049727941e-30
1.705087721467073127e-30
1.208349649408938841e-30
8.678675181150626447e-31
6.303547133361882056e-31
4.658061497491521576e-31
3.503274183696156469e-31
2.682754434345350739e-31
2.081974967663625989e-31
1.628121255398315675e-31
1.274347700167930381e-31
9.911689841943052512e-32
7.612710865736530242e-32
5.743327700952876937e-32
4.238547105462855936e-32
