# bin_18_13
3.623416235590365264e-15
4.086005801505981492e-15
4.528906643288183153e-15
4.913781485310985214e-15
5.190424568175552875e-15
5.300547089017971758e-15
5.196667898453411844e-15
4.816042800808541750e-15
4.220109179366804234e-15
3.504315067289410638e-15
2.868485384446229740e-15
2.438370531228619821e-15
2.100959442099877351e-15
1.606862413033274313e-15
1.112439322513650953e-15
9.013391915139778230e-16
6.172214920533357404e-16
4.615763545683609149e-16
3.113100407109871862e-16
2.185954247605189155e-16
1.527544130759928163e-16
1.067175539031778879e-16
7.491182307018471618e-17
5.313261966868642221e-17
3.839416029201436354e-17
2.829243362870840094e-17
2.124326139589802415e-17
1.621135615860122434e-17
1.249903458246082643e-17
9.667430953756591786e-18
7.445264909361122400e-18
