# bin_12_2
6.902757578147806047e-43
7.543895668491930322e-43
8.046142064233171400e-43
8.319503785321470168e-43
8.293405909228327883e-43
7.853234352265471979e-43
7.022546476611253516e-43
5.935889978285222189e-43
4.855375465784648416e-43
4.048564523732819981e-43
3.504506668836592814e-43
2.851453713713399804e-43
1.999127467447658129e-43
1.527869066267253381e-43
1.166029249756709602e-43
8.114559354845851441e-44
5.878632919593787177e-44
4.273289616746077078e-44
3.048647735482447687e-44
2.194933065965739797e-44
1.606440308523205504e-44
1.196413326729445073e-44
9.071872089535421658e-45
6.994774698860413173e-45
5.455357096347851207e-45
4.277659555140040466e-45
3.348758689912916185e-45
2.599063119410683967e-45
1.987936913295045911e-45
1.491058817747008774e-45
1.092469804151570292e-45
