# bin_17_3
1.075427105920202638e-60
1.198106251993115683e-60
1.308553475662189769e-60
1.394069271588073209e-60
1.438853192278969754e-60
1.430969741450942760e-60
1.350316551962534274e-60
1.203454059931650884e-60
1.013753303425059815e-60
8.289358944764245446e-61
6.936606024322503838e-61
6.009434480907388003e-61
4.842357606299486971e-61
3.366612426729479485e-61
2.605607830930920184e-61
1.948646662554545914e-61
1.364944935444206564e-61
9.639175143932897072e-62
6.970120920991929953e-62
4.897664131267837148e-62
3.451912188492428291e-62
2.468839417502343552e-62
1.791657355768135359e-62
1.323712934220425738e-62
9.968303518648595969e-63
7.627035324479268782e-63
5.903513591900892856e-63
4.592153195221844343e-63
3.563803183310532335e-63
2.740452358945379550e-63
2.076132154934065677e-63
