# bin_6_6
2.552815750920836659e-10
2.747897489598594766e-10
2.875799582087733996e-10
2.907525779906527875e-10
2.810415079602334578e-10
2.565208218117415308e-10
2.214464524357047365e-10
1.823742949405762144e-10
1.499669572353785808e-10
1.286328461971551394e-10
1.089380445690742142e-10
8.031740253824342585e-11
5.741279290041050638e-11
4.650874593148556309e-11
3.154410808621498813e-11
2.407998554588932809e-11
1.702658716010385692e-11
1.222705564342781670e-11
8.928322979620521615e-12
6.591202263096555266e-12
4.946199499145968917e-12
3.775810863211234303e-12
2.931035069549568391e-12
2.300443703130247283e-12
1.813614988949913959e-12
1.426365945363608434e-12
1.111270608411928737e-12
8.524990583348083787e-13
6.406805041773791611e-13
4.698361946442758142e-13
3.354343308110003872e-13
