# bin_18_9
7.564913671260097491e-27
8.494327057799021694e-27
9.366977297143590864e-27
1.009907494110163328e-26
1.058372503267837456e-26
1.071263718717534252e-26
1.036475146350182118e-26
9.464814032984238872e-27
8.173022216337003201e-27
6.730318995965810819e-27
5.535859193382358872e-27
4.756524897837353687e-27
4.033113650886125360e-27
2.958925632220937660e-27
2.103277360285574093e-27
1.707383458096639647e-27
1.130707263832565698e-27
8.586220015270750369e-28
5.925548953066061869e-28
4.104718103008507437e-28
2.883090775432107841e-28
2.026992058484688450e-28
1.439458258208142823e-28
1.036489970627742268e-28
7.614326021573424347e-29
5.700628129629018902e-29
4.339893937410188078e-29
3.344889646183543945e-29
2.592021551729794616e-29
2.004801102029893247e-29
1.536896382070517311e-29
