# bin_4_6
-3.307304982247611324e-13
-3.524032225099403191e-13
-3.640760266254394660e-13
-3.626212896933638655e-13
-3.431585691089881622e-13
-3.067596740405627917e-13
-2.593074200037339427e-13
-2.121727246923351861e-13
-1.768927241513842564e-13
-1.528913190841057889e-13
-1.243119590868170677e-13
-8.764482862236799416e-14
-6.694666969042968910e-14
-5.122231899132983867e-14
-3.594101092608391349e-14
-2.630796822879471690e-14
-1.923418703159438808e-14
-1.392588249977846433e-14
-1.021821912389402093e-14
-7.629625753561873501e-15
-5.801665652991969806e-15
-4.486776191246447369e-15
-3.517669560687606570e-15
-2.777060452299401077e-15
-2.192634153103424492e-15
-1.719333536147325640e-15
-1.330093466147562518e-15
-1.009549731956355970e-15
-7.484577085452528837e-16
-5.403017894707088420e-16
-3.794240155348480658e-16
