# bin_8_11
-1.222008732461764841e-14
-1.350551725022116337e-14
-1.460597334382972047e-14
-1.537067393637552515e-14
-1.563390527963790902e-14
-1.524100753397526887e-14
-1.403716852155121563e-14
-1.222641757328536431e-14
-1.011542725891189425e-14
-8.290956721455737022e-15
-7.074640604792790702e-15
-6.059890402127811749e-15
-4.565680017527800312e-15
-3.194163390454445019e-15
-2.599285947954675779e-15
-1.765693808350626157e-15
-1.339735588457274779e-15
-9.238321759868587491e-16
-6.558881037638955290e-16
-4.697237454234627868e-16
-3.383142028994952864e-16
-2.465223900028285337e-16
-1.823674463736581717e-16
-1.375972418081730891e-16
-1.055189113404040249e-16
-8.185373070779681436e-17
-6.385775504473541569e-17
-4.973607524564382232e-17
-3.840991723210716991e-17
-2.923601436458802637e-17
-2.183014740467825117e-17
