# bin_3_8
-3.060728465114744401e-21
-3.289456477909854281e-21
-3.435693880127881552e-21
-3.465854688797084537e-21
-3.338790913538746989e-21
-3.036780963862368787e-21
-2.612121299822982986e-21
-2.147679918780629084e-21
-1.769072737548487856e-21
-1.520751055946773155e-21
-1.281373297769238609e-21
-9.358334378691950663e-22
-6.753196685541716437e-22
-5.446990917673201067e-22
-3.689973259137579925e-22
-2.812374162114192366e-22
-2.000239801307612839e-22
-1.435878628121019655e-22
-1.049066730808938177e-22
-7.754056671592917522e-23
-5.830762958259123308e-23
-4.459086883337711885e-23
-3.466668220054522297e-23
-2.722806659994190290e-23
-2.146396521914339473e-23
-1.686580055411236782e-23
-1.311796945729864346e-23
-1.003941096208735011e-23
-7.522545457440950805e-24
-5.497542698385395394e-24
-3.910346234730110131e-24
