# bin_9_11
-4.650018587217148259e-13
-5.149488202319966235e-13
-5.582860390851853905e-13
-5.893307993870834316e-13
-6.015404261121272917e-13
-5.894376590597291997e-13
-5.460974455224910420e-13
-4.783972958290640587e-13
-3.972692641834666947e-13
-3.251471432060284294e-13
-2.761886343836287769e-13
-2.377607037399896414e-13
-1.821278383240770102e-13
-1.264875413054996575e-13
-1.023721402022347701e-13
-7.084259725262183478e-14
-5.309023710608173495e-14
-3.641269218015591446e-14
-2.604273470244366566e-14
-1.858328436078979818e-14
-1.333047765211551595e-14
-9.673714293768741936e-15
-7.122799230535044747e-15
-5.348701666211546794e-15
-4.085573215297809247e-15
-3.160231092942487740e-15
-2.461917942053634449e-15
-1.917634340451467433e-15
-1.483069955032104140e-15
-1.131763908493291803e-15
-8.480449781291021376e-16
