# bin_17_8
-6.770099437318176443e-10
-7.420753234367591759e-10
-7.943891686076988036e-10
-8.252556487503975434e-10
-8.271819042002276435e-10
-7.893723068969430708e-10
-7.112408008050351918e-10
-6.058760780349696843e-10
-4.966384050926813293e-10
-4.118291731431786781e-10
-3.556310339577844818e-10
-2.941019137020985061e-10
-2.096626448212645950e-10
-1.559417044389954347e-10
-1.221797560434759148e-10
-8.345275658463017156e-11
-6.188285170495946352e-11
-4.431694554401237352e-11
-3.147490055480965684e-11
-2.262942779649885747e-11
-1.647264353576377414e-11
-1.219472901570763467e-11
-9.185821335696505234e-12
-7.043729557461241079e-12
-5.469919325253249135e-12
-4.277384949636406184e-12
-3.345505275566612306e-12
-2.598468617071411980e-12
-1.991836850044464514e-12
-1.499055047194370218e-12
-1.103184520303990586e-12
