# bin_13_1
-3.424476781489232684e-09
-3.315047051693012412e-09
-3.040042027342127993e-09
-2.639337886832213427e-09
-2.189951225774300040e-09
-1.804167224833923360e-09
-1.532418741333778217e-09
-1.291061234676972019e-09
-9.806988155745908065e-10
-7.100026137854271267e-10
-5.564207233096673279e-10
-4.027249548089698016e-10
-2.987341444209622690e-10
-2.184735426507782065e-10
-1.624542560546428984e-10
-1.221582869966826386e-10
-9.350353202199559548e-11
-7.291958972039068480e-11
-5.774915775350916611e-11
-4.621493066008586090e-11
-3.709823317333895525e-11
-2.964460787241764434e-11
-2.341586879234011828e-11
-1.816821407340554890e-11
-1.377628459502340251e-11
-1.017280561187092030e-11
-7.305046564166857684e-12
-5.103943029649494466e-12
-3.477505299754160857e-12
-2.317661328126041146e-12
-1.516093029797648547e-12
