# bin_3_11
-2.541693763065066698e-33
-2.776054683669170536e-33
-2.958563680294763943e-33
-3.056023920147556952e-33
-3.042748078096337624e-33
-2.876536819674704594e-33
-2.568450795783151173e-33
-2.167785405119832913e-33
-1.772838905871453658e-33
-1.480172950203957727e-33
-1.281313240661192266e-33
-1.038544286828084760e-33
-7.265858934696935495e-34
-5.582932431085990714e-34
-4.233902919596870365e-34
-2.963050817379446912e-34
-2.135520690438378617e-34
-1.555458306521647900e-34
-1.111018249103836708e-34
-8.005443825557515841e-35
-5.865796794127541044e-35
-4.372736134203874105e-35
-3.318383858231296667e-35
-2.560251666530024666e-35
-1.997090853337771160e-35
-1.565525609346273012e-35
-1.224687566359241367e-35
-9.494230274035200251e-36
-7.250727134213026264e-36
-5.428386080443406643e-36
-3.968893422204927796e-36
