# bin_9_19
-1.152725690595230791e-32
-1.298403962177717588e-32
-1.437173050427828186e-32
-1.556670499102925869e-32
-1.640843677722221832e-32
-1.671634235438249977e-32
-1.633105598913659644e-32
-1.507295108882477461e-32
-1.315551731377781066e-32
-1.089558790894271175e-32
-8.926687036859824749e-33
-7.612451170749564951e-33
-6.537676725453647708e-33
-4.942714257205747097e-33
-3.437169316943665964e-33
-2.797568465601645392e-33
-1.887884959133764116e-33
-1.425438248686511614e-33
-9.658137164528599654e-34
-6.735814030314917452e-34
-4.722112542365242783e-34
-3.310421611040668956e-34
-2.332457810476323318e-34
-1.661137448552743493e-34
-1.206486401258283241e-34
-8.934204323943295790e-35
-6.736701208071052976e-35
-5.156961301436406777e-35
-3.982423435309163479e-35
-3.080138536082416766e-35
-2.368484283651725702e-35
