# bin_15_6
-9.690354487705848161e-10
-1.045345351034247371e-09
-1.096975226623726796e-09
-1.112554920578148218e-09
-1.080340107348874647e-09
-9.913387964962042089e-10
-8.603296737339864917e-10
-7.108890389933705946e-10
-5.836950475890436910e-10
-4.986205891103258122e-10
-4.244179512509533431e-10
-3.178092313478213190e-10
-2.253274247758202169e-10
-1.819335164564226483e-10
-1.251860878196045744e-10
-9.469813902275304875e-11
-6.663979617372467961e-11
-4.806975802128089278e-11
-3.500682334472729267e-11
-2.576038505646309597e-11
-1.926169599840158971e-11
-1.464331435787552787e-11
-1.132620174625721225e-11
-8.864232654118486629e-12
-6.974819226485037513e-12
-5.480712044302946154e-12
-4.270507541345708412e-12
-3.279303101206077138e-12
-2.468801032386394025e-12
-1.814809920508311910e-12
-1.299301814768242698e-12
