# bin_10_5
-8.596763831110516957e-10
-9.169163175930790758e-10
-9.485356344519750685e-10
-9.461279256311208983e-10
-8.973915630293605626e-10
-8.040916215566223301e-10
-6.814905663770173111e-10
-5.582026057603733899e-10
-4.646854769864846635e-10
-4.010377385498836329e-10
-3.274631076751921103e-10
-2.325738463837465490e-10
-1.760524044576894701e-10
-1.355838759808722498e-10
-9.481776161385457953e-11
-6.983241276079491185e-11
-5.075919790308844042e-11
-3.671899084464995182e-11
-2.694140763018209938e-11
-2.008974753832760580e-11
-1.525165615195376856e-11
-1.177554328946421792e-11
-9.220338695248674486e-12
-7.273066245013357513e-12
-5.740456930204582246e-12
-4.502021722819200133e-12
-3.484987411402116249e-12
-2.647917567203754977e-12
-1.965919501507784540e-12
-1.421660744990536707e-12
-1.000270239397133761e-12
