# bin_17_18
-4.154729037723063165e-12
-4.705451628755160508e-12
-5.242819141407873013e-12
-5.724945297685980684e-12
-6.095672018959505068e-12
-6.285369460130811340e-12
-6.242173142849190059e-12
-5.878051066657369154e-12
-5.228358502520159309e-12
-4.395500680855939911e-12
-3.594276533478733678e-12
-3.015116615098502111e-12
-2.612814653665887477e-12
-2.091057096139231547e-12
-1.447245172271215129e-12
-1.128546967632614237e-12
-8.310330779223554961e-13
-5.840982259010834149e-13
-4.036622743902672367e-13
-2.886456173526218719e-13
-1.989598032969849603e-13
-1.365927610587366676e-13
-9.467222793964519094e-14
-6.617509304261051280e-14
-4.694681407985151486e-14
-3.395277554912243039e-14
-2.503967467501823770e-14
-1.882795069648794714e-14
-1.437387799169079116e-14
-1.107174020877953543e-14
-8.540274331112324091e-15
