# bin_15_3
-2.072423223719112433e-09
-2.139349838387998871e-09
-2.128621248203678888e-09
-2.013968877678656370e-09
-1.801043476934230846e-09
-1.524738636772936396e-09
-1.249798060541259852e-09
-1.041840390554343435e-09
-8.968914436261319126e-10
-7.285627215071601269e-10
-5.204479015175053812e-10
-3.950950281237745088e-10
-3.027852380359149411e-10
-2.145088935813532023e-10
-1.585519351040077485e-10
-1.159579598185891631e-10
-8.504953256300679117e-11
-6.338877080587850278e-11
-4.807879988251250905e-11
-3.712799658989192943e-11
-2.911838852188309767e-11
-2.308742356575022832e-11
-1.837051201582722072e-11
-1.456416204045750832e-11
-1.142530864270156325e-11
-8.812861707248007594e-12
-6.649280541050418752e-12
-4.889046351081580623e-12
-3.496128436328597823e-12
-2.432390623367411897e-12
-1.649830546778023637e-12
