# bin_1_6
-1.007179109296765553e-22
-1.053046181867115698e-22
-1.063834031650685306e-22
-1.027455760075353629e-22
-9.373370799115704687e-23
-8.088621927255301119e-23
-6.661688415391072327e-23
-5.478789218481184169e-23
-4.696243888769477902e-23
-3.973031612164033713e-23
-2.934481119523749481e-23
-2.105028419274758311e-23
-1.702136541521153020e-23
-1.166267569559084606e-23
-8.910825013354947121e-24
-6.363724274336674839e-24
-4.630776935673436143e-24
-3.427942972368338112e-24
-2.572370348783926048e-24
-1.964829954400529077e-24
-1.525583800576317585e-24
-1.201586480101047297e-24
-9.532946150161009137e-25
-7.564029722896238111e-25
-5.960582122109624053e-25
-4.633325570163777290e-25
-3.532413377403734504e-25
-2.629165223775494841e-25
-1.904531565453146578e-25
-1.341527271823235016e-25
-9.199316379104452393e-26
