# bin_6_16
-6.623569615543156900e-37
-7.393351401598903835e-37
-8.093870456569227621e-37
-8.648028951873330531e-37
-8.959133467008863876e-37
-8.949906952477595130e-37
-8.496217060349286752e-37
-7.614959597428221819e-37
-6.450000236391309941e-37
-5.278301064063261520e-37
-4.395790374144001392e-37
-3.807168487708022605e-37
-3.112789769905517389e-37
-2.182789849815372193e-37
-1.655109097238386347e-37
-1.268619277799546785e-37
-8.699863168358995298e-38
-6.282358814512131695e-38
-4.503702513344837645e-38
-3.151503059964580787e-38
-2.215368383701011749e-38
-1.576384131190640166e-38
-1.138443012747258292e-38
-8.363049605899633825e-39
-6.265417175809553791e-39
-4.772225594710833565e-39
-3.681639374231596449e-39
-2.858973434242693624e-39
-2.218440010443015718e-39
-1.708071756884422448e-39
-1.297095614249463075e-39
