# bin_5_5
-8.717713226233690793e-11
-9.249841860278129341e-11
-9.506603175052503955e-11
-9.406224176263033656e-11
-8.826314445555553727e-11
-7.827620822040082200e-11
-6.569592426348303213e-11
-5.373008016732080749e-11
-4.509274367782651258e-11
-3.893326392971210978e-11
-3.100582855909708251e-11
-2.171831782830081360e-11
-1.698475433605326190e-11
-1.259601281865986112e-11
-9.073271972361158237e-12
-6.517580323543410438e-12
-4.788510927129389370e-12
-3.487554493184376873e-12
-2.571738951639662922e-12
-1.930993138302274144e-12
-1.475697399959633522e-12
-1.146636326198364128e-12
-9.019293165740520076e-13
-7.132628970910915325e-13
-5.632001563711178943e-13
-4.409383795775470887e-13
-3.400948147813360274e-13
-2.570425732588823571e-13
-1.895786859001382952e-13
-1.360764078004025422e-13
-9.501657905171365598e-14
