# bin_14_2
-2.643122966710507084e-09
-2.660671029948829276e-09
-2.559248692866254011e-09
-2.328447869129539625e-09
-2.004976920263451822e-09
-1.653963104321347960e-09
-1.365087057071566414e-09
-1.166994365291866983e-09
-9.769151286347123344e-10
-7.246880463609859913e-10
-5.279440113193092520e-10
-4.168708792195621438e-10
-2.948517861214445429e-10
-2.209493701685987782e-10
-1.602198537956531949e-10
-1.183236767446174286e-10
-8.852812303268796681e-11
-6.734415303052434440e-11
-5.217937770510713633e-11
-4.106245692838491409e-11
-3.268276528446160021e-11
-2.611618328786502109e-11
-2.079645654331344033e-11
-1.638774847256337577e-11
-1.269732759219042528e-11
-9.622028857658115346e-12
-7.104441407574561500e-12
-5.101387682698068530e-12
-3.563364957218821669e-12
-2.426334598398097749e-12
-1.615548627318095645e-12
