# bin_10_18
-1.628503146378513968e-25
-1.832985499625200496e-25
-2.027142694519801001e-25
-2.193368560909418100e-25
-2.308909674818196675e-25
-2.348729954932121892e-25
-2.289528189211890030e-25
-2.107851764226719575e-25
-1.835153134528313920e-25
-1.517655294366841469e-25
-1.244286369786505602e-25
-1.063084558999824756e-25
-9.107524586625605617e-26
-6.837189007466867435e-26
-4.772311624544636197e-26
-3.889917968914824400e-26
-2.606306694586245573e-26
-1.975468840160873306e-26
-1.343623355462703922e-26
-9.341728360166726243e-27
-6.556456028755742241e-27
-4.601889815789654527e-27
-3.248654205491233598e-27
-2.319432623864726486e-27
-1.689308728428961699e-27
-1.254311713576652883e-27
-9.480303881548438082e-28
-7.269623058753831055e-28
-5.618919964837824835e-28
-4.345990021341609569e-28
-3.339337386262090250e-28
