# bin_20_16
-1.282129931629351466e-10
-1.448520896585890093e-10
-1.609136457105646581e-10
-1.750693429700002900e-10
-1.855595706011278425e-10
-1.902729635968535834e-10
-1.875909365932100359e-10
-1.750452157339349876e-10
-1.543785170605654192e-10
-1.288430702018354745e-10
-1.053792628516335087e-10
-8.906611557294057233e-11
-7.699738404891458347e-11
-6.006903366754841238e-11
-4.147634362026245251e-11
-3.314306268124949763e-11
-2.340942783160648304e-11
-1.707424832263465252e-11
-1.156491662291791252e-11
-8.216652216699081604e-12
-5.706668087542698417e-12
-3.956649763894635775e-12
-2.763761044397846731e-12
-1.948016104244758278e-12
-1.397169415145092426e-12
-1.021827022580040303e-12
-7.617365663687039121e-13
-5.779500029763836318e-13
-4.439300100051033806e-13
-3.428530551744253854e-13
-2.642421035607769072e-13
