# bin_12_1
-3.345296936263204587e-09
-3.238132008807884180e-09
-2.969240769079003347e-09
-2.577647046579594495e-09
-2.138661206463894645e-09
-1.761962834380445751e-09
-1.496640171786884292e-09
-1.260795587306398449e-09
-9.575256019628869218e-10
-6.932924398433772841e-10
-5.433326248217054931e-10
-3.932079236622002680e-10
-2.916970944891535405e-10
-2.133262914330586607e-10
-1.586301412578179763e-10
-1.192880808477018382e-10
-9.131087420358902021e-11
-7.121279652850765622e-11
-5.639947851277818902e-11
-4.513587126779724155e-11
-3.623229027115029361e-11
-2.895240113957703230e-11
-2.286858198220830774e-11
-1.774294994776680946e-11
-1.345321678604577010e-11
-9.933740314437775817e-12
-7.133005517962077907e-12
-4.983497955822120383e-12
-3.395295711041466344e-12
-2.262789025485598375e-12
-1.480154717380860996e-12
