# bin_9_3
-1.548528851561932552e-09
-1.597795719867736471e-09
-1.588866646576454419e-09
-1.502143613137252560e-09
-1.342334340723289368e-09
-1.135622100637880640e-09
-9.307300660554288299e-10
-7.762744729616388161e-10
-6.683007908597309571e-10
-5.419849511529351428e-10
-3.867827097077538406e-10
-2.942149836055372558e-10
-2.249952042295948574e-10
-1.596238725559188278e-10
-1.178495319749628715e-10
-8.624942004717147435e-11
-6.328108514356378655e-11
-4.717986727547936472e-11
-3.579999053742563767e-11
-2.765721945081138709e-11
-2.169861776851681142e-11
-1.720843596704815831e-11
-1.369391295660682105e-11
-1.085603820599435740e-11
-8.514802986301223579e-12
-6.565878289895111672e-12
-4.951957098453732234e-12
-3.639353616039364783e-12
-2.601206828444262299e-12
-1.808911624502704855e-12
-1.226430420374938854e-12
