# bin_16_18
-6.677551175689223838e-13
-7.557478115207792441e-13
-8.413433088344969633e-13
-9.177602997259211869e-13
-9.759282357684925253e-13
-1.004675875740377699e-12
-9.957344338975116819e-13
-9.351991707033813805e-13
-8.297944607424360710e-13
-6.960597143550073530e-13
-5.691109152899434942e-13
-4.784346206490246830e-13
-4.144661208962754290e-13
-3.293357108872420490e-13
-2.274859526408805906e-13
-1.788608640850694758e-13
-1.301343622941961771e-13
-9.247974175560456477e-14
-6.336189443353304511e-14
-4.532716368165128196e-14
-3.130566122604615473e-14
-2.154470621404181925e-14
-1.496846757728218454e-14
-1.048811174994515408e-14
-7.464626157138619143e-15
-5.416588454565657334e-15
-4.007731657490560729e-15
-3.022014509301109026e-15
-2.311725544687177021e-15
-1.782413904108142844e-15
-1.374806231363695601e-15
