# bin_15_17
-6.442528447914223421e-13
-7.275878490825126140e-13
-8.078930097405485249e-13
-8.784660468729805483e-13
-9.304446960911609523e-13
-9.532440497454274932e-13
-9.387225869936412082e-13
-8.746626975688163915e-13
-7.703408811416609796e-13
-6.421408528603048454e-13
-5.252116963990261298e-13
-4.444595668600384704e-13
-3.841086194852204098e-13
-2.983721639018797984e-13
-2.059287087395125361e-13
-1.652531585892419650e-13
-1.158693584424836100e-13
-8.508331916062211858e-14
-5.741907476825623633e-14
-4.073960963772264635e-14
-2.833276899684142388e-14
-1.968082443441609637e-14
-1.376481178447760388e-14
-9.715147029675347298e-15
-6.980368013552743781e-15
-5.114335133450637229e-15
-3.819099193638894090e-15
-2.901779002557160636e-15
-2.231035089875596002e-15
-1.723786443932160014e-15
-1.328391105347629184e-15
