# bin_17_5
-1.343114131970279203e-09
-1.433158614676483432e-09
-1.483381912478869350e-09
-1.480582340251144804e-09
-1.405562502686182211e-09
-1.260512647728097618e-09
-1.069215177731023509e-09
-8.759478282265092679e-10
-7.287378059225463186e-10
-6.288266542049491272e-10
-5.144438997933052834e-10
-3.659048818665586664e-10
-2.762277391422841699e-10
-2.133272385735036768e-10
-1.488894680132721571e-10
-1.098668345748401571e-10
-7.977160178651114002e-11
-5.767997299474269081e-11
-4.230679342991233492e-11
-3.153048232442743561e-11
-2.392393879379479039e-11
-1.846122074237393314e-11
-1.444948110895587497e-11
-1.139517221383177075e-11
-8.993411748683767779e-12
-7.054049897128164784e-12
-5.462043358650998899e-12
-4.151861683313901257e-12
-3.084168675789868442e-12
-2.231697144399119928e-12
-1.571203064592325855e-12
