# bin_6_13
-1.002593977143861495e-25
-1.110219307918537596e-25
-1.203564294711349563e-25
-1.270372769210800006e-25
-1.296524168752690172e-25
-1.270237520328667475e-25
-1.176553752974538148e-25
-1.030474394275236199e-25
-8.555002337772962926e-26
-7.001540429120278074e-26
-5.948851309794407716e-26
-5.121723917933572848e-26
-3.920065378543030022e-26
-2.721410379191417650e-26
-2.205326333605061174e-26
-1.522893386456752140e-26
-1.143582240353611057e-26
-7.836635675067030276e-27
-5.600394571476362780e-27
-3.998327223032012827e-27
-2.869820192505768255e-27
-2.082985614685481760e-27
-1.533965253577100959e-27
-1.152148804483370035e-27
-8.802329937294666723e-28
-6.809768335413457663e-28
-5.305590432821299254e-28
-4.132810374474139811e-28
-3.196204583760045339e-28
-2.438921912165152016e-28
-1.827301315983925697e-28
