# bin_20_15
-1.719940350549864193e-10
-1.938670239210934185e-10
-2.147682894579536695e-10
-2.328682579199889992e-10
-2.457794219606516314e-10
-2.507737952756783637e-10
-2.455254765969459301e-10
-2.272057827709071451e-10
-1.988023891872245805e-10
-1.649530708376067957e-10
-1.350859453889221009e-10
-1.149477625471208722e-10
-9.888239736505205181e-11
-7.533524911453901355e-11
-5.228758498843690330e-11
-4.237312878766506466e-11
-2.892509233696177525e-11
-2.165655219182135782e-11
-1.465586910485656571e-11
-1.027617897175202944e-11
-7.186260687722705566e-12
-5.024081747426262194e-12
-3.532502056584267723e-12
-2.509460518739987186e-12
-1.817143481972225267e-12
-1.341656028549579721e-12
-1.008947200278874024e-12
-7.707650912390782575e-13
-5.944922902315583209e-13
-4.596609658919137094e-13
-3.536582124966731604e-13
