# bin_6_4
-5.789298413793570649e-10
-6.079148628594474286e-10
-6.172182527602801200e-10
-6.005001883042543737e-10
-5.525132712941246638e-10
-4.808323884010585111e-10
-3.982073833135687725e-10
-3.267872623075286389e-10
-2.782739751759960003e-10
-2.371434471230017578e-10
-1.795037239501831816e-10
-1.273419637353018351e-10
-1.021949842501850732e-10
-7.170891553669810172e-11
-5.388925929764823801e-11
-3.834921203489710161e-11
-2.805165453931495233e-11
-2.067026507385934713e-11
-1.543223882956579567e-11
-1.172689680926840833e-11
-9.061148489337242410e-12
-7.108107676616137203e-12
-5.625350823676883138e-12
-4.459577034947328075e-12
-3.516830866489233765e-12
-2.740015862233412276e-12
-2.096619069562539025e-12
-1.568025822598811355e-12
-1.142286365075524876e-12
-8.093724123780417433e-13
-5.581652517113501707e-13
