# bin_13_8
-4.701540811962828218e-10
-5.152290627255093899e-10
-5.514043815395901724e-10
-5.726354103246052398e-10
-5.737457660463956377e-10
-5.472157589299775967e-10
-4.927845673119203835e-10
-4.195502911868758246e-10
-3.438517524214466452e-10
-2.852418618239077144e-10
-2.463629577608959778e-10
-2.035096232601895056e-10
-1.449090313071777435e-10
-1.079798793308455292e-10
-8.445638568978428319e-11
-5.775282380712758517e-11
-4.276493032560044084e-11
-3.065558767300206207e-11
-2.177842940172273871e-11
-1.565973287643359044e-11
-1.140317097574469189e-11
-8.445248629296476471e-12
-6.364328601460972016e-12
-4.882032961893999368e-12
-3.792271866552566858e-12
-2.965962956376230978e-12
-2.319844019651977890e-12
-1.801645344371839932e-12
-1.380740998349145814e-12
-1.038826142125335410e-12
-7.641998003669008487e-13
