# bin_8_6
-3.529568123007609417e-10
-3.802956925010031756e-10
-3.984769725161313762e-10
-4.034391788806156873e-10
-3.907742654145127789e-10
-3.575882482655461469e-10
-3.094765236127274631e-10
-2.553223272180256899e-10
-2.098444623323866574e-10
-1.796017409787651579e-10
-1.523994271559994107e-10
-1.132624892036557707e-10
-8.071017412508585993e-11
-6.515880812804198300e-11
-4.461589831155439240e-11
-3.383871632872986495e-11
-2.387372232774859507e-11
-1.719638445308987948e-11
-1.253805160929407130e-11
-9.241136927625139850e-12
-6.922169368837640773e-12
-5.272134460006620578e-12
-4.084407707478589442e-12
-3.200175500259853083e-12
-2.519528707673036743e-12
-1.979807335965568958e-12
-1.541775191452035887e-12
-1.182677637253703352e-12
-8.890616287358072300e-13
-6.523606262653138244e-13
-4.661119928149333664e-13
