# bin_15_2
-2.705737045832274985e-09
-2.723823772113191953e-09
-2.620156995099321366e-09
-2.384018936333257275e-09
-2.052957752972550478e-09
-1.693592027132139884e-09
-1.397752292717396593e-09
-1.194883781740662425e-09
-1.000355913360307115e-09
-7.421808569445754739e-10
-5.406202473645839750e-10
-4.269037918195469422e-10
-3.019573123723250664e-10
-2.262716642748270510e-10
-1.640731831136177460e-10
-1.211688979340467997e-10
-9.065418319994571908e-11
-6.895900808130649963e-11
-5.342876980956868702e-11
-4.204443793753523045e-11
-3.346369877095545534e-11
-2.674001050105903268e-11
-2.129330134207048441e-11
-1.677952120165634583e-11
-1.300120240844237633e-11
-9.852631519692681423e-12
-7.274985090396806170e-12
-5.224056556036541043e-12
-3.649188868728294261e-12
-2.484857095429857325e-12
-1.654562322547298310e-12
