# bin_10_9
-1.105570925064115182e-10
-1.217261342548390248e-10
-1.310328017089633394e-10
-1.370876606851471178e-10
-1.385209733313413498e-10
-1.337283902117077798e-10
-1.218852028526451234e-10
-1.050522904001818431e-10
-8.645759737711716673e-11
-7.117571474365819665e-11
-6.115434698040036788e-11
-5.166946419674180851e-11
-3.784280236236392598e-11
-2.712491894123491645e-11
-2.190175380698864000e-11
-1.472009045872246526e-11
-1.117575121785213625e-11
-7.838350501979514194e-12
-5.543332742951707840e-12
-3.979285060736540678e-12
-2.878479441660599480e-12
-2.112937911206525487e-12
-1.576552033433671134e-12
-1.199059113708341071e-12
-9.254106639120790650e-13
-7.209674508457525427e-13
-5.634273376387083854e-13
-4.384481456877986238e-13
-3.375339285920337493e-13
-2.556212969508180065e-13
-1.896078400220758592e-13
