# bin_17_11
-3.298240728162291319e-10
-3.671010508775723807e-10
-4.004738645450982933e-10
-4.260253439586010855e-10
-4.389331782212649872e-10
-4.355184878664319591e-10
-4.097974717821071953e-10
-3.642777158542373936e-10
-3.061709172757890154e-10
-2.503678808463171271e-10
-2.099925563014604866e-10
-1.817881124217772186e-10
-1.453560170160180399e-10
-1.010022175890782182e-10
-7.876496678936185545e-11
-5.819475959824183658e-11
-4.123218995505114791e-11
-2.894210810080278632e-11
-2.089982571398180134e-11
-1.472266570009945499e-11
-1.041001893870505463e-11
-7.463747447379549295e-12
-5.428971507324888794e-12
-4.021508792402574286e-12
-3.035592048340465630e-12
-2.326487290947942203e-12
-1.802329113066072801e-12
-1.401918419333228615e-12
-1.086963209642108838e-12
-8.344104458571856909e-13
-6.306633037049756358e-13
