# bin_15_18
-5.423699819420623503e-14
-6.133618039921100046e-14
-6.821821018849723316e-14
-7.432754066396696841e-14
-7.892371542009028013e-14
-8.110333598369023938e-14
-8.019482183374156870e-14
-7.509941674942362277e-14
-6.645329989573643963e-14
-5.560989862245480113e-14
-4.546764314025651155e-14
-3.831572248606716834e-14
-3.317263759289378696e-14
-2.614289373340042044e-14
-1.803655619541910332e-14
-1.430114623287546423e-14
-1.026386016442110889e-14
-7.385725364176097357e-15
-5.021321381515559434e-15
-3.586649734638846917e-15
-2.483076935307291171e-15
-1.714388811552080926e-15
-1.194131839804544726e-15
-8.389443659941823516e-16
-5.992155167739562078e-16
-4.363957718036520901e-16
-3.240253805035517132e-16
-2.450550271491387199e-16
-1.878397033433769531e-16
-1.449638099590690616e-16
-1.117895718283658874e-16
