# bin_20_11
-4.303123178234104765e-10
-4.789950273998299036e-10
-5.226049484457572635e-10
-5.560349267891200211e-10
-5.729929160940677096e-10
-5.686736801458764198e-10
-5.352581888920340373e-10
-4.759437384151752225e-10
-4.001350976689844732e-10
-3.272130122972998344e-10
-2.743749337660399479e-10
-2.375298542072061964e-10
-1.900824655757278384e-10
-1.321194822922540547e-10
-1.029294202766418849e-10
-7.615110615617208290e-11
-5.389026329744712122e-11
-3.786308600715611728e-11
-2.733677243284480305e-11
-1.925231427143075486e-11
-1.360968698893913212e-11
-9.755215643255375698e-12
-7.093907046342008538e-12
-5.253245253507559768e-12
-3.964298718060109810e-12
-3.037593329301410357e-12
-2.352884353081047907e-12
-1.830060523351344099e-12
-1.418963234762255825e-12
-1.089388529691206839e-12
-8.235196965749016965e-13
