# bin_3_7
-4.621142830912964942e-18
-4.933118928664348664e-18
-5.108375180214026164e-18
-5.102464937552953136e-18
-4.846760484976380097e-18
-4.347904375797944142e-18
-3.687627682872215861e-18
-3.018685949331282890e-18
-2.509536678014840200e-18
-2.168857774324268988e-18
-1.778752185884025621e-18
-1.259734089490758158e-18
-9.514131164368200650e-19
-7.377736844042653830e-19
-5.120102467687714734e-19
-3.783618746009013081e-19
-2.756054895885700666e-19
-1.990480071542122190e-19
-1.457918661242456319e-19
-1.085917638366794772e-19
-8.238889281146011545e-20
-6.357836647215637599e-20
-4.976864921477799394e-20
-3.925648761741801846e-20
-3.099101609031806432e-20
-2.431610349849004828e-20
-1.883485835252871026e-20
-1.432190032566885044e-20
-1.064203562739074369e-20
-7.701782055127742788e-21
-5.422357066693641876e-21
