# bin_18_12
-2.870292825213686593e-10
-3.206776084592830784e-10
-3.514528377074150072e-10
-3.760385856452740108e-10
-3.902698280563986389e-10
-3.906759827882214485e-10
-3.719815796285745521e-10
-3.343629979758045096e-10
-2.840780834546261432e-10
-2.326677724268336385e-10
-1.933494676856317269e-10
-1.672916411275742908e-10
-1.376279758409966692e-10
-9.717989817621410494e-11
-7.289327947066268520e-11
-5.647156036373816210e-11
-3.843477583117230859e-11
-2.804436933321939203e-11
-1.996733789898966797e-11
-1.394578763463937795e-11
-9.802362583226696226e-12
-6.958492064925145879e-12
-5.011756625141907634e-12
-3.670076665405083091e-12
-2.741402465609714245e-12
-2.082713418748477584e-12
-1.603647533817541082e-12
-1.243999825148482808e-12
-9.651558813657256620e-13
-7.436461146748747678e-13
-5.655222910739112891e-13
