# bin_20_10
-5.268753843237671950e-10
-5.839488805427830030e-10
-6.337364378393416720e-10
-6.698272624108813268e-10
-6.847563427648476330e-10
-6.723892907718205497e-10
-6.245811664612972156e-10
-5.485086711981172172e-10
-4.564237779754310384e-10
-3.734893833794017233e-10
-3.165516883940802178e-10
-2.727828449725683335e-10
-2.105608304085609661e-10
-1.461880092708753317e-10
-1.175675217797406909e-10
-8.234829988423455422e-11
-6.107023109967616829e-11
-4.202137139952454957e-11
-3.014365448576818154e-11
-2.145685131625932803e-11
-1.534774109725591437e-11
-1.111504197728144914e-11
-8.167201678405871272e-12
-6.118910914969134075e-12
-4.664693763399803414e-12
-3.602735111868586604e-12
-2.804139049776071204e-12
-2.183764793020037058e-12
-1.689645634000603009e-12
-1.290704538288253583e-12
-9.685557156970009786e-13
