# bin_11_2
-2.401967306781632907e-09
-2.417440732610380205e-09
-2.324662770197740264e-09
-2.114418099194487837e-09
-1.820180640784749114e-09
-1.501333876298904986e-09
-1.239278193910189138e-09
-1.059579380297853991e-09
-8.866338744222368440e-10
-6.573151807499585406e-10
-4.791219902950762825e-10
-3.782295140917033747e-10
-2.674851336470734856e-10
-2.004507654843457708e-10
-1.453789086601125752e-10
-1.073654200987395084e-10
-8.033968651396196918e-11
-6.112460272685444668e-11
-4.736739344162140977e-11
-3.728039589898340009e-11
-2.967503082818096616e-11
-2.371353743002273810e-11
-1.888287843774008424e-11
-1.487885129478647498e-11
-1.152696575622453499e-11
-8.733871831054152741e-12
-6.447599167176940609e-12
-4.628933378540629559e-12
-3.232817565652460599e-12
-2.200937523374497902e-12
-1.465288929074576885e-12
