# bin_16_9
-4.953517657619137407e-10
-5.461822445065915643e-10
-5.889913518250429818e-10
-6.175971960188363262e-10
-6.256437122186317922e-10
-6.062836255426771315e-10
-5.548410436005075157e-10
-4.801851448170356685e-10
-3.960078914151796968e-10
-3.254450856431563694e-10
-2.788735367433224005e-10
-2.368975276487839703e-10
-1.754604801790738751e-10
-1.245588961524419843e-10
-1.008943206799558400e-10
-6.809020150281821491e-11
-5.168497204221793853e-11
-3.601398487299783596e-11
-2.550721099563170774e-11
-1.829258957481895919e-11
-1.320834982041761677e-11
-9.667441330791019787e-12
-7.189048550915865763e-12
-5.450671741470325608e-12
-4.196306655854752472e-12
-3.263806243861902892e-12
-2.548938488055689047e-12
-1.984207453996682493e-12
-1.529392354631719234e-12
-1.160517157016234366e-12
-8.630440286746315569e-13
