# bin_8
0.000000000000000000e+00
0.000000000000000000e+00
0.000000000000000000e+00
3.144905136944299702e-267
9.221169505893269306e-221
5.051824616078116198e-182
1.194390966623634684e-149
1.488901299830176150e-122
7.351918974657276631e-100
7.401819714857661389e-81
5.808733770311364410e-65
1.072627280510213023e-51
1.164515356035869199e-40
1.594682774605894537e-31
5.221935331794309462e-24
7.008256471629696410e-18
6.083434180780887871e-13
5.037468326584673596e-09
5.554048831168930022e-06
1.088779931995059475e-03
4.898456716901644636e-02
6.374207875664377188e-01
2.971358782538874088e+00
5.993758034578661409e+00
6.003544988496822832e+00
3.212539628070142594e+00
9.521603703580273637e-01
1.616441277643534957e-01
1.640393873803775229e-02
1.045155143044903048e-03
4.397066272511046753e-05
1.282333377608910218e-06
2.712249691686708703e-08
4.335821079118024026e-10
5.437664297933185977e-12
5.532015776732566647e-14
4.704166460044474916e-16
3.434103546358311962e-18
2.204043981932590950e-20
1.270336768529600292e-22
6.700616094972184172e-25
3.289359685386691966e-27
1.525483139071118221e-29
6.773039093845844525e-32
2.913265835025508397e-34
1.226777330304723201e-36
5.105038286752930600e-39
2.116814332525674099e-41
8.810746178243829306e-44
3.705273944200651510e-46
1.583475929282566529e-48
6.911945901292877283e-51
3.095565313009538610e-53
1.428069813972975510e-55
6.809857251117923486e-58
3.366873708365323689e-60
1.730486714316796735e-62
9.267514252302582512e-65
5.181754009514215437e-67
3.030064053523412499e-69
1.855759543613655984e-71
1.191849707490515512e-73
8.035222318286800318e-76
5.691390158615509527e-78
4.238177989300840845e-80
3.319807477428289761e-82
2.736495666882804178e-84
2.374372205630658346e-86
2.168967762508133404e-88
2.086145843023291048e-90
2.112631726374734376e-92
0.000000000000000000e+00
0.000000000000000000e+00
0.000000000000000000e+00
0.000000000000000000e+00
0.000000000000000000e+00
0.000000000000000000e+00
0.000000000000000000e+00
0.000000000000000000e+00
0.000000000000000000e+00
0.000000000000000000e+00
0.000000000000000000e+00
