# bin_8_11
-1.284367358207249542e-14
-1.416461228982461651e-14
-1.527994311473339399e-14
-1.603013695228483893e-14
-1.624814740593820966e-14
-1.576141705401359114e-14
-1.443708221499787510e-14
-1.250637042866781790e-14
-1.031426383771195607e-14
-8.466783706847867245e-15
-7.249714057374517947e-15
-6.172002223448901161e-15
-4.582130778066170627e-15
-3.236581738328889985e-15
-2.632913962340976782e-15
-1.769778430480313170e-15
-1.348831226162641391e-15
-9.369708466511410593e-16
-6.624406193163426294e-16
-4.751438040837745148e-16
-3.429379151144222902e-16
-2.507230149239823646e-16
-1.862969454677047817e-16
-1.411309885611290556e-16
-1.086037962214142559e-16
-8.446723257357106648e-17
-6.598899023886090467e-17
-5.140529304849250686e-17
-3.966345315289332123e-17
-3.013613924363685450e-17
-2.244555380655092924e-17
