# bin_3_18
-1.970997886755216585e-68
-2.200759478712828747e-68
-2.410399586965470975e-68
-2.577126112430818765e-68
-2.672342839217241624e-68
-2.672628592794628242e-68
-2.541498711586255151e-68
-2.281399205491062487e-68
-1.935523933863804507e-68
-1.584051225822865541e-68
-1.316823546395557480e-68
-1.139877528761248165e-68
-9.358663961418708649e-69
-6.583744002884984470e-69
-4.956722879787926078e-69
-3.827118717301594104e-69
-2.607513179774220872e-69
-1.896070585973663570e-69
-1.353703452209845638e-69
-9.455951056595591460e-70
-6.640836604529216461e-70
-4.715378472839907784e-70
-3.398164309272556045e-70
-2.490924477523691056e-70
-1.862158356163328552e-70
-1.416093086132295434e-70
-1.091353955657820997e-70
-8.472005731652910782e-71
-6.576351117745685942e-71
-5.068551256607938182e-71
-3.854926532149509702e-71
