# bin_19_15
-1.527011075336069229e-10
-1.718087277541122798e-10
-1.899315567994736586e-10
-2.054204590401336013e-10
-2.161454961054741189e-10
-2.197731496305942215e-10
-2.141250153899675914e-10
-1.970453753710167222e-10
-1.714730383459256520e-10
-1.417760318102098296e-10
-1.162356468463105968e-10
-9.928218242546029444e-11
-8.497268073408677350e-11
-6.375706928603452177e-11
-4.455721995002799350e-11
-3.624014243196183284e-11
-2.433203369161153171e-11
-1.839211388048771035e-11
-1.251658547300328445e-11
-8.710706632764757152e-12
-6.106245920529115272e-12
-4.280922949374733837e-12
-3.019948608326311866e-12
-2.155908107427448149e-12
-1.569355748806968732e-12
-1.164775116980450058e-12
-8.801566121340088501e-13
-6.748124010157031737e-13
-5.215660281987188343e-13
-4.034485261968294421e-13
-3.100672709225045548e-13
