# bin_1_19
-2.670045131694938268e-94
-2.986194565828039740e-94
-3.277240092221236217e-94
-3.512714227629433828e-94
-3.654264291339839274e-94
-3.668220277277748444e-94
-3.506592733892397241e-94
-3.163466140609719115e-94
-2.697783242392606184e-94
-2.210720204050746693e-94
-1.830819487897076820e-94
-1.582551599793907681e-94
-1.313618846163235103e-94
-9.341416999626408309e-95
-6.906288495803931992e-95
-5.433243229623664102e-95
-3.650687604689750097e-95
-2.702529456234352727e-95
-1.908800619246323958e-95
-1.328889061213072456e-95
-9.327379154684507435e-96
-6.595018846929597553e-96
-4.730561214990361240e-96
-3.449024614333236422e-96
-2.565221634956830576e-96
-1.942081760423137604e-96
-1.491746399304387888e-96
-1.155961122123272484e-96
-8.971559389338238735e-97
-6.923744616101551033e-97
-5.279305680502792769e-97
