# bin_11_12
-5.899279404465758637e-12
-6.558275218525876127e-12
-7.144650085079403264e-12
-7.588028803444894680e-12
-7.802226197620538019e-12
-7.723010460975208147e-12
-7.244496448602181137e-12
-6.420742792480455232e-12
-5.381303693538320132e-12
-4.397998321451523089e-12
-3.696299591246515944e-12
-3.198892855982578068e-12
-2.538419722020568382e-12
-1.757316760571266618e-12
-1.383397183423787363e-12
-1.009187911373624435e-12
-7.227944120358904007e-13
-5.019981994477458216e-13
-3.634416674827383174e-13
-2.564786450623498686e-13
-1.816080987266656950e-13
-1.304740739023971654e-13
-9.510041563954480916e-14
-7.061551722992190337e-14
-5.341867975056194719e-14
-4.102102768979442395e-14
-3.182536734966530640e-14
-2.477450251215697616e-14
-1.921164690960043511e-14
-1.474166194837763601e-14
-1.113221186254209949e-14
