# bin_1_20
-1.007003936800752182e-99
-1.129013250056328978e-99
-1.242785722945608027e-99
-1.337063324895342654e-99
-1.397569851754417092e-99
-1.410499656231714664e-99
-1.358990571622895810e-99
-1.235639875165390671e-99
-1.062302776185368621e-99
-8.729779984322122238e-100
-7.193848347732901219e-100
-6.194724224185597102e-100
-5.217586347826800658e-100
-3.784606076464729247e-100
-2.723335281917998428e-100
-2.192691838670837172e-100
-1.454107608414431832e-100
-1.097984847251787580e-100
-7.632924712128926286e-101
-5.291851578137113507e-101
-3.714919416378186073e-101
-2.614282940970441665e-101
-1.862081985594732555e-101
-1.346111296346759077e-101
-9.928546818289272970e-102
-7.460705944991932425e-102
-5.696996378892767873e-102
-4.399144693344718768e-102
-3.411031867651471086e-102
-2.636468625614550131e-102
-2.017517911554747250e-102
