# bin_19_2
-2.981215514798898896e-09
-2.991865145908832967e-09
-2.866178799395151217e-09
-2.596611059292339911e-09
-2.226701760024726244e-09
-1.833262703598811969e-09
-1.515488430205510895e-09
-1.297457976851039505e-09
-1.079460011132134762e-09
-7.938251681426746351e-10
-5.826864205040128904e-10
-4.582554939625600212e-10
-3.235933520360070559e-10
-2.425307483247033198e-10
-1.762879705651548657e-10
-1.302463481036165221e-10
-9.765185262146554051e-11
-7.447824732269141616e-11
-5.785762069052080179e-11
-4.564411967719463073e-11
-3.639548396657646419e-11
-2.911602057221499243e-11
-2.319592428690298848e-11
-1.827485066425985604e-11
-1.414866564088674565e-11
-1.070908967741228139e-11
-7.895756191863918643e-12
-5.661247539624718141e-12
-3.949318948906098248e-12
-2.686432325733590885e-12
-1.787531165407088319e-12
