# bin_19_17
-6.744727237280355456e-11
-7.621639685436804562e-11
-8.469456198586330611e-11
-9.218807449968910001e-11
-9.777570069808617577e-11
-1.003423714304589792e-10
-9.905247592913180926e-11
-9.257549519944433087e-11
-8.176376182216624724e-11
-6.831607965000097586e-11
-5.584982048201949374e-11
-4.711861892081151725e-11
-4.075545230737749958e-11
-3.195521297250554519e-11
-2.204880746171375209e-11
-1.754330689513046945e-11
-1.249047727951753095e-11
-9.044009044727957307e-12
-6.134573126222655308e-12
-4.368459209676280541e-12
-3.027267011777810919e-12
-2.093042217077748171e-12
-1.458601468915184600e-12
-1.025723623716786262e-12
-7.334617018932921822e-13
-5.347923900194914252e-13
-3.976087242061727095e-13
-3.010426330516137144e-13
-2.309368653233020088e-13
-1.782944271503813319e-13
-1.374913546433630201e-13
