# bin_17_12
-2.656901336497147328e-10
-2.962554596164638112e-10
-3.239322811556510974e-10
-3.456165686637782952e-10
-3.574373496948765342e-10
-3.563426135291278538e-10
-3.374288503958513534e-10
-3.017136395684491392e-10
-2.550022119056974897e-10
-2.085925525653149021e-10
-1.739846744681193188e-10
-1.506175727780562558e-10
-1.224134847454692966e-10
-8.564684397470220294e-11
-6.538230310344112262e-11
-4.963505415808087503e-11
-3.432052154416780450e-11
-2.458751808100169166e-11
-1.765037159657986642e-11
-1.236599931295693532e-11
-8.702623679094007284e-12
-6.201771603472666833e-12
-4.484822911902872062e-12
-3.300458117208248206e-12
-2.476383834759140059e-12
-1.888937497110562798e-12
-1.458842863711099963e-12
-1.133507227963550944e-12
-8.796327278541719784e-13
-6.770390306306972436e-13
-5.137959161162632492e-13
