# bin_1_9
-4.609614158921576958e-37
-4.935095653690278784e-37
-5.129835703775558824e-37
-5.146817738662263999e-37
-4.920093403654280873e-37
-4.440385827329745746e-37
-3.789254894095240451e-37
-3.105898302374165046e-37
-2.569200741844481311e-37
-2.216063030433308767e-37
-1.842139917362449309e-37
-1.320591867392940834e-37
-9.755265789874501848e-38
-7.728465012480163338e-38
-5.277062159258112211e-38
-3.968844567763295225e-38
-2.859694051299836072e-38
-2.057213243566150394e-38
-1.504269910678002394e-38
-1.115955931877391429e-38
-8.432932468038732258e-39
-6.483883342130231358e-39
-5.061932939068804511e-39
-3.987547601322350315e-39
-3.148229805893761940e-39
-2.473786741286064117e-39
-1.921410678615572285e-39
-1.466690521048358496e-39
-1.095072339051737346e-39
-7.968424891435166701e-40
-5.641894863970068126e-40
