# bin_16_16
-1.852266854670038163e-11
-2.086597573833411984e-11
-2.310075805216630473e-11
-2.502964538394658137e-11
-2.639571175942191859e-11
-2.690674693952048283e-11
-2.631346197335706418e-11
-2.431670643805708560e-11
-2.124881815109515045e-11
-1.761155237752582808e-11
-1.442072305565060901e-11
-1.227927991792536870e-11
-1.055448411954536549e-11
-8.012670811519076976e-12
-5.562446870760403916e-12
-4.516836599597385613e-12
-3.065780088775408641e-12
-2.304451707391176349e-12
-1.558495370187143339e-12
-1.089663370462224235e-12
-7.625145471258004637e-13
-5.335093507577928052e-13
-3.751383766649241619e-13
-2.666742463295581861e-13
-1.932106423259697859e-13
-1.427490542137524558e-13
-1.074358506271241714e-13
-8.213128150910948709e-14
-6.338315761087972023e-14
-4.902625850126104335e-14
-3.772703006301400600e-14
