# bin_3_12
-5.996864099761076362e-38
-6.563819916246492872e-38
-7.014578323891798852e-38
-7.271731894774036583e-38
-7.271553045687258075e-38
-6.915838665388120838e-38
-6.209770652894015195e-38
-5.270577534629034180e-38
-4.313556370316624086e-38
-3.582962164082975525e-38
-3.098697638217525540e-38
-2.547323802979198687e-38
-1.799287837436616036e-38
-1.353156800404517329e-38
-1.050664963775340654e-38
-7.206169354846546727e-39
-5.301397772803309910e-39
-3.823352978561620645e-39
-2.718522165702444684e-39
-1.953828266049758861e-39
-1.424630053121229612e-39
-1.057226663724409574e-39
-7.987173020644274352e-40
-6.139724333976651316e-40
-4.777962415384696212e-40
-3.741981466435174709e-40
-2.929037684656351530e-40
-2.275234009947932032e-40
-1.743206043988191922e-40
-1.310642678834881214e-40
-9.631622046356737379e-41
