# bin_5_20
-2.820251508513814634e-61
-3.167203252554601152e-61
-3.493407451519906809e-61
-3.767801847465973262e-61
-3.950709131496708896e-61
-4.001323814331333946e-61
-3.875631897269663934e-61
-3.543299300793345310e-61
-3.063384024967333287e-61
-2.523705895584421130e-61
-2.073805162398105529e-61
-1.779653809979922969e-61
-1.511784616953587273e-61
-1.113441146986468853e-61
-7.880803792664588917e-62
-6.407776880840216723e-62
-4.245283145833206752e-62
-3.225716552056360434e-62
-2.219413895461750312e-62
-1.536951313593360741e-62
-1.079239844439298709e-62
-7.583110404016961508e-63
-5.377024030819067780e-63
-3.864505545202429022e-63
-2.833571221225750974e-63
-2.117668087114699208e-63
-1.609789742638228002e-63
-1.239438072597058992e-63
-9.599727173633461868e-64
-7.424863644395892319e-64
-5.694365749819308985e-64
