# bin_14_6
-9.525975199634075087e-10
-1.024962483981489359e-09
-1.072183939576924504e-09
-1.083520539107181079e-09
-1.046873488648426957e-09
-9.554319299169647078e-10
-8.247018540192933708e-10
-6.794481839114130943e-10
-5.588785777867616590e-10
-4.788749195654521615e-10
-4.048739376522571530e-10
-2.990208403948549097e-10
-2.142278450420277381e-10
-1.724692174742090811e-10
-1.179184214405193049e-10
-8.935791197854414863e-11
-6.323545016922861952e-11
-4.551835078104474860e-11
-3.320553886787196338e-11
-2.450237267825425117e-11
-1.838150072457836568e-11
-1.402733651128900828e-11
-1.088431970200002219e-11
-8.539066771921494315e-12
-6.729249344968822817e-12
-5.290334402902198168e-12
-4.120206917361553420e-12
-3.159778382294352446e-12
-2.374081108133372266e-12
-1.740750671872086201e-12
-1.242772733979768446e-12
