# bin_8_2
-2.081135100504445964e-09
-2.086952385716843291e-09
-1.997162037776243362e-09
-1.807350558216503041e-09
-1.548251063168751777e-09
-1.274167360859906133e-09
-1.053910174628396955e-09
-9.026553083142735930e-10
-7.496673863698631975e-10
-5.500932350256200037e-10
-4.047318020235087324e-10
-3.178455835021702178e-10
-2.244559604560297773e-10
-1.681848902176237744e-10
-1.223471554180008222e-10
-9.040563723538812076e-11
-6.781452694168282868e-11
-5.175255007526641202e-11
-4.022634795050441838e-11
-3.174995605643112801e-11
-2.532441671131665449e-11
-2.026146075228495195e-11
-1.614030183171353441e-11
-1.271261065944284211e-11
-9.837996381007256433e-12
-7.442134305230088504e-12
-5.483506866493893492e-12
-3.929038724065145007e-12
-2.739193120304768908e-12
-1.862232957515514567e-12
-1.238534722791207919e-12
