# bin_20_16
-1.361921514628593594e-10
-1.536089058394320698e-10
-1.703088997389580477e-10
-1.848609695444102182e-10
-1.953867451435021474e-10
-1.996900424736914619e-10
-1.960103967293159173e-10
-1.819370885422128266e-10
-1.596545190262444411e-10
-1.327248143551368210e-10
-1.085916715166538296e-10
-9.213620698929997200e-11
-7.942794578469681034e-11
-6.106757082888992481e-11
-4.224328328258372472e-11
-3.407790697865112798e-11
-2.354435144311591534e-11
-1.746957657848292880e-11
-1.179517585554814539e-11
-8.311106367724824982e-12
-5.794545125048555861e-12
-4.037033129965135069e-12
-2.828819125604797019e-12
-2.002312719855309119e-12
-1.443364925237732068e-12
-1.061030207200163035e-12
-7.948922827252627515e-13
-6.055220372640764102e-13
-4.663139396330438503e-13
-3.604966003016025367e-13
-2.776782193146111162e-13
