# bin_2_18
-4.348967049685372172e-78
-4.853104782451030798e-78
-5.311610005195232197e-78
-5.673959880963883436e-78
-5.876855652354278965e-78
-5.869638187397321466e-78
-5.571320816280024160e-78
-4.992488011580867550e-78
-4.228112475150443636e-78
-3.459145952856752983e-78
-2.879692433905363810e-78
-2.493432958003097708e-78
-2.038698297855654529e-78
-1.429523385487876951e-78
-1.083157991199483724e-78
-8.304053706277588046e-79
-5.690350126359546109e-79
-4.109644915681284480e-79
-2.944390566212962618e-79
-2.059303063716110546e-79
-1.446900947621802962e-79
-1.029023903507057866e-79
-7.427625319192426351e-80
-5.454517874611747863e-80
-4.084655765808412654e-80
-3.110733635735296882e-80
-2.399902505437064315e-80
-1.863967705521370520e-80
-1.446856418433436295e-80
-1.114543144882720311e-80
-8.468911197116725145e-81
