# bin_15_6
-1.012537097509066774e-09
-1.089503492474040392e-09
-1.139761923888751705e-09
-1.151886128489712717e-09
-1.113029724342725539e-09
-1.015909736420010430e-09
-8.769913205939711785e-10
-7.225630031377344566e-10
-5.943167179802904070e-10
-5.092090666978862427e-10
-4.305780206433847464e-10
-3.180865238215583949e-10
-2.278355264512282657e-10
-1.834396202324561333e-10
-1.254289343493160901e-10
-9.504905967019904203e-11
-6.725423082175884378e-11
-4.841247029673511022e-11
-3.531567848922728798e-11
-2.605809375875179528e-11
-1.954734888870915678e-11
-1.491604162095158790e-11
-1.157326036685176945e-11
-9.079217720107587821e-12
-7.154787873873151032e-12
-5.624895125875884109e-12
-4.380866408381256130e-12
-3.359809965438190749e-12
-2.524509707134189175e-12
-1.851170921530661336e-12
-1.321699626458172905e-12
