# bin_4_8
-1.147875849268712879e-17
-1.235576647154283387e-17
-1.293162747098307767e-17
-1.307562119001065877e-17
-1.264239238355746478e-17
-1.154245457258725949e-17
-9.967020006004413688e-18
-8.207802197901178749e-18
-6.745156019082823442e-18
-5.782493187812866550e-18
-4.900691351649676974e-18
-3.617016076106184734e-18
-2.580380896491900272e-18
-2.092710021226589287e-18
-1.418083573978433867e-18
-1.083392398459983008e-18
-7.652022136251577191e-19
-5.492908145724600818e-19
-4.010155592531917403e-19
-2.959240868020656269e-19
-2.219616844423624938e-19
-1.693586633995395025e-19
-1.314146092817973874e-19
-1.031099354758031552e-19
-8.127235234006601901e-20
-6.391159437078963351e-20
-4.979158924670150907e-20
-3.819876439832412008e-20
-2.871068273778797248e-20
-2.105806437931102633e-20
-1.503696731426783836e-20
