# bin_16_1
-3.689786642339215340e-09
-3.559177962629681322e-09
-3.251161009603276239e-09
-2.812001586810226183e-09
-2.327949134119502203e-09
-1.919479446053698628e-09
-1.632963127037211719e-09
-1.370037823697934880e-09
-1.032286889296265507e-09
-7.500328032371169477e-10
-5.880521125203246572e-10
-4.235412247011653857e-10
-3.151633555107790443e-10
-2.304361181245045401e-10
-1.715222147239113955e-10
-1.292530205682716636e-10
-9.916840276043518935e-11
-7.752011242871339829e-11
-6.152533079695063662e-11
-4.931612094934355043e-11
-3.962586801613703593e-11
-3.167626999807822628e-11
-2.501585577463969578e-11
-1.939674751067458677e-11
-1.469312930429391073e-11
-1.083716876461941449e-11
-7.773132655296073888e-12
-5.425684033058568678e-12
-3.694062911796592525e-12
-2.460919340070832916e-12
-1.609518852577479778e-12
