# bin_11_8
-3.384934118457812908e-10
-3.699829079638500327e-10
-3.947134334272804919e-10
-4.083066345604795584e-10
-4.072258527375560152e-10
-3.859971293635554970e-10
-3.455233611428556761e-10
-2.924264341736096895e-10
-2.392809516810851743e-10
-1.992919707607863183e-10
-1.723030099841416113e-10
-1.404799698470977427e-10
-9.893700512797413953e-11
-7.516688301759589041e-11
-5.759088164704458870e-11
-3.997948081992045236e-11
-2.910629286394779105e-11
-2.105078501105459534e-11
-1.500468219154920772e-11
-1.080631080944937435e-11
-7.900030642512205782e-12
-5.876026340630767810e-12
-4.449577990884035224e-12
-3.426819470185973860e-12
-2.670178260264399441e-12
-2.092397259108009265e-12
-1.637500814024796695e-12
-1.270879624211192529e-12
-9.722904227816354212e-13
-7.296169255764298946e-13
-5.349544760611904480e-13
