# bin_10_3
-1.721577166507654798e-09
-1.771122365864230932e-09
-1.754861954571933619e-09
-1.651453830901829134e-09
-1.469124058259978723e-09
-1.237822358665898644e-09
-1.013652827315199519e-09
-8.477954263591346722e-10
-7.295878617561872005e-10
-5.858532626645623140e-10
-4.159949672815450942e-10
-3.198717337496500997e-10
-2.415059247199871308e-10
-1.727944183502504336e-10
-1.267206688047512491e-10
-9.305841744029876333e-11
-6.842126120208317591e-11
-5.112024131313636547e-11
-3.889580013934537411e-11
-3.013182202126695116e-11
-2.370134000011690475e-11
-1.883097458496624593e-11
-1.500200809452599893e-11
-1.189757775018324130e-11
-9.328533728015959649e-12
-7.186576443828120531e-12
-5.412383380274613238e-12
-3.970947337250651732e-12
-2.833226215105653533e-12
-1.967156918154012238e-12
-1.332062775708869821e-12
