# bin_5_4
-3.472727244341865111e-10
-3.629593008779096246e-10
-3.665436227599013010e-10
-3.539506159383146052e-10
-3.229888532305945008e-10
-2.788032888254616739e-10
-2.298033903034457045e-10
-1.890564774370970406e-10
-1.617935853733116892e-10
-1.366265548495858451e-10
-1.012695249473251064e-10
-7.278196958164778893e-11
-5.839660728955900598e-11
-4.043055898363790458e-11
-3.060916915579754577e-11
-2.188023692662138701e-11
-1.596302314205980058e-11
-1.180552048779674321e-11
-8.855683106188519298e-12
-6.762194983973931339e-12
-5.250633562288201222e-12
-4.135080872742976596e-12
-3.280992941853562451e-12
-2.604172349722438034e-12
-2.053131516195587130e-12
-1.597077776954918012e-12
-1.218728766655068864e-12
-9.081684104603851087e-13
-6.588158748208632499e-13
-4.648260594282182446e-13
-3.193079474286819115e-13
