# bin_17_19
-7.334791615654109563e-13
-8.304235035551113128e-13
-9.249460759103776630e-13
-1.009657734645525185e-12
-1.074661395959901645e-12
-1.107693770542463283e-12
-1.099668819969936734e-12
-1.035105210302357294e-12
-9.202987168548166243e-13
-7.733908960098958141e-13
-6.322254401329021721e-13
-5.302657477518850492e-13
-4.594035028597785963e-13
-3.674399682663524633e-13
-2.541764935383377683e-13
-1.982571948703632303e-13
-1.458592295434934100e-13
-1.025372015293603804e-13
-7.078272678878597354e-14
-5.060881414565568512e-14
-3.486753524293394039e-14
-2.392277607502807724e-14
-1.657008176002087969e-14
-1.157539835684240576e-14
-8.206420718119243198e-15
-5.930428621384241703e-15
-4.371287896232986108e-15
-3.285612364114817329e-15
-2.507814899046616951e-15
-1.931705994187617548e-15
-1.490343166729343142e-15
