# bin_17_15
-8.479641443259906382e-11
-9.537469282200070107e-11
-1.053922184722928052e-10
-1.139298374695469331e-10
-1.198029484642480989e-10
-1.217270587667088474e-10
-1.184740874966537086e-10
-1.088940039314782541e-10
-9.465017659907196408e-11
-7.820274463610704108e-11
-6.413753616874127479e-11
-5.483168728299227586e-11
-4.687267554620993317e-11
-3.505031746108012810e-11
-2.454156041035801310e-11
-1.997123399818370020e-11
-1.336543767493728646e-11
-1.012045064831857095e-11
-6.898914840510451239e-12
-4.794556079243024846e-12
-3.362845938101314697e-12
-2.359096685688064121e-12
-1.665771756877956993e-12
-1.190616689787084051e-12
-8.678508096593221769e-13
-6.449515055302261995e-13
-4.879071991718763766e-13
-3.743840052727182731e-13
-2.894886822343137354e-13
-2.239343560283952155e-13
-1.720428491246575448e-13
