# bin_5_16
-5.498138302034148994e-43
-6.118085965259001628e-43
-6.672809459099630626e-43
-7.097095847311220065e-43
-7.310343510072793298e-43
-7.252652575221956119e-43
-6.822852227680674079e-43
-6.063225892820600777e-43
-5.093590241936390511e-43
-4.162915575447672050e-43
-3.490526057886267589e-43
-3.022613631407308783e-43
-2.417337735134163713e-43
-1.675565249039773393e-43
-1.308349399387788910e-43
-9.665084110146425784e-44
-6.843284722736105565e-44
-4.786221013208032370e-44
-3.467258093755665586e-44
-2.440989410349700502e-44
-1.723603057371801678e-44
-1.235427353647835056e-44
-8.984108292080910692e-45
-6.653612522905937909e-45
-5.021508995692240268e-45
-3.848907817914240820e-45
-2.982563241576514150e-45
-2.320890146751907705e-45
-1.800439158720111344e-45
-1.382972935838058644e-45
-1.045997763464383603e-45
