# bin_8_5
-6.326792858024458966e-10
-6.726426235855584530e-10
-6.931085274239972021e-10
-6.880641750565559796e-10
-6.485695638072156802e-10
-5.776536069364132675e-10
-4.868034935875332401e-10
-3.982650167410052241e-10
-3.329092763955549895e-10
-2.873329668610002515e-10
-2.314041500534740746e-10
-1.630146871207692603e-10
-1.255645271146667361e-10
-9.475611678910444009e-11
-6.726676501711947626e-11
-4.888540680271188899e-11
-3.574045801806304955e-11
-2.594241385969489497e-11
-1.908405225891321859e-11
-1.428499704585576751e-11
-1.088740144012582372e-11
-8.439134206876334469e-12
-6.627406085916803463e-12
-5.238149493197429781e-12
-4.137971686589802192e-12
-3.244410050595116399e-12
-2.508361259753729618e-12
-1.901885127819786916e-12
-1.408147613723832546e-12
-1.015103167566568488e-12
-7.119448090611099418e-13
