# bin_1_6
-1.037434108099505652e-22
-1.081417417721447208e-22
-1.088783829960809819e-22
-1.046558890439545914e-22
-9.500092857710601086e-23
-8.156850991887990402e-23
-6.701874367396353762e-23
-5.523127549123114424e-23
-4.745914024829435417e-23
-3.985597708498677743e-23
-2.907971052977037331e-23
-2.111619483033107563e-23
-1.695632529944405886e-23
-1.161075282877234705e-23
-8.843735090380674309e-24
-6.358119410205704077e-24
-4.624991972201746415e-24
-3.427624167759082660e-24
-2.578069953940907323e-24
-1.974791709548089637e-24
-1.538028361146496971e-24
-1.214160483218808744e-24
-9.647732558543208133e-25
-7.660980320036546481e-25
-6.036613972446206825e-25
-4.688712245156566861e-25
-3.569623661855611943e-25
-2.651951995776609858e-25
-1.917024350526515730e-25
-1.347609595319441007e-25
-9.225099465529609821e-26
