# bin_20_3
-2.378805890016908059e-09
-2.448414372703642782e-09
-2.427381569848596698e-09
-2.286099568724694024e-09
-2.035210419482281154e-09
-1.715915922886504885e-09
-1.405262738412561791e-09
-1.174676474453976252e-09
-1.010960489600786406e-09
-8.132115791246197119e-10
-5.778486460269430631e-10
-4.434730498334851928e-10
-3.355927994936628321e-10
-2.397164730257069640e-10
-1.760028409422891514e-10
-1.291766980518530384e-10
-9.493876734779987876e-11
-7.090672517977543440e-11
-5.392711637232405947e-11
-4.175915373223129204e-11
-3.283574564603544411e-11
-2.608264067655086551e-11
-2.077754151745155687e-11
-1.647897935538440755e-11
-1.292320309484320084e-11
-9.958966847059453825e-12
-7.503390700649903044e-12
-5.507648844965950454e-12
-3.931552230598223299e-12
-2.730998905992455570e-12
-1.850047539067312956e-12
