# bin_19_9
-6.438827147516314220e-10
-7.084873974959557470e-10
-7.621262392977544047e-10
-7.967115504918033455e-10
-8.043384426428698863e-10
-7.756814020141928411e-10
-7.062328455407789491e-10
-6.080556857608707923e-10
-5.001709246063937835e-10
-4.118634939951579180e-10
-3.538954641378595811e-10
-2.984673201433045515e-10
-2.181639346173160850e-10
-1.567583896035966954e-10
-1.262208964235120841e-10
-8.495829433120464941e-11
-6.433970587561424617e-11
-4.518026849727180571e-11
-3.196138843151399046e-11
-2.293626317146905280e-11
-1.659384842406432496e-11
-1.218477551183473711e-11
-9.099196375471816238e-12
-6.924327890735120979e-12
-5.347379503549165330e-12
-4.168484980336465723e-12
-3.259089462327366934e-12
-2.537035760588335763e-12
-1.953618737113810040e-12
-1.479813844000444813e-12
-1.097834330363060288e-12
