# bin_6_18
-3.563590850910289124e-45
-3.988351273710883532e-45
-4.380849049930534035e-45
-4.700654806944178687e-45
-4.896793834164195079e-45
-4.923194438003541670e-45
-4.716857520808287473e-45
-4.264596288462535792e-45
-3.645071014713053899e-45
-2.989006397258275634e-45
-2.471615621944291082e-45
-2.134613864734122423e-45
-1.779691028839253326e-45
-1.272104718502471710e-45
-9.332145246548750968e-46
-7.396355918048350558e-46
-4.945134767201132481e-46
-3.685787723437272932e-46
-2.591209726812717432e-46
-1.801549187753966017e-46
-1.264430983094179063e-46
-8.925664372055203657e-47
-6.389349089533395481e-47
-4.647356137758498549e-47
-3.448528125897995632e-47
-2.605509825555439347e-47
-1.998204133990825258e-47
-1.547041885261516173e-47
-1.200472777969681727e-47
-9.269244691924096931e-48
-7.075235381669139702e-48
