# bin_1_1
-2.884086062292895792e-10
-2.724777728206252632e-10
-2.435362241245451836e-10
-2.063460864356913761e-10
-1.694022683536470300e-10
-1.411595209693922834e-10
-1.209790893518361193e-10
-9.817611025093413807e-11
-7.096772576148352442e-11
-5.361737205728453187e-11
-4.118785160046162106e-11
-2.950851140461040448e-11
-2.201680812742631814e-11
-1.625672593071221528e-11
-1.215537604123204665e-11
-9.257219298233393848e-12
-7.185025360050894587e-12
-5.675336388907945275e-12
-4.540766270229063876e-12
-3.656256576973976114e-12
-2.939674714294250904e-12
-2.342662703365890788e-12
-1.838100817858600891e-12
-1.411900640502853068e-12
-1.057242480936292828e-12
-7.700076579156962124e-13
-5.453553187154109200e-13
-3.762385926643953872e-13
-2.535532891112486205e-13
-1.674711887266645421e-13
-1.087701204044074767e-13
