# bin_20_2
-3.020697206304251633e-09
-3.031558803859648575e-09
-2.904297889446635092e-09
-2.631231668081043152e-09
-2.256461736670645782e-09
-1.857787203069569014e-09
-1.535735381579792970e-09
-1.314775843589672650e-09
-1.093926235284720369e-09
-8.045163718256615308e-10
-5.904923301130265102e-10
-4.644145189799255478e-10
-3.279419743586397380e-10
-2.457918998303348875e-10
-1.786540631343129070e-10
-1.319939451774570187e-10
-9.896065520119415494e-11
-7.547510116215117175e-11
-5.863100962439023136e-11
-4.625358179501238679e-11
-3.688111206601027475e-11
-2.950442243066069197e-11
-2.350541644800731241e-11
-1.851883617388578014e-11
-1.433775147625984052e-11
-1.085239340107838857e-11
-8.001568562323216176e-12
-5.737230195626442348e-12
-4.002400637962140269e-12
-2.722585502138958445e-12
-1.811612674358789139e-12
