# bin_7_1
-2.764577191963126318e-09
-2.663786720671953790e-09
-2.430375521359757475e-09
-2.099713564161498634e-09
-1.737272826628040969e-09
-1.433081467734114396e-09
-1.219836512220425281e-09
-1.021944071032438061e-09
-7.681226962289564445e-10
-5.589746867698875117e-10
-4.381537588452705793e-10
-3.152219892026098803e-10
-2.347413025156318727e-10
-1.716599517569512555e-10
-1.278040071112596507e-10
-9.636536453047039525e-11
-7.398175782948909177e-11
-5.786525365383802244e-11
-4.594707123344555154e-11
-3.683970800291136395e-11
-2.960311324649734138e-11
-2.366113512632646560e-11
-1.868007518151403697e-11
-1.447717124058887548e-11
-1.095992108754225107e-11
-8.078263075346671991e-12
-5.790323455944418242e-12
-4.039110175917612135e-12
-2.748480546924506063e-12
-1.830128688992162383e-12
-1.196502963786169013e-12
