# bin_8_19
-1.583839050588085087e-37
-1.779273447981936434e-37
-1.963313338721439447e-37
-2.118569779147029970e-37
-2.222794172511527395e-37
-2.252825329669244902e-37
-2.184343488718045150e-37
-1.999263405418691197e-37
-1.730428038095938421e-37
-1.426360064447176187e-37
-1.171498538725323891e-37
-1.004584798688715594e-37
-8.546970677270163747e-38
-6.314668117292074881e-38
-4.456591833143175337e-38
-3.627758051372730209e-38
-2.405446503434670664e-38
-1.828458984043091530e-38
-1.255448736395094061e-38
-8.694928838237236237e-39
-6.105518061508111101e-39
-4.289065215522483163e-39
-3.038604198428071432e-39
-2.181321324320938754e-39
-1.597473827607128769e-39
-1.192514709893260472e-39
-9.056469979527991676e-40
-6.968414159807523204e-40
-5.395680111329141753e-40
-4.173633872378036044e-40
-3.202216532323680210e-40
