   0.1000E+05   0.5436E-12   0.3066E-04   0.9646E-03   0.4990E+00
   0.8129E+04   0.7257E-12   0.3066E-04   0.9646E-03   0.4968E+00
   0.6608E+04   0.9490E-12   0.3066E-04   0.9646E-03   0.4950E+00
   0.5372E+04   0.1220E-11   0.3066E-04   0.9646E-03   0.4937E+00
   0.4367E+04   0.1546E-11   0.3066E-04   0.9646E-03   0.4929E+00
   0.3550E+04   0.1944E-11   0.3066E-04   0.9646E-03   0.4927E+00
   0.2885E+04   0.2438E-11   0.3066E-04   0.9646E-03   0.4933E+00
   0.2346E+04   0.3072E-11   0.3066E-04   0.9646E-03   0.4946E+00
   0.1907E+04   0.3913E-11   0.3066E-04   0.9646E-03   0.4966E+00
   0.1550E+04   0.5068E-11   0.3066E-04   0.9646E-03   0.4990E+00
   0.1260E+04   0.6695E-11   0.3066E-04   0.9646E-03   0.5015E+00
   0.1024E+04   0.9020E-11   0.3066E-04   0.9646E-03   0.5039E+00
   0.8326E+03   0.1235E-10   0.3066E-04   0.9646E-03   0.5057E+00
   0.6768E+03   0.1707E-10   0.3066E-04   0.9646E-03   0.5069E+00
   0.5501E+03   0.2364E-10   0.3066E-04   0.9646E-03   0.5074E+00
   0.4472E+03   0.3254E-10   0.3066E-04   0.9646E-03   0.5072E+00
   0.3635E+03   0.4421E-10   0.3066E-04   0.9646E-03   0.5064E+00
   0.2955E+03   0.5892E-10   0.3066E-04   0.9646E-03   0.5052E+00
   0.2402E+03   0.7640E-10   0.3066E-04   0.9646E-03   0.5032E+00
   0.1953E+03   0.9590E-10   0.3066E-04   0.9646E-03   0.5014E+00
   0.1587E+03   0.1176E-09   0.3066E-04   0.9646E-03   0.4998E+00
   0.1290E+03   0.1390E-09   0.3066E-04   0.9646E-03   0.4970E+00
   0.1049E+03   0.1583E-09   0.3066E-04   0.9646E-03   0.4948E+00
   0.8527E+02   0.1744E-09   0.3066E-04   0.9646E-03   0.4927E+00
   0.6931E+02   0.1862E-09   0.3066E-04   0.9646E-03   0.4907E+00
   0.5635E+02   0.1927E-09   0.3066E-04   0.9646E-03   0.4887E+00
   0.4580E+02   0.1936E-09   0.3066E-04   0.9646E-03   0.4868E+00
   0.3723E+02   0.1889E-09   0.3066E-04   0.9646E-03   0.4849E+00
   0.3027E+02   0.1791E-09   0.3066E-04   0.9646E-03   0.4831E+00
   0.2460E+02   0.1654E-09   0.3066E-04   0.9646E-03   0.4814E+00
   0.2000E+02   0.1491E-09   0.3066E-04   0.9646E-03   0.4799E+00
