# te
3.557372502567317962e+00
4.428319937799664707e+00
4.553027007169116125e+00
4.230403377494326378e+00
3.693638437837699406e+00
3.091597888543028194e+00
2.516761842450242703e+00
2.017321259061307437e+00
1.620471769092181713e+00
1.337213271830413275e+00
1.169345316186311656e+00
1.094385231585993656e+00
1.085484771233077739e+00
1.122690340571539602e+00
1.188259472920476068e+00
1.266399456476923202e+00
1.343176313048467296e+00
1.410141557153516967e+00
1.462485361980114362e+00
1.504467668977136796e+00
1.541785866695773999e+00
1.576816946306882627e+00
1.611529347099941889e+00
1.649577698219252708e+00
1.693906099259669285e+00
1.742930654909994548e+00
1.793960287997566683e+00
1.844397134643047886e+00
1.891482478016358604e+00
1.931715757081760021e+00
1.961514157639863143e+00
1.977704669958905370e+00
1.978590248436577381e+00
1.967967064463258531e+00
1.949325240855950048e+00
1.919437697909830431e+00
1.874976522727075379e+00
1.818927672159675435e+00
1.755855779261449090e+00
1.689060886886192270e+00
1.616780919328861810e+00
1.535989001920017749e+00
1.443657946843656781e+00
1.336760879430338944e+00
1.213060471875912150e+00
1.073478940805816739e+00
9.197282584751559353e-01
7.535203449479398463e-01
5.765671724792721387e-01
3.901087492640495924e-01
1.934979579316537246e-01
-1.438440853356003427e-02
-2.346574462411620543e-01
-4.684402219432325376e-01
-7.166106991106803159e-01
-9.790817447125959028e-01
-1.255524920196410266e+00
-1.545611995773929159e+00
-1.849014585083677442e+00
-2.165511815417173747e+00
-2.495311929238227311e+00
-2.838730995810203162e+00
-3.196084666867717416e+00
-3.567688802909760426e+00
-3.953626074628731502e+00
-4.353044932140042178e+00
-4.764861470810012101e+00
-5.187991786004960026e+00
-5.621350720504957543e+00
-6.064150815088463098e+00
-6.516794984998735885e+00
-6.979980503247427137e+00
-7.454407148018685092e+00
-7.940773027381659688e+00
-8.439575418076996627e+00
-8.950504513772573389e+00
-9.473046754106512424e+00
-1.000669191894693810e+01
-1.055092728298947158e+01
-1.110519085253729799e+01
-1.166872523043884158e+01
-1.224072291609258123e+01
-1.282037807901200210e+01
-1.340688071342308518e+01
-1.399956026815415200e+01
-1.459826977308537721e+01
-1.520300171269927247e+01
-1.581374606630584978e+01
-1.643049114310012015e+01
-1.705314341664220379e+01
-1.768126030645763436e+01
-1.831431739643704759e+01
-1.895179027047108988e+01
-1.959315117222039859e+01
-2.023787735569061041e+01
-2.088543939442737241e+01
-2.153531621255131512e+01
-2.218697671349308820e+01
-2.283989982137332220e+01
-2.349355777985266158e+01
-2.414742450270674823e+01
-2.480097724394121528e+01
-2.545368824721671075e+01
-2.610502975619386845e+01
-2.675448236510832700e+01
-2.740151497739073250e+01
-2.804560317693172422e+01
-2.868622254762193435e+01
-2.932284366300701350e+01
-2.995494544720759222e+01
-3.058198678296433215e+01
-3.120341987255789817e+01
-3.181872029987892603e+01
-3.242733692697809289e+01
-3.302873197682605166e+01
-3.362236433216345688e+01
-3.420769955619095981e+01
-3.478419319141922728e+01
-3.535130412058892091e+01
-3.590849456667068296e+01
-3.645522341240518216e+01
-3.699094954053307305e+01
-3.751513851425500690e+01
-3.802724253585165570e+01
-3.852673050875365846e+01
-3.901305463524168005e+01
-3.948567379805638922e+01
-3.994405690062843206e+01
-4.038765614523845926e+01
-4.081595045600712268e+01
-4.122847554096497902e+01
-4.162478380929258037e+01
-4.200442432994046271e+01
-4.236694951208918525e+01
-4.271191176491927877e+01
-4.303886683784129730e+01
-4.334736379980578391e+01
-4.363694837953328687e+01
-4.390717632643435309e+01
-4.415760338991952239e+01
-4.438777863893934494e+01
-4.459725114244436384e+01
-4.478557999007512791e+01
-4.495230423009218157e+01
-4.509698963259606330e+01
-4.521917524584733172e+01
-4.531842349971652339e+01
-4.539428012292418657e+01
-4.544629752465087336e+01
-4.547408155775705296e+01
-4.547744516936295867e+01
-4.545626143072874470e+01
-4.541038671196458409e+01
-4.533969742456063301e+01
-4.524405327885705219e+01
-4.512333068634399780e+01
-4.497738935736164478e+01
-4.480609902294014546e+01
-4.460932941410966635e+01
-4.438694358144036300e+01
-4.413880791573240003e+01
-4.386479882847594070e+01
-4.356477268978114381e+01
-4.323859923067817590e+01
-4.288615152242719120e+01
-4.250728927536835755e+01
-4.210188556076182920e+01
-4.166980342917777591e+01
-4.121091261164635711e+01
-4.072507949896773738e+01
-4.021217048194206711e+01
-3.967205863182951475e+01
-3.910460031874025333e+01
-3.850967529439441961e+01
-3.788718669212213541e+01
-3.723725810043325879e+01
-3.656004316990759406e+01
-3.585570891204493904e+01
-3.512441231765509997e+01
-3.436632373846787658e+01
-3.358159348483308548e+01
-3.277038522802052256e+01
-3.193286597952998562e+01
-3.106919273017128447e+01
-3.017952915121421853e+01
-2.926403557369859598e+01
-2.832286898843422307e+01
-2.735620141726588983e+01
-2.636418651077341480e+01
-2.534698961034158771e+01
-2.430476770678022191e+01
-2.323768614147412137e+01
-2.214590691557807745e+01
-2.102958869001690800e+01
-1.988889179583041056e+01
-1.872398157440338906e+01
-1.753501835677564458e+01
-1.632216247398698172e+01
-1.508557592719220786e+01
-1.382550589341101777e+01
-1.254253691289270201e+01
-1.123734204198143871e+01
-9.910590996791414753e+00
-8.562956833666811818e+00
-7.195109268721813223e+00
-5.807719688185601470e+00
-4.401459895816109302e+00
-2.977000025256271609e+00
-1.535012506557143830e+00
-7.616791698595710980e-02
1.398862435514746316e+00
2.889407295193517911e+00
4.394795301916722075e+00
5.914355695748299446e+00
7.447416881694693735e+00
8.993307055997972199e+00
1.055135650254394974e+01
1.212089300004594428e+01
1.370124599733227200e+01
1.529174327311625170e+01
1.689171344116870088e+01
1.850048678537543623e+01
2.011739191950727346e+01
2.174175578722002911e+01
2.337290867239952163e+01
2.501018085893156595e+01
2.665289762035698118e+01
2.830038924056158578e+01
2.995198600343119466e+01
3.160701318250662695e+01
3.326480273178869851e+01
3.492468326504821619e+01
3.658598339605601524e+01
3.824802839835290769e+01
3.991015022593970230e+01
4.157168083281721493e+01
4.323194549252627183e+01
4.489027281883768694e+01
4.654598808529227938e+01
4.819842658612086694e+01
4.984691693509425647e+01
5.149077772529327746e+01
5.312935093140873732e+01
5.476196182698145520e+01
5.638793234532225540e+01
5.800660112089194342e+01
5.961728674677135587e+01
6.121932785742128402e+01
6.281204304592256449e+01
6.439478430765598205e+01
6.596693704030229810e+01
6.752790000246221780e+01
6.907708531365649662e+01
7.061389841294581515e+01
7.213772469801095610e+01
7.364798964929259739e+01
7.514408534493148295e+01
7.662541054352836056e+01
7.809138404506391851e+01
7.954139124721889686e+01
8.097485763043403040e+01
8.239116191193004113e+01
8.378972289168765997e+01
8.516993932830759206e+01
8.653121666085058905e+01
8.787296032837737414e+01
8.919456908948865248e+01
9.049544838324516149e+01
9.177499696824764897e+01
9.303262696401681353e+01
9.426773712915337455e+01
9.547972622225809403e+01
9.666801304331166023e+01
9.783198298999482745e+01
9.897105486228831239e+01
1.000846207383328306e+02
1.011720860571891194e+02
1.022328562579179021e+02
1.032663300991199122e+02
1.042719263807758665e+02
1.052490305005664908e+02
1.061970545780125121e+02
1.071153973717146783e+02
1.080034643207336842e+02
1.088606675445902567e+02
1.096864058018851296e+02
1.104800644902990570e+02
1.112410757707327207e+02
1.119688250408668750e+02
1.126627244202222329e+02
1.133221659869395381e+02
1.139465618605394894e+02
1.145353241605428281e+02
1.150878382846302799e+02
1.156035029914025927e+02
1.160817437613004586e+02
1.165219593529246112e+02
1.169235485248757840e+02
1.172859233966746899e+02
1.176085896142819252e+02
1.178916674259773458e+02
1.181353038018807808e+02
1.183397392385519424e+02
1.185051607888705831e+02
1.186317822275564424e+02
1.187197906074893154e+02
1.187693863424689482e+02
1.187807965681350595e+02
1.187542083373674302e+02
1.186898087030458129e+02
1.185878248008099547e+02
1.184484436835396224e+02
1.182718791259545412e+02
1.180583181809344921e+02
1.178079879841192081e+02
1.175210755883884417e+02
1.171977680466219880e+02
1.168382924944595658e+02
1.164428226238609483e+02
1.160115989313858478e+02
1.155447951089940517e+02
1.150426249314053138e+02
1.145053021733393734e+02
1.139330005267560040e+02
1.133259471272949384e+02
1.126843290278359433e+02
1.120083466421787648e+02
1.112982137450431708e+02
1.105541240697689176e+02
1.097762913910757163e+02
1.089649027618433763e+02
1.081201786372516125e+02
1.072423127506401812e+02
1.063314988353488673e+02
1.053879506660973959e+02
1.044118552957655339e+02
1.034034398599930284e+02
1.023628847311996282e+02
1.012903970036451113e+02
1.001861837715891994e+02
9.905045212929165643e+01
9.788340249055224263e+01
9.668521522779072086e+01
9.545612415710682797e+01
9.419631633138031646e+01
9.290599216441094654e+01
9.158535206999849265e+01
9.023460982286266585e+01
8.885396583680325477e+01
8.744370737159987073e+01
8.600456259739165432e+01
8.453733984983762184e+01
8.304284078413678571e+01
8.152188041640816607e+01
7.997528044323075846e+01
7.840384251980357533e+01
7.680837498178564715e+01
7.518969952575596949e+01
7.354861780691355477e+01
7.188594484137743734e+01
7.020249564526659469e+01
6.849906519332007804e+01
6.677648854303687642e+01
6.503556066915599843e+01
6.327710326825647513e+01
6.150191131507730802e+01
5.971081986711750034e+01
5.790461721865608524e+01
5.608412506627206540e+01
5.425015508585445190e+01
5.240352229352225066e+01
5.054502834447448123e+01
4.867548825483016373e+01
4.679572038093829889e+01
4.490652303776791143e+01
4.300871792189799692e+01
4.110311336898757872e+01
3.919051771469566603e+01
3.727174263491128414e+01
3.534760648598341959e+01
3.341891092311110611e+01
3.148647430264335156e+01
2.955110162000916674e+01
2.761361123155755948e+01
2.567480813271755480e+01
2.373550900972314892e+01
2.179651885800336686e+01
1.985865436379221904e+01
1.792272553286371206e+01
1.598954070087686397e+01
1.405991488395068600e+01
1.213465641774419090e+01
1.021457948331888765e+01
8.300493251391293015e+00
6.393208980321669621e+00
4.493538345999027683e+00
2.602292606783631168e+00
7.202833863733972830e-01
-1.151678526591253915e+00
-3.012824827020164076e+00
-4.862559857961089804e+00
-6.700331855171576478e+00
-8.525587175529800277e+00
-1.033777468108642950e+01
-1.213634156377713857e+01
-1.392073501553760018e+01
-1.569040306336098745e+01
-1.744479039401047515e+01
-1.918335004482422690e+01
-2.090552586750792230e+01
-2.261076672411223143e+01
-2.429851980657282695e+01
-2.596823063671038767e+01
-2.761935141680557493e+01
-2.925132599856406657e+01
-3.086360491415153362e+01
-3.245563201527365038e+01
-3.402685616398109403e+01
-3.557672622232452397e+01
-3.710469105235462450e+01
-3.861019283566206184e+01
-4.009268043429752026e+01
-4.155160939077164528e+01
-4.298641854644513671e+01
-4.439656010359865945e+01
-4.578147624382287972e+01
-4.714062250962847145e+01
-4.847344108260610795e+01
-4.977937748457646450e+01
-5.105788391782021307e+01
-5.230840924438802375e+01
-5.353039230564057505e+01
-5.472329532454852341e+01
-5.588655046201255772e+01
-5.701960992031335707e+01
-5.812193258219156178e+01
-5.919295060854787494e+01
-6.023211620166295432e+01
-6.123888156381747905e+01
-6.221269221683211725e+01
-6.315298700206755456e+01
-6.405922480226443838e+01
-6.493085781970344783e+01
-6.576731821528527178e+01
-6.656805819129058932e+01
-6.733252995000003693e+01
-6.806018569369430793e+01
-6.875045758327406986e+01
-6.940280450148001989e+01
-7.001681225979261569e+01
-7.059262114787172493e+01
-7.113052510595696276e+01
-7.163080471336799349e+01
-7.209373386896450597e+01
-7.251961319344610502e+01
-7.290872326613246912e+01
-7.326133798588324453e+01
-7.357775797339807866e+01
-7.385825712753664618e+01
-7.410312938853857645e+01
-7.431264865526354413e+01
-7.448710886795117858e+01
-7.462679060592115832e+01
-7.473198112895312306e+01
-7.480296101636672290e+01
-7.484002420840160141e+01
-7.484343792345744362e+01
-7.481350278223388273e+01
-7.475049936405056883e+01
-7.465470824822718043e+01
-7.452641669454334306e+01
-7.436591864323870027e+01
-7.417348799317294095e+01
-7.394940532366570096e+01
-7.369397125541662774e+01
-7.340745968728538173e+01
-7.309014451813162339e+01
-7.274233972957499361e+01
-7.236430585955514516e+01
-7.195633684831175003e+01
-7.151871327516444410e+01
-7.105172908035287094e+01
-7.055566484319670906e+01
-7.003079446255559048e+01
-6.947741187866920143e+01
-6.889580435131715319e+01
-6.828625914027911392e+01
-6.764905014441475828e+01
-6.698447130396371563e+01
-6.629280319824563605e+01
-6.557432640658019807e+01
-6.482932818874704139e+01
-6.405810248498580961e+01
-6.326092987461615991e+01
-6.243808425649775984e+01
-6.158986625133024972e+01
-6.071655643843327965e+01
-5.981842871666651718e+01
-5.889577702626960587e+01
-5.794896879254209665e+01
-5.697871214424313280e+01
-5.598579203542175975e+01
-5.497099342012701584e+01
-5.393512463401791734e+01
-5.287896061045352525e+01
-5.180329632417286945e+01
-5.070891672922499538e+01
-4.959662014057892776e+01
-4.846718817205371721e+01
-4.732141579838840073e+01
-4.616009131386201148e+01
-4.498400635298359163e+01
-4.379394586980218662e+01
-4.259070149882682443e+01
-4.137506487456654725e+01
-4.014782763153039014e+01
-3.890977472376739854e+01
-3.766170112601660946e+01
-3.640439513255704895e+01
-3.513864169743778376e+01
-3.386523579539782247e+01
-3.258496572071621955e+01
-3.129862310790201008e+01
-3.000699625123423431e+01
-2.871087678522192377e+01
-2.741104966391412745e+01
-2.610830986204987525e+01
-2.480344400379321357e+01
-2.349724539376817489e+01
-2.219050065613879852e+01
-2.088399975529912567e+01
-1.957853599587318882e+01
-1.827489600202503439e+01
-1.697386806803369907e+01
-1.567624716863821810e+01
-1.438281992800263254e+01
-1.309437798063597747e+01
-1.181170878575979621e+01
-1.053560314282562516e+01
-9.266851851285002439e+00
-8.006243205416966546e+00
-6.754568839730556995e+00
-5.512617466033562508e+00
-4.281179048720020752e+00
-3.061043552183970284e+00
-1.853000732055075206e+00
-6.578408136828425290e-01
5.236466560674392090e-01
1.690671608419544114e+00
2.842503576826236333e+00
3.978647319999524701e+00
5.098667355453689431e+00
6.202127783174261388e+00
7.288593955733019492e+00
8.357628720529245214e+00
9.408796595077220104e+00
1.044166167936247369e+01
1.145578974348553558e+01
1.245074321731693701e+01
1.342608787095720579e+01
1.438138696933437544e+01
1.531620544749147683e+01
1.623010740541403507e+01
1.712265694308758768e+01
1.799341816049766152e+01
1.884195515762978701e+01
1.966783203446949457e+01
2.047061456111731559e+01
2.124986683755877692e+01
2.200515129366441158e+01
2.273603369953475095e+01
2.344207815515532545e+01
2.412284709039666453e+01
2.477790794547429698e+01
2.540682482037375323e+01
2.600915680473557146e+01
2.658447467900526817e+01
2.713233753282338867e+01
2.765231614663544946e+01
2.814396626985199035e+01
2.860686202314853332e+01
2.904055748582062435e+01
2.944462510842877379e+01
2.981862398061352692e+01
3.016212321270540642e+01
3.047468189434494690e+01
3.075586579563267620e+01
3.100524068666912925e+01
3.122236899732483195e+01
3.140681649770031214e+01
3.155814561766610993e+01
3.167592546755274441e+01
3.175971847723074504e+01
3.180908373634065711e+01
3.182358701498300135e+01
3.180279742348830752e+01
3.174627739172710861e+01
3.165359268979992891e+01
3.152430240734730660e+01
3.135810592366960492e+01
3.115524707555653450e+01
3.091609328830764269e+01
3.064101866768247362e+01
3.033039731944057493e+01
2.998460000911149592e+01
2.960400084245477714e+01
2.918897058499996788e+01
2.873988668273661062e+01
2.825711322073426501e+01
2.774103098521246125e+01
2.719200907158575120e+01
2.661041824538368772e+01
2.599663595259580973e+01
2.535103295875166651e+01
2.467397835926580640e+01
2.396585127024276574e+01
2.322701744686710512e+01
2.245785433512836349e+01
2.165873270055608657e+01
2.083002497879482462e+01
1.997210360548912433e+01
1.908534268639852627e+01
1.817011465716758067e+01
1.722679362355582811e+01
1.625574868097782399e+01
1.525735226507811504e+01
1.423198015173124098e+01
1.318000477658174852e+01
1.210179607010169001e+01
1.099772980816560519e+01
9.868175921245544657e+00
8.713509350158552991e+00
7.534100860434178593e+00
6.330324557831964682e+00
5.102552042938961030e+00
3.851156586457211706e+00
2.576510206502514500e+00
1.278986278159102152e+00
-4.104303040783367773e-02
-1.383204898644430303e+00
-2.747126649522332986e+00
-4.132435684299826661e+00
-5.538759358567991065e+00
-6.965724819153529701e+00
-8.412960465469394578e+00
-9.880091356698541105e+00
-1.136674756236892136e+01
-1.287255497672098947e+01
-1.439713949399520132e+01
-1.594006521417708733e+01
-1.750061064758752849e+01
-1.907799752063746723e+01
-2.067143920916286248e+01
-2.228015743957466199e+01
-2.390336224747883165e+01
-2.554027702940130951e+01
-2.719011349106305886e+01
-2.885209168876003005e+01
-3.052543000867317247e+01
-3.220934015652344584e+01
-3.390304051849180667e+01
-3.560575282098919558e+01
-3.731668542950657752e+01
-3.903506007045489667e+01
-4.076009513001510953e+01
-4.249100565413817776e+01
-4.422701002900503653e+01
-4.596731996033665979e+01
-4.771116051477398656e+01
-4.945774005780797467e+01
-5.120627697561958769e+01
-5.295599299461975562e+01
-5.470609982052945242e+01
-5.645581917975962227e+01
-5.820436277803122493e+01
-5.995095568198519942e+01
-6.169480959734250547e+01
-6.343512954936411319e+01
-6.517115396561095508e+01
-6.690208787134399415e+01
-6.862714297228417593e+01
-7.034555101553246459e+01
-7.205651702634980893e+01
-7.375925939091715122e+01
-7.545300317587545180e+01
-7.713695340648568788e+01
-7.881033514938877715e+01
-8.047235342984569684e+01
-8.212224667541737233e+01
-8.375921991136478084e+01
-8.538247816294888537e+01
-8.699125317727062168e+01
-8.858476334051093204e+01
-9.016221367793079366e+01
-9.172282925617115268e+01
-9.326582846141295136e+01
-9.479041631891715269e+01
-9.629583125624469631e+01
-9.778127161819655555e+01
-9.924600923463361823e+01
-1.006896232365763950e+02
-1.021116727136654134e+02
-1.035117768796811504e+02
-1.048895616288640582e+02
-1.062445927313146541e+02
-1.075764894008134149e+02
-1.088848641706807996e+02
-1.101693095328573264e+02
-1.114294380206634401e+02
-1.126648354455796692e+02
-1.138751210213864482e+02
-1.150599006009442888e+02
-1.162187599957336772e+02
-1.173513117390750864e+02
-1.184571683642889894e+02
-1.195359156828559009e+02
-1.205871662280962795e+02
-1.216105325333305842e+02
-1.226055870491193645e+02
-1.235719690306230518e+02
-1.245092642893221324e+02
-1.254170719976171142e+02
-1.262950046888284561e+02
-1.271426615353566518e+02
-1.279596550705221745e+02
-1.287455844667255178e+02
-1.295000221745271745e+02
-1.302226208100075837e+02
-1.309129528237272950e+02
-1.315706441099267181e+02
-1.321952537582464231e+02
-1.327864343847668067e+02
-1.333437584400484184e+02
-1.338668518183316962e+02
-1.343553003310971405e+02
-1.348087165116652102e+02
-1.352266995324364132e+02
-1.356088352048912782e+02
-1.359547627841901942e+02
-1.362640680818136900e+02
-1.365363502701622735e+02
-1.367712085216363960e+02
-1.369682553695565161e+02
-1.371270899863231989e+02
-1.372473249052568463e+02
-1.373285459378379585e+02
-1.373703656173870513e+02
-1.373724098381445629e+02
-1.373342376897510348e+02
-1.372556086756467550e+02
-1.371367632923914073e+02
-1.369780622848246026e+02
-1.367798797587058175e+02
-1.365425898197946708e+02
-1.362665398520106805e+02
-1.359521306829533955e+02
-1.355997230574623700e+02
-1.352096777203771296e+02
-1.347823687774572932e+02
-1.343181569735423295e+02
-1.338174297753118367e+02
-1.332805345666853896e+02
-1.327078588143424724e+02
-1.320997766240426472e+02
-1.314566353797054887e+02
-1.307788225480105666e+02
-1.300667122347173859e+02
-1.293206518237455214e+02
-1.285410421426944936e+02
-1.277282172145638839e+02
-1.268825645060332477e+02
-1.260044714837820976e+02
-1.250942721708100436e+02
-1.241523540337965841e+02
-1.231790911785012810e+02
-1.221748443497636885e+02
-1.211400010142633334e+02
-1.200748951949998258e+02
-1.189799410804926509e+02
-1.178554726937414046e+02
-1.167018775014256136e+02
-1.155195162483848321e+02
-1.143087764012985872e+02
-1.130699919831664886e+02
-1.118035771825080218e+02
-1.105098660223227824e+02
-1.091892459692902975e+02
-1.078420777682501210e+02
-1.064687422054218047e+02
-1.050695933451849129e+02
-1.036450186542189584e+02
-1.021953655164435446e+02
-1.007210347594581634e+02
-9.922236040626241049e+01
-9.769974328445580625e+01
-9.615353745841790101e+01
-9.458411035344828122e+01
-9.299183607530646611e+01
-9.137708872975200336e+01
-8.974029586622437193e+01
-8.808215893302272548e+01
-8.640344618304612823e+01
-8.470491250827365093e+01
-8.298732616160437203e+01
-8.125144871547735193e+01
-7.949804842279165484e+01
-7.772788685598636960e+01
-7.594172558750057078e+01
-7.414032618977330458e+01
-7.232446359616365328e+01
-7.049489269865067342e+01
-6.865238175013345767e+01
-6.679767896213108713e+01
-6.493156594846259111e+01
-6.305480428156706552e+01
-6.116815553388357074e+01
-5.927237459739119174e+01
-5.736823640544898950e+01
-5.545649919026603669e+01
-5.353793454497139237e+01
-5.161329402131414668e+01
-4.968334921242335867e+01
-4.774885835050810101e+01
-4.581059302869743277e+01
-4.386931147920044793e+01
-4.192577861468619460e+01
-3.998075600759375448e+01
-3.803501191082219890e+01
-3.608930789681058826e+01
-3.414440553799800426e+01
-3.220107308728351114e+01
-3.026006877687618157e+01
-2.832216085967508334e+01
-2.638811090811929105e+01
-2.445868216476287316e+01
-2.253463954227489552e+01
-2.061674628320943725e+01
-1.870576563012056326e+01
-1.680246249567734296e+01
-1.490760012243384836e+01
-1.302194175294414968e+01
-1.114625062976231895e+01
-9.281291665557425574e+00
-7.427828102883538008e+00
-5.586624019352228743e+00
-3.758442657517567120e+00
-1.944047468697999381e+00
-1.442028175561109460e-01
1.640327975067386923e+00
3.408839363872493422e+00
5.160858262690488196e+00
6.895969961090937517e+00
8.613759226732472740e+00
1.031381270615309731e+01
1.199571454071831589e+01
1.365905054190863410e+01
1.530340401603205791e+01
1.692836244468409035e+01
1.853351163934523527e+01
2.011843407126600169e+01
2.168271889215689185e+01
2.322594690315341026e+01
2.474770558585106173e+01
2.624758075173035010e+01
2.772515487204178442e+01
2.918001876861086430e+01
3.061175157245810041e+01
3.201993909506399660e+01
3.340417048813905154e+01
3.476403156316376908e+01
3.609910145115866698e+01
3.740897264406424227e+01
3.869322427290099142e+01
3.995144214914943603e+01
4.118321876475006604e+01
4.238813325072339921e+01
4.356576807831993392e+01
4.471571573948016720e+01
4.583755202499462200e+01
4.693087276703378308e+01
4.799525709661817530e+01
4.903029082522828475e+01
5.003556644480462268e+01
5.101064972544771337e+01
5.195514652001803313e+01
5.286863929976608745e+01
5.375070385548239926e+01
5.460092599864747598e+01
5.541890156143180235e+01
5.620420633462589421e+01
5.695642612971026608e+01
5.767515009839540596e+01
5.835996405216182126e+01
5.901044712203002263e+01
5.962619179994051422e+01
6.020678389737378922e+01
6.075179586489038286e+01
6.126082019443077797e+01
6.173344937793547160e+01
6.216938279470483764e+01
6.256876073439869401e+01
6.293185709587672250e+01
6.325895913891855571e+01
6.355030736008391301e+01
6.380618233869245159e+01
6.402685797360383901e+01
6.421259480275774933e+01
6.436366672501385722e+01
6.448034095877184768e+01
6.456289140289135275e+01
6.461156523439210275e+01
6.462665639351374125e+01
6.460842541819593521e+01
6.455713284637836580e+01
6.447305925738069732e+01
6.435645850868263551e+01
6.420761117960381625e+01
6.402678448854392457e+01
6.381424565390263837e+01
6.357026189407962846e+01
6.329510042747456566e+01
6.298903515294711752e+01
6.265232660843697943e+01
6.228525537326378725e+01
6.188807530490725384e+01
6.146106698268702928e+01
6.100449094454278764e+01
6.051861440887422106e+01
6.000371795500097249e+01
5.946006212086273024e+01
5.888791412485917931e+01
5.828754786584996594e+01
5.765923056223478227e+01
5.700322275195330235e+01
5.631979833386519374e+01
5.560923120683012399e+01
5.487178858924777103e+01
5.410772767882782119e+01
5.331732905488992458e+01
5.250085993583376620e+01
5.165858419982901495e+01
5.079076906527535584e+01
4.989769177126245125e+01
4.897961619595997007e+01
4.803680621753759539e+01
4.706953239462499994e+01
4.607807196631185320e+01
4.506268213030782732e+01
4.402364012570259177e+01
4.296126995480575061e+01
4.187613611648662015e+01
4.076886991421443440e+01
3.964010599168840798e+01
3.849045895122780792e+01
3.732056343653185593e+01
3.613104741083978411e+01
3.492253549716083683e+01
3.369565899896424099e+01
3.245104253925924098e+01
3.118931408128506533e+01
2.991110158828096033e+01
2.861703302348615452e+01
2.730773468002488613e+01
2.598383619125139177e+01
2.464596552040490351e+01
2.329474562037966479e+01
2.193080779464490604e+01
2.055478167655486388e+01
1.916729021900377461e+01
1.776896305534587839e+01
1.636042814882040375e+01
1.494231513278159085e+01
1.351524529000868036e+01
1.207985326420089933e+01
1.063676200825248941e+01
9.186600320460186708e+00
7.729996164063225983e+00
6.267577084772093521e+00
4.799971045826024962e+00
3.327805384171131475e+00
1.851707019224775097e+00
3.723041490861127567e-01
-1.109775758821009761e+00
-2.593905080499465665e+00
-4.079456296334315724e+00
-5.565801860615073871e+00
-7.052314436395628938e+00
-8.538365225379246581e+00
-1.002332876949918550e+01
-1.150657543540121708e+01
-1.298747725984610035e+01
-1.446541045488209853e+01
-1.593974288198248068e+01
-1.740984991813800420e+01
-1.887510192999443959e+01
-2.033487262442754684e+01
-2.178853570831308417e+01
-2.323545987818182823e+01
-2.467502218113953560e+01
-2.610662972636192336e+01
-2.752985496440951252e+01
-2.894430541825778391e+01
-3.034959028099721223e+01
-3.174532208594827054e+01
-3.313110668597143871e+01
-3.450654993392718950e+01
-3.587126436313599953e+01
-3.722485916668834705e+01
-3.856694353767471029e+01
-3.989712666918555328e+01
-4.121501441408136657e+01
-4.252021596545262128e+01
-4.381234385661979047e+01
-4.509100728067334529e+01
-4.635580875024377434e+01
-4.760636747911154742e+01
-4.884227929944714219e+01
-5.006316342503102845e+01
-5.126862904895368445e+01
-5.245827200338560203e+01
-5.363172152279723548e+01
-5.478857009912906761e+01
-5.592843360593158053e+01
-5.705092123629523826e+01
-5.815564218331052615e+01
-5.924220564006791534e+01
-6.031021745942788925e+01
-6.135927681379092746e+01
-6.238902295831748290e+01
-6.339902834356806238e+01
-6.438893222470311173e+01
-6.535832041320313124e+01
-6.630681880330857325e+01
-6.723403324787993540e+01
-6.813955623885769342e+01
-6.902302035094230348e+01
-6.988401807607425553e+01
-7.072216862803402648e+01
-7.153707785968208555e+01
-7.232834494341892650e+01
-7.309559577348498749e+01
-7.383842952228079071e+01
-7.455645204266677695e+01
-7.524927586796344769e+01
-7.591650685103125795e+01
-7.655776420565069884e+01
-7.717265378468222536e+01
-7.776077476052634552e+01
-7.832174634696350779e+01
-7.885526124283408933e+01
-7.936139293319800458e+01
-7.984030842955505136e+01
-8.029215470202504434e+01
-8.071710544256777098e+01
-8.111530762130306016e+01
-8.148692824973070969e+01
-8.183213433935051739e+01
-8.215107286028228373e+01
-8.244391082402583493e+01
-8.271081524208094038e+01
-8.295193976502744704e+01
-8.316745140436511008e+01
-8.335749713021377261e+01
-8.352224395407324664e+01
-8.366185888744330157e+01
-8.377650226136374556e+01
-8.386632104595442172e+01
-8.393149561363507871e+01
-8.397216625406558421e+01
-8.398851333966568689e+01
-8.398067716009521178e+01
-8.394883140731398896e+01
-8.389312973190178013e+01
-8.381373914535842573e+01
-8.371081997872370550e+01
-8.358452588257742377e+01
-8.343502386841940677e+01
-8.326246758682945881e+01
-8.306703072976735314e+01
-8.284886026735291864e+01
-8.260811653062596349e+01
-8.234497321154626093e+01
-8.205957728023366826e+01
-8.175209574818794067e+01
-8.142268894644891475e+01
-8.107151720605637024e+01
-8.069874085805012953e+01
-8.030451355300999694e+01
-7.988900898289577412e+01
-7.945238079828725120e+01
-7.899478264976426090e+01
-7.851638822928657646e+01
-7.801734450697404100e+01
-7.749783185524640317e+01
-7.695799056376353064e+01
-7.639798764402517861e+01
-7.581798342707118366e+01
-7.521815160486133323e+01
-7.459862578659544852e+01
-7.395964646883324178e+01
-7.330162115963420888e+01
-7.262505089349775744e+01
-7.193040998308330813e+01
-7.121817274105026740e+01
-7.048883352143805325e+01
-6.974287331736606177e+01
-6.898077980241372131e+01
-6.820301392832044485e+01
-6.741008341004562965e+01
-6.660245587978872095e+01
-6.578062569158907991e+01
-6.494506047764616596e+01
-6.409625459199936870e+01
-6.323468234730810877e+01
-6.236083141715179323e+01
-6.147518947510983622e+01
-6.057823083384165130e+01
-5.967043648646665588e+01
-5.875229410656425699e+01
-5.782429136771386169e+01
-5.688689590211490099e+01
-5.594060540403676640e+01
-5.498589418613887858e+01
-5.402324658177064975e+01
-5.305314358405150443e+01
-5.207607286656083545e+01
-5.109251542241806021e+01
-5.010294556428260648e+01
-4.910785764619387095e+01
-4.810772932104126909e+01
-4.710304158194421120e+01
-4.609427876225212373e+01
-4.508192519531440468e+01
-4.406645853402046953e+01
-4.304836645194973244e+01
-4.202812660199160888e+01
-4.100622999795550783e+01
-3.998314761227084801e+01
-3.895937045874703131e+01
-3.793537619027348029e+01
-3.691165248042959490e+01
-3.588868366256479447e+01
-3.486694070910850485e+01
-3.384691797410012271e+01
-3.282909311042905642e+01
-3.181394711121473762e+01
-3.080196430980656430e+01
-2.979363237978394707e+01
-2.878942563380631015e+01
-2.778980335349809394e+01
-2.679511125266387239e+01
-2.580566498303826961e+01
-2.482178186647089291e+01
-2.384378089492635411e+01
-2.287197939025427473e+01
-2.190669467430425854e+01
-2.094824239881092609e+01
-1.999694322585388662e+01
-1.905311113705275972e+01
-1.811706679448715107e+01
-1.718912584989167769e+01
-1.626960562511595754e+01
-1.535882678223959630e+01
-1.445710163276721261e+01
-1.356475417900841585e+01
-1.268209589741032417e+01
-1.180944661499504988e+01
-1.094712448866970433e+01
-1.009544600522640145e+01
-9.254729321572257916e+00
-8.425292594614383290e+00
-7.607451476087392805e+00
-6.801524957955900064e+00
-6.007829527012019000e+00
-5.226683757691612975e+00
-4.458404554315544388e+00
-3.703309238733427655e+00
-2.961715967852375897e+00
-2.233941437228878168e+00
-1.520303908152235151e+00
-8.211204937076853616e-01
-1.367087636525377015e-01
5.326137644469928212e-01
1.186529546929144363e+00
1.824721092323248417e+00
2.446870870015316779e+00
3.052661453773548139e+00
3.641775104219579617e+00
4.213894708268171918e+00
4.768702735305335949e+00
5.305881445952709718e+00
5.825113100831929458e+00
6.326080795622130992e+00
6.808465955887450960e+00
7.271952929893275908e+00
7.716221890617492640e+00
8.140957186325486816e+00
8.545840660110146203e+00
8.930554155064356792e+00
9.294852164283417650e+00
9.638770595239787298e+00
9.962413830120834035e+00
1.026589126145892905e+01
1.054930810649894291e+01
1.081277125260074357e+01
1.105638675206670563e+01
1.128026232731419398e+01
1.148450486570308193e+01
1.166921958447824004e+01
1.183451420605703674e+01
1.198049394768434261e+01
1.210726736683503013e+01
1.221494051581146500e+01
1.230362028197352053e+01
1.237341104750856857e+01
1.242442220494897498e+01
1.245675980659711257e+01
1.247052906969785191e+01
1.246583771666856322e+01
1.244279263486911447e+01
1.240149987660187669e+01
1.234206716428422190e+01
1.226460055021851758e+01
1.216920525164963607e+01
1.205598982605244629e+01
1.192505949067182058e+01
1.177652113286762692e+01
1.161048247505723729e+01
1.142704956954301920e+01
1.122632846862734546e+01
1.100842772978508322e+01
1.077345090014610562e+01
1.052150737224278210e+01
1.025270236331998319e+01
9.967142760737578655e+00
9.664935451855438231e+00
9.346187324033431665e+00
9.011004429573929997e+00
8.659492820779304267e+00
8.291761055124423407e+00
7.907913514796658383e+00
7.508058757270878125e+00
7.092301999791954081e+00
6.660750964777256478e+00
6.213511287000405225e+00
5.750690688878769663e+00
5.272395222714720830e+00
4.778731775868128473e+00
4.269806818170112983e+00
3.745770242441742504e+00
3.206948973693867888e+00
2.653712524869790368e+00
2.086430826441559194e+00
1.505473286970287594e+00
9.112103588389617315e-01
3.040116854686161774e-01
-3.157529853375273254e-01
-9.477137492029658050e-01
-1.591500597369009062e+00
-2.246744121274544259e+00
-2.913073868536585120e+00
-3.590120534976205757e+00
-4.277513563828232002e+00
-4.974884277206863104e+00
-5.681861492053800866e+00
-6.398076112954495187e+00
-7.123158209436894595e+00
-7.856737851028951169e+00
-8.598445107258614328e+00
-9.347910882711333969e+00
-1.010476357680006032e+01
-1.086863492916774376e+01
-1.163915417428483678e+01
-1.241595221673678573e+01
-1.319865912605154179e+01
-1.398690413669955745e+01
-1.478031898832377955e+01
-1.557853208033716186e+01
-1.638117431732515072e+01
-1.718787493375820219e+01
-1.799826650433675823e+01
-1.881197659341627926e+01
-1.962863610558220628e+01
-2.044787761553499195e+01
-2.126932868763008599e+01
-2.209261855633794269e+01
-2.291737979635901112e+01
-2.374323997204873749e+01
-2.456983332822257537e+01
-2.539678742923597099e+01
-2.622372983944438118e+01
-2.705029480366325245e+01
-2.787611155636303550e+01
-2.870080933201417750e+01
-2.952401903520213367e+01
-3.034536823028235375e+01
-3.116448949195528328e+01
-3.198101539492137491e+01
-3.279457183342108095e+01
-3.360480808330482461e+01
-3.441144356525295933e+01
-3.521421440109578782e+01
-3.601286005289364311e+01
-3.680711330224684730e+01
-3.759671361121571209e+01
-3.838140044186055633e+01
-3.916090323555171437e+01
-3.993496813480949470e+01
-4.070332124077422264e+01
-4.146571203619620860e+01
-4.222186328198579019e+01
-4.297152780112326553e+01
-4.371442835451897224e+01
-4.445030774446323107e+01
-4.517890209278635893e+01
-4.589995086154866755e+01
-4.661319017258048092e+01
-4.731834946725213342e+01
-4.801517822831392124e+01
-4.870340255690619102e+01
-4.938276525531924221e+01
-5.005300578561339364e+01
-5.071385024892898485e+01
-5.136504478778632432e+01
-5.200631884355573931e+01
-5.263742523921753502e+01
-5.325808005522204525e+01
-5.386803277431958747e+01
-5.446701617811047669e+01
-5.505476638842504400e+01
-5.563102954778359077e+01
-5.619552173663646499e+01
-5.674800245842396862e+01
-5.728820449474640952e+01
-5.781585394674413436e+01
-5.833069027647745486e+01
-5.883245294600668274e+01
-5.932088141739215104e+01
-5.979571515269416437e+01
-6.025668025305305520e+01
-6.070352286098913908e+01
-6.113597575810273810e+01
-6.155377172599418145e+01
-6.195666358764376724e+01
-6.234437076373183118e+01
-6.271663271631869918e+01
-6.307319558792467973e+01
-6.341379216015008780e+01
-6.373815521459525968e+01
-6.404607765700043842e+01
-6.433756616782562787e+01
-6.461268087121075610e+01
-6.487148189129572984e+01
-6.511402935222048427e+01
-6.534038337812495456e+01
-6.555061077360906552e+01
-6.574475830189274461e+01
-6.592289276757590244e+01
-6.608507429479848838e+01
-6.623135632724043376e+01
-6.636180566950164916e+01
-6.647648912618204520e+01
-6.657545346050157775e+01
-6.665876547706017163e+01
-6.672648529999773359e+01
-6.677866637299422337e+01
-6.681538218110952698e+01
-6.683667948756360033e+01
-6.684262509695636822e+01
-6.683327913342775162e+01
-6.680870172111765726e+01
-6.676894630370605910e+01
-6.671407300533284968e+01
-6.664415531105795765e+01
-6.655923998410132469e+01
-6.645938714860285756e+01
-6.634467028962249913e+01
-6.621512948992018721e+01
-6.607085159547580133e+01
-6.591186332812932847e+01
-6.573825153386066233e+01
-6.555006297588973041e+01
-6.534736445881645750e+01
-6.513020942632078913e+01
-6.489866468300263591e+01
-6.465279035300193300e+01
-6.439263319953860787e+01
-6.411827338813256461e+01
-6.382975100154376946e+01
-6.352714620529211231e+01
-6.321049908213754520e+01
-6.287988311713998257e+01
-6.253535175397936285e+01
-6.217697179725559664e+01
-6.180479001018863272e+01
-6.141888655829836807e+01
-6.101930152434476184e+01
-6.060611507384771102e+01
-6.017936060910717089e+01
-5.973916505886299433e+01
-5.928574887829491757e+01
-5.881941268810255963e+01
-5.834043038714559515e+01
-5.784908255474368843e+01
-5.734565645067647921e+01
-5.683043933472362141e+01
-5.630370510574478260e+01
-5.576574102351961670e+01
-5.521682098690778417e+01
-5.465723893614892859e+01
-5.408728213102270388e+01
-5.350721444969878604e+01
-5.291733317264681347e+01
-5.231791887918645045e+01
-5.170924880840734517e+01
-5.109161022008915864e+01
-5.046528035332155326e+01
-4.983055648857416742e+01
-4.918770584424667192e+01
-4.853701233988872588e+01
-4.787876991573996577e+01
-4.721324913043006433e+01
-4.654074058396867031e+01
-4.586151817521545127e+01
-4.517587584441004367e+01
-4.448409083064210989e+01
-4.378644371323131423e+01
-4.308322175195730352e+01
-4.237470552613974206e+01
-4.166117561509827993e+01
-4.094291593838257626e+01
-4.022021041554228304e+01
-3.949334296612705941e+01
-3.876259082922656063e+01
-3.802824460485043545e+01
-3.729057819185835143e+01
-3.654988219025995733e+01
-3.580643383914491551e+01
-3.506051705806287799e+01
-3.431241910679349161e+01
-3.356241722442642583e+01
-3.281079533051133268e+01
-3.205783400436786934e+01
-3.130382384600568102e+01
-3.054903875428443527e+01
-2.979376598898378603e+01
-2.903828612942338694e+01
-2.828288309515289711e+01
-2.752783913560696760e+01
-2.677343148987526433e+01
-2.601988896371250704e+01
-2.526744370310341381e+01
-2.451632117357271312e+01
-2.376675185099011856e+01
-2.301895786065036376e+01
-2.227316967842316942e+01
-2.152961276983325689e+01
-2.078851427052035206e+01
-2.005010298623917819e+01
-1.931460438251445666e+01
-1.858224559498591688e+01
-1.785325542940827148e+01
-1.712785935130625603e+01
-1.640628449631958574e+01
-1.568875800008799004e+01
-1.497551033848118429e+01
-1.426676363679390036e+01
-1.356274586572336105e+01
-1.286368750113928350e+01
-1.216981150339389828e+01
-1.148134918341442301e+01
-1.079852517166808568e+01
-1.012156660379460682e+01
-9.450699780376213610e+00
-8.786154342225126257e+00
-8.128155754866069671e+00
-7.476931153938767949e+00
-6.832708092611692763e+00
-6.195713706524569098e+00
-5.566174713788369921e+00
-4.944318667571569570e+00
-4.330372285985140124e+00
-3.724562704668807012e+00
-3.127117685555417026e+00
-2.538263529227194670e+00
-1.958227788852613394e+00
-1.387237495689209288e+00
-8.255198897588927887e-01
-2.733019240325598731e-01
2.691892397545191384e-01
8.017264398670739256e-01
1.324082514569834057e+00
1.836030484796357110e+00
2.337343267098013211e+00
2.827793621452891593e+00
3.307154203456894148e+00
3.775198503763420810e+00
4.231698551675250108e+00
4.676428046610157097e+00
5.109199100630870127e+00
5.529984156839923060e+00
5.938794906042301314e+00
6.335642621514241846e+00
6.720539411589479428e+00
7.093496967072999482e+00
7.454527396298538555e+00
7.803641555013582476e+00
8.140852804138114962e+00
8.466171999419621841e+00
8.779609996605593381e+00
9.081179321558510154e+00
9.370892500140859838e+00
9.648761223157626077e+00
9.914796346356297363e+00
1.016900956054185734e+01
1.041141255651929498e+01
1.064201869520859134e+01
1.086083883235723491e+01
1.106788382371271062e+01
1.126316619513750439e+01
1.144669847249410211e+01
1.161849151152998694e+01
1.177855616799265093e+01
1.192690663785957206e+01
1.206355210676324141e+01
1.218850677068114052e+01
1.230178148536075788e+01
1.240338627149208151e+01
1.249333532505259114e+01
1.257164033684727578e+01
1.263830965745112245e+01
1.269335915295661366e+01
1.273679967911123612e+01
1.276864209166247655e+01
1.278889891647281907e+01
1.279758017423225169e+01
1.279469922586075903e+01
1.278026776216332472e+01
1.275429663888743903e+01
1.271679921695308124e+01
1.266778635210774162e+01
1.260726890009890688e+01
1.253526189196155727e+01
1.245177200815568419e+01
1.235681511477377015e+01
1.225040206756330008e+01
1.213254288721426377e+01
1.200325260476163969e+01
1.186253957078042198e+01
1.171044804331805445e+01
1.154714252870183699e+01
1.137281926544403099e+01
1.118767449205689601e+01
1.099190277693769779e+01
1.078570119365619462e+01
1.056926431060965044e+01
1.034278836631032661e+01
1.010646959927048449e+01
9.860503412944884971e+00
9.605085210788290695e+00
9.340412066370461730e+00
9.066679383146160731e+00
8.784080894455151167e+00
8.492815343982190512e+00
8.193077300124544493e+00
7.885062166336973988e+00
7.568965346074239875e+00
7.244984747963602700e+00
6.913313270287327228e+00
6.574149239201421580e+00
6.227687223103149705e+00
5.874123042976022724e+00
5.513652519803552643e+00
5.146472309626749286e+00
4.772776563314127252e+00
4.392762771964195956e+00
4.006625503974218461e+00
3.614560997856455682e+00
3.216765074594419627e+00
2.813433972700370767e+00
2.404762678100322404e+00
1.990947429306535676e+00
1.572183942920334587e+00
1.148667831160856023e+00
7.205952803492676750e-01
2.881617461314250339e-01
-1.484368069836524695e-01
-5.890046232513203028e-01
-1.033345868640293430e+00
-1.481264865692567545e+00
-1.932565845615725308e+00
-2.387052778661880037e+00
-2.844529843847519501e+00
-3.304801637717882823e+00
-3.767672130525082430e+00
-4.232945292521232084e+00
-4.700425929015946025e+00
-5.169917383968210878e+00
-5.641224671452016004e+00
-6.114154893185095752e+00
-6.588523083931424829e+00
-7.064150541386221782e+00
-7.540856475600954845e+00
-8.018460096627096689e+00
-8.496781032044863124e+00
-8.975639744491976657e+00
-9.454853356376158757e+00
-9.934244000450124901e+00
-1.041362963417909526e+01
-1.089282988514329276e+01
-1.137166521598043545e+01
-1.184995358415574174e+01
-1.232751545230693502e+01
-1.280417211812922851e+01
-1.327973903391534805e+01
-1.375404083759050877e+01
-1.422689131133243556e+01
-1.469811425800884308e+01
-1.516752847014245198e+01
-1.563495190519848421e+01
-1.610020586087215833e+01
-1.656310829462869449e+01
-1.702347883404831208e+01
-1.748113877682622785e+01
-1.793590441031266991e+01
-1.838760037243284629e+01
-1.883604128042198411e+01
-1.928105010209030112e+01
-1.972244312478801831e+01
-2.016004164621035599e+01
-2.059366529393753353e+01
-2.102313369554976674e+01
-2.144826647862727498e+01
-2.186888160063528730e+01
-2.228480202938401078e+01
-2.269584238210867611e+01
-2.310182562661949390e+01
-2.350256972038169323e+01
-2.389789763120548116e+01
-2.428762230621109452e+01
-2.467157005343873521e+01
-2.504955716023863488e+01
-2.542140325419100932e+01
-2.578692462264607954e+01
-2.614594757364406163e+01
-2.649828839453518015e+01
-2.684376671289964733e+01
-2.718220048620269225e+01
-2.751341101213952811e+01
-2.783724297001534609e+01
-2.815365627707019414e+01
-2.846262755169410141e+01
-2.876414009273709027e+01
-2.905817719904917595e+01
-2.934471882925038599e+01
-2.962375162242073401e+01
-2.989525219695025271e+01
-3.015920385168896090e+01
-3.041559322571687218e+01
-3.066439693742401928e+01
-3.090559828566041745e+01
-3.113918056927609257e+01
-3.136512708712105990e+01
-3.158341445758535215e+01
-3.179403265997897776e+01
-3.199695497246197107e+01
-3.219216803411435279e+01
-3.237965848401613300e+01
-3.255939626009734411e+01
-3.273137802212800551e+01
-3.289557370803813541e+01
-3.305197329713776355e+01
-3.320055340781690489e+01
-3.334129733892558534e+01
-3.347418838931382368e+01
-3.359920985783163871e+01
-3.371634170309906153e+01
-3.382556722396611093e+01
-3.392686637905280378e+01
-3.402022246720916598e+01
-3.410561878728521634e+01
-3.418303529790098594e+01
-3.425245529790648646e+01
-3.431386208615173672e+01
-3.436723228102677297e+01
-3.441255586184160364e+01
-3.444980944698625791e+01
-3.447897633531075456e+01
-3.450003648543511758e+01
-3.451297987666936251e+01
-3.451777644694352176e+01
-3.451441617556761088e+01
-3.450288236139165576e+01
-3.448315162280567137e+01
-3.445521059888967841e+01
-3.441903590803371316e+01
-3.437461418931778923e+01
-3.432192540136192349e+01
-3.426095618324613667e+01
-3.419170319474043396e+01
-3.411428000366467472e+01
-3.402880351806872028e+01
-3.393540066669241639e+01
-3.383420171850559655e+01
-3.372532692178812397e+01
-3.360890654550983925e+01
-3.348506751841058104e+01
-3.335393008877020549e+01
-3.321562786578855508e+01
-3.307027775751547694e+01
-3.291801003292082584e+01
-3.275895162074444045e+01
-3.259322610949616461e+01
-3.242096376814585312e+01
-3.224228484497334790e+01
-3.205731960894849664e+01
-3.186618830835114835e+01
-3.166902121215114718e+01
-3.146594524908833890e+01
-3.125708066744257962e+01
-3.104256107641370122e+01
-3.082251006451155462e+01
-3.059704788001599596e+01
-3.036630479189686938e+01
-3.013040772889400998e+01
-2.988948027951727937e+01
-2.964364937250651266e+01
-2.939303859637156791e+01
-2.913777822008228213e+01
-2.887798849191850792e+01
-2.861379968085008940e+01
-2.834533871561687235e+01
-2.807272584449870934e+01
-2.779609133646543739e+01
-2.751556212025690940e+01
-2.723126011426797533e+01
-2.694331057712347999e+01
-2.665184377779326397e+01
-2.635698163467218436e+01
-2.605885608684507559e+01
-2.575758571247679285e+01
-2.545330078053718026e+01
-2.514612487953608877e+01
-2.483618493821336060e+01
-2.452360788530884150e+01
-2.420851563921738503e+01
-2.389104013902382917e+01
-2.357130330312302746e+01
-2.324943039013982471e+01
-2.292554999892906409e+01
-2.259979406857558715e+01
-2.227229453816423543e+01
-2.194318501689484080e+01
-2.161259911396724220e+01
-2.128067043858128216e+01
-2.094753092982179155e+01
-2.061331252677361547e+01
-2.027814883863659290e+01
-1.994217347461055567e+01
-1.960552171401034016e+01
-1.926832215569079665e+01
-1.893071007896675084e+01
-1.859281909303804525e+01
-1.825478113698951788e+01
-1.791672982002101122e+01
-1.757879708121735618e+01
-1.724111819989339267e+01
-1.690382344501896128e+01
-1.656704809590889838e+01
-1.623092576176303936e+01
-1.589558504143623097e+01
-1.556116455447330260e+01
-1.522779289972909567e+01
-1.489560535651844830e+01
-1.456473553404119592e+01
-1.423531537138218006e+01
-1.390747680762623872e+01
-1.358135345197321087e+01
-1.325708058373792930e+01
-1.293478847189023639e+01
-1.261461156068746803e+01
-1.229668429438696364e+01
-1.198113610690106157e+01
-1.166810144248710124e+01
-1.135771474540241677e+01
-1.105010711967434922e+01
-1.074541384461773497e+01
-1.044376685931741200e+01
-1.014529726780072139e+01
-9.850141184439998199e+00
-9.558429713262581728e+00
-9.270295628410810451e+00
-8.985874209199518958e+00
-8.705296559656050093e+00
-8.428695453922740555e+00
-8.156205336256926230e+00
-7.887958145743448668e+00
-7.624088326639641977e+00
-7.364726147915348520e+00
-7.109989352677924757e+00
-6.859920946388568197e+00
-6.614545145714750163e+00
-6.373888254967687850e+00
-6.137975743401099749e+00
-5.906833080268706127e+00
-5.680485734824226363e+00
-5.458958758792627819e+00
-5.242278038956381003e+00
-5.030469044569203518e+00
-4.823557244884814743e+00
-4.621568109156934945e+00
-4.424526689110531485e+00
-4.232458871528074873e+00
-4.045390125663282710e+00
-3.863345920769874375e+00
-3.686351726101568804e+00
-3.514432593383336023e+00
-3.347614618162018996e+00
-3.185923060926961536e+00
-3.029383390931883024e+00
-2.878020659901753486e+00
-2.731861172147789674e+00
-2.590929561866212705e+00
-2.455251715839490423e+00
-2.324853312085716439e+00
-2.199759402329861224e+00
-2.079995664590017501e+00
-1.965587359355530195e+00
-1.856560373408867370e+00
-1.752939758474998611e+00
-1.654751296954205309e+00
-1.562020249335831279e+00
-1.474772189255783239e+00
-1.393032690349967462e+00
-1.316827013107728206e+00
-1.246180626782784406e+00
-1.181119105011042558e+00
-1.121668021428408935e+00
-1.067852740906415132e+00
-1.019698732698780086e+00
-9.772314660592230640e-01
-9.404764102414628901e-01
-9.094589301170311613e-01
-8.842047037040217106e-01
-8.647390958739660238e-01
-8.510876280716769271e-01
-8.432756651686859062e-01
-8.413287286098058981e-01
-8.452723920309429539e-01
-8.551142753317755307e-01
-8.707907575690997382e-01
-8.922205250189519932e-01
-9.193222117662751547e-01
-9.520146084692930888e-01
-9.902164014040423234e-01
-1.033845859317809701e+00
-1.082822190397568773e+00
-1.137063663390606161e+00
-1.196489068955146173e+00
-1.261017093367224895e+00
-1.330566318520691738e+00
-1.405055430691583007e+00
-1.484403116155935232e+00
-1.568528061189784717e+00
-1.657348847686980875e+00
-1.750784161923560012e+00
-1.848752794557745993e+00
-1.951173014336825773e+00
-2.057964133829960129e+00
-2.169044108637874224e+00
-2.284331938183165711e+00
-2.403746413124059789e+00
-2.527205906590029638e+00
-2.654629418003674246e+00
-2.785935111730093450e+00
-2.921042195956260468e+00
-3.059869043811649814e+00
-3.202334028425735557e+00
-3.348356566749865593e+00
-3.497854405620390850e+00
-3.650746961988658779e+00
-3.806952817748518125e+00
-3.966389928500694939e+00
-4.128977711196536227e+00
-4.294634330201142269e+00
-4.463278784937110721e+00
-4.634829657298292105e+00
-4.809205529178534277e+00
-4.986324982471687761e+00
-5.166107016600348878e+00
-5.348470213458369038e+00
-5.533332737410846747e+00
-5.720614005409130343e+00
-5.910231764289569867e+00
-6.102105431003512770e+00
-6.296154004973558926e+00
-6.492294815507308137e+00
-6.690446862027359387e+00
-6.890529979013809481e+00
-7.092458990601762991e+00
-7.296139535293835188e+00
-7.501473493833893613e+00
-7.708363999552058310e+00
-7.916711680605948764e+00
-8.126420505383181947e+00
-8.337392772156377418e+00
-8.549529109083156442e+00
-8.762735154666133397e+00
-8.976909866947931249e+00
-9.191957214316166969e+00
-9.407778659985959635e+00
-9.624278172344927995e+00
-9.841356379550690647e+00
-1.005891641493336763e+01
-1.027686141182307544e+01
-1.049509199837743623e+01
-1.071351047286906777e+01
-1.093202163874308752e+01
-1.115052528909961538e+01
-1.136892539232627009e+01
-1.158712257658067202e+01
-1.180502081025043637e+01
-1.202252239160818448e+01
-1.223952794881153672e+01
-1.245594145024810828e+01
-1.267166435913302180e+01
-1.288660064385389248e+01
-1.310065093256834068e+01
-1.331371752354898774e+01
-1.352570355012595016e+01
-1.373651131057184571e+01
-1.394604143304429655e+01
-1.415419955604591884e+01
-1.436088630773433117e+01
-1.456600148120965521e+01
-1.476945322014700501e+01
-1.497113797741650743e+01
-1.517096222657827198e+01
-1.536882576073242390e+01
-1.556463171320908145e+01
-1.575828321733836113e+01
-1.594968173633538200e+01
-1.613873207364526152e+01
-1.632533068213812655e+01
-1.650938403537409016e+01
-1.669079693679826448e+01
-1.686946583928078169e+01
-1.704529721638175488e+01
-1.721819420143129520e+01
-1.738806493810452380e+01
-1.755487602410147474e+01
-1.771859405712218916e+01
-1.787919565555669621e+01
-1.803664741710504060e+01
-1.819092261992724957e+01
-1.834199454218336101e+01
-1.848983145168840636e+01
-1.863440996683241835e+01
-1.877569668531543812e+01
-1.891366488529750001e+01
-1.904828784493863125e+01
-1.917953383205387041e+01
-1.930737612480325538e+01
-1.943178800134681694e+01
-1.955273772949959366e+01
-1.967020025753661372e+01
-1.978414385327291569e+01
-1.989454346498353132e+01
-2.000136736048350272e+01
-2.010458881793285713e+01
-2.020418111549162887e+01
-2.030011252097485652e+01
-2.039235464242757701e+01
-2.048088242812481496e+01
-2.056566414588161607e+01
-2.064667140374301013e+01
-2.072388082009902988e+01
-2.079725732253471193e+01
-2.086677585932509160e+01
-2.093240803851519871e+01
-2.099412379803507633e+01
-2.105189641604475526e+01
-2.110569750058926530e+01
-2.115549698959864600e+01
-2.120126816123293167e+01
-2.124298095342215831e+01
-2.128060697421135927e+01
-2.131412117187556277e+01
-2.134349014411481349e+01
-2.136868883920413964e+01
-2.138968719507358074e+01
-2.140645848988316757e+01
-2.141897266156293256e+01
-2.142720131815791618e+01
-2.143111940794314663e+01
-2.143069185850366765e+01
-2.142589528822950840e+01
-2.141670130516569870e+01
-2.140307984724227808e+01
-2.138501421330926888e+01
-2.136254615624161701e+01
-2.133572410937426866e+01
-2.130460151638715161e+01
-2.126922848073020944e+01
-2.122965510585337867e+01
-2.118593316532160031e+01
-2.113811610281480213e+01
-2.108625235166793388e+01
-2.103039535556092687e+01
-2.097059521794371761e+01
-2.090690371238124357e+01
-2.083937094232344833e+01
-2.076805035145026324e+01
-2.069299204321162833e+01
-2.061424612105748011e+01
-2.053186435855275960e+01
-2.044590019937739811e+01
-2.035640207686633829e+01
-2.026342343469951501e+01
-2.016701270621187092e+01
-2.006722500519833829e+01
-1.996411043510885364e+01
-1.985771575916336218e+01
-1.974809943138679103e+01
-1.963530821499908541e+01
-1.951939388356517924e+01
-1.940040821065001353e+01
-1.927840296981852575e+01
-1.915342826452064884e+01
-1.902553586832132382e+01
-1.889477755478548815e+01
-1.876120342736308189e+01
-1.862486692973403635e+01
-1.848581816534829159e+01
-1.834410723765578766e+01
-1.819978759033645943e+01
-1.805290598661024859e+01
-1.790351921038708838e+01
-1.775167736511691885e+01
-1.759743055424967295e+01
-1.744082721112029688e+01
-1.728192411963872033e+01
-1.712076971313988594e+01
-1.695741409507373021e+01
-1.679191070912018446e+01
-1.662430965872919586e+01
-1.645466271746569831e+01
-1.628302165889462572e+01
-1.610943658646592169e+01
-1.593396428408951415e+01
-1.575666988625032516e+01
-1.557762854812326125e+01
-1.539691375476823509e+01
-1.521459398090016180e+01
-1.503074605180894885e+01
-1.484543844220951314e+01
-1.465874797739176039e+01
-1.447074313207060747e+01
-1.428149739130596529e+01
-1.409108424015774474e+01
-1.389957549357085753e+01
-1.370704213143271666e+01
-1.351355930891823220e+01
-1.331919717085731847e+01
-1.312402920230988457e+01
-1.292812638316334528e+01
-1.273156386859260891e+01
-1.253441263848509024e+01
-1.233674367272820049e+01
-1.213862962132435364e+01
-1.194014563944845619e+01
-1.174136270698792295e+01
-1.154235180383016868e+01
-1.134318725009259943e+01
-1.114394002566263175e+01
-1.094468278054267607e+01
-1.074548983485014197e+01
-1.054643133341494377e+01
-1.034757992623949363e+01
-1.014900826332620376e+01
-9.950789829734983272e+00
-9.752995605353246944e+00
-9.555699075240903895e+00
-9.358972054342869384e+00
-9.162886357604053345e+00
-8.967515470084366669e+00
-8.772931206728722842e+00
-8.579206217539532275e+00
-8.386413987576707640e+00
-8.194624661670161458e+00
-8.003911724879804623e+00
-7.814348662265548917e+00
-7.626006453714807343e+00
-7.438957749229990313e+00
-7.253274363756012200e+00
-7.069030617410280826e+00
-6.886297072551462506e+00
-6.705147631768214822e+00
-6.525652857419203201e+00
-6.347879554104346234e+00
-6.171864464353599367e+00
-5.997636397650676798e+00
-5.825225833594291913e+00
-5.654662416725659391e+00
-5.485975374057241893e+00
-5.319195185187753694e+00
-5.154351077129659231e+00
-4.991473111952920760e+00
-4.830590934198752961e+00
-4.671733770879621161e+00
-4.514932101594236080e+00
-4.360215153355063933e+00
-4.207612570703318511e+00
-4.057154415708962070e+00
-3.908870332913210177e+00
-3.762789966857275292e+00
-3.618943379611121447e+00
-3.477360006951587312e+00
-3.338069284655512892e+00
-3.201101483557236005e+00
-3.066486248197969999e+00
-2.934253014354554878e+00
-2.804431635332579109e+00
-2.677051964437630716e+00
-2.552143437446549701e+00
-2.429736325193673441e+00
-2.309859854691467262e+00
-2.192543879245519189e+00
-2.077818252161418133e+00
-1.965712617980377663e+00
-1.856256412479237339e+00
-1.749479906492335202e+00
-1.645412640178697705e+00
-1.544084258079538863e+00
-1.445524404736072466e+00
-1.349763037836074764e+00
-1.256829697538571988e+00
-1.166754237149153051e+00
-1.079566301209031964e+00
-9.952955342594222987e-01
-9.139719983702876416e-01
-8.356250771273735500e-01
-7.602846760273622717e-01
-6.879804396114678200e-01
-6.187421689941849934e-01
-5.525995609078214743e-01
-4.895823120846850007e-01
-4.297201975437235366e-01
-3.730429140172447644e-01
-3.195706594585052684e-01
-2.692852974624490581e-01
-2.221591406538755142e-01
-1.781644755620370169e-01
-1.372736539550532264e-01
-9.945896888606330088e-02
-6.469273950375330207e-02
-3.294726538514912428e-02
-4.194870571851836566e-03
2.159214046619761448e-02
4.444145347322822626e-02
6.438074766958229445e-02
8.143773000212059521e-02
9.564007479827041358e-02
1.070154629093456877e-01
1.155915947583205233e-01
1.213961707681690261e-01
1.244568391707715771e-01
1.248013395324225477e-01
1.224573200850023469e-01
1.174524682037116491e-01
1.098144973592979634e-01
9.957108187918854714e-02
8.674990913858407482e-02
7.137867303657192963e-02
5.348505116252271624e-02
3.309673741552381782e-02
1.024142324820510007e-02
-1.505320804166195882e-02
-4.275946826339084572e-02
-7.284967248823839836e-02
-1.052961186622588668e-01
-1.400711357199683205e-01
-1.771470362861661263e-01
-2.164961068901047336e-01
-2.580906992999037475e-01
-3.019030869970422137e-01
-3.479056217496397929e-01
-3.960705639914020026e-01
-4.463702785382219762e-01
-4.987770258238052867e-01
-5.532631706640449565e-01
-6.098009995881935597e-01
-6.683628513165971174e-01
-7.289209601874144795e-01
-7.914477171120856136e-01
-8.559154086198628164e-01
-9.222963734310923867e-01
-9.905628458839330630e-01
-1.060687216889824702e+00
-1.132638067410368210e+00
-1.206369260518744602e+00
-1.281831110293764286e+00
-1.358973826432050336e+00
-1.437747514248038705e+00
-1.518102487820539803e+00
-1.599988852463989364e+00
-1.683356922257197796e+00
-1.768157011278975510e+00
-1.854338911697196446e+00
-1.941853355119420144e+00
-2.030650238095707660e+00
-2.120679874704869849e+00
-2.211892161496967546e+00
-2.304237830079560734e+00
-2.397666985767084924e+00
-2.492129525109600952e+00
-2.587575970950294568e+00
-2.683956428603601285e+00
-2.781221003383957058e+00
-2.879320009370171629e+00
-2.978203551876681399e+00
-3.077822153746671674e+00
-3.178125711530202846e+00
-3.279064748070460666e+00
-3.380588742388756618e+00
-3.482649052385774269e+00
-3.585194948318451313e+00
-3.688176744265597495e+00
-3.791545171834773242e+00
-3.895250127576038945e+00
-3.999241925568206124e+00
-4.103470462361334725e+00
-4.207886469562985177e+00
-4.312439843723218758e+00
-4.417080481392095415e+00
-4.521759114177176464e+00
-4.626426056157271205e+00
-4.731030786353692008e+00
-4.835524036373998413e+00
-4.939856120297001496e+00
-5.043976934672761203e+00
-5.147836793580088610e+00
-5.251386428626543257e+00
-5.354574901304688161e+00
-5.457353778279581569e+00
-5.559672121043785609e+00
-5.661480661204859821e+00
-5.762730130370364634e+00
-5.863369590032862178e+00
-5.963353947087407292e+00
-6.062651886877787000e+00
-6.161236687564035641e+00
-6.259082044834934244e+00
-6.356160401793016668e+00
-6.452445454127063940e+00
-6.547910479997110400e+00
-6.642527922505688132e+00
-6.736271059812829698e+00
-6.829113170078568551e+00
-6.921026696405437661e+00
-7.011986169539718539e+00
-7.101964450112692617e+00
-7.190933146169395940e+00
-7.278867205984859368e+00
-7.365738237604116279e+00
-7.451520354244698829e+00
-7.536186834066639584e+00
-7.619710120172471512e+00
-7.702063490722227179e+00
-7.783221058933438741e+00
-7.863154432851140463e+00
-7.941837725692863614e+00
-8.019243380561142942e+00
-8.095345510673508826e+00
-8.170115724074994645e+00
-8.243528969040632148e+00
-8.315556853615458266e+00
-8.386173491017000714e+00
-8.455351324347793351e+00
-8.523064466825370999e+00
-8.589285361552263964e+00
-8.653985616573507400e+00
-8.717141850279132242e+00
-8.778724835656669612e+00
-8.838707015808656919e+00
-8.897064174067622844e+00
-8.953767083421102058e+00
-9.008789857086625830e+00
-9.062104938166728019e+00
-9.113686439878941670e+00
-9.163506805325797089e+00
-9.211539312667330393e+00
-9.257757240063572368e+00
-9.302133865674555580e+00
-9.344642467660310814e+00
-9.385254654065876778e+00
-9.423945373166281669e+00
-9.460687068064057570e+00
-9.495453016919238820e+00
-9.528222343294350694e+00
-9.559002562706883310e+00
-9.587805365961823867e+00
-9.614645784094152603e+00
-9.639534672851356234e+00
-9.662487063268418552e+00
-9.683515481207821907e+00
-9.702633287589550903e+00
-9.719852173218590963e+00
-9.735186334072425396e+00
-9.748649131071037033e+00
-9.760252255019414847e+00
-9.770010736952535524e+00
-9.777936267675388038e+00
-9.784042208107955219e+00
-9.788342754227720377e+00
-9.790849596839668934e+00
-9.791576096863785494e+00
-9.790536450277551594e+00
-9.787741512828452173e+00
-9.783207150608971503e+00
-9.776944219366596300e+00
-9.768967750136305028e+00
-9.759289433723086660e+00
-9.747922631046922248e+00
-9.734879867970297695e+00
-9.720175340470698089e+00
-9.703821574410604001e+00
-9.685831930710001814e+00
-9.666219770288874358e+00
-9.644998454067206239e+00
-9.622178837792482398e+00
-9.597776787557185330e+00
-9.571803159108801751e+00
-9.544272983482313677e+00
-9.515198786540203457e+00
-9.484593094144956993e+00
-9.452468432159061962e+00
-9.418838996559996346e+00
-9.383718983325245233e+00
-9.347119248202297115e+00
-9.309053987168631750e+00
-9.269535726086735039e+00
-9.228578660934088518e+00
-9.186194482515681159e+00
-9.142397386808992721e+00
-9.097199899676509105e+00
-9.050615382038213141e+00
-9.002657194814091213e+00
-8.953337028809125187e+00
-8.902673255288295451e+00
-8.850690925976570256e+00
-8.797422608116409748e+00
-8.742896693662782326e+00
-8.687144079743145397e+00
-8.630195663484965252e+00
-8.572081506958204145e+00
-8.512831672232826108e+00
-8.452476221378793397e+00
-8.391046886581067454e+00
-8.328572059794614901e+00
-8.265083473204395403e+00
-8.200611188880374769e+00
-8.135184433835014772e+00
-8.068834940253276855e+00
-8.001592770205126826e+00
-7.933487985760527827e+00
-7.864550648989441228e+00
-7.794812492076829358e+00
-7.724301906977657950e+00
-7.653049790819388853e+00
-7.581087040729484805e+00
-7.508443718777908948e+00
-7.435149887034625316e+00
-7.361236442627095755e+00
-7.286732612567785594e+00
-7.211670964099153203e+00
-7.136079054118667386e+00
-7.059988614811287810e+00
-6.983430125775727859e+00
-6.906434066610700917e+00
-6.829029664328670535e+00
-6.751248233585848801e+00
-6.673119836452200637e+00
-6.594674952526436762e+00
-6.515942808821022503e+00
-6.436955555049669542e+00
-6.357742418224840542e+00
-6.278333460416500422e+00
-6.198759996280861273e+00
-6.119051670359135109e+00
-6.039238544721286850e+00
-5.959351516494779233e+00
-5.879421065278323866e+00
-5.799476835613135428e+00
-5.719549724626675768e+00
-5.639669794388908919e+00
-5.559867524498547375e+00
-5.480173394554304522e+00
-5.400617466626143504e+00
-5.321229385255278110e+00
-5.242037124867923836e+00
-5.163068659890297951e+00
-5.084351129691115467e+00
-5.005912091167845190e+00
-4.927779101217951485e+00
-4.849979716738902269e+00
-4.772541077099414331e+00
-4.695491156725702275e+00
-4.618857094986484668e+00
-4.542666448779226762e+00
-4.466946775001396475e+00
-4.391725630550458170e+00
-4.317030154795131303e+00
-4.242888322161629588e+00
-4.169327272018670705e+00
-4.096374561263721681e+00
-4.024058164322998898e+00
-3.952404803036468017e+00
-3.881442034301596955e+00
-3.811197832544601205e+00
-3.741699754662946908e+00
-3.672974940025351742e+00
-3.605050528000532051e+00
-3.537954910543453568e+00
-3.471715018258458851e+00
-3.406357990514264245e+00
-3.341912010501460362e+00
-3.278404426353139556e+00
-3.215862586202392848e+00
-3.154314046946687267e+00
-3.093785947954739601e+00
-3.034306263652765789e+00
-2.975902342173857740e+00
-2.918601531651106473e+00
-2.862431597746354139e+00
-2.807419679828316639e+00
-2.753593752323210797e+00
-2.700980537071004051e+00
-2.649608426026661245e+00
-2.599504141030150262e+00
-2.550695656507687037e+00
-2.503210320592363036e+00
-2.457075481417270169e+00
-2.412318904644249695e+00
-2.368967938406393525e+00
-2.327049930836792679e+00
-2.286592647597289307e+00
-2.247623228056599309e+00
-2.210169646640939511e+00
-2.174249230793413368e+00
-2.139841104076546152e+00
-2.106914160598501340e+00
-2.075437711996190870e+00
-2.045381069906526683e+00
-2.016712919673298021e+00
-1.989402990462165732e+00
-1.963419758852543717e+00
-1.938732745245718592e+00
-1.915311052514228507e+00
-1.893123992294985625e+00
-1.872140249931777856e+00
-1.852329345825892482e+00
-1.833660591614241886e+00
-1.816102463876239304e+00
-1.799624483013172016e+00
-1.784195960661952185e+00
-1.769785790930742841e+00
-1.756363285456456369e+00
-1.743897233965068017e+00
-1.732357052475677728e+00
-1.721712052625197886e+00
-1.711931024139603741e+00
-1.702983174273620337e+00
-1.694837814664160280e+00
-1.687463839419386158e+00
-1.680830664558397913e+00
-1.674907392953732810e+00
-1.669662814331366762e+00
-1.665066553474774169e+00
-1.661087295727742719e+00
-1.657694561491560137e+00
-1.654857349256576127e+00
-1.652544761895328618e+00
-1.650725902280355095e+00
-1.649369977666380604e+00
-1.648445986543755293e+00
-1.647923449313766442e+00
-1.647771051320201963e+00
-1.647958104199974239e+00
-1.648453710825620977e+00
-1.649227287216241677e+00
-1.650247623097812255e+00
-1.651484134489432209e+00
-1.652905611117076790e+00
-1.654481468999846161e+00
-1.656180811010277587e+00
-1.657972635638721659e+00
-1.659826254522090316e+00
-1.661710561768546590e+00
