# bin_20_8
5.474336428258893790e-08
5.027830485056959395e-08
4.493557726961926952e-08
3.905441987813479078e-08
3.304715729331126891e-08
2.732941088056776687e-08
2.221044714660429235e-08
1.781837238814565221e-08
1.410449415786767674e-08
1.094702928502606199e-08
8.300912773536245265e-09
6.219794637975023474e-09
4.680970382950143640e-09
3.518134447074671112e-09
2.642703188315995442e-09
2.006255658113394748e-09
1.533314473689671186e-09
1.182572380277628527e-09
9.182381700824948684e-10
7.155416311418872822e-10
5.573908732754252497e-10
4.322169540630516555e-10
3.322814286940367800e-10
2.523408062816476488e-10
1.887338300294947579e-10
1.387035128482801883e-10
9.999970382204369838e-11
7.066454466479715244e-11
4.893573530781359145e-11
3.322910061602048088e-11
2.215160832368261410e-11
