# bin_20_1
1.891173492145089175e-08
1.589188817490050304e-08
1.307491001573804161e-08
1.059382024576322247e-08
8.482205299429292077e-09
6.691143198091631773e-09
5.165125051798130595e-09
3.909607260214961391e-09
2.951507044590684816e-09
2.241764412001447782e-09
1.701519364101512590e-09
1.302435044017547096e-09
1.007857595715158035e-09
7.880433173963376666e-10
6.215941831474459395e-10
4.928847311263164564e-10
3.910798653078063408e-10
3.089867900300037076e-10
2.419578856185614723e-10
1.870059399327281840e-10
1.421617132532777956e-10
1.060141475368780228e-10
7.741142118191206783e-11
5.529732692047662063e-11
3.864272591312220757e-11
2.644191161836027827e-11
1.774568703758406101e-11
1.170574186203590768e-11
7.607439572985708077e-12
4.882479266873274405e-12
3.101476681559137075e-12
