# bin_14_9
5.379823109071445650e-08
4.942866432833708620e-08
4.421015281515070551e-08
3.846931964921788292e-08
3.260051849710601492e-08
2.699857203498837835e-08
2.196303026670286445e-08
1.762576971577661682e-08
1.395622128750765908e-08
1.084792316285257031e-08
8.247754482342473215e-09
6.187154372096611177e-09
4.651101269063471351e-09
3.499294828825643029e-09
2.628135470422009214e-09
1.993417232996869770e-09
1.521985650069310180e-09
1.172581047041589182e-09
9.092747122892136560e-10
7.076742511815194626e-10
5.506796505035535360e-10
4.266711626375413634e-10
3.278611491214526063e-10
2.489545675154782364e-10
1.862485053366219641e-10
1.369641169503278072e-10
9.884533413663834115e-11
6.994321916509097812e-11
4.851559629102415177e-11
3.300443406989000501e-11
2.204426373476183684e-11
