# bin_18_16
7.283514156703234828e-08
6.876284527746626045e-08
6.330547476317718407e-08
5.673842739470336616e-08
4.947391057115440362e-08
4.201213016090062604e-08
3.485578232133675960e-08
2.839285657015240734e-08
2.280333243553481804e-08
1.806319326219701362e-08
1.404721363603963419e-08
1.068435029521603806e-08
8.003134323459054319e-09
5.989578846963699513e-09
4.484133898083478258e-09
3.345584048715360373e-09
2.514333347858038732e-09
1.900986291904487288e-09
1.448985067515167367e-09
1.111625993984182980e-09
8.565779234400404661e-10
6.607563642747948757e-10
5.083297739179657355e-10
3.885526900089501528e-10
2.940521056056383303e-10
2.196741397386413395e-10
1.616191407991232677e-10
1.168993483245302932e-10
8.303497944347858575e-11
5.789473054436280809e-11
3.962826315689936204e-11
