# bin_11_8
4.763269879961553013e-08
4.332575817659966861e-08
3.835493781430560399e-08
3.304369138703555080e-08
2.775584952182844323e-08
2.282555548169288266e-08
1.847108075086005826e-08
1.475500440636797568e-08
1.161421843071425585e-08
8.960224897178203426e-09
6.775303830284889133e-09
5.085505077467573890e-09
3.833062575781367204e-09
2.885230999771194275e-09
2.178375898099878467e-09
1.660868582792060225e-09
1.275913160848401731e-09
9.882232796799268634e-10
7.696946674277443418e-10
6.007050713855033795e-10
4.678510349160016199e-10
3.621176869782183198e-10
2.774598655762698078e-10
2.097426056823545890e-10
1.560031741926332664e-10
1.139358679059123175e-10
8.160114895771170196e-11
5.727784120580102663e-11
3.940805155019666620e-11
2.659789730600547508e-11
1.763539988487765257e-11
