# bin_18_4
3.624676740358266041e-08
3.204940466450010765e-08
2.755849217871220492e-08
2.309547085180733146e-08
1.895678353903949815e-08
1.532766054131214204e-08
1.224728246601889713e-08
9.637377248135946028e-09
7.415356894013873578e-09
5.591706912921114306e-09
4.207629722139562491e-09
3.184217085355335422e-09
2.401166163247764769e-09
1.826296900047718431e-09
1.401547291321421141e-09
1.086334074324851428e-09
8.488967417418768200e-10
6.669626767412141195e-10
5.246767635147676947e-10
4.113801129329404542e-10
3.200561389810472808e-10
2.460774873631138794e-10
1.863321847308084733e-10
1.385800704595238295e-10
1.010330179203058102e-10
7.212386475963773529e-11
5.039891897805662189e-11
3.449263393605351401e-11
2.315089175300854789e-11
1.526800478747442839e-11
9.916408003608915309e-12
