# bin_6_6
3.407789927281184892e-08
3.016570472479163240e-08
2.599500168262889054e-08
2.184566039853762092e-08
1.797446581983208426e-08
1.455087845941436509e-08
1.162640380119222768e-08
9.156876057112201378e-09
7.075700304541042449e-09
5.364639258903717896e-09
4.037495796097836745e-09
3.051517526499268439e-09
2.308024074965978179e-09
1.751760418319384855e-09
1.343560942077263632e-09
1.038803672788241779e-09
8.098902910786819119e-10
6.347292750134917455e-10
4.981575982453068583e-10
3.898425576075263850e-10
3.028930700238537712e-10
2.327343480147419449e-10
1.762527700901170319e-10
1.312070875356989768e-10
9.582504993663379597e-11
6.857723414930391961e-11
4.807039032833700178e-11
3.301564841993356124e-11
2.224153208946728433e-11
1.472088745663202924e-11
9.592243463687860348e-12
