# bin_18_6
4.583934873842254081e-08
4.141898781349043030e-08
3.639662509321924603e-08
3.111426110107476444e-08
2.594713957055616745e-08
2.121779709578649249e-08
1.710585060047678340e-08
1.362364279344498446e-08
1.067002033325979301e-08
8.165750924888033389e-09
6.138151080816268237e-09
4.616335916260852284e-09
3.484484748623796672e-09
2.619806268843821537e-09
1.989462525329634630e-09
1.521841070873969256e-09
1.175703834780390378e-09
9.150770873640199962e-10
7.156558677386456742e-10
5.601602566002843503e-10
4.368972228262749247e-10
3.381120155658069607e-10
2.586185833973830954e-10
1.948753415131056614e-10
1.442903905422660884e-10
1.047842875689616169e-10
7.455250536780717335e-11
5.195212676836867038e-11
3.547492287351775748e-11
2.376513402965872042e-11
1.564704726339260875e-11
