# bin_14_2
2.416193343853811331e-08
2.067966219617934414e-08
1.726466725714244656e-08
1.413270604122418081e-08
1.140692602169469463e-08
9.097530824402821475e-09
7.137479570514003409e-09
5.474707967199766424e-09
4.129119739239004988e-09
3.118772287944987684e-09
2.366433044846038821e-09
1.793499605208322189e-09
1.374032092372254181e-09
1.062541625761500853e-09
8.302469290029162577e-10
6.537878087822110933e-10
5.170392316183462856e-10
4.087741807523509432e-10
3.215467460852764398e-10
2.505277837583464995e-10
1.925699150855222259e-10
1.455534474774509084e-10
1.079136296858927742e-10
7.834693407562571810e-11
5.565613208494922081e-11
3.869007767895783763e-11
2.634547820953968530e-11
1.760214726683052730e-11
1.156433268394065697e-11
7.488576980288335147e-12
4.790978640913177701e-12
