# bin_7_1
1.663135047972460813e-08
1.392202529375012801e-08
1.142124056136999283e-08
9.231439127837126777e-09
7.371003278481543737e-09
5.795820378572120399e-09
4.463089159827937460e-09
3.377862304182583414e-09
2.553494633443273082e-09
1.941331452716437146e-09
1.476462576019121753e-09
1.133193849027466465e-09
8.790079638000202316e-10
6.887139002580228571e-10
5.439283820006105747e-10
4.314184445996846974e-10
3.420542260582126490e-10
2.697981685210657448e-10
2.107500570628710998e-10
1.623873464033543344e-10
1.230194068441094956e-10
9.140224502551890899e-11
6.649464567374363092e-11
4.732955837316075825e-11
3.296551856890791077e-11
2.249090589587402714e-11
1.505595789038817461e-11
9.910564394294317197e-12
6.429751396972540104e-12
4.121041452215198169e-12
2.615049673900083302e-12
