# bin_15_8
5.166182964797071993e-08
4.726529373711005796e-08
4.208373874640382247e-08
3.644956245409429502e-08
3.075407373814525922e-08
2.537758396139154384e-08
2.058992529408301702e-08
1.649080662149512843e-08
1.302528824301308585e-08
1.008601174774365947e-08
7.639762597089865793e-09
5.728229776190109527e-09
4.313514225749119609e-09
3.243854313111659584e-09
2.441478575189167614e-09
1.856575936576699719e-09
1.421764970986104623e-09
1.098347692612828723e-09
8.538641651491500016e-10
6.657751380497850269e-10
5.185871705615764050e-10
4.018381732962699655e-10
3.085235161916534296e-10
2.338801081013067826e-10
1.745494101098471712e-10
1.279700071548514768e-10
9.202635808666235137e-11
6.486317508412307946e-11
4.480674150994839241e-11
3.035534887940129562e-11
2.019442779074828247e-11
