# bin_4_2
1.886132592360628441e-08
1.597192318797466434e-08
1.322392891573521558e-08
1.075736986109518159e-08
8.633941363447955069e-09
6.839325193115510093e-09
5.324400895811953762e-09
4.063736956373820078e-09
3.067924638388999045e-09
2.324421348179684154e-09
1.767337894167183651e-09
1.347008684750343779e-09
1.038203500372863936e-09
8.075492814060575967e-10
6.339573719173782107e-10
5.006496431359299747e-10
3.961597412738763255e-10
3.126534994920155437e-10
2.449753595833365371e-10
1.897747849630896474e-10
1.448300453108028004e-10
1.085802113004483099e-10
7.980288375113792656e-11
5.742725126452038381e-11
4.044599270019239396e-11
2.789263409170000068e-11
1.885787573584370207e-11
1.252217623251849753e-11
8.184754170279719505e-12
5.278102547295787598e-12
3.365710173276966935e-12
