# bin_17_10
5.927655147963234135e-08
5.490768402721332522e-08
4.952781493607779418e-08
4.345884738730385615e-08
3.711353282773174683e-08
3.093135048928508787e-08
2.528191755568558328e-08
2.036610020575511312e-08
1.619685612834635612e-08
1.266527452157935323e-08
9.684648811103241310e-09
7.274149129250253629e-09
5.454758352665455295e-09
4.102478753812436253e-09
3.072491723241477026e-09
2.318943581499975906e-09
1.762385508084583062e-09
1.351263537832494383e-09
1.043361853196495314e-09
8.095833121744474894e-10
6.290120369267047028e-10
4.873860318151339156e-10
3.751174406466447877e-10
2.857026750422302385e-10
2.146511131849199413e-10
1.586824381189221930e-10
1.152102288291576368e-10
8.205636588511148378e-11
5.730358096798803703e-11
3.924527353646642093e-11
2.638088240393838051e-11
