# bin_17_3
3.054628715329906999e-08
2.661668373630722965e-08
2.257279358901757603e-08
1.870091911258630296e-08
1.522184898184266137e-08
1.223397915607891197e-08
9.708171697018200950e-09
7.557437955809240721e-09
5.748514591721606056e-09
4.323250410788214928e-09
3.269959183677816038e-09
2.474104357740377435e-09
1.874866974625594094e-09
1.437664825425806796e-09
1.111906083294326458e-09
8.684696526371398799e-10
6.830142868386540288e-10
5.387990065692938197e-10
4.243978100042261872e-10
3.322406646351926160e-10
2.573902489607314721e-10
1.965857342795984427e-10
1.475751986094418110e-10
1.086395596071625086e-10
7.831363912350822360e-11
5.524597503855901090e-11
3.815060638292493055e-11
2.581779337553084429e-11
1.715268871832928976e-11
1.121248663135267691e-11
7.228736441193497262e-12
