# bin_19_17
7.549005416218557436e-08
7.149325992919711863e-08
6.604119004686188927e-08
5.939862820679539326e-08
5.197511681235331185e-08
4.427962323053424316e-08
3.683662640195377506e-08
3.006821494301100196e-08
2.418883720564796288e-08
1.919654153685432168e-08
1.496636794008060607e-08
1.141189903253612612e-08
8.554851172132662413e-09
6.396892719185053742e-09
4.787961274121965223e-09
3.568870055092331801e-09
2.676222044387117067e-09
2.019418345969047890e-09
1.535686317213240142e-09
1.175632987192125779e-09
9.043757828039944724e-10
6.968475057348737480e-10
5.358408034019919540e-10
4.096592114349387528e-10
3.102815037392118498e-10
2.321208933721535859e-10
1.710976721925749970e-10
1.240377923324795190e-10
8.833388946122220572e-11
6.176181847332748502e-11
4.239811199903975248e-11
