# bin_14_12
6.085181718679017296e-08
5.655274557698114036e-08
5.120034849363996920e-08
4.510627630206373698e-08
3.867767877524257774e-08
3.235542706258895325e-08
2.652362216318268904e-08
2.141045857044513954e-08
1.705769487996466975e-08
1.337476281961009600e-08
1.026802086108907797e-08
7.734158979639145460e-09
5.794386404777291026e-09
4.354291270819398018e-09
3.262589163335216613e-09
2.454741907425091984e-09
1.862263550367428285e-09
1.423383618590658457e-09
1.096072504894913334e-09
8.485169930751016377e-10
6.581279626303857429e-10
5.094524617929217656e-10
3.920365003574376091e-10
2.987863123973502177e-10
2.248011309495718407e-10
1.665389433472846115e-10
1.212460536336884212e-10
8.663660242791169838e-11
6.072315371645883222e-11
4.174953468621413441e-11
2.817622686588584331e-11
