# bin_20_13
6.914602122275832215e-08
6.494372769344991733e-08
5.945187336456812669e-08
5.296368189302762166e-08
4.589907045521840427e-08
3.875015568010181756e-08
3.199281100291633773e-08
2.596539845502507923e-08
2.079462412201128226e-08
1.641765976677999242e-08
1.270583261137021558e-08
9.615807763529932526e-09
7.193022777275341116e-09
5.394146215629659212e-09
4.037619652867094705e-09
3.018597508623403720e-09
2.277514913248440919e-09
1.728480230381061431e-09
1.322902445366254777e-09
1.018921231014598576e-09
7.876162604292004478e-10
6.088470390694542457e-10
4.688433919029085382e-10
3.582815776508744079e-10
2.707622791108933656e-10
2.017798985607583576e-10
1.479525557796859424e-10
1.065687034993487937e-10
7.533432194032489040e-11
5.225026985451097089e-11
3.556802685060690788e-11
