# bin_12_9
5.154170044381556814e-08
4.720335706652505500e-08
4.208377067498239175e-08
3.650722065560397887e-08
3.085560308889171151e-08
2.550048316856741321e-08
2.071204016856347730e-08
1.659824072776959444e-08
1.311884196483799060e-08
1.017500667412009673e-08
7.725079678254495657e-09
5.796584885964309788e-09
4.360555300877299316e-09
3.281595975057337967e-09
2.468526781492807146e-09
1.875253323012078128e-09
1.434353675019942547e-09
1.106791335340909164e-09
8.593374776306052368e-10
6.693135056773875489e-10
5.209211315609822167e-10
4.034515891644478417e-10
3.097257650697048858e-10
2.348518198472396571e-10
1.753835416278747930e-10
1.287066630544525825e-10
9.267607970825339376e-11
6.542397296001002243e-11
4.527499365405076931e-11
3.073137296216876974e-11
2.048424300394393908e-11
