# bin_18_7
1.916635018275664304e-36
2.148168124030976750e-36
2.363567570965957974e-36
2.541260357140518510e-36
2.653929465320418943e-36
2.675724176696205296e-36
2.573715924969659310e-36
2.336106619567067301e-36
2.004847192289879772e-36
1.646644202967789019e-36
1.358866274133183235e-36
1.171795578709227508e-36
9.838532957860868064e-37
7.099807014659104567e-37
5.144283563144005456e-37
4.122654201918644031e-37
2.740158893496925716e-37
2.061846633728031164e-37
1.439295373298348087e-37
9.989881011886133734e-38
7.014296596272154846e-38
4.941999486945294540e-38
3.527259387369182031e-38
2.556232148743760953e-38
1.890034975190777895e-38
1.423416762081512932e-38
1.088894653130481445e-38
8.418240346221085562e-39
6.530610772940339450e-39
5.046845885927277398e-39
3.859278742632376950e-39
