# bin_13_1
3.035888327318531911e-57
3.328740813962577529e-57
3.564863071153049978e-57
3.705287735501355815e-57
3.716305013392466669e-57
3.549024115150454382e-57
3.199220164685858830e-57
2.726309966381058573e-57
2.233996482067620905e-57
1.851073562012135956e-57
1.599633871792910346e-57
1.325784949730394306e-57
9.438933543918534107e-58
7.008078911231725710e-58
5.514294533649004777e-58
3.746393589905951072e-58
2.789295945194323704e-58
1.997703663383327018e-58
1.417415409690177170e-58
1.018249885603792061e-58
7.405964055728147905e-59
5.481321314449488982e-59
4.129352495376467139e-59
3.166710404151660223e-59
2.460160955608495129e-59
1.925041869591393701e-59
1.506900854299006517e-59
1.171605647966438055e-59
8.991443270595347664e-60
6.775812705174324819e-60
4.993408112285951216e-60
