# bin_14_6
1.099490791098380978e-26
1.219278781182494405e-26
1.324157265492047416e-26
1.400779104832924435e-26
1.433324983257759914e-26
1.409467984634434030e-26
1.311269011934748205e-26
1.153257005671898837e-26
9.603506322750047023e-27
7.854031055499485079e-27
6.649560630700169002e-27
5.740531505128015370e-27
4.448316274526028888e-27
3.078343862897608607e-27
2.476940539520492755e-27
1.740052392276501716e-27
1.289255348429314101e-27
8.827689129040426959e-28
6.349470686156257473e-28
4.515925561097429000e-28
3.227491842409765384e-28
2.334695085918372222e-28
1.713683399602589367e-28
1.282389161931055020e-28
9.767531106178499325e-29
7.540955945621064096e-29
5.869953764406653067e-29
4.574044844517608122e-29
3.542857193497448344e-29
2.710295643057311744e-29
2.037442303566088985e-29
