# bin_12_2
9.454669805282265520e-43
1.033621506658378454e-42
1.102886439129491507e-42
1.140950169411137721e-42
1.138078885789353514e-42
1.078583714859684591e-42
9.652563575779521653e-43
8.165322463933509415e-43
6.679830859012689381e-43
5.566185711101330917e-43
4.817855703142349640e-43
3.927770268151269942e-43
2.757188456944055848e-43
2.101264496908552405e-43
1.608844558840149300e-43
1.116551510286768279e-43
8.111820004674660812e-44
5.889271993288863241e-44
4.199059777237912448e-44
3.022142594838885062e-44
2.210421575780110105e-44
1.645236643109576730e-44
1.246732984268560314e-44
9.607897387521682204e-45
7.490690967548277102e-45
5.872554625071394140e-45
4.597393790322606685e-45
3.568848568161012389e-45
2.730639452340696114e-45
2.049097743429461746e-45
1.502204566409257671e-45
