# bin_18_10
5.105581537354744336e-23
5.739621564881089769e-23
6.338318292113397646e-23
6.845766537163481119e-23
7.190218366541142909e-23
7.295767674059350253e-23
7.085299596567364517e-23
6.495964590375336556e-23
5.632070641817193422e-23
4.647069322603356762e-23
3.815569484998012213e-23
3.269685350928048963e-23
2.787711268682597757e-23
2.068334480506890626e-23
1.455256084173455811e-23
1.186042778089435984e-23
7.879197234321080587e-24
5.990630558074379907e-24
4.103721152242566098e-24
2.843997992691323765e-24
1.997454219353006983e-24
1.403240811644333784e-24
9.933275980923638520e-25
7.122450500256075767e-25
5.209475576967801401e-25
3.884180165844491516e-25
2.946791049242377756e-25
2.265855716262583618e-25
1.754044536123080348e-25
1.357069583694341963e-25
1.041865932695752632e-25
