# bin_15_6
2.365275024576461340e-30
2.629983007647602144e-30
2.865590883733407572e-30
3.043805667083393198e-30
3.129937081787754602e-30
3.098257557365023550e-30
2.906059965626015707e-30
2.575450811422971670e-30
2.158304674208510466e-30
1.764264591506957910e-30
1.483645313231878347e-30
1.284461223840413929e-30
1.018507283326176484e-30
7.047119245897921575e-31
5.558560158174203607e-31
4.048540132366044730e-31
2.905621111079700867e-31
2.013906618646636318e-31
1.459762350680974228e-31
1.030682450849450105e-31
7.301539182479495353e-32
5.248969048491880700e-32
3.827987649164317505e-32
2.844074197709630583e-32
2.152595496550316808e-32
1.653754084193576273e-32
1.283484962705437107e-32
9.993722228236629851e-33
7.750840789633719832e-33
5.947807158305699013e-33
4.491500086341434262e-33
