# bin_16_13
2.052555257734133451e-12
2.308427639014211403e-12
2.550510564717668522e-12
2.756428084031920786e-12
2.897392549789732035e-12
2.942495184316397586e-12
2.861390516000151836e-12
2.627199553756185657e-12
2.281134337765831206e-12
1.883654213275271762e-12
1.545790375291557775e-12
1.323282911810206551e-12
1.130183672533719238e-12
8.419850715679847389e-13
5.906552938441586789e-13
4.815204357022647085e-13
3.207280040897361399e-13
2.436556521964314586e-13
1.664740865349496579e-13
1.154708952454081233e-13
8.108054042765084700e-14
5.694100816621575991e-14
4.026195889514241639e-14
2.882595033830103548e-14
2.105015788613529238e-14
1.567118964551247305e-14
1.187369321613898349e-14
9.121635747571282286e-15
7.058145350322635994e-15
5.461012882647088479e-15
4.194626474150270516e-15
