# bin_12_9
8.922303756645468675e-13
9.899804882430625108e-13
1.075861364938180288e-12
1.139073437022808751e-12
1.166721146374614957e-12
1.148881788169979612e-12
1.070653417019438236e-12
9.431334941336811824e-13
7.863994500555247480e-13
6.430549571865865626e-13
5.436709557799161371e-13
4.696572751418307609e-13
3.657145802830779997e-13
2.530158588460862559e-13
2.027760550130960805e-13
1.435408594885445781e-13
1.056466886984537091e-13
7.248806099918629094e-14
5.224413623020013248e-14
3.709939027636194734e-14
2.646399063883626234e-14
1.911912933596636530e-14
1.401486348873815552e-14
1.047221299087462200e-14
7.966089655458810279e-15
6.144084171257607062e-15
4.779813444055025129e-15
3.724074492472921724e-15
2.885332531041126225e-15
2.208721721857381098e-15
1.661952902857635995e-15
