# bin_13_10
1.135141444245887076e-12
1.264619645930486782e-12
1.381181820559071078e-12
1.471423557265971297e-12
1.518675469095473272e-12
1.510316448365584956e-12
1.425172122273217579e-12
1.270154787216883634e-12
1.069957390312802756e-12
8.749156538909824615e-13
7.321428117451087897e-13
6.342506742753127748e-13
5.110274305205627382e-13
3.553688633711293577e-13
2.750123109070736754e-13
2.056520312118498268e-13
1.440751579659265139e-13
1.017692707626147806e-13
7.355841556995743688e-14
5.168769630146861920e-14
3.643478877098994152e-14
2.605776336796598705e-14
1.891002684169074025e-14
1.397093923085379118e-14
1.052073867037936014e-14
8.049565813984363209e-15
6.230422137872796719e-15
4.846332057031854468e-15
3.760981810986238931e-15
2.892025856234805292e-15
2.190929540268225300e-15
