# bin_11_6
2.060788729943717954e-17
2.264548503522430168e-17
2.431809989599460615e-17
2.536435444129965392e-17
2.554110633408158010e-17
2.453150654185602894e-17
2.223816718760097630e-17
1.906119976657654340e-17
1.564815122609441072e-17
1.291740899010996508e-17
1.113621312642726668e-17
9.331271766297780128e-18
6.732643025655824800e-18
4.902194106289519695e-18
3.924216544821642894e-18
2.637347575565174600e-18
1.992468498241227639e-18
1.411364930754614038e-18
9.983831980025715398e-19
7.169220592884908537e-19
5.196327087036020294e-19
3.829287375457147122e-19
2.871294937788724972e-19
2.193084555228028584e-19
1.698614631786084594e-19
1.326760288835649560e-19
1.038186275663490636e-19
8.079574578995756455e-20
6.213836118790834073e-20
4.697121586314131994e-20
3.475045812449262312e-20
