# bin_10_10
1.509002104276542593e-10
1.669991027501272428e-10
1.809091778324857696e-10
1.907803720091655174e-10
1.945049525289376856e-10
1.902849467339049994e-10
1.759497866637786465e-10
1.538486945353147151e-10
1.275848583752937440e-10
1.044571924731243188e-10
8.887198423498118450e-11
7.641131654727558697e-11
5.820210692143839022e-11
4.047997688868868153e-11
3.286568457103823742e-11
2.256095355002999533e-11
1.700960782176180138e-11
1.167090200553092118e-11
8.319512009758081163e-12
5.945979277038361306e-12
4.272858499788533350e-12
3.104445589088103616e-12
2.289878883140935176e-12
1.722374629147643236e-12
1.317635161461392813e-12
1.020593015358057972e-12
7.958487487492291743e-13
6.202570042121019366e-13
4.798069561481055376e-13
3.661291063323985941e-13
2.742661911962020634e-13
