# bin_7_4
1.944024586510400983e-13
2.084367434862581588e-13
2.170520677419169734e-13
2.182101458329442995e-13
2.091900308066696458e-13
1.893444953138384876e-13
1.620634799963039886e-13
1.330171038213426334e-13
1.098942890205967829e-13
9.467738161028445998e-14
7.907600474945664899e-14
5.709776452236915391e-14
4.182873122422683798e-14
3.334013235171535244e-14
2.271841098746399572e-14
1.716033991869060598e-14
1.230900219198981312e-14
8.849855315924917180e-15
6.470861211500141457e-15
4.795821008412172598e-15
3.618507112891628251e-15
2.777748855918048744e-15
2.165923798715211437e-15
1.704947690545216134e-15
1.345808534563577632e-15
1.057878235167602243e-15
8.223895589551928963e-16
6.286080500986349558e-16
4.701485952525766110e-16
3.428034198020139033e-16
2.432403110891217555e-16
