# bin_19_15
2.212947933981581910e-13
2.503672867092857858e-13
2.786059583814985303e-13
3.037553898396715003e-13
3.228023412822125520e-13
3.320468506212001020e-13
3.287627873135188338e-13
3.083821538028661570e-13
2.732893166888997195e-13
2.289977179829408166e-13
1.872264546736805696e-13
1.575649388166108550e-13
1.364738582877823629e-13
1.080498076692668603e-13
7.457217843919971351e-14
5.886858554189566901e-14
4.256897192415292117e-14
3.041984223150801460e-14
2.075258797303089768e-14
1.484173690731421361e-14
1.025794106602415543e-14
7.066180260593847317e-15
4.912439563473834871e-15
3.444877409098326219e-15
2.454272681107500217e-15
1.782658324748207793e-15
1.320512233260021952e-15
9.967679575164984307e-16
7.631119794996731825e-16
5.887093476449938910e-16
4.542038436964436049e-16
