# bin_6_4
1.105698188349240514e-11
1.178290454335197204e-11
1.217470364678592460e-11
1.212861576494931375e-11
1.147994410885795123e-11
1.026339678532111926e-11
8.675899611232365499e-12
7.097640338018123872e-12
5.916299197969058426e-12
5.115304496311734527e-12
4.161817006056566782e-12
2.931090380969625558e-12
2.239201076094101260e-12
1.714579950776526828e-12
1.201740902136867633e-12
8.792580072869546981e-13
6.436340063051602294e-13
4.659409898774840881e-13
3.417923832842692276e-13
2.552618149833842139e-13
1.941826527210058051e-13
1.502609828492385471e-13
1.178738172012970776e-13
9.312748080081833495e-14
7.359190520581220371e-14
5.776016337393880024e-14
4.472956546101581465e-14
3.398751154497507955e-14
2.522688020035456792e-14
1.823259733995373900e-14
1.281904352035842477e-14
