# bin_5_5
3.021935306779578257e-10
3.218618196738425854e-10
3.323443092243618188e-10
3.308123488385683605e-10
3.127877951162441181e-10
2.793666648851953131e-10
2.359435223380276343e-10
1.930090680646729539e-10
1.610186503907559721e-10
1.392063233326468643e-10
1.129629308957529434e-10
7.948855193234396000e-11
6.091422148700299912e-11
4.645479383780063532e-11
3.267619243285447949e-11
2.384184480282018875e-11
1.746377110697102527e-11
1.265203550585087476e-11
9.287324060769651628e-12
6.940942507761850426e-12
5.283361841921270748e-12
4.090699262464000585e-12
3.210309404278144541e-12
2.536889799056753177e-12
2.004745108483907184e-12
1.573167560136703850e-12
1.217817219806754701e-12
9.248703075583950051e-13
6.860382337429061419e-13
4.954848020670830213e-13
3.481257031182075622e-13
