# bin_8_5
2.772938023750529818e-13
3.002109243303387482e-13
3.164665187532476061e-13
3.225966209134002432e-13
3.156030998600004997e-13
2.919435670091282806e-13
2.553804135163914166e-13
2.119172761974971265e-13
1.734802574070766445e-13
1.473942512837255646e-13
1.266403892551802742e-13
9.683694582542202860e-14
6.759126450881589466e-14
5.469535982909337854e-14
3.808598970307460539e-14
2.866052248406320962e-14
1.996635716392114850e-14
1.446830493153983552e-14
1.050584154504319887e-14
7.699759129652212196e-15
5.729527280346345766e-15
4.335131746254747543e-15
3.339179168001919170e-15
2.606339937978496280e-15
2.048790536518923087e-15
1.611159576200636448e-15
1.258505398949268092e-15
9.702347047343596998e-16
7.342555836644302165e-16
5.431228928321505841e-16
3.914911850273201868e-16
