# bin_10_3
1.787750687073648727e-26
1.940231950044246052e-26
2.051519477147251745e-26
2.098619865122779030e-26
2.063416490553322552e-26
1.919916429536146585e-26
1.688886783163799852e-26
1.406889294054555386e-26
1.150418246105882181e-26
9.730014848167676238e-27
8.394430198998505461e-27
6.522383505420243956e-27
4.529103181281598402e-27
3.636688406814049684e-27
2.581851141047019017e-27
1.914832922611819949e-27
1.332326953059315632e-27
9.710533102669881750e-28
7.024392957082642263e-28
5.126332116278085352e-28
3.800352442226247665e-28
2.864419687737332742e-28
2.198407432920909253e-28
1.711333237310820827e-28
1.343137271423184990e-28
1.055885068320867057e-28
8.254993390087187367e-29
6.376469426868627090e-29
4.839371755481341420e-29
3.592602197235288982e-29
2.600251523097090805e-29
