# bin_4_8
-1.150834904958834019e-17
-1.239122234944825182e-17
-1.297251644674357943e-17
-1.312078630606520398e-17
-1.268974760737818746e-17
-1.158903563910842009e-17
-1.001010845470520927e-17
-8.245614158336165327e-18
-6.778092870811069613e-18
-5.812247417552010370e-18
-4.927138355890399339e-18
-3.637458550917792434e-18
-2.595593501770378723e-18
-2.105460887405961053e-18
-1.427067661974899892e-18
-1.090444165810910061e-18
-7.703343525031459989e-19
-5.530748304603992656e-19
-4.038416486845667133e-19
-2.980520518912930340e-19
-2.235862765040198770e-19
-1.706184265431484121e-19
-1.324071939964236006e-19
-1.039012313167105229e-19
-8.190715237341501824e-20
-6.442089201923436416e-20
-5.019745913805623808e-20
-3.851792736707184039e-20
-2.895682188399952476e-20
-2.124324178770869352e-20
-1.517244611265724524e-20
