# bin_7_8
-8.003670439240040066e-12
-8.707890190364068113e-12
-9.235865647078439897e-12
-9.483460000072177630e-12
-9.371161635698652216e-12
-8.774020681157854986e-12
-7.763587774114603290e-12
-6.499269131319247029e-12
-5.313093426939957742e-12
-4.470679267306659367e-12
-3.864673032259726069e-12
-3.054951526166327991e-12
-2.122831453101756228e-12
-1.678009710768498600e-12
-1.223184335933928919e-12
-8.864831550298876742e-13
-6.231043567551723177e-13
-4.555797737893498200e-13
-3.278333801003006474e-13
-2.379014297952111371e-13
-1.755963932717280142e-13
-1.318034227855864697e-13
-1.007393149335229553e-13
-7.816887784706969238e-14
-6.122589506684363863e-14
-4.809722785556617452e-14
-3.762655003087791147e-14
-2.911692776182949860e-14
-2.216117873779083877e-14
-1.651325695278591218e-14
-1.200442447026272491e-14
