# bin_4_4
-1.152219951112570965e-10
-1.200183471319120676e-10
-1.207263542353400267e-10
-1.159004976090027088e-10
-1.051105142774327316e-10
-9.017000916654792680e-11
-7.411877622685066677e-11
-6.117895778778357795e-11
-5.256464111144615484e-11
-4.399058597458918322e-11
-3.208825002498370471e-11
-2.341900131560812290e-11
-1.867134926727490815e-11
-1.288528423570379085e-11
-9.749877432919847015e-12
-7.024505673570231490e-12
-5.120449144273922152e-12
-3.795965084154880009e-12
-2.857550837388634908e-12
-2.190485049141036204e-12
-1.707071176871943237e-12
-1.348116352547148234e-12
-1.071388490003992316e-12
-8.507158247891531030e-13
-6.701741896556718088e-13
-5.203265324210277208e-13
-3.959335680680634985e-13
-2.939859829682007921e-13
-2.124072301003271351e-13
-1.492567041672796587e-13
-1.021475279488633499e-13
