# bin_7_20
-3.594468384807728148e-47
-4.043253180098954566e-47
-4.468191879094929891e-47
-4.830168529500417229e-47
-5.078811241366045723e-47
-5.159700589054479656e-47
-5.020178912194729219e-47
-4.611977387884103074e-47
-4.006804071773300791e-47
-3.309627212882341560e-47
-2.715371108269630148e-47
-2.323581427265873932e-47
-1.985969128106903150e-47
-1.481940435831171617e-47
-1.038247475216740975e-47
-8.466527667038747774e-48
-5.643875723422844958e-48
-4.287082161520324678e-48
-2.925992112141043225e-48
-2.029978589403712366e-48
-1.425306393709911479e-48
-1.000832691630702359e-48
-7.073364498988116497e-49
-5.061081185292556223e-49
-3.693400717583923484e-49
-2.747880910193856378e-49
-2.080871228506096649e-49
-1.597962317388661582e-49
-1.236245055968482761e-49
-9.565228189093675227e-50
-7.348556947474624219e-50
