# bin_4_2
-1.073750949908945025e-09
-1.074475671525687429e-09
-1.025149006309528999e-09
-9.248160878328895432e-10
-7.898485876630136017e-10
-6.493689603686986164e-10
-5.382345646075010197e-10
-4.616948044596378919e-10
-3.814016868413389978e-10
-2.779955950362860286e-10
-2.061187620710727582e-10
-1.611583060814649411e-10
-1.138543184337271632e-10
-8.525307847466091775e-11
-6.218930966308239240e-11
-4.598043778166834624e-11
-3.454913851754650724e-11
-2.641987979112061294e-11
-2.057557141187727411e-11
-1.626679492079588646e-11
-1.298921554656706446e-11
-1.039754151495452902e-11
-8.281809772515162061e-12
-6.518613635680734492e-12
-5.038665935210028480e-12
-3.805556939416171605e-12
-2.798869608422221669e-12
-2.001612038832958699e-12
-1.392949668359825658e-12
-9.454982950833513162e-13
-6.280087561601655357e-13
