# bin_6_5
-2.681963164119618798e-10
-2.846540313328939790e-10
-2.926742967699583588e-10
-2.897290173597386629e-10
-2.720626070606687877e-10
-2.414389760589467247e-10
-2.027837078159508836e-10
-1.658748641866854439e-10
-1.391279335204327324e-10
-1.200984637872515467e-10
-9.580397243163724185e-11
-6.720049099359807798e-11
-5.240405553817822369e-11
-3.897530747991083923e-11
-2.800293192048241328e-11
-2.016654201893156046e-11
-1.479859967775818547e-11
-1.077294351061050900e-11
-7.942745657073777756e-12
-5.962253861819453078e-12
-4.556433276371853273e-12
-3.540748992545687085e-12
-2.785774155427872469e-12
-2.204218573095154165e-12
-1.741778753171184045e-12
-1.364983332684800723e-12
-1.054058058981876602e-12
-7.977600989226800335e-13
-5.892967548636964557e-13
-4.237026212799539150e-13
-2.963733168504789563e-13
