# bin_12_2
-2.561888687469896340e-09
-2.571029362610362816e-09
-2.462744227293401075e-09
-2.230837123389695691e-09
-1.912818696790994604e-09
-1.575034548288031737e-09
-1.302651601681990441e-09
-1.115693461716118124e-09
-9.278391909774525328e-10
-6.819289201006708672e-10
-5.011059829613420790e-10
-3.939559930264835407e-10
-2.782544279222838408e-10
-2.085637679369243817e-10
-1.516707345134462850e-10
-1.120821707881026112e-10
-8.406127546426568896e-11
-6.413641433861048939e-11
-4.984128269936922288e-11
-3.933264011069850561e-11
-3.137110576096214399e-11
-2.510155082840322650e-11
-2.000046514805879847e-11
-1.575859964440798453e-11
-1.220092240163035345e-11
-9.234743002831841117e-12
-6.808471798457141951e-12
-4.881445009918268651e-12
-3.405212182505826610e-12
-2.316287693464138517e-12
-1.541254111075622321e-12
