# bin_12_10
-1.717588645485518285e-10
-1.898784863900932195e-10
-2.054225117854507549e-10
-2.162743726490094599e-10
-2.200920857183063970e-10
-2.147309899500536528e-10
-1.979629519627299351e-10
-1.725878783794467446e-10
-1.428962373218759431e-10
-1.171126559986466340e-10
-9.984757626353209765e-11
-8.556064075736197496e-11
-6.465426495828054245e-11
-4.521717057582896342e-11
-3.670670030846994826e-11
-2.505869425960308482e-11
-1.893583841206133024e-11
-1.305640953454254844e-11
-9.286267764044627005e-12
-6.643191285367078465e-12
-4.779421744954035943e-12
-3.479579241640494528e-12
-2.572809841359634560e-12
-1.939707270198620101e-12
-1.486754488858202562e-12
-1.153136322856262055e-12
-8.997491822112869766e-13
-7.011283344019428539e-13
-5.419203093899078848e-13
-4.129579260651943648e-13
-3.087807339113594534e-13
