# bin_5_5
-9.045228106634408580e-11
-9.573425712983850536e-11
-9.809367921228998948e-11
-9.667436306214330603e-11
-9.026562120902440591e-11
-7.967560591935018727e-11
-6.660421343915745443e-11
-5.447602023442149153e-11
-4.589794674024654868e-11
-3.957300148106033911e-11
-3.111434170456160245e-11
-2.175590280121905846e-11
-1.722266309669369347e-11
-1.253919155073123866e-11
-9.170845421658977146e-12
-6.531506301985429955e-12
-4.802848057067418999e-12
-3.510610396752157670e-12
-2.597584141238112280e-12
-1.957178888507165209e-12
-1.500778230001099024e-12
-1.169850320393678045e-12
-9.223892286537137429e-13
-7.306271546027258125e-13
-5.773353710557274803e-13
-4.519457642763335455e-13
-3.482849286382322220e-13
-2.628406697137996095e-13
-1.934754256814613012e-13
-1.385730685504135094e-13
-9.655751885222996247e-14
