# bin_3_4
-1.320531654758982970e-11
-1.367280642905394769e-11
-1.365753437691827260e-11
-1.298272284766980785e-11
-1.165865010152105697e-11
-9.903211878048050332e-12
-8.113917648693674695e-12
-6.739143266069356403e-12
-5.811952885160989036e-12
-4.774945962431959605e-12
-3.409943701412571671e-12
-2.562558546672168697e-12
-1.996049462485013667e-12
-1.393471349104739849e-12
-1.038830155928798878e-12
-7.591572810035027161e-13
-5.548887069844766393e-13
-4.125929364490595003e-13
-3.122368336930425263e-13
-2.407250059390406441e-13
-1.885897566136176899e-13
-1.494799980532992526e-13
-1.190107012205066498e-13
-9.448881596502370770e-14
-7.429111601051038437e-14
-5.747173444114855974e-14
-4.351201138738568473e-14
-3.211276797571059579e-14
-2.304918413961685538e-14
-1.609237742669238222e-14
-1.094932254095832296e-14
