# bin_20_17
-9.629745091373681224e-11
-1.088697465766620655e-10
-1.210433612096609958e-10
-1.318286932629359662e-10
-1.399091846890224304e-10
-1.436859326073340755e-10
-1.419607746090521684e-10
-1.328111548195159686e-10
-1.174124059905054313e-10
-9.818616959921522332e-11
-8.029066642997365040e-11
-6.771720588498040911e-11
-5.859891049161861612e-11
-4.605101770501742686e-11
-3.178932034013044716e-11
-2.525063106938778637e-11
-1.804263975769401098e-11
-1.302861542218045841e-11
-8.853879751801925006e-12
-6.309928436666537036e-12
-4.371196155158819320e-12
-3.020672050691930791e-12
-2.104371215483943535e-12
-1.479277209901080446e-12
-1.057164715979261814e-12
-7.703257006871860009e-13
-5.723620378342151589e-13
-4.331239208791018241e-13
-3.321456892220530011e-13
-2.564063680464525857e-13
-1.977576812721920652e-13
