# bin_20_15
-1.836093268754984407e-10
-2.066602114524960349e-10
-2.285465860450783016e-10
-2.472843393204667284e-10
-2.603074459883746385e-10
-2.647954490191040553e-10
-2.581254297178615433e-10
-2.376678446006717690e-10
-2.069368497871403099e-10
-1.711740786201522240e-10
-1.403665882347869423e-10
-1.199024388734608955e-10
-1.026746544048976244e-10
-7.711762171456081639e-11
-5.388708604450115259e-11
-4.383279088236255527e-11
-2.945964224946027713e-11
-2.226390800109534854e-11
-1.515037797659904994e-11
-1.054986691768472970e-11
-7.396640844958902410e-12
-5.186322548958949897e-12
-3.658981877996478427e-12
-2.612179365650697751e-12
-1.901450632481209371e-12
-1.411200676787639763e-12
-1.066324311691524160e-12
-8.175391450592878465e-13
-6.319096131610348019e-13
-4.888607627234383613e-13
-3.757840414419903474e-13
