# bin_3_14
-8.504485137487847132e-48
-9.384285160272298720e-48
-1.012936102050632488e-47
-1.063400059477105706e-47
-1.078645624857705640e-47
-1.047323141293560744e-47
-9.602194264363711017e-48
-8.325906642845173524e-48
-6.870197178593433185e-48
-5.639073924049534786e-48
-4.828031046651687429e-48
-4.115923671131229476e-48
-3.061453068976992676e-48
-2.158359557401129621e-48
-1.758937098145974187e-48
-1.181610020650198036e-48
-9.018892415573096017e-49
-6.258845080959609365e-49
-4.423842775123444232e-49
-3.174157805992540292e-49
-2.291190706175874070e-49
-1.674636446896418656e-49
-1.243848346775798929e-49
-9.419762075097213180e-50
-7.246988305067213728e-50
-5.635770951252513612e-50
-4.403147257474551161e-50
-3.430852619803225290e-50
-2.648237680392235192e-50
-2.013189154536158771e-50
-1.500391774376282645e-50
