# bin_18_9
-6.091819105686823164e-10
-6.704838634627796433e-10
-7.214345460427185900e-10
-7.543651980958736277e-10
-7.617764845417735660e-10
-7.348033768002845979e-10
-6.691642334355705116e-10
-5.762671823241689342e-10
-4.741426896834291575e-10
-3.905516835587741848e-10
-3.356851122215255616e-10
-2.831530349404732656e-10
-2.069880231077360129e-10
-1.487923709050136767e-10
-1.198203391662922300e-10
-8.067065321616385235e-11
-6.110167551490318591e-11
-4.292113513416287415e-11
-3.036990027340142402e-11
-2.179889044345132992e-11
-1.577453869562819255e-11
-1.158579795792889432e-11
-8.653784518428286005e-12
-6.586659296889346641e-12
-5.087494037864537923e-12
-3.966519427615464335e-12
-3.101644350382252547e-12
-2.414830947385237114e-12
-1.859804482206744010e-12
-1.408982030680927892e-12
-1.045458280085630083e-12
