# bin_20_8
-8.282823148289655516e-10
-9.061532522512699759e-10
-9.677416627171253181e-10
-1.002332154096540075e-09
-1.001123003299730870e-09
-9.507166000715320488e-10
-8.525684241567899693e-10
-7.228531199324090897e-10
-5.918411082228342772e-10
-4.924888787269613827e-10
-4.257817650212106750e-10
-3.484537683213801665e-10
-2.461488458269329721e-10
-1.860655860329578563e-10
-1.433973348269383677e-10
-9.913512205746866518e-11
-7.252237543681374422e-11
-5.233703572345359641e-11
-3.727549606656762209e-11
-2.683673566682423865e-11
-1.960095078341124669e-11
-1.456463064953173043e-11
-1.101721358140723693e-11
-8.477455959798514351e-12
-6.601741736398333044e-12
-5.171976642517237367e-12
-4.048153194156383473e-12
-3.143402289101075347e-12
-2.406860004381677997e-12
-1.808103735593385924e-12
-1.327424823077250948e-12
