# bin_11_1
-3.322688953771292919e-09
-3.204835958391708664e-09
-2.927179837562746993e-09
-2.531559856747384477e-09
-2.095967617204071521e-09
-1.728916137304028372e-09
-1.471478173742748755e-09
-1.234256860749386042e-09
-9.294516590987192894e-10
-6.758096383929942601e-10
-5.299109209746311887e-10
-3.815990844638957286e-10
-2.840669447269963495e-10
-2.077406980459327194e-10
-1.546619121197515876e-10
-1.165841442820626314e-10
-8.947683794676122871e-11
-6.996556427705431380e-11
-5.554475715570046760e-11
-4.453252264141354301e-11
-3.578849678975502379e-11
-2.861237133895193255e-11
-2.259805269869183180e-11
-1.752279355911729450e-11
-1.327377355581365509e-11
-9.790267752535331558e-12
-7.022196557242001942e-12
-4.901567539498244881e-12
-3.337301471261515994e-12
-2.223340049936244210e-12
-1.454208214638849249e-12
