# bin_19_17
-6.786923596367593276e-11
-7.671560041240584906e-11
-8.527425003408272756e-11
-9.284628957594933429e-11
-9.850274700217026180e-11
-1.011182034647922809e-10
-9.984761602272766936e-11
-9.334592929156317646e-11
-8.246817493615829124e-11
-6.892450982451537658e-11
-5.636324459472086092e-11
-4.756493126749556473e-11
-4.115242869941025034e-11
-3.227513093309222084e-11
-2.227567668624055326e-11
-1.772806626579810912e-11
-1.262538741657432527e-11
-9.143892740933186164e-12
-6.204065927391663402e-12
-4.419080504175576303e-12
-3.063175359129431287e-12
-2.118466320470934375e-12
-1.476742755117412837e-12
-1.038779070099090190e-12
-7.430001547683901285e-13
-5.418816306675609886e-13
-4.029657412311928429e-13
-3.051517784936872165e-13
-2.341213459534616126e-13
-1.807730169297426361e-13
-1.394163433142745701e-13
