# bin_2_2
-2.049763139320915261e-10
-2.031048932497022545e-10
-1.912277462586923608e-10
-1.702396491789553259e-10
-1.435829939269615220e-10
-1.176518491051529863e-10
-9.835129813294735150e-11
-8.457687340322224816e-11
-6.806166944220944619e-11
-4.853111330875403857e-11
-3.721433587247079468e-11
-2.824939423101583687e-11
-2.025495360622979234e-11
-1.496828467206041052e-11
-1.105561396918990989e-11
-8.207281287428144821e-12
-6.202921189727635626e-12
-4.777874322570928585e-12
-3.746260531562244058e-12
-2.978215864776243365e-12
-2.385914182884346594e-12
-1.911419445844199400e-12
-1.520084332894527952e-12
-1.191923962607059809e-12
-9.160607826271477613e-13
-6.868867744883334277e-13
-5.011252528348019710e-13
-3.554497827788734126e-13
-2.454807925452073321e-13
-1.655149350318045946e-13
-1.093233981901651719e-13
