# bin_8_16
-3.692259918073534927e-27
-4.124890798601189483e-27
-4.520508391498360262e-27
-4.836429818942255349e-27
-5.019027740398767805e-27
-5.023860440585998367e-27
-4.782521547659920821e-27
-4.297487325789497852e-27
-3.649778685031905944e-27
-2.988331989561868895e-27
-2.483411701169413643e-27
-2.149970116252812051e-27
-1.768672373577815967e-27
-1.246398083154075071e-27
-9.360679555484703978e-28
-7.250427849924629016e-28
-4.929674192926670862e-28
-3.595675286945374904e-28
-2.563753378451183321e-28
-1.790327518401859765e-28
-1.257420218321940164e-28
-8.924331317750614043e-29
-6.428172888835073928e-29
-4.709091996070826068e-29
-3.518308605780842752e-29
-2.674154281601689612e-29
-2.060180296456443639e-29
-1.599075447889558673e-29
-1.241415959497770858e-29
-9.571234425307193619e-30
-7.283480976011047308e-30
