# bin_16_12
-2.248065868964117304e-10
-2.507199967268625378e-10
-2.741938594120157132e-10
-2.925955707820315097e-10
-3.026404004704124699e-10
-3.017408925208625077e-10
-2.857298975151986301e-10
-2.554944210697303441e-10
-2.159449405417719085e-10
-1.766855809442130406e-10
-1.474435535076514559e-10
-1.276784234215854654e-10
-1.037299207021900474e-10
-7.256265143394175862e-11
-5.545940692187332282e-11
-4.206626000543419790e-11
-2.912064267742711809e-11
-2.084729295628993046e-11
-1.497517335085125630e-11
-1.049633173255149231e-11
-7.389433396921253846e-12
-5.268403308004116196e-12
-3.811590626207126191e-12
-2.806328199053270372e-12
-2.106524738884584531e-12
-1.607398426137966158e-12
-1.241760370758277965e-12
-9.650268004257762249e-13
-7.489791482921455938e-13
-5.765147487300295144e-13
-4.375212385123148268e-13
