# bin_12_19
-1.115364999456874069e-21
-1.257951023009500168e-21
-1.394558604249439026e-21
-1.513407550952314348e-21
-1.599054088822389393e-21
-1.633504337009272076e-21
-1.602222620260503190e-21
-1.485673808400487605e-21
-1.302512195406105258e-21
-1.081975920235964242e-21
-8.855680844291394901e-22
-7.524535731164832049e-22
-6.485802203381169874e-22
-4.968109926469286152e-22
-3.437795186091461770e-22
-2.783380668153118238e-22
-1.910081991972342949e-22
-1.426296743709462007e-22
-9.615714420717628184e-23
-6.758926737898486327e-23
-4.720966340674123302e-23
-3.296507606196379128e-23
-2.313057182403175346e-23
-1.639716515876811528e-23
-1.184142847677948011e-23
-8.720525604568878980e-24
-6.544119820750248920e-24
-4.991878251586595772e-24
-3.847797966562363249e-24
-2.975926512422037498e-24
-2.292164333852374311e-24
