# bin_2_15
-1.189811655740060485e-61
-1.315959610382122668e-61
-1.424521848000043377e-61
-1.500869973096887026e-61
-1.528553994297561395e-61
-1.493108280016159857e-61
-1.378158080321396634e-61
-1.202962317029044702e-61
-9.964505519137343320e-62
-8.161402130245024745e-62
-6.953447486726353969e-62
-5.970119010471700448e-62
-4.524500760128136158e-62
-3.152966318025168188e-62
-2.565159174856954899e-62
-1.749971010515515552e-62
-1.325047698199212008e-62
-9.105699865909196104e-63
-6.474100810715765106e-63
-4.632977260760922108e-63
-3.333880335815025025e-63
-2.425294419066192743e-63
-1.791502715176724673e-63
-1.349486271491238186e-63
-1.033646129618905398e-63
-8.013462504724654354e-64
-6.251732601438273866e-64
-4.872421115160818912e-64
-3.767582575176745611e-64
-2.872774745756160346e-64
-2.149741240306077092e-64
