# bin_2_8
-6.887673123767825530e-26
-7.352612871967916086e-26
-7.613786129689507719e-26
-7.605015403006496413e-26
-7.223835610639370207e-26
-6.479888640463839998e-26
-5.495403311963015947e-26
-4.498155165576791878e-26
-3.739481361460155411e-26
-3.232178812221541115e-26
-2.650988303528882114e-26
-1.876312647848628520e-26
-1.417374385146114791e-26
-1.099296424273182222e-26
-7.624566445922608249e-27
-5.634369293581903256e-27
-4.106277709803000011e-27
-2.965636042478995050e-27
-2.172217557311591462e-27
-1.618409453005532272e-27
-1.228440121169067188e-27
-9.486011890145368162e-28
-7.430070103521746577e-28
-5.865118179599179893e-28
-4.634004908688163460e-28
-3.639044374775308297e-28
-2.821343498010529569e-28
-2.147438040533041728e-28
-1.597321058341996195e-28
-1.157232602807968758e-28
-8.156230996447241013e-29
