# bin_12_18
-1.867829190031493928e-19
-2.103505726265808543e-19
-2.327844726637008728e-19
-2.520780847361230412e-19
-2.656279251355099614e-19
-2.705143482363684420e-19
-2.641533010782224648e-19
-2.436642788092783314e-19
-2.125479807385414600e-19
-1.759750840194235266e-19
-1.441985901196748100e-19
-1.230250937069804245e-19
-1.055973077747739048e-19
-7.970418021571960935e-20
-5.546953610084060308e-20
-4.516622704555923792e-20
-3.042254312022456540e-20
-2.299229848867488828e-20
-1.558895749206719937e-20
-1.086114041439584523e-20
-7.614583567801721248e-21
-5.338242505747632650e-21
-3.760864456060017599e-21
-2.679821838979117200e-21
-1.946761351467270756e-21
-1.442046470407334888e-21
-1.087825430815984697e-21
-8.330649941450161550e-22
-6.435686927626726239e-22
-4.979342445378422517e-22
-3.830162888193507844e-22
