# bin_6_8
-3.992425286831647748e-13
-4.331159418209928570e-13
-4.577244887222945170e-13
-4.679691397466804838e-13
-4.597351522479297003e-13
-4.273717320280579944e-13
-3.756153398432506116e-13
-3.127434100433639922e-13
-2.558046818794386107e-13
-2.164955431748319354e-13
-1.866048627421049837e-13
-1.446499542365598877e-13
-1.005948966816773573e-13
-8.079337379174830719e-14
-5.724511498517547159e-14
-4.250251396544285363e-14
-2.961563874951697928e-14
-2.156416640252212968e-14
-1.560454165029664546e-14
-1.139310621922245940e-14
-8.450733559599954544e-15
-6.373375292092628972e-15
-4.894126718774754959e-15
-3.811289165182228254e-15
-2.991924798088563831e-15
-2.352094215443867533e-15
-1.838572622456077148e-15
-1.419712329803142052e-15
-1.076977026195907554e-15
-7.990556223502017343e-16
-5.779757309880595803e-16
