# bin_12_13
-5.610836564377899501e-12
-6.262526427621485540e-12
-6.855460993531079785e-12
-7.324310071589939404e-12
-7.587214738077481774e-12
-7.578559092611522457e-12
-7.193717701855599215e-12
-6.446785061826560492e-12
-5.460341872398336036e-12
-4.468603600584597196e-12
-3.721853272193876015e-12
-3.223223509926315251e-12
-2.634263395462694690e-12
-1.847624984682301138e-12
-1.401270004928926070e-12
-1.073375370763320219e-12
-7.365352254634733564e-13
-5.316398213083150844e-13
-3.809557341234871981e-13
-2.665502700550880119e-13
-1.873768278332341694e-13
-1.333153794242115412e-13
-9.626220071789012488e-14
-7.071561808035638275e-14
-5.297209699612504109e-14
-4.035171176639464611e-14
-3.113652442112250936e-14
-2.418595297430855665e-14
-1.877490066558161978e-14
-1.446316557475068633e-14
-1.099014372729785800e-14
