# bin_15_12
-1.780571390459241756e-10
-1.985533390308068398e-10
-2.171049214511954063e-10
-2.316244903067513396e-10
-2.395090598317188242e-10
-2.387173915505871098e-10
-2.259474333294663130e-10
-2.019510648109966735e-10
-1.706167188009464826e-10
-1.395877221201427071e-10
-1.165268704764873104e-10
-1.009109764650118194e-10
-8.189534694066088558e-11
-5.724700628475787559e-11
-4.382217723024165229e-11
-3.317914164608197105e-11
-2.300312136080686772e-11
-1.644141692863584318e-11
-1.181859507688326582e-11
-8.286517049249960875e-12
-5.834777040250355554e-12
-4.161605129724521322e-12
-3.012027753593880399e-12
-2.218633871335529730e-12
-1.666074923724377841e-12
-1.271755167351056500e-12
-9.827107904585558642e-13
-7.637976072406637612e-13
-5.927924450442429539e-13
-4.562317962389786793e-13
-3.461581155366801771e-13
