# bin_10_11
-6.282151426016581001e-12
-6.956444754202515849e-12
-7.541318122985462756e-12
-7.959968224176948267e-12
-8.123903171815988318e-12
-7.959520034532268638e-12
-7.373048872521654731e-12
-6.457954373076128613e-12
-5.362097142507930664e-12
-4.388747564072515643e-12
-3.728530128609497254e-12
-3.209477538808039892e-12
-2.457163054099638126e-12
-1.706586879586355529e-12
-1.381673722036488573e-12
-9.552156421873515697e-13
-7.163234357822139405e-13
-4.911867114327367485e-13
-3.511158668417038795e-13
-2.505682508898364250e-13
-1.797655254578667763e-13
-1.304397834165512660e-13
-9.607540653043341712e-14
-7.215608454748734392e-14
-5.512930325578496166e-14
-4.266040272737728347e-14
-3.324884107072003981e-14
-2.591155409072649634e-14
-2.005158728016369671e-14
-1.531207083957357275e-14
-1.148200025346163521e-14
