# bin_2_4
-2.959409699943507095e-13
-3.039730466809828367e-13
-3.006273629026933675e-13
-2.820541985263947487e-13
-2.501467329438093500e-13
-2.100182204248151685e-13
-1.717935672404980812e-13
-1.440841771377481165e-13
-1.242746999969846798e-13
-9.909222100887208013e-14
-6.968778406788660436e-14
-5.436993711420272257e-14
-4.055370046008179637e-14
-2.927582288705085492e-14
-2.123952446382094565e-14
-1.571081990778093346e-14
-1.157435093507694850e-14
-8.658060697601962235e-15
-6.602587942443486640e-15
-5.126370668698367271e-15
-4.040658903445014610e-15
-3.215074133099304773e-15
-2.563475410624475736e-15
-2.033376876938071983e-15
-1.593579431934531345e-15
-1.226374792708514251e-15
-9.221203151921221686e-16
-6.751535427539855904e-16
-4.805993159142432314e-16
-3.329165112727300223e-16
-2.249597669127190426e-16
