# bin_11_10
-9.832955396153716041e-11
-1.086353994813088163e-10
-1.174388089416383635e-10
-1.235244811561158380e-10
-1.255672045331929721e-10
-1.223129468407285352e-10
-1.125548395645420408e-10
-9.795121648669793684e-11
-8.100741604491405366e-11
-6.642287494004804355e-11
-5.670984871322129018e-11
-4.851520838276355685e-11
-3.647058569955656328e-11
-2.557047945163217517e-11
-2.078667956406535751e-11
-1.411415149053503678e-11
-1.070331785784964356e-11
-7.392464499637238447e-12
-5.247127790099301594e-12
-3.757681409589058333e-12
-2.706802900614061037e-12
-1.973242405099760684e-12
-1.461213264003047814e-12
-1.103299222575384497e-12
-8.467200172009500767e-13
-6.573128819316638720e-13
-5.131078620378225260e-13
-3.998316375512899538e-13
-3.089043744514575574e-13
-2.352062698408390623e-13
-1.756791636375281214e-13
