# bin_3_2
1.087265253137995692e-05
1.107576913866191429e-05
1.083109279355164964e-05
1.002643092962371452e-05
8.779091897367186326e-06
7.300103218182272406e-06
5.980778828347575146e-06
5.067094564104741896e-06
4.339698776492857068e-06
3.344464921932231368e-06
2.361083179461049570e-06
1.884237764465926015e-06
1.349699630584205509e-06
1.005763366414483776e-06
7.218049227096443939e-07
5.336069461062363125e-07
3.963759072397025241e-07
2.988929590066845576e-07
2.296619586978570402e-07
1.794864571587805744e-07
1.422125039622485142e-07
1.134824225555884635e-07
9.052664056984067905e-08
7.167335997292286295e-08
5.594431772310302703e-08
4.280057730693391080e-08
3.194835079333616873e-08
2.320424033352504395e-08
1.638628395070552118e-08
1.126802153406175638e-08
7.566399039552211270e-09
