# bin_13_8
2.954788277849324388e-10
3.280189468384722168e-10
3.566999482960708590e-10
3.779558177019876169e-10
3.875038511084359720e-10
3.820677765632936741e-10
3.566264981855981539e-10
3.146258064672078426e-10
2.626814459762639867e-10
2.147889271303721399e-10
1.813479061840083877e-10
1.567317398421031707e-10
1.226059659697295207e-10
8.484886616840168238e-11
6.770735187584433991e-11
4.828530552588799677e-11
3.530295767505870956e-11
2.429805580275263894e-11
1.753239993493367160e-11
1.243158160472983605e-11
8.852320390762869875e-12
6.387224416331595153e-12
4.675951502260766343e-12
3.488922851752146323e-12
2.650604290565890905e-12
2.042322287751631567e-12
1.587857654135153347e-12
1.236921909391895342e-12
9.585648426143071472e-13
7.342162575114629907e-13
5.529480398051649183e-13
