# bin_5_3
1.069307353532905449e-06
1.123615119397801217e-06
1.141606743157564017e-06
1.111893775663391408e-06
1.023860104362722554e-06
8.917606266873194657e-07
7.383668890341297677e-07
6.053313545109702659e-07
5.154594067633808210e-07
4.404463880494074616e-07
3.336874177802532595e-07
2.354723183022902775e-07
1.901624896439384871e-07
1.326121148354854396e-07
1.002860317211468664e-07
7.103562698768329243e-08
5.191863772253338775e-08
3.828484477476206293e-08
2.859489339402714855e-08
2.172803725702897772e-08
1.679244506442820984e-08
1.317800775316448591e-08
1.043574082656001015e-08
8.280748342814525066e-09
6.537657003833204816e-09
5.100404634491988221e-09
3.908662608999636169e-09
2.927945589187058481e-09
2.136478802305324738e-09
1.516217913826942168e-09
1.047186639841998064e-09
