# bin_13_12
5.413050365348164577e-06
6.050440292532733498e-06
6.634951156505629815e-06
7.104271485297702125e-06
7.380037486106435084e-06
7.395796418698814795e-06
7.052420969031780422e-06
6.347560757387696995e-06
5.400160531317855530e-06
4.423650514186932920e-06
3.671855983328350673e-06
3.176937568349107101e-06
2.622483038218225304e-06
1.855314440717314637e-06
1.385014085891565103e-06
1.079127398584445150e-06
7.307168698505616260e-07
5.359728044900879245e-07
3.807300704793586404e-07
2.655909037980115817e-07
1.865279056913744310e-07
1.322115498799605571e-07
9.508449985830400759e-08
6.953201439629478157e-08
5.186088835305447058e-08
3.935911543307694330e-08
3.028812415067361486e-08
2.349430795572634957e-08
1.823750730930474398e-08
1.406643432943084085e-08
1.071271364237276469e-08
