# bin_20_16
1.208997405689881492e-07
1.370377337956259058e-07
1.528453373706610301e-07
1.671134488930450801e-07
1.782186226188395659e-07
1.841352151005151365e-07
1.833244815655812685e-07
1.731951647321169363e-07
1.545176193466479180e-07
1.302784459118643427e-07
1.065616772387988946e-07
8.915464609619565868e-08
7.727213746774110870e-08
6.236653901276761928e-08
4.331886707804409336e-08
3.341647955657664447e-08
2.496222549432659933e-08
1.731909292219761932e-08
1.211290118502551193e-08
8.637022808728615464e-09
5.937879460236276952e-09
4.065750506062097034e-09
2.807948852061118660e-09
1.955785851616412914e-09
1.381126485457842114e-09
9.938909307763149754e-10
7.295039692332376081e-10
5.462675479582127717e-10
4.157969337150973891e-10
3.198019382805050019e-10
2.467056179289631870e-10
