# bin_19_2
3.498589721039807634e-55
3.916624384301655208e-55
4.303165978229447206e-55
4.618450305971481647e-55
4.812283028409590193e-55
4.839311693951424656e-55
4.637559964427926692e-55
4.194117935305123026e-55
3.585882866734573971e-55
2.941621085926818035e-55
2.433373677424096091e-55
2.101746556871759205e-55
1.752266824777493250e-55
1.253414940830703529e-55
9.197869315283238040e-56
7.286438928875071736e-56
4.878091771129624045e-56
3.633141195284888917e-56
2.555028713666354140e-56
1.777106745243477144e-56
1.247741424848265434e-56
8.812454161613276889e-57
6.310239026244268545e-57
4.590952654625712639e-57
3.407399809674200745e-57
2.574874722310744302e-57
1.974951475068189728e-57
1.529169277949781055e-57
1.186682889110480976e-57
9.163390282797258336e-58
6.995048052282044719e-58
