# bin_11_2
3.195093082472708888e-25
3.476442223045439536e-25
3.687524314561443947e-25
3.786779699731365478e-25
3.742412310665097378e-25
3.504553947214908549e-25
3.101483476342670969e-25
2.596847832798900210e-25
2.122959347344814051e-25
1.786108470513379726e-25
1.543979888859446150e-25
1.221005828029071772e-25
8.487225370903349568e-26
6.704364949077571108e-26
4.890276359904602924e-26
3.542015290096649510e-26
2.491723488409144679e-26
1.820865689671787807e-26
1.310155602998492316e-26
9.506964537646456841e-27
7.015853409939503037e-27
5.265253776323328337e-27
4.023643081426953931e-27
3.121729945733912683e-27
2.444862267486506417e-27
1.920508928695525716e-27
1.502409049245122315e-27
1.162666814700371524e-27
8.849828670249577734e-28
6.595092243361935543e-28
4.794987073051191269e-28
