# bin_18_12
1.313234495677811790e-10
1.479538034566582872e-10
1.638128638577769693e-10
1.774965035716850572e-10
1.871775975490581622e-10
1.907864021501785678e-10
1.865329399503404367e-10
1.723202039460032982e-10
1.505308359884098947e-10
1.247515723280850972e-10
1.021938430952409166e-10
8.708408634583076402e-11
7.483079685897620331e-11
5.672464019532519102e-11
3.941983064783724141e-11
3.203533757415973405e-11
2.170466745951438124e-11
1.633880506712235625e-11
1.106228285145507817e-11
7.728980398178641873e-12
5.412094008228235458e-12
3.789263215103337507e-12
2.666473270510139082e-12
1.897225395524095974e-12
1.375907149711598624e-12
1.017496256039112076e-12
7.664134063955875341e-13
5.862622885042095580e-13
4.526106610260003030e-13
3.501416145827553909e-13
2.694273487869270897e-13
