# bin_20_3
7.683890743319406296e-52
8.625403756588724818e-52
9.508127248487535655e-52
1.024674962096538452e-51
1.073254380051010105e-51
1.085651356040827353e-51
1.049440559367319185e-51
9.574591141462002713e-52
8.260240860431923161e-52
6.799875714222092534e-52
5.596193171527503252e-52
4.810682540798164249e-52
4.072397635248281734e-52
2.980895605581913242e-52
2.125726221707026830e-52
1.720910769225271790e-52
1.141504009818592534e-52
8.648886383000268846e-53
5.978636266440318157e-53
4.144246262488490964e-53
2.910473549094050842e-53
2.047040957137263582e-53
1.454789541371173897e-53
1.048529715282620498e-53
7.710010854018257572e-54
5.777209285705274968e-54
4.401215710252315065e-54
3.393557200192556101e-54
2.630032116826620311e-54
2.033837316110334181e-54
1.558499229136843585e-54
