# bin_14_12
1.892087657005161470e-06
2.118482010473065241e-06
2.327983992582726421e-06
2.499114912301842117e-06
2.604752604308464462e-06
2.620244115510364840e-06
2.512187715932132092e-06
2.273007052765412690e-06
1.944288829297862725e-06
1.595187506905683611e-06
1.319157137712680028e-06
1.139179472176272113e-06
9.506296289223700265e-07
6.807127748177586048e-07
4.987218589497112059e-07
3.956893484932747013e-07
2.646304987139951082e-07
1.973698265736111393e-07
1.386688715068532306e-07
9.642117938302065008e-08
6.769760309287797425e-08
4.779638070113994147e-08
3.421017289410382728e-08
2.487655306082835569e-08
1.845416705301069803e-08
1.393913115503677345e-08
1.068778003569597067e-08
8.273724026145329460e-09
6.420389011789571681e-09
4.958234312826767030e-09
3.785800358983375017e-09
