# bin_19_19
7.344017298534409365e-06
8.336839770879236728e-06
9.316171968644472443e-06
1.020952809710775106e-05
1.091959226969360250e-05
1.132411389627613712e-05
1.132409349994830162e-05
1.076264715028827265e-05
9.655687825546949428e-06
8.186197999852374882e-06
6.701469812741221903e-06
5.579904683378677809e-06
4.834607876460212094e-06
3.958637999275683791e-06
2.774730501087985848e-06
2.096841471964802890e-06
1.605772972887023430e-06
1.091061393626636299e-06
7.815364855449472793e-07
5.521407934268635616e-07
3.781126581974337409e-07
2.583274582671701807e-07
1.774168377246092346e-07
1.228646549896515086e-07
8.612086306941200749e-08
6.147766253389308001e-08
4.475543931254400422e-08
3.326412308984061782e-08
2.517367128275674886e-08
1.929533827133307520e-08
1.487198751335096483e-08
