# bin_9_9
9.185042835478576790e-06
1.011241886798620712e-05
1.088495554572138997e-05
1.138722604338878106e-05
1.150525821626427241e-05
1.110604697865769229e-05
1.012036734623264908e-05
8.721034260634444825e-06
7.175971384599974558e-06
5.907421982190664453e-06
5.077026240605932801e-06
4.289481149469071056e-06
3.138896375481266130e-06
2.249934365366838411e-06
1.818274033146421246e-06
1.219987394388496933e-06
9.272846753598891524e-07
6.505292270417199635e-07
4.597949602410013704e-07
3.300773641381339959e-07
2.387578623016724537e-07
1.752741819346680677e-07
1.308509305187297225e-07
9.955443027992881561e-08
7.687334035584222580e-08
5.992700292461528746e-08
4.686181922848761883e-08
3.649158137319480432e-08
2.811297727658046153e-08
2.130692007273956426e-08
1.581724787936495712e-08
