# bin_18_13
4.500398756255319605e-09
5.075559625629517617e-09
5.626543767414361962e-09
6.105799896753230190e-09
6.451008897470874286e-09
6.589720454669755511e-09
6.463002173595872476e-09
5.992527957079908711e-09
5.253359215653731655e-09
4.364069505125288057e-09
3.572151700271403790e-09
3.035179050730902956e-09
2.615504629843157935e-09
2.003398286145003712e-09
1.386983447484260205e-09
1.122294758799822935e-09
7.706751450603717288e-10
5.749242370648834787e-10
3.880173392643666298e-10
2.727818725296728610e-10
1.904946226046245655e-10
1.329744305023791419e-10
9.330615373609089656e-11
6.614930228674948442e-11
4.777254943065765135e-11
3.518275827656413234e-11
2.640238852375170580e-11
2.013946830965326019e-11
1.552303923332311800e-11
1.200487832291888616e-11
9.245863345027253761e-12
