# bin_13_10
2.471444851607747332e-07
2.753296065064618751e-07
3.007008351172749913e-07
3.203400315145210864e-07
3.306224336643586090e-07
3.287873927759121804e-07
3.102485484282693236e-07
2.765026048714783088e-07
2.329364773724988838e-07
1.904893869841171332e-07
1.594063253332947915e-07
1.380720452216000962e-07
1.112285248936655952e-07
7.739630249710969774e-08
5.987445128232794524e-08
4.476815827053896003e-08
3.137238066197246761e-08
2.217480395793082036e-08
1.601214445267703301e-08
1.125184577495449067e-08
7.933881899974258649e-09
5.673976594454567976e-09
4.117427995460439934e-09
3.041901484498754510e-09
2.290593804318573926e-09
1.752482119257305201e-09
1.356358033833250674e-09
1.054983192655169276e-09
8.186747376474011940e-10
6.294980157903937149e-10
4.768785936493327169e-10
