# bin_7_3
5.871719153715676704e-10
6.263292273431068635e-10
6.479704412836399497e-10
6.464578704452189863e-10
6.131745255130313314e-10
5.493363321382236014e-10
4.653798619681507394e-10
3.809658160797567989e-10
3.170820814976573033e-10
2.739422396212490808e-10
2.238480654404451342e-10
1.584315444186178603e-10
1.201175649872975086e-10
9.260916055236029433e-11
6.460758377631222733e-11
4.755193551869528599e-11
3.466232421571356606e-11
2.506367391033706589e-11
1.837883281378918841e-11
1.370763691963949217e-11
1.041274507189337459e-11
8.046314585555449937e-12
6.305377200572740116e-12
4.978395858639995100e-12
3.933212855250061618e-12
3.087761744624087730e-12
2.392670618520767871e-12
1.819858081597386964e-12
1.352519861094996872e-12
9.790175916366187915e-13
6.894435998991126386e-13
