# bin_8_2
2.227812181945168692e-15
2.380731629722956030e-15
2.468694972460864393e-15
2.469747383478004533e-15
2.351370041965851018e-15
2.114042188684924629e-15
1.797170402075320183e-15
1.472171288704106619e-15
1.221941620465355158e-15
1.055159638346838669e-15
8.693299662095863340e-16
6.187961140323595739e-16
4.636521699026846931e-16
3.620880119127189856e-16
2.500774634635352953e-16
1.858916983128207944e-16
1.348390111121483254e-16
9.727500596536440314e-17
7.123083891116430526e-17
5.299781977292688409e-17
4.016457634924341433e-17
3.096735292474433404e-17
2.422705758083838978e-17
1.911005470943924808e-17
1.509471778101319643e-17
1.185634664160784819e-17
9.198309717909917281e-18
7.008646133503985108e-18
5.220506653482870029e-18
3.788437050555874669e-18
2.674816223611706367e-18
