# bin_6_3
3.911301073127668100e-08
4.142919308521635706e-08
4.249078554792812440e-08
4.192808625295614350e-08
3.920992055942723719e-08
3.466137681030345054e-08
2.901227871935578462e-08
2.372945733704776076e-08
1.996814366487041529e-08
1.722303699975235535e-08
1.359707466972575694e-08
9.514542409718142227e-09
7.500639000870633603e-09
5.493119175539526379e-09
3.997054013668172795e-09
2.856699657090160589e-09
2.099073558146179895e-09
1.532589831982416141e-09
1.132816088558594332e-09
8.526216172777657452e-10
6.531819239450697910e-10
5.087174015293237511e-10
4.008711634181282840e-10
3.174380329391898559e-10
2.508399870845513605e-10
1.964221805565618547e-10
1.514566812054963792e-10
1.143920174002244374e-10
8.428594188446611729e-11
6.043293233333720872e-11
4.215454082594390789e-11
