# bin_8_5
7.275240197601867515e-08
7.876712795379154124e-08
8.303509073043989204e-08
8.464980107627820184e-08
8.282029291482952745e-08
7.662525846258664497e-08
6.703915939873724277e-08
5.564621789939911195e-08
4.556044694664358731e-08
3.870014926297226447e-08
3.323856063673323111e-08
2.543456353363324703e-08
1.777174326590965471e-08
1.435186099668313025e-08
1.001900435878909591e-08
7.520127546896629074e-09
5.247993428917415759e-09
3.803941972153931047e-09
2.760834873067453563e-09
2.022490127871492719e-09
1.504684600097581087e-09
1.138329325781604955e-09
8.766512882075321052e-10
6.841493466819230260e-10
5.377303327014911114e-10
4.228339118362151481e-10
3.302714122458876068e-10
2.546221315700090399e-10
1.927032756407962197e-10
1.425546959696907175e-10
1.027705089777181978e-10
