# bin_13_7
2.083157326249671039e-12
2.308228553046537419e-12
2.504266465313140863e-12
2.645884426393392366e-12
2.703491583922110567e-12
2.653079815782337219e-12
2.462360410086637814e-12
2.160730148620668562e-12
1.796516560502899172e-12
1.469950346563336995e-12
1.246863939704376002e-12
1.074554300143488734e-12
8.272215327146680297e-13
5.737746878143733316e-13
4.630479896374617442e-13
3.225580435536680176e-13
2.404439719199116604e-13
1.649127080295314366e-13
1.181841208885662065e-13
8.420702093990154859e-14
6.030190770982472591e-14
4.369341566758332138e-14
3.213216215915049767e-14
2.409263447837550225e-14
1.838143965484128752e-14
1.420893709272505120e-14
1.106769209293251410e-14
8.624603317640624275e-15
6.676708571271728818e-15
5.102566143965851776e-15
3.830485676422823881e-15
