# bin_15_5
4.638340302599001732e-24
5.150944942398829534e-24
5.603730598956229641e-24
5.940824282259294076e-24
6.094795911368547138e-24
6.014486527359099234e-24
5.619933682845354700e-24
4.962971342654370892e-24
4.146903534756974537e-24
3.390538134431061056e-24
2.860170449710267666e-24
2.472993970897039835e-24
1.940264029204396757e-24
1.342516320711039710e-24
1.068767765430333911e-24
7.656291306735085225e-25
5.576170029485003613e-25
3.842504732903834199e-25
2.775579133183566271e-25
1.966256387833610645e-25
1.398610663186447049e-25
1.008337975471629625e-25
7.375634177790807339e-26
5.498186600890245235e-26
4.173699139230055905e-26
3.213871918688906603e-26
2.497779355507920228e-26
1.945570806125348633e-26
1.508009568337832978e-26
1.155537270509047551e-26
8.707654453138106342e-27
