# bin_9_8
5.897225900564754542e-06
6.474258204940805850e-06
6.944404441003673022e-06
7.232479790704719932e-06
7.270606404015817750e-06
6.966604945614777331e-06
6.300984006076745531e-06
5.388251565445419155e-06
4.420615980796395224e-06
3.655090622119986903e-06
3.153550041889871329e-06
2.630090837883139984e-06
1.888400207332665419e-06
1.385967278680889170e-06
1.100949030387218885e-06
7.439857583015636325e-07
5.582615767111278577e-07
3.971742652042161118e-07
2.813551537873673306e-07
2.020866527204140517e-07
1.467045856414254857e-07
1.082998417952689797e-07
8.135795079317847032e-08
6.224018319285838627e-08
4.826432749427647076e-08
3.772414443281876854e-08
2.952200223436382090e-08
2.296513426181990285e-08
1.764601499789004371e-08
1.332169366195132806e-08
9.839918617617514000e-09
