# bin_14_4
1.811906532235478872e-25
2.003240556029497854e-25
2.167478366548173344e-25
2.282302414671172719e-25
2.322903674887601203e-25
2.266829805254867801e-25
2.090154623533186076e-25
1.822565367308560714e-25
1.508937627227146484e-25
1.236408233055266772e-25
1.054129132432066264e-25
9.038460677308987475e-26
6.831455586258712626e-26
4.771657314138977689e-26
3.879599672811861748e-26
2.643767951599576011e-26
2.001669073840554235e-26
1.378536196520469226e-26
9.797461383973687975e-27
7.011728810108134685e-27
5.046283701271829270e-27
3.673493398712057487e-27
2.715761037867963821e-27
2.047280448314670064e-27
1.569107050310756503e-27
1.216984870397045988e-27
9.495964612653743546e-28
7.400246914242956848e-28
5.720435699278242766e-28
4.359668180392498074e-28
3.260308881359027967e-28
