# bin_5_5
2.956671031395421727e-08
2.587493779374916662e-08
2.205577591314939784e-08
1.836050908244514832e-08
1.499530502328695492e-08
1.207002767245430206e-08
9.590908511323394787e-09
7.499546013005368879e-09
5.748372598407491282e-09
4.339535178872925597e-09
3.272694639895122791e-09
2.479355975307846397e-09
1.878514307848824098e-09
1.435091773373830332e-09
1.106665754075785804e-09
8.610143908096860744e-10
6.745377130096137993e-10
5.303801722065592037e-10
4.167728666164798090e-10
3.258478956059164138e-10
2.524126245883355452e-10
1.930048371204009716e-10
1.452281733082526011e-10
1.072855707678164066e-10
7.768624708271461398e-11
5.509381507075819842e-11
3.826559483740168616e-11
2.604848753341501338e-11
1.740373690511386778e-11
1.143480554513156840e-11
7.404594227948897341e-12
