# bin_17_11
6.203012608819501670e-08
5.768814518454250247e-08
5.225865868315283267e-08
4.605691665961533354e-08
3.949895050842904419e-08
3.303956181953469668e-08
2.707923803047634826e-08
2.185688898045729832e-08
1.741674024395270138e-08
1.365972169016138163e-08
1.048349299945106835e-08
7.888941087597632531e-09
5.907949371419216048e-09
4.440321591055985053e-09
3.324054437553057724e-09
2.500688615246977218e-09
1.896319842155886655e-09
1.449383959009836346e-09
1.116025229278643055e-09
8.640624665416085793e-10
6.703499506034238633e-10
5.190901285403472409e-10
3.996177842009823215e-10
3.046989781827086456e-10
2.293501615302251484e-10
1.699771757832647102e-10
1.237901560843152236e-10
8.847520165865682177e-11
6.201908762374693313e-11
4.264013191095256548e-11
2.877344890294967933e-11
