# bin_11_1
1.780411722082629300e-08
1.493183963639286930e-08
1.226634593497013560e-08
9.925607390946501177e-09
7.935894569948727077e-09
6.250244238308741541e-09
4.818944502590979999e-09
3.647033852402908762e-09
2.754709741850630477e-09
2.093096284588726248e-09
1.590074819460269651e-09
1.218569892442557009e-09
9.439699664537680112e-10
7.387543306086260661e-10
5.830206003784438196e-10
4.623255765644236149e-10
3.666781625402541271e-10
2.894579653713504667e-10
2.263873992733067920e-10
1.747087196663669569e-10
1.325895254442928288e-10
9.870017665249366771e-11
7.194228977652627775e-11
5.130262388472359532e-11
3.579461806513352951e-11
2.445874376830594537e-11
1.639500665995368819e-11
1.080394195680078498e-11
7.015657789957955024e-12
4.499771447542695553e-12
2.856948215395156415e-12
