# bin_9_9
4.685604668107653568e-08
4.257022263288344510e-08
3.764614102718366991e-08
3.240395943895347077e-08
2.719995264096565346e-08
2.235700664670042873e-08
1.808338445523787456e-08
1.443656156180279584e-08
1.135559484331293789e-08
8.756984505644614610e-09
6.622977940492034883e-09
4.972616907245773344e-09
3.747224829304708808e-09
2.821786149090087725e-09
2.131287377142229434e-09
1.625414821488275394e-09
1.248975894394286013e-09
9.675236867379122167e-10
7.535535220310886550e-10
5.879968304484944112e-10
4.577986739929296306e-10
3.541717865893305275e-10
2.712194593689390962e-10
2.048986490435068828e-10
1.523028108112352459e-10
1.111635986738406913e-10
7.956933252484550911e-11
5.582324076850087584e-11
3.839131074619724872e-11
2.590356419981223156e-11
1.717136652852543426e-11
