# bin_4_4
2.487963324798415241e-08
2.149402489701108221e-08
1.810611700584684448e-08
1.492651413204161945e-08
1.210112953008364589e-08
9.681902521090310376e-09
7.640198859766214390e-09
5.920585430882042782e-09
4.501947698300102731e-09
3.394179248505348871e-09
2.569628408109603301e-09
1.949959889868299903e-09
1.484489060347670277e-09
1.142618353314536931e-09
8.869864432845670363e-10
6.945215750520974708e-10
5.467051917076868132e-10
4.309373425929930543e-10
3.386306323669859175e-10
2.641008818990861655e-10
2.036128198046724988e-10
1.546480441246439034e-10
1.154027108323911370e-10
8.444491420887219172e-11
6.052127479108764650e-11
4.246833149776159706e-11
2.919050245247068738e-11
1.967668066515260636e-11
1.303080687364002672e-11
8.496400356780373052e-12
5.466859345764547306e-12
