# bin_2_2
1.544742650605189945e-08
1.293912554762387447e-08
1.062056641809375074e-08
8.582423310140598663e-09
6.846662134776140225e-09
5.383314696676266231e-09
4.155247713681506315e-09
3.154424566635084937e-09
2.384610386193731285e-09
1.812725892018443425e-09
1.381222154347510107e-09
1.059392868601090515e-09
8.216747855881602936e-10
6.430910339587233917e-10
5.072511672380047693e-10
4.017161917956754372e-10
3.180041920339032158e-10
2.504620145589394523e-10
1.954055239617757010e-10
1.504313818893924077e-10
1.139094873941478963e-10
8.463453202390534037e-11
6.160155618683781094e-11
4.388771469629675005e-11
3.060719759392698465e-11
2.091269748681058747e-11
1.402083561246165177e-11
9.242647913126996450e-12
6.004286127085931643e-12
3.852680640938261097e-12
2.447033805655851172e-12
