# bin_18_14
6.953772972043174352e-08
6.535156662487186448e-08
5.986984862962910080e-08
5.338293263669768655e-08
4.630770140062359584e-08
3.913395978730054287e-08
3.233670725789158475e-08
2.625909700855981543e-08
2.103625198595889514e-08
1.661536517802225532e-08
1.287078045381070551e-08
9.752632938585189788e-09
7.297824320294362297e-09
5.468953894935881406e-09
4.094465387807856983e-09
3.059785847980469718e-09
2.306612924842771020e-09
1.749047159004132898e-09
1.337439748952935764e-09
1.029128825246457615e-09
7.948441240484799647e-10
6.140374896460725433e-10
4.726389760481365989e-10
3.611159486665926501e-10
2.729214242095175798e-10
2.034493021391597257e-10
1.492541989456990071e-10
1.075842001244351055e-10
7.612107633081134902e-11
5.285164447942305481e-11
3.601931350614804891e-11
