# bin_14_4
3.494241050905955634e-08
3.083126827623044009e-08
2.646187590164365830e-08
2.214304043811366505e-08
1.815371691824220685e-08
1.466333837456530526e-08
1.170336330704805922e-08
9.197484177242413491e-09
7.069773447142843246e-09
5.330412958216621298e-09
4.012418358156279576e-09
3.036918149674063255e-09
2.291601875691958094e-09
1.744463443549173114e-09
1.339872207676575357e-09
1.039303648171891601e-09
8.125677342548192067e-10
6.385428936564196527e-10
5.022386525950717547e-10
3.935892729044177503e-10
3.059693362288790747e-10
2.350021757327226206e-10
1.777304202945167523e-10
1.320087877344767454e-10
9.611159754285325436e-11
6.851890119933921060e-11
4.781932087714588013e-11
3.268963498477303470e-11
2.191877372525433789e-11
1.444322043064794012e-11
9.374254424559201688e-12
