# bin_4_3
2.220858996757544201e-08
1.902625674100357643e-08
1.590853566235054316e-08
1.303781824386455968e-08
1.052326497157594608e-08
8.386033530884969156e-09
6.583656487815932440e-09
5.069805428161215137e-09
3.839074424228648933e-09
2.897602938707152550e-09
2.198929650124275478e-09
1.670300978578409605e-09
1.277666213698462105e-09
9.876785224776845591e-10
7.703580103857231515e-10
6.054346755380909025e-10
4.777801267236811492e-10
3.769538989057175238e-10
2.959829058660520124e-10
2.302924320675069032e-10
1.768707673162020053e-10
1.336622837038655995e-10
9.914642622959342026e-11
7.206644593284348714e-11
5.128610022480654786e-11
3.573245671851678244e-11
2.439261558938538594e-11
1.633890461600268421e-11
1.076017650552077981e-11
6.982719960139739416e-12
4.475457266126153445e-12
