# bin_3_1
1.403545048410731201e-08
1.167696048895411953e-08
9.534500180175197353e-09
7.675530253239631716e-09
6.101044211909970988e-09
4.772043701884877783e-09
3.659971149406044700e-09
2.769290903189429704e-09
2.097811747558271561e-09
1.597293510113324876e-09
1.218688891554773306e-09
9.393135971294122133e-10
7.313733689715480920e-10
5.748763911605003104e-10
4.548935232084096710e-10
3.609311727036651690e-10
2.858127257774139202e-10
2.248241427977847902e-10
1.749211789373540101e-10
1.341129350480854152e-10
1.010269770031546912e-10
7.460961904437935900e-11
5.394529694734465918e-11
3.816818757452472715e-11
2.643663395805099259e-11
1.794648909340334052e-11
1.196186558754976945e-11
7.845298554149560504e-12
5.074768709827663237e-12
3.244918526513233052e-12
2.055331804688913810e-12
