# bin_19_10
8.039435316439515582e-26
9.052384101702163554e-26
1.001592205760884464e-25
1.084352815092455829e-25
1.142306488212068192e-25
1.162933988665639753e-25
1.135035927116512265e-25
1.046407977820896840e-25
9.122765235357630835e-26
7.550411345547697003e-26
6.187878836118475017e-26
5.281557248717087553e-26
4.531090106084529469e-26
3.414585470467539680e-26
2.378073760289060051e-26
1.937298356660144208e-26
1.302492751105992490e-26
9.854570380151777066e-27
6.686661187048944051e-27
4.654745238556786117e-27
3.264458328952868155e-27
2.289345221400456469e-27
1.613569691128981016e-27
1.150394145827166643e-27
8.362284615259604307e-28
6.198056978155083423e-28
4.678103438414240836e-28
3.583952357492101953e-28
2.769315653641071077e-28
2.142693302075940671e-28
1.647929536030546169e-28
