# bin_20_8
1.770073842498409086e-38
1.992944721845715107e-38
2.204871127252062513e-38
2.386786872156415829e-38
2.513993570283096405e-38
2.558981887244899711e-38
2.497003343424562414e-38
2.301409140448946342e-38
2.005876105598322217e-38
1.659890950735816249e-38
1.360452993164216916e-38
1.161423900342858280e-38
9.961327357437347992e-39
7.501097729148628420e-39
5.226180122008287777e-39
4.258179392894245491e-39
2.860680502134240551e-39
2.165259858328782225e-39
1.469811215503436535e-39
1.022829581690302023e-39
7.174162776713133132e-40
5.031830825028360279e-40
3.547251243246768060e-40
2.529690875430665270e-40
1.839396304511625028e-40
1.363739508241812341e-40
1.029570873510763277e-40
7.889129994987263909e-41
6.096517898637113009e-41
4.717063958370439205e-41
3.627572389574540795e-41
