# bin_16_5
2.787659676698222427e-40
3.103789173826246363e-40
3.387403500153540447e-40
3.605444558220146257e-40
3.716933521765531485e-40
3.691251097282473528e-40
3.476646294669259337e-40
3.093069019230740957e-40
2.601188417619286713e-40
2.126629446934952992e-40
1.782313638930124621e-40
1.543926377793079157e-40
1.238030604554061805e-40
8.590340702680450996e-41
6.689959732725837756e-41
4.962783176936900802e-41
3.501960429355304955e-41
2.457057320024129894e-41
1.779539896774972463e-41
1.252235867392243831e-41
8.837811940065760322e-42
6.331306580618054860e-42
4.601835622574643310e-42
3.405962212066098357e-42
2.569019608084986301e-42
1.968223293316509855e-42
1.524802258773111361e-42
1.186512806684294614e-42
9.206577493313310714e-43
7.075142178824010826e-43
5.354718157017838025e-43
