# bin_11_2
1.543916712483627196e-37
1.679688043146618566e-37
1.781425407790605216e-37
1.828984729131990571e-37
1.807168794801743068e-37
1.691697785115870482e-37
1.496601405735026150e-37
1.252507668601366399e-37
1.023755831523545205e-37
8.615932870078429934e-38
7.450252203073522828e-38
5.886248365769810412e-38
4.085509624709678656e-38
3.234861440145653096e-38
2.354743561323268703e-38
1.709092442776227783e-38
1.198418963773143491e-38
8.772119558483746981e-39
6.313760349854307086e-39
4.582166731076206512e-39
3.382874491694658810e-39
2.539572436590650060e-39
1.941361845481197556e-39
1.506623205435749753e-39
1.180200406832884236e-39
9.272021411781480594e-40
7.253748669529304043e-40
5.613170379738355263e-40
4.272003262416666624e-40
3.182953839700233391e-40
2.313545337621864706e-40
