# bin_19_1
1.754827123643784076e-91
1.963716986269199962e-91
2.156459051281122946e-91
2.313041751351709507e-91
2.408237253763172821e-91
2.419611947412629249e-91
2.315693139760667871e-91
2.091471818407441391e-91
1.785678448203701832e-91
1.464081621502329530e-91
1.212104692882580365e-91
1.047676476637457438e-91
8.713655059434518773e-92
6.210443918820262521e-92
4.578791818655296218e-92
3.613506390993118423e-92
2.423853888602804529e-92
1.799570543853588139e-92
1.269056972946819129e-92
8.832711727976363416e-93
6.201082622398158509e-93
4.382864461953695948e-93
3.142118894713430831e-93
2.289335747462612508e-93
1.701547534655770605e-93
1.287440270405176303e-93
9.884683601254521934e-94
7.658164658494452720e-94
5.944022603137269964e-94
4.588802219389814268e-94
3.500903974149807081e-94
