# bin_14_2
1.698617920789998471e-53
1.872631321747436108e-53
2.019033597439162849e-53
2.116618923719602622e-53
2.143570181357472658e-53
2.076372250069461143e-53
1.898821178702792265e-53
1.642195331266139093e-53
1.353312892806884015e-53
1.111987527631500662e-53
9.536974769633139036e-54
8.103159366411202450e-54
5.984825385373625520e-54
4.244819717413922944e-54
3.453219016240653086e-54
2.313426546656997462e-54
1.766054497466480966e-54
1.231023650382254758e-54
8.694186046886641312e-55
6.240560743105683917e-55
4.508102729478320099e-55
3.300884959171608027e-55
2.456936043856860157e-55
1.864307826915056368e-55
1.436549605670346654e-55
1.118354291348707782e-55
8.741340959635328560e-56
6.809765014918774896e-56
5.252423436450154638e-56
3.988039468673457847e-56
2.967452760679081204e-56
