# bin_19_8
8.604276866070011064e-35
9.670662679428976752e-35
1.067655546564996536e-34
1.152752918553028070e-34
1.210254388999644029e-34
1.227456544209559777e-34
1.191216032343592032e-34
1.091311954363314161e-34
9.454608120396901381e-35
7.798049627089082673e-35
6.404702981440404833e-35
5.491235094344034702e-35
4.677240420960882190e-35
3.462904959171011426e-35
2.440700022811183774e-35
1.988298134208377484e-35
1.319601129500946781e-35
1.003389430618094002e-35
6.882984604287105743e-36
4.768932964421867522e-36
3.349597787376741382e-36
2.353478799272910945e-36
1.666971576015164273e-36
1.196206670929483931e-36
8.756495302537860593e-37
6.533946906213744526e-37
4.960381943850768206e-37
3.815903491855498282e-37
2.954592515020361560e-37
2.285816058030671974e-37
1.754429628298733328e-37
