# bin_18_13
3.872335126222586312e-15
4.367230588971138085e-15
4.841311926222953925e-15
5.253665676749856015e-15
5.550666504443656403e-15
5.669882442548517804e-15
5.560786202389994604e-15
5.155720408526696565e-15
4.519621145019703040e-15
3.754113454547796477e-15
3.072710736966952540e-15
2.611060387788712245e-15
2.250425257922026219e-15
1.723294729068286226e-15
1.192603344054435901e-15
9.657046087473524370e-16
6.624426606630745554e-16
4.947900534610640047e-16
3.336130910352581057e-16
2.344508635174558705e-16
1.637730341605205702e-16
1.143680945926409262e-16
8.025531831603217291e-17
5.689873841879470572e-17
4.109528256715294676e-17
3.026802038196125081e-17
2.271647938461825890e-17
1.732967890892700129e-17
1.335857061733500049e-17
1.033175589601963461e-17
7.957674445621640504e-18
