# bin_6_1
1.996807555938969864e-20
2.084897135994549035e-20
2.102945305095739012e-20
2.026505206143313508e-20
1.844312758077527882e-20
1.587693570388854559e-20
1.306102711036527823e-20
1.075361005467746169e-20
9.231302560815395776e-21
7.782725330893189135e-21
5.711963062721157574e-21
4.122394392070529787e-21
3.323593068957375928e-21
2.274704397542717954e-21
1.736508823813889927e-21
1.244119440353155068e-21
9.049066362081919722e-22
6.703065228869152884e-22
5.036277894614257308e-22
3.852632559956119530e-22
2.996789870812809798e-22
2.363671483751462148e-22
1.877398328698902452e-22
1.490893179966240877e-22
1.175422030186943515e-22
9.138628960940353537e-23
6.966869145703010170e-23
5.184253739323641376e-23
3.754225138979075598e-23
2.643746085594784368e-23
1.812705003993236426e-23
