# bin_15_12
1.784666694574467858e-12
2.001530753900143142e-12
2.203939058740051598e-12
2.371913423470687335e-12
2.480094574115647801e-12
2.503904740657889794e-12
2.413367769634937014e-12
2.195140919003920820e-12
1.887916265827894785e-12
1.551953842544045856e-12
1.279201167467482825e-12
1.101769204842811697e-12
9.283424931036567871e-13
6.737337577003593669e-13
4.847949651217851348e-13
3.904844668494384650e-13
2.590232431786788065e-13
1.956492598137921084e-13
1.360274644159415703e-13
9.433152422821134206e-14
6.624167585106444155e-14
4.663018660253829913e-14
3.322174639600598201e-14
2.402164560858137581e-14
1.772132239567612495e-14
1.331892723783283754e-14
1.017195772874068625e-14
7.855804544927334417e-15
6.092165401605214194e-15
4.709522453053691222e-15
3.604532695525959330e-15
