# bin_17_11
1.296707472445512055e-17
1.457030940753728145e-17
1.608068973790364797e-17
1.735554157681945404e-17
1.821222532896273295e-17
1.846090983356709829e-17
1.790087123504823142e-17
1.638491874501591156e-17
1.418229048198471999e-17
1.169216550895842536e-17
9.606762305316693065e-18
8.241554367293267927e-18
7.011338057073279668e-18
5.177976313104486062e-18
3.657675620976532775e-18
2.977311511536171406e-18
1.974404153089435725e-18
1.500997662870572910e-18
1.031359971123324435e-18
7.144927467812745653e-19
5.018552078244164347e-19
3.526698460128636818e-19
2.499761116259253313e-19
1.795515825293810373e-19
1.315661838296982528e-19
9.826426741461935638e-20
7.465847421788695817e-20
5.746402112333813260e-20
4.450427768021223931e-20
3.442865867096321525e-20
2.641642498288616072e-20
