# bin_13_9
2.466120399106022446e-14
2.742580626876009261e-14
2.988901106888828901e-14
3.175616518287208591e-14
3.266559209642507444e-14
3.234840289609486350e-14
3.035813514362304959e-14
2.691811763784046970e-14
2.256895673380722142e-14
1.844926847523787588e-14
1.550783497121210853e-14
1.342639870264751743e-14
1.066210121351862968e-14
7.380956934665688334e-15
5.811252780523285561e-15
4.243025560874774023e-15
3.038177574634391409e-15
2.109812758495044847e-15
1.528765078559331026e-15
1.078928827638748579e-15
7.639748299728023296e-16
5.489456102784327731e-16
4.001562263589312555e-16
2.971504848490075047e-16
2.248002616463646673e-16
1.726404716175878282e-16
1.339537214207329763e-16
1.042917230606520613e-16
8.088979780600772986e-17
6.208417551467329367e-17
4.689643726141091944e-17
