# bin_16_10
5.018982411531386586e-18
5.623209254670475609e-18
6.184263095544537765e-18
6.645477495371218436e-18
6.935183789550219145e-18
6.986507830978135223e-18
6.712248040135975657e-18
6.085367439117152528e-18
5.216102164125716182e-18
4.282231631644443279e-18
3.536401065068725892e-18
3.051432442715422960e-18
2.556544227356781748e-18
1.839247160293579617e-18
1.338073849940666496e-18
1.068751141952814432e-18
7.116157333955621928e-19
5.339720745617859628e-19
3.736147209611925418e-19
2.594741750953450189e-19
1.821757674870944592e-19
1.284363263072466848e-19
9.176249559108508595e-20
6.658442063338153464e-20
4.929195514319525749e-20
3.716365809307332778e-20
2.845462370152419352e-20
2.200980759894878129e-20
1.707697325175368176e-20
1.319410065156207681e-20
1.008404737354282337e-20
