# bin_18_16
2.071092221939908620e-11
2.342780740423081984e-11
2.606476178810696591e-11
2.841031098707776883e-11
3.018212830658768920e-11
3.103421809488721958e-11
3.071158155729961685e-11
2.878913361821446114e-11
2.549764103330957227e-11
2.135390207709125850e-11
1.745864938783061838e-11
1.470056197896544615e-11
1.273124433746358857e-11
1.006127940369026655e-11
6.941892320490083818e-12
5.490523543861692547e-12
3.958236180613021977e-12
2.836535845330775848e-12
1.931582444753189674e-12
1.381024408505395005e-12
9.549982363830873240e-13
6.583235710545545763e-13
4.579272568092405149e-13
3.213185550593259771e-13
2.291009134793339581e-13
1.665433338802221958e-13
1.234653521362641540e-13
9.325836755690849402e-14
7.143062152776081990e-14
5.511781544907519940e-14
4.252332759818841437e-14
