# bin_1_1
8.957297103646203021e-10
8.656857382662969366e-10
7.915180351380472488e-10
6.849143788161936350e-10
5.659853982840851724e-10
4.657059273199888952e-10
3.972707235079151065e-10
3.355166996653673175e-10
2.516132230613910479e-10
1.812648240616254166e-10
1.444295808377147340e-10
1.023216067144783123e-10
7.713786160814003678e-11
5.602225739597006183e-11
4.168350230452094995e-11
3.143708803657411001e-11
2.412742822816430441e-11
1.886829063700286863e-11
1.498232865790632282e-11
1.201792727939197757e-11
9.664181934850788926e-12
7.731906455664360663e-12
6.111275645328231828e-12
4.742028132419945671e-12
3.594080843095069099e-12
2.651545381229689551e-12
1.901812578659265906e-12
1.327160552433216280e-12
9.032864143337619075e-13
6.015382186746526120e-13
3.932942602899104961e-13
