# bin_17_5
1.018768760106336370e-44
1.137157829434854789e-44
1.244903869100177956e-44
1.330148344626414554e-44
1.378021463839497126e-44
1.376622865422973871e-44
1.306889495894167983e-44
1.171323545681128570e-44
9.921601949469111939e-45
8.119231889107003988e-45
6.761576206997697738e-45
5.856379740278077950e-45
4.788424426925613716e-45
3.357691510882027851e-45
2.545804812867307291e-45
1.951378787860165236e-45
1.337938237407999133e-45
9.660885444538838808e-46
6.925067773836236364e-46
4.844886131702108644e-46
3.404894563798085388e-46
2.422289135226406896e-46
1.748962786098450668e-46
1.284733548562915771e-46
9.623307205333858933e-47
7.330400560715915567e-47
5.656362051011142069e-47
4.393842918403415340e-47
3.411015473428457251e-47
2.627855490008111438e-47
1.997004186542379165e-47
