# bin_19_18
6.141519643319484746e-11
6.966342277436230597e-11
7.776943173490416380e-11
8.512323832792131126e-11
9.090510775333413976e-11
9.408768426729652841e-11
9.387212509133052375e-11
8.893463833051796499e-11
7.955153673910015328e-11
6.724064113804958800e-11
5.501578567405826023e-11
4.592399784881464430e-11
3.980484010445850341e-11
3.235522691040712712e-11
2.255221976081641005e-11
1.723292506519497679e-11
1.302941519181107116e-11
8.944241296550090792e-12
6.324313249621269214e-12
4.495236693549480644e-12
3.084525562915790986e-12
2.108617787143094074e-12
1.452425345500496172e-12
1.008948366471125414e-12
7.100232027892702590e-13
5.090517896735059761e-13
3.722397738908079081e-13
2.778056277158201510e-13
2.109206593289860346e-13
1.619945270314196594e-13
1.249384570200812075e-13
