# bin_17_7
1.216784677317066050e-32
1.360973746432422378e-32
1.493676564235400077e-32
1.600962456286504762e-32
1.665288451189212586e-32
1.671363481898809906e-32
1.597119595962852052e-32
1.440317877157174482e-32
1.227813894522073805e-32
1.006218837911156339e-32
8.339119307340875107e-33
7.212137530611468377e-33
5.980236499390695031e-33
4.247134859944713617e-33
3.148140052655362349e-33
2.471745879794784024e-33
1.663695480491942008e-33
1.229376539873095069e-33
8.697472020374716917e-34
6.059070052852276441e-34
4.253917889984073898e-34
3.009982408169057639e-34
2.160856768092709936e-34
1.576932717752910982e-34
1.173878490338955224e-34
8.894068846213668816e-35
6.835841970246635067e-35
5.299202624746328979e-35
4.113512698393711725e-35
3.174537640893081356e-35
2.420176229299532614e-35
