# bin_16_4
2.651358517640384283e-47
2.948822472974559380e-47
3.213983042922676529e-47
3.415174594000688681e-47
3.513482556451920524e-47
3.480047589780196329e-47
3.266697391904978030e-47
2.897155632333901404e-47
2.429468115272208852e-47
1.985947824144037274e-47
1.669004240219341643e-47
1.445138054107049504e-47
1.148359593154119451e-47
7.948776552036003230e-48
6.255374728471646427e-48
4.571897591452716268e-48
3.270728359259476234e-48
2.271675253695819867e-48
1.646737500615638505e-48
1.161944525472745712e-48
8.225163447899213446e-49
5.909182618975387522e-49
4.306783521797411139e-49
3.197537056764105730e-49
2.418587831642371957e-49
1.857166305988045396e-49
1.440888201531724323e-49
1.121811408891161626e-49
8.701285092664732911e-50
6.679000914213507508e-50
5.045779038999614594e-50
