# bin_7_7
2.257260401739631596e-10
2.452499577228596446e-10
2.596749977744241212e-10
2.660799021831921056e-10
2.622046404505789021e-10
2.446488677943564073e-10
2.157740024869325774e-10
1.801338145084590244e-10
1.472708191554373056e-10
1.242733485613347107e-10
1.073235763028255687e-10
8.403888088380800249e-11
5.835019521203844450e-11
4.654311594289259819e-11
3.343509728308406603e-11
2.454602577094678850e-11
1.714297216314100484e-11
1.251967070947005450e-11
9.034977735255516338e-12
6.576580570774685662e-12
4.866202922607401563e-12
3.661096628289891056e-12
2.804765880748677878e-12
2.180316318424899681e-12
1.709728525290193359e-12
1.343689442055812719e-12
1.050829301284522105e-12
8.123710322730728653e-13
6.173338474333411127e-13
4.590554737446586843e-13
3.329043504710525119e-13
