# bin_4_1
5.790153147220156731e-14
5.906826219799829848e-14
5.788220818970832047e-14
5.370136460448477656e-14
4.712173984196616443e-14
3.923030689247953540e-14
3.211761812261087656e-14
2.717073798466985046e-14
2.332310300308944291e-14
1.807366462849095984e-14
1.271721987621119772e-14
1.014335349249866209e-14
7.296554923037328769e-15
5.422000284980485254e-15
3.885933482945195409e-15
2.876301762439455218e-15
2.134235292564914383e-15
1.607207610789633965e-15
1.233533256942308427e-15
9.630826296439140863e-16
7.625311586966883619e-16
6.082802348528144830e-16
4.852619394345840116e-16
3.843652145206500964e-16
3.002447660332992224e-16
2.299428813556831226e-16
1.718490480011830012e-16
1.249752821237455661e-16
8.836177269843948561e-17
6.082728028268202263e-17
4.088167385092108833e-17
