# bin_18_15
2.928520698186583541e-12
3.309481171844986148e-12
3.677659251978389716e-12
4.002827091853729197e-12
4.244834301247101856e-12
4.355129022482724692e-12
4.297374230893764767e-12
4.013872627655564444e-12
3.543081607813720933e-12
2.958809993726563271e-12
2.419449183144001555e-12
2.043353039126688549e-12
1.767770960066271261e-12
1.382707593279763469e-12
9.536250699815820929e-13
7.613535217718418288e-13
5.396659194189535714e-13
3.926489005819612632e-13
2.654748118135682582e-13
1.890765419398076836e-13
1.311615176695109877e-13
9.081099965390307069e-14
6.335637075294182594e-14
4.460545048647296087e-14
3.194133497520938359e-14
2.332303848040379020e-14
1.736393614290900288e-14
1.316202817407844416e-14
1.010534919411138069e-14
7.805446517963113505e-15
6.019740930660353200e-15
