# bin_10_9
9.095051138828288117e-11
1.004113057938829248e-10
1.084526457276390219e-10
1.139466827286679661e-10
1.156842769590236973e-10
1.124758712052358886e-10
1.032754014977498644e-10
8.968196825600136781e-11
7.406315077266001061e-11
6.075961665790218770e-11
5.196523019912354602e-11
4.437566689565247027e-11
3.314539410657153995e-11
2.330066311975255722e-11
1.898889335079236774e-11
1.279415610976183331e-11
9.752638487481681128e-12
6.751968909661640128e-12
4.777665531166873824e-12
3.426414396306386789e-12
2.471832403278594731e-12
1.804800535569932824e-12
1.338901832389363268e-12
1.012785600292126481e-12
7.784377208618380056e-13
6.049708374545223075e-13
4.725164336066030822e-13
3.682040306747783707e-13
2.843276031689499688e-13
2.162923742084898227e-13
1.613448008916480587e-13
