# bin_18_18
8.895565820044816711e-11
1.008128547251517146e-10
1.124179230791365964e-10
1.228800145290487593e-10
1.310027673542397236e-10
1.352940349718968377e-10
1.346309741883568430e-10
1.271034555063451348e-10
1.133223281850787563e-10
9.548125400015356114e-11
7.809030977562487736e-11
6.537185423369886679e-11
5.666275045242781157e-11
4.565606933538837933e-11
3.167174805037604235e-11
2.449512501536023950e-11
1.824392869991936549e-11
1.268882191937583539e-11
8.846428114566295172e-12
6.317317472548998153e-12
4.345115928273540252e-12
2.975623010745646371e-12
2.056515065481742339e-12
1.433392897654189365e-12
1.013120233178427570e-12
7.297574813904413462e-13
5.361489243025053717e-13
4.018315692760888509e-13
3.060661358790015774e-13
2.355023475677238761e-13
1.816966676210830889e-13
