# bin_18_5
3.053523558389417625e-49
3.416374886509742506e-49
3.750847551278834807e-49
4.022067092834597053e-49
4.186088600967896346e-49
4.204130073673313454e-49
4.021174300899858139e-49
3.629693416268313649e-49
3.097110100155633919e-49
2.538835795695057502e-49
2.102716618874996204e-49
1.817932531741706967e-49
1.510252991557408135e-49
1.074850867763138376e-49
7.941151341505996674e-50
6.254924719698991511e-50
4.200843502671267840e-50
3.113447738088201303e-50
2.198336042184498581e-50
1.530588203728248410e-50
1.074557522398206786e-50
7.597993582888003411e-51
5.449985159210609182e-51
3.973346499149832903e-51
2.954991104754849653e-51
2.237038809710795669e-51
1.718265906259479945e-51
1.331545775076418337e-51
1.033555185036779118e-51
7.978050127357406177e-52
6.084956859134782329e-52
