# bin_14_12
1.774694425312091240e-11
1.987112346506856729e-11
2.183715442388181361e-11
2.344363045275974170e-11
2.443627805494836915e-11
2.458354904036782998e-11
2.357174635429848355e-11
2.132833754681944589e-11
1.824454793435829237e-11
1.496767066233020195e-11
1.237635105246250262e-11
1.068913747716834855e-11
8.922439350735970343e-12
6.387421681397491211e-12
4.678883240885504645e-12
3.714780825143104388e-12
2.482162663223318474e-12
1.852888463343644369e-12
1.301622617187742951e-12
9.049458298720763488e-13
6.353201125556215624e-13
4.484540740560115312e-13
3.209588581739647754e-13
2.333825559534910132e-13
1.731253908231592646e-13
1.307666717552389284e-13
1.002660610077567690e-13
7.762161520896965238e-14
6.023740964858829400e-14
4.652219868101081042e-14
3.552389096191043465e-14
