# bin_16_8
1.217507096563550542e-24
1.360539759740869085e-24
1.491531937523968129e-24
1.596440461175608494e-24
1.657611453026905030e-24
1.660244791101227938e-24
1.581875787984063116e-24
1.422618617945703315e-24
1.209233955108427700e-24
9.902710265999394231e-25
8.224120854180412378e-25
7.118571444482158574e-25
5.867152633356456845e-25
4.141597028497594469e-25
3.101012934202787398e-25
2.409714728402742395e-25
1.634297492047124992e-25
1.195787698702032887e-25
8.511098247485703052e-26
5.940127688443840727e-26
4.171442069511892134e-26
2.958472168331160671e-26
2.129365606913510843e-26
1.558565795895164495e-26
1.163499931703752567e-26
8.837172899015046787e-27
6.804671246874381331e-27
5.280262913752204843e-27
4.099219445653732602e-27
3.161204123911920943e-27
2.406629607786234778e-27
