# bin_12_2
9.836638465415670234e-43
1.075379815527377033e-42
1.147443051270323062e-42
1.187044556255347788e-42
1.184057272775243435e-42
1.122158496940016043e-42
1.004252714424101459e-42
8.495201491476424031e-43
6.949696025716802602e-43
5.791059613829824863e-43
5.012497073549300823e-43
4.086452186984580958e-43
2.868578870604596108e-43
2.186155582583658044e-43
1.673841879017291615e-43
1.161660191302353824e-43
8.439537532863518569e-44
6.127198581817733821e-44
4.368701792238324229e-44
3.144237155670376270e-44
2.299722607441626921e-44
1.711704203491203956e-44
1.297100996833010356e-44
9.996056441977559272e-45
7.793314882637228316e-45
6.109805831924279032e-45
4.783128499451640484e-45
3.713030050314717874e-45
2.840957286215260387e-45
2.131881292264012126e-45
1.562893630892191851e-45
