# bin_20_11
5.964648384632394730e-25
6.732312563086925176e-25
7.470248164202077905e-25
8.116016982183808574e-25
8.587324065285496884e-25
8.786722806964403128e-25
8.638323156030895591e-25
8.032135966482632051e-25
7.060329975976666898e-25
5.876170360407687339e-25
4.807302780778715370e-25
4.075410891190877416e-25
3.518778780188839449e-25
2.716751649481665336e-25
1.876277754624617373e-25
1.512368784950845772e-25
1.050063270100253121e-25
7.772972281028695668e-26
5.235941193852663167e-26
3.700476846754282482e-26
2.578079375031285778e-26
1.794872728678600482e-26
1.256707706389636577e-26
8.885192600664537452e-27
6.396201181607000918e-27
4.695484954303854426e-27
3.513354153222708687e-27
2.673923045212195359e-27
2.058261544942415372e-27
1.591284211180749431e-27
1.226372727289146898e-27
