# bin_7_1
1.109835526827205690e-24
1.170345925128695501e-24
1.193880552581772937e-24
1.169600266510911420e-24
1.083964648163891190e-24
9.500416084737759842e-25
7.895455451992910537e-25
6.460077022380599479e-25
5.475913836274406225e-25
4.708891587222014590e-25
3.628193602346541526e-25
2.535409218470528712e-25
2.043137458064196550e-25
1.444383074620032871e-25
1.082829501038417682e-25
7.632830630693859643e-26
5.602087160542501962e-26
4.118528870449035677e-26
3.064681051281069918e-26
2.320306987704151186e-26
1.786969012361173425e-26
1.398363365009783708e-26
1.105460067895708734e-26
8.767155214414985154e-27
6.926322062390806266e-27
5.413357059180579023e-27
4.159982329421011356e-27
3.127252633745599167e-27
2.291167038781552996e-27
1.632708959605250894e-27
1.131997800022986289e-27
