# bin_20_13
7.136164133086495083e-19
8.068566238233934554e-19
8.971689834521374433e-19
9.772295719466338004e-19
1.037282800465934666e-18
1.065443764470750574e-18
1.052910400334412356e-18
9.852968748122642508e-19
8.712452737960515039e-19
7.286399208919785416e-19
5.957491025979683922e-19
5.023536194966088946e-19
4.348700081189434383e-19
3.419809297429088078e-19
2.358547089130117270e-19
1.874301688336398643e-19
1.340265317737341575e-19
9.676098201310538704e-20
6.562716265535574906e-20
4.685295007431385298e-20
3.244685782340012954e-20
2.241292857953723176e-20
1.561300162167875738e-20
1.097296416851586567e-20
7.840038453791961682e-21
5.711532214047432628e-21
4.242943548229772471e-21
3.210410595540415371e-21
2.461893117343597262e-21
1.900654673974617483e-21
1.466145030445307273e-21
