# bin_8_2
1.652997022987400298e-23
1.766113918933333916e-23
1.830876022104998968e-23
1.831156901374425547e-23
1.742509684966362636e-23
1.565743325732563960e-23
1.330153257153810619e-23
1.089188758342419156e-23
9.042858502379385083e-24
7.813267859059061859e-24
6.433179315252052251e-24
4.567847162511240306e-24
3.429986149602803913e-24
2.676667908024194220e-24
1.847761451954267688e-24
1.372517965491947984e-24
9.973863596162020955e-25
7.195369544509644059e-25
5.267520782101740264e-25
3.919894552630743698e-25
2.971926622221696027e-25
2.292381829063010591e-25
1.794063922300931921e-25
1.415496742847081164e-25
1.118232484281314451e-25
8.783444436181968430e-26
6.813604652389893670e-26
5.190512445480909421e-26
3.865014633967495645e-26
2.803604906099204047e-26
1.978518692635528789e-26
