# bin_19_7
2.921371030369284059e-40
3.281096728355404316e-40
3.619259343306811865e-40
3.903576289296889591e-40
4.092814694464724907e-40
4.144819301744886087e-40
4.013374173730265159e-40
3.667946550869455352e-40
3.170001919479677185e-40
2.611465441172269200e-40
2.147144797081446151e-40
1.843874397382669351e-40
1.565339201313787902e-40
1.151104641225427770e-40
8.163392025706426843e-41
6.634348971226238581e-41
4.394776120445025576e-41
3.339178251361477416e-41
2.300871415281704700e-41
1.593761746216564800e-41
1.119460448031018917e-41
7.869114911244232150e-42
5.584460970191965889e-42
4.017579636105668317e-42
2.948749152235392824e-42
2.205781706072694813e-42
1.678080343120780822e-42
1.292741801985268224e-42
1.001575334058270458e-42
7.747295970804083148e-43
5.941019021206396335e-43
