# bin_17_3
2.535390342857178317e-60
2.825605696552349361e-60
3.087412379407114768e-60
3.290945984491566601e-60
3.398980033777469530e-60
3.383169186178453696e-60
3.195994385078147057e-60
2.851317627080205149e-60
2.404222093211893603e-60
1.966125619753967857e-60
1.643806340351475076e-60
1.424123307493529881e-60
1.150744253570607434e-60
8.010860684310935096e-61
6.177276446899051416e-61
4.641295596660082945e-61
3.237494619994835175e-61
2.295290700096270512e-61
1.657762339593567473e-61
1.163891153081387794e-61
8.197490359310152664e-62
5.857245311406634412e-62
4.246772065549248451e-62
3.134341586773555657e-62
2.358092840501989550e-62
1.802832976461899198e-62
1.394694536683870940e-62
1.084648534625440054e-62
8.418270651867919594e-63
6.475693396754882843e-63
4.908722245127939720e-63
