# bin_11_9
1.463874361565917760e-11
1.620715896355185949e-11
1.756600942791854509e-11
1.853617318967459441e-11
1.891170275544800362e-11
1.852071510878292647e-11
1.714623650471153580e-11
1.501010951971034424e-11
1.245730524620419907e-11
1.019638154532520281e-11
8.666925237263612324e-12
7.458990145699718613e-12
5.700698514028688017e-12
3.959557342295704224e-12
3.210502259154712164e-12
2.212779722634245304e-12
1.663724880610425095e-12
1.140323591820157527e-12
8.141809082771275512e-13
5.814326901745642254e-13
4.174637899525427914e-13
3.030472197713301271e-13
2.233114332065227984e-13
1.677996330749002968e-13
1.282599596970861294e-13
9.928415677427291426e-14
7.739601851054039103e-14
6.031938934003025587e-14
4.667372193515760603e-14
3.563400030667141359e-14
2.671232255308489154e-14
