# bin_15_8
1.177190056503932073e-21
1.312932460851007333e-21
1.435916181737500456e-21
1.532352950695746779e-21
1.584997465546516593e-21
1.580436300856963565e-21
1.496559433313714737e-21
1.338131963892452650e-21
1.130755495616195296e-21
9.249766173527596528e-22
7.718595361183657951e-22
6.686757262040454607e-22
5.434873770037402470e-22
3.795594951551037639e-22
2.903232154609094262e-22
2.202920565841612489e-22
1.523375393721743564e-22
1.089532889356290108e-22
7.843847881045096486e-23
5.497461379063823615e-23
3.867090681993646562e-23
2.757264829012293176e-23
1.995143648348479727e-23
1.469173337829596682e-23
1.103004339136097869e-23
8.418131329090041852e-24
6.504539027464329646e-24
5.055904192542554825e-24
3.924608626547043762e-24
3.021240483002808047e-24
2.292991626790880532e-24
