# bin_13_4
2.073932659020610205e-33
2.285512283297220361e-33
2.463018284051389032e-33
2.580512104014020693e-33
2.611616311922161426e-33
2.527191142913533443e-33
2.308604601645715092e-33
1.994420306091037584e-33
1.642706762459656101e-33
1.350422759178392674e-33
1.159013324849513226e-33
9.833035893624310205e-34
7.240942647170830502e-34
5.149810241243640333e-34
4.185039891196146903e-34
2.801539332206500607e-34
2.138099389369100257e-34
1.493201302278146213e-34
1.054398623602327801e-34
7.569203825880514300e-35
5.469667090244503143e-35
4.008014080264321986e-35
2.985949219733490326e-35
2.267587972373031944e-35
1.748451210497777879e-35
1.361769970320538888e-35
1.064578752030929112e-35
8.292630770394853384e-36
6.394088691718901537e-36
4.852359451661745713e-36
3.608121806298349042e-36
