# bin_13_1
4.792296755408771080e-57
5.256114141089072279e-57
5.630999758276356413e-57
5.855540357425765937e-57
5.876089729171318834e-57
5.615861797912877636e-57
5.066065950823880505e-57
4.320474702539840876e-57
3.541049518601119596e-57
2.932552091653481337e-57
2.533552318986252155e-57
2.103017124912216752e-57
1.499710404877907091e-57
1.110579049986718415e-57
8.760257037574218534e-58
5.941412734892284051e-58
4.433237899534429280e-58
3.170461384395254408e-58
2.248519173297427675e-58
1.615160532080457263e-58
1.174148346180297790e-58
8.685156594990101365e-59
6.538979667420652499e-59
5.012007884797332714e-59
3.892246748394181579e-59
3.044959802229500882e-59
2.383478847362363894e-59
1.853395734367235272e-59
1.422793131921968285e-59
1.072638478398376224e-59
7.908866807457887690e-60
