# bin_19_16
3.269399509519338173e-12
3.702530313115233913e-12
4.125076866585114491e-12
4.504061277439270025e-12
4.795267693593297847e-12
4.943855086488961422e-12
4.909198146737749778e-12
4.621924578952497144e-12
4.110144925485786563e-12
3.454714630620051452e-12
2.824865469429407975e-12
2.370131102525535031e-12
2.054006804105469662e-12
1.642937160262722459e-12
1.136530429784139677e-12
8.870813129615634930e-13
6.525487694819343571e-13
4.590013651026600241e-13
3.167495106579513320e-13
2.266113711104282003e-13
1.561760092311435177e-13
1.071810072316617078e-13
7.426741164845559264e-14
5.190015955838852886e-14
3.680873041250351279e-14
2.660970204133173891e-14
1.962035596286806309e-14
1.475150032085203124e-14
1.126189528173045663e-14
8.676145106267820640e-15
6.694525081895783860e-15
