# bin_16_16
9.482441787061129021e-11
1.070384913946142927e-10
1.187843638722857316e-10
1.290704723179540501e-10
1.365891134491288954e-10
1.397892398031018983e-10
1.374669409572800534e-10
1.278642632228282370e-10
1.124300869265059961e-10
9.359714801869787505e-11
7.656870772188897038e-11
6.489258756258021276e-11
5.603859994519495539e-11
4.330909284534688451e-11
2.990643953842975755e-11
2.408933698487111490e-11
1.675218308347438578e-11
1.238462046158400214e-11
8.343804947765592587e-12
5.900881924829324221e-12
4.109644636035506308e-12
2.859925893491477952e-12
2.001882067442848373e-12
1.414917905567820550e-12
1.018154584243592161e-12
7.471324967287409933e-13
5.588264664488433469e-13
4.251820453664586222e-13
3.272240650537404735e-13
2.529677911286893979e-13
1.949688762350275400e-13
