# bin_13_13
1.157302516667280660e-10
1.295898931219605158e-10
1.424216028753035169e-10
1.529126115330272575e-10
1.594052603785949822e-10
1.603866620077994604e-10
1.538143546475592758e-10
1.392013110867294822e-10
1.190976909202986916e-10
9.771327745202547570e-11
8.078672490987602529e-11
6.976711058070288556e-11
5.825658413853166599e-11
4.172471329447179941e-11
3.054376689447697184e-11
2.426409724136961472e-11
1.620741015409643183e-11
1.210450846047201164e-11
8.500039261436062542e-12
5.908981980977716884e-12
4.148437672517731464e-12
2.927924026655792443e-12
2.095172049047183072e-12
1.523182533127569356e-12
1.129691966425048674e-12
8.531417604508427406e-13
6.540624963877725139e-13
5.063065016815845645e-13
3.929060879879414459e-13
3.034584761853814526e-13
2.317378210896625740e-13
