# bin_20_18
2.119651058439422685e-11
2.406591929245633951e-11
2.689840749387241128e-11
2.948507816314913802e-11
3.154546178720821505e-11
3.272699101196524617e-11
3.274217697479824751e-11
3.113826004761123555e-11
2.795153657534327703e-11
2.371088750669758118e-11
1.941172739760007383e-11
1.615466797698147674e-11
1.399702370298850115e-11
1.147817400286526604e-11
8.052234619043482663e-12
6.072261762087005467e-12
4.662076526047360780e-12
3.160705235753496435e-12
2.269789818198280892e-12
1.602044831876547581e-12
1.096656403325622538e-12
7.490489954375273597e-13
5.141313657101161299e-13
3.558385708302374234e-13
2.492331708860113714e-13
1.777694984430107395e-13
1.293062005672516096e-13
9.603177645486751407e-14
7.263208765989003445e-14
5.565258310097872416e-14
4.289157643413928190e-14
