# bin_19_6
1.452729165740393908e-46
1.630326136867547037e-46
1.796631520111543988e-46
1.935475401145133581e-46
2.026278891642196830e-46
2.048608249264203826e-46
1.978661012129973826e-46
1.803605017013145477e-46
1.554584002630941499e-46
1.279108652297660657e-46
1.053061577736095020e-46
9.058458921406256222e-47
7.659585062453326890e-47
5.591303368457225108e-47
3.995823582890317405e-47
3.233758823731947603e-47
2.141831909627503663e-47
1.623381461392150533e-47
1.124119588352428243e-47
7.789676831984626789e-48
5.470866275449565161e-48
3.848155187085525830e-48
2.736783659119246093e-48
1.974425261591938378e-48
1.453297798187639092e-48
1.090011540299040301e-48
8.310693390444338993e-49
6.411568367167147566e-49
4.970361562026987498e-49
3.843543151172477711e-49
2.944386350735348686e-49
