# bin_16_6
3.827401400563934474e-34
4.267174317515499003e-34
4.664783970184427937e-34
4.975276215636386647e-34
5.142508161978121200e-34
5.123302460594312365e-34
4.845780866128697652e-34
4.328119628394137635e-34
3.653481079884886454e-34
2.988150949138107435e-34
2.495818970616966777e-34
2.162273786214791660e-34
1.752531296676300416e-34
1.221905191829359977e-34
9.383459737590718041e-35
7.086352097750463663e-35
4.920623051881222147e-35
3.504114746030364704e-35
2.527047026254524357e-35
1.772599023051973612e-35
1.247589796223962042e-35
8.904597436905308540e-36
6.449652186162300092e-36
4.754653897342900052e-36
3.573304664615872106e-36
2.729488337396491746e-36
2.110288473948471212e-36
1.640740672699601052e-36
1.273534105135478640e-36
9.800403678853318664e-37
7.433658322679529104e-37
