# bin_14_7
2.128647703048152590e-22
2.364930257798169307e-22
2.574195160913165697e-22
2.730856118241832498e-22
2.803811898089110203e-22
2.769844959248330721e-22
2.591464045268949505e-22
2.291244262067657746e-22
1.916211611276991718e-22
1.566427664323607394e-22
1.320022525145455242e-22
1.142100749748213431e-22
8.992696530318803164e-23
6.217544481754993259e-23
4.938531394030371489e-23
3.556427690798073700e-23
2.579002460514527035e-23
1.777538862538347906e-23
1.286817528745868343e-23
9.105589961895889050e-24
6.467701117901825158e-24
4.658870815316585990e-24
3.404478380014826898e-24
2.535175245026924141e-24
1.922677370600919801e-24
1.479474214517852551e-24
1.149370806296320364e-24
8.952165411876910677e-25
6.940587742112311410e-25
5.321112876514149454e-25
4.012705825715503503e-25
