# bin_12_6
3.951570961688739056e-20
4.357526862283550385e-20
4.699717303669096805e-20
4.928871027257734889e-20
4.993899340918119874e-20
4.840651459304010095e-20
4.429942955602586039e-20
3.834050974803394607e-20
3.160722580976990841e-20
2.596258857152310287e-20
2.225619726982811364e-20
1.892900337164048128e-20
1.400846130508587157e-20
9.917560653571592300e-21
8.073654855181293524e-21
5.411713932642518438e-21
4.131964553964631504e-21
2.876493730003998609e-21
2.031801235670605523e-21
1.458293084931247901e-21
1.053234501294130524e-21
7.708012461852507417e-22
5.733866086376108296e-22
4.348443003734154775e-22
3.349244287553888561e-22
2.606627059590052342e-22
2.037175290041772304e-22
1.587121553062299313e-22
1.224428794086628244e-22
9.300046483680469887e-23
6.923224086914585069e-23
