# bin_6_6
2.513614170805683050e-10
2.708286687523154585e-10
2.837762816872892167e-10
2.872962883803340351e-10
2.782586278637234289e-10
2.545216072440642093e-10
2.201929685372355309e-10
1.815289989471683001e-10
1.491290882915170819e-10
1.277416277681933342e-10
1.085005713997172985e-10
8.044769132557595848e-11
5.720749531334581001e-11
4.643760274465172555e-11
3.154128231762432573e-11
2.408642041765113530e-11
1.697492315891116901e-11
1.219591711711388618e-11
8.901329767686709472e-12
6.565321077949089476e-12
4.920134054917608001e-12
3.750573554078896941e-12
2.908001349494692913e-12
2.280515444066036768e-12
1.797206961630839402e-12
1.413548298708030315e-12
1.101817603424411487e-12
8.459681155050682036e-13
6.365130529509603978e-13
4.674414590483061780e-13
3.342402919753882672e-13
