# bin_8_7
1.017712531697726886e-10
1.110409905710349220e-10
1.181911010903928143e-10
1.218906527123531772e-10
1.211237389667412495e-10
1.142161710502766715e-10
1.017370159746728787e-10
8.567432490468511101e-11
7.004879826653979539e-11
5.860363788387315075e-11
5.072582959646486142e-11
4.085176734890264213e-11
2.850332569315143468e-11
2.207951005931724885e-11
1.657112481146324394e-11
1.170293759078795290e-11
8.367780197051739908e-12
6.108475452201458843e-12
4.371343889514840774e-12
3.154925732675841602e-12
2.316514389449423072e-12
1.730377951788713221e-12
1.316069775261931443e-12
1.017248402192257247e-12
7.947207226370561771e-13
6.236558210335044793e-13
4.881487574834370459e-13
3.784791983077514002e-13
2.889736284364172981e-13
2.162268413368983957e-13
1.579672686661586472e-13
