# bin_20_8
2.084648718151259547e-38
2.347419285163344616e-38
2.597424220123199646e-38
2.812240224045778641e-38
2.962795920386609688e-38
3.016589841649654175e-38
2.944645281267157527e-38
2.715159776684988330e-38
2.367504440125799181e-38
1.959643342690415310e-38
1.605938200736003450e-38
1.370552913490035411e-38
1.175992842374231053e-38
8.866239262946066523e-39
6.173411323630246857e-39
5.028637452529323418e-39
3.382502368497396662e-39
2.558500855395488208e-39
1.735600094536116376e-39
1.208446531797679236e-39
8.474380329974686902e-40
5.942535622428869101e-40
4.187859833153794255e-40
2.985233393216478164e-40
2.169579113971423038e-40
1.607782896968154441e-40
1.213310930606255277e-40
9.294233598549019957e-41
7.181189941841479488e-41
5.556246567930266743e-41
4.273468700076615193e-41
