# bin_16_12
8.491900892295581875e-14
9.540189297815732116e-14
1.052694576091402715e-13
1.135858470920314873e-13
1.191540373515821547e-13
1.207375926269167762e-13
1.170113958212357626e-13
1.070410695341825459e-13
9.259801291455796016e-14
7.631895639493266856e-14
6.272374626580409849e-14
5.383008466375752435e-14
4.575701619150546340e-14
3.373878808789850499e-14
2.387007300951015644e-14
1.941514839498092953e-14
1.287254730757353977e-14
9.782361753951444847e-15
6.728671149669712151e-15
4.661486589321723751e-15
3.274172197686520749e-15
2.301170356797347603e-15
1.631839165872991993e-15
1.172813015317508103e-15
8.599091082883337166e-16
6.426216388687052039e-16
4.884831096268978157e-16
3.761030782727784234e-16
2.913206648208457413e-16
2.253544725478979942e-16
1.728721703696293713e-16
