# bin_9_9
1.670542459983463523e-10
1.839800215652918961e-10
1.981134862857700516e-10
2.073588719264949893e-10
2.096259763261225815e-10
2.025155173189990295e-10
1.846839106371979029e-10
1.592730239652155016e-10
1.310860121963151705e-10
1.078560694409119546e-10
9.266428319348367517e-11
7.840931599639379937e-11
5.747766524334531851e-11
4.108317228300843172e-11
3.328951247002578110e-11
2.229279413777282656e-11
1.698368825045224858e-11
1.189746466982619686e-11
8.403543294358497201e-12
6.033170369639544538e-12
4.362345767977888762e-12
3.200608622462786690e-12
2.387899239012557424e-12
1.815787131290042368e-12
1.401530615127894985e-12
1.092308101792643701e-12
8.541288192086866356e-13
6.652099573376640737e-13
5.126303335316313042e-13
3.886915820389680255e-13
2.887010325050236904e-13
