# bin_14_14
1.076119602637338828e-10
1.208563711915905804e-10
1.333035713607968424e-10
1.437638555045078071e-10
1.507179836211663208e-10
1.526157442957981949e-10
1.477509319907959633e-10
1.350108623399795303e-10
1.166619450087271877e-10
9.609972058353403603e-11
7.902066252974839406e-11
6.786650660514697650e-11
5.759838717836337179e-11
4.233664064967830793e-11
3.004058649972380542e-11
2.440477266793804645e-11
1.616831842897925434e-11
1.228145715863157923e-11
8.465288585793693370e-12
5.864120900229285310e-12
4.118878714971312322e-12
2.895463633669597540e-12
2.055101466740230444e-12
1.478748126448262050e-12
1.085539247147643967e-12
8.121613689906223441e-13
6.179478193374111849e-13
4.760895233026575659e-13
3.688705028432974527e-13
2.853184986943759123e-13
2.187810524385619471e-13
