# bin_3
0.000000000000000000e+00
4.992961447433176461e-113
1.084534253150414175e-85
2.871857089882064437e-64
2.004236178908979363e-47
3.027547335079635718e-34
4.986177932495305843e-24
3.204421427458651611e-16
2.229707111120674215e-10
3.842439149973308909e-06
3.244107418550441681e-03
2.396398786899156252e-01
2.618073371665794014e+00
7.026881431406207135e+00
6.889827385556928085e+00
2.754946729989903087e+00
4.378688071169097307e-01
2.865541459647584499e-02
8.463639890672125044e-04
1.256242234712308750e-05
1.039571684847674606e-07
5.268342469850916275e-10
1.775892175895639767e-12
4.278427796992863794e-15
7.838808482005033436e-18
1.152295655806598062e-20
1.423101699540938620e-23
1.536291032575925583e-26
1.499911333023575542e-29
1.363692074952632785e-32
1.183947534489749328e-35
1.002929834264513573e-38
8.444014887921556026e-42
7.178439270682174499e-45
6.245627324216003837e-48
5.625795738824145920e-51
5.297861912044209198e-54
5.259236298502999850e-57
5.542201753986855574e-60
6.236224030724606879e-63
7.529344069842042586e-66
9.793431139475069068e-69
1.376827059890794168e-71
2.097661762718178192e-74
3.470600785559350813e-77
6.245644016063987886e-80
1.223939122403909481e-82
2.613964829822701487e-85
6.087039680710651810e-88
1.545854006782056194e-90
4.281271779642281844e-93
1.292753937414121109e-95
4.254197385187135662e-98
1.524867571550935691e-100
5.949178798387266835e-103
2.524306169050187137e-105
1.163848005311700997e-107
5.824983759370330220e-110
3.161432464157540253e-112
1.858604041974040134e-114
1.182245176793483747e-116
8.127080656078193982e-119
6.030379508000654165e-121
4.823979929420284251e-123
4.155070618426995019e-125
3.848757200207269296e-127
3.829011823965308804e-129
4.086310608440009856e-131
4.672075712105543845e-133
5.715836593368484456e-135
7.473123164786842091e-137
0.000000000000000000e+00
0.000000000000000000e+00
0.000000000000000000e+00
0.000000000000000000e+00
0.000000000000000000e+00
0.000000000000000000e+00
0.000000000000000000e+00
0.000000000000000000e+00
0.000000000000000000e+00
0.000000000000000000e+00
0.000000000000000000e+00
