# bin_10_11
-2.133693176402923630e-08
-2.367155873871945272e-08
-2.572094819973557272e-08
-2.722656719802044485e-08
-2.788066803292292992e-08
-2.744404922133629001e-08
-2.556382926373952538e-08
-2.251171039490900808e-08
-1.876708606816903575e-08
-1.535194366460259009e-08
-1.298922367522523081e-08
-1.121824637830355122e-08
-8.719296299886094261e-09
-6.035342976118950047e-09
-4.845351679667552452e-09
-3.419426724729848436e-09
-2.524361928396933767e-09
-1.730661139160688173e-09
-1.246461171676034904e-09
-8.858160747036687882e-10
-6.324857024405828822e-10
-4.572495677976167250e-10
-3.354114498964089457e-10
-2.508153973055628108e-10
-1.909183084067380235e-10
-1.473283766167598650e-10
-1.146531150735978469e-10
-8.934045468471912353e-11
-6.921435438349224644e-11
-5.297098461011544183e-11
-3.984302146092222128e-11
