# bin_7_13
-3.906725427700783456e-17
-4.328821974623573884e-17
-4.696438184289144106e-17
-4.961941746207155489e-17
-5.069801158837109130e-17
-4.974899017870891109e-17
-4.616691148810363265e-17
-4.051081336385317162e-17
-3.368113073691435243e-17
-2.756554921298268780e-17
-2.339480057940249114e-17
-2.016443584276199306e-17
-1.550662334822446267e-17
-1.075423143054230431e-17
-8.694627862951538662e-18
-6.040788560758754556e-18
-4.516392176776813380e-18
-3.093028341230414486e-18
-2.215461027751340529e-18
-1.579779933557439339e-18
-1.132374655434304667e-18
-8.209077294863786592e-19
-6.039840907513216227e-19
-4.531104122336808873e-19
-3.458675476468072792e-19
-2.674650192686190821e-19
-2.083957610039891549e-19
-1.624203032272529754e-19
-1.257413689005918384e-19
-9.608789226410093489e-20
-7.212001650818600934e-20
