# bin_3_15
-8.138294462740419288e-48
-9.015512638159271210e-48
-9.778374337018644355e-48
-1.032754339897116594e-47
-1.054772184666856320e-47
-1.034427718544082626e-47
-9.592849059711112620e-48
-8.412051861243036421e-48
-6.990589659690633335e-48
-5.721965020656455260e-48
-4.858896697698639690e-48
-4.186091112061347662e-48
-3.212900210156434127e-48
-2.229437150576941743e-48
-1.804346098872632980e-48
-1.250282727918333643e-48
-9.366468355163159704e-49
-6.416107674988609860e-49
-4.590779557314248670e-49
-3.275446726827505359e-49
-2.349304956119039209e-49
-1.703952773297080467e-49
-1.254374263511188939e-49
-9.415763309779128924e-50
-7.190761748915764779e-50
-5.562769522353060935e-50
-4.335102918293258751e-50
-3.378775377387161193e-50
-2.615377696425153215e-50
-1.998028614769438312e-50
-1.499051718613659020e-50
