# bin_5_11
-1.849197763124634109e-18
-2.027169323546484683e-18
-2.170406348835313591e-18
-2.255124728050885836e-18
-2.260976309966733686e-18
-2.157911585939338691e-18
-1.944320130897183744e-18
-1.656114863682782910e-18
-1.357256626422616928e-18
-1.125532124490781633e-18
-9.729534169330355786e-19
-8.051426213977462614e-19
-5.724083554435802054e-19
-4.262855888035818347e-19
-3.345044456597481450e-19
-2.277639879296734302e-19
-1.691707440095609586e-19
-1.213684850179677758e-19
-8.616438736395908414e-20
-6.190744328189737316e-20
-4.505395367348094758e-20
-3.336683951246274951e-20
-2.515407729663961032e-20
-1.930120108943574040e-20
-1.500124857767967329e-20
-1.174134101955013449e-20
-9.191596678956062665e-21
-7.145590280989478233e-21
-5.482349100091726680e-21
-4.129719173650556367e-21
-3.041769588139067345e-21
