# bin_10_16
-1.346195038039732488e-15
-1.508438044142050529e-15
-1.659172801917551638e-15
-1.783208381321500908e-15
-1.861317465690167014e-15
-1.875564550089574781e-15
-1.802457438571340729e-15
-1.634764837793030942e-15
-1.401827779536661313e-15
-1.151325752730600500e-15
-9.510112041254883499e-16
-8.206148320264897465e-16
-6.876734226266770247e-16
-4.949901222890438624e-16
-3.601258991657631204e-16
-2.876687987348167131e-16
-1.916007293843679098e-16
-1.437928347685180097e-16
-1.006058182712888541e-16
-6.987905428225473142e-17
-4.906588403532201309e-17
-3.459446686149636079e-17
-2.471593301731148519e-17
-1.793397004742589803e-17
-1.327588734168115637e-17
-1.000896563735997558e-17
-7.663219105632545230e-18
-5.927476509308791488e-18
-4.599067706592240363e-18
-3.553479540152763154e-18
-2.716017487758754568e-18
