# bin_7_4
-4.519136669831201360e-11
-4.846286920804571623e-11
-5.047739680764035020e-11
-5.076091783077866126e-11
-4.867879102112650323e-11
-4.407984150752168919e-11
-3.774594167721213579e-11
-3.099384789864835704e-11
-2.561090067081033650e-11
-2.206475421992479748e-11
-1.843407678205131396e-11
-1.331861989152912970e-11
-9.755979489592804011e-12
-7.777812819809520386e-12
-5.300987481185174539e-12
-4.004900871138176579e-12
-2.872481393810963061e-12
-2.065368781021278519e-12
-1.510261966739507223e-12
-1.119344634285935008e-12
-8.445498811878367541e-13
-6.483164783431102152e-13
-5.055208260293503623e-13
-3.979397024764087106e-13
-3.141296202824404649e-13
-2.469385788544401588e-13
-1.919840365748159424e-13
-1.467593731513864752e-13
-1.097743813287855965e-13
-8.004798259031913750e-14
-5.680387967297864296e-14
