# bin_18_4
-1.502680153019614825e-54
-1.680150583469700263e-54
-1.843163843587651810e-54
-1.974457567021478501e-54
-2.052295796484304939e-54
-2.058106381108078993e-54
-1.964288900221639111e-54
-1.769596325923579114e-54
-1.506869788494712859e-54
-1.234921860203127711e-54
-1.024750931238094797e-54
-8.866782656778609858e-55
-7.331413373810834641e-55
-5.192824908209238276e-55
-3.869050828298834372e-55
-3.022402615161900423e-55
-2.042441761679728936e-55
-1.502040280203571951e-55
-1.065996138209646441e-55
-7.433953277024740644e-56
-5.220040369584303521e-56
-3.698118314885083373e-56
-2.658409104776429711e-56
-1.943002488202986034e-56
-1.448483103481135394e-56
-1.098851666989805905e-56
-8.453685468350116184e-57
-6.556835097800318901e-57
-5.090193022873298623e-57
-3.926996564396455545e-57
-2.991843013663363838e-57
