# bin_12_4
-7.473004765211907101e-27
-8.204104270184211466e-27
-8.799635463390708787e-27
-9.164246288736766493e-27
-9.212360341150065474e-27
-8.825654529005655853e-27
-7.981232906094007968e-27
-6.823951859046503116e-27
-5.598751314584067783e-27
-4.631025659871219816e-27
-3.997812046138511484e-27
-3.332993353051663193e-27
-2.389396111113539441e-27
-1.756620993198196544e-27
-1.395085724617146457e-27
-9.421868053336807547e-28
-7.072190373342715600e-28
-5.036887172186364671e-28
-3.568226878378035098e-28
-2.562729363952980155e-28
-1.860486111492864159e-28
-1.373930081062768524e-28
-1.032601108308254657e-28
-7.902749246638255472e-29
-6.130260543438931268e-29
-4.792708041641371105e-29
-3.751193504348395247e-29
-2.918147146510201950e-29
-2.242102202442149191e-29
-1.692387447456499904e-29
-1.249756006716148327e-29
