# bin_15_5
-1.450418886295301603e-33
-1.610751134932142569e-33
-1.752382866548203460e-33
-1.857833172717380324e-33
-1.905986243066830441e-33
-1.880871319719334458e-33
-1.757413814915994610e-33
-1.552062382593390505e-33
-1.296884786573326664e-33
-1.060587304127426247e-33
-8.950811279952449637e-34
-7.740607604302163608e-34
-6.068854052287162942e-34
-4.197533728804600436e-34
-3.347419153322720831e-34
-2.394064961303772418e-34
-1.747332215074882847e-34
-1.201356294547396568e-34
-8.685981588967990090e-35
-6.155259700413977823e-35
-4.380048636956376874e-35
-3.159111706343257738e-35
-2.311589376927012981e-35
-1.723863277156275605e-35
-1.309059347067141494e-35
-1.008320361061178650e-35
-7.838337504206209043e-36
-6.106270432852366979e-36
-4.733171039650806838e-36
-3.626713475072482162e-36
-2.732625222588259874e-36
