# bin_7_7
-5.195644932850454940e-08
-5.645962904720715936e-08
-5.979229421554110389e-08
-6.128218556543057243e-08
-6.040689105286616631e-08
-5.638302214841206037e-08
-4.975031423733135889e-08
-4.155158894975187983e-08
-3.398212803769605047e-08
-2.867802125538194620e-08
-2.476781202733116591e-08
-1.940363934893260904e-08
-1.347837226758002360e-08
-1.074817792156972724e-08
-7.725917643388913026e-09
-5.670377877811920009e-09
-3.961619988922443368e-09
-2.893575270685290674e-09
-2.088140639902811391e-09
-1.519941376378110042e-09
-1.124633467469304219e-09
-8.461203353204205217e-10
-6.482086673181585981e-10
-5.038945797936563180e-10
-3.951459299060851088e-10
-3.105619227671855867e-10
-2.428894332480568897e-10
-1.877866096256682023e-10
-1.427144774216124172e-10
-1.061334576012450153e-10
-7.697416611311760255e-11
