# bin_19_1
-4.659728615585101213e-89
-5.215035933906470787e-89
-5.727716060916787735e-89
-6.144658574374053501e-89
-6.398855453767835961e-89
-6.430719904973203493e-89
-6.156366268095015677e-89
-5.562522065872338436e-89
-4.751222785308098246e-89
-3.897126227376039442e-89
-3.227061576553403703e-89
-2.789340131874675581e-89
-2.320518121745417804e-89
-1.654786295423577586e-89
-1.219979249213571686e-89
-9.629708524844375336e-90
-6.460681167273448574e-90
-4.797795424890991456e-90
-3.383293424017856913e-90
-2.355048543830603328e-90
-1.653494793283131941e-90
-1.168733659407873067e-90
-8.378626976705241055e-91
-6.104502832675355966e-91
-4.536997457385241028e-91
-3.432701136649067323e-91
-2.635492064650761469e-91
-2.041842575392914979e-91
-1.584846961846373318e-91
-1.223560946837256146e-91
-9.335423323052392684e-92
