# bin_4_4
-8.371082145278545904e-08
-8.792070337389888986e-08
-8.928060294075265895e-08
-8.688261176415020716e-08
-7.992409993063943688e-08
-6.954814255134985957e-08
-5.755334846417372192e-08
-4.720701225051485563e-08
-4.024599277409711660e-08
-3.436274268201987654e-08
-2.594266396111009840e-08
-1.833110524204956525e-08
-1.483469996296764724e-08
-1.030059702361959444e-08
-7.817382590658977886e-09
-5.536458661425273921e-09
-4.043525271024306248e-09
-2.984276898090388003e-09
-2.230886657472198859e-09
-1.696578251753638830e-09
-1.312239319947223064e-09
-1.030497922816716608e-09
-8.164377467619123961e-10
-6.479903475248335130e-10
-5.115803468517936158e-10
-3.990107778693068304e-10
-3.056348276628404882e-10
-2.287963083812129471e-10
-1.668134893379304557e-10
-1.182807393899923404e-10
-8.162136890267181616e-11
