# bin_6_20
-1.502887471180020235e-48
-1.689872746279861359e-48
-1.866602601638135704e-48
-2.016646394336993923e-48
-2.118894072295492538e-48
-2.150946136929574364e-48
-2.090080544602630049e-48
-1.917554230793425870e-48
-1.663756237232700319e-48
-1.373601348743354132e-48
-1.127984151808695766e-48
-9.664496484052866913e-49
-8.244117716525267622e-49
-6.125324247081259430e-49
-4.307694798753283643e-49
-3.510979482345954042e-49
-2.334773670278013451e-49
-1.774837031048228812e-49
-1.215180932033486146e-49
-8.422946936468358593e-50
-5.916275085287883190e-50
-4.156170948072367864e-50
-2.941229803867714993e-50
-2.108104015389172715e-50
-1.541209239187301860e-50
-1.148619293612379409e-50
-8.710848286733997181e-51
-6.696160592285951340e-51
-5.182953098554530498e-51
-4.010001210372753971e-51
-3.079047372934478399e-51
