# bin_1_18
-1.464827330787895322e-83
-1.635056288121519730e-83
-1.789975867075558710e-83
-1.912527363597796788e-83
-1.981314276375192228e-83
-1.979259358673646927e-83
-1.878879703987672328e-83
-1.684092709237984244e-83
-1.426609618353897894e-83
-1.167842457769640418e-83
-9.730168344636858449e-84
-8.427809414512027718e-84
-6.886958572130852483e-84
-4.829185030515330412e-84
-3.665613805051380420e-84
-2.806531232923366301e-84
-1.926745444816600203e-84
-1.389784142140362800e-84
-9.968215145282784772e-85
-6.976106624882632946e-85
-4.903634699272651519e-85
-3.489646154268477430e-85
-2.520374177521945337e-85
-1.851983939109486262e-85
-1.387626958900457847e-85
-1.057255532642947647e-85
-8.159522821556972980e-86
-6.338858517771436771e-86
-4.921013071348238109e-86
-3.790925943559568988e-86
-2.880512011154286811e-86
