# bin_9_14
-7.791880239200752507e-14
-8.684972707790290066e-14
-9.491228004035526125e-14
-1.011891318319183669e-13
-1.045361266776298440e-13
-1.040796761903576694e-13
-9.835698427167821507e-14
-8.778957149842475414e-14
-7.405847899342585225e-14
-6.058666550147970868e-14
-5.066039866466677769e-14
-4.389027713616954413e-14
-3.548022832725394263e-14
-2.471466546595481964e-14
-1.905152121636794138e-14
-1.432284117360968593e-14
-9.988715314286941119e-15
-7.085588508050896971e-15
-5.117264390365572983e-15
-3.592715294039998671e-15
-2.530462962743118611e-15
-1.807942707681674523e-15
-1.310777174905129308e-15
-9.673485555196935718e-16
-7.277165572828561243e-16
-5.563240516609911041e-16
-4.303622626583825550e-16
-3.346895908158790423e-16
-2.597709892284269302e-16
-1.998404180393053080e-16
-1.514975994038684485e-16
