# bin_4_1
-1.230211313579336420e-11
-1.255329160343115794e-11
-1.230499060056156274e-11
-1.142068194968007384e-11
-1.002595783765520278e-11
-8.350719820426355304e-12
-6.838734739117145560e-12
-5.785749471778631295e-12
-4.966871046872287952e-12
-3.850993108044223722e-12
-2.710573369784181305e-12
-2.161487604467717336e-12
-1.555711074749355850e-12
-1.155767140772045790e-12
-8.285080644721425323e-13
-6.132776608506530037e-13
-4.550389182001725113e-13
-3.426574015862582594e-13
-2.629791236088183290e-13
-2.053171415160914401e-13
-1.625615536858257835e-13
-1.296801914205162586e-13
-1.034587249401172067e-13
-8.195303096832696706e-14
-6.402255693063408651e-14
-4.903634479426512035e-14
-3.665111313141627700e-14
-2.665663223980582408e-14
-1.884880893616217877e-14
-1.297632963565886850e-14
-8.721889523292667849e-15
