# bin_14_13
-1.976626430891968011e-08
-2.216696428768281028e-08
-2.440692926616012095e-08
-2.626468228887075494e-08
-2.745908520596961220e-08
-2.771950742954576771e-08
-2.671017308512512492e-08
-2.429064397107216183e-08
-2.088753377264765023e-08
-1.717348094531211396e-08
-1.416297799136981996e-08
-1.220305463588216127e-08
-1.027461792197616888e-08
-7.448887336702777893e-09
-5.370257318902855839e-09
-4.320390692937854141e-09
-2.868029822563491960e-09
-2.164614807876988594e-09
-1.506529660830058067e-09
-1.045070588935469560e-09
-7.339121732656912232e-10
-5.167677287912144859e-10
-3.683378356612081817e-10
-2.664875387017246002e-10
-1.967029222125822606e-10
-1.479111421530422780e-10
-1.130089280880051615e-10
-8.729952781098991238e-11
-6.770755651307303335e-11
-5.233825778442828571e-11
-4.005078778267067196e-11
