# bin_14_12
-4.735439486787526983e-09
-5.302867264340030668e-09
-5.828350514996548132e-09
-6.258175881752554019e-09
-6.524478288240413777e-09
-6.565467434178042953e-09
-6.297098577981134588e-09
-5.700067403028504825e-09
-4.877953309198417065e-09
-4.003474644862117618e-09
-3.311060219913515876e-09
-2.859736882735875525e-09
-2.387644958784228554e-09
-1.710187463833000609e-09
-1.252732728978815587e-09
-9.947480787552418957e-10
-6.648457053401657541e-10
-4.963939776483297849e-10
-3.486944440535740776e-10
-2.424570194354173540e-10
-1.702311791108627058e-10
-1.201691581884407154e-10
-8.600421253853772330e-11
-6.253640391879428650e-11
-4.638865301798961965e-11
-3.503760757089146054e-11
-2.686470676932033749e-11
-2.079739300684476065e-11
-1.613987671061164017e-11
-1.246553856876955345e-11
-9.519104422928701608e-12
