# bin_9_7
-3.194697611591067478e-09
-3.497804967264907525e-09
-3.739154403237907532e-09
-3.877401061158641849e-09
-3.878486680570258325e-09
-3.689794964286641120e-09
-3.314435287042387482e-09
-2.814350118908497982e-09
-2.304803793586669478e-09
-1.915781681208882086e-09
-1.657290717695775570e-09
-1.362118378871464118e-09
-9.625432647614932588e-10
-7.246844330117265698e-10
-5.622778039301927238e-10
-3.861810971673278954e-10
-2.839589668680926605e-10
-2.048996286286516335e-10
-1.457601015406950822e-10
-1.047995259540600306e-10
-7.644651141338453272e-11
-5.675191356587687144e-11
-4.289009460500454902e-11
-3.297935601581754342e-11
-2.567120401384665509e-11
-2.010931596624925861e-11
-1.574332372066672120e-11
-1.223101693191357148e-11
-9.372198574451672125e-12
-7.047322309813559736e-12
-5.179336100392716710e-12
