# bin_17_8
-2.052484577374619251e-25
-2.298512931476213993e-25
-2.526399940036982485e-25
-2.712872115890238537e-25
-2.828522408876875893e-25
-2.846532895042513092e-25
-2.730499880592776527e-25
-2.471888135148205348e-25
-2.115608002549105511e-25
-1.736381900815624017e-25
-1.435947628539732180e-25
-1.240183633696487144e-25
-1.035701211696841192e-25
-7.419955205562263779e-26
-5.433102991420651136e-26
-4.316062963373026648e-26
-2.883706370645377295e-26
-2.153970257708455144e-26
-1.512730094000762459e-26
-1.051772101421579687e-26
-7.384564402442101892e-27
-5.212413777889833394e-27
-3.730172418476158412e-27
-2.712068095111632148e-27
-2.011595405121997077e-27
-1.519254504560361750e-27
-1.164809968859405865e-27
-9.017210847756097449e-28
-6.997898029249381739e-28
-5.404991929597127995e-28
-4.127685117314580366e-28
