# bin_3_1
-2.167163521518650412e-09
-2.180988324352558100e-09
-2.095960140307127272e-09
-1.903512414714995623e-09
-1.635615965257929080e-09
-1.345817300998442339e-09
-1.110205897453372667e-09
-9.527231197271454132e-10
-7.989780032538972801e-10
-5.860447642448684771e-10
-4.267868393991159102e-10
-3.410823286245196818e-10
-2.368128514267123946e-10
-1.798793627440851859e-10
-1.303494290353469471e-10
-9.597961085198982264e-11
-7.195865226858170635e-11
-5.485900156536180267e-11
-4.260188770813549038e-11
-3.360426172584414692e-11
-2.680338629748370733e-11
-2.145596278035232645e-11
-1.710931154592860533e-11
-1.349540560874507545e-11
-1.046200167558779726e-11
-7.929149293947043258e-12
-5.852940126526125178e-12
-4.200358780950132478e-12
-2.932088269468528632e-12
-1.995333816835042272e-12
-1.328060586526434100e-12
