# bin_5_13
-1.749988643190132485e-25
-1.931774905274482443e-25
-2.086135639569219220e-25
-2.191346483970954724e-25
-2.224284964199428969e-25
-2.161704645716818772e-25
-1.984069688373125992e-25
-1.722296411813504267e-25
-1.422314668530793948e-25
-1.167428068670250066e-25
-9.990851313898770025e-26
-8.525683441289094803e-26
-6.357248594730173607e-26
-4.475990605751354005e-26
-3.648373550236028259e-26
-2.454668457815680501e-26
-1.872869016353532724e-26
-1.298282190711947985e-26
-9.180048856720651261e-27
-6.586511541463140148e-27
-4.753455394535568137e-27
-3.472600770017644039e-27
-2.577768455551567188e-27
-1.951057081673965502e-27
-1.500339801289640338e-27
-1.166421737941078718e-27
-9.112134570405254425e-28
-7.100664798053201941e-28
-5.482385837406831180e-28
-4.169411598737967596e-28
-3.109012042464965267e-28
