# bin_5_2
-1.953364654760812901e-11
-2.036272884709108503e-11
-2.050212718911703066e-11
-1.970602724653476737e-11
-1.789234161327142488e-11
-1.536662617382903793e-11
-1.263648951585263262e-11
-1.042543102901254947e-11
-8.958164389659314173e-12
-7.514000090213962769e-12
-5.487513793537374071e-12
-3.993751589488850900e-12
-3.196065421128255043e-12
-2.198449607157144666e-12
-1.668663175128745225e-12
-1.200948375181650678e-12
-8.745781911615698702e-13
-6.482912193628955510e-13
-4.878810297556341318e-13
-3.738324899624571144e-13
-2.912247794932174961e-13
-2.299411199476398085e-13
-1.827351115457406787e-13
-1.451171132978861211e-13
-1.143532729024982286e-13
-8.882159504490673733e-14
-6.762202036769432426e-14
-5.023824835710403059e-14
-3.631736090390418184e-14
-2.553230789885551164e-14
-1.748066306280097586e-14
