# bin_12_5
-8.240845023578507640e-22
-9.066502480574516331e-22
-9.750560843911578182e-22
-1.018905115485692093e-21
-1.028198176136263163e-21
-9.905739977675835031e-22
-9.008348438487709794e-22
-7.746863841404489345e-22
-6.369417766338406937e-22
-5.250472056365728020e-22
-4.519851343490674591e-22
-3.806448620685833177e-22
-2.767751082385243468e-22
-1.997027005289640834e-22
-1.609617746863319698e-22
-1.078807563688087146e-22
-8.192917421050334471e-23
-5.772667436248559883e-23
-4.079332163214618373e-23
-2.929239559644857474e-23
-2.120414703811226706e-23
-1.559223814611105402e-23
-1.166332263636726204e-23
-8.889537912618632768e-24
-6.874006373990130985e-24
-5.363764812896923447e-24
-4.195979269042488523e-24
-3.266870305484615475e-24
-2.515102799530273315e-24
-1.904140281235392757e-24
-1.411505554282097463e-24
