# bin_19_9
-1.592623267588631243e-27
-1.791811461434731889e-27
-1.980580054681826978e-27
-2.141622509730428674e-27
-2.252629875989663799e-27
-2.289443164897274142e-27
-2.228689506543941715e-27
-2.048771525479258041e-27
-1.781146523037106737e-27
-1.472079451511759682e-27
-1.207973619693146778e-27
-1.033551914225256709e-27
-8.837502860175686963e-28
-6.602904619141638157e-28
-4.624686866061355109e-28
-3.771050545836136202e-28
-2.516387393456343396e-28
-1.910953974155833436e-28
-1.303775073615516979e-28
-9.046811833208582687e-29
-6.352563911078572854e-29
-4.460616110173976432e-29
-3.151805059758892695e-29
-2.254403587251955641e-29
-1.644556521178952500e-29
-1.223082778183749781e-29
-9.258893550916785515e-30
-7.108486614647642839e-30
-5.498755336150432070e-30
-4.254606182627893663e-30
-3.269038468639562523e-30
