# bin_13_19
-1.984655278674274846e-14
-2.241425430723347597e-14
-2.488896471519808256e-14
-2.706423761227204819e-14
-2.866697321695916671e-14
-2.937082051940065757e-14
-2.892500937977610425e-14
-2.695277811668367260e-14
-2.374140514266449234e-14
-1.979403821268099467e-14
-1.619502579484722601e-14
-1.371018452048735258e-14
-1.184868894352578290e-14
-9.199515443064402838e-15
-6.351211719216360368e-15
-5.100430139131413563e-15
-3.572120099175429860e-15
-2.626466621059982613e-15
-1.771156856448474391e-15
-1.256248093437752879e-15
-8.736965390023330457e-16
-6.069689117131198049e-16
-4.243981238039200196e-16
-2.995619284478414520e-16
-2.151984099429428410e-16
-1.576444785791471650e-16
-1.177237695943110769e-16
-8.945626237341492761e-17
-6.879203160311256473e-17
-5.316835570261813532e-17
-4.099012322871606460e-17
