# bin_5_14
-2.028249153724040682e-29
-2.245931244583864877e-29
-2.434720523013763325e-29
-2.569810078570031124e-29
-2.622645957538814904e-29
-2.569335655898025096e-29
-2.379706295325057304e-29
-2.084275960214853857e-29
-1.730612114762343632e-29
-1.416873316200252284e-29
-1.204368998625956794e-29
-1.036709718968923391e-29
-7.928807924366634534e-30
-5.507758842695428386e-30
-4.465592442701152317e-30
-3.079682709907407270e-30
-2.315283321083774338e-30
-1.586929667791101126e-30
-1.133271070892344340e-30
-8.093963035920466787e-31
-5.811859633396123064e-31
-4.219146330591201936e-31
-3.109088009007748915e-31
-2.336244514746421097e-31
-1.785777170031129020e-31
-1.382396036734267878e-31
-1.077697653758835264e-31
-8.399834854865671652e-32
-6.500250349376464633e-32
-4.963314335643974378e-32
-3.721103323228122290e-32
