# bin_15_20
-3.121576900356733293e-12
-3.535832745091605022e-12
-3.940309702514271238e-12
-4.303577157976781432e-12
-4.583460630563304484e-12
-4.727581786168217967e-12
-4.696969956034564791e-12
-4.425155062659374112e-12
-3.938144764574308404e-12
-3.312591928950359368e-12
-2.709693211677675211e-12
-2.273139751672547084e-12
-1.970064633796900250e-12
-1.577898607172129451e-12
-1.092468456356642692e-12
-8.515237438761631490e-13
-6.277324273706953728e-13
-4.408267964846712399e-13
-3.047313866000355193e-13
-2.180044324485609922e-13
-1.502080675323141997e-13
-1.030599099162542695e-13
-7.138909618418696548e-14
-4.987461711757441205e-14
-3.535734543390546749e-14
-2.554868835999799483e-14
-1.882932844809358796e-14
-1.415105795933791260e-14
-1.080040967934691070e-14
-8.319517303454863308e-15
-6.419532151420295166e-15
