# bin_7_20
-6.551207713554376222e-42
-7.371371458515704374e-42
-8.149021239724145118e-42
-8.813051450649985448e-42
-9.271742269616149788e-42
-9.425398139696910910e-42
-9.178408240662798512e-42
-8.440641171791828291e-42
-7.340841394171941016e-42
-6.068322146045881883e-42
-4.978976944158858593e-42
-4.258900492140868114e-42
-3.643161418380727194e-42
-2.724874038563629816e-42
-1.907186518809503995e-42
-1.555093245709428566e-42
-1.038554873827173969e-42
-7.884147419226556769e-43
-5.375568058571366493e-43
-3.731186481594842586e-43
-2.619742166674879629e-43
-1.839308603494389954e-43
-1.299242273754150689e-43
-9.289497070352593254e-44
-6.773682820305386472e-44
-5.035644086785774518e-44
-3.810698869207919039e-44
-2.924915029777390628e-44
-2.262274704731761053e-44
-1.750417357385327624e-44
-1.345099732875332840e-44
