# bin_7_2
-1.889674340891500986e-09
-1.895583723272060782e-09
-1.814459624189688953e-09
-1.642379657614607780e-09
-1.407255831894033905e-09
-1.158624724365979847e-09
-9.590293568597798124e-10
-8.219099114317295133e-10
-6.825489438399544025e-10
-5.007396858752745607e-10
-3.688607040048413838e-10
-2.896510149465676485e-10
-2.046396120649627451e-10
-1.533767153754481438e-10
-1.116441881491471292e-10
-8.252880167808682363e-11
-6.193570047123755141e-11
-4.728986172125342354e-11
-3.677539282435756510e-11
-2.903945052826024769e-11
-2.317194063627917702e-11
-1.854603650488932526e-11
-1.477854235880024842e-11
-1.164335151443513101e-11
-9.012766959670141251e-12
-6.819360054027604768e-12
-5.025625014633695640e-12
-3.601644407875925991e-12
-2.511442752544014999e-12
-1.707753082833870967e-12
-1.136035744223850132e-12
