# bin_15_8
-6.092311396585422066e-10
-6.666036032847146326e-10
-7.119873832211386555e-10
-7.374792151369376194e-10
-7.365996895363154129e-10
-6.994479930155910851e-10
-6.271914876053701345e-10
-5.317253637628658988e-10
-4.354421484767775703e-10
-3.625454479521128215e-10
-3.135417137071720964e-10
-2.564465220728106857e-10
-1.810831668214994733e-10
-1.370876453297209059e-10
-1.055312811770359663e-10
-7.305115683586720211e-11
-5.339323514802956290e-11
-3.856192141369939507e-11
-2.747692738853843866e-11
-1.978864476605255605e-11
-1.445968902889253263e-11
-1.074917269671125658e-11
-8.134678965029168978e-12
-6.261821225101085641e-12
-4.877854370625507799e-12
-3.822333722140027940e-12
-2.992245438835561545e-12
-2.323705087181444984e-12
-1.779302670055195916e-12
-1.336657848795350229e-12
-9.812609331430700135e-13
