# bin_10_6
-6.168364104160937117e-10
-6.638166073475377123e-10
-6.944547357658984359e-10
-7.018034884671226888e-10
-6.778934035641022337e-10
-6.184859687276220333e-10
-5.336864841911431967e-10
-4.397436113298380321e-10
-3.620514986240977216e-10
-3.105566577649904218e-10
-2.623790209004977719e-10
-1.934271044893385759e-10
-1.389303694104713233e-10
-1.118096941677190673e-10
-7.642793884156740309e-11
-5.793957732661867276e-11
-4.106717541808079623e-11
-2.956576095879634039e-11
-2.158229212158953972e-11
-1.593860724217646206e-11
-1.196778035591753047e-11
-9.141103933249717959e-12
-7.098509892745425851e-12
-5.572519718432455347e-12
-4.393526798705615753e-12
-3.455140706058964053e-12
-2.691384244607489042e-12
-2.064110669653149113e-12
-1.550749782109545575e-12
-1.136856383803920945e-12
-8.114346471339477835e-13
