# bin_4_3
-4.596602709391812357e-10
-4.711821079354160355e-10
-4.646217665003231328e-10
-4.344783552765541333e-10
-3.841502713620060511e-10
-3.219386314914396535e-10
-2.636507854542987040e-10
-2.217581575594339913e-10
-1.907613517881440274e-10
-1.507855895829928989e-10
-1.064962783159721800e-10
-8.335947433674653631e-11
-6.162188540358499981e-11
-4.481529084779791663e-11
-3.252383246690504026e-11
-2.400633499888312565e-11
-1.772514480921390838e-11
-1.329202889647114252e-11
-1.015671273651901692e-11
-7.899412442787143348e-12
-6.234739614797277184e-12
-4.964558341474685896e-12
-3.958945531740120117e-12
-3.138893795404187687e-12
-2.457597679463828699e-12
-1.888664697889857854e-12
-1.417713757173890034e-12
-1.036154782154375098e-12
-7.363332610352661124e-13
-5.093201962411359064e-13
-3.437532888700597977e-13
