# bin_7_6
-2.094995076137955248e-10
-2.250262259983286071e-10
-2.348446285929264199e-10
-2.366775699680760338e-10
-2.276948741289080337e-10
-2.068558629840628339e-10
-1.777259398076748194e-10
-1.461446065845333661e-10
-1.205660583948630820e-10
-1.036832273519055409e-10
-8.706454550503724363e-11
-6.347011565594343051e-11
-4.607185033579064542e-11
-3.690600643212772096e-11
-2.517017996119448167e-11
-1.906109383597544323e-11
-1.359365193364569564e-11
-9.778056338955339011e-12
-7.146533671290685393e-12
-5.289273294115949289e-12
-3.982548876596847924e-12
-3.050611801575915880e-12
-2.374561196215757566e-12
-1.867093474874601621e-12
-1.473177622196635055e-12
-1.158360089539998616e-12
-9.014092785651313539e-13
-6.901210823241548219e-13
-5.172562796758539213e-13
-3.781124378816911794e-13
-2.690336503751792197e-13
