# bin_14_10
-2.979229846553070675e-10
-3.296060016690617538e-10
-3.569033289333361500e-10
-3.761450498466263553e-10
-3.832232410117989036e-10
-3.744576247251950239e-10
-3.458106667427730632e-10
-3.019903240124980418e-10
-2.503388083799915434e-10
-2.051578477307411212e-10
-1.747666368738414100e-10
-1.499735058693141176e-10
-1.138179172349487175e-10
-7.948906669772115214e-11
-6.444818401875281096e-11
-4.421025458433823982e-11
-3.330724315110473763e-11
-2.295164954708730278e-11
-1.635406302238091921e-11
-1.169101894969267716e-11
-8.403748119197115695e-12
-6.112949120813103372e-12
-4.515381458612731079e-12
-3.400709559234526117e-12
-2.604321429406318390e-12
-2.018704754854429975e-12
-1.574721317317235264e-12
-1.227257653089917446e-12
-9.490385939552972607e-13
-7.237652182279742331e-13
-5.417448210560061011e-13
