# bin_5_14
-1.996456955898551410e-34
-2.210314706810082785e-34
-2.395413887985264059e-34
-2.527242044922458566e-34
-2.577763989380353495e-34
-2.523206527559950295e-34
-2.334429970627767888e-34
-2.042336359338269126e-34
-1.694403714785391173e-34
-1.387506280986239111e-34
-1.180584632422289822e-34
-1.015647049731742613e-34
-7.743618199373548078e-35
-5.384260373618796598e-35
-4.372691264443928365e-35
-3.003739515954850405e-35
-2.264831864085103728e-35
-1.553490528929111508e-35
-1.107808910379056984e-35
-7.918758383370268288e-36
-5.691271152469063342e-36
-4.134927783068210685e-36
-3.049744009453197585e-36
-2.293722026722969614e-36
-1.754610081271786033e-36
-1.359037389731861313e-36
-1.059826698561709917e-36
-8.261120281760603356e-37
-6.391960751094450038e-37
-4.879057527432412030e-37
-3.656248616309931408e-37
