# bin_12_7
-5.877896941788957320e-10
-6.383554304815224801e-10
-6.755007528982279968e-10
-6.917065901817397403e-10
-6.808467122579767420e-10
-6.344858731530013103e-10
-5.589616371037674647e-10
-4.664608102968957495e-10
-3.817061687916922676e-10
-3.225265447521768815e-10
-2.780930226590125378e-10
-2.169674721162240098e-10
-1.512363700061909276e-10
-1.205611977235938519e-10
-8.637040050857201118e-11
-6.350440321468150846e-11
-4.456308181560365822e-11
-3.243942636275682460e-11
-2.343075875942053412e-11
-1.707555141271353809e-11
-1.264583584605406069e-11
-9.523883323077583695e-12
-7.302820458252465562e-12
-5.680699112258271118e-12
-4.456328340837659741e-12
-3.502572030835652235e-12
-2.738674172300933561e-12
-2.116341026267205189e-12
-1.607293374830768298e-12
-1.194319382588380604e-12
-8.654257464414920766e-13
