# bin_4_2
-1.065509584093993094e-09
-1.066528512326141295e-09
-1.017849485856480215e-09
-9.184841772712753214e-10
-7.846554430119915800e-10
-6.452764908556131333e-10
-5.349883446925804967e-10
-4.590257957759994321e-10
-3.792808748749976312e-10
-2.765139104032476069e-10
-2.050700916209908814e-10
-1.603664684447183158e-10
-1.133210248213728862e-10
-8.486865709576914275e-11
-6.192104811683821648e-11
-4.579055998777155426e-11
-3.441264389697149639e-11
-2.632008389523352934e-11
-2.050132833539373815e-11
-1.621082242114744222e-11
-1.294668687329988277e-11
-1.036527304560034796e-11
-8.257572073297726023e-12
-6.500729835185032684e-12
-5.025788946637307987e-12
-3.796554613358808407e-12
-2.792782168543137376e-12
-1.997640667127448212e-12
-1.390449192397123830e-12
-9.439744166748837352e-13
-6.271051557789818027e-13
