# bin_11_6
-7.161831172480668243e-10
-7.708519819962447030e-10
-8.065917129663582577e-10
-8.153131534631056005e-10
-7.877981779217882938e-10
-7.190147940273067785e-10
-6.206536648900008109e-10
-5.114919901142796879e-10
-4.210574737977376612e-10
-3.610908083883947903e-10
-3.052210412704830782e-10
-2.252205088175427253e-10
-1.616335584595793647e-10
-1.301201206025072465e-10
-8.896972828028867922e-11
-6.744674002622357931e-11
-4.778354918989610093e-11
-3.440448372674628951e-11
-2.511157268132630815e-11
-1.854151364001409905e-11
-1.391901721584098230e-11
-1.062895278739340180e-11
-8.252252399418403448e-12
-6.477352709520681642e-12
-5.106585309803075430e-12
-4.015938295581515984e-12
-3.128468050554130617e-12
-2.399665114492760105e-12
-1.803200100572759857e-12
-1.322241453531361724e-12
-9.439986799034831098e-13
