# bin_12_16
-1.057278043239396222e-15
-1.187264471124739215e-15
-1.309276355399147360e-15
-1.411563670632959641e-15
-1.479136486031616334e-15
-1.496908981929349348e-15
-1.447739503687032949e-15
-1.321501159935215651e-15
-1.140659827133054558e-15
-9.392965865865179271e-16
-7.731044590746021278e-16
-6.647266416914607317e-16
-5.631443847354896287e-16
-4.124883074713176410e-16
-2.939265300763321624e-16
-2.383069866029725297e-16
-1.579255794470798150e-16
-1.198265216009116360e-16
-8.282185898586412864e-17
-5.739978805133682892e-17
-4.032413478136063279e-17
-2.836328494858219441e-17
-2.015786468087270234e-17
-1.452831199135786264e-17
-1.068257471783175921e-17
-8.004320123869839888e-18
-6.097813467829774244e-18
-4.701916712969538198e-18
-3.644421790842748948e-18
-2.818797527433354467e-18
-2.160551874686948641e-18
