# bin_5_18
-5.015667345704148714e-52
-5.611912703304036645e-52
-6.161248253902016179e-52
-6.606179678850430956e-52
-6.874235454888477083e-52
-6.902029940457307642e-52
-6.598320902129730103e-52
-5.953079905392391082e-52
-5.076983563048521970e-52
-4.162057346460758432e-52
-3.449960098696091338e-52
-2.984346501849095392e-52
-2.475951187137712791e-52
-1.759477139486389575e-52
-1.303855889074869787e-52
-1.024446921671782865e-52
-6.894981748638555879e-53
-5.098425883343449018e-53
-3.606712608431170475e-53
-2.512987700478923356e-53
-1.764710092799362943e-53
-1.248814709636034879e-53
-8.965848788537018284e-54
-6.543207537591517431e-54
-4.870841639929919410e-54
-3.690472926766474612e-54
-2.836479739434420216e-54
-2.198973699582439135e-54
-1.707129363920857625e-54
-1.317664302739196077e-54
-1.004772395612763560e-54
