# bin_7_5
-4.603637325941512806e-10
-4.894272219455579147e-10
-5.042256633235299417e-10
-5.003703694131779047e-10
-4.713259059596212474e-10
-4.195221467063191858e-10
-3.533392822782215565e-10
-2.891884322235005679e-10
-2.420932631102164053e-10
-2.090588618990056695e-10
-1.679506134502617665e-10
-1.181916244131813574e-10
-9.142325354831037238e-11
-6.871530073973581897e-11
-4.897243458404902045e-11
-3.550384270750460767e-11
-2.599802905004429808e-11
-1.889345261519668910e-11
-1.391222448991927593e-11
-1.042586075449961514e-11
-7.955066042580534925e-12
-6.172759820506332379e-12
-4.851721528308345940e-12
-3.837092242291983547e-12
-3.032381984638219215e-12
-2.377973134796640076e-12
-1.838443871690601634e-12
-1.393651954043612990e-12
-1.031478301267373370e-12
-7.432188487668197964e-13
-5.209949812700088772e-13
