# bin_14_1
-3.545343496001295968e-09
-3.421397818966938684e-09
-3.126681775131793393e-09
-2.705530332766553830e-09
-2.240908383112791993e-09
-1.848790897949074596e-09
-1.573710394337378015e-09
-1.320739484094255647e-09
-9.953473053788104323e-10
-7.236361191462342979e-10
-5.675444821959122235e-10
-4.088835614928365047e-10
-3.043773521677460338e-10
-2.226234982567776894e-10
-1.657579626518530168e-10
-1.249501211359328431e-10
-9.589775796739128451e-11
-7.498699388593702887e-11
-5.953351133374862768e-11
-4.773451986568770283e-11
-3.836724520255138546e-11
-3.068018614841635964e-11
-2.423736795957377486e-11
-1.879957666186708712e-11
-1.424572406527880415e-11
-1.051086997712218680e-11
-7.541763988587139736e-12
-5.266057533833189196e-12
-3.586627601835201429e-12
-2.390138262814096350e-12
-1.563704176393218204e-12
