# bin_7_10
-9.497679063622335990e-15
-1.042197209239388483e-14
-1.117129461431642608e-14
-1.162379313862225336e-14
-1.167209392151943366e-14
-1.116453244954787655e-14
-1.008029814229834908e-14
-8.604538337156496723e-15
-7.056262207384651969e-15
-5.843558176308241573e-15
-5.047686505780074991e-15
-4.194800675119809948e-15
-2.997658794325332333e-15
-2.215855160443242170e-15
-1.750490167987142062e-15
-1.187099456296476530e-15
-8.867175884971551707e-16
-6.335242334657241265e-16
-4.492970476948096571e-16
-3.228240284059922566e-16
-2.346687819753001611e-16
-1.735349930373360766e-16
-1.306054009914715518e-16
-1.000753309363366828e-16
-7.769985003346158169e-17
-6.077998309413123347e-17
-4.757930693121424917e-17
-3.700602377432999615e-17
-2.841890862287308737e-17
-2.143550782283076046e-17
-1.581442693265194807e-17
