# bin_10_1
-3.193294055697663373e-09
-3.080501609514900135e-09
-2.814014078011846854e-09
-2.434042245435664009e-09
-2.015648317161785043e-09
-1.663198082395023433e-09
-1.415995054070069769e-09
-1.187789402300618728e-09
-8.944071607940861299e-10
-6.505972105604462844e-10
-5.102196528577951902e-10
-3.674434669514324436e-10
-2.735998567575945459e-10
-2.001226541910726953e-10
-1.490168324618160988e-10
-1.123529232578911521e-10
-8.624780529971344243e-11
-6.745452829534028843e-11
-5.356174693831925565e-11
-4.295045239436989249e-11
-3.452283827132141650e-11
-2.760479473128863561e-11
-2.180544859635152901e-11
-1.691051432421414457e-11
-1.281162944707254247e-11
-9.450606065604781237e-12
-6.779436612631881693e-12
-4.732740425080045607e-12
-3.222781701165181129e-12
-2.147327361073861048e-12
-1.404666444240343699e-12
