# bin_2_1
-8.975958250907547362e-10
-8.581164010895173458e-10
-7.763054341165973822e-10
-6.652652419430668131e-10
-5.483958390058983371e-10
-4.542741514153469252e-10
-3.884405399051942773e-10
-3.217544505283859895e-10
-2.373976761272527465e-10
-1.751702143792656795e-10
-1.369077480637743208e-10
-9.778160847690650524e-11
-7.321372064902143154e-11
-5.365914192619438438e-11
-4.002905690215477774e-11
-3.032822975718809064e-11
-2.340278910511151955e-11
-1.839102453794004506e-11
-1.465838522115451667e-11
-1.178119052467965664e-11
-9.474563590639112076e-12
-7.567313371643335328e-12
-5.961532093262190975e-12
-4.604747178955085065e-12
-3.471103488554139117e-12
-2.546206663943840936e-12
-1.816184539665811921e-12
-1.261175903096090524e-12
-8.547925479968692512e-13
-5.673037814280905902e-13
-3.699055586240279930e-13
