# bin_6_9
-6.894296499285863815e-15
-7.515020011317913217e-15
-7.988791094988749258e-15
-8.225342517265987174e-15
-8.155935725348146935e-15
-7.668945968842136036e-15
-6.813082319969760831e-15
-5.723915692088966903e-15
-4.680700920862095147e-15
-3.926899836681369457e-15
-3.398405251164903408e-15
-2.715427471222258021e-15
-1.891081368126116243e-15
-1.478753200095943860e-15
-1.095869700858294718e-15
-7.830827170659330340e-16
-5.555284330216838364e-16
-4.060154717983172133e-16
-2.913190928293197809e-16
-2.107950420125908748e-16
-1.551613146050482590e-16
-1.161671453161267324e-16
-8.855826639392923254e-17
-6.857843392369551895e-17
-5.364571549593700777e-17
-4.212493438110176505e-17
-3.297031462822146153e-17
-2.554641126604197280e-17
-1.948212425949787744e-17
-1.455415207422404379e-17
-1.061190459391022212e-17
