# bin_9_1
-3.068968063227423876e-09
-2.960114370724123684e-09
-2.703595715747090183e-09
-2.338166430373735939e-09
-1.936097892883883184e-09
-1.597656118319273350e-09
-1.360297999834351840e-09
-1.140838179826346377e-09
-8.587602230158594519e-10
-6.248035741996603183e-10
-4.899754318029037435e-10
-3.528089281234018501e-10
-2.627308069951341497e-10
-1.921764977734572637e-10
-1.431047147428751621e-10
-1.079042321864245095e-10
-8.283993170372619438e-11
-6.479444369766044205e-11
-5.145282281125158379e-11
-4.126096255159313994e-11
-3.316518884496363340e-11
-2.651872255585948914e-11
-2.094661809207597039e-11
-1.624339336939812796e-11
-1.230517999992897261e-11
-9.076174651947691614e-12
-6.510221263739238558e-12
-4.544399881543811923e-12
-3.094289789094713762e-12
-2.061578869444053142e-12
-1.348502385734967749e-12
