# bin_7_3
-1.262760949016284745e-09
-1.299069132001115125e-09
-1.286898587995588655e-09
-1.210562833126996244e-09
-1.076492029777386690e-09
-9.067443435466143332e-10
-7.428754202816867323e-10
-6.220994298048656084e-10
-5.355777569366503126e-10
-4.292982089218205755e-10
-3.046964784496078580e-10
-2.349709505087745575e-10
-1.769493888934282695e-10
-1.269257206630745764e-10
-9.297520191299510858e-11
-6.834794598484864127e-11
-5.029426055933808123e-11
-3.760474709777344469e-11
-2.863569134118104935e-11
-2.220075008766815065e-11
-1.747518951107290715e-11
-1.389194861700334089e-11
-1.107174129959969202e-11
-8.782911257055519125e-12
-6.887269877146780797e-12
-5.305869750589533547e-12
-3.995556456268983316e-12
-2.930929698346761347e-12
-2.090760392544180990e-12
-1.451389058337607369e-12
-9.826861957228408567e-13
