# bin_4_19
-1.151610310898477052e-64
-1.290504722850840428e-64
-1.419515188504051867e-64
-1.525608930435314911e-64
-1.592293515930483142e-64
-1.604215095597247475e-64
-1.541225449808192741e-64
-1.397269245299914024e-64
-1.197650407649818294e-64
-9.833973303967349018e-65
-8.124997535393517675e-65
-7.013716639714260750e-65
-5.874501090480210198e-65
-4.224147105177009191e-65
-3.077108835750599649e-65
-2.456150141114942799e-65
-1.636637436711815205e-65
-1.227435673552273607e-65
-8.595438196697629781e-66
-5.971893304652169616e-66
-4.193770653758853600e-66
-2.957837129376432700e-66
-2.114249327444108263e-66
-1.534914174515652864e-66
-1.136824222557360695e-66
-8.574642618097017496e-67
-6.567433457276200245e-67
-5.081126987811838069e-67
-3.942880570840755272e-67
-3.046544485268736091e-67
-2.328433912071321465e-67
