# bin_8_20
-2.878327170477095836e-41
-3.241098501808180229e-41
-3.586028462477536661e-41
-3.882007820842340872e-41
-4.088750111201478270e-41
-4.161589556398686180e-41
-4.059739010794580378e-41
-3.740482714193607583e-41
-3.259073283650502034e-41
-2.696728669729273855e-41
-2.211276357799838331e-41
-1.889164020179704386e-41
-1.619712030964987206e-41
-1.217865270733189754e-41
-8.495610771741916134e-42
-6.925785598188349250e-42
-4.646167589200530357e-42
-3.520560106657373959e-42
-2.392824955611237137e-42
-1.664393086827697434e-42
-1.168012275626393224e-42
-8.196574226494490999e-43
-5.782581967404810078e-43
-4.127445852017033795e-43
-3.003946984288351905e-43
-2.229096213490893242e-43
-1.684165154288873730e-43
-1.291232679553270600e-43
-9.981737324460466816e-44
-7.724092065918973580e-44
-5.939634042939631680e-44
