# bin_6_3
-1.049399324285598957e-09
-1.079067610885642823e-09
-1.068321826008563589e-09
-1.004177821104575164e-09
-8.922981584716771975e-10
-7.510943892464273487e-10
-6.153109521885511672e-10
-5.155629707294084037e-10
-4.438277845442107272e-10
-3.551264758971077279e-10
-2.518688449812677751e-10
-1.946113763630607443e-10
-1.462155367227195872e-10
-1.050565278429100613e-10
-7.686496577454492280e-11
-5.653724224171178154e-11
-4.162041000916250351e-11
-3.113084884571268140e-11
-2.371638908543003379e-11
-1.839454025989338652e-11
-1.448428998185263749e-11
-1.151688046641535074e-11
-9.179568751528365540e-12
-7.281452542761952844e-12
-5.708752457207459831e-12
-4.396571704148900348e-12
-3.309452922061748514e-12
-2.426490586756911535e-12
-1.730069650020350661e-12
-1.200438569398909523e-12
-8.124408787141448728e-13
