# bin_9_15
-9.542647554280919629e-21
-1.065545108970267159e-20
-1.166950049085682538e-20
-1.247359659365552261e-20
-1.292816696976111802e-20
-1.292096549929993694e-20
-1.227290161951225283e-20
-1.100542056977035208e-20
-9.326878388539890110e-21
-7.635083892884918860e-21
-6.359014046296415040e-21
-5.508902891022334117e-21
-4.507791665932885930e-21
-3.163203972163978154e-21
-2.396955656358591408e-21
-1.839346610222980332e-21
-1.260571084392621822e-21
-9.112317004634368797e-22
-6.530143294936207972e-22
-4.568984005046127870e-22
-3.211649355303356794e-22
-2.284876990740045621e-22
-1.649760084667748438e-22
-1.211814347595436540e-22
-9.076646319518333445e-23
-6.913707481145005485e-23
-5.334790382546090391e-23
-4.144270444285882110e-23
-3.217681477431780771e-23
-2.479427045050488355e-23
-1.884734531535253509e-23
