# bin_20_2
-2.999977622040872079e-09
-3.012486788781783170e-09
-2.887667916858279996e-09
-2.617642165145562382e-09
-2.246063797718647832e-09
-1.850249657524058621e-09
-1.530330448107637372e-09
-1.310809734811164493e-09
-1.091135562195005738e-09
-8.028482971508890313e-10
-5.895404104210614837e-10
-4.638358760610446837e-10
-3.276784817236650028e-10
-2.456785805404597590e-10
-1.786376997463928414e-10
-1.320271082098839939e-10
-9.901776738186196620e-11
-7.554234024011710165e-11
-5.870112781008422332e-11
-4.632305736486600960e-11
-3.694800729146071308e-11
-2.956760408187725885e-11
-2.356394280419218230e-11
-1.857178572907964461e-11
-1.438428252679880847e-11
-1.089191362701418263e-11
-8.033912173061850482e-12
-5.762728138895142448e-12
-4.021781984683285417e-12
-2.736820370242993207e-12
-1.821743517341315943e-12
