# bin_11_5
-9.887874677360899550e-10
-1.052508569431877628e-09
-1.086004931248908321e-09
-1.079764209408658030e-09
-1.019675195264327981e-09
-9.098139002494215142e-10
-7.680432735137382914e-10
-6.288104371800780317e-10
-5.253997583513884363e-10
-4.536856571024592238e-10
-3.666410026155655653e-10
-2.588267420543806300e-10
-1.986970414767010987e-10
-1.506748749739520678e-10
-1.066433144234697054e-10
-7.775526209281329976e-11
-5.680030257102354053e-11
-4.121236159417792683e-11
-3.031037976460135117e-11
-2.267783147744832754e-11
-1.727614475309040155e-11
-1.338552362649497726e-11
-1.050952508843327657e-11
-8.306677289883645287e-12
-6.563950293544419449e-12
-5.149471464755585321e-12
-3.984504882356402160e-12
-3.024248750649711444e-12
-2.241807691962461281e-12
-1.618131768477463076e-12
-1.136331354261700995e-12
