# bin_4_20
-1.464478941981389657e-69
-1.644681421979518469e-69
-1.813906742376754451e-69
-1.955892273404638043e-69
-2.049884114417753575e-69
-2.074925700935178433e-69
-2.007354113651772945e-69
-1.832858110977591204e-69
-1.582514003637087675e-69
-1.303303776341977606e-69
-1.072523426251952246e-69
-9.220176218851106300e-70
-7.815117956789765790e-70
-5.728799285996753743e-70
-4.078121275974772222e-70
-3.308934843975245712e-70
-2.192050182285968871e-70
-1.664184632188088167e-70
-1.149612954125508601e-70
-7.966064088240174939e-71
-5.596298254958003470e-71
-3.935739109618150007e-71
-2.796339132691339152e-71
-2.014668525819369014e-71
-1.480835028916129481e-71
-1.109197263374846974e-71
-8.447682016908046203e-72
-6.512671006509736892e-72
-5.047549429353829082e-72
-3.904184186256974371e-72
-2.992855219413250800e-72
