# bin_3_18
-1.953067146011547895e-68
-2.182008327952760612e-68
-2.391258018616524771e-68
-2.558156156366633469e-68
-2.654223691869569172e-68
-2.656057110729991911e-68
-2.527208624891358349e-68
-2.269882561839912716e-68
-1.926859798336891539e-68
-1.577854644316200816e-68
-1.312401978159331086e-68
-1.136655115888593689e-68
-9.337033555224419628e-69
-6.572034490621112370e-69
-4.950378749894336396e-69
-3.823956094573684018e-69
-2.606708297488503850e-69
-1.896338139957326991e-69
-1.354509290016437539e-69
-9.465996547265741873e-70
-6.650894916804198597e-70
-4.724524421046735813e-70
-3.406071169505775058e-70
-2.497571677676826523e-70
-1.867668049236331160e-70
-1.420631736159879912e-70
-1.095088268608780820e-70
-8.502771344799870726e-71
-6.601751716679470677e-71
-5.089502355717966734e-71
-3.872106164960686889e-71
