# bin_8_8
-4.952260024176254851e-11
-5.401530865475718923e-11
-5.746578507054445022e-11
-5.922637461929939640e-11
-5.879894785395523353e-11
-5.537851082707026762e-11
-4.927391337232395071e-11
-4.145798229854592627e-11
-3.390790042295733683e-11
-2.840971284543839230e-11
-2.458640910206219108e-11
-1.972700200843144936e-11
-1.376433951275852304e-11
-1.070498294164820613e-11
-7.987889580466174643e-12
-5.673286932580927545e-12
-4.045688369108032656e-12
-2.952519389860295733e-12
-2.115755234833222556e-12
-1.529312439853921831e-12
-1.124264859000607852e-12
-8.407409933647811994e-13
-6.401609245238712239e-13
-4.952561401604788603e-13
-3.871605281905071006e-13
-3.039215293671638125e-13
-2.378887284328202723e-13
-1.843971709811577986e-13
-1.407221144796425672e-13
-1.052258987398198747e-13
-7.681154195774631570e-14
