# bin_14_17
-4.863095482569594042e-14
-5.481080895869648772e-14
-6.071080404968874036e-14
-6.581083650775837456e-14
-6.943308330341373321e-14
-7.080615005746437918e-14
-6.926823908283134111e-14
-6.402902517266055955e-14
-5.596649719973847040e-14
-4.640192228863536139e-14
-3.801750645006804182e-14
-3.239883056956259263e-14
-2.785915632070617679e-14
-2.114092139355404412e-14
-1.468531615738924518e-14
-1.193933528411263060e-14
-8.094099522863691707e-15
-6.095205561783815574e-15
-4.124423102856316546e-15
-2.882730339512080995e-15
-2.019167666187258991e-15
-1.414166485173556207e-15
-9.951799388041296065e-16
-7.080438198706247074e-16
-5.134424154706194040e-16
-3.796567081883420216e-16
-2.859449398914851478e-16
-2.187237648141513175e-16
-1.688685094706409961e-16
-1.306559423514991808e-16
-1.005611589269429329e-16
