# bin_10_19
-2.086185817032239047e-28
-2.349226349743765461e-28
-2.599381283459609713e-28
-2.814114392753975529e-28
-2.964232372853093916e-28
-3.017323690490070511e-28
-2.943889524687545111e-28
-2.712814305831236822e-28
-2.364039823373096313e-28
-1.956312854121062548e-28
-1.604073657194793146e-28
-1.370249621077367768e-28
-1.174996239988335111e-28
-8.838774408505471852e-29
-6.164293049399953216e-29
-5.024812808855724636e-29
-3.372400943498088930e-29
-2.554788566016923829e-29
-1.735982051162866212e-29
-1.207740422841397536e-29
-8.474916006323168259e-30
-5.946887836966172351e-30
-4.194947146762126704e-30
-2.993762901884573864e-30
-2.178473201017654067e-30
-1.616275086949198676e-30
-1.220974370447242124e-30
-9.360079530844071856e-31
-7.235300837946815108e-31
-5.598823997053146839e-31
-4.305557047659649996e-31
