# bin_18_9
-6.016685578268993863e-10
-6.624062804988397096e-10
-7.129499287333204426e-10
-7.457094428011553169e-10
-7.532535107943188790e-10
-7.267908459415366471e-10
-6.620562563232342625e-10
-5.703074930618609993e-10
-4.693712743081918338e-10
-3.867293756783434456e-10
-3.324886093521291569e-10
-2.805266619862191824e-10
-2.051195365163447002e-10
-1.474878424556018088e-10
-1.187943357753142031e-10
-8.000049609739172547e-11
-6.060595835064644108e-11
-4.258274037995764821e-11
-3.013703503211520300e-11
-2.163612998563533114e-11
-1.565976616414319533e-11
-1.150352609427011235e-11
-8.593703629726659561e-12
-6.541854807490771107e-12
-5.053548447703037703e-12
-3.940561270432314970e-12
-3.081765994512843908e-12
-2.399720590488753130e-12
-1.848488124691612346e-12
-1.400680133764771557e-12
-1.039511569175225136e-12
