# bin_14_9
5.384105194692579783e-08
4.945735680100680322e-08
4.422591591958290519e-08
3.847428352470989692e-08
3.259741361327343326e-08
2.699017955626683511e-08
2.195163622910500180e-08
1.761303587452425342e-08
1.394370178751599322e-08
1.083641606071305897e-08
8.237989889225812848e-09
6.179427464871419540e-09
4.644834948262554172e-09
3.494209511247462564e-09
2.624317564073079294e-09
1.990346676668482886e-09
1.519619745460810917e-09
1.170688325190041748e-09
9.077513008936434313e-10
7.064394756344389797e-10
5.496734725017737190e-10
4.258524192455883362e-10
3.271998753800028740e-10
2.484274548655646678e-10
1.858353840892791537e-10
1.366467437637118212e-10
9.860691047445677196e-11
6.976835025738834918e-11
4.839049359610173141e-11
3.291713439513106106e-11
2.198479709049192855e-11
