# bin_18_7
5.002639874441763397e-08
4.556662606525642433e-08
4.037591325335215937e-08
3.479640540117886097e-08
2.922204431457623044e-08
2.402210672990429727e-08
1.943776654708028664e-08
1.553582267990497284e-08
1.223537648303720830e-08
9.431014300368010805e-09
7.115445785685452739e-09
5.337112690544809873e-09
4.024543753508030582e-09
3.023578278642649767e-09
2.282836301878424608e-09
1.739369274799643350e-09
1.336542917253926835e-09
1.035410553392875064e-09
8.069178691714679443e-10
6.302742134339403006e-10
4.913518964797876811e-10
3.806966700451722215e-10
2.919826747954337197e-10
2.209131968487627365e-10
1.644247454426873457e-10
1.201395899910560004e-10
8.605750890263682347e-11
6.039670322642935393e-11
4.153550006751015149e-11
2.801477449724010417e-11
1.855946002043014637e-11
