# bin_11_7
4.476424357859657716e-08
4.047255344608530350e-08
3.560687390344029080e-08
3.049031647195015359e-08
2.547305934421796525e-08
2.085908875502453926e-08
1.682594751007773933e-08
1.340165699724212989e-08
1.050738980949092433e-08
8.066124975172176601e-09
6.079865160351760586e-09
4.568146397044198582e-09
3.447360392807135280e-09
2.595353026366353345e-09
1.966990286168265618e-09
1.503842362445892025e-09
1.159726442070681381e-09
9.010472608681886094e-10
7.035009895492695589e-10
5.498247015616120673e-10
4.283363771023001793e-10
3.312375833792164981e-10
2.532938210472155863e-10
1.909094148339848718e-10
1.414611601430127225e-10
1.028596523682236504e-10
7.330959891031261693e-11
5.119395439840458316e-11
3.504031701153987855e-11
2.353223625294742725e-11
1.553119066639532170e-11
