# bin_10_7
4.355563542541116309e-08
3.930254983956218593e-08
3.451152338868614970e-08
2.950129599241023968e-08
2.461199421312997064e-08
2.013260830379150962e-08
1.622606620713712321e-08
1.291148285581977958e-08
1.011050659395935333e-08
7.752637778613616193e-09
5.842013530856520689e-09
4.391530700429435621e-09
3.314793265486036700e-09
2.496998511343319541e-09
1.894447000473031177e-09
1.449746700122423833e-09
1.119115361582447557e-09
8.701867944970608107e-10
6.797482697954625344e-10
5.313471078441247317e-10
4.138630083248180948e-10
3.198778453361719925e-10
2.444077822881960440e-10
1.840181578462964889e-10
1.361868917571638245e-10
9.889080166145887768e-11
7.038166267124990353e-11
4.908026971662948785e-11
3.354850533856440386e-11
2.250268835612978232e-11
1.483565888829831732e-11
