# bin_19_18
7.696809930876950908e-08
7.299714760647854723e-08
6.753444407772835926e-08
6.084011659966073844e-08
5.332290748533383865e-08
4.549646477763992681e-08
3.789613038471241109e-08
3.096104829167851236e-08
2.492379470925326364e-08
1.979500999547307819e-08
1.545051079096758153e-08
1.179563186277852878e-08
8.846599223465591333e-09
6.611565011005834307e-09
4.947242703894036281e-09
3.686096657464425411e-09
2.760661767961008562e-09
2.080995725870875634e-09
1.580421097708106634e-09
1.208432090354904259e-09
9.286834750985072990e-10
7.150627706029994090e-10
5.496308341749640505e-10
4.201796942808476004e-10
3.183393691841659734e-10
2.382871600172499476e-10
1.757909566979705844e-10
1.275759322597606566e-10
9.096639091247665377e-11
6.368956889714419304e-11
4.378481428228817605e-11
