# bin_14_11
5.881719030292304053e-08
5.447561336547233980e-08
4.914107262561041480e-08
4.313136047859359972e-08
3.685164518593297058e-08
3.073066296417407393e-08
2.512888199528453284e-08
2.024538955327383320e-08
1.609937272263771863e-08
1.259206590693177422e-08
9.639063864995973034e-09
7.248378075105398478e-09
5.433752185187570536e-09
4.085375872988160408e-09
3.061851902197289818e-09
2.308873875191677708e-09
1.754523630187471279e-09
1.344155017585614251e-09
1.037102277534274362e-09
8.041271780738628399e-10
6.243258747199607769e-10
4.834533949002374139e-10
3.719075686983820804e-10
2.831678183070292649e-10
2.127186200575303807e-10
1.572643466432848138e-10
1.142119401887672502e-10
8.138428643182586484e-11
5.687237767565690734e-11
3.898252547917416876e-11
2.622937900327406456e-11
