# bin_18_16
7.289846946689369522e-08
6.880697892693698134e-08
6.333060852396306076e-08
5.674621137419256899e-08
4.946733035912336286e-08
4.199507566115854235e-08
3.483234434357937469e-08
2.836656429139014195e-08
2.277685811978686055e-08
1.803862938028208008e-08
1.402534233071535998e-08
1.066569021633640999e-08
7.988039052575420386e-09
5.977735017504726367e-09
4.474852153992266016e-09
3.338499367803376684e-09
2.508950088635311525e-09
1.896897323239266564e-09
1.445856050399094991e-09
1.109218983425422980e-09
8.547079582095330806e-10
6.592917055131877642e-10
5.071771027554939299e-10
3.876451940158703955e-10
2.933406753752914825e-10
2.191210167120627981e-10
1.611942156961432850e-10
1.165778496781980611e-10
8.279604234571062830e-11
5.772061766444990335e-11
3.950402039775806282e-11
