# bin_8_6
3.782507929844119139e-08
3.374180411300359430e-08
2.929286314911871338e-08
2.477826453167528199e-08
2.049239014663045025e-08
1.665290459226780646e-08
1.335146193069623900e-08
1.056154266488200609e-08
8.204963337062622662e-09
6.244021639269520087e-09
4.696511185885291450e-09
3.542059034648999153e-09
2.676605204211291108e-09
2.023590907992025845e-09
1.545687465702184568e-09
1.189879483920697954e-09
9.242235899774677098e-10
7.222867988230745082e-10
5.660360571354438294e-10
4.429584464537706392e-10
3.446567836394697953e-10
2.655581528355244654e-10
2.018975434352814689e-10
1.510240790837152225e-10
1.109069118328973630e-10
7.984305177314762653e-11
5.630978194734450701e-11
3.890725556547252182e-11
2.635880489939659267e-11
1.753486912663091126e-11
1.147616169492432082e-11
