# bin_19_9
5.771116192908021941e-08
5.327344614789755083e-08
4.787193971096696149e-08
4.183827141998346366e-08
3.558879343596827363e-08
2.955822332929034216e-08
2.409587946764108732e-08
1.937390387170535685e-08
1.537842827938878632e-08
1.198918131682739533e-08
9.133388371601335651e-09
6.848612998886751086e-09
5.142566309939102817e-09
3.867046339790741536e-09
2.897722032943884871e-09
2.192691591846926446e-09
1.669689319961454543e-09
1.283330982730835023e-09
9.932382026885479424e-10
7.720991966937367626e-10
6.006015606572053313e-10
4.655841702809922973e-10
3.582278808378306446e-10
2.725534563482670098e-10
2.044209219016036924e-10
1.507711248099674131e-10
1.091591430331749612e-10
7.749832693272355347e-11
5.393356979784405133e-11
3.680544482236629236e-11
2.465359596367313393e-11
