# bin_17_2
2.481410273773299941e-08
2.126089970484321897e-08
1.776560707677595856e-08
1.455210617569982347e-08
1.175093875654892785e-08
9.376669524763263699e-09
7.361588334796335454e-09
5.650835993472871090e-09
4.263226831045026602e-09
3.218627835500488992e-09
2.441238754956936641e-09
1.849620680352584700e-09
1.415757410426975455e-09
1.094092828545223069e-09
8.542704105031103299e-10
6.723374144626640320e-10
5.315356532654871317e-10
4.202019083622103929e-10
3.305915734113073807e-10
2.576763606904388181e-10
1.981813997512640123e-10
1.499065751490379869e-10
1.112370629670291360e-10
8.083588300524136249e-11
5.748034787933589288e-11
3.999687117063508914e-11
2.726027240586646537e-11
1.822845828625726966e-11
1.198445245555856980e-11
7.765329435702722392e-12
4.970484183846243507e-12
