# bin_4_2
1.890200129658720652e-08
1.600661416690797961e-08
1.325276666650546320e-08
1.078054650634652844e-08
8.651941624586338874e-09
6.853153383759542314e-09
5.335231202110749402e-09
4.072588969131529486e-09
3.074974083859218757e-09
2.329377910003252547e-09
1.770898257374828857e-09
1.349744251856683652e-09
1.040064506684011032e-09
8.088945186326803312e-10
6.348837254924632516e-10
5.012865834389395988e-10
3.965965183910123845e-10
3.129536313481634458e-10
2.451841798861950787e-10
1.899235641554257290e-10
1.449398501292976063e-10
1.086644251060763537e-10
7.986964448386075257e-11
5.748118730239682228e-11
4.048957770563217496e-11
2.792726564360789792e-11
1.888461832555024293e-11
1.254212711604449229e-11
8.199127280981624993e-12
5.288129187230962677e-12
3.372512409590525395e-12
