# bin_18_18
7.573577905286216459e-08
7.172796766269519671e-08
6.626068677331895149e-08
5.959915094023062390e-08
5.215360106120586645e-08
4.443395916334606495e-08
3.696581688250426098e-08
3.017277464692048935e-08
2.427122381051678551e-08
1.926107464389495150e-08
1.501723972971418053e-08
1.145196026879714372e-08
8.585203846500622422e-09
6.418493071335799555e-09
4.803439914149376513e-09
3.580211721722693164e-09
2.683998140603363140e-09
2.024929123971780674e-09
1.539464521572459022e-09
1.178243996899813805e-09
9.061867168868941007e-10
6.981122080881350750e-10
5.367349882207932993e-10
4.103018309287647030e-10
3.107523679348789750e-10
2.324717706263899121e-10
1.713625209557673097e-10
1.242391899392773819e-10
8.848716764754926533e-11
6.187782495400943188e-11
4.248495651130026939e-11
