# bin_16_6
4.496410673375091196e-08
4.057305133042146645e-08
3.560803127491889982e-08
3.040662492913813533e-08
2.533480008224873617e-08
2.070275577010132026e-08
1.667979799252465591e-08
1.327432730768685251e-08
1.038773646120444890e-08
7.945608708549583121e-09
5.973266611043272848e-09
4.492991127883492222e-09
3.391230092329629157e-09
2.551108011093732451e-09
1.937985659146822286e-09
1.483269207240029358e-09
1.146316754908966237e-09
8.924318924172938211e-10
6.979927630517450170e-10
5.462575203569533004e-10
4.259097811358896209e-10
3.294411282602156470e-10
2.518247641656350591e-10
1.896167049029974259e-10
1.402860520954315526e-10
1.017943892837111614e-10
7.236848563901879069e-11
5.039336638571802042e-11
3.438816195433425584e-11
2.302432071336658417e-11
1.515240758255303976e-11
