# bin_8_7
4.049132680212656226e-08
3.633621696415208496e-08
3.173457008633032047e-08
2.699402930658940129e-08
2.242922192663292092e-08
1.829109555553927253e-08
1.470551885188175064e-08
1.166903513015767808e-08
9.104529716217347505e-09
6.958069377812566646e-09
5.239199242358233805e-09
3.943937334878491044e-09
2.978815468566652481e-09
2.247735902760344171e-09
1.710600503360393757e-09
1.312647154956801375e-09
1.016187972857553781e-09
7.919699055904624042e-10
6.195436971996060444e-10
4.845112341008197626e-10
3.771756249552766040e-10
2.910822918041815816e-10
2.218824750887635118e-10
1.665494212138207127e-10
1.228172067826518759e-10
8.883040288090999148e-11
6.296002963508720428e-11
4.372277294794869385e-11
2.976741900254747135e-11
1.989336518137493570e-11
1.307296861312339428e-11
