# bin_18_15
7.126162211923445735e-08
6.712342954956481568e-08
6.164372004030767352e-08
5.510595694325191607e-08
4.792538503485363989e-08
4.059772627895857107e-08
3.361244502441909602e-08
2.733562797027579534e-08
2.192495338241761548e-08
1.734197729939399268e-08
1.346019078910197719e-08
1.021842064792745778e-08
7.649430801680102639e-09
5.728066792690418199e-09
4.288356463872990544e-09
3.201664224078668023e-09
2.409710174029823433e-09
1.824346360709643345e-09
1.392702156498550531e-09
1.069977293592987188e-09
8.253953247835272701e-10
6.371486593329752480e-10
4.902893756351975519e-10
3.746815413402444306e-10
2.833672834730336650e-10
2.114686383950098619e-10
1.553645812762649299e-10
1.121863767703004337e-10
7.953588786626416116e-11
5.534151864214399014e-11
3.780033209952653194e-11
