# bin_19_19
7.825729397022025881e-08
7.432846766102819355e-08
6.887464700782310660e-08
6.215030459403461014e-08
5.456210103873425907e-08
4.662694834374752420e-08
3.888974190602817626e-08
3.180550036891060853e-08
2.562415491941573200e-08
2.036849166923927098e-08
1.591648332632419772e-08
1.216654410108637033e-08
9.129942063601673515e-09
6.820957544663213528e-09
5.102967059102851842e-09
3.801061762734104156e-09
2.843736302150390837e-09
2.141721506202569141e-09
1.624653369588515166e-09
1.240954906939788966e-09
9.528469207037017823e-10
7.332127119032304752e-10
5.634008401675483875e-10
4.307035935163114779e-10
3.264109091047900722e-10
2.444702216221046268e-10
1.805004572841577587e-10
1.311280490197863366e-10
9.361012258496548837e-11
6.562591722090898597e-11
4.517784455315167191e-11
