# bin_12_4
3.399050751624915244e-08
2.995103724299179907e-08
2.567737594250285395e-08
2.146851426385984796e-08
1.759020543155454814e-08
1.420075533208393283e-08
1.132630480167662018e-08
8.893586625961532377e-09
6.832610135830342847e-09
5.152857240298851295e-09
3.880262610907018269e-09
2.936978532823424055e-09
2.217751608002965201e-09
1.689194841762287293e-09
1.298281327492200263e-09
1.007521726212161619e-09
7.879926554489106329e-10
6.192968286991061453e-10
4.870321220313864839e-10
3.815313229078991718e-10
2.964278845103546932e-10
2.275109266809584508e-10
1.719243650448616675e-10
1.275853081988179798e-10
9.280967284195474838e-11
6.610951961144113469e-11
4.610263229534043217e-11
3.149523504454090055e-11
2.110631146664581792e-11
1.390173502017341329e-11
9.019721610671008733e-12
