# bin_10_1
1.764263310237119435e-08
1.479900315462779847e-08
1.215958963267270037e-08
9.840118648773406663e-09
7.866851350245722270e-09
6.195411380186860263e-09
4.778199877897163145e-09
3.618547880893779556e-09
2.733580379372810175e-09
2.076636879225369897e-09
1.578186807875634092e-09
1.209330493694978895e-09
9.367924031034054360e-10
7.330043941649419262e-10
5.783704699903077844e-10
4.585291180554796631e-10
3.635798122166114810e-10
2.869498110699798442e-10
2.243861546583337172e-10
1.731438614662555084e-10
1.313956016322391840e-10
9.781438370834837525e-11
7.130471269444621743e-11
5.085774937274164496e-11
3.549336886825201445e-11
2.426015937161787934e-11
1.626700068211291361e-11
1.072284353720347029e-11
6.964919100264532661e-12
4.468297380929484635e-12
2.837530697509334464e-12
