# bin_7_6
3.614656530008472455e-08
3.213575519943607334e-08
2.780825838772353417e-08
2.345523535803643883e-08
1.935421974637093584e-08
1.570109930169276523e-08
1.256927280773320321e-08
9.924024395086445810e-09
7.692009346455710566e-09
5.844182338310067173e-09
4.396544801962286734e-09
3.318649676738597795e-09
2.508699006094864784e-09
1.899660441703221884e-09
1.453516911109173979e-09
1.120947788837903284e-09
8.720382210544879329e-10
6.823052728292171360e-10
5.350261468453210949e-10
4.186815780897334464e-10
3.255601394482948442e-10
2.505434453425985511e-10
1.901627809282716166e-10
1.419534435479561181e-10
1.040019591788494405e-10
7.468408080918302093e-11
5.253591932148442038e-11
3.620817327285743729e-11
2.447217463368687122e-11
1.624514985958446625e-11
1.061252576764871766e-11
