# bin_18_10
-4.750842803894245523e-10
-5.255872296135633528e-10
-5.691258780186950464e-10
-5.998665877550786838e-10
-6.112501215243363433e-10
-5.974796365136061207e-10
-5.520244582719419841e-10
-4.822853372173806731e-10
-3.998765042588202297e-10
-3.275597004767517618e-10
-2.787994903067326452e-10
-2.393296424534268358e-10
-1.819694305721641255e-10
-1.269455737452370076e-10
-1.028207970668144555e-10
-7.068571961017287519e-11
-5.315137207709964604e-11
-3.660298310415377931e-11
-2.609734959178671108e-11
-1.864340255980423027e-11
-1.339119183937888448e-11
-9.733855488240662394e-12
-7.184479050271468272e-12
-5.406814002361065029e-12
-4.137958660469864017e-12
-3.205883719044857974e-12
-2.499998069827978448e-12
-1.948095105053173002e-12
-1.506479236933206012e-12
-1.149040291921930934e-12
-8.602696232369005866e-13
