# bin_14_8
-5.440357471577336977e-10
-5.950610998508419128e-10
-6.353430569894522587e-10
-6.578385166268453486e-10
-6.567912147842597137e-10
-6.233905924265362883e-10
-5.587501680254681701e-10
-4.734986334915227132e-10
-3.876381026656666912e-10
-3.226916559196923677e-10
-2.790101542856021231e-10
-2.280700490903910562e-10
-1.609618832342785526e-10
-1.218872793777854233e-10
-9.375964998939280395e-11
-6.491363805142948133e-11
-4.741483587297416519e-11
-3.424487363913804273e-11
-2.439806854126815466e-11
-1.756869093741640434e-11
-1.283656964178809651e-11
-9.542033027923148054e-12
-7.220891813404505216e-12
-5.558177101140544733e-12
-4.329438154930508512e-12
-3.392235781402485456e-12
-2.655143964725990889e-12
-2.061497214415662307e-12
-1.578124993373191563e-12
-1.185182668517279652e-12
-8.697875254045485291e-13
