# bin_1_5
-5.881440489917479239e-19
-6.059933829210354051e-19
-6.017759293229481231e-19
-5.674486279974739449e-19
-5.056395186328505787e-19
-4.262093089654680018e-19
-3.486195216949951974e-19
-2.912669773015541869e-19
-2.515551974810373660e-19
-2.030963833890191343e-19
-1.430669416706436600e-19
-1.103079282373048156e-19
-8.369544116828166543e-20
-5.956480043270737363e-20
-4.356949337529094478e-20
-3.219173324876413666e-20
-2.363876715072259101e-20
-1.762893131806422719e-20
-1.340562121571934175e-20
-1.038287204803467213e-20
-8.167143716199190690e-21
-6.490648609766574229e-21
-5.173571928197619908e-21
-4.106048572864709564e-21
-3.222431151172415414e-21
-2.485078876412545497e-21
-1.873492812719157900e-21
-1.375785063679051325e-21
-9.822479136324286275e-22
-6.822861926412712497e-22
-4.621271366195147734e-22
