# bin_4_16
-4.939975003775647698e-50
-5.492483352617500096e-50
-5.984068123618933048e-50
-6.355616246364286032e-50
-6.534695276700073023e-50
-6.467563276257976301e-50
-6.065187714251779642e-50
-5.374219440393980891e-50
-4.503055835686615715e-50
-3.680948009566462231e-50
-3.095957747995346031e-50
-2.680192149277906478e-50
-2.124112102673485314e-50
-1.469604988547709956e-50
-1.159794975770135974e-50
-8.440061704104729965e-51
-6.062177837677928919e-51
-4.199910191413817695e-51
-3.043988197353233816e-51
-2.149592039778881729e-51
-1.523114976219658791e-51
-1.095110828733559999e-51
-7.987670874338679525e-52
-5.935605656987614455e-52
-4.493168773847802878e-52
-3.452339561758268083e-52
-2.679575583974826759e-52
-2.086470774140441458e-52
-1.618162182714885427e-52
-1.241650862985694680e-52
-9.375369271563214265e-53
