# bin_12_11
-8.158407187453664639e-11
-9.054777744716153767e-11
-9.843721065787950475e-11
-1.042666299276158403e-10
-1.068570999709993187e-10
-1.052982325299649004e-10
-9.822056976846002700e-11
-8.659815685431579307e-11
-7.226776960692999449e-11
-5.909812192180208958e-11
-4.992364933179709783e-11
-4.312938184015379210e-11
-3.367689856978218105e-11
-2.331654691795058858e-11
-1.862546644292756999e-11
-1.324959979967736512e-11
-9.705903893863392909e-12
-6.680547494233663380e-12
-4.816039891290337538e-12
-3.416689729801139541e-12
-2.434447338207089648e-12
-1.757364640388942171e-12
-1.287210787854140714e-12
-9.609834482684603429e-13
-7.304347296257633695e-13
-5.630160252824626766e-13
-4.378215220825685816e-13
-3.410666991370488677e-13
-2.642766686174451715e-13
-2.023677998553068221e-13
-1.523469547843061185e-13
