# bin_19_13
-2.602015499626700822e-10
-2.912188040700416328e-10
-3.198616365179368742e-10
-3.431666353509492807e-10
-3.573946584878550795e-10
-3.592007901600844334e-10
-3.439629654669806203e-10
-3.108589892143997390e-10
-2.655919074265720849e-10
-2.178497507861379789e-10
-1.803143331901454639e-10
-1.557539710696127835e-10
-1.296403172393966673e-10
-9.262594775171032138e-11
-6.814057138246061448e-11
-5.382075042177969934e-11
-3.612217092590880561e-11
-2.682472512960087929e-11
-1.889061811329034993e-11
-1.314607237213012726e-11
-9.231366151118149746e-12
-6.524317103599363096e-12
-4.674702067877660138e-12
-3.403402631462574030e-12
-2.527668818995424041e-12
-1.911165289067430450e-12
-1.466474470374732837e-12
-1.135677367964993643e-12
-8.812898705088525531e-13
-6.803577552527302308e-13
-5.191586809125477990e-13
