# bin_12_8
-4.109347973610121149e-10
-4.493850119971319853e-10
-4.796838026559907273e-10
-4.965074669885116419e-10
-4.955267170985325964e-10
-4.700785224361294336e-10
-4.211220275818503226e-10
-3.566891583654348787e-10
-2.919781812802589370e-10
-2.431538788001605619e-10
-2.102592021130625335e-10
-1.716700177235479522e-10
-1.210462375010635741e-10
-9.182335288637029237e-11
-7.050077487447849927e-11
-4.888179582681975413e-11
-3.564998832369793359e-11
-2.576826540541449386e-11
-1.836498358236114854e-11
-1.322671791646738038e-11
-9.667708098261785687e-12
-7.189267760958503734e-12
-5.442665596079967001e-12
-4.190833320504180603e-12
-3.265165855557382590e-12
-2.558679758191427450e-12
-2.002717222008625903e-12
-1.554770188059132851e-12
-1.189961901361565336e-12
-8.934059868809635891e-13
-6.554183192675860409e-13
