# bin_11_13
-5.504841340949753880e-13
-6.136340610463758843e-13
-6.706764291011630744e-13
-7.151387751275033683e-13
-7.389500560753845444e-13
-7.359024303040107398e-13
-6.957038632401046690e-13
-6.211074564018050218e-13
-5.240930235561339969e-13
-4.286503858166738398e-13
-3.581654288754848178e-13
-3.102690227903801494e-13
-2.511446387522639830e-13
-1.750732714571496941e-13
-1.346324557122409244e-13
-1.014613941766475579e-13
-7.059521655158775137e-14
-5.020582206665698204e-14
-3.620229725228783654e-14
-2.540349694038547459e-14
-1.788841178693586268e-14
-1.277253364099759531e-14
-9.254499964704144038e-15
-6.825199034916589721e-15
-5.131306360581362893e-15
-3.920739271041547271e-15
-3.031860324203792696e-15
-2.357384144298033802e-15
-1.829656257021400177e-15
-1.407745588621364055e-15
-1.067497268169022669e-15
