# bin_8_19
-1.544927775039478061e-37
-1.736065896815289735e-37
-1.916195979596395283e-37
-2.068331322856882541e-37
-2.170719216966684716e-37
-2.200689585261680075e-37
-2.134413708223662270e-37
-1.954129733106990417e-37
-1.691848637713731940e-37
-1.394958208816891871e-37
-1.146029259181690821e-37
-9.830108958836222242e-38
-8.365606921817330557e-38
-6.182307054675265419e-38
-4.364342058385666060e-38
-3.553487409060962386e-38
-2.356850597814021257e-38
-1.791932338174283335e-38
-1.230706781944511179e-38
-8.525962259278460460e-39
-5.988578071683333558e-39
-4.208163457902049847e-39
-2.982186430895391053e-39
-2.141458627875209890e-39
-1.568716012931820527e-39
-1.171338039402573036e-39
-8.897535854603497141e-40
-6.847327359069931962e-40
-5.302700425125895167e-40
-4.102246734946856033e-40
-3.147849734641392162e-40
