# bin_18_17
-3.848098483057387400e-11
-4.348282284557559259e-11
-4.831510025800908715e-11
-5.258014142722403761e-11
-5.575023191561938929e-11
-5.718894168096877599e-11
-5.641589476455661553e-11
-5.267892264286852311e-11
-4.648792613976043379e-11
-3.881621683226213299e-11
-3.174377053764691590e-11
-2.681544365165859969e-11
-2.319179133139912943e-11
-1.812637319216636036e-11
-1.250877246750434661e-11
-9.986125683492006924e-12
-7.071879763223814760e-12
-5.147358739054682396e-12
-3.484368476384474924e-12
-2.478838821551198972e-12
-1.720072361560001434e-12
-1.191262826793443416e-12
-8.312457206957419266e-13
-5.853819265977479987e-13
-4.193064281501251219e-13
-3.062598347687694300e-13
-2.280686779648902672e-13
-1.729097427239281872e-13
-1.327652110634897308e-13
-1.025464676780608608e-13
-7.907679260659955271e-14
