# bin_16_8
-6.493674023003239370e-10
-7.103443013582621799e-10
-7.585266054715639202e-10
-7.855105372375790965e-10
-7.844105710199143560e-10
-7.447166658853250203e-10
-6.676645051519958407e-10
-5.659377741375305452e-10
-4.633401901804849089e-10
-3.856352124884172981e-10
-3.334173742487985253e-10
-2.727031626699407664e-10
-1.925498045727977200e-10
-1.456788738912354081e-10
-1.121659529067356658e-10
-7.760070732873947283e-11
-5.672514669616722046e-11
-4.095298032792410814e-11
-2.917245202760924160e-11
-2.100478444101219093e-11
-1.534430155973144916e-11
-1.140393336903627718e-11
-8.628120976287258178e-12
-6.640247520441217700e-12
-5.171667858542059003e-12
-4.051884286801671295e-12
-3.171452780060400352e-12
-2.462504123018381423e-12
-1.885304352231552085e-12
-1.416085032272604089e-12
-1.039432190794380273e-12
