# bin_20_7
-9.832570745953354610e-10
-1.067896397331462088e-09
-1.130186692767173861e-09
-1.157553411146583471e-09
-1.139831862774573047e-09
-1.062806567916786155e-09
-9.367798117645078994e-10
-7.820353528216154192e-10
-6.397226371874463444e-10
-5.400307891367387504e-10
-4.656797654764979877e-10
-3.640589084187781220e-10
-2.536834406341154864e-10
-2.018159753821914516e-10
-1.450107172038021994e-10
-1.063147507979352231e-10
-7.466496177573312392e-11
-5.435676567222245186e-11
-3.922934627421190500e-11
-2.856529370886946862e-11
-2.113893091113067560e-11
-1.590868192214180414e-11
-1.219007719524716368e-11
-9.477018337347705660e-12
-7.431373479187523551e-12
-5.839478997139277340e-12
-4.565560178064872479e-12
-3.528312402905016821e-12
-2.680143234589849539e-12
-1.992108557598721477e-12
-1.444076376894323140e-12
