# bin_13_20
-3.228460263610650778e-21
-3.649258639537964267e-21
-4.056338866984685526e-21
-4.416461876555266180e-21
-4.685420498011611680e-21
-4.809574673087527394e-21
-4.748989209053044350e-21
-4.439382150085176685e-21
-3.921702171450135397e-21
-3.277101551547250534e-21
-2.679563464696524921e-21
-2.261460963393138883e-21
-1.957033025181820832e-21
-1.534399668869404037e-21
-1.058181703248566387e-21
-8.431502816225431181e-22
-5.999649202812133150e-22
-4.350449162670594669e-22
-2.945043671575599208e-22
-2.099924130961131666e-22
-1.455602370800470893e-22
-1.006763103525325948e-22
-7.019191831315004610e-23
-4.937960804862089632e-23
-3.532514487116691601e-23
-2.576773355030073188e-23
-1.916559341967179647e-23
-1.451626434764462586e-23
-1.113928445175999362e-23
-8.602276829953862181e-24
-6.634952661343865791e-24
