# bin_4_9
-1.290224550037749446e-20
-1.396791499361510048e-20
-1.472336864792984310e-20
-1.500706192890577729e-20
-1.468017627326618307e-20
-1.357684539349374638e-20
-1.187444451318398844e-20
-9.850704872109523533e-21
-8.063222932278208851e-21
-6.852632633763829112e-21
-5.889320877532372889e-21
-4.499702138612773776e-21
-3.138647302182182006e-21
-2.543858428768333788e-21
-1.766973973158481425e-21
-1.332996987996638986e-21
-9.274624008097136414e-22
-6.715215395952378242e-22
-4.879027380263285054e-22
-3.578151257273928791e-22
-2.662998090089628890e-22
-2.015156018835827985e-22
-1.552447362338367870e-22
-1.211901668950355480e-22
-9.527476337130991329e-23
-7.492813894406437403e-23
-5.852848060626972072e-23
-4.512072931270650351e-23
-3.414406515533526971e-23
-2.525321402267839198e-23
-1.820001465535801955e-23
