# bin_6_5
-2.612634631710396250e-10
-2.772952628606830623e-10
-2.851075816467184740e-10
-2.822376694185152019e-10
-2.650271211821656956e-10
-2.351946344211173564e-10
-1.975385382563929994e-10
-1.615843609228694433e-10
-1.355296341675882443e-10
-1.169922445918935893e-10
-9.332528994993950519e-11
-6.546172116474673619e-11
-5.104859692030258776e-11
-3.796670787082103132e-11
-2.727856129593519406e-11
-1.964475012048005647e-11
-1.441571817475273565e-11
-1.049424255824091669e-11
-7.737279535311188880e-12
-5.808033019357871290e-12
-4.438584862104277113e-12
-3.449176965783004640e-12
-2.713731129025492861e-12
-2.147216627513812265e-12
-1.696735673791317696e-12
-1.329683439898625675e-12
-1.026797732399858125e-12
-7.771268510201089195e-13
-5.740539663495809641e-13
-4.127421341287571936e-13
-2.887059550247438945e-13
