# bin_7_3
-1.242009655244128243e-09
-1.277353723184344229e-09
-1.265023797808483001e-09
-1.189646507628833717e-09
-1.057593294484119465e-09
-8.905760126818412961e-10
-7.294276951459602607e-10
-6.106751867481780443e-10
-5.256128096511829131e-10
-4.212114838708283438e-10
-2.988823645983157643e-10
-2.304382984811417728e-10
-1.735010614808194174e-10
-1.244259342264646508e-10
-9.112648834172223240e-11
-6.697692871635737898e-11
-4.927656623029141073e-11
-3.683759551786638098e-11
-2.804698839529668265e-11
-2.174092960259401993e-11
-1.711058273538972690e-11
-1.359994892151786104e-11
-1.083721268982652985e-11
-8.595338004110762975e-12
-6.738909835935500474e-12
-5.190552351570584222e-12
-3.907934188235417166e-12
-2.866079942094634697e-12
-2.044094364368925859e-12
-1.418717770457663849e-12
-9.603854589636836471e-13
