# bin_20_4
-1.848683017401292662e-09
-1.939955274131396387e-09
-1.968133955558118865e-09
-1.912826556366521354e-09
-1.757961981188689484e-09
-1.528180484749325169e-09
-1.264837955496442616e-09
-1.038425029436518868e-09
-8.848759105881565669e-10
-7.530186490423129669e-10
-5.683639611140566207e-10
-4.040244566455740442e-10
-3.240805468403388061e-10
-2.270658924913124077e-10
-1.707315253166241458e-10
-1.216029193124802303e-10
-8.891777642801886669e-11
-6.555454985062936521e-11
-4.898131932731921407e-11
-3.725344824900849394e-11
-2.881851423273936492e-11
-2.262926485274207225e-11
-1.792492649038287350e-11
-1.422198628374821605e-11
-1.122322621074410424e-11
-8.749304634035412307e-12
-6.698290807143907176e-12
-5.011909983008076655e-12
-3.652818178680894692e-12
-2.589567342714932625e-12
-1.786914818933519249e-12
