# bin_13_4
-1.490011240384186568e-09
-1.563229000003727152e-09
-1.585529305534892320e-09
-1.540412052783565218e-09
-1.415125771298594596e-09
-1.229667123486600554e-09
-1.017527772334652855e-09
-8.354925814064446408e-10
-7.121442241323586607e-10
-6.057718827558514388e-10
-4.567464090093959327e-10
-3.248766634753667520e-10
-2.606172045415923077e-10
-1.824650907818572287e-10
-1.372603380371847162e-10
-9.777949429585120402e-11
-7.148929757224431498e-11
-5.271576876077551557e-11
-3.939781751936523317e-11
-2.997179489890041834e-11
-2.319081364238469003e-11
-1.821351003465396073e-11
-1.442873429715571373e-11
-1.144842036218267648e-11
-9.034087518354235589e-12
-7.041906002744989113e-12
-5.390187782688893811e-12
-4.032224838258252318e-12
-2.938032471400545746e-12
-2.082283795062745990e-12
-1.436505249201093161e-12
