# bin_13_16
-4.024616383034293686e-14
-4.523066213512777815e-14
-4.993062144257873278e-14
-5.390409543630842486e-14
-5.658472237464760611e-14
-5.737977986351655510e-14
-5.567233305353160307e-14
-5.099127273494246154e-14
-4.416590281160020784e-14
-3.642434178827890767e-14
-2.992054885559532180e-14
-2.565650894538585184e-14
-2.184397091066595763e-14
-1.616280628842274708e-14
-1.140180552078997852e-14
-9.281627586895614368e-15
-6.162879033548192859e-15
-4.683293770486939118e-15
-3.214001018583310710e-15
-2.227394793450508381e-15
-1.564370517314079805e-15
-1.099208579175213015e-15
-7.787267427901829073e-16
-5.589559525209170946e-16
-4.092747606743147748e-16
-3.054676617436458227e-16
-2.319479804626262168e-16
-1.784541834381369133e-16
-1.381798476390965271e-16
-1.068982818411095966e-16
-8.203855064855128214e-17
