# bin_18_6
-1.130627570877725881e-09
-1.217030589010868411e-09
-1.273683215354100967e-09
-1.287768456524408704e-09
-1.244917476433058048e-09
-1.136838884955645822e-09
-9.818570885037752577e-10
-8.092689818658759025e-10
-6.657589866661356361e-10
-5.705007264215072648e-10
-4.826530359893533615e-10
-3.568289849857328657e-10
-2.555335989674169536e-10
-2.058153491669173349e-10
-1.407852097510650612e-10
-1.067048083241529410e-10
-7.549806555195575292e-11
-5.436016665640257613e-11
-3.965888880118351468e-11
-2.926458221200654573e-11
-2.195322352949012503e-11
-1.675208623769552139e-11
-1.299816496666316010e-11
-1.019768955464073858e-11
-8.037085405422428830e-12
-6.319602112315214656e-12
-4.923049523304963379e-12
-3.776677649208361775e-12
-2.838639506536885085e-12
-2.082226311728927917e-12
-1.487185413973424377e-12
