# bin_20_12
-3.608212662270219373e-10
-4.025000709290028829e-10
-4.403012616127068889e-10
-4.700063321365857072e-10
-4.863472746612105411e-10
-4.851461369958767753e-10
-4.597192482115683170e-10
-4.113391271877455632e-10
-3.478898900226991814e-10
-2.846747918134354467e-10
-2.374335641040894519e-10
-2.055900818716755876e-10
-1.672967731655238537e-10
-1.171579370921165429e-10
-8.933350171097603276e-11
-6.794425555137246972e-11
-4.692897234743012700e-11
-3.367691816369618516e-11
-2.416558155804335503e-11
-1.692983008936635616e-11
-1.191540859569043911e-11
-8.490316342313278380e-12
-6.138951710019545037e-12
-4.516829303716407230e-12
-3.388357898639404531e-12
-2.584144778663986288e-12
-1.995574502358298308e-12
-1.550573208754402152e-12
-1.203459300970840037e-12
-9.265292555577664181e-13
-7.033932437863787300e-13
