# bin_15_2
-2.715066376625801052e-09
-2.725191449350045545e-09
-2.610987570213263321e-09
-2.365656895327105885e-09
-2.028860852294805633e-09
-1.670726642844265089e-09
-1.381630876144057359e-09
-1.183237103200350050e-09
-9.843698776007221701e-10
-7.238051551283744316e-10
-5.316196123329883580e-10
-4.180689947210493184e-10
-2.952826934744510608e-10
-2.213387909521195953e-10
-1.609340352966304992e-10
-1.189242719917779269e-10
-8.918379126548286167e-11
-6.803630240178606689e-11
-5.286568030446745218e-11
-4.171521219147697773e-11
-3.326927776051506511e-11
-2.661976973879880041e-11
-2.121054242226067104e-11
-1.671298026261920195e-11
-1.294101109801374531e-11
-9.796058003610026442e-12
-7.223276388760259978e-12
-5.179563554427189610e-12
-3.613646341901202626e-12
-2.458352622444448340e-12
-1.635942767236847530e-12
