# bin_1_9
-4.499338332999239937e-37
-4.818429443756546339e-37
-5.010018367957973669e-37
-5.028058436673043277e-37
-4.807949422729154203e-37
-4.340415635977704640e-37
-3.704996106408870248e-37
-3.037681597714679933e-37
-2.513457193991101325e-37
-2.168538451226623991e-37
-1.803072521454712483e-37
-1.292916399921734568e-37
-9.553165677120356695e-38
-7.569850868776469048e-38
-5.170129424923722084e-38
-3.889182203098221129e-38
-2.802923497551482448e-38
-2.016839083881253389e-38
-1.475072927689318552e-38
-1.094531978980818799e-38
-8.272736159789967109e-39
-6.361959554752505253e-39
-4.967670400911332863e-39
-3.914003521481387776e-39
-3.090731868267065045e-39
-2.429065956372915677e-39
-1.887048336258467265e-39
-1.440751617865853447e-39
-1.075921130380330915e-39
-7.830564439942834350e-40
-5.545287111839226086e-40
