# bin_19_17
-6.578340296122187416e-11
-7.435786236755572359e-11
-8.265343616015956300e-11
-8.999270537805749168e-11
-9.547524619802106586e-11
-9.801023117435879403e-11
-9.677858472828133228e-11
-9.047661180966673916e-11
-7.993311711886997547e-11
-6.680570741043614702e-11
-5.463059139868115277e-11
-4.610280038650828560e-11
-3.988739702665079700e-11
-3.128286127750641439e-11
-2.159083041750880059e-11
-1.718309302111147258e-11
-1.223719351079658257e-11
-8.862795604557242174e-12
-6.013329064865769721e-12
-4.283214031312419003e-12
-2.969000485481296260e-12
-2.053339186039907623e-12
-1.431345552103674799e-12
-1.006846852403476966e-12
-7.201614506249876229e-13
-5.252259255616164023e-13
-3.905805153065687176e-13
-2.957732881760811500e-13
-2.269261018133718988e-13
-1.752173909805398299e-13
-1.351316959143907934e-13
