# bin_20_2
-2.950115399177175243e-09
-2.961570024070119277e-09
-2.838054105237972957e-09
-2.571942075732541175e-09
-2.206233854687330742e-09
-1.816936059784110781e-09
-1.502371171590138813e-09
-1.286536298245567751e-09
-1.070679514461999743e-09
-7.876071005366242598e-10
-5.782137150269176123e-10
-4.548393463254690240e-10
-3.212502857172812723e-10
-2.408157875709301203e-10
-1.750678415267432474e-10
-1.293651763476405099e-10
-9.700431031142213444e-11
-7.399367406903156555e-11
-5.748822277350183936e-11
-4.535847279003204336e-11
-3.617269975031648605e-11
-2.894226676703324559e-11
-2.306150170780868515e-11
-1.817243412249284374e-11
-1.407228872185946994e-11
-1.065359847054035316e-11
-7.856594714284664025e-12
-5.634435537984669900e-12
-3.931485784881380273e-12
-2.674871202250276777e-12
-1.780191856884014524e-12
