# bin_8_8
-4.873759917587113001e-11
-5.314365537910240014e-11
-5.652200257609977454e-11
-5.823673338459028953e-11
-5.779967863977561180e-11
-5.442166262749841227e-11
-4.840867220581159652e-11
-4.071842636950842196e-11
-3.329369889760228933e-11
-2.788751788308585476e-11
-2.412833052900502106e-11
-1.935465566378842606e-11
-1.350099991224337073e-11
-1.049780255836337823e-11
-7.831567784676017764e-12
-5.560995873667238635e-12
-3.964739472065379703e-12
-2.892888074460187814e-12
-2.072612778136544460e-12
-1.497846391269304793e-12
-1.100945358681732493e-12
-8.231746492446274632e-13
-6.266967602261794453e-13
-4.847751084399688330e-13
-3.789163533875372815e-13
-2.974072717755590289e-13
-2.327526170356396451e-13
-1.803833583813359660e-13
-1.376314380544590404e-13
-1.028930722484958866e-13
-7.509277383079047584e-14
