# bin_5_7
-3.607231127782284707e-13
-3.878026331462047516e-13
-4.052101663185754357e-13
-4.089488974599628619e-13
-3.942577205524209245e-13
-3.588941373745433117e-13
-3.089795454915734977e-13
-2.541714223251503154e-13
-2.092999296176181689e-13
-1.797938511573116669e-13
-1.516280097658767598e-13
-1.110392422590808384e-13
-7.996157525169251648e-14
-6.449637797722873973e-14
-4.376239614873746324e-14
-3.332633637021752697e-14
-2.366931478741843411e-14
-1.699843405547354892e-14
-1.241826714061784085e-14
-9.178520546262744442e-15
-6.899618457903994373e-15
-5.276403594187129770e-15
-4.101819558896140764e-15
-3.222450289719190445e-15
-2.541581721968956450e-15
-1.998607530217272409e-15
-1.556054447523030695e-15
-1.192359768416561862e-15
-8.947392440012704982e-16
-6.549573567223256152e-16
-4.666882145079327483e-16
