# bin_16_7
-8.230304691430582822e-10
-8.937929698117624036e-10
-9.458163923690853866e-10
-9.685817455433749414e-10
-9.535714302362566456e-10
-8.889249408187176762e-10
-7.833431691121134947e-10
-6.538281483409890221e-10
-5.348556634420221444e-10
-4.515902796949326314e-10
-3.893774407544123701e-10
-3.042155395329151945e-10
-2.119871614432279992e-10
-1.687303750817335210e-10
-1.211304109566577885e-10
-8.887232249434382191e-11
-6.239713725465206948e-11
-4.542209668017642457e-11
-3.278685801651758793e-11
-2.387839780553998243e-11
-1.767340179146797573e-11
-1.330270183698883116e-11
-1.019480910604139412e-11
-7.926762418344557932e-12
-6.216207626030839575e-12
-4.884737824102991290e-12
-3.819003655728709076e-12
-2.951159557137713900e-12
-2.241488728747336227e-12
-1.665828838704544726e-12
-1.207358447740840026e-12
