# bin_19_15
-1.489456069509431141e-10
-1.676320814947573519e-10
-1.853684667634956236e-10
-2.005439103057303826e-10
-2.110761085623520818e-10
-2.146814198577232232e-10
-2.092250720473964244e-10
-1.925920682165224956e-10
-1.676457335485372717e-10
-1.386513256311142406e-10
-1.137058776737251596e-10
-9.714791597604780358e-11
-8.316796391541942170e-11
-6.241936014254388119e-11
-4.363407618591067426e-11
-3.549764070269764135e-11
-2.383996929848879943e-11
-1.802437441791635198e-11
-1.226971335710153554e-11
-8.541242377027123446e-12
-5.989136978714537274e-12
-4.200044790441599137e-12
-2.963775164448079968e-12
-2.116432877541384946e-12
-1.541047899068579869e-12
-1.144050409764588832e-12
-8.646810641472709327e-13
-6.630642019512802960e-13
-5.125601948803239296e-13
-3.965321592888375698e-13
-3.047885346523305958e-13
