# bin_5_11
-3.422406405773270964e-23
-3.749233265037322791e-23
-4.010774407829090913e-23
-4.162892405850876987e-23
-4.168489483911684979e-23
-3.971724648081153889e-23
-3.572389882268103046e-23
-3.037431044647662762e-23
-2.487471677814494375e-23
-2.064462193803005235e-23
-1.785230835667413213e-23
-1.472643681452179896e-23
-1.043522166088950374e-23
-7.809082296933146834e-24
-6.097011753718947087e-24
-4.165876959635702732e-24
-3.080121400508264158e-24
-2.215622272755699758e-24
-1.574223250406111651e-24
-1.131302874817495079e-24
-8.241410707030391487e-25
-6.110193583277213768e-25
-4.611476401731624541e-25
-3.541867971130330764e-25
-2.754717148152432812e-25
-2.156892404235342483e-25
-1.688519861425121123e-25
-1.312240132666665216e-25
-1.006181809362507586e-25
-7.572909685034625186e-26
-5.572080965452940022e-26
