# bin_15_17
-6.670539846971319670e-13
-7.522850923873851482e-13
-8.339227119993728607e-13
-9.049167808503744302e-13
-9.560287226175742187e-13
-9.765156226316329309e-13
-9.576529702164898086e-13
-8.878277993468059107e-13
-7.782288649155209266e-13
-6.464041162701189929e-13
-5.290973326541227436e-13
-4.496219308272112077e-13
-3.874683766653453848e-13
-2.966602056937819134e-13
-2.053506746936413760e-13
-1.662573172406213700e-13
-1.140543511327693638e-13
-8.517051392070043321e-14
-5.744875734189622953e-14
-4.037356500706742806e-14
-2.820107160042495172e-14
-1.969211645821188587e-14
-1.381920913211532750e-14
-9.798209977120754253e-15
-7.077326824507569305e-15
-5.213055850560038691e-15
-3.912685933097442648e-15
-2.984968590988544403e-15
-2.300978784372992439e-15
-1.779583127904103708e-15
-1.370603934756700612e-15
