# bin_17_16
-4.284306388246919821e-11
-4.830366210337781282e-11
-5.352771007477863101e-11
-5.806092839008429252e-11
-6.130920663292664190e-11
-6.258714297799278139e-11
-6.132688616154211357e-11
-5.680117378098349189e-11
-4.974310718047083248e-11
-4.129379493600549538e-11
-3.380831007152695800e-11
-2.875054867360279678e-11
-2.475455958095469354e-11
-1.890376624638340661e-11
-1.310186749991026298e-11
-1.061476636347478786e-11
-7.260980329490008876e-12
-5.430834287114444820e-12
-3.668501395939878848e-12
-2.574523498489200878e-12
-1.799277050646885831e-12
-1.257071426082951511e-12
-8.828066546961282340e-13
-6.265277989686331040e-13
-4.530311008201927116e-13
-3.340474765697968323e-13
-2.509572547919780040e-13
-1.915876013855911119e-13
-1.477424016241233224e-13
-1.142686581992891389e-13
-8.798333551867192426e-14
