# bin_9_10
-6.563343915747340255e-12
-7.232025435045669117e-12
-7.792514126660751924e-12
-8.162662048157359309e-12
-8.259275160784409999e-12
-7.989902913089449973e-12
-7.296995166698030609e-12
-6.302300547728759371e-12
-5.190795553149708197e-12
-4.268227865327010365e-12
-3.663409825028442349e-12
-3.105954715116948237e-12
-2.286218343368851470e-12
-1.628066240883782222e-12
-1.320929583759256293e-12
-8.856903781970966377e-13
-6.748778699698773681e-13
-4.715565847040535073e-13
-3.331750628776056547e-13
-2.391544232624945779e-13
-1.728471111188284905e-13
-1.266845208529729467e-13
-9.440100761785699824e-14
-7.170313482967183895e-14
-5.529495538237128861e-14
-4.306910908357929149e-14
-3.366963072659849357e-14
-2.622546076253820003e-14
-2.021881928782174439e-14
-1.534115909868199679e-14
-1.140512064793611752e-14
