# bin_3_13
-8.255812953135516760e-43
-9.075932286477244991e-43
-9.751389223774490150e-43
-1.017770156341875166e-42
-1.025633752393734488e-42
-9.861779818775177052e-43
-8.949743703609955315e-43
-7.679925297773221549e-43
-6.307446281370028146e-43
-5.203271128683341333e-43
-4.483225308375904157e-43
-3.763998986279362732e-43
-2.723452084761345431e-43
-1.975672588635440989e-43
-1.586087251088947911e-43
-1.064399636844898275e-43
-8.059375196057069265e-44
-5.696931378137460396e-44
-4.027930295077158820e-44
-2.892233661276154843e-44
-2.095118306679102516e-44
-1.542618811900504068e-44
-1.155591307211830681e-44
-8.819015836828041802e-45
-6.826230940345383078e-45
-5.329728873427464295e-45
-4.170016669014954402e-45
-3.245773025278041989e-45
-2.497236693974849649e-45
-1.888803760996326684e-45
-1.398436656363624561e-45
