# bin_16_3
-2.146323676492062207e-09
-2.209542337307336321e-09
-2.190910010368845707e-09
-2.063639848108695033e-09
-1.837392027535615280e-09
-1.549347411881494342e-09
-1.269181264136480211e-09
-1.061333807127677061e-09
-9.136268719853863876e-10
-7.348128004785556573e-10
-5.221846993507682701e-10
-4.010008824978603038e-10
-3.033590066847333720e-10
-2.168085922226893643e-10
-1.591685837291870530e-10
-1.168507794006175613e-10
-8.589764517485816161e-11
-6.416584370157134395e-11
-4.880948417598238778e-11
-3.780298454234023679e-11
-2.973011128837886846e-11
-2.361952237780062158e-11
-1.881830131586150272e-11
-1.492729813872944742e-11
-1.170802699918612943e-11
-9.023774726082902540e-12
-6.799680694320670772e-12
-4.991731131286187761e-12
-3.563703205670443946e-12
-2.475779018087660386e-12
-1.677362957189873393e-12
