# bin_14_19
-5.472773039719352382e-17
-6.183428798046961636e-17
-6.869619386565809669e-17
-7.474722169744670186e-17
-7.923621077256694503e-17
-8.125779468239069900e-17
-8.013059917101653006e-17
-7.478735240670352783e-17
-6.596887630868334576e-17
-5.505824362937054284e-17
-4.502457385241847548e-17
-3.804988960683699872e-17
-3.290859219643420312e-17
-2.568403429713557661e-17
-1.771595002533474569e-17
-1.416869854076824137e-17
-1.000774876578616828e-17
-7.303568962638827907e-18
-4.933375281035558733e-18
-3.509578189555286906e-18
-2.436300085960956704e-18
-1.688392792098312243e-18
-1.178660573505769258e-18
-8.304123665849882197e-19
-5.951792022453649969e-19
-4.349880351957243352e-19
-3.241272679719388325e-19
-2.458644209883808062e-19
-1.888528821143319173e-19
-1.458969255715467257e-19
-1.125072794851444959e-19
