# bin_2_20
-9.128653253798862257e-89
-1.024033490553004905e-88
-1.127914887398531053e-88
-1.214311240345048089e-88
-1.270265849172410183e-88
-1.283111125552482685e-88
-1.237642797227106695e-88
-1.126591443456726668e-88
-9.696771812829622168e-89
-7.973720574789139089e-89
-6.569507913719053094e-89
-5.655790726237031683e-89
-4.771674993566242780e-89
-3.470093723321682783e-89
-2.490767477655685473e-89
-2.009837647996770821e-89
-1.332298241144127251e-89
-1.007707930873617504e-89
-6.995986546471839498e-90
-4.850163086365508750e-90
-3.406094541288376941e-90
-2.396958199608572239e-90
-1.706651572533674453e-90
-1.233053319888911089e-90
-9.089380139473694936e-91
-6.826482970797569540e-91
-5.210530053313803782e-91
-4.022659191816938805e-91
-3.119215835713762034e-91
-2.411598777469302506e-91
-1.846372966451102741e-91
