# bin_19_10
-5.103085113031384235e-10
-5.645717280119696242e-10
-6.113608721004168137e-10
-6.444106395679555095e-10
-6.566721559935153140e-10
-6.419242808723949579e-10
-5.931371058378376028e-10
-5.182458208477876829e-10
-4.297154567020077172e-10
-3.519957200809248732e-10
-2.995787525384191158e-10
-2.571842669025822140e-10
-1.955905418888103912e-10
-1.364352963068359482e-10
-1.104973761993327210e-10
-7.598336068818032279e-11
-5.712406642747600655e-11
-3.933710089102390147e-11
-2.804931110739113261e-11
-2.003677509484940378e-11
-1.439113281012636878e-11
-1.046006915228575185e-11
-7.719970544266723312e-12
-5.809408908695834895e-12
-4.445816086723946557e-12
-3.444250426131392674e-12
-2.685820862369321269e-12
-2.092894063037799779e-12
-1.618483991396326905e-12
-1.234513433732855632e-12
-9.243071148608434188e-13
