# bin_9_5
-7.555349553669053940e-10
-8.037412960066797743e-10
-8.287581983196476074e-10
-8.233612083354130143e-10
-7.768211054504134633e-10
-6.925040375077310181e-10
-5.840937372624133055e-10
-4.780340679952283038e-10
-3.995030812185446123e-10
-3.448914157371920281e-10
-2.782403218642883853e-10
-1.962153695935777806e-10
-1.508831415678348017e-10
-1.141402998045119000e-10
-8.090547616831056950e-11
-5.889346712928082792e-11
-4.303933342772946307e-11
-3.123394976615069385e-11
-2.297401403350344141e-11
-1.719271303242440067e-11
-1.310047332644841882e-11
-1.015234364817869291e-11
-7.971899693941090045e-12
-6.300869786744647047e-12
-4.978222020878447111e-12
-3.904339118986434713e-12
-3.019822625913444737e-12
-2.290874489891108214e-12
-1.697168893273318486e-12
-1.224236474374168019e-12
-8.591725550159448999e-13
