# bin_6_14
-3.113335083901423842e-29
-3.457378874557811526e-29
-3.761212023794774374e-29
-3.987320081742772921e-29
-4.090398040647597898e-29
-4.036189709853051626e-29
-3.770893311218725591e-29
-3.329708565293800550e-29
-2.781619803606911430e-29
-2.274033746477290647e-29
-1.918547599245600577e-29
-1.659170935805705884e-29
-1.301270110620188207e-29
-8.997142552232252840e-30
-7.171289442149015126e-30
-5.132749365174955819e-30
-3.743117548843515790e-30
-2.574655993764917688e-30
-1.861719595679142395e-30
-1.319268548709460504e-30
-9.387145576939531197e-31
-6.771008918584422625e-31
-4.953353538879090109e-31
-3.693511283016074472e-31
-2.804345515095953961e-31
-2.159348691184318240e-31
-1.677923454579246997e-31
-1.306522696517528695e-31
-1.012149690025495492e-31
-7.750340689431383818e-32
-5.835375333369349126e-32
