# bin_6_15
-5.664189631612659030e-33
-6.306830716167499791e-33
-6.883456662182862887e-33
-7.326918678939856177e-33
-7.553986798026257513e-33
-7.502313647462417807e-33
-7.066769125854778276e-33
-6.287849672526862995e-33
-5.288372123705773332e-33
-4.323617547084549955e-33
-3.623276295071032685e-33
-3.138592797925161328e-33
-2.517463208984151879e-33
-1.747140338862497739e-33
-1.360117390154622479e-33
-1.009503144306055583e-33
-7.121379653735934160e-34
-4.999669885883642801e-34
-3.620707638760866917e-34
-2.548151137066670270e-34
-1.798718485859079466e-34
-1.288759236579675352e-34
-9.367386692909521888e-35
-6.932986592254142694e-35
-5.229461355735795467e-35
-4.005676588560703954e-35
-3.102313253502625497e-35
-2.413107696670170897e-35
-1.871478501136492584e-35
-1.437338830005485885e-35
-1.087067398064913461e-35
