# bin_4_13
-4.253028096407553492e-36
-4.692502415966236994e-36
-5.064337992303903066e-36
-5.315635982030981699e-36
-5.390840506753468239e-36
-5.232478447650218192e-36
-4.795695629163379387e-36
-4.156809660062585592e-36
-3.429466883525837949e-36
-2.815317133811429171e-36
-2.410906734973346723e-36
-2.054432368599318655e-36
-1.526738297354713689e-36
-1.077313498049718579e-36
-8.776848936188586607e-37
-5.895212099582036294e-37
-4.499532699856047951e-37
-3.124618315510074329e-37
-2.208627185592379086e-37
-1.584882085342588195e-37
-1.144160377280617598e-37
-8.365525093373765138e-38
-6.212991493579477490e-38
-4.705730452652476385e-38
-3.619952625001748034e-38
-2.814241930590810899e-38
-2.197703894538575090e-38
-1.711310430873532307e-38
-1.319863309795338305e-38
-1.002389710816697527e-38
-7.462424006913202629e-39
