# bin_9_20
-4.477221037687169284e-36
-5.051287445278742619e-36
-5.602058433777160650e-36
-6.082414059271987740e-36
-6.430463147263694034e-36
-6.573673067644739218e-36
-6.453979148132908604e-36
-5.991486028382580529e-36
-5.258704198421695375e-36
-4.371816089358298529e-36
-3.577447321166816274e-36
-3.036723341592213091e-36
-2.619502046417928339e-36
-2.013331738538914565e-36
-1.391933851400384011e-36
-1.124935088488894296e-36
-7.758522696522537220e-37
-5.772982566048409117e-37
-3.890692841680199563e-37
-2.741683246553577196e-37
-1.913482321940393782e-37
-1.334952977096080587e-37
-9.363763911644949229e-38
-6.631472327822112420e-38
-4.785001748536746214e-38
-3.520737209530746482e-38
-2.639447790669240816e-38
-2.011713179389055039e-38
-1.549689870114550550e-38
-1.198066176822657667e-38
-9.226230084753669277e-39
