# bin_11_1
-3.254885445931021963e-09
-3.150306582362985884e-09
-2.888396366160440011e-09
-2.507205372502317225e-09
-2.080095707665666120e-09
-1.713771759183921134e-09
-1.455786419034784213e-09
-1.226236763618828882e-09
-9.310652722496294416e-10
-6.742119307856772454e-10
-5.283879820308954628e-10
-3.823409033573306048e-10
-2.836618403462969486e-10
-2.074489035700006847e-10
-1.542635764809727122e-10
-1.160107364915907047e-10
-8.880718828681989515e-11
-6.926389504702899959e-11
-5.485834753035519332e-11
-4.390374750853598045e-11
-3.524351353540383584e-11
-2.816200501515017826e-11
-2.224366264319543625e-11
-1.725736218709448918e-11
-1.308432186953303691e-11
-9.660763649385967242e-12
-6.936560481274703696e-12
-4.845967770394298060e-12
-3.301424707130168612e-12
-2.200133096621976141e-12
-1.439118561793185889e-12
