# bin_16_17
-4.335658121953976717e-12
-4.900299199068512613e-12
-5.446272979999981340e-12
-5.928874645798615391e-12
-6.288713683779528485e-12
-6.453950745403934513e-12
-6.370533845303395426e-12
-5.952909651054083087e-12
-5.256992389843135259e-12
-4.391775971310119945e-12
-3.591207022546415798e-12
-3.031749414310834015e-12
-2.622998796442437696e-12
-2.054470044897805647e-12
-1.417305745706939201e-12
-1.129862821956413987e-12
-8.028266203169950087e-13
-5.828310265554197786e-13
-3.947455309577422609e-13
-2.812595228837802620e-13
-1.950881343789296513e-13
-1.350416169469727231e-13
-9.422877414295316965e-14
-6.633123317842794722e-14
-4.749847668168132378e-14
-3.468236007885882255e-14
-2.581572694161455538e-14
-1.956393341806497404e-14
-1.501644735032203133e-14
-1.159510993147933587e-14
-8.939267809622255737e-15
