# bin_18_7
-8.900115211675085238e-10
-9.686208302499265081e-10
-1.027749544714549723e-09
-1.055903695323291820e-09
-1.044000071546871395e-09
-9.784056936346317838e-10
-8.665583031080805177e-10
-7.263010677135406181e-10
-5.940055133456321331e-10
-4.994078855217242395e-10
-4.314041694148857750e-10
-3.418534694078577573e-10
-2.383975218172182907e-10
-1.873945118654821106e-10
-1.373167570591277807e-10
-9.903889399683030464e-11
-7.011419295429280508e-11
-5.108010646422954995e-11
-3.672617760592608584e-11
-2.664058765737546176e-11
-1.964234518156613410e-11
-1.472655416970990137e-11
-1.124176477266292708e-11
-8.713258868224949455e-12
-6.817028891122458816e-12
-5.350023313437024938e-12
-4.181970051246691470e-12
-3.234014532584552784e-12
-2.460105099152711895e-12
-1.832343893612073966e-12
-1.331630531825733817e-12
