# bin_11_13
-5.341150884060721977e-13
-5.963558127100055282e-13
-6.530847920366801647e-13
-6.980991387469130085e-13
-7.236170273225183840e-13
-7.233359317205146096e-13
-6.873001665526176301e-13
-6.165490606643129462e-13
-5.227114544157789265e-13
-4.278510223462161019e-13
-3.560693070102172721e-13
-3.083157111967781483e-13
-2.525755393225903635e-13
-1.774666195884042650e-13
-1.341203431581048235e-13
-1.031537058104099879e-13
-7.055890370316502011e-14
-5.112729398560759273e-14
-3.657434164897515127e-14
-2.557783459146163945e-14
-1.797918967110445126e-14
-1.278350869199492310e-14
-9.224538525605778985e-15
-6.770043447940634459e-15
-5.067530922635057681e-15
-3.856924886295019575e-15
-2.973852984563935294e-15
-2.308672509347882259e-15
-1.791400960524537385e-15
-1.379603533196668436e-15
-1.048126610471946048e-15
