# bin_3_14
-8.062687468887529838e-48
-8.913051173296229352e-48
-9.642289544300827079e-48
-1.015104073339572306e-47
-1.032922793995781415e-47
-1.007608771727302955e-47
-9.286329059631409454e-48
-8.093823638123414169e-48
-6.698300084049012780e-48
-5.488476328479000524e-48
-4.681380430961636845e-48
-4.013754033805793923e-48
-3.029203586877291465e-48
-2.115576251206603085e-48
-1.722907049927333228e-48
-1.170543416201005016e-48
-8.886260340349057135e-49
-6.118824693231961853e-49
-4.343606336500646895e-49
-3.111016389641553945e-49
-2.240714675217301089e-49
-1.632022925587211318e-49
-1.206624235430034997e-49
-9.099384221095768247e-50
-6.975155878698906180e-50
-5.409310211745103740e-50
-4.219594157054602500e-50
-3.286666306754741670e-50
-2.538743400051791245e-50
-1.933022352667803173e-50
-1.443979614918814661e-50
