# bin_2_17
-1.134249289490532255e-72
-1.264653782868253411e-72
-1.382580820493914843e-72
-1.474714190695241211e-72
-1.524421956609728708e-72
-1.518884525842423207e-72
-1.436801430987956777e-72
-1.283526867335879587e-72
-1.083608171586344617e-72
-8.863022634059933287e-73
-7.401870484014836678e-73
-6.412327576164155819e-73
-5.199078854036624978e-73
-3.626197415940800320e-73
-2.783135868169706717e-73
-2.103206392404316224e-73
-1.459900086057850190e-73
-1.040476829323406440e-73
-7.501283048785459639e-74
-5.262251351005607444e-74
-3.704488087261636992e-74
-2.644244084917507979e-74
-1.915300624784022661e-74
-1.411822116039995332e-74
-1.061036800220968092e-74
-8.102984878243441637e-75
-6.262819088918903882e-75
-4.867455145794850693e-75
-3.776276696153735965e-75
-2.904355023690080207e-75
-2.201528282426541406e-75
