# bin_7_20
-3.372768628527343992e-47
-3.799433929562506866e-47
-4.206064252465352698e-47
-4.556534075948122776e-47
-4.803898693555272551e-47
-4.895178857850009207e-47
-4.783978542971597730e-47
-4.417161522513446695e-47
-3.856733614033564697e-47
-3.194966669152402354e-47
-2.617357496493717797e-47
-2.231347290358092012e-47
-1.916982037218903786e-47
-1.450906651351458771e-47
-1.008453220908579308e-47
-8.205257701737569633e-48
-5.544171285756501666e-48
-4.182956542801249796e-48
-2.832691008330268959e-48
-1.976732033404885750e-48
-1.385467948213519790e-48
-9.710503032861142209e-49
-6.839795785155866491e-49
-4.869332537735447589e-49
-3.535075908620630006e-49
-2.616682931936541581e-49
-1.972339377486861952e-49
-1.509420805008293600e-49
-1.165469568659350351e-49
-9.014030474045582633e-50
-6.932152299218401403e-50
