# bin_20_2
-2.937593351761785743e-09
-2.957674715389191990e-09
-2.845696906553702001e-09
-2.589795375132813427e-09
-2.230627993007833972e-09
-1.840335629102953695e-09
-1.518709765363646494e-09
-1.298156673094224432e-09
-1.087155778978669154e-09
-8.069557189967654024e-10
-5.875596138379818733e-10
-4.640550848379477936e-10
-3.282686636219078899e-10
-2.459798104246896162e-10
-1.783418379292214276e-10
-1.317045868671985694e-10
-9.852686062305512475e-11
-7.493872263734363206e-11
-5.805519628975553647e-11
-4.568065665172299161e-11
-3.635545017441026450e-11
-2.905000648820248487e-11
-2.313308881328096114e-11
-1.823023289203574998e-11
-1.412643322451429055e-11
-1.070653979769076580e-11
-7.906498451547903524e-12
-5.678292274690752118e-12
-3.966989831391552844e-12
-2.701562504569385165e-12
-1.799027770905692437e-12
