# bin_7_16
-1.175328390816406595e-31
-1.313508701494255896e-31
-1.440093761161541752e-31
-1.541534228700358045e-31
-1.600788839496831615e-31
-1.603567413720721261e-31
-1.528145908901521223e-31
-1.374599436597621598e-31
-1.168633805379433909e-31
-9.570766099927552232e-32
-7.947350061099315397e-32
-6.878353966563268790e-32
-5.671618635046357353e-32
-4.005464529700103852e-32
-2.997004421813199578e-32
-2.330671999002468058e-32
-1.580037793918006869e-32
-1.156996171951194462e-32
-8.232317833884617130e-33
-5.745854668132201978e-33
-4.035807315688968730e-33
-2.862351825272108763e-33
-2.060279378522708792e-33
-1.507669471057732912e-33
-1.125462042007824707e-33
-8.546124740018116986e-34
-6.578344086065998361e-34
-5.102705193457653623e-34
-3.959581729212491194e-34
-3.051926040084709561e-34
-2.322069072406039370e-34
