# bin_6_10
-4.836347666644457879e-17
-5.301925405245921363e-17
-5.676684512602576523e-17
-5.898467738881404397e-17
-5.913937057599477774e-17
-5.644836274816185712e-17
-5.086310903395766591e-17
-4.332422589386636318e-17
-3.549849428747165836e-17
-2.942532991018785401e-17
-2.542916863773301346e-17
-2.105383272625186651e-17
-1.497858515975082078e-17
-1.113948525278362802e-17
-8.749213776326236150e-18
-5.953997133208214158e-18
-4.425568357709175451e-18
-3.172365047638063903e-18
-2.251743869730183514e-18
-1.617839050392836953e-18
-1.177059970386657505e-18
-8.713797302338330682e-19
-6.564282614052489966e-19
-5.034132533643438850e-19
-3.909917079874069446e-19
-3.058049479578664173e-19
-2.392289750207353677e-19
-1.858453812860149175e-19
-1.424833514320404573e-19
-1.072495005325226879e-19
-7.893612324342110168e-20
