# bin_20_1
-3.786846714685265175e-09
-3.667052023313462578e-09
-3.364067005872118587e-09
-2.921668650992283265e-09
-2.424682189900142737e-09
-1.997317419907806967e-09
-1.696160891961454196e-09
-1.429573262923945431e-09
-1.086752019546455317e-09
-7.864774394435266797e-10
-6.163189656331210822e-10
-4.462800552583501366e-10
-3.309395043941657995e-10
-2.420301580166620453e-10
-1.799554809705405702e-10
-1.352939081299180592e-10
-1.035383242109748973e-10
-8.073080165465429108e-11
-6.392602241851705561e-11
-5.115329202483912830e-11
-4.106125782248543215e-11
-3.281252153031602655e-11
-2.592055024385731355e-11
-2.011445350639614600e-11
-1.525481822648503235e-11
-1.126689816523817718e-11
-8.092399770377748263e-12
-5.655165063963089443e-12
-3.853741001794103320e-12
-2.568786771008272094e-12
-1.680566256035093425e-12
