# bin_1_2
-1.905924270880660649e-11
-1.871475849718968261e-11
-1.742144495992876053e-11
-1.534076065801587463e-11
-1.281959412913133243e-11
-1.050226638966308960e-11
-8.852458661457430180e-12
-7.592197401781478867e-12
-5.949691033648801416e-12
-4.215829668289878594e-12
-3.315001144313982854e-12
-2.435527200442641615e-12
-1.788938414382284766e-12
-1.302821402057747581e-12
-9.683237545792983280e-13
-7.231124693551158860e-13
-5.493211837292864793e-13
-4.254112110691689318e-13
-3.350233238003067685e-13
-2.671735079302813679e-13
-2.142812571689041735e-13
-1.715059031613825437e-13
-1.360009267618063068e-13
-1.061436103040005845e-13
-8.107462682430297626e-14
-6.034941390244467157e-14
-4.368515747137998014e-14
-3.074670576550301932e-14
-2.108226345267634128e-14
-1.412471412939549348e-14
-9.278804605686429666e-15
