# bin_1_19
-2.525419849769178022e-94
-2.829653093017650005e-94
-3.112218478679245395e-94
-3.344616567109856353e-94
-3.490780868441701741e-94
-3.517106362374132368e-94
-3.379562347624761359e-94
-3.064584612645819422e-94
-2.627301915467807442e-94
-2.157117747660930259e-94
-1.781234340679209603e-94
-1.536727393239990828e-94
-1.287933360379389321e-94
-9.271220329638837807e-95
-6.740671096372382744e-95
-5.386356626696839317e-95
-3.586336693663509760e-95
-2.692030305934656643e-95
-1.883094225255023856e-95
-1.307916122626282879e-95
-9.184559699761974228e-96
-6.475947355289454102e-96
-4.627282972183642299e-96
-3.356569192223231977e-96
-2.484735497861021418e-96
-1.872906871039646323e-96
-1.433500652946209036e-96
-1.108396512294771513e-96
-8.595989947023914573e-97
-6.638113328706959728e-97
-5.070560248303418601e-97
