# bin_20_13
-2.809972833166359765e-10
-3.149912560707281985e-10
-3.466377922298504569e-10
-3.727787140284529436e-10
-3.894086612129585520e-10
-3.927301031480262052e-10
-3.779430512614409010e-10
-3.432795613477432411e-10
-2.947954575460040995e-10
-2.422403949231823574e-10
-1.998742839515667349e-10
-1.722368442380859531e-10
-1.446953824284100080e-10
-1.046848747955949566e-10
-7.573136253810174964e-11
-6.066304209909803262e-11
-4.041240093199898991e-11
-3.037087285076581319e-11
-2.117827800364444404e-11
-1.470680102621040847e-11
-1.032896456362778266e-11
-7.280756392081467961e-12
-5.195601930970674172e-12
-3.762296303332428887e-12
-2.780255287473160872e-12
-2.092333418210041685e-12
-1.599337982627968168e-12
-1.235551937879991979e-12
-9.578718071364767695e-13
-7.398147880761190707e-13
-5.654521318066908329e-13
