# bin_3_3
-1.472097070043033493e-10
-1.505626481744040513e-10
-1.480411636109974952e-10
-1.379440250464372291e-10
-1.215492595339291897e-10
-1.015587341747699014e-10
-8.314455668678641677e-11
-7.009395480619904233e-11
-6.023971174366584528e-11
-4.721957661533059134e-11
-3.328089997260011041e-11
-2.626120518021841448e-11
-1.919382498079190486e-11
-1.408114136058015974e-11
-1.016211089359043019e-11
-7.510897855029372635e-12
-5.555467208246297171e-12
-4.171473636716669527e-12
-3.191803598762328433e-12
-2.484676362281517479e-12
-1.962215625064514022e-12
-1.562415739039740249e-12
-1.245003612653135155e-12
-9.857303215747643007e-13
-7.702061708100577893e-13
-5.903592012724087227e-13
-4.417807650193040641e-13
-3.217803305069684121e-13
-2.278641238712829319e-13
-1.570712522552832224e-13
-1.056730144529981299e-13
