# bin_1_20
-9.516879104593240368e-100
-1.068912865097844778e-99
-1.179117719710568581e-99
-1.271788283614972963e-99
-1.333492637492039160e-99
-1.350525971055925712e-99
-1.307747694542656650e-99
-1.195301985402961897e-99
-1.033110389836084361e-99
-8.511343414023135340e-100
-6.997919842946439247e-100
-6.008905739998622572e-100
-5.101630922068541686e-100
-3.752733913670803395e-100
-2.661228350107806291e-100
-2.162338913152523891e-100
-1.433160257621292875e-100
-1.088674610401001712e-100
-7.501144094204074588e-101
-5.197560347123955883e-101
-3.651321645141512898e-101
-2.567211754990386069e-101
-1.822421609754699597e-101
-1.310826494847199073e-101
-9.622317843323740569e-102
-7.197557961920223426e-102
-5.474560358789407370e-102
-4.216310458982083538e-102
-3.265451539573139496e-102
-2.524662011068036749e-102
-1.934942743993062958e-102
