# bin_7_6
-2.028934416451226050e-10
-2.183664621557757427e-10
-2.284860221366320604e-10
-2.309622886042259682e-10
-2.231888711043655149e-10
-2.037145836829025062e-10
-1.758554869766743984e-10
-1.448857256179604348e-10
-1.191978368895791410e-10
-1.021929464982612432e-10
-8.644456411427315223e-11
-6.380225926632176545e-11
-4.570562205684552789e-11
-3.686294877610223377e-11
-2.515074884100116289e-11
-1.910296418598298106e-11
-1.351820216114753661e-11
-9.725807839438761610e-12
-7.097884418225054916e-12
-5.238689548610010938e-12
-3.930501082637505289e-12
-2.998675566183463303e-12
-2.326498327984588491e-12
-1.824663448338076206e-12
-1.437298873004918619e-12
-1.129368883219186069e-12
-8.790151125255943641e-13
-6.736122376569851615e-13
-5.056818338288472058e-13
-3.704234864563180843e-13
-2.641737354906686452e-13
