# bin_8_20
-2.740845519936695906e-41
-3.089867342179854432e-41
-3.423589178962762935e-41
-3.712903464005113317e-41
-3.919788005627597141e-41
-4.000477128697639954e-41
-3.918422517856230315e-41
-3.627487662580118609e-41
-3.175346753341278974e-41
-2.634867931659704167e-41
-2.157225864279715112e-41
-1.835309140104712300e-41
-1.580136854515757673e-41
-1.204866775207811220e-41
-8.349666238556368512e-42
-6.774906667391015276e-42
-4.620386699645299495e-42
-3.465448381187397431e-42
-2.339713939649369348e-42
-1.639920121382611371e-42
-1.147304438385224681e-42
-8.025758741484149847e-43
-5.641668607344784459e-43
-4.006090659447162330e-43
-2.899793420168610771e-43
-2.140282045790742884e-43
-1.609095098213021495e-43
-1.229066793065982308e-43
-9.479872628456166899e-44
-7.330883769822686451e-44
-5.641723323558108082e-44
