# bin_4_4
-1.116087096397155854e-10
-1.165723111483019428e-10
-1.176295712006115933e-10
-1.134333725118518256e-10
-1.033536542033360388e-10
-8.907686700962866523e-11
-7.336678097942165669e-11
-6.041474976704805499e-11
-5.178239953694396065e-11
-4.365090653028154645e-11
-3.220120196418395684e-11
-2.322892405138902472e-11
-1.864173739718418451e-11
-1.286928633545650714e-11
-9.762633625439707530e-12
-6.991578470038032605e-12
-5.097391915148112351e-12
-3.772911129151977921e-12
-2.832796031313118704e-12
-2.165084366646693563e-12
-1.682022363553430350e-12
-1.325176607982112844e-12
-1.051401864785699364e-12
-8.340943788634688605e-13
-6.570127000256465249e-13
-5.104142659342029622e-13
-3.888534395531727151e-13
-2.891967920523636444e-13
-2.093334099966419589e-13
-1.473578368532431895e-13
-1.009986862209316118e-13
