# bin_5_10
-4.500959510305885062e-20
-4.920848687097027743e-20
-5.250847255017954270e-20
-5.432361232055211899e-20
-5.419001448855944497e-20
-5.136072901730830951e-20
-4.596976675393161908e-20
-3.889047105780525783e-20
-3.181694677291795487e-20
-2.651135073536808559e-20
-2.294529733300190681e-20
-1.870976550210735825e-20
-1.313864696692796291e-20
-1.000928903922441699e-20
-7.666287022483383394e-21
-5.320202866767079581e-21
-3.867043784664346429e-21
-2.806474516213047488e-21
-2.001001129521406485e-21
-1.440221186887671426e-21
-1.053209549148980726e-21
-7.837084047810833486e-22
-5.936130988066012944e-22
-4.572920155505200697e-22
-3.563223638948773669e-22
-2.791742418797981164e-22
-2.184079696023507373e-22
-1.694192549385209919e-22
-1.295231519782548692e-22
-9.711092056127521469e-23
-7.112724680683079127e-23
