# bin_4_2
-1.049317033444136731e-09
-1.053162038996360152e-09
-1.008881299299859167e-09
-9.139475137914805705e-10
-7.836883982925368984e-10
-6.452682775649674011e-10
-5.336416532964479569e-10
-4.571058678951192932e-10
-3.802636756324240093e-10
-2.794440982635310517e-10
-2.052958456795873739e-10
-1.614993844615191328e-10
-1.139966394898837582e-10
-8.547991561888710684e-11
-6.214112366813349111e-11
-4.590401822147544794e-11
-3.441304001290846784e-11
-2.624067995318599073e-11
-2.037799024324881340e-11
-1.606749717224539115e-11
-1.280511619703695715e-11
-1.023743809652787965e-11
-8.149885756724126250e-12
-6.415669776864624374e-12
-4.962600483303793286e-12
-3.752370802101219047e-12
-2.763520874915525010e-12
-1.979063635600276255e-12
-1.378879158434574097e-12
-9.367635186263473538e-13
-6.225395238604593672e-13
