# bin_12_12
-2.666218986682374277e-11
-2.973307045616869023e-11
-3.251310632514130095e-11
-3.468978977758635873e-11
-3.587294418370975182e-11
-3.575810682216794964e-11
-3.384747267074796257e-11
-3.025531170780785355e-11
-2.556027671106007518e-11
-2.090993020898425789e-11
-1.745391115052596666e-11
-1.511739971814027118e-11
-1.227382836423723224e-11
-8.574785685808680192e-12
-6.564367792760556244e-12
-4.973017537758185304e-12
-3.445486224027149100e-12
-2.462815121032854115e-12
-1.772032105095665292e-12
-1.242586336253225727e-12
-8.748144596174651307e-13
-6.240690398146615168e-13
-4.517670814468299430e-13
-3.327904273910122931e-13
-2.499507476163055802e-13
-1.907832884800012971e-13
-1.473989114224370175e-13
-1.145342553214973365e-13
-8.885635481432597856e-14
-6.835062047485845295e-14
-5.182614340516753616e-14
