# bin_9_4
-1.088069292235239182e-09
-1.144073562036007985e-09
-1.163397647100458373e-09
-1.134381228964095316e-09
-1.046371528121769133e-09
-9.128734982718011709e-10
-7.572366067533700257e-10
-6.210450970715458469e-10
-5.278847593274474114e-10
-4.508135505171566916e-10
-3.435338243480275435e-10
-2.430618986234576427e-10
-1.946392187743028467e-10
-1.374308800214571698e-10
-1.028159785983172160e-10
-7.317940271333794539e-11
-5.356617234726337421e-11
-3.941549487119513972e-11
-2.938105183068052244e-11
-2.229209943593843363e-11
-1.720009581648565769e-11
-1.347667462733487602e-11
-1.065753855550964429e-11
-8.446666142780589145e-12
-6.662487350610441422e-12
-5.194340172487267595e-12
-3.978887759854694317e-12
-2.979909144290461639e-12
-2.174369877809442293e-12
-1.543283225682079186e-12
-1.066026233653880259e-12
