# bin_9_12
-1.621095381821467817e-14
-1.800078666458986667e-14
-1.958059814507468841e-14
-2.075499710679285556e-14
-2.128857572383362821e-14
-2.100195714085474017e-14
-1.961697917092861754e-14
-1.731818428524584074e-14
-1.446595485528826932e-14
-1.182729056154363083e-14
-9.980163086527566312e-15
-8.628684244778774655e-15
-6.763290474752454866e-15
-4.678726343387905222e-15
-3.728911224489177714e-15
-2.667065250283647792e-15
-1.945602186684881368e-15
-1.339584153486483192e-15
-9.677582074661437651e-16
-6.859254815127734234e-16
-4.881776850397522780e-16
-3.521604646079445633e-16
-2.576636701687202489e-16
-1.921581488354135088e-16
-1.459166814578408558e-16
-1.123654460187935177e-16
-8.731616550939957799e-17
-6.798731020356908186e-17
-5.266511840212214454e-17
-4.032275005103970641e-17
-3.035543511168990766e-17
