# bin_3_18
-1.865366211875243956e-68
-2.086727652069320779e-68
-2.290593186922750667e-68
-2.455630684339098980e-68
-2.554956785080682282e-68
-2.565080917579301964e-68
-2.452143762277916306e-68
-2.212396947595303180e-68
-1.886788305825978413e-68
-1.546479829006647493e-68
-1.281288236010309469e-68
-1.107899264446673257e-68
-9.194660438730965092e-69
-6.536985955321249996e-69
-4.838100457970456902e-69
-3.804265299173314671e-69
-2.558399722254725746e-69
-1.893170334855462296e-69
-1.338273991200678657e-69
-9.322152256244924074e-70
-6.546043453647397311e-70
-4.631176588773621059e-70
-3.324165632665488180e-70
-2.424612392844879480e-70
-1.804358716641608236e-70
-1.366448229009288938e-70
-1.049687240373046295e-70
-8.133363226522714080e-71
-6.310561413074043917e-71
-4.867824364166832131e-71
-3.709371487586554499e-71
