# bin_17_19
-6.899066460924897847e-13
-7.823052320296094469e-13
-8.729593450694361515e-13
-9.549974103257605973e-13
-1.019184045223654792e-12
-1.053966534723509731e-12
-1.050474712126463290e-12
-9.938521296216766570e-13
-8.878937165481055840e-13
-7.495596481919016124e-13
-6.131868992925948404e-13
-5.124141832094963846e-13
-4.441288146647048220e-13
-3.597951709223984618e-13
-2.503384034705429966e-13
-1.921759063888870828e-13
-1.444718454410161390e-13
-9.968433122429896120e-14
-7.011964238391162674e-14
-4.993281756769643538e-14
-3.430379051165048983e-14
-2.347617826211912169e-14
-1.619900380349407562e-14
-1.127346118251773533e-14
-7.951204140043519435e-15
-5.715329162359215423e-15
-4.189297191235346088e-15
-3.133060675477258826e-15
-2.382380372623748416e-15
-1.831127517442111701e-15
-1.412153829246478467e-15
