# bin_14_17
-4.626581060234391853e-14
-5.220428782518686350e-14
-5.790485876449756797e-14
-6.288127764343694362e-14
-6.649436680827971877e-14
-6.799358866413249830e-14
-6.678029181843485734e-14
-6.202335570976513453e-14
-5.446097980339674290e-14
-4.529216665377104694e-14
-3.706072619161847645e-14
-3.144648976881804060e-14
-2.713106755160119097e-14
-2.088138268133007197e-14
-1.443463800309492159e-14
-1.165378269604804680e-14
-8.055966425840145229e-15
-5.982720706378095221e-15
-4.033529360087801014e-15
-2.845097537207790610e-15
-1.984621016525113965e-15
-1.383681626802699553e-15
-9.701929753915790659e-16
-6.868014515410219036e-16
-4.952981797416624643e-16
-3.642348118532974263e-16
-2.729231155326572604e-16
-2.079297728428687535e-16
-1.601336321014620843e-16
-1.237878820417211154e-16
-9.533493068871023112e-17
