# bin_15_14
-5.238741780188521740e-11
-5.884392554459160873e-11
-6.491542159840829830e-11
-7.002366073379411913e-11
-7.342944924559648691e-11
-7.437674613924924012e-11
-7.203638432383545585e-11
-6.586152278045155669e-11
-5.694140207796747337e-11
-4.692263072573407471e-11
-3.857914929869646115e-11
-3.311718058464515493e-11
-2.811946686204034703e-11
-2.070579978356012861e-11
-1.468313598734029364e-11
-1.191681355479501901e-11
-7.914899895299245339e-12
-6.003571887580010654e-12
-4.134318694306792669e-12
-2.866775822817209750e-12
-2.013618592721050581e-12
-1.415837127653785953e-12
-1.004889838634869666e-12
-7.226027476288058361e-13
-5.302684025661236873e-13
-3.965216931743400802e-13
-3.015141836452122172e-13
-2.321631715797724596e-13
-1.797799192298975070e-13
-1.389879529803798607e-13
-1.065264031682921767e-13
