# bin_9_5
-7.447808116341062358e-10
-7.942242982117099611e-10
-8.214221256495076948e-10
-8.191075488236851886e-10
-7.766178128015115497e-10
-6.956169442443659206e-10
-5.893425288572938799e-10
-4.826861240645955432e-10
-4.019298430494087597e-10
-3.469005985462794421e-10
-2.830245743913291564e-10
-2.008859096229427925e-10
-1.522443715437618376e-10
-1.171071064768212782e-10
-8.196688420315179745e-11
-6.031768695930261766e-11
-4.386400485722079003e-11
-3.173732789383919478e-11
-2.328961436253354065e-11
-1.737070103900899239e-11
-1.319057001463957779e-11
-1.018660093750829641e-11
-7.977561738167337229e-12
-6.293391582555036157e-12
-4.967347882419263035e-12
-3.895497444569360817e-12
-3.015113119634725450e-12
-2.290484750854714323e-12
-1.700152345415246971e-12
-1.229144556002896509e-12
-8.645802738350454499e-13
