# bin_18_17
-3.713308381399846324e-11
-4.201586041318377473e-11
-4.676058326254464082e-11
-5.098907559570940704e-11
-5.419621181168749497e-11
-5.576211977650828929e-11
-5.522565216215819658e-11
-5.182195918406799268e-11
-4.594329900323927458e-11
-3.851224422652416137e-11
-3.148974384738030454e-11
-2.649185365434476227e-11
-2.294353452333377498e-11
-1.818521685210809941e-11
-1.256109214925991425e-11
-9.897990383686359452e-12
-7.172304316493862771e-12
-5.115619553915759635e-12
-3.499356306481553858e-12
-2.500674688257284624e-12
-1.728419634605697877e-12
-1.190797157219502640e-12
-8.279145794106809803e-13
-5.805658950693905097e-13
-4.136367689687472114e-13
-3.004734014143310463e-13
-2.225508439086523006e-13
-1.679581330502700285e-13
-1.285551880658864378e-13
-9.914295253918652291e-14
-7.646198620492261720e-14
