# bin_15_19
-2.752787495311170095e-15
-3.116959418307729841e-15
-3.471929037903281641e-15
-3.789878527278789039e-15
-4.033533178263707000e-15
-4.156761692643380413e-15
-4.125362978667945155e-15
-3.881248892519440994e-15
-3.449357470204644094e-15
-2.897614161724700208e-15
-2.369261788445717850e-15
-1.988953412453240548e-15
-1.723474112237096156e-15
-1.376006052648946967e-15
-9.514821956330762893e-16
-7.441848948670724029e-16
-5.457685899811550488e-16
-3.850284526171977114e-16
-2.651956013118838733e-16
-1.897447382240012178e-16
-1.308742964079513611e-16
-8.991366653956107972e-17
-6.237231231547371826e-17
-4.363422198837276968e-17
-3.099016735509505845e-17
-2.243868192956704421e-17
-1.656718040192412862e-17
-1.246975006927755461e-17
-9.526730764419807597e-18
-7.340928149795980098e-18
-5.662588452603996943e-18
