# bin_11_15
-6.781374802208969007e-16
-7.602027829121632561e-16
-8.366153023497663041e-16
-8.997537001455696874e-16
-9.399572095690836486e-16
-9.480546278187057693e-16
-9.124068696348429340e-16
-8.286834403334633963e-16
-7.116036938804508631e-16
-5.846239701006494780e-16
-4.822980054749883681e-16
-4.157311910519204634e-16
-3.493978289016492538e-16
-2.525806284796476938e-16
-1.826553426128071532e-16
-1.465678264464013242e-16
-9.739753047621743467e-17
-7.335364183290979271e-17
-5.115270906478556622e-17
-3.550262443092599148e-17
-2.493324800271283759e-17
-1.756704389961074671e-17
-1.253544729988651208e-17
-9.077635546694951644e-18
-6.708706467990333543e-18
-5.049262248578463509e-18
-3.860043682722537817e-18
-2.982468376692289174e-18
-2.312521185759162112e-18
-1.786317501575299578e-18
-1.365450279044928880e-18
