# bin_15_16
-4.535965919149708348e-12
-5.114871889794435717e-12
-5.669019839621288443e-12
-6.150379146323398066e-12
-6.496096863030414587e-12
-6.633461091273922396e-12
-6.502411025041048983e-12
-6.025284353626593295e-12
-5.278978443903572361e-12
-4.383400738720274070e-12
-3.588290504751162402e-12
-3.050398308860294074e-12
-2.627673562551018512e-12
-2.009151801514600423e-12
-1.391544347711344759e-12
-1.127174897322295121e-12
-7.720531349666592286e-13
-5.771579158325355412e-13
-3.895991085232903488e-13
-2.736386067643359839e-13
-1.912506053229812164e-13
-1.336354438896792149e-13
-9.386805444992727658e-14
-6.659514804175797118e-14
-4.815212566603079837e-14
-3.550190770754050750e-14
-2.666450246522673721e-14
-2.035136899190504011e-14
-1.568981991326341012e-14
-1.213149964685769493e-14
-9.337953384605660651e-15
