# bin_8_8
-4.771689309987975914e-11
-5.213675539261669718e-11
-5.559143457932188678e-11
-5.746012027366946735e-11
-5.725200472354534059e-11
-5.418392320441494429e-11
-4.843223305157709340e-11
-4.092591873151739142e-11
-3.348170062705043751e-11
-2.793130824674765978e-11
-2.416745079736632886e-11
-1.963274583998280840e-11
-1.377705530211249284e-11
-1.053877702617540502e-11
-8.024752251465001688e-12
-5.599307229042373807e-12
-4.053873732480569198e-12
-2.943314042153020813e-12
-2.100876130279065069e-12
-1.513849591354585743e-12
-1.108271309810185184e-12
-8.254497742637881038e-13
-6.258417733877232059e-13
-4.824892634443977956e-13
-3.761465839075025644e-13
-2.947650113566778274e-13
-2.305762703748558884e-13
-1.787852199780486802e-13
-1.365943953455535894e-13
-1.023254874726163781e-13
-7.487192668236610387e-14
