# bin_16_14
-9.057512963442603427e-11
-1.017794368284381150e-10
-1.123360897879801170e-10
-1.212493497846880605e-10
-1.272436500737306326e-10
-1.289952080259851746e-10
-1.250969638015977752e-10
-1.145329640311607687e-10
-9.916036529493670872e-11
-8.177186930121110451e-11
-6.719306690534026430e-11
-5.762523191798049879e-11
-4.901791513098008288e-11
-3.623680609061753945e-11
-2.561288376567980462e-11
-2.080707333985198268e-11
-1.384337554627844918e-11
-1.049935960464424874e-11
-7.212228619805359744e-12
-5.003737829164155440e-12
-3.513998526347566204e-12
-2.469815714299041113e-12
-1.751030798008409921e-12
-1.257327145250963673e-12
-9.212733478028494470e-13
-6.879336824858349796e-13
-5.224771350574455865e-13
-4.019749672414519693e-13
-3.111638144867473142e-13
-2.405835169780961094e-13
-1.844856566030910828e-13
