# bin_10_3
-1.669310814718973565e-09
-1.722649074874174824e-09
-1.713305130474743944e-09
-1.620143090026628251e-09
-1.448088086081813441e-09
-1.225331522650189381e-09
-1.004290048119509380e-09
-8.374997425730690961e-10
-7.210015457797596388e-10
-5.849997877599393162e-10
-4.175987413017113896e-10
-3.174725161641873594e-10
-2.429294181497976736e-10
-1.722774174916037781e-10
-1.272333253259523910e-10
-9.309861748577860721e-11
-6.829972270502814423e-11
-5.091677189444544142e-11
-3.863082600959867351e-11
-2.984067315259061307e-11
-2.340921929527696500e-11
-1.856381546095615802e-11
-1.477208608612120511e-11
-1.171093284872861178e-11
-9.185809622242472056e-12
-7.083912256632214133e-12
-5.343268931925744461e-12
-3.927465796896298409e-12
-2.807527798955076810e-12
-1.952652474938841121e-12
-1.324043803842763919e-12
