# bin_19_18
-3.352412750103495059e-11
-3.800549714674327355e-11
-4.239795122685057044e-11
-4.636680161639726511e-11
-4.946250740648842043e-11
-5.112378955934489076e-11
-5.092137751468363266e-11
-4.813647633804226212e-11
-4.297108925259145507e-11
-3.625038921722417119e-11
-2.965342523447820186e-11
-2.479682918444949503e-11
-2.149088273790309320e-11
-1.737198761307733855e-11
-1.207795872202707616e-11
-9.296643924486991410e-12
-6.963382810724072476e-12
-4.820802853211699825e-12
-3.381009891030767418e-12
-2.408722257756737909e-12
-1.655764096410352139e-12
-1.133893972373190626e-12
-7.830140353767661273e-13
-5.453396456760214676e-13
-3.850232182238193248e-13
-2.770522784758349630e-13
-2.032952621958451169e-13
-1.521825384170383214e-13
-1.157991563904834943e-13
-8.903637833226154956e-14
-6.866473462944165901e-14
