# bin_17_2
-2.812282000674647213e-09
-2.831285323945238230e-09
-2.723799378888166451e-09
-2.478579410393690816e-09
-2.134602582918803537e-09
-1.761025135232771321e-09
-1.453335896819189249e-09
-1.242340787454431153e-09
-1.040243068128706879e-09
-7.719468595345863929e-10
-5.621903012965704466e-10
-4.439759311133178097e-10
-3.140481716770991090e-10
-2.353281516914078351e-10
-1.706300601982025484e-10
-1.260103646434116503e-10
-9.427191580884240771e-11
-7.170686716564011105e-11
-5.555475221544505318e-11
-4.371539002008364153e-11
-3.479254568288029801e-11
-2.780152326642226461e-11
-2.213873912586828007e-11
-1.744616694180035329e-11
-1.351827988099344897e-11
-1.024502811158033726e-11
-7.565184517029545373e-12
-5.432791563630013949e-12
-3.795227993718887860e-12
-2.584439765960475465e-12
-1.720948553011414254e-12
