# bin_1_16
-2.101014389173415647e-77
-2.333856594754535172e-77
-2.539846146294124742e-77
-2.693707453493096926e-77
-2.764811870883274562e-77
-2.730101643366809126e-77
-2.552897689008524057e-77
-2.256067729777829957e-77
-1.886020720895922166e-77
-1.541808739834315381e-77
-1.299841318591715448e-77
-1.124405156018058417e-77
-8.840481497745070648e-78
-6.113050712247245338e-78
-4.861349486816320884e-78
-3.493195954520623675e-78
-2.538426395774854311e-78
-1.748838987286875760e-78
-1.265427236667004194e-78
-8.960160875379607082e-79
-6.369438623199334125e-79
-4.591133495595157222e-79
-3.356339062015580108e-79
-2.500710898352266244e-79
-1.897390113367831483e-79
-1.460204924031492917e-79
-1.134279000620426740e-79
-8.831327684867716669e-80
-6.842471998433608165e-80
-5.241231964589688738e-80
-3.948150090918759146e-80
