# bin_13_2
-2.572726936298929328e-09
-2.589669389938271010e-09
-2.490770442655258005e-09
-2.265970189707275672e-09
-1.951032823314663864e-09
-1.609408928859321780e-09
-1.328362045423910069e-09
-1.135638731976486395e-09
-9.505610228041636466e-10
-7.050211550287245576e-10
-5.136923184161354563e-10
-4.055910334785040937e-10
-2.868631548298471102e-10
-2.149655986895525320e-10
-1.558876162672134698e-10
-1.151248393194111090e-10
-8.613782701332443715e-11
-6.552859686987521292e-11
-5.077470578071046986e-11
-3.995843109132624795e-11
-3.180477401753859974e-11
-2.541482413790179259e-11
-2.023786173058219782e-11
-1.594728454111206234e-11
-1.235568590700300385e-11
-9.362765907283277790e-12
-6.912701825896737356e-12
-4.963472998114084515e-12
-3.466874484518506963e-12
-2.360538676775532683e-12
-1.571686144585796878e-12
