# bin_12_17
-1.755081862476760132e-17
-1.976382522081028215e-17
-2.186949875890691993e-17
-2.367907892493618561e-17
-2.494786991362181586e-17
-2.540274987881113702e-17
-2.479805538617407357e-17
-2.286765106754760292e-17
-1.994140432086366546e-17
-1.650732836184932644e-17
-1.352772475946557658e-17
-1.154358532490644502e-17
-9.905224453206193068e-18
-7.470432240780745907e-18
-5.201756319551075445e-18
-4.235798619005018736e-18
-2.851513941865215589e-18
-2.155776826853803703e-18
-1.462633182977777725e-18
-1.019011021675136039e-18
-7.146414195478679475e-19
-5.011944431959893277e-19
-3.533668005625677040e-19
-2.518803146054925446e-19
-1.831177660289793391e-19
-1.357272956467504217e-19
-1.024269419967511859e-19
-7.845452333022887871e-20
-6.060445047734442642e-20
-4.687375888667356169e-20
-3.603408660933903476e-20
