# bin_7_9
-4.085990789017383156e-13
-4.474496918835419733e-13
-4.784339268832620086e-13
-4.962755489783757389e-13
-4.965800686291698644e-13
-4.726763663250337876e-13
-4.247914244208217717e-13
-3.608765173978017164e-13
-2.955148510419150564e-13
-2.454509617050063558e-13
-2.122401008602703054e-13
-1.746827329212635031e-13
-1.236633377118149926e-13
-9.282176369870268071e-14
-7.220546578964850863e-14
-4.950581115689880346e-14
-3.648920735007463574e-14
-2.627621771857829480e-14
-1.868292661586018012e-14
-1.343322310098972188e-14
-9.792377340420987913e-15
-7.263674759902550322e-15
-5.483481248016022993e-15
-4.212634461563218570e-15
-3.276007842645090604e-15
-2.563987615388586682e-15
-2.005824508216388943e-15
-1.557318638652488587e-15
-1.192637662773106028e-15
-8.963366604651769742e-16
-6.584595577164804278e-16
