# bin_5_13
-1.946252235290917187e-30
-2.151242992475128314e-30
-2.326880265673025089e-30
-2.449164431255417766e-30
-2.491595122402328119e-30
-2.429725550689472924e-30
-2.238442465919664576e-30
-1.950268308915448095e-30
-1.613647219817854013e-30
-1.322338861809000609e-30
-1.128202078950083420e-30
-9.669512857377599706e-31
-7.289976216591500018e-31
-5.094211749903837560e-31
-4.149507690142675876e-31
-2.816328402576970684e-31
-2.139288683130868756e-31
-1.473800623820878685e-31
-1.045786376510586800e-31
-7.491594292578703411e-32
-5.396903112640561627e-32
-3.931844542011435029e-32
-2.907853376726300603e-32
-2.193518246778724895e-32
-1.681856784096524883e-32
-1.304524318088701735e-32
-1.017692269889090147e-32
-7.926760655118284871e-33
-6.122326203093242511e-33
-4.660809057339564021e-33
-3.480863521293556446e-33
