# bin_17_9
-5.378297862528400697e-10
-5.930420960560054231e-10
-6.395546028144325556e-10
-6.706565607905810940e-10
-6.794405982113935320e-10
-6.584820908133467294e-10
-6.026761961624563930e-10
-5.216410603032162229e-10
-4.302209751148186555e-10
-3.535463157822809471e-10
-3.029312562613314382e-10
-2.573696496834964029e-10
-1.906804638180604003e-10
-1.353307538593584566e-10
-1.096265094200932074e-10
-7.399343201418640441e-11
-5.616407370016798141e-11
-3.912861723585755712e-11
-2.771456181351920449e-11
-1.987498916003899776e-11
-1.435020028696223137e-11
-1.050236978266642269e-11
-7.809230407534074176e-12
-5.920390347814604755e-12
-4.557622042475784700e-12
-3.544668299319569941e-12
-2.768231628627887685e-12
-2.154932695446944596e-12
-1.661037797442247586e-12
-1.260476585369053239e-12
-9.374454552331712799e-13
