# bin_3_13
-8.065697644084919371e-43
-8.883745278155874367e-43
-9.567209103152935321e-43
-1.001492990217178617e-42
-1.012606693486639415e-42
-9.784271033476009228e-43
-8.924535795838601886e-43
-7.697986008987126427e-43
-6.336041309039393752e-43
-5.212581100538862807e-43
-4.477948407118543936e-43
-3.790597447088277737e-43
-2.779908957081675399e-43
-1.985805879462053129e-43
-1.610084236893298719e-43
-1.077848940566560540e-43
-8.216526306282976762e-44
-5.754161953995871673e-44
-4.064074718366355740e-44
-2.917968169778225140e-44
-2.109692294828186550e-44
-1.547728330829110804e-44
-1.154102219028477708e-44
-8.773335663903203588e-45
-6.768735797773869402e-45
-5.272467739404048939e-45
-4.120495523671727028e-45
-3.207162389582293148e-45
-2.469888912833260291e-45
-1.871392804297859701e-45
-1.388905137449138845e-45
