# bin_11_11
-3.024127015062940864e-11
-3.359041064150229604e-11
-3.655213522796729705e-11
-3.876260824477021072e-11
-3.978222163011009183e-11
-3.927633444619323188e-11
-3.672167005768712818e-11
-3.244779243337132912e-11
-2.712570070456618624e-11
-2.217797230651522708e-11
-1.869912838006554985e-11
-1.616997061109238211e-11
-1.270890984809286697e-11
-8.795652696195289807e-12
-6.990011249805046226e-12
-5.022300542501981787e-12
-3.648508278104218184e-12
-2.518112847826528102e-12
-1.819881717473181393e-12
-1.288746103848478709e-12
-9.162640127086977790e-13
-6.604490862132901198e-13
-4.828618359486004205e-13
-3.597892633096199913e-13
-2.729991143483452676e-13
-2.100998176060593261e-13
-1.632006535989954681e-13
-1.270585808174948082e-13
-9.843653887627516261e-14
-7.539379379272980707e-14
-5.678719590194904832e-14
