# bin_8_4
6.191560597640647064e-11
6.674847892261500134e-11
6.998925702421116261e-11
7.091409918516370637e-11
6.876390568136583689e-11
6.297456731356160027e-11
5.454761767732099492e-11
4.499451432623698274e-11
3.694153967372949737e-11
3.162004938448881175e-11
2.690531464659663529e-11
2.001196348275859293e-11
1.418413635230314194e-11
1.153366063338652605e-11
7.834870112493203407e-12
5.987539186944841535e-12
4.212020090382824712e-12
3.026251487922822988e-12
2.208310161453443658e-12
1.627959072033453587e-12
1.219089199542788994e-12
9.285576166040205297e-13
7.194829064116529641e-13
5.639823063117359308e-13
4.443670099297323847e-13
3.495237481949120208e-13
2.725221651780143183e-13
2.093449484937120053e-13
1.576186392307832523e-13
1.158453401488511987e-13
8.290657121036925070e-14
