# bin_9_6
2.267555065629183077e-08
2.474493126015784706e-08
2.634366223719431425e-08
2.717554378860665722e-08
2.701293543132407017e-08
2.548370511265282139e-08
2.270889611967243287e-08
1.913203644419087076e-08
1.564409707481775069e-08
1.308327714511562447e-08
1.132369779960840175e-08
9.128679785407528861e-09
6.375179139910820208e-09
4.930048031003197267e-09
3.706573289992915949e-09
2.613961914413899407e-09
1.872508209817730201e-09
1.365418346817803631e-09
9.768201745009784776e-10
7.049451352746476112e-10
5.174108114622170585e-10
3.863628600476529128e-10
2.937554845854182919e-10
2.269932003392698813e-10
1.773021598220617702e-10
1.391230462816234049e-10
1.088944798042933576e-10
8.443767112095244397e-11
6.448064945869831304e-11
4.826014948264788556e-11
3.526801674506516199e-11
