# bin_18_16
1.898859548350718173e-06
2.148030254830058691e-06
2.389908260181141892e-06
2.605112241370609620e-06
2.767763218212458921e-06
2.846132617689261414e-06
2.816841193545725649e-06
2.640866189599324993e-06
2.339222266111026610e-06
1.959276555466865293e-06
1.601875769019788118e-06
1.348666317107330509e-06
1.168029727761144256e-06
9.234202664126870035e-07
6.371546479270603357e-07
5.037514216724326833e-07
3.633917841585423726e-07
2.602633157392268128e-07
1.772911132565059903e-07
1.267683401540493294e-07
8.765257070173188253e-08
6.041373427440016347e-08
4.201877309454848211e-08
2.948008992239215685e-08
2.101599176810320264e-08
1.527487927632055773e-08
1.132206464848300403e-08
8.550850323390803454e-09
6.548852453119598086e-09
5.053056839198576869e-09
3.898462049203739843e-09
