# bin_17_11
1.025689721225699151e-12
1.152550548382855123e-12
1.272086591893632361e-12
1.373016804747363727e-12
1.440897110140575142e-12
1.460692932748384350e-12
1.416558381934325803e-12
1.296770089460271828e-12
1.122597608541078770e-12
9.255546509350243734e-13
7.604295629690896340e-13
6.523063743239130361e-13
5.550372977026870793e-13
4.100588380039855437e-13
2.895654473862531988e-13
2.357302051997230754e-13
1.563449604052616101e-13
1.188603126841597314e-13
8.165048676893086965e-14
5.656625580033704342e-14
3.973160126089753787e-14
2.791996842596687630e-14
1.978785234355383282e-14
1.421111277010839914e-14
1.041163775855160416e-14
7.775174540306859452e-15
5.906669830013939393e-15
4.545952956675442648e-15
3.520588216742875567e-15
2.723563954883033723e-15
2.089838071243028251e-15
