# bin_18_17
5.945821035956941470e-06
6.732401506898178779e-06
7.499184418279466808e-06
8.186092205297575228e-06
8.712612963845681860e-06
8.979034172239436522e-06
8.911676509918170128e-06
8.384833949886797729e-06
7.451931072219694746e-06
6.260163243344086356e-06
5.118640755731842535e-06
4.296909733141629777e-06
3.723564069842349082e-06
2.973208790027807758e-06
2.055648541116876216e-06
1.607787218507359705e-06
1.179257337875531173e-06
8.317209568690857803e-07
5.726734118429061407e-07
4.097980350215959478e-07
2.825582935823451159e-07
1.940248241624778488e-07
1.345220705436942834e-07
9.406445038638833843e-08
6.676516464952671670e-08
4.830575180406553269e-08
3.564675597119728965e-08
2.681990836997121480e-08
2.048588906018278605e-08
1.578645558671178635e-08
1.218090948497726448e-08
