# bin_6_2
1.056059163058826911e-11
1.110726942934764419e-11
1.129645699983012828e-11
1.101892370877392110e-11
1.016110235495212367e-11
8.862858516911038371e-12
7.341733458611421556e-12
6.013782714485610103e-12
5.117309032531459257e-12
4.383540184541101265e-12
3.331604981316515650e-12
2.340641266750370170e-12
1.896184309725005106e-12
1.320473211531817570e-12
1.000982778873234473e-12
7.066904939711381066e-13
5.164319682695524342e-13
3.808449335314255117e-13
2.843738962024284072e-13
2.159250574811737441e-13
1.667518337813731014e-13
1.307911952494892992e-13
1.035464428449576447e-13
8.216413266273873351e-14
6.488596987120010035e-14
5.064682720506838788e-14
3.884006873208782480e-14
2.911897062370095574e-14
2.126658848469302759e-14
1.510518110534784077e-14
1.044011962930665259e-14
