# bin_16_9
3.901396146133578087e-16
4.365554552857646833e-16
4.793699549817470856e-16
5.141319564218462258e-16
5.352310088495819922e-16
5.376897309643211383e-16
5.144990581158179059e-16
4.645925562492635541e-16
3.965851082867147052e-16
3.251370244508391027e-16
2.692110519947111690e-16
2.327150490067258743e-16
1.934836402532101025e-16
1.378297594015217819e-16
1.016876897198561443e-16
8.020375775377219282e-17
5.381597001848604019e-17
3.993548055784359501e-17
2.817376276406764208e-17
1.961111687616195092e-17
1.376791848682845260e-17
9.732110363603369785e-18
6.978205312592961726e-18
5.085316921964053853e-18
3.780396931899668991e-18
2.860855094768623812e-18
2.196801959202554057e-18
1.702112049349418082e-18
1.321153975111465083e-18
1.019899041546581159e-18
7.780396913223600354e-19
