# bin_18_9
6.919637662225528559e-22
7.771154281736997198e-22
8.571358530267899705e-22
9.243735304515662066e-22
9.690587550947209033e-22
9.812289369684224732e-22
9.499014839715715945e-22
8.679418092641536993e-22
7.499360980419721020e-22
6.177322656266032559e-22
5.079549151439135725e-22
4.362762822901040924e-22
3.702476145523943452e-22
2.720905441987336138e-22
1.930847436339789200e-22
1.568717467492122662e-22
1.039058636449610016e-22
7.893693740821010441e-23
5.441554847842780191e-23
3.769274351189376856e-23
2.647529497719498789e-23
1.861138727664093413e-23
1.321041017567898053e-23
9.506214069907655224e-24
6.978981562943116021e-24
5.221805046913291662e-24
3.973360373972037835e-24
3.061366182174706438e-24
2.371985370740191213e-24
1.834720568343659803e-24
1.406833854503189909e-24
