# bin_18_18
8.584631093910939854e-06
9.729229508918845940e-06
1.084966005321052782e-05
1.185997940617855031e-05
1.264476454102702761e-05
1.306002428570438180e-05
1.299729703436714568e-05
1.227218275682007075e-05
1.094290695198278882e-05
9.221160864186316150e-06
7.541716049770985719e-06
6.312737320027622160e-06
5.471748033612167357e-06
4.410344653476589893e-06
3.059945877216446988e-06
2.365535905574663322e-06
1.762854164391970270e-06
1.225456428902099912e-06
8.548020212725021229e-07
6.103400360306009408e-07
4.197600081180451293e-07
2.874363532055524934e-07
1.986285816613098167e-07
1.384271562341064429e-07
9.782435466897561365e-08
7.045147585381424262e-08
5.175145127029324883e-08
3.878064731216539495e-08
2.953501164196836478e-08
2.272427285574265904e-08
1.753226595823576322e-08
