# bin_13_5
4.449646678953612379e-23
4.911421373243176954e-23
5.303303900943865702e-23
5.570060320889366353e-23
5.652809490418096816e-23
5.492872918875207463e-23
5.040261885660840749e-23
4.374003316163625437e-23
3.610847907329693001e-23
2.962841200836832012e-23
2.535233257333853084e-23
2.163519035731663226e-23
1.612987602655337349e-23
1.135115089074690265e-23
9.253389138664814106e-24
6.223955550739113053e-24
4.748811482436627645e-24
3.290905083254403210e-24
2.327018444681156602e-24
1.669343215397533997e-24
1.204635932476467566e-24
8.799481008765263877e-25
6.531303075491221881e-25
4.942941469539732969e-25
3.800753321250508214e-25
2.954641258751438009e-25
2.308045805722744511e-25
1.798474231463636002e-25
1.388548718181368838e-25
1.055985612771318133e-25
7.874145011199995526e-26
