# bin_8_1
9.728111605992247025e-25
1.034810403500851840e-24
1.066778692826276868e-24
1.059788212253635844e-24
9.993758740875958089e-25
8.903445223321085456e-25
7.500633956001146051e-25
6.132998619843615551e-25
5.126974644583889409e-25
4.433868562735610648e-25
3.575836314603763103e-25
2.505796977809410807e-25
1.937534727098844265e-25
1.462919133188253157e-25
1.037530015032626194e-25
7.509574683815583995e-26
5.520586566496216913e-26
4.006704855273768170e-26
2.944451217817034154e-26
2.204556392914428965e-26
1.680922297471521962e-26
1.303550221683735525e-26
1.024197237512112291e-26
8.098941031145491790e-27
6.400971814831981483e-27
5.021011302229812025e-27
3.883489353300790925e-27
2.945515951283420295e-27
2.181331292130451574e-27
1.572533411423531273e-27
1.102757316823760942e-27
