# bin_16_6
2.284849883447433768e-29
2.547029237655832161e-29
2.783885327600613731e-29
2.968554194515026782e-29
3.067506610004063821e-29
3.055055613977283841e-29
2.888310537346177076e-29
2.578712644097683591e-29
2.175899593008259832e-29
1.779556975979626786e-29
1.486875868993302732e-29
1.288176213306503545e-29
1.042952433774179699e-29
7.267479049330919748e-30
5.589233749781992436e-30
4.213363912712088038e-30
2.930333659665625508e-30
2.083430591394503084e-30
1.503374681855478725e-30
1.054879406031286271e-30
7.426171663243670172e-31
5.302432074104075296e-31
3.841984385293299206e-31
2.833468024824080605e-31
2.130273806295431923e-31
1.627738067174159014e-31
1.258753233443588679e-31
9.787699477131127210e-32
7.596968593708780993e-32
5.845415017233313652e-32
4.432785363772689628e-32
