# bin_4_4
1.896598954196163507e-05
1.991708572043292800e-05
2.022151624352953452e-05
1.967481981403033326e-05
1.809432747003107895e-05
1.574039943983462420e-05
1.302094284907658113e-05
1.067690597749095235e-05
9.101250223330016703e-06
7.770869142065923389e-06
5.865624728003666940e-06
4.142907927709621574e-06
3.352975138430325497e-06
2.327643231757484807e-06
1.766452735972113151e-06
1.250783383424408529e-06
9.135033201360314733e-07
6.741470436491179869e-07
5.039225461169762025e-07
3.832072922163732151e-07
2.963763040085593183e-07
2.327285114030101950e-07
1.843734502638833710e-07
1.463247408361526947e-07
1.155153392263171297e-07
9.009302656148599093e-08
6.900736844743534928e-08
5.165757623793829367e-08
3.766298311343032022e-08
2.670545372815704668e-08
1.842867388032802646e-08
