# bin_13_7
-6.662056652020166771e-10
-7.233726148259413688e-10
-7.653287240446378149e-10
-7.835678477328592942e-10
-7.711832897669402005e-10
-7.186255004009973517e-10
-6.330396908273676404e-10
-5.282198237979198421e-10
-4.321139915964823740e-10
-3.649523819865040401e-10
-3.146225822321460668e-10
-2.455590723199992762e-10
-1.711235995466703183e-10
-1.363194722588356766e-10
-9.772773414770679080e-11
-7.179288453815974109e-11
-5.038862448045233029e-11
-3.668074001868766144e-11
-2.648953918928866960e-11
-1.930213740889148406e-11
-1.429371638306371581e-11
-1.076440787595544627e-11
-8.253587580320098934e-12
-6.419894677773063524e-12
-5.035799039904218887e-12
-3.957578915748812000e-12
-3.093988381014640763e-12
-2.390468585566914051e-12
-1.815084502853814663e-12
-1.348390190621345625e-12
-9.768147060292961012e-13
