# bin_15_8
-6.136685705108331944e-10
-6.712629729082172228e-10
-7.167540872295020046e-10
-7.421989212555148221e-10
-7.410965322568998545e-10
-7.035123900917146640e-10
-6.306525641345683221e-10
-5.345051032530572660e-10
-4.375939575517477322e-10
-3.642356575254759911e-10
-3.149200636314301049e-10
-2.575090453414843090e-10
-1.817895884894386789e-10
-1.375927100018718714e-10
-1.059005323028912202e-10
-7.329492931227413101e-11
-5.356482161094513600e-11
-3.868245282877215588e-11
-2.756175126886107595e-11
-1.984995192662392533e-11
-1.450531034179285524e-11
-1.078405024769091807e-11
-8.161874827500106342e-12
-6.283232055796235143e-12
-4.894662064257471678e-12
-3.835331489685758556e-12
-3.002038324011932599e-12
-2.330817549034739757e-12
-1.784234223719301640e-12
-1.339889157266659071e-12
-9.832386512689162511e-13
