# bin_19_4
-1.853769238881600967e-09
-1.945250333026644452e-09
-1.973455605596967658e-09
-1.917930108434546306e-09
-1.762581666898612565e-09
-1.532135077231931947e-09
-1.268078820026944111e-09
-1.041092228791908896e-09
-8.871624038766584601e-10
-7.549291433233770845e-10
-5.697609027641496269e-10
-4.050544779682615191e-10
-3.249107527338956682e-10
-2.276539580852050386e-10
-1.711910338542228794e-10
-1.219500930219613851e-10
-8.918566524636350851e-11
-6.576691065908118427e-11
-4.915301854126729159e-11
-3.739441180786253936e-11
-2.893522226552729370e-11
-2.272588016022399133e-11
-1.800422502374780150e-11
-1.428604615473125692e-11
-1.127381985579235489e-11
-8.788140476664632749e-12
-6.727108851434425433e-12
-5.032497989562208788e-12
-3.666966253382957397e-12
-2.598948539848956167e-12
-1.792960746113196941e-12
