# bin_4_8
-1.146636580591627159e-17
-1.234598663965699960e-17
-1.292511661753525467e-17
-1.307279234230593167e-17
-1.264326370078445027e-17
-1.154651334531804261e-17
-9.973314260016943736e-18
-8.215261793858787690e-18
-6.753119412068288404e-18
-5.790802189544082304e-18
-4.908910864020655509e-18
-3.624027931765452563e-18
-2.586104361973326899e-18
-2.097770466817321637e-18
-1.421984056131281129e-18
-1.086607893511713016e-18
-7.677242312216931550e-19
-5.512871411036427505e-19
-4.026085930009346070e-19
-2.972057097266266657e-19
-2.230031041279042907e-19
-1.702122530932117276e-19
-1.321176886338115088e-19
-1.036890325116374641e-19
-8.174672501826072507e-20
-6.429596641553093636e-20
-5.009804177239258026e-20
-3.843787282478149093e-20
-2.889231859992847692e-20
-2.119181218281707213e-20
-1.513236709490284612e-20
