# bin_1_10
-1.561717168808754700e-42
-1.683915035492684499e-42
-1.766062169487384249e-42
-1.789836200597289311e-42
-1.736191226289935581e-42
-1.590607610812650726e-42
-1.378281082741842676e-42
-1.137063010486531426e-42
-9.333737617241545824e-43
-7.987429067201469346e-43
-6.800436847181905980e-43
-5.062910534362510199e-43
-3.584690086764149649e-43
-2.916818231476548229e-43
-1.981265026929661182e-43
-1.514963935773196464e-43
-1.065094931776684360e-43
-7.653387174958838890e-44
-5.586248784578171259e-44
-4.119102259090987935e-44
-3.084839961869338410e-44
-2.349817828854862330e-44
-1.820870127393749814e-44
-1.427442483629648560e-44
-1.124783253870023426e-44
-8.847823162928329949e-45
-6.899101327995210403e-45
-5.300057976815558251e-45
-3.990688769460292531e-45
-2.933150372811494391e-45
-2.099186770381212681e-45
