# bin_13_13
-2.505252905107978527e-11
-2.799118474351349097e-11
-3.068014341319715909e-11
-3.283008387048987083e-11
-3.407753734070998816e-11
-3.411908889082544412e-11
-3.249330172515844495e-11
-2.921007038215279996e-11
-2.481929720900295571e-11
-2.032514908350806752e-11
-1.688660506339594692e-11
-1.461498830153261617e-11
-1.203139860744721268e-11
-8.490527467303381192e-12
-6.366385041482952864e-12
-4.937578107132070556e-12
-3.355370635439327531e-12
-2.450731486518433123e-12
-1.745330932302720947e-12
-1.218710424224878257e-12
-8.562806372066331327e-13
-6.077037563994155293e-13
-4.376649973106716785e-13
-3.205597307730138987e-13
-2.394546964361358421e-13
-1.819693409593684302e-13
-1.401674434570093212e-13
-1.087831026465546907e-13
-8.444701858167998303e-14
-6.510810769676820375e-14
-4.954835691812656276e-14
