# bin_7_11
-9.524628751966685452e-17
-1.048391187789630696e-16
-1.128164577207054569e-16
-1.179802600484529942e-16
-1.191556505498760283e-16
-1.149490301627156778e-16
-1.046716139246368446e-16
-9.013249572891761249e-17
-7.413172564231476323e-17
-6.104098016292362561e-17
-5.249054690711338471e-17
-4.431356443925293484e-17
-3.235408569008726987e-17
-2.322708459329161596e-17
-1.877428814846337278e-17
-1.257641172560004264e-17
-9.567468488107730900e-18
-6.721199671613483221e-18
-4.749092417794601020e-18
-3.410342292435550633e-18
-2.467674106371738137e-18
-1.812889877278001428e-18
-1.354574153085965817e-18
-1.031415370092029812e-18
-7.969496609923711343e-19
-6.215452342763962084e-19
-4.861377784196326058e-19
-3.785450756192231729e-19
-2.915561299112765360e-19
-2.208747577179811118e-19
-1.638689422505788694e-19
