# bin_7_18
-3.695203894370127902e-39
-4.140690930238340438e-39
-4.554671745245000506e-39
-4.895478506597546577e-39
-5.110387365966986447e-39
-5.149913709284030998e-39
-4.950144606111889851e-39
-4.490001904530853889e-39
-3.850545967330262604e-39
-3.161719850306789805e-39
-2.610251716237731185e-39
-2.251729659536953938e-39
-1.888216509628294489e-39
-1.360135009971453326e-39
-9.878704213574463379e-40
-7.901654351644920960e-40
-5.257442256149688747e-40
-3.949929434683424176e-40
-2.761330429885084525e-40
-1.917523516770843425e-40
-1.346560077962080811e-40
-9.492931226960317364e-41
-6.781211351570408539e-41
-4.919426953452907487e-41
-3.641007318381534135e-41
-2.744593019049289931e-41
-2.101083604331322979e-41
-1.625056047922252209e-41
-1.260831896643092110e-41
-9.742088765339516944e-42
-7.446623674979298367e-42
