# bin_11_3
-1.827796840126376676e-09
-1.881121823813555798e-09
-1.864615010726092545e-09
-1.755518006894823103e-09
-1.562378220706590984e-09
-1.316941236010565752e-09
-1.078751655865544476e-09
-9.023703088852277062e-10
-7.767466718716477004e-10
-6.240968752939575340e-10
-4.433399635534050283e-10
-3.408339861434886051e-10
-2.575161199085226541e-10
-1.842358567080004434e-10
-1.351809511216360351e-10
-9.928724668586194929e-11
-7.301849457517512118e-11
-5.456950625457548134e-11
-4.153082432618306963e-11
-3.218121083278376555e-11
-2.531933764275087031e-11
-2.012095639244642925e-11
-1.603302228059594064e-11
-1.271768437525095974e-11
-9.973309450315796925e-12
-7.684510313523729831e-12
-5.788170583200710489e-12
-4.247147743788768278e-12
-3.030611616081881753e-12
-2.104422322115253418e-12
-1.425162525400573724e-12
