# bin_20_4
-1.892053663047467860e-09
-1.985461774491872911e-09
-2.014294356302069285e-09
-1.957680997190048966e-09
-1.799175220925628952e-09
-1.563997522155374484e-09
-1.294475843098231183e-09
-1.062752423616533005e-09
-9.055989496882199436e-10
-7.706453811250284129e-10
-5.816744030069698319e-10
-4.135026570760278722e-10
-3.316848185189501245e-10
-2.324150640995403858e-10
-1.747642844107521111e-10
-1.244937667991979881e-10
-9.104684669446187439e-11
-6.713824715644172534e-11
-5.017690361815497063e-11
-3.817257280734848635e-11
-2.953678156702167152e-11
-2.319798933493796740e-11
-1.837807496548929695e-11
-1.458264932367579681e-11
-1.150792736712534469e-11
-8.970720278714543929e-12
-6.866973670943796952e-12
-5.137229695455152798e-12
-3.743363191978638299e-12
-2.653155122698843301e-12
-1.830396121693572633e-12
