# bin_4_16
-5.055896473707232115e-50
-5.621363155830654782e-50
-6.124473307802223725e-50
-6.504726304285784475e-50
-6.687990305567685510e-50
-6.619262910888061587e-50
-6.207425812875965844e-50
-5.500228574880116869e-50
-4.608616282004442045e-50
-3.767217956643934479e-50
-3.168499517918781923e-50
-2.742972492218139831e-50
-2.173863884327555150e-50
-1.504058411959850341e-50
-1.187005792469503838e-50
-8.638537032297269884e-51
-6.205268926962853163e-51
-4.299691898155998058e-51
-3.116820368519392176e-51
-2.201571311449528980e-51
-1.560442923999450477e-51
-1.122368181415760317e-51
-8.189923400492811206e-52
-6.088519095613384758e-52
-4.610763110092176044e-52
-3.543871226250960000e-52
-2.751264298990270332e-52
-2.142562607815645677e-52
-1.661699377004957929e-52
-1.274968033085990640e-52
-9.625532386908329108e-53
