# bin_5_8
-4.889548812996785708e-15
-5.285515143692920622e-15
-5.561017201077089675e-15
-5.656279051075310356e-15
-5.516058386279743248e-15
-5.083967091003072324e-15
-4.431517520617605047e-15
-3.668969844365994232e-15
-3.006265926865018820e-15
-2.561259409090172243e-15
-2.193699294527682015e-15
-1.660704199243903229e-15
-1.164621946902032611e-15
-9.452112852297180659e-16
-6.514814075733377662e-16
-4.937578604339799461e-16
-3.448871812210575158e-16
-2.490897961335198141e-16
-1.812790671981480490e-16
-1.332067720061103228e-16
-9.937446583834873605e-17
-7.538933524863431385e-17
-5.820921386095293556e-17
-4.551447401578134688e-17
-3.581387753773834262e-17
-2.816860573608068913e-17
-2.198885953600373717e-17
-1.692925386793935874e-17
-1.278659761226224526e-17
-9.434711485992717027e-18
-6.781639982667504788e-18
