# bin_15_5
-1.293470702976907733e-09
-1.376768384730401092e-09
-1.420610999734759808e-09
-1.412578364756115260e-09
-1.334260279424506778e-09
-1.190740998923708232e-09
-1.005367399041130592e-09
-8.229348547135145638e-10
-6.871477120807646460e-10
-5.931941583158839699e-10
-4.798315192397272717e-10
-3.388696278385207027e-10
-2.597009717378446577e-10
-1.972484053548430288e-10
-1.393980676096040457e-10
-1.017425319272833700e-10
-7.428377629429510317e-11
-5.388132225390942173e-11
-3.962095326473989381e-11
-2.963717167115052476e-11
-2.257317761321641877e-11
-1.748604169518060851e-11
-1.372661969796131741e-11
-1.084783030765741571e-11
-8.570842294526798701e-12
-6.723110405527711431e-12
-5.201580634515511045e-12
-3.947625013015210092e-12
-2.926027699684201676e-12
-2.111830863090173164e-12
-1.482918293978363171e-12
