# bin_4_10
-5.607735612919640188e-24
-6.100682022986911175e-24
-6.469938312815435318e-24
-6.642354694279685578e-24
-6.562699876645277762e-24
-6.142888655109318273e-24
-5.434072343346212409e-24
-4.547513867281696185e-24
-3.716998016536677684e-24
-3.128393234022059468e-24
-2.705029079384418648e-24
-2.136748151537081312e-24
-1.483173499006876731e-24
-1.174550429714833378e-24
-8.548033013181456224e-25
-6.206413938991588815e-25
-4.352436059948687872e-25
-3.186159597661863048e-25
-2.293957211126177475e-25
-1.665461429731122625e-25
-1.230043406948814300e-25
-9.237893880076658761e-26
-7.064589800926506114e-26
-5.484335127868913651e-26
-4.297089299291942745e-26
-3.376340441400282378e-26
-2.641447690742054903e-26
-2.043873411070948046e-26
-1.555274124035753380e-26
-1.158518293336379987e-26
-8.418250094935633536e-27
