# bin_14_1
-3.567277447960382841e-09
-3.441571127854603276e-09
-3.144212087933058711e-09
-2.719922347205936688e-09
-2.252193857357116258e-09
-1.857588543530843712e-09
-1.580778331931357956e-09
-1.326345385232878735e-09
-9.993616800706755402e-10
-7.264210048458479546e-10
-5.696328809469290005e-10
-4.103501905141183448e-10
-3.054487304281258273e-10
-2.234112238427752118e-10
-1.663562472327449912e-10
-1.254166493632029767e-10
-9.627039686949130472e-11
-7.528918565720209935e-11
-5.977937731296967354e-11
-4.793292607829869245e-11
-3.852435837186130791e-11
-3.080112051799981547e-11
-2.432705402216965263e-11
-1.886313047381339819e-11
-1.428845108588735444e-11
-1.053797485670631244e-11
-7.557951793231230676e-12
-5.275150426849030223e-12
-3.591424372498964245e-12
-2.392500339063790953e-12
-1.564771726086014829e-12
