# bin_11_15
-7.163259225422813577e-16
-8.017759127795764766e-16
-8.807145465964951590e-16
-9.449881257490835216e-16
-9.843115015546266654e-16
-9.894551006880221999e-16
-9.476465352218138408e-16
-8.565018608508117047e-16
-7.318177453814759161e-16
-6.001643540731701611e-16
-4.966348737305199240e-16
-4.291233738119290751e-16
-3.574047150884131525e-16
-2.551898087218590597e-16
-1.876669223585271274e-16
-1.484499096623674514e-16
-9.943924994499137972e-17
-7.398440114249167419e-17
-5.210007453290604454e-17
-3.625176196324516777e-17
-2.545563165727284557e-17
-1.798693613804400426e-17
-1.288976233595787966e-17
-9.386624955015292316e-18
-6.973153991220368045e-18
-5.273769669165165879e-18
-4.047679016481774015e-18
-3.135315005585591060e-18
-2.433424713219790491e-18
-1.878811413126475703e-18
-1.433719908215737264e-18
