# bin_13_20
-3.304227338984173677e-21
-3.734899678341665501e-21
-4.151530083873415667e-21
-4.520099852081469951e-21
-4.795364319716885311e-21
-4.922424806064416087e-21
-4.860409495177703084e-21
-4.543529244083150519e-21
-4.013695111267260812e-21
-3.353965000220391186e-21
-2.742404214581193351e-21
-2.314489865392349164e-21
-2.002917937512251552e-21
-1.570374223323256779e-21
-1.082997917897109137e-21
-8.629312617042018856e-22
-6.140568745262289539e-22
-4.452829254533763140e-22
-3.014611325587887554e-22
-2.149762808445783354e-22
-1.490393234117466860e-22
-1.031053064792621475e-22
-7.190526072118280639e-23
-5.060185996280838966e-23
-3.621310375825520699e-23
-2.642573345545696786e-23
-1.966222472055905177e-23
-1.489696641237939036e-23
-1.143386609098483943e-23
-8.830709757874816599e-24
-6.811144852699909595e-24
