# bin_10_11
-6.247197675619454627e-12
-6.917727559443913428e-12
-7.499329896120926074e-12
-7.915628201887595501e-12
-8.078623945805152262e-12
-7.915123908296291694e-12
-7.331887073318442083e-12
-6.421865931017486975e-12
-5.332104541884742723e-12
-4.364182715482545546e-12
-3.707647609168852891e-12
-3.191480073919631934e-12
-2.443379306886863073e-12
-1.697056098989597479e-12
-1.373978438472192558e-12
-9.499517914396870046e-13
-7.124236852067493051e-13
-4.885819691889748655e-13
-3.493076583610314279e-13
-2.493294312259736785e-13
-1.789226959468418854e-13
-1.298670728066556413e-13
-9.568487549414913710e-14
-7.188573212892761016e-14
-5.493822072677047348e-14
-4.252183142467826061e-14
-3.314537930287811635e-14
-2.583227941109077086e-14
-1.998971794284670132e-14
-1.526339946081889085e-14
-1.144378904701112663e-14
