# bin_10_19
-2.102307539444005757e-28
-2.366689815125097669e-28
-2.617937053499383784e-28
-2.833370376469275962e-28
-2.983637468602337013e-28
-3.036182831361200288e-28
-2.961419865738697908e-28
-2.728170139538193552e-28
-2.376733034282083386e-28
-1.966244782706958805e-28
-1.611756898155208207e-28
-1.376430879654447632e-28
-1.179979057063497767e-28
-8.873932732859739880e-29
-6.187223113332954338e-29
-5.042366073574760453e-29
-3.383441874363945636e-29
-2.562687888352011406e-29
-1.741074420112542392e-29
-1.211145824388225136e-29
-8.498166662290261580e-30
-5.963066891194611234e-30
-4.206513372405397675e-30
-3.002302409363077778e-30
-2.184989695719960172e-30
-1.621367534626188464e-30
-1.224999543759875436e-30
-9.391852756913276721e-31
-7.260016541577528497e-31
-5.617550262157849848e-31
-4.319225819158187403e-31
