# bin_12_20
-4.158786663960681553e-24
-4.696981083342216029e-24
-5.215754212116483374e-24
-5.671886772701655544e-24
-6.008178485132787744e-24
-6.156119148897638851e-24
-6.063583523442877163e-24
-5.651062895211522129e-24
-4.978017698746758683e-24
-4.150103611422859352e-24
-3.394225890863732191e-24
-2.871913904110406935e-24
-2.482439245716996955e-24
-1.929377509819820977e-24
-1.331194863309254278e-24
-1.068158779265681578e-24
-7.494247068404036275e-25
-5.501149206332650081e-25
-3.709960220427458997e-25
-2.633534307650709701e-25
-1.830957320899419354e-25
-1.271451565120151034e-25
-8.888617242723198061e-26
-6.272876090763648623e-26
-4.505213354486731046e-26
-3.299569535418797427e-26
-2.463494254885387985e-26
-1.871654758958710590e-26
-1.439153575104553966e-26
-1.112258629603256302e-26
-8.575191694282216015e-27
