# bin_3_5
-3.176276146293791488e-13
-3.327109603048630409e-13
-3.368237458088461963e-13
-3.263477648471475444e-13
-2.987690518513014533e-13
-2.587320789570911768e-13
-2.135097970228269799e-13
-1.753688039371249103e-13
-1.499383452043874528e-13
-1.273448242177227881e-13
-9.499097457150792397e-14
-6.766693898051044587e-14
-5.471634715401949468e-14
-3.772841492618056304e-14
-2.873027661328933553e-14
-2.043780259507595906e-14
-1.489974730825194860e-14
-1.101827357373783913e-14
-8.258167554693008753e-15
-6.297859594028618986e-15
-4.884149574786865139e-15
-3.843501747739421175e-15
-3.048827084348604828e-15
-2.420523593436018055e-15
-1.909805934845162882e-15
-1.487394051782726207e-15
-1.136823348345537791e-15
-8.486676143326500798e-16
-6.168183541463714774e-16
-4.359740054434287541e-16
-2.999611168797774334e-16
