# bin_11_2
-2.464208666146736470e-09
-2.472780699961425292e-09
-2.368346211319770252e-09
-2.145058436795829987e-09
-1.839045316400920001e-09
-1.514212873987955245e-09
-1.252418982430084285e-09
-1.072704694864284430e-09
-8.919071273469440298e-10
-6.553813852274711862e-10
-4.817394418870063105e-10
-3.786766402382438915e-10
-2.674951014824789316e-10
-2.005113273432152123e-10
-1.458531559507945718e-10
-1.078079862499148129e-10
-8.088052159930753360e-11
-6.173077091295167619e-11
-4.798783279468269229e-11
-3.788088739056810323e-11
-3.021947334279451510e-11
-2.418279890818735058e-11
-1.926871609952509542e-11
-1.518084764864643781e-11
-1.175167260033483935e-11
-8.892619918490234472e-12
-6.554383745467042903e-12
-4.697868829761727177e-12
-3.276213421591110127e-12
-2.227971201189358224e-12
-1.482166611905537240e-12
