# bin_14_14
-2.249208529961728988e-11
-2.520941599711019762e-11
-2.773753289651815457e-11
-2.982331543558416729e-11
-3.114611976893936765e-11
-3.140247096510445625e-11
-3.020719054922333573e-11
-2.742153309806734456e-11
-2.353591242131668612e-11
-1.933332283322702273e-11
-1.595477765789345567e-11
-1.375552779315701227e-11
-1.154900962836153848e-11
-8.339725727711974246e-12
-6.041249448942147489e-12
-4.839274790697456737e-12
-3.219667819116342769e-12
-2.420961537292187325e-12
-1.689858290670746919e-12
-1.173200427706312954e-12
-8.239304228667004399e-13
-5.807462085077528843e-13
-4.145693264682989356e-13
-3.004810241704577868e-13
-2.221960408123443057e-13
-1.673540008214556287e-13
-1.280286382228140440e-13
-9.897798967562336866e-14
-7.677991624187826336e-14
-5.933019332814139281e-14
-4.536437597221920585e-14
