# bin_5_18
-5.053872800586436176e-52
-5.653009606547918317e-52
-6.204550145012743019e-52
-6.650655229334891424e-52
-6.918481534084358260e-52
-6.944414788411988322e-52
-6.636896091388235955e-52
-5.986137079723595046e-52
-5.103690221725039926e-52
-4.182754209835754597e-52
-3.466139285789066412e-52
-2.997530304355136677e-52
-2.486239638441820860e-52
-1.766331806486279506e-52
-1.308621902275905547e-52
-1.027980398574324830e-52
-6.917332738993588396e-53
-5.114139542336809849e-53
-3.617338656999532311e-53
-2.520144266507280475e-53
-1.769641375700393382e-53
-1.252299872912839424e-53
-8.991276054493630437e-54
-6.562325414917423737e-54
-4.885579429293254676e-54
-3.701992029050100816e-54
-2.845492094997926629e-54
-2.205942259334323837e-54
-1.712385786737732393e-54
-1.321487145286171622e-54
-1.007425750631460932e-54
