# bin_10_6
-6.212023092685374580e-10
-6.683200547446729825e-10
-6.989616031776593289e-10
-7.061513713541922587e-10
-6.818940100903357598e-10
-6.219551222339949764e-10
-5.365250641211630394e-10
-4.419563623223784943e-10
-3.637716010465527567e-10
-3.119484464724874147e-10
-2.634881398454437051e-10
-1.941986830575905191e-10
-1.394540405847648390e-10
-1.122098642704284824e-10
-7.668922840708198704e-11
-5.812995627278754904e-11
-4.119836337005588987e-11
-2.965882333218191422e-11
-2.165015525827274801e-11
-1.598935362743076272e-11
-1.200668341806475280e-11
-9.171462816596332272e-12
-7.122397419741173156e-12
-5.591231077850581532e-12
-4.407944394295184128e-12
-3.465946702615979995e-12
-2.699178286597980986e-12
-2.069464378149518910e-12
-1.554212786177683221e-12
-1.138938619928680272e-12
-8.125804113958054586e-13
