# bin_8_17
-1.900500143181480195e-30
-2.127555476375806386e-30
-2.337487968321871192e-30
-2.508693966335089513e-30
-2.613914524182888791e-30
-2.628520623227841165e-30
-2.518738682482988411e-30
-2.277584764460441692e-30
-1.947001356990352137e-30
-1.596943044624518320e-30
-1.320998350615839119e-30
-1.141249964895647777e-30
-9.514886430672553091e-31
-6.800787755412643144e-31
-4.992765781248333883e-31
-3.956341260509054860e-31
-2.646793587484177055e-31
-1.972545927189680621e-31
-1.387640948614593143e-31
-9.652377422414568902e-32
-6.777643967945708864e-32
-4.787198892988822780e-32
-3.429091694442154328e-32
-2.495883852521326153e-32
-1.853246938881465775e-32
-1.401009501567795964e-32
-1.074947977410281051e-32
-8.325087613991350058e-33
-6.461293671897487631e-33
-4.989322234764003698e-33
-3.808294944190951385e-33
