# bin_15_14
1.425969591966978651e-09
1.601692636634150856e-09
1.766946870484515563e-09
1.905990298083829539e-09
1.998704116437678744e-09
2.024452348832175139e-09
1.960795703566274197e-09
1.792615561997979941e-09
1.549769042688974105e-09
1.276972633493699802e-09
1.049839051006730993e-09
9.013173427759690071e-10
7.653958311575314217e-10
5.634295985792729031e-10
3.993745342767605513e-10
3.244460039026741312e-10
2.151734467057138481e-10
1.633823583344341492e-10
1.125085007336312750e-10
7.795941040632939575e-11
5.475479098255741504e-11
3.848946755283611694e-11
2.730780293395781158e-11
1.963901907417986287e-11
1.440883382688982325e-11
1.077447529496564840e-11
8.194236655879004565e-12
6.311117255898866377e-12
4.889024644130374398e-12
3.781644412979727751e-12
2.900198728017034022e-12
