# bin_10_16
1.025981102381733880e-07
1.135264955894117699e-07
1.229599758281650758e-07
1.296399120884439642e-07
1.321449288417698286e-07
1.292312980863800196e-07
1.194669625934383120e-07
1.044314714981512384e-07
8.661777385833432443e-08
7.094330794693106409e-08
6.035685208090691445e-08
5.183698247938226410e-08
3.947516372035333683e-08
2.751948280304041633e-08
2.227864641794192497e-08
1.534168210807690475e-08
1.152276797736081822e-08
7.932011021902374154e-09
5.658820782206553778e-09
4.041196571190255708e-09
2.901580676397094439e-09
2.108267105908640560e-09
1.555384257159070947e-09
1.169993459127054499e-09
8.950754029640964214e-10
6.932643993433888886e-10
5.405406439375797219e-10
4.212106697400721646e-10
3.257690775173639465e-10
2.485349068178030681e-10
1.861364025092464226e-10
