# bin_12_13
1.918864845259891073e-08
2.138589379392632671e-08
2.336853431185283755e-08
2.491069755116967894e-08
2.573129834715797176e-08
2.561373476922109092e-08
2.420156401358802701e-08
2.159596235449601849e-08
1.821543925679115602e-08
1.489860777502290651e-08
1.245422914831454470e-08
1.078697830074396354e-08
8.718338027287203710e-09
6.077598777129642459e-09
4.680345611793891251e-09
3.518939907874426304e-09
2.454041966925379407e-09
1.743049198695398497e-09
1.256387888588671005e-09
8.820044165140947357e-10
6.214797550968971290e-10
4.439336746660926425e-10
3.217861335657825869e-10
2.374279829417538251e-10
1.785767721765790626e-10
1.364921070648420355e-10
1.055687674596806640e-10
8.208765373996668898e-11
6.370546483180748380e-11
4.900477906340315299e-11
3.714906568501590360e-11
