# bin_12_19
9.051842564933955699e-08
1.009934799492372003e-07
1.105041159228419874e-07
1.179935520709497763e-07
1.221410068509386991e-07
1.218932098187750369e-07
1.155737375047681342e-07
1.034689489182169029e-07
8.755715017907991346e-08
7.165353266378222364e-08
5.973500277210509353e-08
5.172120773276237289e-08
4.214694962395549196e-08
2.954165766353426796e-08
2.248058532197149509e-08
1.713852511987648305e-08
1.181400841980182223e-08
8.495331416533569346e-09
6.090886414622281725e-09
4.265328350637571052e-09
3.001207095563618747e-09
2.137428464912629686e-09
1.544690240570547623e-09
1.135871603901582255e-09
8.516297434290685073e-10
6.492049440639582792e-10
5.011804206077419310e-10
3.893625483632788913e-10
3.022062983880573649e-10
2.327067060844914220e-10
1.767176446246767902e-10
