# bin_2_12
5.540593119511172177e-07
5.569144189040249378e-07
5.346025992268583335e-07
4.853234954718454537e-07
4.170072165653733818e-07
3.436376137951757857e-07
2.838788665519845718e-07
2.429509747261080631e-07
2.027700441957357444e-07
1.496567329702007843e-07
1.094619044745034898e-07
8.631335910269727090e-08
6.094689095237321481e-08
4.570808159230865722e-08
3.318830774191238098e-08
2.451824535639221309e-08
1.837047365214506924e-08
1.399936491576374869e-08
1.086677167583621034e-08
8.567444005988613071e-09
6.829110551513288027e-09
5.463168358030490819e-09
4.353762891099558283e-09
3.432283050179325934e-09
2.659739204218425405e-09
2.015408524093712504e-09
1.487802466219579886e-09
1.068117509343898227e-09
7.460272303397432644e-10
5.080185337456004096e-10
3.383457766093589007e-10
