# bin_14_13
1.458105824312344239e-09
1.633078441476027484e-09
1.795257504303652697e-09
1.928133036792432574e-09
2.010841201348296154e-09
2.024181399664066615e-09
1.942607331176205824e-09
1.759330735973626974e-09
1.506383853563600899e-09
1.236284726791349006e-09
1.021698072721143576e-09
8.819551853978438666e-10
7.373704849445540813e-10
5.291969994570343732e-10
3.864140510806653147e-10
3.075571580417898332e-10
2.052617643965142816e-10
1.535303854621838533e-10
1.076552775811502929e-10
7.481319167914613253e-11
5.252646988349962044e-11
3.705987276550588677e-11
2.650262902747523819e-11
1.925214975623893542e-11
1.426762693345132583e-11
1.076737973772484647e-11
8.250217042135473568e-12
6.384248055768106984e-12
4.953776482353931607e-12
3.826455189519379594e-12
2.922991096310269271e-12
