# bin_18_17
1.354052828107768809e-09
1.531724104523681844e-09
1.704194762934054707e-09
1.857641926465800236e-09
1.973613604968768558e-09
2.029500736865925218e-09
2.008590282514006190e-09
1.883111914613004454e-09
1.668035472743097841e-09
1.397154373931139368e-09
1.142340069909727204e-09
9.617683472405816940e-10
8.328850555115225980e-10
6.584645625639083107e-10
4.544685048557265617e-10
3.591986601449118455e-10
2.591394318879204178e-10
1.855634637736237625e-10
1.264946995886101167e-10
9.040190746859485881e-11
6.250962325625465494e-11
4.308710289719561347e-11
2.996634543006131826e-11
2.102388796499492903e-11
1.498728849449690955e-11
1.089277219778992032e-11
8.073668894222838972e-12
6.097277177348572182e-12
4.669515726334368379e-12
3.602807362200016736e-12
2.779473109931027281e-12
