# bin_19_13
1.316358245298529940e-16
1.486176476895560196e-16
1.649610947644396477e-16
1.792924667172789964e-16
1.897979820647678776e-16
1.943193068540237416e-16
1.911924167437976554e-16
1.779515363989583929e-16
1.565658689490781976e-16
1.304012605353489693e-16
1.066680910341436348e-16
9.035326247382709467e-17
7.805065137357771065e-17
6.043320342377279021e-17
4.171898696067470130e-17
3.356229555205695003e-17
2.340761047098301851e-17
1.726453482035189479e-17
1.163449008811482582e-17
8.237971852552761930e-18
5.733750893991620000e-18
3.987086240806696211e-18
2.789456964441235988e-18
1.970370881596735010e-18
1.416788449407001219e-18
1.038868085261030090e-18
7.764876270572659857e-19
5.904593678205185965e-19
4.542635941657206147e-19
3.511378915990465995e-19
2.706615232640470187e-19
