# bin_11_11
8.229338968211946329e-09
9.127034230345354617e-09
9.913631368273831973e-09
1.048931508324120996e-08
1.073585460239943022e-08
1.056053477299584850e-08
9.829227664218196264e-09
8.648368178348185815e-09
7.205129475185439990e-09
5.893068415120451839e-09
4.987203024827916692e-09
4.304793304724036541e-09
3.340604443005646526e-09
2.313451720489463778e-09
1.857451503662342673e-09
1.308832244048872256e-09
9.666974573101865315e-10
6.634976149653618726e-10
4.773321277165023872e-10
3.392886968433664132e-10
2.422979910259385905e-10
1.752023245574692204e-10
1.285542187994289388e-10
9.615812011389990856e-11
7.321163366735065902e-11
5.650436904570941309e-11
4.397382693308454270e-11
3.426238591642241478e-11
2.653876642989777919e-11
2.030493324880685644e-11
1.526746648262802510e-11
