# bin_3_16
4.827015589386781946e-07
4.974895582885068611e-07
4.940142610839681888e-07
4.661866674688134668e-07
4.158230361053585923e-07
3.511908271909157660e-07
2.877295450503976003e-07
2.402870926923491958e-07
2.068880394674692534e-07
1.670997785981384528e-07
1.189394716104387433e-07
9.092391703976108058e-08
6.916112506338079854e-08
4.923504952643102591e-08
3.624306349939353210e-08
2.657292554759194592e-08
1.951486910112714874e-08
1.456490717405427266e-08
1.106758204872152141e-08
8.563387874225645915e-09
6.728985061899200339e-09
5.343126860332805372e-09
4.256221052951596666e-09
3.376695441805885914e-09
2.649729482115283084e-09
2.043782246003758155e-09
1.541566120616299773e-09
1.132958733019875439e-09
8.097856822177750755e-10
5.631944505507863462e-10
3.819380266151022174e-10
