# bin_12_10
1.374445618439298134e-10
1.526540485757421290e-10
1.660992936176801128e-10
1.761256734932938047e-10
1.807318917730072539e-10
1.784077521734956556e-10
1.667673304207982867e-10
1.473236544634189855e-10
1.231310179336557966e-10
1.006667805674656384e-10
8.489399674536899591e-11
7.341726373665841912e-11
5.766348820591138331e-11
3.988742291347428038e-11
3.173374472261581904e-11
2.276877566746099610e-11
1.656079092316578100e-11
1.141188915138073173e-11
8.249671899203998818e-12
5.842184026547844711e-12
4.153678182231591250e-12
2.993893129066904230e-12
2.189315063188007255e-12
1.631530248081174390e-12
1.238172356195892685e-12
9.532379664235710104e-13
7.407623325921471928e-13
5.769882241938905144e-13
4.472584917350332072e-13
3.427727866986306195e-13
2.583554955653850737e-13
