# bin_20_14
2.859578085737303781e-16
3.235283440836882179e-16
3.600227745971419728e-16
3.925269411223397726e-16
4.171473257895940751e-16
4.291023947852673026e-16
4.248699369868314373e-16
3.985447752112836648e-16
3.532023940991138086e-16
2.959670159596636388e-16
2.419792419938840284e-16
2.036377221800235290e-16
1.763816827093649034e-16
1.396587079776915622e-16
9.638728115210990099e-17
7.608419366184029980e-17
5.502605796999958509e-17
3.931679764418545777e-17
2.682321132152697528e-17
1.918415263754217520e-17
1.325880818231887447e-17
9.132972194747259988e-18
6.349110110572002371e-18
4.452209268839732329e-18
3.171809609988596416e-18
2.303744250758877532e-18
1.706440622519611033e-18
1.288037077370539507e-18
9.860815816378872239e-19
7.607141053240465703e-19
5.869120319997998523e-19
