# bin_12_8
4.467281729970836258e-14
4.943858980604855962e-14
5.355631530357437153e-14
5.647829812837064079e-14
5.758064499302047098e-14
5.633092687879151737e-14
5.208683530702593029e-14
4.554382782313229800e-14
3.776902806340374653e-14
3.092275351653327697e-14
2.630911780268634416e-14
2.261982119620920445e-14
1.722923647962255031e-14
1.198360534154636847e-14
9.729002232676446998e-15
6.678683577142147879e-15
5.035004662662201161e-15
3.455158791835521694e-15
2.462871866582131329e-15
1.760218982846481929e-15
1.264898339766092099e-15
9.190100181426799653e-16
6.778746705873766160e-16
5.098753687135333859e-16
3.900593549219276584e-16
3.021250863036383881e-16
2.355932641507496745e-16
1.836123269605396785e-16
1.420346794890666078e-16
1.083826765270445325e-16
8.118872843228320227e-17
