# bin_8_9
3.356153136061363553e-08
3.666401808625822460e-08
3.908571081602562896e-08
4.039018835578604502e-08
4.023180930440781350e-08
3.806285292851161459e-08
3.401071510713553074e-08
2.873237998265072127e-08
2.350667787025431871e-08
1.961540774081206891e-08
1.697005936666386179e-08
1.377210556340643439e-08
9.664727766992054248e-09
7.399089038615370172e-09
5.625385986523083476e-09
3.930446344871347319e-09
2.843260227763861095e-09
2.063819555624639025e-09
1.473478129783658052e-09
1.062170651954298843e-09
7.778761527614133512e-10
5.796189986320772575e-10
4.397207253928144564e-10
3.391702230065304968e-10
2.645826717927990860e-10
2.074712031155986312e-10
1.623936599245375928e-10
1.259997012417925765e-10
9.633122423411996673e-11
7.221499571931982456e-11
5.287934841262344291e-11
