# bin_15_7
1.173040060293312523e-25
1.306057800623593120e-25
1.425389588671976235e-25
1.517124126218381138e-25
1.564018593994725647e-25
1.553186968046700503e-25
1.462858973432590846e-25
1.301439354151940181e-25
1.094460725866495226e-25
8.947896662759695702e-26
7.499292130376854595e-26
6.496201844446161264e-26
5.208832897759484491e-26
3.614287296800728817e-26
2.814849051878716683e-26
2.087946930823478029e-26
1.473475749044785964e-26
1.033795657310572968e-26
7.487051388339542485e-27
5.268599899493769687e-27
3.718476489810060128e-27
2.663900126563828423e-27
1.936244812138046460e-27
1.433093212618812667e-27
1.080952543948502073e-27
8.281649820267255670e-28
6.415899943548017171e-28
4.992477784609373113e-28
3.873824242200999530e-28
2.976963507297752601e-28
2.253046562901804487e-28
