# bin_13_6
2.979477336054585680e-23
3.294273986387823508e-23
3.564578682811702870e-23
3.753701810539510068e-23
3.820716672116161490e-23
3.728936163684681971e-23
3.438496037116341618e-23
2.998516827170712456e-23
2.482284743548717721e-23
2.033630945857080474e-23
1.733923702226675977e-23
1.487399365822113784e-23
1.124164692682224224e-23
7.844371009999451500e-24
6.386677285061319441e-24
4.344478716409175303e-24
3.295531754275763881e-24
2.267312393578389787e-24
1.610176625140159446e-24
1.152895804348649665e-24
8.301135495051984731e-25
6.042996453392488259e-25
4.467384743015742613e-25
3.367837474086761063e-25
2.581336011597530258e-25
2.002173501105716660e-25
1.562378317213978187e-25
1.217660226117791393e-25
9.413294910695703967e-26
7.174572282271448403e-26
5.365730095965592021e-26
