# bin_11_17
9.087788968407055393e-08
1.010026932231105092e-07
1.099904257320403771e-07
1.167519464263309274e-07
1.199639469903880234e-07
1.186191652670558046e-07
1.111225600584329125e-07
9.836937097141561066e-08
8.237516048302966313e-08
6.735608781208065781e-08
5.669850804093214490e-08
4.904252601272174559e-08
3.875225130352577883e-08
2.685913007830681714e-08
2.121291491027436781e-08
1.537624499218422866e-08
1.107875081553102848e-08
7.690320421945324261e-09
5.554067472933205749e-09
3.925855373359539236e-09
2.785720800536865053e-09
2.004029847651755950e-09
1.462790214944971497e-09
1.087850583969065718e-09
8.240417895661243214e-10
6.334622457843872244e-10
4.917805493885712534e-10
3.829104887816484522e-10
2.968800763347030528e-10
2.276917584763379379e-10
1.718145008925017591e-10
