# bin_15_5
4.055587245874061857e-36
4.502935915176137500e-36
4.897609712081755559e-36
5.190689857867592002e-36
5.323165426272385183e-36
5.250525750873653515e-36
4.902944313693085510e-36
4.327182267930489438e-36
3.613450533445611204e-36
2.954145112391015061e-36
2.493415243385201777e-36
2.156000415749202187e-36
1.688414999994157132e-36
1.167278720742242250e-36
9.316536758240632310e-37
6.651882304220234524e-37
4.860866396137672613e-37
3.339581582312908784e-37
2.413501082114450358e-37
1.710730261408960268e-37
1.217689858920392759e-37
8.784277920328778001e-38
6.428858686667856072e-38
4.795424279001358233e-38
3.642284655894876338e-38
2.805953003760389252e-38
2.181425412227393784e-38
1.699375596387054285e-38
1.317123930491390183e-38
1.009063048626681125e-38
7.601372439739187950e-39
