# bin_1_7
5.911336417842053364e-07
5.712188410722747606e-07
5.227486121941876368e-07
4.529229075525843552e-07
3.753133823195505146e-07
3.093444417033127432e-07
2.630778688936599331e-07
2.212287429629771653e-07
1.672148138045128086e-07
1.212589750318685056e-07
9.515477514260635961e-08
6.861629539749414764e-08
5.102960888220671347e-08
3.730777226521226173e-08
2.776278909083333578e-08
2.090763394069843272e-08
1.603028407363880755e-08
1.252306528887016906e-08
9.934598581359031983e-09
7.961464884772170962e-09
6.397606324201118336e-09
5.115991692982566077e-09
4.042779356004497627e-09
3.137306345928883656e-09
2.378894586791103999e-09
1.756488156216072497e-09
1.261235436724541619e-09
8.812429679126084261e-10
6.005364839156893972e-10
4.003784773104841923e-10
2.620308031393920860e-10
