# bin_17_18
1.191949862233985458e-08
1.347062856062501605e-08
1.497005978684595908e-08
1.629479894029252193e-08
1.728150871982344895e-08
1.773279045494482705e-08
1.750012874003021877e-08
1.634903795322843071e-08
1.443431939763495131e-08
1.205688849776726671e-08
9.859729854052954408e-09
8.325533944159384310e-09
7.201791495130531112e-09
5.636808770658255647e-09
3.889732439354419943e-09
3.101652130940188077e-09
2.201512681371644671e-09
1.599250242230290967e-09
1.083335738985400889e-09
7.712041306405978014e-10
5.349022729476450469e-10
3.702370051136429344e-10
2.582416481037734781e-10
1.817750722048226279e-10
1.301281620873494773e-10
9.498797257949552294e-11
7.069635426961123679e-11
5.357332068388564579e-11
4.112255630330710838e-11
3.175877781290553060e-11
2.449171347925925843e-11
