# bin_19_3
6.158956758219988319e-71
6.896971552427139734e-71
7.580471579988131512e-71
8.139629911563732345e-71
8.486263689815691817e-71
8.539682496329742745e-71
8.191357362527125460e-71
7.414551486522557420e-71
6.344985222099944293e-71
5.206027787667885588e-71
4.303638341703924115e-71
3.716319717722288411e-71
3.104362449731066529e-71
2.224408115157006796e-71
1.627251985636851026e-71
1.293512155075669735e-71
8.636582311358151452e-72
6.453998440296274736e-72
4.530367209437340735e-72
3.149081322356163324e-72
2.210875876632808483e-72
1.560236407191341924e-72
1.116324147567269562e-72
8.114301199373554171e-73
6.017159008976542903e-73
4.543537965532729545e-73
3.482962950828253921e-73
2.696012330348788434e-73
2.092179899906282290e-73
1.615969561925634575e-73
1.234161639152077510e-73
