# bin_16_17
1.292465101814704680e-08
1.457414903677786603e-08
1.615322539736636099e-08
1.752507075501135295e-08
1.851058089583926484e-08
1.890238882596438314e-08
1.853012501865872430e-08
1.717180390927671662e-08
1.504572712765334459e-08
1.249447273776258106e-08
1.022846471557187346e-08
8.694582261544605228e-09
7.489032931572377866e-09
5.727631517308584810e-09
3.967748451247098433e-09
3.212337849841764310e-09
2.201834592809743127e-09
1.644534229242312413e-09
1.110477894003538639e-09
7.800418021888496459e-10
5.449274641249628299e-10
3.805365169292409906e-10
2.671297520147692565e-10
1.894835908516277990e-10
1.369289494316283430e-10
1.009053045109563473e-10
7.576497343883039157e-11
5.781694968319313809e-11
4.457457714277085025e-11
3.447354795848321488e-11
2.654689570474987408e-11
