# bin_10_12
4.335996695144861266e-08
4.794731352245378942e-08
5.188988955436794754e-08
5.465407561371015984e-08
5.564554264986318573e-08
5.432811531852017739e-08
5.012563214432961340e-08
4.373455190989596728e-08
3.622810758350015530e-08
2.968479492674240502e-08
2.529346306310971399e-08
2.169030463991493423e-08
1.642685601131483407e-08
1.147542825069409904e-08
9.310849509190151766e-09
6.370218443935050820e-09
4.807005763495868405e-09
3.311904556092123909e-09
2.357497719731289503e-09
1.685781280446996263e-09
1.212217294234506406e-09
8.820353099014336548e-10
6.517563236903683614e-10
4.910585651367687056e-10
3.761857299605452159e-10
2.916592679476888605e-10
2.275272923440636068e-10
1.773024517057989895e-10
1.370684052352506589e-10
1.044862560362308368e-10
7.816454088785371763e-11
