# bin_18_11
1.033020340270189282e-19
1.162366479333660393e-19
1.285017508899344240e-19
1.389770109453955415e-19
1.462168954924565321e-19
1.486430881625574796e-19
1.447662167860955009e-19
1.331406623272873009e-19
1.157967584543355561e-19
9.570646140417502063e-20
7.849323909422486300e-20
6.711496753820557674e-20
5.743356615058192653e-20
4.298945237371169907e-20
3.005823625031016087e-20
2.450848006671589623e-20
1.637693666604992807e-20
1.242757943643464388e-20
8.465945280337849919e-21
5.878713588158821010e-21
4.126457610031779328e-21
2.896601876318960774e-21
2.045434693307559206e-21
1.461902716363767680e-21
1.065556519449408319e-21
7.918540566941223329e-22
5.990406058830666555e-22
4.596930721309691390e-22
3.555098381529085874e-22
2.750739369289610005e-22
2.114017208443332148e-22
