# bin_13_17
5.360119641966792743e-08
5.999474773695110048e-08
6.590095121825553197e-08
7.070968252094363301e-08
7.365097804650589578e-08
7.403424444611868566e-08
7.090851154366050318e-08
6.409688866081955540e-08
5.477435345974970557e-08
4.493061064228762233e-08
3.718359758224250491e-08
3.211692945041029532e-08
2.674367975654412108e-08
1.911603803741856664e-08
1.405277065453526323e-08
1.110760912064400816e-08
7.450997603108555573e-09
5.536923053631301883e-09
3.897669407201568477e-09
2.712049104338501598e-09
1.904400187255428354e-09
1.345731629916645927e-09
9.640477214696532133e-10
7.017232854923871025e-10
5.210557454726713982e-10
3.938989072444653982e-10
3.022056158375423337e-10
2.340191874145866575e-10
1.815983997427775181e-10
1.402017936505329218e-10
1.069943170425310691e-10
