# bin_16_8
1.111539588351165476e-24
1.242015589128934643e-24
1.361451790429525938e-24
1.457018293693780289e-24
1.512589357642210385e-24
1.514694767465473669e-24
1.442799751019326518e-24
1.297209372771173789e-24
1.102342648608575723e-24
9.026836576492622654e-25
7.498263083359255472e-25
6.490642345536888250e-25
5.346437721102828497e-25
3.772072802751659596e-25
2.827002082043856418e-25
2.194555917975248572e-25
1.489554305311111207e-25
1.088807249270676218e-25
7.753867418820642592e-26
5.412579954830596698e-26
3.801126580850982264e-26
2.696435452431307912e-26
1.941210680176626441e-26
1.421219895983363015e-26
1.061232009908891590e-26
8.062130900514658164e-27
6.208856390459477825e-27
4.818308698268021254e-27
3.740594616060412868e-27
2.884436342053160986e-27
2.195635434772622033e-27
