# bin_12_12
7.436398506008366195e-09
8.281055169021840451e-09
9.039569721681429919e-09
9.623884055408896917e-09
9.924894715825206602e-09
9.860130810830307808e-09
9.292157754298430405e-09
8.271451413572877497e-09
6.960229782473355971e-09
5.691244430395974637e-09
4.767549695819595913e-09
4.129234804439501197e-09
3.315543062150788182e-09
2.303819284930088795e-09
1.789728877007194738e-09
1.330904684111297115e-09
9.371808541080183143e-10
6.596128287274521651e-10
4.768444009980963268e-10
3.354135880109796449e-10
2.367070313624579311e-10
1.694718034794536815e-10
1.231128512799328342e-10
9.106519941988651064e-11
6.864971639754096770e-11
5.257032413956920126e-11
4.071264678347092518e-11
3.167450851092309492e-11
2.457708906810131178e-11
1.888992025673905307e-11
1.430045536803105866e-11
