# bin_17_3
1.228779127126995183e-60
1.369046273599058697e-60
1.495378154610806699e-60
1.593271405274746013e-60
1.644674363900039987e-60
1.635931299606274968e-60
1.544058650313988235e-60
1.376401240414398796e-60
1.159659956498613434e-60
9.482618822651684420e-61
7.933760714183049344e-61
6.873352714654190270e-61
5.541545085462502050e-61
3.853654089692899426e-61
2.980417957418994916e-61
2.230992753513978729e-61
1.561432974216257789e-61
1.103511428771667520e-61
7.977767297832768324e-62
5.604763560628406450e-62
3.949697853096762357e-62
2.824309625049013798e-62
2.049244403694003781e-62
1.513703608944085926e-62
1.139683104350581253e-62
8.718646690526131825e-63
6.747709914676101320e-63
5.248583491118669036e-63
4.073298139288452450e-63
3.132459679997828038e-63
2.373380789388066384e-63
