# bin_18_19
1.105507178712245234e-08
1.251849063216767516e-08
1.394562899548465476e-08
1.522484103987467945e-08
1.620655638199183305e-08
1.670559660812795408e-08
1.658411158554787486e-08
1.560898277067281975e-08
1.387688176005010413e-08
1.166174441003057910e-08
9.536119132384321232e-09
8.002921133515343664e-09
6.934441543630705530e-09
5.541669538883503012e-09
3.834824890362160213e-09
2.994634250389998017e-09
2.199857247071746969e-09
1.549435246068884640e-09
1.069204620360658909e-09
7.641762616343693334e-10
5.267951915351135835e-10
3.617327501739915469e-10
2.506957945860889093e-10
1.752366546277923977e-10
1.243230747491721501e-10
8.990633197488046856e-11
6.631284864638505567e-11
4.986983735773039982e-11
3.807844856897056375e-11
2.933649214617065618e-11
2.263413498421648541e-11
