# bin_2_2
4.394118042130657857e-08
4.362219531568836987e-08
4.117022189157396141e-08
3.673669890603699404e-08
3.104753813799303533e-08
2.544558396212316955e-08
2.123513439371735254e-08
1.826559232668312634e-08
1.477749346384532580e-08
1.055947383383794809e-08
8.051276738998931433e-09
6.152516231399145117e-09
4.390828938745552123e-09
3.254989889990060879e-09
2.400101474645787685e-09
1.779612909754738008e-09
1.343498121475905552e-09
1.033540461143377549e-09
8.094762739966330521e-10
6.429563006018190597e-10
5.148501626340445000e-10
4.124464942148855096e-10
3.281274122569887966e-10
2.574837598121295743e-10
1.981013873518933332e-10
1.487341177157749501e-10
1.086623438533640372e-10
7.718092603772105485e-11
5.336966243304510087e-11
3.602325990882977829e-11
2.381478285677689331e-11
