# bin_19_10
6.125217770579560384e-26
6.895651739809663288e-26
7.627874682867927343e-26
8.255824794365991586e-26
8.693989653373697593e-26
8.847467984697007413e-26
8.630135066829777471e-26
7.950953143838198454e-26
6.927206107384012815e-26
5.731041852147258338e-26
4.697734553773809785e-26
4.011650668787756324e-26
3.439326253905045326e-26
2.587000282204070057e-26
1.803544715380490607e-26
1.469757202922091196e-26
9.863497690003042735e-27
7.469731934527230922e-27
5.073821826577478692e-27
3.529292083186435049e-27
2.475858131407666531e-27
1.736824984585184644e-27
1.224787806777157153e-27
8.738110728410402074e-28
6.356606024386020508e-28
4.714926370528932984e-28
3.560983620646669104e-28
2.729396573085466766e-28
2.109526434436332617e-28
1.632221536892609022e-28
1.255080850776741611e-28
