# bin_7_12
1.413488324521219443e-07
1.534731784838696070e-07
1.623684329602907753e-07
1.662301556488971774e-07
1.635925531972927878e-07
1.524314095132611479e-07
1.342674518487403691e-07
1.120284071706990920e-07
9.164636126193150368e-08
7.740772451713823656e-08
6.673114600016186668e-08
5.207106391881417247e-08
3.628544574983077140e-08
2.891087402498231644e-08
2.071822305144295679e-08
1.522323713222147531e-08
1.068181585560664607e-08
7.774731385903880067e-09
5.613943054939160674e-09
4.090040662842828806e-09
3.028190601129843361e-09
2.280021672332241885e-09
1.747878879041461391e-09
1.359347402497137773e-09
1.066165292277283397e-09
8.378417535236283298e-10
6.550118385217727443e-10
5.060950000901460380e-10
3.843110781417926162e-10
2.855325937941307009e-10
2.068807979800046883e-10
