# bin_13_16
4.252711916300257944e-08
4.758557307355217839e-08
5.225109212287457513e-08
5.603840781614055978e-08
5.833563317103507567e-08
5.860042413997147138e-08
5.607283534603969897e-08
5.063893463023844427e-08
4.323198221398071940e-08
3.545172512814782016e-08
2.935762928140346430e-08
2.536714839872523437e-08
2.108407188178809365e-08
1.503677051473245618e-08
1.109021940108827935e-08
8.739929835320337499e-09
5.873668164356250864e-09
4.353308789919326234e-09
3.070339983426913202e-09
2.137485599127829935e-09
1.500997029607124665e-09
1.061328969033185155e-09
7.609473588824360511e-10
5.544433105986033752e-10
4.120952382928679049e-10
3.117969153151170471e-10
2.393749025993740594e-10
1.854357463611229588e-10
1.439093748299593039e-10
1.110815109208383944e-10
8.473387642053305544e-11
