# bin_13_12
1.507662162168287556e-09
1.682820373825862307e-09
1.842210638370860492e-09
1.968282078320226868e-09
2.039041543622165025e-09
2.036842786447324606e-09
1.933577372989910835e-09
1.732950966078538213e-09
1.467905434415626038e-09
1.201313650457212489e-09
1.000495010868501500e-09
8.664462472079533634e-10
7.082651138443925256e-10
4.968351062955684534e-10
3.766971971613236966e-10
2.886472490520178617e-10
1.980110187782302120e-10
1.429712945093253815e-10
1.024334220834431108e-10
7.166723615498776225e-11
5.037851435257694070e-11
3.584079924716773690e-11
2.587743461986742849e-11
1.900835015214759994e-11
1.423777828578141087e-11
1.084496732678785603e-11
8.367887866443395535e-12
6.499786831417421379e-12
5.045620215051269148e-12
3.886969165374040116e-12
2.953723746063631847e-12
