# bin_15_1
3.612878449246044912e-69
3.992256548138522742e-69
4.316717110940506818e-69
4.541648257922288776e-69
4.618023734333804730e-69
4.500314271207182248e-69
4.142735882316587833e-69
3.606590998773461373e-69
2.982685496915696828e-69
2.444798668561514634e-69
2.087130786401361394e-69
1.787384002556054967e-69
1.344502805210064140e-69
9.406730974943721833e-70
7.665195048179560104e-70
5.191008347229019719e-70
3.947712288229192648e-70
2.722344267984641851e-70
1.929875059076912987e-70
1.382918015074458556e-70
9.966196782579587505e-71
7.263759867298434925e-71
5.377315352714072660e-71
4.059338280777860531e-71
3.114868830494452025e-71
2.417942737358061357e-71
1.887548952320449497e-71
1.471020335926701836e-71
1.136702827385308144e-71
8.657128108730062517e-72
6.467906298279812119e-72
