# bin_6_2
4.056694631364665774e-16
4.259807042049321330e-16
4.324426619290860747e-16
4.206893993741183475e-16
3.867841939511327884e-16
3.363795528702881898e-16
2.781650180908532697e-16
2.280620520976066645e-16
1.944792887404154008e-16
1.660944482599799836e-16
1.252308250497589448e-16
8.839656867394699812e-17
7.168068064650411549e-17
4.960810118561261523e-17
3.775041539444923371e-17
2.671201166057370716e-17
1.948953798353891125e-17
1.439098087702348274e-17
1.076243269242384940e-17
8.185828112595351335e-18
6.332062378833132983e-18
4.973106577531441520e-18
3.940338459423015934e-18
3.127433961844935390e-18
2.469005600571452070e-18
1.925577930312296047e-18
1.474789787931902886e-18
1.103847287507799496e-18
8.046493932323281223e-19
5.704172901058956698e-19
3.935325788915111379e-19
