# bin_5_8
1.448453516555576559e-07
1.540494749564647112e-07
1.587958041183858163e-07
1.577020918391036906e-07
1.487130388472431919e-07
1.325073578581996287e-07
1.117122561270325257e-07
9.142097235638781507e-08
7.643133632502011344e-08
6.598461523351949057e-08
5.317083240084217538e-08
3.747153137071668051e-08
2.885814457607545432e-08
2.179254782708861338e-08
1.546796227153584774e-08
1.124680862395757080e-08
8.223294477871467564e-09
5.969562569696419632e-09
4.391909511869146606e-09
3.287763277530358354e-09
2.505994177657802068e-09
1.942624173341892624e-09
1.525732308038573838e-09
1.206062885309709035e-09
9.529128005679056407e-10
7.472956031132979675e-10
5.779012704301176970e-10
4.382952222943636166e-10
3.246059881217562443e-10
2.340699955786858141e-10
1.642125462267105640e-10
