# bin_18_14
6.403687314132207500e-13
7.225836954251075333e-13
8.015193995703312278e-13
8.704505009185783931e-13
9.205303378806025508e-13
9.413464416887305264e-13
9.246757914635470228e-13
8.589305053644045487e-13
7.542969479970279721e-13
6.273587433013773492e-13
5.133300948732198381e-13
4.355316497977312236e-13
3.758076999558720310e-13
2.893340452285179465e-13
1.999715841709685721e-13
1.614323505360753312e-13
1.116260633409882142e-13
8.287836458615739105e-14
5.585167103428329427e-14
3.939628241792044120e-14
2.747161649703856994e-14
1.914549595983971839e-14
1.341530778803505030e-14
9.493963963348891474e-15
6.842249867211196372e-15
5.028679256885700636e-15
3.766617826654784897e-15
2.869014406708690911e-15
2.209517327023431522e-15
1.708441656835736821e-15
1.316377881503388129e-15
