# bin_20_14
2.754601468842394509e-16
3.116203674278291925e-16
3.467293408478553614e-16
3.779768360503692898e-16
4.016098443126778294e-16
4.130248184340220841e-16
4.088292139125383530e-16
3.833543186789027953e-16
3.396215650918026020e-16
2.844996779928508564e-16
2.326037231891640165e-16
1.958082619869013868e-16
1.695870128437208773e-16
1.341367996282958222e-16
9.256257182101832191e-17
7.314405140443947946e-17
5.280681371401383173e-17
3.779211999943139193e-17
2.575737365658522387e-17
1.841804086649963781e-17
1.273320557334213534e-17
8.774623796712697270e-18
6.101958235046111870e-18
4.280394161558754032e-18
3.050792555864286805e-18
2.216893469442631418e-18
1.642857405673307801e-18
1.240522175836251361e-18
9.499591666862699228e-19
7.329376854363304926e-19
5.654687596934679508e-19
