# bin_17_4
1.928768539745510050e-52
2.150360589936427789e-52
2.350694086565430294e-52
2.507113071294760028e-52
2.591325957084023455e-52
2.581575144849299418e-52
2.441649073023310536e-52
2.180743147093689438e-52
1.840769962100733142e-52
1.505550084840675410e-52
1.257532471747357799e-52
1.089465477010320420e-52
8.829320816383399596e-53
6.155900301682763023e-53
4.727840822683220334e-53
3.569888620200090462e-53
2.479241298987048923e-53
1.765344387456132607e-53
1.273093503568568148e-53
8.930305601804082265e-54
6.285499761557700038e-54
4.486323426553185465e-54
3.249519366727751901e-54
2.395574397131585576e-54
1.800393185906091012e-54
1.375254813134607678e-54
1.063275709034439315e-54
8.266910950462343979e-55
6.416682773591051931e-55
4.937856733017417572e-55
3.745321546818612886e-55
