# bin_8_20
2.014766003331350171e-07
2.204305432579746112e-07
2.354286474447530719e-07
2.438649166872207595e-07
2.435959291768553841e-07
2.313637322294124816e-07
2.075067681217594364e-07
1.759589962364147104e-07
1.440717616255312387e-07
1.198739273211196187e-07
1.036346113725149982e-07
8.483973510744568160e-08
5.994542504479220563e-08
4.529191560098034046e-08
3.492322252775811099e-08
2.413406028615839037e-08
1.766251402589532384e-08
1.274381507518955839e-08
9.075587485747375831e-09
6.533709358970025942e-09
4.771598964132734820e-09
3.545203660259203547e-09
2.681428843610016077e-09
2.063102465981460715e-09
1.606518083416641684e-09
1.258544945161659095e-09
9.850738912119239776e-10
7.649355487568132747e-10
5.857339420759790892e-10
4.400552999631342965e-10
3.230994075687708120e-10
