# bin_2_10
5.161974228526649707e-07
5.179876251537606820e-07
4.961037582953766698e-07
4.493245373977833973e-07
3.852188623465523657e-07
3.171765292817098115e-07
2.623440353855230004e-07
2.247038476133610937e-07
1.868271305372884347e-07
1.372728099696029390e-07
1.009033629623101509e-07
7.931290974714873530e-08
5.601973943349227268e-08
4.198786981062806653e-08
3.053735895617430623e-08
2.256700145438534184e-08
1.692624490714394451e-08
1.291524830052863946e-08
1.003735175697328107e-08
7.921543602841285825e-09
6.318351170882477475e-09
5.055691277583991812e-09
4.028238327382844324e-09
3.173784490758874228e-09
2.457130046520172126e-09
1.859639218981929719e-09
1.370937174051508132e-09
9.828314028635088618e-10
6.855508286230021033e-10
4.662908138865325507e-10
3.102504776421950832e-10
