# bin_6_8
8.572061102428269637e-08
9.215637709784698212e-08
9.629428425255404322e-08
9.718424499208055354e-08
9.370391054684660912e-08
8.532902376109600199e-08
7.348858789402630987e-08
6.048696824361234742e-08
4.982250041753919534e-08
4.276818519907944958e-08
3.604481143598562460e-08
2.645178791725224575e-08
1.906629029578355438e-08
1.532029185549437394e-08
1.045551645381771315e-08
7.925271282581639571e-09
5.628280141848024193e-09
4.049284679617865370e-09
2.956862283712524197e-09
2.185131087705683439e-09
1.642190057217237810e-09
1.255479780857622661e-09
9.756783283420493183e-10
7.662936606298827503e-10
6.042513236737610222e-10
4.750909236396225339e-10
3.698676826723486137e-10
2.834228442993991107e-10
2.126998424774461152e-10
1.557295318625584122e-10
1.109984727670485899e-10
