# bin_6_20
2.886285722316701475e-07
3.107175824991020236e-07
3.252235819791151522e-07
3.288686243220167183e-07
3.179937034009465824e-07
2.904532029816088853e-07
2.509141054369857564e-07
2.068322720155206507e-07
1.701368974303754093e-07
1.457728328197322189e-07
1.233645208757187494e-07
9.125854612155256741e-08
6.531805586872698698e-08
5.261966478084979907e-08
3.600020219891714086e-08
2.728544286510614327e-08
1.929981566210981737e-08
1.389711407824771939e-08
1.013801404000844389e-08
7.480017890776417256e-09
5.610410942913751065e-09
4.280545812158489983e-09
3.320907683641835390e-09
2.605184425273646295e-09
2.053132510276937728e-09
1.614398786578106333e-09
1.257701971637646176e-09
9.649241062662575932e-10
7.253502919643538101e-10
5.321468328752004107e-10
3.801375261817688799e-10
