# bin_5_4
2.560409411889010765e-09
2.698084397321270308e-09
2.750219320508720121e-09
2.691161268973795712e-09
2.491191182285659514e-09
2.180927216850230911e-09
1.811599117327285802e-09
1.483109354279802152e-09
1.258086737695214976e-09
1.080067384512196711e-09
8.298154544768461613e-10
5.816548298765085122e-10
4.680719932113202697e-10
3.306777716717375829e-10
2.478435277641734584e-10
1.751419930742457760e-10
1.284303032003565762e-10
9.443700243195592633e-11
7.030317489012591879e-11
5.325670113186561210e-11
4.103926810529963833e-11
3.212862712094062220e-11
2.540501683731066825e-11
2.014870893758457061e-11
1.591518728503274421e-11
1.243405865726572474e-11
9.550041916614349374e-12
7.174545794328425586e-12
5.252666054166737164e-12
3.740540111622643489e-12
2.591836072976917107e-12
