# bin_12_7
1.031694594168882373e-16
1.139214625669560418e-16
1.230716162196324306e-16
1.293416448153213976e-16
1.313539798070164482e-16
1.277695690980495307e-16
1.173763911390326919e-16
1.019776598100011226e-16
8.423949311045251174e-17
6.909492958732816633e-17
5.907378221742813865e-17
5.047660909613973132e-17
3.775395526029247029e-17
2.651223366178557369e-17
2.160996879130742020e-17
1.457076262201627178e-17
1.110449277066401092e-17
7.681643431873501109e-18
5.436707202317607315e-18
3.898674113576205193e-18
2.812092108448484909e-18
2.052530347276277797e-18
1.522057976358955966e-18
1.150884962613765279e-18
8.843037444286737901e-19
6.870969534036351251e-19
5.366114245027055779e-19
4.181623012499715012e-19
3.229509961413185892e-19
2.457308905847721237e-19
1.833611767985745966e-19
