# bin_4_7
1.819556317305298947e-07
1.907173591190087164e-07
1.932274593647724734e-07
1.874379007574185772e-07
1.718955318493701086e-07
1.491138099902118130e-07
1.232648257868301197e-07
1.012684010690464228e-07
8.641860090254611615e-08
7.337912749475264158e-08
5.507795512603264692e-08
3.927716364465551821e-08
3.152184467014266210e-08
2.199783878093148948e-08
1.658217336094258110e-08
1.182072369615137184e-08
8.638041698506944999e-09
6.375055984070096696e-09
4.769400122369286199e-09
3.632067245681384117e-09
2.813054823317076029e-09
2.211027005643171971e-09
1.752399981197959960e-09
1.390634851654348486e-09
1.097165972770048460e-09
8.548015017141189731e-10
6.538083448376527862e-10
4.886180295806313478e-10
3.556282886323861290e-10
2.517567651089600869e-10
1.734909831427490839e-10
