# bin_4_6
1.345159967801531550e-07
1.408873262697608834e-07
1.426171309206582232e-07
1.381715912189054215e-07
1.265383579303140630e-07
1.096173638648419487e-07
9.054189431563298775e-08
7.441833819021091667e-08
6.356557385025541903e-08
5.389566280695500743e-08
4.030584307665282557e-08
2.880434119070262618e-08
2.312380838625575647e-08
1.609538024978080621e-08
1.215272989393553986e-08
8.668412201461529843e-09
6.331768819754298056e-09
4.676179552992654399e-09
3.501335227686218122e-09
2.668620025009836668e-09
2.068476419642226655e-09
1.626815111192198155e-09
1.289856066540851238e-09
1.023694880483980101e-09
8.075415118984401904e-10
6.289056029859428193e-10
4.807343222834831235e-10
3.589906442182177963e-10
2.610462815585432764e-10
1.846285063589573179e-10
1.271195737280191849e-10
