# bin_9_18
1.515845977719092620e-07
1.668471485828581338e-07
1.795374688204548320e-07
1.877478027120445799e-07
1.896096263288960196e-07
1.829204652184967731e-07
1.666036416541744992e-07
1.434951796863054706e-07
1.180726734611138900e-07
9.724959893786198247e-08
8.358071022489466498e-08
7.051621270566487784e-08
5.156704102923910514e-08
3.705428515063763337e-08
2.984593837840670977e-08
2.009402580142635659e-08
1.522157079682022285e-08
1.068983446290774427e-08
7.563851149282168165e-09
5.429068843623052687e-09
3.928441039601532016e-09
2.884995206569624333e-09
2.154640050035656790e-09
1.639790218712201721e-09
1.266459226002543264e-09
9.873559270549885091e-10
7.720548291639153523e-10
6.011039746037937711e-10
4.629668352215111295e-10
3.507668230927424067e-10
2.602910654975399630e-10
