# bin_4_12
3.257191144312076352e-07
3.417289787698144875e-07
3.466089721722369315e-07
3.367529842512514320e-07
3.093708413688157247e-07
2.688323499457369589e-07
2.224567022834196286e-07
1.826578160197043829e-07
1.556887956368579833e-07
1.324371371067459018e-07
9.986206468372044720e-08
7.102754855184700167e-08
5.697876006922908123e-08
3.989363714173850954e-08
3.000968431939012504e-08
2.137752949048161465e-08
1.562980361172927080e-08
1.152520761984781562e-08
8.613404274380476640e-09
6.552540478964896235e-09
5.069995324756037788e-09
3.981814077023579476e-09
3.154373085564724194e-09
2.502820647310034340e-09
1.975011521439890596e-09
1.539495612542740790e-09
1.178410181261362384e-09
8.815416803413927166e-10
6.423340801913147488e-10
4.552507193671511069e-10
3.140681278379607846e-10
