# bin_11_17
-3.646597527347277104e-15
-4.097539947157833484e-15
-4.522405350028686243e-15
-4.881078809555318559e-15
-5.122203070259404018e-15
-5.192360076699484675e-15
-5.035157966795432362e-15
-4.609060354678193592e-15
-3.989734359498591580e-15
-3.289328364167886684e-15
-2.702568574684603858e-15
-2.318403928867081007e-15
-1.972514849902728020e-15
-1.457007569232349028e-15
-1.029045423837668344e-15
-8.376807653738863416e-16
-5.555440060607538655e-16
-4.223448273959536290e-16
-2.901638436171019973e-16
-2.010186122637801023e-16
-1.411938996708198030e-16
-9.922024868840818610e-17
-7.032460361369308038e-17
-5.050884332325387762e-17
-3.700756134060109198e-17
-2.763832790181241572e-17
-2.099761085280245847e-17
-1.616104928124815785e-17
-1.251606115656840372e-17
-9.682513705467829428e-18
-7.429382147839541952e-18
