# bin_1_3
-2.213806810803623632e-09
-2.227400893049963000e-09
-2.139982940971541159e-09
-1.942779344527826347e-09
-1.668698545079214608e-09
-1.372490107388461722e-09
-1.131943875386006228e-09
-9.713335448999177301e-10
-8.144639218407369972e-10
-5.971381613249940770e-10
-4.348048219819500324e-10
-3.474852575670753256e-10
-2.411852181907005337e-10
-1.831949780531919857e-10
-1.327424281689573830e-10
-9.773406815222120525e-11
-7.326878967075107962e-11
-5.585442839231304633e-11
-4.337259558501657345e-11
-3.421009361202939013e-11
-2.728491152657598503e-11
-2.183999305737120017e-11
-1.741440349118231303e-11
-1.373521000851351734e-11
-1.064732543422049163e-11
-8.069240004907166646e-12
-5.956129976245772749e-12
-4.274285015933231615e-12
-2.983617840620635520e-12
-2.030358918562102194e-12
-1.351352388716750023e-12
