# bin_16_15
-1.965349220812626743e-08
-2.215714691412996208e-08
-2.455167004664599963e-08
-2.662852561040611151e-08
-2.811509351048785838e-08
-2.869668801052672226e-08
-2.811346487606255044e-08
-2.603143854644463873e-08
-2.279113951400120170e-08
-1.891437259715486545e-08
-1.548515172413059529e-08
-1.317253411244026564e-08
-1.134267164404997714e-08
-8.653491883053929073e-09
-5.995608670158907402e-09
-4.863634638423299533e-09
-3.319052674888359625e-09
-2.488054302417370439e-09
-1.679184537700116068e-09
-1.177144324572154543e-09
-8.231911803999945709e-10
-5.755642054256358573e-10
-4.043011664239644986e-10
-2.870041436410571793e-10
-2.076006046378321191e-10
-1.531320467887292224e-10
-1.150824819531074959e-10
-8.788340471355694943e-11
-6.778588585072486315e-11
-5.243399109696541062e-11
-4.037316143115380089e-11
