# bin_16_19
-1.034552105536592765e-09
-1.171517834406234739e-09
-1.305089506506211994e-09
-1.424823289624950542e-09
-1.516719640581964739e-09
-1.563427136790328215e-09
-1.552106200655053589e-09
-1.460843700283641301e-09
-1.298722289943065473e-09
-1.091340147768273659e-09
-8.923564888896697620e-10
-7.488921224636881982e-10
-6.489861112025419296e-10
-5.186823786430134781e-10
-3.587191955058289163e-10
-2.802554836862967941e-10
-2.058776516132200965e-10
-1.449965260311297416e-10
-9.995645364290413082e-11
-7.151789121923618834e-11
-4.929964155113770477e-11
-3.384264195487050850e-11
-2.345653295557917743e-11
-1.639670276002102268e-11
-1.163319043109400141e-11
-8.413107296276786090e-12
-6.205677228309112092e-12
-4.667267078151060625e-12
-3.564034519862749870e-12
-2.746063832307467316e-12
-2.118869763782516581e-12
