# bin_16_9
-1.439434930594594372e-18
-1.610655254161323622e-18
-1.768573815353412496e-18
-1.896765161061413178e-18
-1.974526818895161580e-18
-1.983507766906139257e-18
-1.897835456379218286e-18
-1.713636927192637148e-18
-1.462697266842325272e-18
-1.199156626648883315e-18
-9.929362826731474302e-19
-8.583489806945696690e-19
-7.135564288283532704e-19
-5.082319493886218036e-19
-3.750466096054272368e-19
-2.957455505127456656e-19
-1.984709068327570478e-19
-1.472512088479969494e-19
-1.038970668147821963e-19
-7.232319568729267978e-20
-5.077429718923681878e-20
-3.589243798594018004e-20
-2.573741108785608861e-20
-1.875723042645556988e-20
-1.394494055959662421e-20
-1.055359273540319435e-20
-8.104285869145391707e-21
-6.279469098914919431e-21
-4.874052909859628337e-21
-3.762596147990211085e-21
-2.870244312334801285e-21
