# bin_16_2
-4.952754658427800777e-62
-5.498281919706477128e-62
-5.979150750651683916e-62
-6.335575566289779182e-62
-6.495582027863438806e-62
-6.404683948931046337e-62
-5.978121645762569455e-62
-5.273975599460383481e-62
-4.402655347021485063e-62
-3.599483623154382689e-62
-3.039181818178585445e-62
-2.627448500273638454e-62
-2.055124535304076034e-62
-1.420935921869482751e-62
-1.135187078434179095e-62
-8.089899768853286173e-63
-5.921195181091725854e-63
-4.066347861564812266e-63
-2.937144761345057043e-63
-2.082725948785098958e-63
-1.483177654202509763e-63
-1.070289735357829363e-63
-7.835680079779031762e-64
-5.846992234376207996e-64
-4.442443974542278160e-64
-3.423249539993031222e-64
-2.661728507110962762e-64
-2.073612551823011838e-64
-1.607062719227985663e-64
-1.230983138574099616e-64
-9.270885190993859840e-65
