# bin_2_6
-4.754623995378024679e-14
-5.000601618356904091e-14
-5.085600643040028545e-14
-4.960410824368985276e-14
-4.573983416611362234e-14
-3.989362786514855528e-14
-3.304552662434283961e-14
-2.706872983093910577e-14
-2.303458789354289091e-14
-1.973072821636817882e-14
-1.499353200766607073e-14
-1.053451986968783420e-14
-8.534580948589383934e-15
-5.942418814431355383e-15
-4.505144940019208342e-15
-3.180684755644417888e-15
-2.324272824306726242e-15
-1.714100021117379843e-15
-1.279951409853814967e-15
-9.718992426683742883e-16
-7.505896350399256324e-16
-5.887376913072368869e-16
-4.661069995819651949e-16
-3.698581744737397396e-16
-2.920798605103507826e-16
-2.279798773641110978e-16
-1.748291745879161455e-16
-1.310679236239326140e-16
-9.571995554611704121e-17
-6.798518630686566728e-17
-4.698706379811902274e-17
