# bin_6_9
-9.520677035596378324e-11
-1.038919984387581351e-10
-1.105998063412384878e-10
-1.140864964427914721e-10
-1.133966885914755923e-10
-1.069683068371398651e-10
-9.531360393108982357e-11
-8.029493064859035763e-11
-6.565594705286428803e-11
-5.491221774133342512e-11
-4.752690457791264873e-11
-3.830622393991495680e-11
-2.674943726825927975e-11
-2.069135080690626941e-11
-1.555120750206775090e-11
-1.097033031890715356e-11
-7.856567141829188957e-12
-5.729382652415469861e-12
-4.099054188657926419e-12
-2.958328916077594676e-12
-2.171472529787109158e-12
-1.621584259843543067e-12
-1.232980032746957681e-12
-9.528044649700345057e-13
-7.442506617248671053e-13
-5.839973043925667378e-13
-4.571050090212406458e-13
-3.544356555315439779e-13
-2.706544616403680117e-13
-2.025600206823744206e-13
-1.480202484068025332e-13
