# bin_4_4
-8.551610539799689952e-08
-8.980102755655959776e-08
-9.116957899853325318e-08
-8.869905045486106193e-08
-8.156791545507022664e-08
-7.095154653229623638e-08
-5.869083242007258851e-08
-4.812634902728893229e-08
-4.102616065822411948e-08
-3.502660485399095837e-08
-2.643374340098919676e-08
-1.867231744224403643e-08
-1.511241399460082295e-08
-1.048946613195528756e-08
-7.961238758402169912e-09
-5.637463844983949548e-09
-4.117124000898640310e-09
-3.038457555707800497e-09
-2.271329494083401760e-09
-1.727301836925287305e-09
-1.335965710067778359e-09
-1.049096394059690232e-09
-8.311370930706150461e-10
-6.596212867914624610e-10
-5.207308415145690859e-10
-4.061215503797429209e-10
-3.110618628326533027e-10
-2.328455303713244471e-10
-1.697573349613116351e-10
-1.203630728569029967e-10
-8.305543394171337359e-11
