# bin_13_1
-7.646632235468334533e-55
-8.384462162400356322e-55
-8.979487308556842536e-55
-9.333572178012535123e-55
-9.361751517593284826e-55
-8.940934664357015886e-55
-8.060191682790812946e-55
-6.869175972843021407e-55
-5.628852416518316090e-55
-4.663818123949859701e-55
-4.030222177302636745e-55
-3.340704796822493187e-55
-2.378750244024310553e-55
-1.765744563860936014e-55
-1.389668305871406269e-55
-9.439960325769129507e-56
-7.029635580086271135e-56
-5.034019557827600896e-56
-3.571613982507772526e-56
-2.565774068722328347e-56
-1.866065024253813191e-56
-1.381049098696160962e-56
-1.040358938120717677e-56
-7.977933048720931022e-57
-6.197710986983875639e-57
-4.849531823524366126e-57
-3.796147150427400289e-57
-2.951514567469488866e-57
-2.265184576566222441e-57
-1.707068380951578910e-57
-1.258072955323292048e-57
