# bin_16_5
-7.285893581752158525e-38
-8.112310066875269534e-38
-8.853818698239092712e-38
-9.424030542315109480e-38
-9.715843072291174782e-38
-9.649203866054739631e-38
-9.088815086599792833e-38
-8.086551371689061663e-38
-6.800967664181199949e-38
-5.560230775100321742e-38
-4.659738904539382607e-38
-4.036512901315959753e-38
-3.237329961200550088e-38
-2.246431949518514360e-38
-1.749091702897055728e-38
-1.297895975064062592e-38
-9.156110099198865061e-39
-6.425567688560239810e-39
-4.653551381160124425e-39
-3.274464865669874873e-39
-2.310875411785547662e-39
-1.655389051765409095e-39
-1.203134467583783976e-39
-8.904220784938778308e-40
-6.715822574529297852e-40
-5.145013327607248066e-40
-3.985774903634900248e-40
-3.101465793306834240e-40
-2.406556343370749500e-40
-1.849453011357389411e-40
-1.399781431838902679e-40
