# bin_11_10
-2.179370088590162504e-08
-2.417568376420847327e-08
-2.626534222883052710e-08
-2.779854934269848079e-08
-2.846084666316540412e-08
-2.800919018615965762e-08
-2.608296714697535584e-08
-2.296069672483813328e-08
-1.913402212877976409e-08
-1.564700861618500019e-08
-1.323685523223977781e-08
-1.143195817371069397e-08
-8.883130868812049588e-09
-6.145943308298256253e-09
-4.934524305562467600e-09
-3.481367822120705546e-09
-2.569998442600048794e-09
-1.761404677132196766e-09
-1.268481837063821577e-09
-9.013818689727642055e-10
-6.435261795691438412e-10
-4.651811473723398038e-10
-3.411893210337430259e-10
-2.551090168754976400e-10
-1.941683859548963992e-10
-1.498238588887536337e-10
-1.165868154439545150e-10
-9.084186716522408480e-11
-7.037411231148710627e-11
-5.385650768152783451e-11
-4.050796057937632880e-11
