# bin_6_16
-8.672308240190706195e-32
-9.667225644825783266e-32
-1.056593884941731995e-31
-1.126646794248867535e-31
-1.164154250833120539e-31
-1.159371710534015062e-31
-1.096020747044731128e-31
-9.784779728683060951e-32
-8.255832213065644502e-32
-6.751969325282105344e-32
-5.641783644067863968e-32
-4.887845977537460605e-32
-3.956726149914165693e-32
-2.756872596750223970e-32
-2.120718318837454247e-32
-1.598234747575106724e-32
-1.111817679773341154e-32
-7.902948782157726167e-33
-5.703165358507523820e-33
-4.001958287568863205e-33
-2.817409708030272912e-33
-2.011803890559046101e-33
-1.457774165275683352e-33
-1.075178038602721695e-33
-8.083934320512129569e-34
-6.177217474722241424e-34
-4.777091228101199911e-34
-3.714581901779782446e-34
-2.883154502721554349e-34
-2.218369618475221229e-34
-1.682210697746547629e-34
