# bin_16_12
-2.443190353747866188e-11
-2.744463453475855679e-11
-3.027889410645990817e-11
-3.266511974147181061e-11
-3.425872617867801213e-11
-3.470533876621937170e-11
-3.362152401323201748e-11
-3.074431418330995526e-11
-2.658513285132107717e-11
-2.190705433322147747e-11
-1.800789462272995767e-11
-1.545866377010591083e-11
-1.313285285261423461e-11
-9.672512246158959397e-12
-6.850513498514680948e-12
-5.569502697323626019e-12
-3.691697706386184100e-12
-2.804987607629764098e-12
-1.930818358366288794e-12
-1.337594210104468555e-12
-9.395116161357213495e-13
-6.603664756222215005e-13
-4.684390760933956897e-13
-3.368125900020472078e-13
-2.470599746778087036e-13
-1.847070449532690141e-13
-1.404518720058839315e-13
-1.081647170586845676e-13
-8.379023291016436019e-14
-6.481474984179412879e-14
-4.971273008289675828e-14
