# bin_6_13
-7.452471667631219801e-21
-8.241085488739629795e-21
-8.918918886457827723e-21
-9.394265384281186453e-21
-9.564443126316522377e-21
-9.338231987576176116e-21
-8.614599597927998828e-21
-7.515477388544736831e-21
-6.223179503986918834e-21
-5.097770754472691360e-21
-4.345094556066751599e-21
-3.728869516327808104e-21
-2.821611289065937490e-21
-1.967645180335864477e-21
-1.601604940572259095e-21
-1.090731580106999604e-21
-8.268186920998175972e-22
-5.685208727264626961e-22
-4.039285327883412379e-22
-2.891512729842080355e-22
-2.081448718114998342e-22
-1.514750832727358007e-22
-1.119387365863854841e-22
-8.435650349085249775e-23
-6.463659328403533875e-23
-5.012326309318155236e-23
-3.910887597602208353e-23
-3.048008774174527994e-23
-2.356552677630036515e-23
-1.796445511126537869e-23
-1.343878410826896570e-23
