# bin_7_2
-2.668005741880529747e-17
-2.829344334747122673e-17
-2.905666995262956171e-17
-2.872688846651447647e-17
-2.692141194336443024e-17
-2.384474082310904532e-17
-1.998181684050744163e-17
-1.633318104396663283e-17
-1.372195037504228034e-17
-1.185779192989112204e-17
-9.413389075360441852e-18
-6.565206096211050341e-18
-5.169580285127474434e-18
-3.809155299699093303e-18
-2.759531428874752205e-18
-1.966823841212768014e-18
-1.450749566586186327e-18
-1.057811730411181367e-18
-7.805484602389546422e-19
-5.868826046617408115e-19
-4.491462110248042750e-19
-3.495102358893891789e-19
-2.752724909924579887e-19
-2.179477816894483799e-19
-1.722619763821499775e-19
-1.349694483235631835e-19
-1.041629809035055171e-19
-7.875907855484283951e-20
-5.810329994311400702e-20
-4.171140013024537296e-20
-2.912807095909412498e-20
