# bin_18_8
-8.584640797356779473e-29
-9.631153793891731452e-29
-1.060962402894539982e-28
-1.142423771669702143e-28
-1.195321424173909787e-28
-1.207700273487253324e-28
-1.165317979181523327e-28
-1.061137639443244977e-28
-9.136758031902516460e-29
-7.514302809664493528e-29
-6.189708207761937884e-29
-5.327742827981246654e-29
-4.497684028736933433e-29
-3.273935527044639750e-29
-2.347165321388494807e-29
-1.895699398627961963e-29
-1.256111721580020406e-29
-9.507612516597959227e-30
-6.596235569538923677e-30
-4.572255742578426170e-30
-3.210997520023687362e-30
-2.259293595578575553e-30
-1.608148484725050574e-30
-1.161443155061691617e-30
-8.558278893388043013e-31
-6.425394942421864467e-31
-4.903028265136564852e-31
-3.784614183674395352e-31
-2.934478373783510379e-31
-2.268912077796853410e-31
-1.737405189509753654e-31
