# bin_2_12
-2.356615275627106777e-40
-2.576408355080662558e-40
-2.749143951000585788e-40
-2.844137907536531182e-40
-2.837114757239074211e-40
-2.688972785209622649e-40
-2.406586790500747272e-40
-2.035909368012559607e-40
-1.665540316159228437e-40
-1.387796181311376320e-40
-1.201209988102924205e-40
-9.794352449700908649e-41
-6.876059084315318496e-41
-5.239129137093835288e-41
-4.012357432654581145e-41
-2.784036676747388000e-41
-2.023059819381476519e-41
-1.468615984114659510e-41
-1.047078887433495123e-41
-7.535839356148477635e-42
-5.511504001589050464e-42
-4.102069920007153822e-42
-3.108330808952317270e-42
-2.395327751641211983e-42
-1.867438571771959886e-42
-1.464014406103412595e-42
-1.146120702972910980e-42
-8.897193473264553746e-43
-6.807704816455435623e-43
-5.108751496920342501e-43
-3.745419484569191602e-43
