# bin_4_13
-4.345006720901957550e-31
-4.787122335408274695e-31
-5.157378812814387768e-31
-5.401371259904070027e-31
-5.464178465071031953e-31
-5.284203026284930339e-31
-4.823941119447509046e-31
-4.164622054319364357e-31
-3.429112247093601764e-31
-2.819860239283936552e-31
-2.421205450533894059e-31
-2.052172483297574450e-31
-1.508448945168942511e-31
-1.074747495626350309e-31
-8.726749236719855970e-32
-5.840420764637913933e-32
-4.455697673257985299e-32
-3.115471637493144008e-32
-2.199888733881438682e-32
-1.579310108087912375e-32
-1.141476320348843615e-32
-8.368379902360338355e-33
-6.237862874625406233e-33
-4.739549321706421256e-33
-3.655955987229562368e-33
-2.848174105981547988e-33
-2.226813988235357860e-33
-1.734487012505008358e-33
-1.337110779963550182e-33
-1.014378712354375299e-33
-7.539513621733348726e-34
