# bin_9_18
-2.473138827391523437e-24
-2.777424617664363014e-24
-3.063347290605652933e-24
-3.303554702543768925e-24
-3.463125953070720850e-24
-3.506476181816622443e-24
-3.394316999366020389e-24
-3.101245982578966978e-24
-2.679422468470085338e-24
-2.207006754989830167e-24
-1.814854826856886361e-24
-1.558823090363436533e-24
-1.322776904344541087e-24
-9.719149269940681720e-25
-6.898276838329118237e-25
-5.604032375116518777e-25
-3.711797330559611469e-25
-2.819724906679517194e-25
-1.944026808708655515e-25
-1.346597946306962163e-25
-9.458457935972139873e-26
-6.649118317324357600e-26
-4.719808540809050410e-26
-3.396609207974814535e-26
-2.493795390314836100e-26
-1.866027977431169570e-26
-1.419971020341345963e-26
-1.094089412410810992e-26
-8.477274833085883761e-27
-6.557096858462628880e-27
-5.027751061547639272e-27
