# bin_1_7
-2.472317186172443650e-22
-2.607189245311918933e-22
-2.659708775133672038e-22
-2.605743498424239434e-22
-2.415094966373187826e-22
-2.116827810274069650e-22
-1.759289474762049158e-22
-1.439440448469453293e-22
-1.220093255391072931e-22
-1.049230400192134692e-22
-8.085561971019229901e-23
-5.650019561739987626e-23
-4.552626056203214936e-23
-3.219078179881164595e-23
-2.412920818600463148e-23
-1.700875418218419540e-23
-1.248408563805712564e-23
-9.177657434786662627e-24
-6.828992297011961022e-24
-5.170136642027085103e-24
-3.981619588938139756e-24
-3.115665891442552569e-24
-2.463010291601864734e-24
-1.953344251957044979e-24
-1.543207703871919250e-24
-1.206130959227741896e-24
-9.268922395712494770e-25
-6.968093660598894084e-25
-5.105324872052312231e-25
-3.638243655343027156e-25
-2.522576440089638723e-25
