# bin_20_8
-5.078185119079035454e-36
-5.717690322633190049e-36
-6.325842896647840693e-36
-6.847955384226451756e-36
-7.213176045419288769e-36
-7.342545093893271026e-36
-7.165124299059755993e-36
-6.604305290868339111e-36
-5.756595595884300231e-36
-4.763850745638033252e-36
-3.904398363891748319e-36
-3.333035275963637904e-36
-2.858869556550866318e-36
-2.153191724003526042e-36
-1.500031131539480717e-36
-1.222143947143714564e-36
-8.212033919538083487e-37
-6.215077935767417047e-37
-4.218463470451037085e-37
-2.935838647077355948e-37
-2.059144294419349800e-37
-1.444201178087747394e-37
-1.018055239681445305e-37
-7.259688454194910774e-38
-5.278295125057200140e-38
-3.913078938561500900e-38
-2.954037077569645787e-38
-2.263438512938031657e-38
-1.749083968618947158e-38
-1.353317298930974265e-38
-1.040763276335754214e-38
