# bin_1_11
-2.781940806101779630e-43
-3.019814151249439795e-43
-3.193808692912176947e-43
-3.268092724252122370e-43
-3.214562839238259197e-43
-2.992473957403259354e-43
-2.633595352944764617e-43
-2.194662611833427802e-43
-1.794496508527819044e-43
-1.517139822525448716e-43
-1.309177529202564969e-43
-1.018611589332101409e-43
-7.072206283272765273e-44
-5.672804493015123862e-44
-4.035472135862655299e-44
-2.987839011945894008e-44
-2.079816541029100025e-44
-1.516545545209391689e-44
-1.096588584837683773e-44
-7.999147684180748998e-45
-5.928121839881270551e-45
-4.466722802403251977e-45
-3.427064502081535522e-45
-2.667123820673437779e-45
-2.092973625311958004e-45
-1.645280324445445387e-45
-1.286368318035189517e-45
-9.937883675021234838e-46
-7.544012577488092692e-46
-5.602111110383939108e-46
-4.056093945125816943e-46
