# bin_19_19
-2.706413871969529237e-08
-3.072451475247761654e-08
-3.433591979649355636e-08
-3.763140472993990442e-08
-4.025249004628145614e-08
-4.174866605217857775e-08
-4.175476591616132461e-08
-3.969173407615790051e-08
-3.561495869990407023e-08
-3.019881610041983112e-08
-2.472133189916305376e-08
-2.058052946495435727e-08
-1.783288352796522540e-08
-1.460923322856007349e-08
-1.024047374903374619e-08
-7.734302944651119048e-09
-5.927817603253344330e-09
-4.024312958391431168e-09
-2.884823077389813008e-09
-2.037943724666793083e-09
-1.395419786652237128e-09
-9.531631096019415022e-10
-6.544921204676877268e-10
-4.531790675246950770e-10
-3.175863007112202259e-10
-2.266606791747633918e-10
-1.649721366814691986e-10
-1.225915632980924385e-10
-9.276339093486296229e-11
-7.109868680136805012e-11
-5.480145105310728126e-11
