# bin_17_19
-6.645417200807051926e-09
-7.531701357414545061e-09
-8.399399276154409070e-09
-9.182002656533842533e-09
-9.790185129304270897e-09
-1.011248675140022848e-08
-1.006487412448025707e-08
-9.504547416543072330e-09
-8.476043303058357876e-09
-7.143222136315654512e-09
-5.842300514521642172e-09
-4.889756339420251969e-09
-4.238354846868050436e-09
-3.417311705343410344e-09
-2.371309687784877133e-09
-1.832402553785704349e-09
-1.366303902445830103e-09
-9.493221005121987479e-10
-6.625076019750821860e-10
-4.729841592673039656e-10
-3.252654673746301565e-10
-2.227113040036939583e-10
-1.538831618832036670e-10
-1.072307389768395578e-10
-7.576661285648905261e-11
-5.455688977205808899e-11
-4.006920378337523633e-11
-3.002202469628762556e-11
-2.286205031863835999e-11
-1.758904958100099725e-11
-1.357023565771965343e-11
