# bin_8_7
-2.528141838807785995e-08
-2.757525834922788238e-08
-2.933907577438930690e-08
-3.024213770480086327e-08
-3.003301131733156494e-08
-2.829703372832263210e-08
-2.518602134514243548e-08
-2.119426030065705238e-08
-1.732762206350511731e-08
-1.450607143747416754e-08
-1.255552879784096140e-08
-1.009057402488720511e-08
-7.034626113423114473e-09
-5.463469423572589194e-09
-4.086689474777565670e-09
-2.894784660867991101e-09
-2.064617072275232888e-09
-1.508182348649852624e-09
-1.079955381533089058e-09
-7.798538426247187308e-10
-5.729719639957622078e-10
-4.282412807819768220e-10
-3.258978763502761142e-10
-2.520196466122375124e-10
-1.969523218421460074e-10
-1.545804089402586068e-10
-1.209883717190735191e-10
-9.378719213893456218e-11
-7.158247580758829740e-11
-5.353680431270739121e-11
-3.908971738314999092e-11
