# bin_3_10
-4.359743611262236015e-24
-4.731718146431764438e-24
-5.003280322870232738e-24
-5.118345199683901740e-24
-5.032752428506796210e-24
-4.683049810142775819e-24
-4.119771877421817731e-24
-3.432045105794614270e-24
-2.806375631478247063e-24
-2.373454862258008180e-24
-2.047726904375838362e-24
-1.591344837528908324e-24
-1.104993652666589674e-24
-8.871522423305803983e-25
-6.299914116090849750e-25
-4.671341038386582121e-25
-3.250429816143016715e-25
-2.369193591615469560e-25
-1.713734858292936361e-25
-1.250594026012722567e-25
-9.270754950025721185e-26
-6.987305282169115491e-26
-5.362453348950328245e-26
-4.174230786872410619e-26
-3.276076388895079561e-26
-2.575418778875798498e-26
-2.013498899736350832e-26
-1.555333480255076742e-26
-1.180443731874487993e-26
-8.763594636278619028e-27
-6.343194038898024920e-27
