# bin_12_18
-8.913448680981578790e-15
-1.004204548467623647e-14
-1.111820885605546343e-14
-1.204660988593673323e-14
-1.270322701383721201e-14
-1.294740903805225713e-14
-1.265800309980341549e-14
-1.169215786691369989e-14
-1.021272491687314620e-14
-8.462431247644013564e-15
-6.931891012127722468e-15
-5.907907738996896111e-15
-5.077331078829563735e-15
-3.847079951672009026e-15
-2.672491749814320135e-15
-2.173765252512292313e-15
-1.470463016963745259e-15
-1.108566677172517207e-15
-7.501797143588337218e-16
-5.236810202671644846e-16
-3.668662959860023336e-16
-2.569897363668487486e-16
-1.808605289991692582e-16
-1.286962851325617436e-16
-9.334738230854389583e-17
-6.904228300948798939e-17
-5.201333410791526201e-17
-3.979297531816777672e-17
-3.072481697888276152e-17
-2.377065921370948138e-17
-1.829164026614382560e-17
