# bin_8_11
-1.772092506691208679e-10
-1.957097466392528392e-10
-2.114722074748781684e-10
-2.223026180463086692e-10
-2.258277400525553576e-10
-2.197599089884569706e-10
-2.019882219214549225e-10
-1.755783836619988285e-10
-1.450870474532697157e-10
-1.189909498689426540e-10
-1.016911053145519307e-10
-8.692650216686333296e-11
-6.511443720710997700e-11
-4.570168391557029272e-11
-3.722412835294300067e-11
-2.514960399325916552e-11
-1.914107249723850920e-11
-1.323199271982482205e-11
-9.373234538450822133e-12
-6.718971220462484085e-12
-4.844593223460727450e-12
-3.534710259948101908e-12
-2.620042562057413213e-12
-1.980253362737269661e-12
-1.521011584471369575e-12
-1.181500940106437931e-12
-9.226050817045279026e-13
-7.189490029813723966e-13
-5.553144619306964117e-13
-4.226250786755338066e-13
-3.154515705944540655e-13
