# bin_2_5
-1.995491700572998132e-11
-2.079804994188738958e-11
-2.093557515397594455e-11
-2.011736833462256559e-11
-1.825924533697990485e-11
-1.567569631158746088e-11
-1.288551808484306509e-11
-1.062834923730892008e-11
-9.132092106812616830e-12
-7.658838839242303937e-12
-5.590900175188196955e-12
-4.068394847637909997e-12
-3.255798643479347297e-12
-2.238887063662083632e-12
-1.699335363367435042e-12
-1.222966026429085488e-12
-8.905845258367512647e-13
-6.601353580392570937e-13
-4.967897243470799371e-13
-3.806595779381328864e-13
-2.965403362129294938e-13
-2.341336510589885075e-13
-1.860604282885204265e-13
-1.477506127743873825e-13
-1.164216175965036516e-13
-9.042234475283221605e-14
-6.883629527852303586e-14
-5.113728590556003984e-14
-3.696528244446390804e-14
-2.598658218939619316e-14
-1.779095730578843450e-14
