# bin_3_17
-4.519246344443383988e-58
-5.035773496574806869e-58
-5.501329037073743970e-58
-5.862621521648197972e-58
-6.053275363800879211e-58
-6.022932911901279251e-58
-5.686981094497800594e-58
-5.071385468467526781e-58
-4.274337058635155597e-58
-3.495294226619111470e-58
-2.923425032895046747e-58
-2.532712486256531575e-58
-2.044051264218035570e-58
-1.422130870857679955e-58
-1.098393667148065917e-58
-8.236098957537730405e-59
-5.755435068897497632e-59
-4.073401744594519402e-59
-2.943591325131186897e-59
-2.067395224076509660e-59
-1.456532729129651908e-59
-1.041158431460888288e-59
-7.551896367504066965e-60
-5.576235024598272160e-60
-4.196979874435158001e-60
-3.209823315811069880e-60
-2.483745747888509764e-60
-1.931792353242931651e-60
-1.499269849738204130e-60
-1.153126537800846802e-60
-8.738778341511979211e-61
