# bin_13_9
-6.397630322049503159e-12
-7.114998367042010514e-12
-7.754251529346297819e-12
-8.238962155727880706e-12
-8.475297276189462787e-12
-8.393496366234691032e-12
-7.877668855915455770e-12
-6.985503509229903895e-12
-5.857220760460175833e-12
-4.788062582236482929e-12
-4.024436366403721468e-12
-3.484330758048410801e-12
-2.767526541114518403e-12
-1.915926572213442519e-12
-1.508133536311667585e-12
-1.101515803519656672e-12
-7.884878681787707857e-13
-5.476616550841557289e-13
-3.968365300459507409e-13
-2.800505715325261028e-13
-1.982856801125634350e-13
-1.424671722925352732e-13
-1.038457715439302515e-13
-7.710914416979803281e-14
-5.833102048471172901e-14
-4.479443448251653021e-14
-3.475542095972759613e-14
-2.705907635102022844e-14
-2.098750604023721210e-14
-1.610866355021979192e-14
-1.216847201326035180e-14
