# bin_17_6
-8.089935010903193520e-36
-9.039218427726664050e-36
-9.908003627005484977e-36
-1.060288467071241622e-35
-1.100646838738786242e-35
-1.102085107212884762e-35
-1.049647095727811590e-35
-9.436201948382657737e-36
-8.017725249869940140e-36
-6.565335464425488994e-36
-5.454058158171078559e-36
-4.721304771724131113e-36
-3.888027019536060689e-36
-2.742416303945587974e-36
-2.056191152097902671e-36
-1.595494303942213174e-36
-1.083289837926422222e-36
-7.915150329932409302e-37
-5.638198852592605465e-37
-3.936068750997245501e-37
-2.764256615362243283e-37
-1.961115404492710772e-37
-1.412012408371424159e-37
-1.033920963311065713e-37
-7.721367495624779642e-38
-5.866570239674719701e-38
-4.518396896610226787e-38
-3.506621113793640305e-38
-2.722317794940457544e-38
-2.099166312408412541e-38
-1.597792989038217529e-38
