# bin_19_1
-4.262508934561558885e-89
-4.777393594892317082e-89
-5.256325009554381245e-89
-5.651317435913410396e-89
-5.901588348222917546e-89
-5.949868594093338315e-89
-5.722495413722876443e-89
-5.193999676742819088e-89
-4.457167450219302568e-89
-3.660823815321497995e-89
-3.021203594138079212e-89
-2.605205700252301419e-89
-2.187090259072443103e-89
-1.578224353691278697e-89
-1.143803380444243808e-89
-9.163568115506869083e-90
-6.093215515245990634e-90
-4.583482698992896647e-90
-3.200293344777657400e-90
-2.221760856610079475e-90
-1.560246126954335335e-90
-1.099571011904073056e-90
-7.850489041362381397e-91
-5.688896860176060227e-91
-4.207135823320923796e-91
-3.168398788931275361e-91
-2.423353926724946241e-91
-1.872971084232035960e-91
-1.452382773424514774e-91
-1.121776231895449089e-91
-8.572370987739149321e-92
