# bin_14_8
-1.305106165621214326e-16
-1.454538554097220755e-16
-1.589347048256880109e-16
-1.694161411116589958e-16
-1.749822253936854269e-16
-1.741727557953188658e-16
-1.645409290957949471e-16
-1.468052891576901429e-16
-1.237894617118532940e-16
-1.012333337579318721e-16
-8.463456203630360186e-17
-7.332174308345828443e-17
-5.925369582972938686e-17
-4.125428851869314185e-17
-3.180679673661611863e-17
-2.390389345958897355e-17
-1.667341110195128198e-17
-1.182520985582776921e-17
-8.540593600240265496e-18
-5.997266319330648001e-18
-4.224973216110107777e-18
-3.019386304164535652e-18
-2.189463881011170457e-18
-1.616002621326986954e-18
-1.215912420930729736e-18
-9.294795042484694701e-19
-7.188805807047343909e-19
-5.588746639465981374e-19
-4.335489184785192342e-19
-3.333026931918538547e-19
-2.524703766383515041e-19
