# bin_15_5
-1.323506119103075601e-33
-1.472161237213499303e-33
-1.604744607851869841e-33
-1.705460495649974524e-33
-1.754889899512918446e-33
-1.738585238891842973e-33
-1.632471561479639586e-33
-1.448238057356222312e-33
-1.214750581823888499e-33
-9.929958794039099771e-34
-8.343094577265260126e-34
-7.224248446523141908e-34
-5.745544712386505858e-34
-3.977959304420137066e-34
-3.127541382495554591e-34
-2.289169022857927213e-34
-1.635747774621736560e-34
-1.137377623945860991e-34
-8.245273416171281564e-35
-5.817671953523061251e-35
-4.118031716867076203e-35
-2.958543969691044305e-35
-2.155905797390447322e-35
-1.600363891854507761e-35
-1.210319915829776623e-35
-9.290580255205258083e-36
-7.205356538382838505e-36
-5.607393782140694950e-36
-4.347223332435714202e-36
-3.335039767612706506e-36
-2.517978904860699359e-36
