# bin_14_9
-7.117520750818946245e-14
-7.945453750239513195e-14
-8.699285640227365526e-14
-9.296230439570959767e-14
-9.632437288787763602e-14
-9.624596577777187565e-14
-9.139465140403473119e-14
-8.193831298477801049e-14
-6.942363649309280412e-14
-5.681576511513639163e-14
-4.730538657530445687e-14
-4.096861075593119310e-14
-3.351885241126208466e-14
-2.351813778692874952e-14
-1.781372855625040480e-14
-1.366973948714782570e-14
-9.365810813025785341e-15
-6.770767356816217196e-15
-4.850919383088613355e-15
-3.393788827142110852e-15
-2.385545483975507432e-15
-1.697045199300180105e-15
-1.225264089261682959e-15
-8.998141610735047596e-16
-6.739336805203525873e-16
-5.131984043885110458e-16
-3.958501190368283376e-16
-3.073708626357419540e-16
-2.385072958996571572e-16
-1.836524386749098993e-16
-1.394851032887531457e-16
