# bin_11_15
-1.453620865917218691e-11
-1.630579779495622158e-11
-1.795888767284949873e-11
-1.933300959759207886e-11
-2.022173881905027762e-11
-2.042431068011369217e-11
-1.969671601017919235e-11
-1.792672716436884685e-11
-1.542706768675235585e-11
-1.268512666371009191e-11
-1.045232297960482171e-11
-8.999001615705389140e-12
-7.590142703717525521e-12
-5.517780590941889115e-12
-3.962857471787317839e-12
-3.196084990187598567e-12
-2.119516366030202644e-12
-1.602502010349624281e-12
-1.113018062786620232e-12
-7.718314089596567410e-13
-5.421159504803334429e-13
-3.816145039102700619e-13
-2.718347878617248105e-13
-1.964099525324995153e-13
-1.448343622995701782e-13
-1.087908600297499572e-13
-8.303392934878088331e-14
-6.409238577572426436e-14
-4.967981719027363933e-14
-3.838880956042970908e-14
-2.937095721280491329e-14
