# bin_7_14
-4.654720091502020702e-20
-5.179233740810705411e-20
-5.647951900433730561e-20
-6.005437749840384746e-20
-6.183343271638706435e-20
-6.130776435136780777e-20
-5.762432942981755148e-20
-5.116963181223040655e-20
-4.295662848609142366e-20
-3.511594796828155507e-20
-2.947967024397105848e-20
-2.553024621561303221e-20
-2.036059828798773323e-20
-1.410581516644895654e-20
-1.105608058216145595e-20
-8.128898150776883700e-21
-5.784479267201383617e-21
-4.033784097129621344e-21
-2.923924555681154763e-21
-2.061335345356977053e-21
-1.457741815249490597e-21
-1.046402220584305244e-21
-7.619051519812100990e-22
-5.650451003688029884e-22
-4.269768199263603319e-22
-3.275353133248290739e-22
-2.539129142816068196e-22
-1.975730468697143295e-22
-1.531910440145854966e-22
-1.175656665327529776e-22
-8.881202858000495642e-23
