# bin_19_12
-6.491642763903715864e-17
-7.333996048837567038e-17
-8.146992363905027287e-17
-8.863381570132902338e-17
-9.394024783057086449e-17
-9.631735200265604903e-17
-9.495240512300240256e-17
-8.858826059894148962e-17
-7.811741643041931472e-17
-6.517881227776029180e-17
-5.330145363973882365e-17
-4.505740159825678302e-17
-3.896446760772893355e-17
-3.037993041221969783e-17
-2.095535734708270640e-17
-1.677410225618748139e-17
-1.182926226798851795e-17
-8.646113100657403867e-18
-5.838110408562199595e-18
-4.151963064212172485e-18
-2.884014835620370684e-18
-2.000288804483537540e-18
-1.397593778262991456e-18
-9.852415755551901814e-19
-7.068428737044757779e-19
-5.171092375485257151e-19
-3.856082587562301989e-19
-2.926624907008012434e-19
-2.248583079460332860e-19
-1.736972829509750835e-19
-1.338885403761308469e-19
