# bin_6_16
-7.756651049516513632e-32
-8.660607982232396189e-32
-9.484542385919423261e-32
-1.013837191923542180e-31
-1.050902935232423467e-31
-1.050516553433719108e-31
-9.981740802269248529e-32
-8.954047426231264616e-32
-7.590810046984282375e-32
-6.212877793597556817e-32
-5.170441274993039158e-32
-4.477552936687517283e-32
-3.668489475672281937e-32
-2.576514680588148923e-32
-1.947492156933722519e-32
-1.498005656976493661e-32
-1.024321297361971202e-32
-7.421890983903040688e-33
-5.311622863237780618e-33
-3.714514027087403439e-33
-2.610449822262664038e-33
-1.856019026587708083e-33
-1.339331994466208651e-33
-9.829813238760189369e-34
-7.358053553938623544e-34
-5.600438031211280615e-34
-4.318345105372825527e-34
-3.352565200256658704e-34
-2.601493468888717259e-34
-2.003529200828898107e-34
-1.522166590514463581e-34
