# bin_19_15
-6.290630238781534889e-11
-7.126426512729405663e-11
-7.942939999647807820e-11
-8.676937393475699691e-11
-9.243556917830374485e-11
-9.537291011867230889e-11
-9.479383828261497597e-11
-8.935592564261183685e-11
-7.955575338704938134e-11
-6.694053790643363696e-11
-5.474080951158588767e-11
-4.588185877960779531e-11
-3.976510548068248665e-11
-3.191310840645952510e-11
-2.210347381638894432e-11
-1.718143267700190608e-11
-1.271094912313879836e-11
-8.895853821352105723e-12
-6.168121532515526611e-12
-4.410206172923798735e-12
-3.037569658608535430e-12
-2.083390098491834192e-12
-1.442659519328154778e-12
-1.007466274864986411e-12
-7.138348795547503742e-13
-5.155861744552159814e-13
-3.797504994649993388e-13
-2.852279141572740721e-13
-2.175813142072748271e-13
-1.675312419922402442e-13
-1.292301969510157811e-13
