# bin_5_11
-1.683810230208264369e-18
-1.849242375183853959e-18
-1.984403715908436618e-18
-2.067865155835749517e-18
-2.080123800168290440e-18
-1.994806224602175956e-18
-1.805626858203588264e-18
-1.545237665400373995e-18
-1.267878091635292969e-18
-1.047644358475188487e-18
-9.038088986116431000e-19
-7.552152329299794684e-19
-5.428900978201261921e-19
-3.973467440140973991e-19
-3.167323971783675245e-19
-2.134029128743556762e-19
-1.606679897397974804e-19
-1.141531824361071564e-19
-8.081521965873038306e-20
-5.803742596187154119e-20
-4.209967924153183181e-20
-3.105891337031335238e-20
-2.330926729957506057e-20
-1.781915553434904445e-20
-1.380724665023716187e-20
-1.078432785589746316e-20
-8.434729592787672862e-21
-6.558168736741127892e-21
-5.037029063283987587e-21
-3.801180590189319643e-21
-2.806678654260796226e-21
