# bin_19_6
-2.844349386339353086e-44
-3.196481798494277168e-44
-3.528414692061036615e-44
-3.808889867720972672e-44
-3.997869038835921913e-44
-4.053650162834828016e-44
-3.932170803304060427e-44
-3.600774574255657115e-44
-3.118079186496867214e-44
-2.571183480261348322e-44
-2.112188097874386887e-44
-1.811438984057013537e-44
-1.541987420546186940e-44
-1.140228133435600210e-44
-8.046065647224393700e-45
-6.551610571966621865e-45
-4.347207027539551272e-45
-3.305139313288184282e-45
-2.269438464719340484e-45
-1.572649563623196263e-45
-1.104815802979587650e-45
-7.765086002498961769e-46
-5.504309171381817569e-46
-3.951451919534997099e-46
-2.894840736183540611e-46
-2.161342792385980585e-46
-1.641383245070955743e-46
-1.262821663238020563e-46
-9.776095904088976720e-47
-7.559672976474751241e-47
-5.797993678250366218e-47
