# bin_15_18
-7.881024549618437866e-10
-8.918306163388643653e-10
-9.926698119677448321e-10
-1.082605010400589042e-09
-1.150920000066125844e-09
-1.184433020056166002e-09
-1.173405639511580661e-09
-1.101479948991746646e-09
-9.768410126168781615e-10
-8.190278939105714364e-10
-6.696293418975793628e-10
-5.631853515426254224e-10
-4.878620847273359289e-10
-3.870822255677707311e-10
-2.672504668914436334e-10
-2.104990781026504719e-10
-1.527683906349373701e-10
-1.088198225260986886e-10
-7.441240977750953416e-11
-5.324153542184431760e-11
-3.678664998428828080e-11
-2.532949551273929965e-11
-1.760688855072970243e-11
-1.234295772461534814e-11
-8.790627702838581707e-12
-6.383173991101361454e-12
-4.726088206481501200e-12
-3.565757396670207929e-12
-2.728796441706529876e-12
-2.104427399197717871e-12
-1.623174973314208621e-12
