# bin_18_7
-4.911186621043536002e-34
-5.512926190142172168e-34
-6.077026832227201321e-34
-6.548935122295103873e-34
-6.859143499910117206e-34
-6.938261967665954703e-34
-6.706065731201584881e-34
-6.117504986996500879e-34
-5.276911283893524922e-34
-4.343365485738836833e-34
-3.574404940369212087e-34
-3.073145214794672023e-34
-2.601691204171947269e-34
-1.903281117977710080e-34
-1.357106558015619831e-34
-1.099739272151904629e-34
-7.284082233222401529e-35
-5.525694275789035655e-35
-3.821239600303610994e-35
-2.647995903531672150e-35
-1.860133544325658747e-35
-1.308389373347870520e-35
-9.302434790705134836e-36
-6.704803501597452807e-36
-4.932079821813946031e-36
-3.696386775282054223e-36
-2.816072348973158001e-36
-2.171149666965240821e-36
-1.682233944860915963e-36
-1.300337409240707886e-36
-9.958415515933224522e-37
