# bin_12_13
-1.843776406716713219e-08
-2.064256209813410155e-08
-2.268188304900191807e-08
-2.434627887351831197e-08
-2.537129132185989003e-08
-2.551804621867753187e-08
-2.445810576990439364e-08
-2.212293986907516922e-08
-1.891691060916189999e-08
-1.551756723598414474e-08
-1.283420683495856419e-08
-1.108586734772014039e-08
-9.247241062305582091e-09
-6.614560938964817385e-09
-4.851398369543192810e-09
-3.847322887259671562e-09
-2.572954797698526047e-09
-1.918732413767675997e-09
-1.349074149546644697e-09
-9.383017919818791164e-10
-6.588659905380084491e-10
-4.652862442365145956e-10
-3.332092360422182941e-10
-2.423725076482848061e-10
-1.798968734528825663e-10
-1.359221052615680817e-10
-1.042276178503055056e-10
-8.067839244732198389e-11
-6.258589580000874005e-11
-4.830604432668026484e-11
-3.685559018722328080e-11
