# bin_7_19
-6.087193198820460404e-38
-6.846136311006787038e-38
-7.564171249047982216e-38
-8.174929662802875555e-38
-8.593045432174673279e-38
-8.727053233639107256e-38
-8.486325113905301960e-38
-7.791778758214208432e-38
-6.765375514974372793e-38
-5.586480668257741639e-38
-4.584362582051012245e-38
-3.924400872948269597e-38
-3.351922755074116713e-38
-2.497223472389374796e-38
-1.751685563805744314e-38
-1.428234883811261028e-38
-9.512283119451743415e-39
-7.227958650568726050e-39
-4.939018848869612115e-39
-3.426195445482107920e-39
-2.406374054197765572e-39
-1.690404594460778982e-39
-1.195800139350742569e-39
-8.561033438037551502e-40
-6.253790697417424336e-40
-4.656569470671186017e-40
-3.528156086079553259e-40
-2.710128927623499108e-40
-2.096524374957569062e-40
-1.621464971086421757e-40
-1.244781202235519239e-40
