# bin_17_14
-6.589933179396043703e-10
-7.440906356182031478e-10
-8.260236600441952010e-10
-8.979215918853155191e-10
-9.507100679785689196e-10
-9.735844447891137282e-10
-9.581890680009534100e-10
-8.921518775702856444e-10
-7.852121244976929970e-10
-6.541697683840900954e-10
-5.350835908283974405e-10
-4.530933693154749070e-10
-3.914618542014815602e-10
-3.034382365727769022e-10
-2.094514679819231103e-10
-1.683640582772480685e-10
-1.176409585864757501e-10
-8.664325828738139322e-11
-5.841982967030109360e-11
-4.140031102482675888e-11
-2.881274348651003067e-11
-2.003300185475848594e-11
-1.401934850311511612e-11
-9.901369743198738546e-12
-7.120228847387666677e-12
-5.221277834986079884e-12
-3.902092070619785400e-12
-2.966761324203550813e-12
-2.281949083317193882e-12
-1.763393685995945661e-12
-1.358767935298556842e-12
