# bin_4_4
-7.641945421807568320e-08
-8.045874332632689433e-08
-8.193164936419652558e-08
-8.005436038765833203e-08
-7.397969598605707048e-08
-6.465982430403185686e-08
-5.364872952793920737e-08
-4.393566496500645463e-08
-3.731932213553335305e-08
-3.200168339543060065e-08
-2.447385274937673912e-08
-1.718099870201807390e-08
-1.385796275483065003e-08
-9.739649402359270256e-09
-7.330006819208428171e-09
-5.179816376158630735e-09
-3.794475663885114323e-09
-2.792974038499703158e-09
-2.081293074196229947e-09
-1.577956587774904322e-09
-1.216492154700031624e-09
-9.526813981236111879e-10
-7.532594261819599955e-10
-5.970881921607169987e-10
-4.711885726098451426e-10
-3.676315228041367446e-10
-2.818782185314394056e-10
-2.113344213887215556e-10
-1.543730932876503013e-10
-1.096718194793561710e-10
-7.581280117462788516e-11
