# bin_2_1
-5.162499417227081030e-08
-5.120992353692601792e-08
-4.826531997587482596e-08
-4.300714859393595245e-08
-3.628374793116341405e-08
-2.971252679870622415e-08
-2.482040096558620810e-08
-2.137861774587490535e-08
-1.725112524175986610e-08
-1.226227738341085142e-08
-9.408525365367725527e-09
-7.159742372490565076e-09
-5.120375996386086388e-09
-3.782106678380307546e-09
-2.796876398879505747e-09
-2.073881475543124239e-09
-1.565510685230957673e-09
-1.204537146986445557e-09
-9.434707107174037249e-10
-7.492991169765217845e-10
-5.998083554682114540e-10
-4.801824778943922860e-10
-3.816413470485992605e-10
-2.990929109065439242e-10
-2.297477247418553938e-10
-1.721679371238241069e-10
-1.255164947352365685e-10
-8.895073154818407144e-11
-6.136907821362482290e-11
-4.133248109719347496e-11
-2.726935143417871872e-11
