# bin_19_20
-1.744268767498771674e-08
-1.984012264967860513e-08
-2.222724013104642423e-08
-2.443439762816259808e-08
-2.623484018114055502e-08
-2.734215048751074826e-08
-2.749877047953467639e-08
-2.634657145245407364e-08
-2.381868025089437867e-08
-2.035434101699907542e-08
-1.669439892626742499e-08
-1.381875397095779675e-08
-1.194739837977043188e-08
-9.950287839101959652e-09
-7.091157620191307738e-09
-5.212059503256704098e-09
-4.112045605720701216e-09
-2.734845270333753049e-09
-2.018483363578022181e-09
-1.402820322100287158e-09
-9.565958705989656091e-10
-6.538805627281342350e-10
-4.463567112169954453e-10
-3.069200215983596988e-10
-2.130630731263399177e-10
-1.505193636038405691e-10
-1.083605503597143095e-10
-7.967629091280834014e-11
-5.976647423751477769e-11
-4.553640545685886818e-11
-3.500528979054764443e-11
