# bin_1_7
-2.208024796789667309e-22
-2.334431003224129395e-22
-2.388641656724586495e-22
-2.349886345499106350e-22
-2.188809497094271012e-22
-1.927664410181558512e-22
-1.607783575977895557e-22
-1.314703323523187744e-22
-1.110037863808715364e-22
-9.571510141669069496e-23
-7.476592582111932052e-23
-5.213849461279252679e-23
-4.163069925001251990e-23
-2.996701462126598003e-23
-2.214427781145498682e-23
-1.565804432048983908e-23
-1.152723103819143558e-23
-8.444444726172792771e-24
-6.259483913101186833e-24
-4.723543497011527802e-24
-3.625634729544419804e-24
-2.828710827028440984e-24
-2.231272735039740102e-24
-1.767047104464677079e-24
-1.395260267282993819e-24
-1.090801267521540204e-24
-8.390745177677835953e-25
-6.317701720608451570e-25
-4.637918816744495904e-25
-3.312044889053158889e-25
-2.300864715506810149e-25
