# bin_12_11
-1.888709517113584641e-08
-2.107183454771476572e-08
-2.305458774331426349e-08
-2.461467821710601802e-08
-2.547581250859990309e-08
-2.542075562463241092e-08
-2.409503054720895432e-08
-2.156482599361565691e-08
-1.823966937471478973e-08
-1.492277177299504189e-08
-1.244279390566605795e-08
-1.077801019417418902e-08
-8.780524561366239987e-09
-6.142475929784227802e-09
-4.682193769432561112e-09
-3.567026220765765296e-09
-2.458849139443608891e-09
-1.765481524991434811e-09
-1.268881348166203533e-09
-8.888763826929208528e-10
-6.252136521946485940e-10
-4.454918742652646866e-10
-3.221484553447217949e-10
-2.370098145055668968e-10
-1.778099569331468482e-10
-1.355925095431950984e-10
-1.046927283882712129e-10
-8.133020796563046047e-11
-6.310476970633385538e-11
-4.856438700760242709e-11
-3.685022098551296458e-11
