# bin_20_18
-6.339185190966726998e-09
-7.205271348180249278e-09
-8.064588468581720849e-09
-8.855198401802228954e-09
-9.494098364726206710e-09
-9.876662735960551880e-09
-9.912422897471746110e-09
-9.468636633134795908e-09
-8.535398626526614853e-09
-7.271928496948305800e-09
-5.959215921201566327e-09
-4.942900396331660453e-09
-4.278218026051565688e-09
-3.541816140878197232e-09
-2.506960737015521373e-09
-1.861783753577975646e-09
-1.453549449913272637e-09
-9.734464338254013845e-10
-7.111332453217698300e-10
-4.973523436366499585e-10
-3.396809673802585524e-10
-2.321013488478898623e-10
-1.587863144381470563e-10
-1.094959846958964430e-10
-7.630359486658119402e-11
-5.413534712354321368e-11
-3.914956777810000342e-11
-2.891342248376488253e-11
-2.176846139052811952e-11
-1.662777241292997854e-11
-1.279727077575916207e-11
