# bin_16_16
-2.621573683521002152e-08
-2.963043317072992327e-08
-3.293244557591487270e-08
-3.585154313760446507e-08
-3.802861082044454071e-08
-3.902886851270488314e-08
-3.852634424770772542e-08
-3.600237414540824733e-08
-3.179481581164416722e-08
-2.656185355126019843e-08
-2.171896010891667578e-08
-1.833483976450651731e-08
-1.586467872033175727e-08
-1.242727740822203314e-08
-8.570721604943560605e-09
-6.834221941700349944e-09
-4.856193848255159635e-09
-3.526077079282072687e-09
-2.386455365623374041e-09
-1.701123753469986243e-09
-1.179864158626447382e-09
-8.166804832929485135e-10
-5.698612817888751127e-10
-4.011329407112681094e-10
-2.872357172373401520e-10
-2.097283528366588755e-10
-1.561084753406121121e-10
-1.183039991321843757e-10
-9.080692493434992840e-11
-7.012001830977634443e-11
-5.406166525117988458e-11
