# bin_10_5
-1.552602505826948458e-15
-1.698667321618491068e-15
-1.814211486913508027e-15
-1.879077964690466490e-15
-1.877015862097410590e-15
-1.782310409862779114e-15
-1.598010315067845834e-15
-1.354253556081757088e-15
-1.108274543186479708e-15
-9.221510120089033417e-16
-7.979501512218633546e-16
-6.534208207817678879e-16
-4.601747632208016067e-16
-3.483958981031582659e-16
-2.687181831100240061e-16
-1.853982122167102291e-16
-1.355872997143539280e-16
-9.812344426269221585e-17
-6.987352789646775523e-17
-5.025643066526710680e-17
-3.669988292589246881e-17
-2.727311152608601225e-17
-2.062927476636708700e-17
-1.587402722226826031e-17
-1.235928450141974552e-17
-9.679491430132371016e-18
-7.572870059719867401e-18
-5.876773594781535335e-18
-4.496305760707829593e-18
-3.374669846738899868e-18
-2.474880840678298011e-18
