# bin_14_5
-1.849566229635902361e-29
-2.051461711533618745e-29
-2.228415532628456782e-29
-2.357997964413480963e-29
-2.413585194344397849e-29
-2.374401357998599657e-29
-2.210126445152418714e-29
-1.944787696485635311e-29
-1.620115053916498307e-29
-1.324903836847336128e-29
-1.121217491140398238e-29
-9.681702824784942953e-30
-7.513957603547782359e-30
-5.199128744389661055e-30
-4.178693051333914752e-30
-2.942835431004508325e-30
-2.176231074429813245e-30
-1.490966161584554663e-30
-1.073389940310377300e-30
-7.631686930064715216e-31
-5.452045518388034531e-31
-3.943461683425488425e-31
-2.893083448483025575e-31
-2.164148012373421096e-31
-1.647692327467768605e-31
-1.271417934209153688e-31
-9.891842397235535689e-32
-7.704275713263898509e-32
-5.964459409949216619e-32
-4.560534998016469318e-32
-3.426556030963020406e-32
