# bin_1_12
-5.459576428615907542e-49
-5.944474556373888915e-49
-6.310979629470422342e-49
-6.487648638974033123e-49
-6.420952396954347234e-49
-6.023230908747123627e-49
-5.339008670675175259e-49
-4.475725591186064790e-49
-3.658220333418035180e-49
-3.073550858331613021e-49
-2.659046180561460639e-49
-2.112678135715767585e-49
-1.467270863921096343e-49
-1.155145216498026653e-49
-8.482075727719148320e-50
-6.107576560313220204e-50
-4.300792476775320377e-50
-3.149144871503817766e-50
-2.262606550818755142e-50
-1.639060935797195144e-50
-1.208314203626518346e-50
-9.061465877816368703e-51
-6.919715997835588723e-51
-5.366231125045035018e-51
-4.203232966708784545e-51
-3.303670054139296930e-51
-2.587126792372884769e-51
-2.005043313464684188e-51
-1.529001137126209419e-51
-1.141922274272203666e-51
-8.322312128194977064e-52
