# bin_10_12
-4.545130375734352042e-09
-5.043433730096433228e-09
-5.481546118087092351e-09
-5.804474749519150997e-09
-5.946377695631090483e-09
-5.857009356025056632e-09
-5.459852549673621731e-09
-4.810926837471830857e-09
-4.012149880080855176e-09
-3.280551204130155169e-09
-2.772889653518644158e-09
-2.396002065068921924e-09
-1.867177319054081965e-09
-1.291210264169290193e-09
-1.034600515840508605e-09
-7.330881223908488237e-10
-5.391981282117470844e-10
-3.696712349270975194e-10
-2.666138732065935058e-10
-1.892584563540959755e-10
-1.349621059068765811e-10
-9.747476708166628107e-11
-7.146291929666896285e-11
-5.339494288519020631e-11
-4.061824518829651169e-11
-3.133893908880508949e-11
-2.439211221074620748e-11
-1.901684133398700467e-11
-1.474607896110354981e-11
-1.129926565909748918e-11
-8.511695307785846688e-12
