# bin_20_18
-7.621080427757249865e-09
-8.640082717894154835e-09
-9.639379992243447843e-09
-1.054292649837198306e-08
-1.124857120948354397e-08
-1.162857980444560064e-08
-1.158556791109135535e-08
-1.095527772445620064e-08
-9.782059342632443967e-09
-8.253753684359463734e-09
-6.751583617023355784e-09
-5.644741951746844041e-09
-4.892907699027031185e-09
-3.958519724702382495e-09
-2.751350666192837851e-09
-2.116419775258755691e-09
-1.587188670035107454e-09
-1.097039760632765390e-09
-7.695251550750523255e-10
-5.484596455048483423e-10
-3.767122844332934745e-10
-2.576302824912467082e-10
-1.776964161924202436e-10
-1.236029186874334461e-10
-8.714481647349530498e-11
-6.258786890436761192e-11
-4.586253343901883894e-11
-3.429514526300863108e-11
-2.607952824349875403e-11
-2.005218054647634125e-11
-1.547386388098397427e-11
