# bin_2_17
-1.945663418742805547e-67
-2.162414218686955990e-67
-2.354858306155888814e-67
-2.499661306331336846e-67
-2.568328311162633038e-67
-2.539705236789155018e-67
-2.379053844702369541e-67
-2.105841407985729426e-67
-1.762878355590799375e-67
-1.441035219593177435e-67
-1.213145275998168361e-67
-1.049975836769855648e-67
-8.295468072981419059e-68
-5.736648650581468430e-68
-4.541612760809659360e-68
-3.288280678627550833e-68
-2.372569171835643398e-68
-1.639103913126675318e-68
-1.187396859110432912e-68
-8.392120798870701415e-69
-5.952495310565579780e-69
-4.282983292892719652e-69
-3.127415412325786820e-69
-2.326530498247450411e-69
-1.762910580331567811e-69
-1.356029818838646771e-69
-1.053474290712459958e-69
-8.208826041955427999e-70
-6.369887489483046303e-70
-4.889783829753086991e-70
-3.693317547013830426e-70
