# bin_8_3
-1.402559463181628089e-16
-1.501455693508298129e-16
-1.560422964367551507e-16
-1.565216903286671310e-16
-1.495575801418063763e-16
-1.349133395570392409e-16
-1.150731364977295070e-16
-9.432135534627358804e-17
-7.807943239034173464e-17
-6.738741376730805812e-17
-5.595017358328513915e-17
-4.004625628463199315e-17
-2.966016458123005657e-17
-2.345343359448982409e-17
-1.603517610888847542e-17
-1.204279701173901630e-17
-8.691088378336051951e-18
-6.255841175625568845e-18
-4.576324366528054027e-18
-3.397887836638384998e-18
-2.570340354400652599e-18
-1.979060685389380267e-18
-1.546762610899044559e-18
-1.219909150807061941e-18
-9.642305280448331164e-19
-7.584496106286423721e-19
-5.896796990626269591e-19
-4.505596794868911047e-19
-3.367148197822530222e-19
-2.452385279325171742e-19
-1.737975584343575323e-19
