# bin_9_10
-2.484535842794816996e-08
-2.737400226116350285e-08
-2.949265842267671487e-08
-3.089031445431335562e-08
-3.125213303111607981e-08
-3.022754375207627998e-08
-2.759927639610412153e-08
-2.383108129933156318e-08
-1.962418433552365695e-08
-1.613660667806150210e-08
-1.385366193114956146e-08
-1.174437149502746838e-08
-8.636361141223331321e-09
-6.151306013168175922e-09
-4.994184661497363887e-09
-3.343275627186611324e-09
-2.550007889647692896e-09
-1.782156855152104376e-09
-1.258380617309342998e-09
-9.032772705167593180e-10
-6.527968729616719740e-10
-4.784376240259130639e-10
-3.567440009037832590e-10
-2.710445402449647164e-10
-2.091255444689786228e-10
-1.629942890342223344e-10
-1.275090967265812096e-10
-9.939200500960847126e-11
-7.669073972025626325e-11
-5.824158892185228314e-11
-4.334001157871734980e-11
