# bin_18_14
-5.503220710911834851e-11
-6.203049325665989933e-11
-6.871938468199463666e-11
-7.451399918612566535e-11
-7.865033427480191711e-11
-8.024960785765947170e-11
-7.858129713288073060e-11
-7.272038681257534156e-11
-6.363365258102434696e-11
-5.279023178842885228e-11
-4.322456884005017359e-11
-3.678660594952023866e-11
-3.166305932533057316e-11
-2.411644377171114880e-11
-1.671823711888524586e-11
-1.357125600079381812e-11
-9.240358728334177328e-12
-6.936508808391571225e-12
-4.683004486631839115e-12
-3.278725731350019651e-12
-2.293237061139131131e-12
-1.603637967008069973e-12
-1.126228514784106274e-12
-7.999501197578944411e-13
-5.787064192032965080e-13
-4.269736724852408308e-13
-3.210279372507850996e-13
-2.452610975323636075e-13
-1.892558885150168176e-13
-1.464594243413014069e-13
-1.128216075959281840e-13
