# bin_20_19
-2.094732031590442011e-08
-2.376675944271404816e-08
-2.654180344450377997e-08
-2.906485663320468065e-08
-3.105708822799094135e-08
-3.216863256939112814e-08
-3.212351923651300550e-08
-3.047086671449629147e-08
-2.728677736592146896e-08
-2.308993912631045708e-08
-1.889538837109990703e-08
-1.575769350413174181e-08
-1.365726313066820987e-08
-1.113330832830767252e-08
-7.774520135151664840e-09
-5.915983956250811667e-09
-4.495047877273557041e-09
-3.072579199164555756e-09
-2.183002407696284408e-09
-1.548238891460977605e-09
-1.061221438674673010e-09
-7.248770292941381292e-10
-4.984857264203095239e-10
-3.456654940569977625e-10
-2.427648854023916697e-10
-1.736126445851557692e-10
-1.266669479889665315e-10
-9.434546633765030107e-11
-7.152524066176154042e-11
-5.489397081303633602e-11
-4.233999363713774264e-11
