# bin_14_20
-4.698760367308644143e-14
-5.309211284393555358e-14
-5.898920722479170249e-14
-6.419336479922332129e-14
-6.805992674879849988e-14
-6.981031735594856268e-14
-6.886173184485815899e-14
-6.429196518951347261e-14
-5.672913990059997791e-14
-4.735845220321301848e-14
-3.872639380992620074e-14
-3.271876171827956425e-14
-2.830281128250077610e-14
-2.211016654722402997e-14
-1.524789725269692259e-14
-1.218712784019658343e-14
-8.620258012110799043e-15
-6.283095618200653909e-15
-4.243670816575640440e-15
-3.020323065873817655e-15
-2.095399584936875119e-15
-1.451045218032760816e-15
-1.012118096798659577e-15
-7.127646258815330549e-16
-5.103937071277852704e-16
-3.726776296512298579e-16
-2.775313714836560099e-16
-2.104341181673663150e-16
-1.616192700554918135e-16
-1.248875892189671923e-16
-9.636099716779826775e-17
