# bin_14_19
-2.108041457743410179e-12
-2.379085103268445572e-12
-2.639561371961318193e-12
-2.867389017844666977e-12
-3.033470391918135452e-12
-3.103390357280139726e-12
-3.050317439153273942e-12
-2.835504636969397600e-12
-2.491814235033619725e-12
-2.073499777239453650e-12
-1.696409141723992290e-12
-1.438489665655680173e-12
-1.241835684369045067e-12
-9.580208993666269424e-13
-6.617334243170159984e-13
-5.336339236998951927e-13
-3.700399398134392095e-13
-2.741505060385926864e-13
-1.846376585443138872e-13
-1.303943881310853628e-13
-9.084228440673130577e-14
-6.324267712232656037e-14
-4.426201009005130903e-14
-3.130107931470179354e-14
-2.252804166225640609e-14
-1.653551297375278785e-14
-1.237402521816466432e-14
-9.419177127483168344e-15
-7.252379575932790747e-15
-5.609155186593730850e-15
-4.325012287116577734e-15
