# bin_15_1
-1.886641679417530920e-66
-2.081352642039627448e-66
-2.246036359730061377e-66
-2.357218212070831979e-66
-2.390206303975607870e-66
-2.319673465093530477e-66
-2.125619791105187872e-66
-1.842101784552701138e-66
-1.519604085125934816e-66
-1.247542488692455913e-66
-1.068507900384277627e-66
-9.103207551894388875e-67
-6.760800817069685508e-67
-4.771516303717067014e-67
-3.887744535410397583e-67
-2.609229254677985622e-67
-1.991896393045119723e-67
-1.383346664442890211e-67
-9.773642645358319315e-68
-7.012655754647565197e-68
-5.062407300486143937e-68
-3.700683659847249830e-68
-2.751123512410352348e-68
-2.084434473895915837e-68
-1.604643453887186929e-68
-1.248795963677808275e-68
-9.763297973405217743e-69
-7.612506040272808406e-69
-5.880060059707478708e-69
-4.473186897145875890e-69
-3.336222256209090339e-69
