# bin_17_19
-7.218784872073351931e-09
-8.169483315244949047e-09
-9.094312087705163378e-09
-9.919959427922602358e-09
-1.054833540743368416e-08
-1.085851651725919583e-08
-1.076158984786982940e-08
-1.010678243560522935e-08
-8.966855486922971419e-09
-7.521096601482060499e-09
-6.149217379214790016e-09
-5.169952959330543572e-09
-4.479066750150524248e-09
-3.558269485769643210e-09
-2.456900412806854220e-09
-1.932768453484677475e-09
-1.405458419859068500e-09
-9.990604571230983410e-10
-6.836447867706316387e-10
-4.891573914312753181e-10
-3.376598426953840123e-10
-2.321979221017671125e-10
-1.611737162828923029e-10
-1.128653920629354128e-10
-8.025130036082017204e-11
-5.816479000953026630e-11
-4.300831517523482508e-11
-3.241702056294650452e-11
-2.479578986237094693e-11
-1.912532764721675566e-11
-1.476324120575406816e-11
