# bin_4_4
-9.318354811450690071e-08
-9.757457039383761753e-08
-9.874197905723906034e-08
-9.561646395755716726e-08
-8.747692849475849571e-08
-7.570283338566171362e-08
-6.244286907365360431e-08
-5.129565894759344823e-08
-4.388146442644038835e-08
-3.724742063531848235e-08
-2.772484821036726607e-08
-1.976760603305091015e-08
-1.599289720506496254e-08
-1.100351301143147633e-08
-8.389569311982911615e-09
-5.970617846323428618e-09
-4.350160508703262658e-09
-3.217931410376319354e-09
-2.412942685890425613e-09
-1.841191801121609847e-09
-1.429332212107859260e-09
-1.125695931057909839e-09
-8.937368331306111288e-10
-7.102236244052555593e-10
-5.608886347797408621e-10
-4.372432907177610122e-10
-3.345156404171398051e-10
-2.499790197367989635e-10
-1.818789375021605896e-10
-1.286967358698102842e-10
-8.864884750717624016e-11
