# bin_19_12
-7.865497552876361407e-17
-8.859235204636587796e-17
-9.805987509652216837e-17
-1.062144942356391384e-16
-1.119606796981708227e-16
-1.140623117244479931e-16
-1.114434658067328791e-16
-1.028644773867123919e-16
-8.978464668860369584e-17
-7.436311561929775149e-17
-6.092444453231666359e-17
-5.195531916606764009e-17
-4.462387391605010257e-17
-3.373981053255625415e-17
-2.345812163108883873e-17
-1.909445862299295137e-17
-1.288197352796553002e-17
-9.726563963549297678e-18
-6.586829949751498079e-18
-4.591350915476619438e-18
-3.217149796071058040e-18
-2.253994908129691002e-18
-1.586120705432352193e-18
-1.129507380787469075e-18
-8.195031485600155711e-19
-6.063861315652566919e-19
-4.571019767846833371e-19
-3.498972642829825228e-19
-2.702955087936531255e-19
-2.092131150102227159e-19
-1.610566176603768388e-19
