# bin_9_6
-1.043529296656608134e-10
-1.136146564607551449e-10
-1.206114504595691998e-10
-1.239808082062111854e-10
-1.226919241461523363e-10
-1.150817770008152025e-10
-1.020020451955005006e-10
-8.551130905972335475e-11
-6.990032470381720170e-11
-5.873211528180787179e-11
-5.079898945104178057e-11
-4.034930623966956763e-11
-2.804538233263347344e-11
-2.206721886387392226e-11
-1.620083825170203120e-11
-1.166604460809650005e-11
-8.226046088903805708e-12
-6.015747886746010817e-12
-4.322570381306184311e-12
-3.132097179635854920e-12
-2.308870692131711031e-12
-1.731497132197246609e-12
-1.322249684946592370e-12
-1.025394034363961443e-12
-8.031460243756237307e-13
-6.312345731666568052e-13
-4.942997399721378826e-13
-3.830645473005041860e-13
-2.920989483464531187e-13
-2.181384606414305943e-13
-1.589709181204067576e-13
