# bin_18_9
-2.699541287398190419e-24
-3.026488888640177796e-24
-3.331166620480706253e-24
-3.583271255636936019e-24
-3.744390755283196283e-24
-3.777696252899896721e-24
-3.637363529370735950e-24
-3.304917659900471697e-24
-2.839243691153610286e-24
-2.332908344997421122e-24
-1.924053466396366340e-24
-1.658272307492564863e-24
-1.394809960219430445e-24
-1.009189662624866551e-24
-7.287018567557144233e-25
-5.855634721340590110e-25
-3.886367983292921880e-25
-2.930494697898418088e-25
-2.041311395781984715e-25
-1.415842712308868321e-25
-9.939374781562884064e-26
-6.997495103677132752e-26
-4.987702640339227787e-26
-3.611218005956851207e-26
-2.666314072228256238e-26
-2.006026070105349425e-26
-1.533641161298317548e-26
-1.185414011976108741e-26
-9.198803051421966488e-27
-7.114402457539428697e-27
-5.446857212795893024e-27
