# bin_4_14
-1.665591365621928110e-35
-1.837578018373557353e-35
-1.983092032000155461e-35
-2.081413937109861672e-35
-2.110717551158619131e-35
-2.048687506336557785e-35
-1.877542666157079935e-35
-1.627323711229911289e-35
-1.342501456029562095e-35
-1.102074859415159243e-35
-9.438432013799059215e-36
-8.042711320622359687e-36
-5.975188931063766686e-36
-4.215468552816188975e-36
-3.435452140042431996e-36
-2.305572887500096996e-36
-1.760344983859159726e-36
-1.222250733613547328e-36
-8.635117512353926639e-37
-6.195822661961737591e-37
-4.472632937047433947e-37
-3.269261391808304268e-37
-2.430148666505856132e-37
-1.841069863136238999e-37
-1.417189993163523657e-37
-1.102859061594716854e-37
-8.622194582232944428e-38
-6.722875909136359284e-38
-5.193106228823806154e-38
-3.950845988469620523e-38
-2.946888114612587006e-38
