# bin_15_8
-3.262805373255592283e-19
-3.631690865457218025e-19
-3.962130077530933684e-19
-4.215355679440731202e-19
-4.343394050871327870e-19
-4.310565475892010427e-19
-4.056501150824086050e-19
-3.606079917349270389e-19
-3.030354021474666028e-19
-2.477347157798138319e-19
-2.077724558278424564e-19
-1.799714867511467025e-19
-1.439879394839218661e-19
-9.982206614455697182e-20
-7.795576654039186818e-20
-5.761017673996250270e-20
-4.078863573277867984e-20
-2.853176014419845000e-20
-2.067426449494834604e-20
-1.455583433195742058e-20
-1.027831268726295764e-20
-7.367637277660492363e-21
-5.359241481740472442e-21
-3.970045363875929635e-21
-2.996721890956815818e-21
-2.298005314107619403e-21
-1.781751427870287988e-21
-1.387400250932655290e-21
-1.077165658079189099e-21
-8.282059503181893025e-22
-6.270977097191873609e-22
