# bin_14_3
-1.039959102516214487e-42
-1.145665351712617933e-42
-1.234154517012612699e-42
-1.292400824757278920e-42
-1.307269071978848403e-42
-1.264008535876026106e-42
-1.153701099225140721e-42
-9.958301206394870782e-43
-8.198813486217520503e-43
-6.742592729295248405e-43
-5.790104101220789458e-43
-4.906469330935755925e-43
-3.604428374429571338e-43
-2.569124023436090870e-43
-2.085751052382046535e-43
-1.395407921344449318e-43
-1.064524890397606994e-43
-7.444357766000440855e-44
-5.255419123134261145e-44
-3.772556044811243432e-44
-2.726610883839606137e-44
-1.998780060696082569e-44
-1.490764338567044426e-44
-1.132916183849213122e-44
-8.742765278323129184e-45
-6.815070306054004322e-45
-5.331643506119042496e-45
-4.155842401939951352e-45
-3.206325427181581429e-45
-2.434609827010512130e-45
-1.811319218239836779e-45
