# bin_19_18
-2.098795276265151213e-08
-2.377284631376897005e-08
-2.649267468803023159e-08
-2.893620407195156180e-08
-3.082005706480106019e-08
-3.179202582296609665e-08
-3.159043606331392642e-08
-2.976755180181151727e-08
-2.649288255320678982e-08
-2.228455046556902524e-08
-1.822275576200390395e-08
-1.527894631763368587e-08
-1.324231075063281238e-08
-1.061664158308303807e-08
-7.349204066687952646e-09
-5.720465322519130613e-09
-4.224241026960306176e-09
-2.960445078475847396e-09
-2.048656600710843851e-09
-1.465021268747217017e-09
-1.008739348481030842e-09
-6.914870184890405831e-10
-4.785262708988345447e-10
-3.340056039859368317e-10
-2.365115393386976668e-10
-1.706651452434336700e-10
-1.256481554076193046e-10
-9.435097921901131078e-11
-7.197353293197385741e-11
-5.543641826231489368e-11
-4.279103415016664382e-11
