# bin_11_20
-1.914370910292978612e-22
-2.157282800518706433e-22
-2.389204037017917835e-22
-2.589730169070777289e-22
-2.732255066836575413e-22
-2.786357649442445653e-22
-2.726392792834109807e-22
-2.520812543459552793e-22
-2.203943565061148304e-22
-1.827319676944752595e-22
-1.496476891401402772e-22
-1.274494456892275144e-22
-1.096265501416046148e-22
-8.328713958327919245e-23
-5.778669724941938316e-23
-4.696239069551899164e-23
-3.186533641757727769e-23
-2.397621922883520653e-23
-1.620042656628614440e-23
-1.132300073898806910e-23
-7.925336575968511137e-24
-5.546336634701772973e-24
-3.897713283685677140e-24
-2.770831904084052871e-24
-2.006429174537971280e-24
-1.481776932752379985e-24
-1.115059643545751825e-24
-8.524437716219055567e-25
-6.580332330580109621e-25
-5.092665733356706235e-25
-3.922166556053624840e-25
