# bin_10_8
-3.869857009300383699e-09
-4.253008558066183431e-09
-4.567937619815767431e-09
-4.765606158991998846e-09
-4.800100211408207478e-09
-4.612286404967422748e-09
-4.182848500385532984e-09
-3.586822944650284596e-09
-2.945077699194377388e-09
-2.430563385280785646e-09
-2.094919906310051772e-09
-1.756633435307397543e-09
-1.268735918115555310e-09
-9.225196613818185207e-10
-7.391882461671986288e-10
-4.964861147923712257e-10
-3.753511435698072380e-10
-2.656228477513128006e-10
-1.878398381951136224e-10
-1.348680160623800039e-10
-9.772600610110949446e-11
-7.198399227786789154e-11
-5.397760001467740367e-11
-4.121910434874953800e-11
-3.192995329037834695e-11
-2.494992641391473012e-11
-1.953483943225360542e-11
-1.521538810207221382e-11
-1.171414376820431642e-11
-8.865860782598768673e-12
-6.568396754611153771e-12
