# bin_19_8
-2.646943264134155431e-32
-2.969990015471799596e-32
-3.272299605261795619e-32
-3.524373052719900492e-32
-3.688691659418100512e-32
-3.728160016642193450e-32
-3.599227471345579291e-32
-3.279206984732767452e-32
-2.825047173889212993e-32
-2.323938908258533982e-32
-1.913742835667143978e-32
-1.646727681370425044e-32
-1.391396420412327779e-32
-1.014251147844000489e-32
-7.258790588221243991e-33
-5.869426157959089413e-33
-3.887171712631140581e-33
-2.944520041270295700e-33
-2.040503182382054384e-33
-1.413809685560945765e-33
-9.926809494591085956e-34
-6.981337942819402160e-34
-4.964598181025414906e-34
-3.584075154945746528e-34
-2.638517753840345528e-34
-1.979760130377532102e-34
-1.510251328085621777e-34
-1.165714276886525303e-34
-9.041440140179641019e-35
-6.995356743554764131e-35
-5.361759011744482002e-35
