# bin_12_7
-1.553917918415106058e-14
-1.713398049115091011e-14
-1.847780276112943593e-14
-1.937682878425306308e-14
-1.963028470899420067e-14
-1.902516294294101423e-14
-1.740807465574770961e-14
-1.506387810011175959e-14
-1.241731283002075818e-14
-1.020032640566613830e-14
-8.745175303331329528e-15
-7.436370140597478275e-15
-5.500456712884517277e-15
-3.895342290756148706e-15
-3.170894276415224114e-15
-2.124547631842371443e-15
-1.622186014550013984e-15
-1.129456869435308700e-15
-7.975953733090471935e-16
-5.724159846714603120e-16
-4.134075437038748542e-16
-3.025215739216864014e-16
-2.251719379151518710e-16
-1.707997136091699498e-16
-1.316075973728397847e-16
-1.024865985554002651e-16
-8.014709154579585732e-17
-6.248523581589246982e-17
-4.824475698162340375e-17
-3.667651637798970271e-17
-2.732948979401847478e-17
