# bin_1_13
-8.383540585837591488e-55
-9.172403039349106545e-55
-9.796852858268870506e-55
-1.014809986755547010e-54
-1.013811628371506981e-54
-9.628358658202689953e-55
-8.633709767006163704e-55
-7.317786663925881529e-55
-5.988614833118361023e-55
-4.982222212932444176e-55
-4.311266640040028460e-55
-3.531630756008302687e-55
-2.487190399693477425e-55
-1.882020445569251045e-55
-1.452373098416260627e-55
-1.001204387429102508e-55
-7.324535186677440119e-56
-5.299392986018400257e-56
-3.772674562921797537e-56
-2.713020075074531571e-56
-1.981165012252851897e-56
-1.472488096372117887e-56
-1.114505515946977724e-56
-8.579836991232072668e-57
-6.686543089153203381e-57
-5.243047962648836044e-57
-4.107674571319828439e-57
-3.192918045842174616e-57
-2.447483745363941135e-57
-1.840767340115125860e-57
-1.353005560308312103e-57
