# bin_18_3
-3.545516549394298445e-63
-3.953956259272844354e-63
-4.323904262689795488e-63
-4.613810220145975816e-63
-4.771720624250523417e-63
-4.757299369389045120e-63
-4.503943167327731091e-63
-4.026419993574194658e-63
-3.401790871475634080e-63
-2.782652379564080359e-63
-2.322420391429318337e-63
-2.011991917881932777e-63
-1.634529429559856207e-63
-1.141108109314538340e-63
-8.734186366776651048e-64
-6.621633081377511666e-64
-4.581726367375716364e-64
-3.274001288324207660e-64
-2.357552012356220850e-64
-1.652278236762614114e-64
-1.162141670579863918e-64
-8.286347253969651943e-65
-5.996389473127010719e-65
-4.416806351438764556e-65
-3.316287616816021615e-65
-2.531967310308776023e-65
-1.957319632516745451e-65
-1.522182474332106466e-65
-1.182298120796282363e-65
-9.107831490778102995e-66
-6.917748293412101859e-66
