# bin_13_16
-6.609678338745367310e-10
-7.421200285083501094e-10
-8.183080221558108403e-10
-8.822094910160577922e-10
-9.244834114082322770e-10
-9.356682185879992485e-10
-9.051975802759487043e-10
-8.265171737917930981e-10
-7.136351545135763942e-10
-5.876446811826577712e-10
-4.833886261138048973e-10
-4.153658557932211528e-10
-3.521312680742438398e-10
-2.582629384977110831e-10
-1.836440417572845989e-10
-1.490296876652093509e-10
-9.869719453069897151e-11
-7.492450346104876620e-11
-5.170869863943603602e-11
-3.581340139444510338e-11
-2.514802866584363919e-11
-1.767618112040619325e-11
-1.254695022138170611e-11
-9.036783484538701672e-12
-6.636687726350209141e-12
-4.968521658238954434e-12
-3.783166743388945218e-12
-2.916510957167609070e-12
-2.260932722862782693e-12
-1.749650737240144667e-12
-1.342182860830662765e-12
