# bin_11_9
-4.181118485260249534e-09
-4.618972150067981102e-09
-4.992892808819967318e-09
-5.251193540083943933e-09
-5.337358060434279649e-09
-5.198373241945560718e-09
-4.782244094154107283e-09
-4.160681084979434142e-09
-3.439639807542764974e-09
-2.819890556399961373e-09
-2.408501428916817811e-09
-2.061251106579997224e-09
-1.547669016592039937e-09
-1.083910931117446809e-09
-8.834182351642497712e-10
-5.972452409109060483e-10
-4.545776069465178786e-10
-3.137168735084952466e-10
-2.222213358659725248e-10
-1.592753693591481738e-10
-1.148199323256473169e-10
-8.370795168543953181e-11
-6.203144524709868044e-11
-4.685701729172218455e-11
-3.598152363312514759e-11
-2.795407078366991860e-11
-2.183821578684097476e-11
-1.703076516952097674e-11
-1.316887755442793308e-11
-1.003588613006611547e-11
-7.502814455229669446e-12
