# bin_19_9
-1.774168745526561978e-27
-1.992503496132396622e-27
-2.197737397449871427e-27
-2.370261415273678266e-27
-2.485031493826560727e-27
-2.516443938240272818e-27
-2.436455174168115550e-27
-2.226543571068392441e-27
-1.924092173343248840e-27
-1.585006857767123603e-27
-1.303251039438970090e-27
-1.119261898457144541e-27
-9.500850826142604882e-28
-6.984426730030590861e-28
-4.954076693527046157e-28
-4.026076008933559894e-28
-2.666137223209856249e-28
-2.025730093783716740e-28
-1.395877665705617557e-28
-9.666244793508261617e-29
-6.787922564601153612e-29
-4.770131050389544614e-29
-3.383625229305174547e-29
-2.434872678804772433e-29
-1.786574510195390017e-29
-1.336379867530659722e-29
-1.016845158439527757e-29
-7.835446233794566409e-30
-6.073067205839735348e-30
-4.700148221220825713e-30
-3.606739497374455459e-30
