# bin_6_11
-5.738774754533092851e-15
-6.292819831435043297e-15
-6.739966123611618663e-15
-7.006612458147756197e-15
-7.028761793979735349e-15
-6.714224336648931968e-15
-6.053937371133600613e-15
-5.160316083080483809e-15
-4.228683347017065373e-15
-3.503190920096778507e-15
-3.027186055073317236e-15
-2.510371778291975606e-15
-1.787905427415512929e-15
-1.326274291813095195e-15
-1.044506673054536177e-15
-7.089836971855562567e-16
-5.282711649593534395e-16
-3.781275927296548953e-16
-2.682088874029118088e-16
-1.926430341077480326e-16
-1.400797328024151767e-16
-1.036521404866960331e-16
-7.810022374765428378e-17
-5.989261324942668131e-17
-4.654456133836510983e-17
-3.643968857726277094e-17
-2.854398450213230710e-17
-2.221210844519647276e-17
-1.706449534295236793e-17
-1.287500591399947478e-17
-9.500830105729446636e-18
