# bin_1_2
-6.136131551619625826e-08
-6.046364610786759869e-08
-5.650764970082564007e-08
-4.994421389383512954e-08
-4.183895756917795470e-08
-3.424593909633693969e-08
-2.878592223318260388e-08
-2.475843051388054298e-08
-1.958413648321491788e-08
-1.383399447862322923e-08
-1.083500277469155383e-08
-8.030934318747161663e-09
-5.859147160576919746e-09
-4.273814360813588519e-09
-3.178227025504191375e-09
-2.369994232906400025e-09
-1.798320198842569505e-09
-1.391678431930709169e-09
-1.096023524406223899e-09
-8.745577631499077809e-10
-7.022895954425061796e-10
-5.632644236579491294e-10
-4.478940974649998628e-10
-3.507572827121660149e-10
-2.689811121778025828e-10
-2.010990414211395874e-10
-1.462379608359730148e-10
-1.033975395907585454e-10
-7.121030822726794013e-11
-4.790701970228592109e-11
-3.159103319367400658e-11
