# bin_1_20
-2.155034504058071489e-94
-2.413304678549300155e-94
-2.652581811746605284e-94
-2.848444436639826187e-94
-2.970050090450599844e-94
-2.989080376081108047e-94
-2.867673872083247870e-94
-2.596173423235805945e-94
-2.222059025016627319e-94
-1.823312099502424739e-94
-1.507121227452036525e-94
-1.301348893932798718e-94
-1.087412587908566264e-94
-7.794732293999385115e-95
-5.698749204819373063e-95
-4.532149980278441946e-95
-3.024748462604032693e-95
-2.261167547677494050e-95
-1.586415584016819509e-95
-1.102381531671561268e-95
-7.737592573964747701e-96
-5.458483880302984952e-96
-3.903248495787794701e-96
-2.836936944633224804e-96
-2.102680227967595951e-96
-1.587465640613073562e-96
-1.216977484484919722e-96
-9.422143007252882063e-97
-7.315098757108836802e-97
-5.653832638211928835e-97
-4.321681370196043779e-97
