# bin_1_17
-6.553934708027656271e-78
-7.279783658815730566e-78
-7.921936573143313852e-78
-8.401526436048491029e-78
-8.622876599409253452e-78
-8.514472821730077441e-78
-7.961530419267176407e-78
-7.035409313591371452e-78
-5.881162224804732897e-78
-4.807725090656457062e-78
-4.053436881412501789e-78
-3.506476527927856234e-78
-2.756386249322518870e-78
-1.905572549663600767e-78
-1.515806444166744981e-78
-1.088679726045626718e-78
-7.912673863267106273e-79
-5.447358184605317909e-79
-3.941248387306948004e-79
-2.789995092603393124e-79
-1.982815567911142434e-79
-1.428703123980899598e-79
-1.044783715101701216e-79
-7.784917659609217074e-80
-5.907592392881947339e-80
-4.549336585778920175e-80
-3.536818304378242991e-80
-2.756544231593203572e-80
-2.138491563199011626e-80
-1.640515927550326326e-80
-1.237888449256774092e-80
