# bin_12_13
-2.251709874776753211e-08
-2.512458775540058125e-08
-2.749352353007736889e-08
-2.936112271384851065e-08
-3.039822918341083878e-08
-3.034440082711636252e-08
-2.877759712699974458e-08
-2.576758675601686477e-08
-2.180497986871258907e-08
-1.784097070705162837e-08
-1.487000796259313350e-08
-1.288066252496200763e-08
-1.050648163263863410e-08
-7.354451195571133493e-09
-5.596079909814459032e-09
-4.271741167921286038e-09
-2.938587697956753431e-09
-2.113417947992621349e-09
-1.517506356735865048e-09
-1.062260847556435960e-09
-7.466636855484740583e-10
-5.315930962506099797e-10
-3.841186480677812559e-10
-2.824756664915831070e-10
-2.117673496041227757e-10
-1.614752693511313945e-10
-1.247142384137402380e-10
-9.694769326624116456e-11
-7.530516749637003590e-11
-5.804046451963366885e-11
-4.412170667509570326e-11
