# bin_15_6
2.358325012507069554e-30
2.622596782547489583e-30
2.857960384549019910e-30
3.036189059805289797e-30
3.122667687457090238e-30
3.091592278634342596e-30
2.900356178034707165e-30
2.570950612460987964e-30
2.155126203041796449e-30
1.762235077860804300e-30
1.482376497015467000e-30
1.283478723307488286e-30
1.017714336119529005e-30
7.043521915986786270e-31
5.557838893077285996e-31
4.047065416952079352e-31
2.906273801311117600e-31
2.014172517605716425e-31
1.460011984835791637e-31
1.031154533880462096e-31
7.306556885645015398e-32
5.253685513547009549e-32
3.832122011537260320e-32
2.847721786400502096e-32
2.155749122696782531e-32
1.656441110942575292e-32
1.285746398442710991e-32
1.001240180100098446e-32
7.765953970538131644e-33
5.959734748849925770e-33
4.500656268541334317e-33
