# bin_7_2
1.140173378420767295e-19
1.209281507854948052e-19
1.242084198086639002e-19
1.228141315453411638e-19
1.151102288047878154e-19
1.019694809530490334e-19
8.546840054408172150e-20
6.988692448155706777e-20
5.873383515227310309e-20
5.075865987570190032e-20
4.028868602879776907e-20
2.810509006820437053e-20
2.214186618541939886e-20
1.630790993453083768e-20
1.182238506172702924e-20
8.424485085828483424e-21
6.214350261663338530e-21
4.532151019734025935e-21
3.344763015544141408e-21
2.515221928243004229e-21
1.925144075257058784e-21
1.498265746055989013e-21
1.180151906377661370e-21
9.344738902599573301e-22
7.386487948339379592e-22
5.787754891650122308e-22
4.466905425326568057e-22
3.377569691131199195e-22
2.491762731982980095e-22
1.788784333124772339e-22
1.249134004836688978e-22
