# bin_17_12
2.127374332597697370e-15
2.393517901353498229e-15
2.645760065607253106e-15
2.860969069541937851e-15
3.009319609330693163e-15
3.058522919776287050e-15
2.977252467791986965e-15
2.736683078349691910e-15
2.377947919370200566e-15
1.966202308708355697e-15
1.613402122829113518e-15
1.380556616084735131e-15
1.180495913794026819e-15
8.817831348032497384e-16
6.177078528165212926e-16
5.036833826397380461e-16
3.360817722865950864e-16
2.552265318798607056e-16
1.741381857043160561e-16
1.208748249592708638e-16
8.485909371418193365e-17
5.958290136284514150e-17
4.210104671912436271e-17
3.011503792582851851e-17
2.196967776098897182e-17
1.633993513067893840e-17
1.237007501304267956e-17
9.497438965800498774e-18
7.346944688325127152e-18
5.684747945411852979e-18
4.367964346238587113e-18
