# bin_11_3
8.543676465189168916e-31
9.318775035397882559e-31
9.914494782950834467e-31
1.021885647287522277e-30
1.014694498849603424e-30
9.558185098482921411e-31
8.506154202063483800e-31
7.155917299379898541e-31
5.852325416710667236e-31
4.902563759872182138e-31
4.244087971440845855e-31
3.407469567186434494e-31
2.373981794447454934e-31
1.847558903980405577e-31
1.379278007840731281e-31
9.789216445256678499e-32
6.968080872823814500e-32
5.095643590243730576e-32
3.650522997009898038e-32
2.636626814036744382e-32
1.938033570339824283e-32
1.449021985070405225e-32
1.103148339619950898e-32
8.533441839653320342e-33
6.670438448972128282e-33
5.236180498492906986e-33
4.098532153979274503e-33
3.176982345591229243e-33
2.424536699413285865e-33
1.812982089958207098e-33
1.323406898344147079e-33
