# bin_13_13
1.156039948784432427e-10
1.294446623698227687e-10
1.422551167571404706e-10
1.527218062698422253e-10
1.591849938531761010e-10
1.601417027812905604e-10
1.535295924874625327e-10
1.389173975723678446e-10
1.187522320154586610e-10
9.749380823254747495e-11
8.065996727454160352e-11
6.968397966762581037e-11
5.813416159318538447e-11
4.158953979322519812e-11
3.051390217846597190e-11
2.419898646954431901e-11
1.618556826302438876e-11
1.206984927998285795e-11
8.486948432387152415e-12
5.902182164518056784e-12
4.143820225977688443e-12
2.925707442353875030e-12
2.094617171692802866e-12
1.523654722511989126e-12
1.130656795747266078e-12
8.542736804632271994e-13
6.551760422258019647e-13
5.072833467300636069e-13
3.936929306746112044e-13
3.040437424255998543e-13
2.321398758058484373e-13
