# bin_16_2
1.849740022005538922e-64
2.053705292835270194e-64
2.233585055615476273e-64
2.367034171312159599e-64
2.427164439747297909e-64
2.393466578874490501e-64
2.234323498425797543e-64
1.971299428982541575e-64
1.646218059940068836e-64
1.346266218018039782e-64
1.137084960341660496e-64
9.830910364810091903e-65
7.687871990563352380e-65
5.317251661665710471e-65
4.249985017118708634e-65
3.027274193712677883e-65
2.217501594523200079e-65
1.522757002681356834e-65
1.099813514623760404e-65
7.801500137925208182e-66
5.557568196294422578e-66
4.011544724012749006e-66
2.937664874516820661e-66
2.192720663017337846e-66
1.666421840572814387e-66
1.284390710002702718e-66
9.988451417481160831e-67
7.782415014977233727e-67
6.031851825208406051e-67
4.620422279734894222e-67
3.479732384056666411e-67
