# bin_15_8
1.082116719384274562e-21
1.206831943451562989e-21
1.319773290285478260e-21
1.408241958392484078e-21
1.456354543628902769e-21
1.451806839665689382e-21
1.374221197164319218e-21
1.228463737451303877e-21
1.037524798357889173e-21
8.490725859978998185e-22
7.090753601499649951e-22
6.143703429391308757e-22
4.986556768162764426e-22
3.480223575723579422e-22
2.668524231074089437e-22
2.019587926546441722e-22
1.400267989761877902e-22
9.991448203462579203e-23
7.200670828637068049e-23
5.049931986599970319e-23
3.553824887344718794e-23
2.535666866428895855e-23
1.835980211832999024e-23
1.352957245053463433e-23
1.016435416237039975e-23
7.761831217698283797e-24
5.999956148965107858e-24
4.664780308424246675e-24
3.621173885447689305e-24
2.787314115373420780e-24
2.114906816294375922e-24
