# bin_10_4
1.251130355414723209e-21
1.362133836035038918e-21
1.445901542341358962e-21
1.486070134083842752e-21
1.470276319333540503e-21
1.378567627289395442e-21
1.221473005053083801e-21
1.023717927969087086e-21
8.370201296844219071e-22
7.038177130652802760e-22
6.088656037051415308e-22
4.829167213202653960e-22
3.354253519941961722e-22
2.646528689652067175e-22
1.937753779840430554e-22
1.399577447148406674e-22
9.842032316069132661e-23
7.206591830084651501e-23
5.181863529117198402e-23
3.756428122098728023e-23
2.770695856545192868e-23
2.078162515582575637e-23
1.587236968300277203e-23
1.230960192399692148e-23
9.638577648664520013e-24
7.571497304117254512e-24
5.924536382592078889e-24
4.586727060873986424e-24
3.493258810372455794e-24
2.605060802147108418e-24
1.895462819548581555e-24
