# bin_13_13
8.942248684322187308e-06
1.001046649325029445e-05
1.099806405243228690e-05
1.180338072850557185e-05
1.229813811824195288e-05
1.236651615423847708e-05
1.184959657941184901e-05
1.071479201738678705e-05
9.159334584970663977e-06
7.512605655318439229e-06
6.214691321205281128e-06
5.369000417280388974e-06
4.475865091004623420e-06
3.199087453265387823e-06
2.348799294161843904e-06
1.860861759087431088e-06
1.245071346060684382e-06
9.276521583027700391e-07
6.525588755677429012e-07
4.538615342880180109e-07
3.186330389597978586e-07
2.250155336456115909e-07
1.611400178325336832e-07
1.172548098635681243e-07
8.704076583492537844e-08
6.578472395484145203e-08
5.046480476373418467e-08
3.907838246684607043e-08
3.032817465556129631e-08
2.341951624079448837e-08
1.787732672906540796e-08
