# bin_8_6
6.961999269385216608e-07
7.565050447938152015e-07
8.011157806535753943e-07
8.210095118462162394e-07
8.092418606248491472e-07
7.552667933839491554e-07
6.662930401450471219e-07
5.563358505001574951e-07
4.548117408254245475e-07
3.837022384264827765e-07
3.314322081211644231e-07
2.597197938338579213e-07
1.802716490675995672e-07
1.437523307310669982e-07
1.033766131264478434e-07
7.583471978506349095e-08
5.294146195211109883e-08
3.869073669178129815e-08
2.791450484394981635e-08
2.031322125971976911e-08
1.502818095315526845e-08
1.130464978127827745e-08
8.659154379336786329e-09
6.730518392092937867e-09
5.277495386200089392e-09
4.147587321351066974e-09
3.243758023849966003e-09
2.507903080407163179e-09
1.906048409891807877e-09
1.417591147731920202e-09
1.028219591320570507e-09
