# bin_20_17
3.776814915656707705e-07
4.284223902239191501e-07
4.782978885146026942e-07
5.235580735449383378e-07
5.591637197209931509e-07
5.787984058009930066e-07
5.775408537654318504e-07
5.472526347328841992e-07
4.895887081494858076e-07
4.138865745348749114e-07
3.386471578516635063e-07
2.826457462582268683e-07
2.449814792623863281e-07
1.992092843749174737e-07
1.388903564982172250e-07
1.060700393909450578e-07
8.025103768985928403e-08
5.505898942560879392e-08
3.895772983315421330e-08
2.768236955809112060e-08
1.899298891286155822e-08
1.298326696011202929e-08
8.941549245649302297e-09
6.210399941963759159e-09
4.369537867867618556e-09
3.132059201540622020e-09
2.289780868616812439e-09
1.708533723864353026e-09
1.296978837650051643e-09
9.960303824634087561e-10
7.681692181481458726e-10
