# bin_7_4
1.006240397339527658e-08
1.078335449681382620e-08
1.122180015115958594e-08
1.127332653124445894e-08
1.079591276504003183e-08
9.761617817032666830e-09
8.346324872202282936e-09
6.848139072313962164e-09
5.661571035890308226e-09
4.879629136128007182e-09
4.067435164851114559e-09
2.930124574239484789e-09
2.153806744633205272e-09
1.711792796057881577e-09
1.168442415042336401e-09
8.805824736429096366e-10
6.327916448781601533e-10
4.551594630188094815e-10
3.328640948299209838e-10
2.468429949546276451e-10
1.863737662988320643e-10
1.431674651596594926e-10
1.116923723590041699e-10
8.794999458034671287e-11
6.943198864628092701e-11
5.457175110954398226e-11
4.241101946420069188e-11
3.240213224395708441e-11
2.421914605331989383e-11
1.764628222977381470e-11
1.251157462162573562e-11
