# bin_19_1
6.534303295250364455e-87
7.311412681805042961e-87
8.028076488515135533e-87
8.609719524933865708e-87
8.962348026607130566e-87
9.002716920854417179e-87
8.613368125471154641e-87
7.777003162965943059e-87
6.637835745994736598e-87
5.441867776558032878e-87
4.506245108834723920e-87
3.895410033780557344e-87
3.237865115105047961e-87
2.306062115792247921e-87
1.702038923021636147e-87
1.341826368242311124e-87
9.006940312336839092e-88
6.680741093714838422e-88
4.714306892871869787e-88
3.281796264377466080e-88
2.304027534645787251e-88
1.628832661027676472e-88
1.168051408477345296e-88
8.513156738092001350e-89
6.329396038687020047e-89
4.790336596772552489e-89
3.678701449869361310e-89
2.850421205650746978e-89
2.212457226657726292e-89
1.707905804070797365e-89
1.302811500271637813e-89
