# bin_10_3
8.786251392561929768e-22
9.532278294668990147e-22
1.007459181989291308e-21
1.030053024707426344e-21
1.012044279673304376e-21
9.408428300494207382e-22
8.269489187368914598e-22
6.884378858132869079e-22
5.629995091777336504e-22
4.765109072745519855e-22
4.109187082565734018e-22
3.185072891460302193e-22
2.212573061450630811e-22
1.779543287954915121e-22
1.259068312343836833e-22
9.364163596213080187e-23
6.512613650105835904e-23
4.742321254793410454e-23
3.432892143043954809e-23
2.507241542774050554e-23
1.859780543120737159e-23
1.402561552885136924e-23
1.077044452967062467e-23
8.387682439188253800e-24
6.584737121461355165e-24
5.176850622261064043e-24
4.046848043097232465e-24
3.125087330475512727e-24
2.370783784227701942e-24
1.759065751488143716e-24
1.272397787990841880e-24
