# bin_7_7
1.254755866818327033e-05
1.362836677683110069e-05
1.442405489416102918e-05
1.477259737500704745e-05
1.454778083955212522e-05
1.356273000283563777e-05
1.195284716210510654e-05
9.972456903774045672e-06
8.153666819704875814e-06
6.884940063101190042e-06
5.943867747917589904e-06
4.643936835749842288e-06
3.224825334317591424e-06
2.576869059920041198e-06
1.845141942005737398e-06
1.358329083738739490e-06
9.478110748008317401e-07
6.918055930686496384e-07
4.995714451234235200e-07
3.638966158769967633e-07
2.694063307343668216e-07
2.027971028131374536e-07
1.554449084591423985e-07
1.208857652444428651e-07
9.481833394340945386e-08
7.452448255295689966e-08
5.827626152687502613e-08
4.504094713315991131e-08
3.421442277407618636e-08
2.542974421720549034e-08
1.843102829229837492e-08
