# bin_13_10
8.117847832267020088e-08
9.042488012383790321e-08
9.874194124102713878e-08
1.051700685200410825e-07
1.085168985442938350e-07
1.078824351728215111e-07
1.017542727455011392e-07
9.064786418581344737e-08
7.632932058862064280e-08
6.241260909612654205e-08
5.224715660770583414e-08
4.526069190758137186e-08
3.642518696747069921e-08
2.531684514509708586e-08
1.962185752500461561e-08
1.464474657055412058e-08
1.027757475140052635e-08
7.248080600320888012e-09
5.241341382064198988e-09
3.684238711124302575e-09
2.597795310383429914e-09
1.858661539239794863e-09
1.349335513476180896e-09
9.973336151558310901e-10
7.513318485742682910e-10
5.750402631340668121e-10
4.451827222677491768e-10
3.463163576259444587e-10
2.687480808277058779e-10
2.066244528088260088e-10
1.564964563975618711e-10
