# bin_11_8
4.475607304365413984e-08
4.941643097289691669e-08
5.338026469608574384e-08
5.609281631343741415e-08
5.695793099600584333e-08
5.539229501069166216e-08
5.087656157610066639e-08
4.419318609632503390e-08
3.650371505487056832e-08
2.994481423870817961e-08
2.560444003413423347e-08
2.187023697773901402e-08
1.634988907326774297e-08
1.148982159317252404e-08
9.359930621429124732e-09
6.313613861590858887e-09
4.809146842265164696e-09
3.328092963042713350e-09
2.356057795463719136e-09
1.689362637838214568e-09
1.218489761183123630e-09
8.894824280664644729e-10
6.597017445424652323e-10
4.988925292682758449e-10
3.833733102807548721e-10
2.978969205338576168e-10
2.326558976152482842e-10
1.812945230295662092e-10
1.400052536881935735e-10
1.065175765206508913e-10
7.947145360329236974e-11
