# bin_3_3
2.355912531049792917e-05
2.424791149346480217e-05
2.404385309962499989e-05
2.263355677150272381e-05
2.013635366547044970e-05
1.695309543172255425e-05
1.386924250574015819e-05
1.160260281101868197e-05
1.001307195078078820e-05
8.048442132538960965e-06
5.672925697589426377e-06
4.388332267881096622e-06
3.310330682464724636e-06
2.368034030314967524e-06
1.728726551297709983e-06
1.276204729991979404e-06
9.381780390796173194e-07
7.005529700226612913e-07
5.331896480987050328e-07
4.132650813230301405e-07
3.252679023930002719e-07
2.585822609101368712e-07
2.061183101174709026e-07
1.635475133550274641e-07
1.282874170166344497e-07
9.886192930358151444e-08
7.446652346454629086e-08
5.463215549386833251e-08
3.896922013228800467e-08
2.704649808277870290e-08
1.830664419287380807e-08
