# bin_9_7
7.706820520728056536e-07
8.435071999465567952e-07
9.013218861035577577e-07
9.341447606802227595e-07
9.338080416415529281e-07
8.876324828590475456e-07
7.966049343066361218e-07
6.757843558987235056e-07
5.531542680493069234e-07
4.598870193599321555e-07
3.978717909883497372e-07
3.265346294432330278e-07
2.304082754489320141e-07
1.738020768615299372e-07
1.345552800413074537e-07
9.254929974299205225e-08
6.792083143059156670e-08
4.905337445938034097e-08
3.490584804690736068e-08
2.510032237843303235e-08
1.831686910025063983e-08
1.360379577094689400e-08
1.028561371596559617e-08
7.911852127964116925e-09
6.160214265465606364e-09
4.826148709306944003e-09
3.778229117861682591e-09
2.934830956686075021e-09
2.248223453401978153e-09
1.689890933649291992e-09
1.241404176068176542e-09
