# bin_19_19
8.631289138456518613e-06
9.798017836910735698e-06
1.094878107087538932e-05
1.199839995503200865e-05
1.283247799447983312e-05
1.330727453935265509e-05
1.330668845963827296e-05
1.264587612989376930e-05
1.134421637482035909e-05
9.616611095528274628e-06
7.871979931486358184e-06
6.554795501327074993e-06
5.679882603278369042e-06
4.650353685539115296e-06
3.258156282147673854e-06
2.463040312130103498e-06
1.885782550082147401e-06
1.281288377818972436e-06
9.175089353556013880e-07
6.484995881468448126e-07
4.441121176383192918e-07
3.033686785034529497e-07
2.083588915528463028e-07
1.443074338144557744e-07
1.011633590420453615e-07
7.222612473579310375e-08
5.258848027934899930e-08
3.909232106417057751e-08
2.958878725750387511e-08
2.268231671916562020e-08
1.748408630095912152e-08
