# bin_18_9
6.144236284646466097e-22
6.899374191124903056e-22
7.608526663047062820e-22
8.203664425487494962e-22
8.597982403234931594e-22
8.703416329052562480e-22
8.421816500551892755e-22
7.691575930939412478e-22
6.642678379850397712e-22
5.470448537511611664e-22
4.499301283187915972e-22
3.865567188184685225e-22
3.278287042183600218e-22
2.406019660893210406e-22
1.709630598030292007e-22
1.388087644064729872e-22
9.192871455569494562e-23
6.981444931952359916e-23
4.816887215962802165e-23
3.336694471684158092e-23
2.343652951345035764e-23
1.647687201331921151e-23
1.169973934333441782e-23
8.423304053323663289e-24
6.187105507663314562e-24
4.631500735503821491e-24
3.525580753998242235e-24
2.717077069794280328e-24
2.105455151279107108e-24
1.628487847157193430e-24
1.248475052196044604e-24
