# bin_16_6
1.882217123879593720e-29
2.097815012953599341e-29
2.292387053538589788e-29
2.443773646624242323e-29
2.524340847513090696e-29
2.513019417610691159e-29
2.374505043382805836e-29
2.118854237907544862e-29
1.786953148982610909e-29
1.461362364108426107e-29
1.221576271670766282e-29
1.058332963190642726e-29
8.556505284629844437e-30
5.957933905629869247e-30
4.590958538274642000e-30
3.452611699168495594e-30
2.406309370802599709e-30
1.707289487806624960e-30
1.232847949238278788e-30
8.654217165732854013e-31
6.094376674001240612e-31
4.353703626348094775e-31
3.156067803374809818e-31
2.328865358331634012e-31
1.751772125542938719e-31
1.339077112376504219e-31
1.035820663939760363e-31
8.055214470060407620e-32
6.252016096336875762e-32
4.809680861557698390e-32
3.646272409349812462e-32
