# bin_18_5
1.632788630161399317e-44
1.826606149075202535e-44
2.005157174497206310e-44
2.149776210359755766e-44
2.236948673650445012e-44
2.246020946648545721e-44
2.147499511401843262e-44
1.937751643409074437e-44
1.652823863045184020e-44
1.354750206096745116e-44
1.122311168387016121e-44
9.704355757063958235e-45
8.056109093399895937e-45
5.728897527594056545e-45
4.237905613485232575e-45
3.333943763356804929e-45
2.240980766230512042e-45
1.659008631500597479e-45
1.172272579272277346e-45
8.163718802379551304e-46
5.731442087991354746e-46
4.053687358623267117e-46
2.908620147054364307e-46
2.121347266524362303e-46
1.578226562721134058e-46
1.195158127951225350e-46
9.182233536441886808e-47
7.116616702624586481e-47
5.524101729929026472e-47
4.263726449523452582e-47
3.251444853944446820e-47
