# bin_11_2
6.566392490963449781e-33
7.141530644403134986e-33
7.571042437679320891e-33
7.769363147410759323e-33
7.671729110434465049e-33
7.175742961059610304e-33
6.343406394316916056e-33
5.305395470344596786e-33
4.336541246594325810e-33
3.652048089295109445e-33
3.157229425953995404e-33
2.488957760924568922e-33
1.727243485866006314e-33
1.370481333036903555e-33
9.942261958676348034e-34
7.237982697398237094e-34
5.067757850218142033e-34
3.708315644873728189e-34
2.670858826303568328e-34
1.939772601780883148e-34
1.432893859793200870e-34
1.076273803485908092e-34
8.231978001775904841e-35
6.391247946097500397e-35
5.007886793980198101e-35
3.934742588441449866e-35
3.078017216292419937e-35
2.381312411240976978e-35
1.811676413372596669e-35
1.349183389945180562e-35
9.801073795505531737e-36
