# bin_15_13
1.448131895375015714e-06
1.626105902323446312e-06
1.793239255576081328e-06
1.933498454399858737e-06
2.026424091082231679e-06
2.051261548285059637e-06
1.984881253477001432e-06
1.812774404817923535e-06
1.565565628448878048e-06
1.289302300103725924e-06
1.060431458494404683e-06
9.110593080926163141e-07
7.726221736816705037e-07
5.670603383457411196e-07
4.029554729046903632e-07
3.271270494678272890e-07
2.166820800631838734e-07
1.645330187538948397e-07
1.135208806997440054e-07
7.864097895084499640e-08
5.523547360129433587e-08
3.883331053987331740e-08
2.757428899071853929e-08
1.985216006632292733e-08
1.458170035024272366e-08
1.091533802025603922e-08
8.308843630389611438e-09
6.403335949013821096e-09
4.961868060062642379e-09
3.837774578446456174e-09
2.942196797978315831e-09
