# bin_19_18
6.080392260418151929e-06
6.896638325582240461e-06
7.698612039921905173e-06
8.425893581818319787e-06
8.997287078087031102e-06
9.311055011666365960e-06
9.288272425071328537e-06
8.797863798790912191e-06
7.868090028753139275e-06
6.649173008171813150e-06
5.440149240314407316e-06
4.541902904594019156e-06
3.936751367401109513e-06
3.198334478069167722e-06
2.228584575124411552e-06
1.704190109232164677e-06
1.287359253630707136e-06
8.843896937473756480e-07
6.247942159909544480e-07
4.442459361038297214e-07
3.048735352306946260e-07
2.084315668923906720e-07
1.435975822721015577e-07
9.977247868365716802e-08
7.023097520721240024e-08
5.036648629929198997e-08
3.684072227188094928e-08
2.750177975324593825e-08
2.088463488949843836e-08
1.604206379949285504e-08
1.237282263088954529e-08
