# bin_20_5
1.075680491605127958e-53
1.208516191042144287e-53
1.333579162823187621e-53
1.439018565233178918e-53
1.509674165039528312e-53
1.529865125848722582e-53
1.482831719245265543e-53
1.356648795374080847e-53
1.173741948144413785e-53
9.674406871635977719e-54
7.950449978136548305e-54
6.822670053918244668e-54
5.800694763653749146e-54
4.278494081363160766e-54
3.025727647471825719e-54
2.461859047649542145e-54
1.631965276809777638e-54
1.240521210105783400e-54
8.530874507098713874e-55
5.909524231022986822e-55
4.150853234670976236e-55
2.917188331791271548e-55
2.068463082815696396e-55
1.486417636555713191e-55
1.089698536561616821e-55
8.142453257274156684e-56
6.188783709827860314e-56
4.764689693175197085e-56
3.690534232667843166e-56
2.854908701468957816e-56
2.190152202872353102e-56
