# bin_7_1
1.692583104611244839e-08
1.417960817708594503e-08
1.163879123092204829e-08
9.410409508752324670e-09
7.516745200268254922e-09
5.914368896756720956e-09
4.558042565699077074e-09
3.450700190946295349e-09
2.607451561533794737e-09
1.981905357282383549e-09
1.506876946540250015e-09
1.155694023111926553e-09
8.959258655570786512e-10
7.015159499436693358e-10
5.537620025400285478e-10
4.390795962864550729e-10
3.480938119399064014e-10
2.745949016461993209e-10
2.145665571066730163e-10
1.654113768732729452e-10
1.253918941719523289e-10
9.323608057142271791e-11
6.788551129920648937e-11
4.836146917929980180e-11
3.371302077619825080e-11
2.301931207047935736e-11
1.542075172109824427e-11
1.015697714727664695e-11
6.593024732851712691e-12
4.227459048392765956e-12
2.683463691690398095e-12
