# bin_18_11
6.304794098253679539e-08
5.870833748603415921e-08
5.325144611771950883e-08
4.699139615278272832e-08
4.034726783049245147e-08
3.378170915235630019e-08
2.770764953277363186e-08
2.237686465341227868e-08
1.784206915959582443e-08
1.400481733804479088e-08
1.075723968964937678e-08
8.097313220056818936e-09
6.062223799287098681e-09
4.555663927856682693e-09
3.409431430747737197e-09
2.563029298094188456e-09
1.942385384506309211e-09
1.483490314305122656e-09
1.141555162263148458e-09
8.834080571790061875e-10
6.851747266186000146e-10
5.305499348860587792e-10
4.085186126214660693e-10
3.116118412257223317e-10
2.346909683485636051e-10
1.740628467482303518e-10
1.268725388599270921e-10
9.076121095894639261e-11
6.368184510265927148e-11
4.382459720627189150e-11
2.959936139587811984e-11
