# bin_14_5
3.986351759234095991e-08
3.559638739749096035e-08
3.091419435068346922e-08
2.614227800685896116e-08
2.160825135186475019e-08
1.755448115699261423e-08
1.408054544786651130e-08
1.114612841413710124e-08
8.653744716478144824e-09
6.568653236446722032e-09
4.932634762942599348e-09
3.723624588650281934e-09
2.809837243158829875e-09
2.122778641354404158e-09
1.621833733016187382e-09
1.248759471271876688e-09
9.704847954451831267e-10
7.591818880665787465e-10
5.956350389894860270e-10
4.666947506066611194e-10
3.635648300968999621e-10
2.804304910387249648e-10
2.133894908215749151e-10
1.597133721158414668e-10
1.173160819782218485e-10
8.444517461371358460e-11
5.952438284858925002e-11
4.109293708986589642e-11
2.780852869410117725e-11
1.847627323844437353e-11
1.207717502951497675e-11
