# bin_20_2
2.549802817952079488e-08
2.187215268887570416e-08
1.829210921888510018e-08
1.499226799310958772e-08
1.211238807674437708e-08
9.671806495338337675e-09
7.600309382282151521e-09
5.837567827496623682e-09
4.402857926472343847e-09
3.322703084794941620e-09
2.520233344276675225e-09
1.908022639734311208e-09
1.459675865653555975e-09
1.127271121942795384e-09
8.797625871016346431e-10
6.921785533115558905e-10
5.471805574137147414e-10
4.326460338406168475e-10
3.405197661775150384e-10
2.655739881719935405e-10
2.044081526453669742e-10
1.547473470812641965e-10
1.149319828961048986e-10
8.359587856513424007e-11
5.949357300661376846e-11
4.142964260630396914e-11
2.825558343844595355e-11
1.890443364520220638e-11
1.243439502516073554e-11
8.059671334304330372e-12
5.160261993412315032e-12
