# bin_16_11
6.126105569273302773e-08
5.692116697216456597e-08
5.151651566757726968e-08
4.536270264029195617e-08
3.887284711904674281e-08
3.249518615933012723e-08
2.662048415861352184e-08
2.147834792772339718e-08
1.710747746156955661e-08
1.340941596372446880e-08
1.028615665118898418e-08
7.739738216696780704e-09
5.797458553851796620e-09
4.357549651420185984e-09
3.263028081771260229e-09
2.455945984912748767e-09
1.863232881024614143e-09
1.424772014401698209e-09
1.097526326027895058e-09
8.499832917383950924e-10
6.595166714214842057e-10
5.106884281305259664e-10
3.930781633986043856e-10
2.996159336068761974e-10
2.254251176769144228e-10
1.669797723185034640e-10
1.215351542467026969e-10
8.680896721242575875e-11
6.081240491611699068e-11
4.178467564574097581e-11
2.817994015552476119e-11
