# bin_13_6
4.336121477966842591e-08
3.904286080271481627e-08
3.419678436056410724e-08
2.915156927374523634e-08
2.425667145137092158e-08
1.980180502796088014e-08
1.593949599224581433e-08
1.267130902304716828e-08
9.903487296971454438e-09
7.568954934490358068e-09
5.690538525727086818e-09
4.282095000646226155e-09
3.233044764148655646e-09
2.434144966601087612e-09
1.850984162310697686e-09
1.418094431686036966e-09
1.096947668058912108e-09
8.545670205114631830e-10
6.685994458325158819e-10
5.232354724999325731e-10
4.077989579068982462e-10
3.152064186049492641e-10
2.407073375635117735e-10
1.810316672211165512e-10
1.337585266458199458e-10
9.692379309662640396e-11
6.881033446828762910e-11
4.785179461735237218e-11
3.261361702341711318e-11
2.181232288489402781e-11
1.434136583140188188e-11
