# bin_20_1
1.925408019580392184e-08
1.619330785103604488e-08
1.333067020426285492e-08
1.080472419415958498e-08
8.654176262000613940e-09
6.831464283536813722e-09
5.278172145402008666e-09
3.996719096283398874e-09
3.015973159285532147e-09
2.290193261402474361e-09
1.737865675752280632e-09
1.329238515729205985e-09
1.027967324414837021e-09
8.032057444745359237e-10
6.332022269181321975e-10
5.019024582757405575e-10
3.981754659663856240e-10
3.146186232666637280e-10
2.464417705461028357e-10
1.905653845176699630e-10
1.449621749943667495e-10
1.081864732080866822e-10
7.906558752153730840e-11
5.652968484627222805e-11
3.953905567229749600e-11
2.707790501558489136e-11
1.818621218772939758e-11
1.200414719458562982e-11
7.805620609950159181e-12
5.011888245900092383e-12
3.184792198657571352e-12
