# bin_10_7
4.380198171590235524e-08
3.954289672417767928e-08
3.473833481645021756e-08
2.970764622492298836e-08
2.479271959926146570e-08
2.028562829508975937e-08
1.635256891677710960e-08
1.301496275554418958e-08
1.019469033872165972e-08
7.819657570301054445e-09
5.892995076909737420e-09
4.429172492005831970e-09
3.343134693289496932e-09
2.518039287699463130e-09
1.909876628031383871e-09
1.461241248899022809e-09
1.127715159190042795e-09
8.766912443705390901e-10
6.847383210192566215e-10
5.352199006786260135e-10
4.168930712983077113e-10
3.222566469684984973e-10
2.462715705213518629e-10
1.854675183798772249e-10
1.373002090721883280e-10
9.973212978340847200e-11
7.100516284257149155e-11
4.953242596146026638e-11
3.386898812770048458e-11
2.272467955084745805e-11
1.498607624119858801e-11
