# bin_19_12
6.633340301680461276e-08
6.205070025022310266e-08
5.655814022092169822e-08
5.016011791864299336e-08
4.327783176256892068e-08
3.639116253299684205e-08
2.994805557773113564e-08
2.424628537348920135e-08
1.937664118500954525e-08
1.525714949407550274e-08
1.176610040230227014e-08
8.879897312725111087e-09
6.642939077438901019e-09
4.986812882237749042e-09
3.731933224640271300e-09
2.796527142533362364e-09
2.114399512243917402e-09
1.609305034011665380e-09
1.234762503213857609e-09
9.531792941321054266e-10
7.380131622764042846e-10
5.709991845187846612e-10
4.397225543197591984e-10
3.357721083262181355e-10
2.533695474308083842e-10
1.884113548383478271e-10
1.377762953240401226e-10
9.892708167914150989e-11
6.969096880998263290e-11
4.816074428641529508e-11
3.266397345378610723e-11
