# bin_17_10
5.956759068223182427e-08
5.518449117517447423e-08
4.978420462914416041e-08
4.368933309415177380e-08
3.731404028121505627e-08
3.109985851158518406e-08
2.541916686699904326e-08
2.047537166934158696e-08
1.628359519219323690e-08
1.273417521615643184e-08
9.738402560997650155e-09
7.314259383794365625e-09
5.483688876841253757e-09
4.123779335380376147e-09
3.088020340311610225e-09
2.330021328702065229e-09
1.770426744620039893e-09
1.357084357401602580e-09
1.047613443981278279e-09
8.127282828071535597e-10
6.313666956857205511e-10
4.891688838312045204e-10
3.764793600303974599e-10
2.867482116546383880e-10
2.154533722375962035e-10
1.592945037112005283e-10
1.156722762776767333e-10
8.240007837285446665e-11
5.755475134083933224e-11
3.942518365206477521e-11
2.650706400907652587e-11
