# bin_14_9
5.408634554512235963e-08
4.970166637328516003e-08
4.446183264140407650e-08
3.869429895381359786e-08
3.279500056453480366e-08
2.716105151657145418e-08
2.209489419571420156e-08
1.773083268936189453e-08
1.403995028718673180e-08
1.091440498777157167e-08
8.299176500924710581e-09
6.225139372184862507e-09
4.678645351247461503e-09
3.519727770057874515e-09
2.642909788246685248e-09
2.004098032511104290e-09
1.529740504451706442e-09
1.178257275439225029e-09
9.134634390761554620e-10
7.108036946179297059e-10
5.530459137380935500e-10
4.284783309575724613e-10
3.292507318996253643e-10
2.500252627309023533e-10
1.870707241352878040e-10
1.375902250914413858e-10
9.931594919089932038e-11
7.029110961554414980e-11
4.876783447384458497e-11
3.318350885995156759e-11
2.216867486010521829e-11
