# bin_10_8
4.652412383184263861e-08
4.223134146731424010e-08
3.731036113537792804e-08
3.208265228566719353e-08
2.690444795744412615e-08
2.209661841130255955e-08
1.786248469890097679e-08
1.425395888395344215e-08
1.120551548794627842e-08
8.633466678883602783e-09
6.523982734077817620e-09
4.898125657119871695e-09
3.692547209309008278e-09
2.780214391282872935e-09
2.101105441883199449e-09
1.603249456369085629e-09
1.232832204010122237e-09
9.555930112257145499e-10
7.446723280425888659e-10
5.812988983604393206e-10
4.526769731027241078e-10
3.502109852151858841e-10
2.681330370561185671e-10
2.024883517726060030e-10
1.504272001047811430e-10
1.097169185146902738e-10
7.846860360908362891e-11
5.500028995009985466e-11
3.778850361687266377e-11
2.547178302379270533e-11
1.686918338928924796e-11
