# bin_13_1
1.846452630756572785e-08
1.551042381144544404e-08
1.275692177165543331e-08
1.033188552593030005e-08
8.268451756933683555e-09
6.520459826722809994e-09
5.033962550889461773e-09
3.811553733722713117e-09
2.877435735175645255e-09
2.185646981316490189e-09
1.659533008568692705e-09
1.270386275746274331e-09
9.831895495168777751e-10
7.687207949279436080e-10
6.062625299401322171e-10
4.805980259581801371e-10
3.811918210194216728e-10
3.010458159631664990e-10
2.356322786346665014e-10
1.820351823099274598e-10
1.383255213972847361e-10
1.031165118962781860e-10
7.527421230080305739e-11
5.375968874034868925e-11
3.756333743643102930e-11
2.570155975299852937e-11
1.724839254413795804e-11
1.137773712868155180e-11
7.394406582436419779e-12
4.745873585749215186e-12
3.014782298656318926e-12
