# bin_20_13
6.943899082409600384e-08
6.522339949804861583e-08
5.971222153488029571e-08
5.319926623269629325e-08
4.610565699749857530e-08
3.892531441417296600e-08
3.213641751401516244e-08
2.607991400278911239e-08
2.088461142523466323e-08
1.648868868307684219e-08
1.276154998326399799e-08
9.658184484978924948e-09
7.223773969646364850e-09
5.416246332609154894e-09
4.053851220682989458e-09
3.030105695383090447e-09
2.285754369822448285e-09
1.734345110323488257e-09
1.327122821719148299e-09
1.021978644364159584e-09
7.898559817155335896e-10
6.105083557475384295e-10
4.700898214768280013e-10
3.592254178644051301e-10
2.714803958812188528e-10
2.023259574799624771e-10
1.483654836525268907e-10
1.068777959514929052e-10
7.556248513919997156e-11
5.241587015503201166e-11
3.568599375378663659e-11
