# bin_15_11
6.022063156757435000e-08
5.588058326493296544e-08
5.050635442568969160e-08
4.441440220389062319e-08
3.801437468662886110e-08
3.174611814570706725e-08
2.598749182329761571e-08
2.095519536549095869e-08
1.667976931499836480e-08
1.306275057126770356e-08
1.001187461800742115e-08
7.531544876736516112e-09
5.643302375266556962e-09
4.242200117726823934e-09
3.177786518103001732e-09
2.393597929151332717e-09
1.817147153858621779e-09
1.390583827703812867e-09
1.071890900108215681e-09
8.305219733644496387e-10
6.445774512194654088e-10
4.991242068113201375e-10
3.840880773208713309e-10
2.926314147272793771e-10
2.200301610286703362e-10
1.628557250982233820e-10
1.184275233583169829e-10
8.450782343175858303e-11
5.914171306903573354e-11
4.059696169855960844e-11
2.735350461183785440e-11
