# bin_19_9
5.795821612137576281e-08
5.352086834249855728e-08
4.811224573317905630e-08
4.206367831224764016e-08
3.579229766363025590e-08
2.973491076700660352e-08
2.424434827084026090e-08
1.949607669571523848e-08
1.547838838032382442e-08
1.207051731226263098e-08
9.197534523312589576e-09
6.896549624731470307e-09
5.177918081499820696e-09
3.893823597132961403e-09
2.917178989266986766e-09
2.207071514061689882e-09
1.680234592782266940e-09
1.291202290463323624e-09
9.991606008144805736e-10
7.766112283024619823e-10
6.040810027590487889e-10
4.682903101698644118e-10
3.603412533440329852e-10
2.742015212251665111e-10
2.056974404088022683e-10
1.517485277733843290e-10
1.098959039481728733e-10
7.804332967998228315e-11
5.432830338710389659e-11
3.708500941416533165e-11
2.484715177279034998e-11
