# bin_12_12
5.810868518693547630e-08
5.377777173765720073e-08
4.847535951063174191e-08
4.251844185256451138e-08
3.630813808834414103e-08
3.026571115269571303e-08
2.474199977204216622e-08
1.992849749833828971e-08
1.584132534086376004e-08
1.238468345469162341e-08
9.478413542496132682e-09
7.129192792672139230e-09
5.345365145321526657e-09
4.018818961942738207e-09
3.013333743164326999e-09
2.272859299347165622e-09
1.727837837914038674e-09
1.324038847320220353e-09
1.021804651875478350e-09
7.923440890717854761e-10
6.151592274148281027e-10
4.762828315097022519e-10
3.662953564929829969e-10
2.787973681265438886e-10
2.093491889598342775e-10
1.547035834803804361e-10
1.123001914566287620e-10
7.998590687573981272e-11
5.587182323196238403e-11
3.828269133020280235e-11
2.575071823106964630e-11
