# bin_8_4
3.129431127887323522e-08
2.745055568909125566e-08
2.344043913310378413e-08
1.953648184528838513e-08
1.596928145095080455e-08
1.286618749438777087e-08
1.023788743541393725e-08
8.016465565942864841e-09
6.145536983299565609e-09
4.634079031015047607e-09
3.493289725655163809e-09
2.645871376767240885e-09
2.001290319082085534e-09
1.527822357480836511e-09
1.176783182919755082e-09
9.150538574254625774e-10
7.166865190056590489e-10
5.636242377483937250e-10
4.431705555243892592e-10
3.468290564142165892e-10
2.690077346140744146e-10
2.059934536052389300e-10
1.552400753654056880e-10
1.148568930096031673e-10
8.328739820124002905e-11
5.914018751862244358e-11
4.111853688387114252e-11
2.801293641963695505e-11
1.872710128472004506e-11
1.230921543232125697e-11
7.972921378987456359e-12
