# bin_10_18
1.156567513548795655e-07
1.281851098771219442e-07
1.391140560349035564e-07
1.470363198027458425e-07
1.503131977116387580e-07
1.475981673030248122e-07
1.371032385574457465e-07
1.204040440640186160e-07
1.001899823566843301e-07
8.198490457006962291e-08
6.948668700314604739e-08
5.987903494235033967e-08
4.622011361895343697e-08
3.208941912186060012e-08
2.580745524702169098e-08
1.807600451044311782e-08
1.340563788991003909e-08
9.224008138546612917e-09
6.616765246110305001e-09
4.709965944614985941e-09
3.368979645040732082e-09
2.439868577663687146e-09
1.792791373303996015e-09
1.343173319396674860e-09
1.023958524217433574e-09
7.908473161764022526e-10
6.155461778611702069e-10
4.793661300554060018e-10
3.709002482691871324e-10
2.833270116775921386e-10
2.126106949083891239e-10
