# bin_13_15
2.784041377514544874e-08
3.119265681781464135e-08
3.430532583882649783e-08
3.686413859107103487e-08
3.847122652834536392e-08
3.875667193956278529e-08
3.723679891873147348e-08
3.376544589957074600e-08
2.894687021836000762e-08
2.377005080630933674e-08
1.963151181673582248e-08
1.693258345909313415e-08
1.418468938692348506e-08
1.021684595949446622e-08
7.430584701418821180e-09
5.929354229302525057e-09
3.955431957765455020e-09
2.963893689572030282e-09
2.073565962240334834e-09
1.440694432378489817e-09
1.011814172333641540e-09
7.137470550606263970e-10
5.100532541466640761e-10
3.700051726128807359e-10
2.739069825192973874e-10
2.064614634778725295e-10
1.580169415073486171e-10
1.221708202233840130e-10
9.473780850246957249e-11
7.315123022802244286e-11
5.587068176041797569e-11
