# bin_1_4
4.058829371667798265e-07
3.918694758285605640e-07
3.583119302181351212e-07
3.102108199955544863e-07
2.569872512297729939e-07
2.119135677637316428e-07
1.802658251371848289e-07
1.513938653365071571e-07
1.142787723286263840e-07
8.299647530505206034e-08
6.507371710670832067e-08
4.692463028105709207e-08
3.489672165713776088e-08
2.551755866785536489e-08
1.898764051230134757e-08
1.429892398767352503e-08
1.096165861508303746e-08
8.561027434890364247e-09
6.787939614036453362e-09
5.436314639088022836e-09
4.364906507088974759e-09
3.486963850001489865e-09
2.752252420926550966e-09
2.132984803141016637e-09
1.614981130347281656e-09
1.190571090449488757e-09
8.534907750695090782e-10
5.953701176698341786e-10
4.050734856411216806e-10
2.696480194765240371e-10
1.762175710037678207e-10
