# bin_17_19
1.896868703303716234e-08
2.147023954008627587e-08
2.390476150238116816e-08
2.607976448571381192e-08
2.773782642773365620e-08
2.856193577929840622e-08
2.831581355723526894e-08
2.660508089600131626e-08
2.361567267802079640e-08
1.981768533138667330e-08
1.620475296916442981e-08
1.361824592360358609e-08
1.179645966087574289e-08
9.383379565708753517e-09
6.487130463834664248e-09
5.091405291670997695e-09
3.711491510759111793e-09
2.632853677433689434e-09
1.808288148981167220e-09
1.292191084581181536e-09
8.922328727460508235e-10
6.139462264702027697e-10
4.263497811654265867e-10
2.986145386974367511e-10
2.124161974625246023e-10
1.540500843394516046e-10
1.139175706781959093e-10
8.585545702239472204e-11
6.565043889495287235e-11
5.060646112459108063e-11
3.903073473304624748e-11
