# bin_10_7
2.204269936930735172e-12
2.422835888154166430e-12
2.602588170927165700e-12
2.715588472259946522e-12
2.735726026364401527e-12
2.629279152943791402e-12
2.385291829583442581e-12
2.046068247564270341e-12
1.680397912428849942e-12
1.386721863122860778e-12
1.194801982484902956e-12
1.002176649820170775e-12
7.248168554790591247e-13
5.266318156205382397e-13
4.218922360286918268e-13
2.837434517227628448e-13
2.144006625618841099e-13
1.516708542732787187e-13
1.072984914063351412e-13
7.705446455041067126e-14
5.584368965293682986e-14
4.113043982376496515e-14
3.080917484567363315e-14
2.351364948513741077e-14
1.819649545993780047e-14
1.420123530573014722e-14
1.110455070431953019e-14
8.636617773871028732e-15
6.638550420158838414e-15
5.015633820615440797e-15
3.708982934613321719e-15
