# bin_13_19
6.808428169100405501e-08
7.632109402744038256e-08
8.398923991858148145e-08
9.032352659189047347e-08
9.435349288821510275e-08
9.515892335743305146e-08
9.157687093554695550e-08
8.317851357691828306e-08
7.143118688666105208e-08
5.869680710978966517e-08
4.843082526146498145e-08
4.173399264962714684e-08
3.506122116845738288e-08
2.536669502824362557e-08
1.835020591433832226e-08
1.469961385352234790e-08
9.792250457600198861e-09
7.359377731314113607e-09
5.131766547997792048e-09
3.563611981051703479e-09
2.502817543405221804e-09
1.764191658840062243e-09
1.258930404140840957e-09
9.116219781376974925e-10
6.736629535573335868e-10
5.069738500593770352e-10
3.875185012484930731e-10
2.993725399255152957e-10
2.320910493135060288e-10
1.792566185186824230e-10
1.370093335672057819e-10
