# bin_11_19
1.027409085957727106e-07
1.143666975244181158e-07
1.247823249920238610e-07
1.327685772734047290e-07
1.368231181179278559e-07
1.357984689190115702e-07
1.278270442602622000e-07
1.136687068916891223e-07
9.556866694457995450e-08
7.815211948203756189e-08
6.552879733792405452e-08
5.672956930665954752e-08
4.540520570351246332e-08
3.156108109477283881e-08
2.458335467064457576e-08
1.819263006775338529e-08
1.287137385786420209e-08
9.044992636234011676e-09
6.530238185593487679e-09
4.598782391729746963e-09
3.250772091854945843e-09
2.329979794149971283e-09
1.694254148046638725e-09
1.254570532003986507e-09
9.466967245790951822e-10
7.253633498508211801e-10
5.618422736637878416e-10
4.369934186769379402e-10
3.388314047959445317e-10
2.601387029531523937e-10
1.966577566017769390e-10
