# bin_2_18
6.131078148069466633e-07
6.173180112330612307e-07
5.939716375353360193e-07
5.405827602008450580e-07
4.656322551059578349e-07
3.841687682328471430e-07
3.170232794275363321e-07
2.709778294716035081e-07
2.269475443221221716e-07
1.684718704722270683e-07
1.226572865096462939e-07
9.687776915286031516e-08
6.853263570013954899e-08
5.135247344382713000e-08
3.723102388195022785e-08
2.749488499062407859e-08
2.056821147188160199e-08
1.564362244409360344e-08
1.211885906437468655e-08
9.535513299458670367e-09
7.588836872151638161e-09
6.063864470675823150e-09
4.828786113662797185e-09
3.805406181147550906e-09
2.948823680924137360e-09
2.234988855858994723e-09
1.650524420166297265e-09
1.185407487227955568e-09
8.281759527756235494e-10
5.640101587427825475e-10
3.755939050210370812e-10
