# bin_11_10
1.495224325830750792e-09
1.658676615524659591e-09
1.802067895902583495e-09
1.907281230154224882e-09
1.952803770778303503e-09
1.921801088240890224e-09
1.789718086189021206e-09
1.575563702193218757e-09
1.313134312411715140e-09
1.073902864392799000e-09
9.084006777150666026e-10
7.843831669464255370e-10
6.096736593744625425e-10
4.220446197565587055e-10
3.385702964918122434e-10
2.391221750392638007e-10
1.763309929763285189e-10
1.210251222185157947e-10
8.716160909939976506e-11
6.193494119451523246e-11
4.421357296081917776e-11
3.196613921598754138e-11
2.344267204323340236e-11
1.752796892062750336e-11
1.333961922995995269e-11
1.028995431727099668e-11
8.004036951309346684e-12
6.233456807938925855e-12
4.826022082427644536e-12
3.690669128900179170e-12
2.773695799622065080e-12
