# bin_14_8
7.153706156491366831e-19
7.969426431284619082e-19
8.703533634137917341e-19
9.271524493073189103e-19
9.568322808906365616e-19
9.514514440125251946e-19
8.976525624921225582e-19
7.999101256237336391e-19
6.737137522606300434e-19
5.508846033525618565e-19
4.610501450489826066e-19
3.994068014274107895e-19
3.216938052768800811e-19
2.236391760399714881e-19
1.731799560148735866e-19
1.294264196179947932e-19
9.073232804080149661e-20
6.405359063027991071e-20
4.632253967345477052e-20
3.256047778380998375e-20
2.295827249491253418e-20
1.642626968544049374e-20
1.192409136005422412e-20
8.811987960587518906e-21
6.637810985454191247e-21
5.078852919009659233e-21
3.930569322164135393e-21
3.056489213547288854e-21
2.370813880963962509e-21
1.821828271239163581e-21
1.379035217275554085e-21
