# bin_15_4
7.229319323903076948e-43
8.028442753221782158e-43
8.734295438872735742e-43
9.259781211297090874e-43
9.499673937536083096e-43
9.374465299391312892e-43
8.759071871593828071e-43
7.734928581788931593e-43
6.462156715689879337e-43
5.282921360890451767e-43
4.456752360846915538e-43
3.854354103415524842e-43
3.023688773171779765e-43
2.090596739191124717e-43
1.665983503557921262e-43
1.192871865404599723e-43
8.696181602837391739e-44
5.982235252394124564e-44
4.326144815966653760e-44
3.065376152217146578e-44
2.180923403271048854e-44
1.573003809090044613e-44
1.150652863284265176e-44
8.579245300063162171e-45
6.513438258432064871e-45
5.015074942634468712e-45
3.896835976340239274e-45
3.034261722220646312e-45
2.350644602608215371e-45
1.800022114670147654e-45
1.355337949907154542e-45
