# bin_1_20
8.046184085566523281e-07
7.792342604121953140e-07
7.149217454711158366e-07
6.209635534637087105e-07
5.153638856568525982e-07
4.245154953628106899e-07
3.604876949319388616e-07
3.038601126256513624e-07
2.310421476260774305e-07
1.671879047982785485e-07
1.310120782635982419e-07
9.487960447219885127e-08
7.035142065961512266e-08
5.145154781961128223e-08
3.825459739018901736e-08
2.875908901970722229e-08
2.200774406662877834e-08
1.715900787752359614e-08
1.358667483062232561e-08
1.087170507249437021e-08
8.726752856598711698e-09
6.973708791025759473e-09
5.509080224427138791e-09
4.275233831299610583e-09
3.242501098157118378e-09
2.394979070681027030e-09
1.720281888719378333e-09
1.202239720933310750e-09
8.193116875786611094e-10
5.461504164796840568e-10
3.573174534318647003e-10
