# bin_17_1
9.983391300565866166e-81
1.112503796474185639e-80
1.215420004956649684e-80
1.295319645793688012e-80
1.337545344337897728e-80
1.330950995461022267e-80
1.256847476520912350e-80
1.120956018530413178e-80
9.448836994941493521e-81
7.726866535304010730e-81
6.462023022199036824e-81
5.598156888796457923e-81
4.519444701347346805e-81
3.145254228261889553e-81
2.428132672590303967e-81
1.821736582801400484e-81
1.272649709813625601e-81
9.013672893513178676e-82
6.512148818390151884e-82
4.574217303718377165e-82
3.223327151459865615e-82
2.304327848526947228e-82
1.671463337098794146e-82
1.234121028341068648e-82
9.288773147044606608e-83
7.102485435193996357e-83
5.494186348296179041e-83
4.271586651747946165e-83
3.313558679803535519e-83
2.547040753504306129e-83
1.928924903032457288e-83
