# bin_3_15
4.501575774923915821e-07
4.647312309359122944e-07
4.624455261994682503e-07
4.375931977182397806e-07
3.913778301976007340e-07
3.313733825439583331e-07
2.716259964895733821e-07
2.264091596527323179e-07
1.949078928361382434e-07
1.583710987984662161e-07
1.131511963937512741e-07
8.586899801664383232e-08
6.583013473183610666e-08
4.662645765522835840e-08
3.447007538975997171e-08
2.520697167899367678e-08
1.848704574295277776e-08
1.377793277027344930e-08
1.044947056652668986e-08
8.068862122442061875e-09
6.327782751048332197e-09
5.016983111982196660e-09
3.991917932028806125e-09
3.164821738687953960e-09
2.482818581624815777e-09
1.915208130745807744e-09
1.445116517089071474e-09
1.062640419075451722e-09
7.599504579143456959e-10
5.287682973176330828e-10
3.586755220990361464e-10
