# bin_10_16
9.582619300458353275e-08
1.061976508827463809e-07
1.152402445159884799e-07
1.217874953918688606e-07
1.244830372082898145e-07
1.222091111402932580e-07
1.134910582918757272e-07
9.964404059650582875e-08
8.290039672417946231e-08
6.783924259589738674e-08
5.750905285634725145e-08
4.955057497491606389e-08
3.822072343526416181e-08
2.653904173188623634e-08
2.135335669040201051e-08
1.494165864711114808e-08
1.108984011857275316e-08
7.629661469676138555e-09
5.471641183736448675e-09
3.895603562834739488e-09
2.787103099438788744e-09
2.018839300212742389e-09
1.483714966043950663e-09
1.111846726240589593e-09
8.477616017761312792e-10
6.548522050464886545e-10
5.097351421058459173e-10
3.969684309078519820e-10
3.071313630752193541e-10
2.345907924403571530e-10
1.760134431286186222e-10
