# bin_2_4
2.248380738405787595e-07
2.256787547280365440e-07
2.162120584582061813e-07
1.958875316531685788e-07
1.679859765036701676e-07
1.383207013858378663e-07
1.143859320195612672e-07
9.797655263738801190e-08
8.151993748504576864e-08
5.991927972370099456e-08
4.401013243856158938e-08
3.462608557490965589e-08
2.444122975232258409e-08
1.832762513203190252e-08
1.332252659950448330e-08
9.841318450307744286e-09
7.377438579990108569e-09
5.625134183542865023e-09
4.368130241822085458e-09
3.443994566802340716e-09
2.744636947243635681e-09
2.194260681393824106e-09
1.746836181692053033e-09
1.375162831204161174e-09
1.063750392048027700e-09
8.043775153731065997e-10
5.924394565101354873e-10
4.242960889537859705e-10
2.956391099149512439e-10
2.008579417973494154e-10
1.334890253358921669e-10
