# bin_4_3
2.793918662439220415e-09
2.901076176072763191e-09
2.907602304285636070e-09
2.776783662316827605e-09
2.505024257846112316e-09
2.137495065301188817e-09
1.753535237336821313e-09
1.451924509451508444e-09
1.250508867751630645e-09
1.036986411636791999e-09
7.472393462407644818e-10
5.537147800135489469e-10
4.368608960589391821e-10
3.026057418251976986e-10
2.275861072764147264e-10
1.652446491835565782e-10
1.205460126915937532e-10
8.948697305722912080e-11
6.752895977319092019e-11
5.190522677119381879e-11
4.054081696161042135e-11
3.206264118365769301e-11
2.548923568881740234e-11
2.022311594119902734e-11
1.590166964683287471e-11
1.231090549406709222e-11
9.332931570650999376e-12
6.899547788274495059e-12
4.961273926703276525e-12
3.469676577859742966e-12
2.363972723060431536e-12
