# bin_16_8
9.261269662653590304e-25
1.036301386455985589e-24
1.137909685703326168e-24
1.220383450741607787e-24
1.270396665273988506e-24
1.276178019654753835e-24
1.221009984406126275e-24
1.102521529674667902e-24
9.410485212254722254e-25
7.715029885881373570e-25
6.388379799004710103e-25
5.522232385913230379e-25
4.590646116530710246e-25
3.269855434384141042e-25
2.413059321402574752e-25
1.902785562685505894e-25
1.277154474189828818e-25
9.475552749195913450e-26
6.686631621446863335e-26
4.655423813486682840e-26
3.268970243506705508e-26
2.311300713912455938e-26
1.657788958920233245e-26
1.208122511231336756e-26
8.983213341756860654e-27
6.798091696836288978e-27
5.219312589625785292e-27
4.042882959841537433e-27
3.136678125206322623e-27
2.420048099897133244e-27
1.844862071619892847e-27
