# bin_16_19
2.937044548512883678e-08
3.317945937980009033e-08
3.685498473434266123e-08
4.009247085533358910e-08
4.248865161334358029e-08
4.356021096911324671e-08
4.293605247400204421e-08
4.005279500210759554e-08
3.531421782458282285e-08
2.946613214215234121e-08
2.410038575382996911e-08
2.037454924031381583e-08
1.761202371159483393e-08
1.372831322979112763e-08
9.478926732489473852e-09
7.580078834300525764e-09
5.346588899606950554e-09
3.904323491994466101e-09
2.643150850583982253e-09
1.877325621068719522e-09
1.304188312697480997e-09
9.045476904810115148e-10
6.319932642534814633e-10
4.455771247695585340e-10
3.196920309174795827e-10
2.338913623382920073e-10
1.744164432097244829e-10
1.323708556130711536e-10
1.016940217115627360e-10
7.854536510320282331e-11
6.053401917693390396e-11
