# bin_16_16
5.030237664793553537e-09
5.676482318599392373e-09
6.297126524178164915e-09
6.839365113697119794e-09
7.233741402395474434e-09
7.398585622036259468e-09
7.268880070782334115e-09
6.753822991311647509e-09
5.932562883543406042e-09
4.935397978941224361e-09
4.038336541677883996e-09
3.425359465031593588e-09
2.955644102512704632e-09
2.277584531460686422e-09
1.574417065232283362e-09
1.269754985841237163e-09
8.796339055590776398e-10
6.520188779676887479e-10
4.398595782774684006e-10
3.105024969970967520e-10
2.164937125521232752e-10
1.508488281131717462e-10
1.057351232979357972e-10
7.482253343202988270e-11
5.393368184959776961e-11
3.964296698076984582e-11
2.969130809004694155e-11
2.261240592764388436e-11
1.741039216080181207e-11
1.345745422146443073e-11
1.036472623610047043e-11
