# bin_20_16
1.128169254246004316e-12
1.279813619937836050e-12
1.428888746718527323e-12
1.564202650341901307e-12
1.670709244418563504e-12
1.729545540813364522e-12
1.725987127007498842e-12
1.635719057575746240e-12
1.463634309829322144e-12
1.237513850078374400e-12
1.012579396862374861e-12
8.450094147542755954e-13
7.323667874758224375e-13
5.957680118258927935e-13
4.155327025457762099e-13
3.171396599764321535e-13
2.401213933025838809e-13
1.646726617701065270e-13
1.166228882985621401e-13
8.284455383358319482e-14
5.684987691535703814e-14
3.887714933147695704e-14
2.678263419549548072e-14
1.860918762450593266e-14
1.309736856558738931e-14
9.393223705837714411e-15
6.869490587266798339e-15
5.126921026205478767e-15
3.892409060925442555e-15
2.989046834003607642e-15
2.304702891458445678e-15
