# bin_7_13
1.487277821322993036e-07
1.618402244423416127e-07
1.716881780921819925e-07
1.763517858227270762e-07
1.743128080139958155e-07
1.633002793174281838e-07
1.445818568752738969e-07
1.211434451258498403e-07
9.907681750679579243e-08
8.332318394479688106e-08
7.197125991554175576e-08
5.697653574153981971e-08
3.972613668306691479e-08
3.125817517318550841e-08
2.287145804442933038e-08
1.651649919003219314e-08
1.168390820722420615e-08
8.512670837409809798e-09
6.122253593358341805e-09
4.442141881385357360e-09
3.276109664461893605e-09
2.456831787438220398e-09
1.875945685740786178e-09
1.454296626159440445e-09
1.137952955003246286e-09
8.931151512262493681e-10
6.981030367585760294e-10
5.398036932570526492e-10
4.105586503326915364e-10
3.057264671517432298e-10
2.221246177415184868e-10
