# bin_7_1
1.009850437591812213e-24
1.066494871360040706e-24
1.089847778606519677e-24
1.070253072804002293e-24
9.947477632564387303e-25
8.742691306428875238e-25
7.280494252882880058e-25
5.954694736622109310e-25
5.036294876286412231e-25
4.338090707018869874e-25
3.368920485075112631e-25
2.350988420515135029e-25
1.885057363720647046e-25
1.346242787492119490e-25
1.001257512579169323e-25
7.068406563199894909e-26
5.197089495405413943e-26
3.813258092407938780e-26
2.831263574913145179e-26
2.139391658979586520e-26
1.644109288291260515e-26
1.284116398012679994e-26
1.013618070187369978e-26
8.029764749600731302e-27
6.339641161872002466e-27
4.953783519868791419e-27
3.807367441693845890e-27
2.863444424733428145e-27
2.099251110557632801e-27
1.496973633231091597e-27
1.038494740358240770e-27
