# bin_17_13
4.127308924340810657e-13
4.652668247476517323e-13
5.154898410550173605e-13
5.590144472003546113e-13
5.901138321611119667e-13
6.022073430878335359e-13
5.897746900990866059e-13
5.459054318953983140e-13
4.777917470517847391e-13
3.964394207903770363e-13
3.245913181895565968e-13
2.761798152533166963e-13
2.377369683216958569e-13
1.812087133047764895e-13
1.256138615698857268e-13
1.019180721678086275e-13
6.949258173359361141e-14
5.212073831860146565e-14
3.520324580200016020e-14
2.467245362935677439e-14
1.726086734366804116e-14
1.207416522390391209e-14
8.488309531086427282e-15
6.028303503737908458e-15
4.364202099945780617e-15
3.221579419838036883e-15
2.422317220034929965e-15
1.850372226872413545e-15
1.427248413620681203e-15
1.103686915946590248e-15
8.493281358359805319e-16
