# bin_12_19
8.424940841258557953e-08
9.413383976635675092e-08
1.031784294228417261e-07
1.104103955212627895e-07
1.146077240807509275e-07
1.147489596322041639e-07
1.092873214709226090e-07
9.826022662123196990e-08
8.350468644621248799e-08
6.839695151173087332e-08
5.682752867475602732e-08
4.916560431554403025e-08
4.047094010346265877e-08
2.859187650240242453e-08
2.142653449404245273e-08
1.661546982600199020e-08
1.130035545365907836e-08
8.252719090360820622e-09
5.872922411574787076e-09
4.101122240231981200e-09
2.882490981784264835e-09
2.045789675571972775e-09
1.473108956379579158e-09
1.078452676166635433e-09
8.053546409324876382e-10
6.117131310616727039e-10
4.709295121292823572e-10
3.652836680928663027e-10
2.834036928338248992e-10
2.183760314218765519e-10
1.660908014832911123e-10
