# bin_14_2
8.830258175363148539e-54
9.748947792851113701e-54
1.052977075364102704e-53
1.106323177945689886e-53
1.123220287840249340e-53
1.092039778186604382e-53
1.002702808488239894e-53
8.707101684980058338e-54
7.190569114135460064e-54
5.898865880455913563e-54
5.045087641454348575e-54
4.308514116408038268e-54
3.218083946289927498e-54
2.262143155568076500e-54
1.843868174191851210e-54
1.242147620378027157e-54
9.471008179631175032e-55
6.557368974656871800e-55
4.639751502464866952e-55
3.327911652342570539e-55
2.400949224992626089e-55
1.753233750861102986e-55
1.300159034669561203e-55
9.833493222751841169e-56
7.555919109781957093e-56
5.869537924782141561e-56
4.582103738645197337e-56
3.568413564008562317e-56
2.753601667904138879e-56
2.093051432411321348e-56
1.559966588881391068e-56
