# bin_6_1
2.207013690686940973e-20
2.307588798668352846e-20
2.331305653218547198e-20
2.251694856431077925e-20
2.054302483409895511e-20
1.772823909023303992e-20
1.460111416127336810e-20
1.200815064417469627e-20
1.029268159064735681e-20
8.708244510386738175e-21
6.432762011253840611e-21
4.613935694282967338e-21
3.731024909560495170e-21
2.556507471828415490e-21
1.953299914264817596e-21
1.394860832986337751e-21
1.015028010902476443e-21
7.513663213920140149e-22
5.638217727793599593e-22
4.306463013240132724e-22
3.343640675753229874e-22
2.633476361342249531e-22
2.089279146979516161e-22
1.657760044649926678e-22
1.306352531792747047e-22
1.015480688755449217e-22
7.742137112244052470e-23
5.762623719800214878e-23
4.174506964168841975e-23
2.940567450219440201e-23
2.016511343636668912e-23
