# bin_1_5
4.765512711929458142e-07
4.605225633813954609e-07
4.215142718456275628e-07
3.652858530490400864e-07
3.027796065003099254e-07
2.495932229759286921e-07
2.122067325349428600e-07
1.784156159306022574e-07
1.349728601003220483e-07
9.791780081347841815e-08
7.676003779123593134e-08
5.542373600518883358e-08
4.118039153754208796e-08
3.011386428773409169e-08
2.240234185601955707e-08
1.686171308327114751e-08
1.291936725375892395e-08
1.008485615551097365e-08
7.992886400278845255e-09
6.399634504363726329e-09
5.137961077945649553e-09
4.104923294905520074e-09
3.240847881977328620e-09
2.512657811580514522e-09
1.903428155657515594e-09
1.404029526786102159e-09
1.007113018518082627e-09
7.029262033201407478e-10
4.784893138503813011e-10
3.186527957189147911e-10
2.083140682687387009e-10
