# bin_11_2
9.889485076643911314e-38
1.077554888894421257e-37
1.144978015788157069e-37
1.178278753856770347e-37
1.167705129992802731e-37
1.097229560589707340e-37
9.741572765251728876e-38
8.178253363908453222e-38
6.684992824074691138e-38
5.608787797748470013e-38
4.853579832563699402e-38
3.873924326897961013e-38
2.694008583390780232e-38
2.110178980915875508e-38
1.560937729919415629e-38
1.116871011189212489e-38
7.903338146568158727e-39
5.784117869482855905e-39
4.150574336505124136e-39
3.002661347556535136e-39
2.210456336019270886e-39
1.654708014549990642e-39
1.261223240328723957e-39
9.764480083261477543e-40
7.634528188202785636e-40
5.991003912562810109e-40
4.685083774183418282e-40
3.626358936417837765e-40
2.762129502618737451e-40
2.060605485859145008e-40
1.500193150495440490e-40
