# bin_6_7
4.618978416790842903e-08
4.971489948515256283e-08
5.202222583711975322e-08
5.258996556409836166e-08
5.082552482630668807e-08
4.639610888332078040e-08
4.005584105828144239e-08
3.300344613405859201e-08
2.715056369880297464e-08
2.327560905414605891e-08
1.969194080756316999e-08
1.453840549838612540e-08
1.041186636093174810e-08
8.398494436822312830e-09
5.730473021605600348e-09
4.352625245891039686e-09
3.079621004348242465e-09
2.215720107938167279e-09
1.616979828859231083e-09
1.193366969149450430e-09
8.952980045223397006e-10
6.829926071648448411e-10
5.298608062484103832e-10
4.155500020921699602e-10
3.273248219604983698e-10
2.571991860897436516e-10
2.001898119261764603e-10
1.534179253600813975e-10
1.151784676736469570e-10
8.437738923899036233e-11
6.018021698840579235e-11
