# bin_12_20
9.212979503970816601e-08
1.029419231215531139e-07
1.128370359837879000e-07
1.207516202936953796e-07
1.253495661721701748e-07
1.255127613344261043e-07
1.195504648411792059e-07
1.074978710756000292e-07
9.136387875784400846e-08
7.483603207067365592e-08
6.217304216806693116e-08
5.378902157240795439e-08
4.428592631267522433e-08
3.129324526115897479e-08
2.344299795587850003e-08
1.818548355436841510e-08
1.236494117752463388e-08
9.033071825075499127e-09
6.427060411930999683e-09
4.487805153528801441e-09
3.154218250279857692e-09
2.238473005419031574e-09
1.611717295893246845e-09
1.179808607475409092e-09
8.809611069570046770e-10
6.690862351155540210e-10
5.150672304967412175e-10
3.995070800652668959e-10
3.099551071303527378e-10
2.388411959664254287e-10
1.816647151604152757e-10
