# bin_1_14
7.424459641950419935e-07
7.188347782452135564e-07
6.593177008195346829e-07
5.725097289406117199e-07
4.750767533453870714e-07
3.913657405270661937e-07
3.323867705085510210e-07
2.800869575503675337e-07
2.128359279863584196e-07
1.540604343813708708e-07
1.207307012169382386e-07
8.740226987776058987e-08
6.482317976139030456e-08
4.740781476487103957e-08
3.525041515799803960e-08
2.650440132819419393e-08
2.028539356959173464e-08
1.581837588145084416e-08
1.252658846970343121e-08
1.002419697022027792e-08
8.046636104404343681e-09
6.430041396994131832e-09
5.079224465708615541e-09
3.941205681956359974e-09
2.988731586182062815e-09
2.207182891801156909e-09
1.585128298530248283e-09
1.107614145875018144e-09
7.547219820414434800e-10
5.030370370327582822e-10
3.290796219443874236e-10
