# bin_2_9
4.664049824389893972e-07
4.693413661616504391e-07
4.512383772329930862e-07
4.103415635580778339e-07
3.531673586721111445e-07
2.912751269900723008e-07
2.404568641917134438e-07
2.056097610517481075e-07
1.719978706830270209e-07
1.274545294517735565e-07
9.293994547413718361e-08
7.335588036754919517e-08
5.187226430549972479e-08
3.887391260856881342e-08
2.819703882564846545e-08
2.082439113515758709e-08
1.558403189481295985e-08
1.185811878315455205e-08
9.190246451062129568e-09
7.233842842163921179e-09
5.758469915067582313e-09
4.601748534413771252e-09
3.664282773796654187e-09
2.887146742582454003e-09
2.236553181993084444e-09
1.694433728956723395e-09
1.250726146386695271e-09
8.978193793073330547e-10
6.269542823610287885e-10
4.267905866264137411e-10
2.841124826980409037e-10
