# bin_16_6
1.732928752107583001e-34
1.934367773952767600e-34
2.117703242056928974e-34
2.262767275791077735e-34
2.344264598265111114e-34
2.341963492179039171e-34
2.223392319474467850e-34
1.992898442763564941e-34
1.688125683848003858e-34
1.381479057533297890e-34
1.150441849807761366e-34
9.963823798226851390e-35
8.147783525083342477e-35
5.714144682515696251e-35
4.331774403827365027e-35
3.321105114307512918e-35
2.277045488300879318e-35
1.644709999860365442e-35
1.178916252899847430e-35
8.249186160404053961e-36
5.798704306695518012e-36
4.125929238519346045e-36
2.979519709478580512e-36
2.188623491471917565e-36
1.639569870500812214e-36
1.248758654096861689e-36
9.633468917003944166e-37
7.480727908936152135e-37
5.804731686322229262e-37
4.469397506651809672e-37
3.394137908545598117e-37
