# bin_19_14
1.569942070526989898e-14
1.776217973834531404e-14
1.976571748518728909e-14
2.155001673164595716e-14
2.290132691737187823e-14
2.355734829226207324e-14
2.332410229013983987e-14
2.187800433035514058e-14
1.938880537085724454e-14
1.624647785247658628e-14
1.328293959059486948e-14
1.117838725953734362e-14
9.681874192490047058e-15
7.665662033214274140e-15
5.290908786882760955e-15
4.176416837711328251e-15
3.020415205317173711e-15
2.158437166523304748e-15
1.472997459481939007e-15
1.053517433296276669e-15
7.283580063690845988e-16
5.019300528831160609e-16
3.491267213815087965e-16
2.449162636709291446e-16
1.745879767034669662e-16
1.268932008098447214e-16
9.403672624762533728e-17
7.100361284472596427e-17
5.436621755393139981e-17
4.193688799141586863e-17
3.234482816155994220e-17
