# bin_18_17
1.251735999251707839e-09
1.417688225550606307e-09
1.579631743619309693e-09
1.724949904851291966e-09
1.836726134369772098e-09
1.893981663602136711e-09
1.881085453491590538e-09
1.771502906071059668e-09
1.575822903352229190e-09
1.324894210311126720e-09
1.083394197214609715e-09
9.087612874083786525e-10
7.875129652253580963e-10
6.303928300701026513e-10
4.363337686354705821e-10
3.401583924915878486e-10
2.505775205607841417e-10
1.760604725950734985e-10
1.217077682274016340e-10
8.702635902903028548e-11
5.998251277302561341e-11
4.117717915543137327e-11
2.853765491576446232e-11
1.994606184650042116e-11
1.414896062198403111e-11
1.023169891267039708e-11
7.544941555846215347e-12
5.672714054267219080e-12
4.330454564302564485e-12
3.335499967822626587e-12
2.572864134130357768e-12
