# bin_9_1
1.005285483341078726e-34
1.079125815857093182e-34
1.125397719196174332e-34
1.133338832185338068e-34
1.089054077207784426e-34
9.880184007688606017e-35
8.476300745762647304e-35
6.961883655412275511e-35
5.742855875821993935e-35
4.943638329144800010e-35
4.147877655828291627e-35
3.009555909298868471e-35
2.188711662645992281e-35
1.756390722355110141e-35
1.191679286858134511e-35
9.052214373155018523e-36
6.466591486890963167e-36
4.644292854079715110e-36
3.394103286260176530e-36
2.511397604607610091e-36
1.891512201793651045e-36
1.448980618820151431e-36
1.127995497349132667e-36
8.867246090250952852e-37
6.992596954904722193e-37
5.493620894969020787e-37
4.269976627685899518e-37
3.264264013566227697e-37
2.442315791096777200e-37
1.781729709261054878e-37
1.264939039993401624e-37
