# bin_12_3
1.371529574844549070e-35
1.504627035136240456e-35
1.612398905303988025e-35
1.677286783651268801e-35
1.683871855860717276e-35
1.610191710277611304e-35
1.453400299944599927e-35
1.240197578278173688e-35
1.016647641899189419e-35
8.416371831264704008e-36
7.269498551398167571e-36
6.041167986704233413e-36
4.313749488986864640e-36
3.188342187163886276e-36
2.519634504974982165e-36
1.706924524295059109e-36
1.275709175006410498e-36
9.113925764379407633e-37
6.461959975462151762e-37
4.641500098766942172e-37
3.372625890552804466e-37
2.493419713014374535e-37
1.875646345065371745e-37
1.436706269875770267e-37
1.114884578832992744e-37
8.715538037837262429e-38
6.817783195673846785e-38
5.298316740142586625e-38
4.065008568354296138e-38
3.062883525309707121e-38
2.257120160858927916e-38
