# bin_3_20
4.998782563107279752e-07
5.161319608980348321e-07
5.136804005207400797e-07
4.861832046667422546e-07
4.349307637213598394e-07
3.683231077926086449e-07
3.019248380604064392e-07
2.516252109353287460e-07
2.166127176119609372e-07
1.760915319041463197e-07
1.258486096036487917e-07
9.544869979532677713e-08
7.321972420381942835e-08
5.183907893857689683e-08
3.833645183437237372e-08
2.802866870011624302e-08
2.055449232516623863e-08
1.531728289550040543e-08
1.161549848630753725e-08
8.968168967486812943e-09
7.032290043723406799e-09
5.575170113365586739e-09
4.435935149668264170e-09
3.516889907600455391e-09
2.759165027247758430e-09
2.128565215178074726e-09
1.606292741608473016e-09
1.181319390991695445e-09
8.449451275352244740e-10
5.879876001253052621e-10
3.988937927322261428e-10
