# bin_13_16
3.937303713379584184e-08
4.412457664288254553e-08
4.854203016741431681e-08
5.218185452242424299e-08
5.448206577900649574e-08
5.491523552821773104e-08
5.280274597424156082e-08
4.791824500081878442e-08
4.111357468202090034e-08
3.377178313312045890e-08
2.787904839961946043e-08
2.403579368791240942e-08
2.016272900309933286e-08
1.455345748910857072e-08
1.055734628053232848e-08
8.440309078041616214e-09
5.626373170564201426e-09
4.222153725428318559e-09
2.949221988939675068e-09
2.048533177947642330e-09
1.438726935214908915e-09
1.014529297045628277e-09
7.245074157879076036e-10
5.251274121766357916e-10
3.884150850103277258e-10
2.925525458575919621e-10
2.237716408085182126e-10
1.729445598553762796e-10
1.340948750367779773e-10
1.035542290403849856e-10
7.911873673926612625e-11
