# bin_3_14
4.367302279205153285e-07
4.508501740553986941e-07
4.486092595357063617e-07
4.244711923577641362e-07
3.796161148818923162e-07
3.213949008338492317e-07
2.634436234259199250e-07
2.195994227907806972e-07
1.890463824952628048e-07
1.535855958657185962e-07
1.097221883095806046e-07
8.328194551824373151e-08
6.383453439604137763e-08
4.521875987279311382e-08
3.342593861494735347e-08
2.444495647896827371e-08
1.792872013019208546e-08
1.336222258552414800e-08
1.013457814982596264e-08
7.825999236819683266e-09
6.137526583503170347e-09
4.866241564435312936e-09
3.872008578471685832e-09
3.069743744244554377e-09
2.408189665517400016e-09
1.857589846785990502e-09
1.401589968570103113e-09
1.030590493259048565e-09
7.369971678951271029e-10
5.127757904849976275e-10
3.478143511890423546e-10
