# bin_11
0.000000000000000000e+00
0.000000000000000000e+00
0.000000000000000000e+00
0.000000000000000000e+00
0.000000000000000000e+00
0.000000000000000000e+00
2.123031293144935629e-273
2.718332355123420209e-231
2.103828877733581199e-195
9.315272774131249212e-165
1.493269061062691250e-138
3.979866052303690706e-116
6.260874918804820535e-97
1.676146924524917539e-80
1.858777575961873577e-66
1.809216053388865779e-54
2.921622498963482990e-44
1.346186312742883915e-35
2.813660545367808951e-28
3.971464562706782425e-22
5.334328760994188133e-17
9.173600888402990540e-13
2.614424619301146594e-09
1.547256291001051530e-06
2.319802124287311657e-04
1.052042685494516266e-02
1.694343190858107473e-01
1.122449031552925858e+00
3.491851015798776103e+00
5.698707609084245895e+00
5.289090196268157129e+00
2.940952411490500129e+00
1.015435170448810487e+00
2.247687497593335582e-01
3.298240418336387259e-02
3.323671010597468913e-03
2.383497712573428532e-04
1.259188357893170577e-05
5.063335542288719912e-07
1.597473655545477671e-08
4.066251543743225464e-10
8.565937070776707081e-12
1.528360699137239830e-13
2.358621908761531082e-15
3.208617657958801443e-17
3.914344199045780093e-19
4.349259721554838310e-21
4.463414168651162528e-23
4.284525077047044943e-25
3.891116638603882203e-27
3.377923209661671629e-29
2.829170320277182751e-31
2.305345075377528699e-33
1.841432567635044932e-35
1.451677543253696092e-37
1.136415405265807698e-39
8.882788409446050279e-42
6.967210274954222374e-44
5.508078760283785505e-46
4.406661226315150696e-48
3.580510892589485692e-50
2.964156345466077257e-52
2.507410311629370653e-54
2.172858073738308187e-56
1.933351195408489371e-58
1.769884088701972876e-60
1.669991912437413993e-62
1.626705202614244462e-64
1.638078654725838105e-66
1.707351891715518675e-68
1.843894529296392201e-70
0.000000000000000000e+00
0.000000000000000000e+00
0.000000000000000000e+00
0.000000000000000000e+00
0.000000000000000000e+00
0.000000000000000000e+00
0.000000000000000000e+00
0.000000000000000000e+00
0.000000000000000000e+00
0.000000000000000000e+00
0.000000000000000000e+00
