# bin_20_2
2.514817057357255820e-08
2.154501038008570487e-08
1.799841915879406533e-08
1.473897482648289942e-08
1.190084659754543838e-08
9.497972911621546523e-09
7.457463868170891582e-09
5.721144908157847381e-09
4.312158431291598233e-09
3.255673903857986704e-09
2.469836567029658988e-09
1.869995962648498886e-09
1.431856007757703679e-09
1.106421119298441876e-09
8.641453746230615839e-10
6.803077439305748774e-10
5.380174487638094728e-10
4.254741487508802019e-10
3.348471389005115453e-10
2.610636508797840794e-10
2.008246131766781321e-10
1.519200485043726086e-10
1.127291717845714674e-10
8.190900783061385805e-11
5.822869466674757347e-11
4.050335753330044178e-11
2.759394582155891975e-11
1.844340357722382741e-11
1.212054527538781017e-11
7.850431924706645327e-12
5.023253405481691963e-12
