# bin_14_7
4.760992675994128140e-08
4.322547683411873003e-08
3.818190143321963532e-08
3.281285424817136648e-08
2.749247878783165310e-08
2.256071396932442138e-08
1.822969443550287013e-08
1.454833933939030067e-08
1.143587047440508537e-08
8.798933817158644512e-09
6.634594488736296619e-09
4.979511710017001322e-09
3.756640008497292630e-09
2.824499024447478936e-09
2.136046067634925968e-09
1.629947842386292647e-09
1.254505484030949942e-09
9.731120578527636599e-10
7.590225496256056648e-10
5.930581544183963541e-10
4.622287903286911788e-10
3.578554506383775064e-10
2.741229567430236249e-10
2.070641180917736397e-10
1.538229889031904825e-10
1.121576673882983229e-10
8.016423055927554973e-11
5.613776734281671014e-11
3.852571156759337828e-11
2.593460596096406170e-11
1.715202244963967848e-11
