# bin_18_12
6.539176019071659880e-08
6.110169546733504195e-08
5.562886975189637975e-08
4.927932875553768518e-08
4.247225981609055369e-08
3.568113873822879710e-08
2.934309684131120754e-08
2.374368687383191154e-08
1.896481541507933594e-08
1.492233486198397227e-08
1.149890850040419838e-08
8.674689238713928826e-09
6.490571775263626185e-09
4.873342294122069410e-09
3.647579420761354234e-09
2.735056256282083037e-09
2.069087507469449168e-09
1.575918644174765676e-09
1.209877233441216549e-09
9.344265212258579436e-10
7.237202638604720597e-10
5.600005234418380103e-10
4.312082921537012982e-10
3.291713666857653361e-10
2.482709631593391094e-10
1.845059532840197023e-10
1.348220502208647847e-10
9.672766231604232419e-11
6.808348624628157130e-11
4.700930914513713893e-11
3.185626853486537996e-11
