# bin_3_1
1.401479377813668224e-08
1.165669126245178942e-08
9.515791544581913587e-09
7.659284033391155968e-09
6.087597908766002392e-09
4.760911532874766796e-09
3.650368124092261407e-09
2.761151677350118389e-09
2.091731019716825230e-09
1.592881335120731390e-09
1.215197495031578043e-09
9.368309246972114109e-10
7.295202097638284418e-10
5.735314744744935406e-10
4.538981028155582668e-10
3.601845756268534447e-10
2.852419479327699154e-10
2.243785814743848306e-10
1.745671622928736884e-10
1.338281639275789849e-10
1.007969398332140815e-10
7.442455147570410964e-11
5.379815556366323456e-11
3.805336425899137143e-11
2.634916605988981648e-11
1.788168185284585073e-11
1.191521978171138489e-11
7.812656011340567101e-12
5.052502871583422742e-12
3.230065582414345026e-12
2.045608218137546454e-12
