# bin_12_11
5.615841730723339801e-08
5.181728938504417382e-08
4.656135297789708472e-08
4.071046369580300716e-08
3.466078706262245281e-08
2.881948111169975609e-08
2.351407093579335490e-08
1.891082185476647610e-08
1.500832384305554674e-08
1.170795043257112047e-08
8.939809794305402360e-09
6.717648959204792998e-09
5.040641918917138635e-09
3.791286597160647330e-09
2.844529882896150178e-09
2.149867368126384017e-09
1.636991257232324785e-09
1.256953923591899436e-09
9.716997148949870812e-10
7.544691352737736781e-10
5.862024314354061772e-10
4.539407537750433152e-10
3.489642711814116615e-10
2.653439834222401503e-10
1.989528034295838865e-10
1.467430886514321079e-10
1.062852858740527253e-10
7.551597239693974470e-11
5.261272941433809527e-11
3.595490270730761620e-11
2.412307131949775418e-11
