# bin_18_8
5.382144236456652540e-08
4.936317280120956854e-08
4.405723043954401375e-08
3.824167908861194100e-08
3.232291852809395186e-08
2.670586606469647711e-08
2.168728563797531528e-08
1.738598993036598167e-08
1.375103456300439967e-08
1.066361995694103715e-08
8.081789489351690648e-09
6.055650948908209442e-09
4.557942044785494686e-09
3.426053655780516066e-09
2.574781653575931756e-09
1.955690430749596808e-09
1.495507712831338189e-09
1.153960729572005128e-09
8.963308404765386107e-10
6.985748260444404126e-10
5.441384511782091469e-10
4.218246913496997520e-10
3.241419967763923628e-10
2.460075046299189413e-10
1.838612149258477389e-10
1.350114937916779011e-10
9.725326145299295349e-11
6.866320238665381468e-11
4.750894585825419931e-11
3.223426468342278788e-11
2.147278736269901845e-11
