# bin_10_8
4.636209156806766315e-08
4.207123200011032058e-08
3.715701906030977409e-08
3.194079909270721351e-08
2.677795992418893701e-08
2.198777140306147288e-08
1.777145128163040711e-08
1.417915593455734201e-08
1.114454826923117894e-08
8.584399563851106385e-09
6.485737786610618610e-09
4.869490968232967969e-09
3.671297623351301236e-09
2.764270226807728036e-09
2.089414328553727824e-09
1.594607687105667724e-09
1.226433640693314205e-09
9.507945521734786682e-10
7.410373756470046980e-10
5.785121071681090103e-10
4.505185482904628960e-10
3.485287588532667397e-10
2.668199337716806153e-10
2.014672504421180909e-10
1.496401159823309330e-10
1.091181200484065003e-10
7.802059006462610630e-11
5.467151940838655980e-11
3.755227917630365314e-11
2.530573309233687281e-11
1.675497758163200657e-11
