# bin_12_9
5.168118219195173765e-08
4.732732100004629958e-08
4.219035449463714799e-08
3.659558321703633901e-08
3.092606900107360825e-08
2.555458515726184719e-08
2.075235303060150656e-08
1.662785696474747720e-08
1.314100637530129721e-08
1.019151032339129687e-08
7.736778057426698476e-09
5.804398138260511882e-09
4.365902355315630031e-09
3.285398792207865445e-09
2.471017867053271883e-09
1.876998824552196748e-09
1.435517495483218782e-09
1.107592704475365920e-09
8.598885851925814181e-10
6.696925172255394943e-10
5.211833363788449629e-10
4.036341669179793695e-10
3.098541832603995709e-10
2.349429354053765188e-10
1.754484967552350116e-10
1.287528898581765970e-10
9.270865199042429179e-11
6.544653610065279223e-11
4.529026517775899780e-11
3.074142622475544580e-11
2.049067363795346628e-11
