# bin_8_7
4.055997545654847145e-08
3.640217152202399224e-08
3.179572338969378962e-08
2.704859092607494958e-08
2.247605655455417477e-08
1.833008028959629812e-08
1.473739120198647805e-08
1.169500726747175654e-08
9.125560935342318149e-09
6.974515874155375338e-09
5.251358378159688336e-09
3.952860248122808739e-09
2.985638216204171538e-09
2.252706034739297473e-09
1.714295154505924390e-09
1.315402512671693125e-09
1.018286715752019212e-09
7.935762953298591570e-10
6.207931257188084205e-10
4.854932961793133033e-10
3.779515271426404016e-10
2.916951661329824661e-10
2.223635330406460646e-10
1.669226435442651307e-10
1.231021428587985340e-10
8.904367553906222383e-11
6.311611562490040244e-11
4.383428586609397763e-11
2.984514856335170148e-11
1.994626514725098844e-11
1.310818755712985210e-11
