# bin_19_17
7.572735509484201879e-08
7.171564443335216472e-08
6.624416733875710706e-08
5.957852471145763537e-08
5.212949952619524352e-08
4.440763111105163214e-08
3.693909866767408023e-08
3.014772726005755302e-08
2.424931799614518589e-08
1.924273962856866640e-08
1.500170765612896618e-08
1.143831737305067221e-08
8.573688089801405065e-09
6.409973847267886885e-09
4.797280088601934887e-09
3.575385009002136352e-09
2.680692925997147902e-09
2.022528204196054282e-09
1.537836360039843691e-09
1.177125510148472823e-09
9.054229388780775939e-10
6.975899075400574813e-10
5.363735821277796474e-10
4.100466593853107708e-10
3.105666028718664438e-10
2.323321025815932986e-10
1.712544150740016706e-10
1.241537391628644687e-10
8.841899269050169849e-11
6.182355234644151100e-11
4.244226151630208298e-11
