# bin_17_10
5.944039189611319649e-08
5.505512153635709892e-08
4.965624735251744480e-08
4.356674505192299102e-08
3.720069203101596208e-08
3.099895870290305016e-08
2.533257545329319834e-08
2.040315610290170253e-08
1.622435375144338020e-08
1.268584124845293412e-08
9.699442229491415823e-09
7.284029955824570473e-09
5.461311036452304362e-09
4.107169734156807396e-09
3.075562725736542417e-09
2.321040516143838171e-09
1.763786015924445366e-09
1.352231994433639245e-09
1.044021367286617822e-09
8.100372892336717059e-10
6.293273153176836457e-10
4.876069712113805510e-10
3.752739840569112276e-10
2.858145720515703644e-10
2.147313487502961334e-10
1.587397341365963162e-10
1.152506314863339121e-10
8.208428758774618117e-11
5.732237315841793642e-11
3.925752215077097893e-11
2.638859519022899578e-11
