# bin_20_6
4.671825331329830960e-08
4.224766458470233795e-08
3.715164770258260605e-08
3.177753846913604031e-08
2.650970317062513744e-08
2.168202199145768821e-08
1.748285996739781782e-08
1.392863584479299474e-08
1.091396341483399295e-08
8.354193122609936727e-09
6.277776597414503024e-09
4.719766807873508260e-09
3.562225724150727352e-09
2.676635127324641878e-09
2.031780493893042524e-09
1.553331177132808916e-09
1.199541079158977584e-09
9.333221145685221725e-10
7.297899212145072882e-10
5.712117111206809435e-10
4.455773503707235414e-10
3.449246070243601199e-10
2.639317036647102371e-10
1.989722020807952834e-10
1.474003695822282924e-10
1.071004072418229623e-10
7.624056116723659157e-11
5.315446727673954774e-11
3.631158485340329632e-11
2.433441645002104140e-11
1.602650419632034200e-11
