# bin_12_4
3.398794743642662488e-08
2.994290695756869083e-08
2.566402813435314642e-08
2.145127102379338876e-08
1.757153287700812290e-08
1.418310889465427116e-08
1.131144080346620711e-08
8.881237503910736083e-09
6.821083771986502598e-09
5.141737337948308988e-09
3.871695928039253604e-09
2.931255701287120271e-09
2.212802181358754421e-09
1.685898772258225861e-09
1.295793110587446226e-09
1.005857299513983875e-09
7.868380948306370824e-10
6.185007842961646999e-10
4.864789592987345560e-10
3.811364074242712649e-10
2.961346923721661709e-10
2.272822764622546452e-10
1.717382279332161816e-10
1.274294765849326544e-10
9.267789296667617795e-11
6.599887417916602917e-11
4.601163142942698534e-11
3.142261881019803771e-11
2.105041627874140875e-11
1.386031802091733995e-11
8.990136858578012494e-12
