# bin_20_15
7.342771943810132274e-08
6.933245811767298891e-08
6.383593778567168334e-08
5.721484641400435684e-08
4.988502510571377266e-08
4.235257782965179441e-08
3.512801627630581389e-08
2.860636064528063501e-08
2.297063437569850922e-08
1.819525976961025969e-08
1.414848045154808885e-08
1.075650119053373659e-08
8.052534238354015605e-09
6.026192088958591040e-09
4.511165484869327686e-09
3.364160903663017938e-09
2.528541018872989196e-09
1.911334231408513097e-09
1.456938634099555541e-09
1.117816477019504893e-09
8.614411748604477415e-10
6.646061075797445779e-10
5.113785773807899019e-10
3.909529354019416637e-10
2.959178929117256013e-10
2.210995181834681790e-10
1.626848903784760170e-10
1.176766384451989056e-10
8.358669846457636145e-11
5.827529388830666992e-11
3.988327353385713735e-11
