# bin_16_10
5.859047692317588555e-08
5.421085682290829278e-08
4.884293514508170752e-08
4.280963896515568333e-08
3.652130760271520915e-08
3.041101652567171618e-08
2.483885154083917632e-08
1.999655280877961566e-08
1.589246923877608800e-08
1.241781988224361648e-08
9.489213663684011729e-09
7.125849921791268934e-09
5.344063568015323875e-09
4.019257060147606418e-09
3.010927738068375202e-09
2.273482373924037191e-09
1.728597094292764290e-09
1.325963980048325946e-09
1.024210436202786058e-09
7.949092813509068082e-10
6.176517310623793752e-10
4.785307652661615921e-10
3.681991624427184892e-10
2.803134040619372290e-10
2.104860542305377684e-10
1.555027354668919781e-10
1.128210538173156678e-10
8.029440066085953123e-11
5.603062940026173237e-11
3.834521932643541128e-11
2.575811623466334439e-11
