# bin_8_4
3.105778833782300847e-08
2.722444708859360754e-08
2.323178721556739107e-08
1.935110053383000918e-08
1.581044113531493500e-08
1.273388004850898615e-08
1.012940008232385778e-08
7.927950100654963820e-09
6.074211213236896362e-09
4.578774469641872730e-09
3.452239963481007514e-09
2.615179854013084540e-09
1.978162768629875255e-09
1.510903795142911864e-09
1.164111196679366557e-09
9.055884984867918836e-10
7.095106379977697475e-10
5.581090608280818250e-10
4.388797719929123918e-10
3.434601082037330403e-10
2.663510098332807827e-10
2.039005390102707358e-10
1.536024536052821033e-10
1.135906172642478804e-10
8.232394166384569689e-11
5.842134864677995883e-11
4.059387921115985779e-11
2.763884527878372527e-11
1.846658451881585925e-11
1.213184621222557322e-11
7.854633482992990533e-12
