# bin_12_5
3.842691888905148990e-08
3.423228417186678634e-08
2.966345722547758554e-08
2.503661392577683267e-08
2.066356891538784456e-08
1.676813526200410719e-08
1.343579102268700645e-08
1.062170183952098070e-08
8.234059553052302519e-09
6.244266208359799133e-09
4.690276857433566820e-09
3.542586871430092482e-09
2.673996001519826953e-09
2.022529236982993515e-09
1.546960782062030326e-09
1.192588131942764836e-09
9.277565071726399771e-10
7.262809477981556290e-10
5.700056751724474563e-10
4.465646103749256798e-10
3.477012542909244997e-10
2.679550163486549123e-10
2.036524092769773734e-10
1.522074406495216355e-10
1.116245265513893423e-10
8.021326322845772411e-11
5.644554778137862464e-11
3.890367233716339576e-11
2.628712146424917601e-11
1.744193980445867332e-11
1.138798335381841396e-11
