# bin_12_5
2.946112578586868673e-24
3.239483829155653675e-24
3.481520221810719297e-24
3.634977663003210858e-24
3.664489650104555469e-24
3.525541521745167242e-24
3.201357849082665722e-24
2.748786938609833827e-24
2.258081439265758776e-24
1.862153096535570149e-24
1.603950698860382749e-24
1.347982392183634832e-24
9.768209468001534075e-25
7.072828883431382096e-25
5.685819216939886768e-25
3.813541460626933022e-25
2.890451574066293961e-25
2.040910049465457931e-25
1.442707054389357129e-25
1.035927757113906236e-25
7.502353640777472675e-26
5.521585408621950598e-26
4.134300623160140750e-26
3.153815734312942469e-26
2.440380316544237238e-26
1.905000340765662531e-26
1.490403106846568582e-26
1.160165407707249254e-26
8.927910796653432797e-27
6.754737729369210465e-27
5.003024648835626562e-27
