# bin_11_14
5.363766261563686539e-08
5.958331604333580011e-08
6.484498754586883616e-08
6.877789864502807919e-08
7.060292575376964963e-08
6.972477397208623908e-08
6.521600892723961772e-08
5.764667005087780887e-08
4.821236299171403429e-08
3.942286332228779213e-08
3.322781739360371955e-08
2.872939183442009820e-08
2.260418386701782661e-08
1.565858685161647266e-08
1.241939691506362503e-08
8.941227416785628905e-09
6.481036248956181851e-09
4.483957044105983464e-09
3.236956674704175534e-09
2.291039964315442003e-09
1.628045219166527008e-09
1.172684999686113567e-09
8.570587265855225747e-10
6.382822455987755359e-10
4.841044521323822683e-10
3.725138131400768706e-10
2.893771042691765352e-10
2.253588738276057057e-10
1.746893230219434440e-10
1.339016857805787378e-10
1.009550885176584042e-10
