# bin_18_8
1.831835070400431628e-31
2.054714240118662899e-31
2.262882069687394294e-31
2.435856047433638698e-31
2.547624535965907020e-31
2.572849383553713906e-31
2.480896489678437843e-31
2.257546556558682949e-31
1.942454963600362648e-31
1.597053077680885715e-31
1.316030279138811953e-31
1.133227091612561231e-31
9.555870518195690642e-32
6.942804414165230086e-32
4.988496916013777830e-32
4.022849419515111626e-32
2.666886817712278327e-32
2.016361573014072287e-32
1.400734750067054755e-32
9.711752231975405475e-33
6.820053920040296373e-33
4.799869658094702581e-33
3.418464982414913273e-33
2.470700658476093751e-33
1.821904445423254084e-33
1.368766006793802232e-33
1.045032662169835902e-33
8.069302557672877061e-34
6.257441178916115852e-34
4.837705940989197631e-34
3.703371700115880368e-34
