# bin_15_6
1.568465697126963294e-30
1.743520760131325048e-30
1.899074653710449289e-30
2.016334682666958278e-30
2.072322278807569170e-30
2.049971138295804383e-30
1.921180190517393992e-30
1.701277627468299138e-30
1.424739380992535111e-30
1.164630184843068966e-30
9.800687846628858009e-31
8.483327829048040174e-31
6.711085122246109854e-31
4.642010112078025587e-31
3.670232273376830593e-31
2.663103603810659164e-31
1.917955194984529456e-31
1.326676046096520592e-31
9.613308545159943429e-32
6.792462471959946731e-32
4.816082111180096868e-32
3.464551206733451162e-32
2.528338458882517027e-32
1.879907079970778891e-32
1.423811257992548317e-32
1.094445922982302243e-32
8.496911842363587497e-33
6.616732471054120288e-33
5.131158828296303557e-33
3.936319137961451705e-33
2.971153469686822285e-33
