# bin_13_11
1.509707180427012968e-10
1.682941471104926060e-10
1.839445292540703966e-10
1.961471348210572812e-10
2.026886253792977516e-10
2.018654215446550417e-10
1.908546172545527763e-10
1.704037405484867799e-10
1.437983343239440306e-10
1.176123542168474107e-10
9.826617031606361776e-11
8.512524875605921420e-11
6.891823259239659493e-11
4.804824681021094441e-11
3.693895169024828658e-11
2.784755524395232282e-11
1.936994334489749890e-11
1.377964892829998206e-11
9.935152982938164189e-12
6.971159830262941751e-12
4.908662995197153814e-12
3.504583856353251771e-12
2.539111469971534842e-12
1.872446306492196556e-12
1.407634940056548453e-12
1.075483058451473876e-12
8.316231413991527414e-13
6.466062209931647294e-13
5.018585757752545612e-13
3.861424392761855847e-13
2.928255784824771759e-13
