# bin_15_16
1.417539247433547304e-08
1.594279420497761208e-08
1.761504081481748385e-08
1.903767611291905152e-08
2.001189596205590916e-08
2.032431877052665440e-08
1.976531766375696797e-08
1.815000393755173663e-08
1.576115674930769696e-08
1.301690499587761259e-08
1.068295205086909141e-08
9.143654427130249938e-09
7.808188465753791273e-09
5.819963778480560738e-09
4.084864913004933390e-09
3.325835018917690323e-09
2.219766640541262327e-09
1.683603862136805309e-09
1.150223529035351888e-09
7.986216563083158086e-10
5.605581976921574272e-10
3.935697566394136693e-10
2.782550547192208556e-10
1.991941010632314904e-10
1.454349809728117964e-10
1.082514319706779212e-10
8.200436452662629479e-11
6.298720473473481230e-11
4.873201366130801796e-11
3.770172525563981640e-11
2.895795930015836382e-11
