# bin_2_15
6.089640129617131779e-07
6.112868140603870964e-07
5.857378867151274284e-07
5.307651521185097268e-07
4.552532909062179187e-07
3.749091798859111240e-07
3.100170820313660757e-07
2.654882830908323678e-07
2.209099573371285763e-07
1.624740761454166450e-07
1.193031605142444401e-07
9.383512403562063981e-08
6.627585802190499174e-08
4.968045210783736328e-08
3.611916208434413892e-08
2.669034702272484267e-08
2.001457187010367276e-08
1.526766003418486566e-08
1.186255697465282805e-08
9.360002341768289660e-09
7.464660228857914767e-09
5.972630912662738648e-09
4.759017208758940552e-09
3.750009382945774300e-09
2.903804729214922488e-09
2.198252263972945246e-09
1.621030468302563510e-09
1.162470759060169065e-09
8.110817483579715154e-10
5.518103474845257536e-10
3.672283423564152922e-10
