# bin_7_3
1.098219604667267934e-15
1.169562821995021836e-15
1.207455984365607758e-15
1.201689995822068211e-15
1.135895042557171396e-15
1.014242768818274712e-15
8.562969026911296539e-16
7.003802200260736409e-16
5.844114297975109460e-16
5.053542836039036855e-16
4.098741822236586511e-16
2.881053816349145764e-16
2.210761859957542535e-16
1.684310699784082234e-16
1.185531934758963407e-16
8.638536048154858455e-17
6.334539031767097148e-17
4.589867406779883636e-17
3.368951498176253400e-17
2.518345244065038661e-17
1.917353139120978542e-17
1.484841211792912072e-17
1.165468422201924281e-17
9.210908089400506282e-18
7.279160772989160957e-18
5.712040821491591757e-18
4.421474307829563889e-18
3.357459232695279389e-18
2.490013750241904187e-18
1.797993337230630947e-18
1.262956114728392746e-18
