# bin_17_8
5.258393701033914419e-28
5.886745102170206717e-28
6.467774957330671571e-28
6.941719728368805466e-28
7.233166675890252660e-28
7.273922690890426104e-28
6.970588288778800142e-28
6.303613782472401156e-28
5.389037608891563281e-28
4.420230665608362928e-28
3.656290103387012738e-28
3.158698157843122569e-28
2.633816393833037421e-28
1.882808446498685396e-28
1.381923158324129496e-28
1.095261551914391721e-28
7.325929050271391855e-29
5.460385292349689677e-29
3.840354536428418459e-29
2.670852689317412995e-29
1.875065417459111253e-29
1.324046619186917561e-29
9.481216264824014649e-30
6.898553614260631021e-30
5.120578592543936617e-30
3.869862423231374463e-30
2.968529643481050146e-30
2.298703238039049311e-30
1.784010858491701388e-30
1.377667164891630283e-30
1.051700565967804237e-30
