# bin_11_16
8.008064588092993216e-08
8.897952402492894776e-08
9.686663175801760758e-08
1.027807542557683945e-07
1.055573432938790045e-07
1.043080024719923585e-07
9.763814744094086224e-08
8.636818174590953933e-08
7.227892406301305453e-08
5.910151423954121463e-08
4.978249667732367717e-08
4.305115120331988746e-08
3.394414694275818836e-08
2.352098794781341550e-08
1.861587872889884389e-08
1.344751582046017039e-08
9.718444576344336005e-09
6.735136217015919970e-09
4.862928214301601780e-09
3.439626370256807529e-09
2.442511770293293328e-09
1.758245823892430508e-09
1.284210727400712724e-09
9.557285856739894213e-10
7.244208059973517597e-10
5.571609546001224681e-10
4.326811054196888604e-10
3.369269626938703602e-10
2.611992068899088274e-10
2.002682763337700755e-10
1.510553540132620184e-10
