# bin_7_2
1.454235423380429671e-19
1.540533631029318654e-19
1.580045601773911365e-19
1.559445940043267693e-19
1.458324638885573218e-19
1.289092514353955435e-19
1.078423612390041145e-19
8.815549423962051393e-20
7.418975396109984315e-20
6.407153467511825872e-20
5.057920580619242414e-20
3.525598542426235420e-20
2.791064163473309811e-20
2.039582764657827654e-20
1.488175323881616236e-20
1.056719278020325374e-20
7.793705855276581476e-21
5.691958318413431074e-21
4.206729482942998245e-21
3.167349405292585022e-21
2.426979530297430083e-21
1.890704857901937843e-21
1.490248291705451901e-21
1.180344484129332439e-21
9.328856564719435063e-22
7.306066912155360422e-22
5.634038273094284085e-22
4.255337101180666613e-22
3.135177326570373882e-22
2.247493088736494938e-22
1.567280842442154376e-22
