# bin_8_19
1.930138154778102542e-07
2.111676865121191916e-07
2.255303120811743457e-07
2.336049956812279301e-07
2.333391564044200953e-07
2.216113284283106374e-07
1.987508181988945383e-07
1.685264998230516115e-07
1.379848025317794579e-07
1.148133770662823281e-07
9.926049668647892683e-08
8.125028028241558077e-08
5.740442382339902227e-08
4.337899356641127787e-08
3.344254699148535510e-08
2.311385568169424791e-08
1.691353396097811075e-08
1.220429326611108576e-08
8.691626125038415618e-09
6.257387363652214437e-09
4.569953801575614348e-09
3.395505459398417217e-09
2.568299305086612860e-09
1.976121183227304179e-09
1.538820793493834791e-09
1.205525229715666924e-09
9.435752823492386698e-10
7.327034294480902478e-10
5.610420618582939542e-10
4.214932616978925916e-10
3.094604576004894737e-10
