# bin_13_8
2.653618288589546115e-16
2.943921947128768038e-16
3.198746104072706108e-16
3.385945480880293584e-16
3.467194883541830601e-16
3.412956904048232820e-16
3.179134156040206378e-16
2.799308111073302127e-16
2.333249610805713706e-16
1.907969783169790052e-16
1.613702227255135963e-16
1.393858701727147469e-16
1.083945251395448309e-16
7.498578738102241402e-17
6.017247989988224500e-17
4.250308134098570098e-17
3.134564637708729910e-17
2.148618295493261640e-17
1.547960788264044013e-17
1.099687990987367325e-17
7.848645414411865968e-18
5.672301529977153788e-18
4.159430881760323544e-18
3.109262476799656150e-18
2.366012408760881598e-18
1.825358972063248235e-18
1.420284514052931217e-18
1.106632632764247720e-18
8.573384483899523433e-19
6.561839019122700014e-19
4.936245403884866742e-19
