# bin_17_20
2.921858909648495372e-08
3.303434329563219035e-08
3.672962217460424562e-08
4.000426827992845904e-08
4.245888823922805851e-08
4.360821660694972205e-08
4.308879596713039421e-08
4.031649373347246770e-08
3.564600386712588364e-08
2.981181828649358570e-08
2.437816604429117906e-08
2.055851187750188567e-08
1.779090119528489372e-08
1.398606490621991627e-08
9.654825620573717350e-09
7.666569148081861697e-09
5.481125162272359877e-09
3.955994983554319364e-09
2.689005746684801441e-09
1.916603605516234746e-09
1.327587433820265924e-09
9.172907997994922365e-10
6.389724410345032270e-10
4.491179519308796017e-10
3.209157601673376009e-10
2.338075094397153792e-10
1.736974547743945170e-10
1.314267502048753994e-10
1.007780040605720432e-10
7.779490125088607922e-11
6.000129395119668978e-11
