# bin_11_9
1.246229828653233655e-10
1.377661048486464465e-10
1.490384907366439406e-10
1.569041990824048664e-10
1.596599116032553775e-10
1.557563438439563031e-10
1.435622900316805620e-10
1.251373378508612436e-10
1.035758124486886187e-10
8.487495410398481365e-11
7.238478227426493549e-11
6.204961347416536081e-11
4.684582469359071572e-11
3.273188057683003734e-11
2.662789635115259700e-11
1.811873856268351735e-11
1.373451876253718397e-11
9.458859617972264359e-12
6.719004505062650815e-12
4.810207819537172729e-12
3.463275211217678830e-12
2.521898758825440849e-12
1.865029820412606250e-12
1.406446176121894546e-12
1.078270278932834631e-12
8.364825890144903204e-13
6.527775234658011541e-13
5.087233263272208633e-13
3.932173048724665755e-13
2.996329862907943868e-13
2.240259603907547657e-13
