# bin_16_3
1.213199491602258591e-55
1.347554173794354115e-55
1.466378029565984484e-55
1.555069482739871889e-55
1.595928613762056916e-55
1.575694714940378703e-55
1.473173634733133240e-55
1.301649695548233661e-55
1.087987765922210374e-55
8.894180667576655148e-56
7.499491149178806349e-56
6.487219783646365545e-56
5.097755429402813699e-56
3.524416753342932928e-56
2.804448526686063199e-56
2.013236452546164173e-56
1.464070488121668053e-56
1.007849186513952396e-56
7.291803832541714636e-57
5.162926274921313219e-57
3.670045686358255141e-57
2.645069219345209591e-57
1.933962613357043962e-57
1.441039209805574129e-57
1.093484655367793440e-57
8.417823479187438384e-58
6.541327923126445453e-58
5.095232095250730304e-58
3.949882266540154428e-58
3.027434250785384541e-58
2.282127852439317686e-58
