# bin_5_18
3.311523149878616778e-07
3.525340084541133961e-07
3.638323394613464579e-07
3.618637989441746019e-07
3.419117151868450885e-07
3.052289038918713562e-07
2.577864012847939721e-07
2.110187002786534733e-07
1.761587504004220168e-07
1.520729989515639405e-07
1.231019092664948560e-07
8.696874351225055683e-08
6.658650904919018600e-08
5.062721811216241938e-08
3.574483352758986651e-08
2.610437588296112071e-08
1.905072664305821034e-08
1.381268144641211687e-08
1.015289392047115108e-08
7.590892528459675482e-09
5.778836636792530450e-09
4.474523051314330966e-09
3.511330199068496789e-09
2.774335083108943608e-09
2.191832584375235556e-09
1.719417361127033450e-09
1.330539217714721112e-09
1.010085670381179838e-09
7.489802563871383891e-10
5.408124297583582981e-10
3.799321575110647766e-10
