# bin_16_20
4.056874308135677175e-08
4.577179647974390603e-08
5.076500891681946985e-08
5.512168131212263778e-08
5.828115328585766837e-08
5.958680169425565495e-08
5.851221328264321455e-08
5.433392879115379220e-08
4.769903391369395358e-08
3.966838382192702428e-08
3.246406357657520374e-08
2.754931219886207508e-08
2.375765959387445037e-08
1.827746596786731724e-08
1.264570916605882185e-08
1.020165036734094936e-08
7.053911591964144443e-09
5.233044727325190031e-09
3.534212584611339032e-09
2.491470668746462548e-09
1.737346663551322543e-09
1.210581701341609504e-09
8.484300333593698554e-10
6.006355912876421843e-10
4.330174159610354786e-10
3.183430387498723305e-10
2.385089765045522715e-10
1.816987817297762866e-10
1.399362953456147980e-10
1.081917595084347748e-10
8.334744956159907348e-11
