# bin_20_9
2.461784813102301179e-33
2.774276044395171937e-33
3.072607212735487211e-33
3.330492768231377098e-33
3.513678577344335541e-33
3.583168487499327441e-33
3.505415099618974915e-33
3.240428700080972052e-33
2.831853133868799446e-33
2.348999808028990671e-33
1.924316566997927374e-33
1.639723300533972494e-33
1.410020755300748779e-33
1.070099724960664124e-33
7.431716051423119940e-34
6.042610661237198976e-34
4.095252670649366806e-34
3.084765182157314579e-34
2.086268442119702230e-34
1.457791818596015064e-34
1.020957402875193908e-34
7.149990078483643647e-35
5.030013322691737498e-35
3.577460229837998743e-35
2.593359927714694018e-35
1.917011202104171372e-35
1.443444755409690387e-35
1.103897021458573946e-35
8.521740394231856196e-36
6.593001643513548307e-36
5.074320318205363749e-36
