# bin_7_6
1.122031164335635127e-10
1.214283048171186496e-10
1.279373655235906684e-10
1.303369372317232701e-10
1.273880057574865012e-10
1.177011615863441688e-10
1.028206929996355683e-10
8.529715818361205259e-11
6.986006460803561711e-11
5.943545187193224179e-11
5.102654077586689945e-11
3.886640093639311380e-11
2.716843496090738250e-11
2.203495520163275245e-11
1.526316073554135605e-11
1.153618164322860335e-11
8.038126506334295282e-12
5.814452046412020992e-12
4.226915783865172012e-12
3.101885736052938583e-12
2.310271225233485774e-12
1.749639562704174019e-12
1.348875511061383512e-12
1.053551137795612600e-12
8.285245658061423536e-13
6.516431983326577015e-13
5.089431752769754156e-13
3.922188859251479094e-13
2.966483312567576467e-13
2.192566830712325387e-13
1.578988315525081850e-13
