# bin_9_3
1.635176311519132320e-22
1.765487541789535506e-22
1.854688799132520864e-22
1.883190946505823647e-22
1.831615267188691436e-22
1.682964029898777453e-22
1.462026029552256242e-22
1.208874625507578785e-22
9.915954562624565862e-23
8.471513362390151892e-23
7.236098058831074932e-23
5.427285764775999550e-23
3.823515591325101537e-23
3.112756748148060024e-23
2.123752549281673592e-23
1.620994118727092273e-23
1.135230872973885823e-23
8.168674771089296493e-24
5.955605915187038930e-24
4.385059440679359496e-24
3.277372885080050698e-24
2.491171332330883629e-24
1.926891307501677313e-24
1.508608723834946350e-24
1.187949107360307386e-24
9.344750682147972121e-25
7.291244772560311698e-25
5.608005518727833562e-25
4.229606057969580940e-25
3.115149666633395947e-25
2.234512958323939899e-25
