# bin_20_15
9.921500469041133169e-15
1.123828815856914375e-14
1.252398764075395365e-14
1.367863338168693936e-14
1.456805183304927576e-14
1.502560886332623065e-14
1.492723754357571519e-14
1.406167983530598670e-14
1.251239757136624792e-14
1.052227885528398172e-14
8.607331533519830997e-15
7.221781626149900534e-15
6.259413914006526490e-15
5.011741980449624784e-15
3.468908665925929867e-15
2.705402576763971941e-15
1.992999794662829686e-15
1.400543584451374674e-15
9.675873307200705562e-16
6.921811058090361575e-16
4.770244655256646561e-16
3.273231049514488603e-16
2.267667610342696918e-16
1.584325225908484830e-16
1.123275405721308055e-16
8.117390074854373651e-17
5.983028916018802335e-17
4.496873029600999763e-17
3.432324116367307563e-17
2.643997274128384053e-17
2.040184023786672718e-17
