# bin_9_1
1.305677306855497132e-34
1.399651098307615464e-34
1.457083421455755420e-34
1.464384668273249531e-34
1.402948284610069688e-34
1.269052292720737228e-34
1.084836064274049898e-34
8.906491239365777474e-35
7.363678230334671751e-35
6.349691129651763213e-35
5.297070322665913757e-35
3.813509119826839410e-35
2.803195224060572345e-35
2.231566763210574345e-35
1.520172653371683462e-35
1.147797343434856399e-35
8.247804389531995434e-36
5.930105164568744155e-36
4.335734835546145807e-36
3.213831382181882279e-36
2.426127974407141503e-36
1.863516642542525255e-36
1.453757679531881589e-36
1.144743215435840271e-36
9.037815228188798625e-37
7.104405711208097512e-37
5.522200648312987837e-37
4.219815103216411160e-37
3.154779437625470071e-37
2.299030888297698308e-37
1.630296154271869584e-37
