# bin_8_7
1.018995077337395099e-10
1.111579690481484299e-10
1.182826820487590802e-10
1.219393734368853806e-10
1.211105982541038663e-10
1.141229543918077472e-10
1.015957048235912740e-10
8.549812299827532612e-11
6.992944925372035612e-11
5.856419232791794910e-11
5.069447570353299526e-11
4.073391532759597256e-11
2.840136628042861637e-11
2.207251342193524129e-11
1.650114855832807722e-11
1.169795246646309750e-11
8.339803559606415289e-12
6.092941393204668542e-12
4.363847648500912538e-12
3.151601046719717761e-12
2.315803826384995265e-12
1.730976776927430103e-12
1.317421054265749876e-12
1.018851709760114495e-12
7.962805251080456368e-13
6.250076141848455515e-13
4.892100193135778850e-13
3.792383791724044052e-13
2.894591064079942228e-13
2.164906071581569103e-13
1.580698761179005751e-13
