# bin_12_11
7.725459188500418099e-11
8.605846001655309981e-11
9.397850950952882712e-11
1.001004746386336302e-10
1.032879838929714743e-10
1.026831322231882182e-10
9.684392282656044755e-11
8.627679453875686838e-11
7.263941301340841464e-11
5.941811635878852903e-11
4.976623728027390309e-11
4.311658290991273586e-11
3.467759964599022803e-11
2.409777525563827916e-11
1.870240841257541517e-11
1.394003564979878867e-11
9.798161975529793686e-12
6.901647765389847661e-12
4.993691402597470211e-12
3.511739876478262295e-12
2.476943662077448677e-12
1.772987348630466975e-12
1.287647935225738085e-12
9.521634315127916209e-13
7.175956723643553020e-13
5.494104697016439777e-13
4.254552989202364246e-13
3.310255175274375985e-13
2.569001700307182215e-13
1.975114562410977777e-13
1.495804266872821176e-13
