# bin_17_3
1.648407371155273951e-60
1.837008680065570637e-60
2.007075902179859619e-60
2.139157135965519916e-60
2.209012375140779397e-60
2.198214559988294502e-60
2.075843892830393699e-60
1.851556915040707810e-60
1.560565927276506631e-60
1.276694551463452968e-60
1.068210593908205715e-60
9.255434051492802793e-61
7.468325120369009460e-61
5.196624615753537508e-61
4.016414531067201527e-61
3.009983095126413546e-61
2.105224810279111706e-61
1.489324910252940843e-61
1.076489580181078937e-61
7.562890424958579147e-62
5.329488122405152007e-62
3.810633765455904700e-62
2.764625646550610723e-62
2.041899620564688583e-62
1.537208223451894394e-62
1.175886111574032547e-62
9.100479692099492505e-63
7.078964046927884770e-63
5.494421779733808949e-63
4.226044394125102192e-63
3.202637999980444018e-63
