# bin_8_5
2.765258411498763467e-13
2.994242601652163682e-13
3.156891385115077931e-13
3.218669212546972495e-13
3.149406870566391303e-13
2.913867793484560570e-13
2.548844140590267845e-13
2.116386963021846201e-13
1.732965399723652262e-13
1.472745981500869393e-13
1.265460361298701913e-13
9.676332875290681154e-14
6.756710654312764078e-14
5.468459454980705860e-14
3.807566702771396259e-14
2.866160043699667092e-14
1.996911279172478389e-14
1.447024337480057440e-14
1.050804305731290596e-14
7.701920964599227254e-15
5.731356980911089244e-15
4.336678715252225978e-15
3.340525689521861798e-15
2.607509735052783562e-15
2.049815557762169893e-15
1.612062284183710984e-15
1.259290666359074689e-15
9.709047147852994729e-16
7.348100022209717157e-16
5.435643664667723740e-16
3.918291243918367655e-16
