# bin_10_10
1.504615776643572069e-10
1.665360021519358693e-10
1.804345482212432641e-10
1.903112671579989427e-10
1.940648385286935105e-10
1.898852303299086078e-10
1.756130192646793843e-10
1.535472436178674898e-10
1.274197562752529042e-10
1.043466733983051643e-10
8.879966951781460063e-11
7.635416456386911929e-11
5.815763985984274700e-11
4.046660249269666433e-11
3.285987444767673436e-11
2.255601473384696487e-11
1.701126862277057305e-11
1.167417926924726563e-11
8.322348561550913598e-12
5.948687208654653595e-12
4.275442916834963866e-12
3.106691002582218498e-12
2.291830137525514178e-12
1.724073232344752933e-12
1.319090189794701906e-12
1.021829615129116309e-12
7.968894596051862710e-13
6.211190041188223801e-13
4.805072571333280924e-13
3.666845710641403742e-13
2.746943371922580085e-13
