# bin_19_3
8.647723510270246895e-71
9.686061130660101982e-71
1.064866397281941708e-70
1.143752502663488143e-70
1.192870896006604769e-70
1.200859552549061666e-70
1.152410802209936571e-70
1.043734034310507492e-70
8.931107858694139318e-71
7.334837124138343144e-71
6.064485835891016186e-71
5.236997145556382016e-71
4.377190124420178020e-71
3.138897036311945263e-71
2.295174055914607880e-71
1.825817023730273831e-71
1.218846773905446222e-71
9.114133214143292018e-72
6.395887914017714564e-72
4.445476985849417286e-72
3.121103319647912149e-72
2.202172368816993460e-72
1.575228171909119609e-72
1.144640392435651563e-72
8.485343831817360417e-73
6.405313911126571453e-73
4.909000493877773456e-73
3.799323244727822420e-73
2.948299910016261069e-73
2.277401561199598914e-73
1.739609204601906808e-73
