# bin_19_19
8.132932747524593004e-11
9.233811403784877147e-11
1.032027482708394953e-10
1.131213368795917730e-10
1.210158257441153419e-10
1.255301030513981790e-10
1.255657449600972000e-10
1.193755530747820556e-10
1.071432857697421027e-10
9.083070436215411288e-11
7.440012888345088479e-11
6.196231465152577524e-11
5.369726482068362263e-11
4.398414561216165045e-11
3.083171482670789740e-11
2.330355468189004036e-11
1.785158035742820262e-11
1.212865146708032933e-11
8.690157677150347355e-12
6.141189248068727119e-12
4.205957352432503990e-12
2.873320809516876300e-12
1.973360965319771603e-12
1.366631698713963334e-12
9.579448386668033027e-13
6.838303856695749636e-13
4.978183677670366613e-13
3.700012914128485647e-13
2.800177942316803277e-13
2.146434416157430066e-13
1.654525792216588963e-13
