# bin_17_2
6.514455243912699185e-70
7.254670161699131457e-70
7.919420858120949408e-70
8.431450125197921065e-70
8.694910255709348120e-70
8.637815363083665141e-70
8.138991411318303814e-70
7.244500210975824231e-70
6.094534992752961516e-70
4.984755526315879781e-70
4.178207027009679017e-70
3.619741858209783664e-70
2.904222649480567669e-70
2.016175410311211939e-70
1.569601369899914520e-70
1.165214134878140004e-70
8.220031984515795869e-71
5.771319639715854950e-71
4.179277560467599551e-71
2.941172465062444843e-71
2.075896325534232258e-71
1.487158068696059455e-71
1.080909039362096112e-71
8.000017086754189705e-72
6.034090816772601362e-72
4.622935255959471969e-72
3.581537798322523788e-72
2.787123231187195886e-72
2.162846294623374443e-72
1.662339924065075112e-72
1.258311906606563300e-72
