# bin_18_3
1.160469988609676075e-65
1.296652261708375394e-65
1.421274107659807258e-65
1.520917796163126839e-65
1.578707052034480583e-65
1.580639192808323970e-65
1.505133821194166971e-65
1.353059854738816627e-65
1.149015015713943445e-65
9.414306305508090938e-66
7.825714574187987473e-66
6.775679296967294290e-66
5.575290903837614743e-66
3.930302008437933397e-66
2.952178127106740307e-66
2.287007248678265255e-66
1.555344519399273090e-66
1.134648003571336170e-66
8.090237440276052631e-67
5.650101765090161138e-67
3.968632772608952803e-67
2.816686760534282254e-67
2.028829398693394461e-67
1.486235032582029005e-67
1.110378303850819832e-67
8.439358673698474916e-68
6.501638342711773663e-68
5.046507580606339030e-68
3.917925536070905442e-68
3.020887091525460615e-68
2.299020748696940262e-68
