# bin_3_2
2.029470207049057595e-10
2.067975573075099546e-10
2.023028103196318383e-10
1.873109680361135815e-10
1.640092394485873788e-10
1.363974110868141307e-10
1.117312841177488140e-10
9.470800681321758507e-11
8.120539226309057028e-11
6.255597344378958172e-11
4.406299292297336460e-11
3.529527591668254657e-11
2.519621254537876203e-11
1.884300825641020011e-11
1.348061861301399377e-11
9.971817851960312821e-12
7.411148682197443936e-12
5.590001566627075398e-12
4.295997614111805960e-12
3.357880208950178986e-12
2.661069753556800647e-12
2.123886325200984340e-12
1.694580160028175240e-12
1.341905237171858260e-12
1.047578852888801878e-12
8.015489876062318957e-13
5.983434466404945221e-13
4.345709473840473998e-13
3.068580268624454532e-13
2.109853320579961702e-13
1.416571456053095596e-13
