# bin_16_5
2.671514365078541583e-40
2.974857142122587740e-40
3.247160834042944172e-40
3.456726600059069879e-40
3.564242462130684839e-40
3.540232827467979100e-40
3.335031673568634485e-40
2.967866245591757275e-40
2.496263764787564989e-40
2.041647986897835282e-40
1.711620499358785861e-40
1.482837693064650077e-40
1.189029802227280563e-40
8.252181296623698108e-41
6.429385723672522669e-41
4.768255541796783975e-41
3.366757576677004616e-41
2.361809488950199802e-41
1.710750141812998133e-41
1.204154018262946125e-41
8.500224246793638242e-42
6.090757997026913735e-42
4.427785647462218240e-42
3.277802509537408481e-42
2.472804191793792265e-42
1.894813019539976956e-42
1.468135517975555041e-42
1.142543843250554911e-42
8.866151683160922944e-43
6.813930090296519514e-43
5.157210397991939817e-43
