# bin_9_5
2.303932602747811851e-15
2.505614642309678684e-15
2.656104986233102204e-15
2.725417132414381517e-15
2.690580846504063773e-15
2.515946076716334243e-15
2.223534213009032313e-15
1.859728995163153525e-15
1.520665835495239853e-15
1.281478370444715569e-15
1.107697048448974004e-15
8.721033013792860276e-16
6.055365919784789247e-16
4.810444226318816828e-16
3.482670160419006940e-16
2.540768427555230966e-16
1.778284893245403872e-16
1.300474092174123494e-16
9.371645136386374705e-17
6.810541926579237433e-17
5.032849454220064292e-17
3.781655479265193694e-17
2.893524455086727705e-17
2.247180791697485804e-17
1.761151420237722541e-17
1.383903847564454873e-17
1.082588577684738248e-17
8.374780011936431595e-18
6.370408006328616928e-18
4.743037555652626453e-18
3.444579139779075765e-18
