# bin_20_16
2.904955301668701163e-13
3.293190025501942263e-13
3.673661070874599399e-13
4.017337977373637245e-13
4.285190033714942243e-13
4.428445851118443816e-13
4.410083748991194849e-13
4.167493612385232135e-13
3.719425583287798424e-13
3.136230504278221388e-13
2.566340651897064135e-13
2.147696449192960809e-13
1.861799329135737382e-13
1.503092264848649803e-13
1.043929397805280523e-13
8.056211526303211678e-14
6.018841219807266348e-14
4.176315190264414882e-14
2.919965250145987923e-14
2.083567197774139582e-14
1.432657906390411162e-14
9.808174721828527635e-15
6.774715773658505485e-15
4.719032551249034257e-15
3.332678867619329567e-15
2.398393762132076084e-15
1.760472775361323619e-15
1.318359725675900007e-15
1.003558437579014445e-15
7.719377470559359850e-16
5.955591555944031544e-16
