# bin_19_7
2.325282992107095864e-40
2.611570894792813628e-40
2.880653143917091457e-40
3.106793210152433298e-40
3.257113812744314864e-40
3.298229934663784615e-40
3.192768772020045874e-40
2.917296928777463664e-40
2.519237131967193611e-40
2.076755315709332398e-40
1.708417043664179745e-40
1.467844819861088405e-40
1.245353738347940525e-40
9.146278618514296295e-41
6.498103463443471048e-41
5.277431819287125356e-41
3.495950079230958864e-41
2.655525989026897169e-41
1.831983026756567711e-41
1.269168470178771026e-41
8.914380654688994694e-42
6.266898255587960929e-42
4.449206551576379925e-42
3.202502385426151442e-42
2.351725197897851675e-42
1.759999934793544633e-42
1.339468459755408491e-42
1.032157554824005816e-42
7.997810270281717939e-43
6.186276312171232629e-43
4.743286450570638612e-43
