# bin_10_1
4.833323167743194098e-40
5.216088160290594469e-40
5.476448934819239431e-40
5.556980633659921538e-40
5.399549783994237596e-40
4.956064730314481058e-40
4.300776197705160733e-40
3.554078361828958419e-40
2.916395465140272144e-40
2.493422322516620271e-40
2.127216615083990691e-40
1.590862319245283321e-40
1.123059264668323396e-40
9.141970620004983911e-41
6.225683604867882026e-41
4.755858620437473881e-41
3.335586359280045685e-41
2.398591975113882812e-41
1.749379980427889944e-41
1.288654281732212928e-41
9.637703641080291874e-42
7.330902866129504412e-42
5.673812969381485685e-42
4.444067679889041103e-42
3.500243229832172104e-42
2.753388771406467180e-42
2.147871929563167299e-42
1.651359307545873179e-42
1.244774489466733273e-42
9.161582239857326828e-43
6.566645028460230888e-43
