# bin_4_3
2.227405860540213489e-08
1.908224266497275044e-08
1.595533290269488314e-08
1.307620111952176554e-08
1.055431497895860730e-08
8.410905078632652111e-09
6.603362364402937646e-09
5.085222025298641739e-09
3.851029070545572640e-09
2.906898371922420207e-09
2.206252707198567342e-09
1.676116832258246438e-09
1.282328689375158531e-09
9.914514309619453791e-10
7.734253196836573097e-10
6.079285988132414492e-10
4.797973909472692390e-10
3.785692711438625965e-10
2.972580527709774150e-10
2.312811064825681030e-10
1.776214503063792977e-10
1.342191233562843908e-10
9.954927125037336126e-11
7.235046928484931828e-11
5.148133179459809635e-11
3.586350536645072434e-11
2.447875083457656818e-11
1.639452549455846933e-11
1.079558477245044261e-11
7.005012868984232363e-12
4.489375573810505667e-12
