# bin_16_4
3.580286036370258172e-08
3.162491370531529147e-08
2.716880014504414748e-08
2.275155807641589019e-08
1.866294881355578954e-08
1.508175945411506728e-08
1.204406606101799834e-08
9.471808481068043241e-09
7.284698910263559787e-09
5.492887572029705360e-09
4.134009155833358345e-09
3.128935345155940500e-09
2.360423205537366419e-09
1.796205765210134066e-09
1.379157803648579473e-09
1.069469596817032067e-09
8.360016985584393958e-10
6.569382437458993209e-10
5.167738268443027225e-10
4.050927809770094097e-10
3.150399902104110044e-10
2.420911620624695843e-10
1.831962343771411955e-10
1.361507583063380432e-10
9.918756412259911216e-11
7.075318955321207388e-11
4.940530155807055972e-11
3.378998847582302635e-11
2.266581351740380691e-11
1.494049298634288539e-11
9.699600796775950518e-12
