# bin_18_2
2.499365427409555797e-08
2.141116014939496326e-08
1.788717306040350321e-08
1.464872590465473853e-08
1.182783130450179905e-08
9.438415076981740540e-09
7.410026998614865567e-09
5.686251832858693151e-09
4.288103326971697832e-09
3.237839663934530692e-09
2.456420706392883457e-09
1.860839102671778985e-09
1.424922051574843638e-09
1.101381837232006243e-09
8.602767424958023340e-10
6.772859914661471011e-10
5.356053081363844844e-10
4.235189600130048518e-10
3.332538593074634449e-10
2.597702004979745524e-10
1.997877965946896719e-10
1.511047607829842054e-10
1.121035195246576194e-10
8.144220632977944804e-11
5.789076167459799119e-11
4.026600288714559060e-11
2.743187879568316223e-11
1.833543005320264137e-11
1.205004376740240098e-11
7.805120541710214895e-12
4.994482571320226271e-12
