# bin_20_1
1.899454736118857350e-08
1.595857491113716571e-08
1.312731105463733473e-08
1.063426431267638672e-08
8.513398126063972446e-09
6.715218378379762166e-09
5.183462418972710989e-09
3.923346926031246022e-09
2.961847590556613846e-09
2.249727498575707766e-09
1.707723036979196032e-09
1.307328522079356591e-09
1.011772937983424220e-09
7.911897347995457993e-10
6.241248547097158826e-10
4.949084815945887937e-10
3.926794330861607970e-10
3.102303076115707390e-10
2.429049709794946737e-10
1.877103938078905324e-10
1.426721912302540356e-10
1.063739612971225092e-10
7.765800073204551259e-11
5.546175784854221707e-11
3.874966535284827139e-11
2.650998661105532328e-11
1.778828828138893196e-11
1.173206660985061620e-11
7.623567719004605318e-12
4.892308736956883085e-12
3.107450997220595415e-12
