# bin_15_6
4.456773870382994570e-08
4.018454764931322609e-08
3.524112582532380502e-08
3.007345359562782076e-08
2.504363764980344891e-08
2.045636949723833345e-08
1.647567999102674670e-08
1.310715277069407475e-08
1.025257521906104659e-08
7.839439277693500817e-09
5.893167244993684331e-09
4.433920473393219108e-09
3.347568891272720014e-09
2.519131229105207366e-09
1.914880433367809162e-09
1.466350105766746135e-09
1.133882834148857962e-09
8.831521025258854837e-10
6.909429724043416812e-10
5.408109097871353444e-10
4.216435681917297600e-10
3.260715069796663647e-10
2.491587397452801398e-10
1.875183072731524357e-10
1.386530706958138193e-10
1.005443689351235697e-10
7.143092587861103565e-11
4.970613407310527889e-11
3.389649816383427601e-11
2.268101762066850231e-11
1.491820273431250349e-11
