# bin_16_2
2.466990792514760482e-08
2.112367526759258080e-08
1.764046797133907000e-08
1.444269256346635921e-08
1.165861107180321665e-08
9.300635416064111813e-09
7.299418172595184381e-09
5.600180742499242240e-09
4.223374798512773457e-09
3.189391989157951083e-09
2.419881778015498369e-09
1.833606066639286878e-09
1.404437174058863358e-09
1.085825812753453590e-09
8.483003562834175453e-10
6.679412416648070827e-10
5.282282998002374545e-10
4.176526072285723494e-10
3.285806148896310137e-10
2.560625626004256023e-10
1.968746142288775430e-10
1.488488971090207357e-10
1.103886847277549465e-10
8.016629896769372007e-11
5.696328011222505702e-11
3.960773977678215830e-11
2.697549408032757076e-11
1.802585477638510778e-11
1.184412600064088408e-11
7.670455888711715859e-12
4.907664103249418746e-12
