# bin_18_7
5.020858124720479077e-08
4.573303869069428500e-08
4.052329872269645219e-08
3.492276284122809614e-08
2.932702538916117449e-08
2.410734704801305032e-08
1.950615905987844036e-08
1.559067909008295386e-08
1.227914891465490889e-08
9.464910369476972806e-09
7.140636438076535546e-09
5.356096148538435711e-09
4.039685396681409199e-09
3.035172510230918829e-09
2.291988345010213646e-09
1.746679197894697504e-09
1.342464735835662144e-09
1.040192321409182512e-09
8.107899967197793494e-10
6.333909744490914278e-10
4.938318464196447853e-10
3.826391519433790845e-10
2.934744833090710262e-10
2.220330676478499765e-10
1.652445979856948364e-10
1.207239967011796834e-10
8.646280278345888898e-11
6.067022046968738831e-11
4.171533504063148750e-11
2.813024927064377286e-11
1.863214823705684215e-11
