# bin_14_14
6.466806914957342476e-08
6.039124216690404944e-08
5.495762620237103528e-08
4.867178096617874238e-08
4.194695792660603592e-08
3.524629578919204662e-08
2.899318952582738069e-08
2.346411331433114458e-08
1.873916308681352074e-08
1.474200081848041183e-08
1.136407710043654438e-08
8.582448674446901406e-09
6.425667680618973675e-09
4.823045397512674504e-09
3.612880631989123858e-09
2.709871106520147171e-09
2.050336114627067623e-09
1.561641094559291005e-09
1.198917180607114052e-09
9.257455590543914267e-10
7.167472535379677850e-10
5.543709786642293955e-10
4.266708526149433727e-10
3.255490654364642278e-10
2.454253135920990116e-10
1.823167772370133445e-10
1.331798904772811458e-10
9.553016309889796189e-11
6.723623615520321695e-11
4.642816545561761039e-11
3.146967328526320004e-11
