# bin_17_11
6.221414077205558466e-08
5.785906522257212086e-08
5.241336006903684779e-08
4.619316259237727025e-08
3.961573907795859804e-08
3.313726213834941672e-08
2.715941125803148181e-08
2.192182498435252197e-08
1.746882816688629971e-08
1.370099888001663265e-08
1.051569275845901215e-08
7.913747358721974646e-09
5.927101744435169803e-09
4.455259531910393843e-09
3.335741834736233100e-09
2.509911714003621619e-09
1.903660169653564510e-09
1.455256106171508312e-09
1.120730850252254082e-09
8.678236467700473053e-10
6.733347243646286614e-10
5.214316471350592621e-10
4.014267326853808956e-10
3.060708800519261597e-10
2.303690538821731220e-10
1.707169791126340309e-10
1.243148229795847242e-10
8.883858538891529308e-11
6.226502218856124004e-11
4.280299510367743546e-11
2.887921623395688015e-11
