# bin_18_9
5.731346499052923636e-08
5.287009188710912217e-08
4.747708390474895722e-08
4.146640925533693404e-08
3.525254716192368461e-08
2.926580734943230870e-08
2.384942523577062874e-08
1.917014911313303920e-08
1.521157115509505102e-08
1.185452196173813122e-08
9.028463926289472909e-09
6.770296622331314585e-09
5.084994289464339876e-09
3.824643519552380831e-09
2.867089085210796463e-09
2.170697128630102254e-09
1.653797922103617342e-09
1.271781686840792935e-09
9.847284218684502120e-10
7.657126141931178847e-10
5.957188829584087323e-10
4.617904352733435796e-10
3.552471997557920626e-10
2.702015752976589201e-10
2.025708683957851547e-10
1.493298717071126319e-10
1.080533793645368771e-10
7.666634333064136547e-11
5.332140335023068048e-11
3.636561718767636222e-11
2.434512071794357946e-11
