# bin_19_11
6.384159569980842697e-08
5.948628271571226584e-08
5.399247026535050995e-08
4.767501813710643808e-08
4.095669922011020079e-08
3.430689201985809459e-08
2.814750665231136834e-08
2.273832162524061383e-08
1.813631482844374572e-08
1.424193583118217507e-08
1.094353422680718724e-08
8.238377473990406067e-09
6.167486094551545112e-09
4.635166843766327261e-09
3.468672886346251446e-09
2.607178130972354770e-09
1.975572341970030836e-09
1.508629133950659937e-09
1.160770173623714737e-09
8.982343528273519825e-10
6.966894240694147002e-10
5.395165955679992265e-10
4.154894439241020883e-10
3.169975416284790466e-10
2.388087648131378882e-10
1.771675663384710858e-10
1.291743615870150115e-10
9.243576198012857781e-11
6.487560845488412951e-11
4.465805417640067802e-11
3.016939393311439220e-11
