# bin_11_11
5.458141338792737864e-08
5.022773317582494432e-08
4.500797027824105755e-08
3.924422541626291970e-08
3.332789531381954810e-08
2.765317148548376733e-08
2.252678122557467775e-08
1.809390211448551408e-08
1.433955229457586662e-08
1.116502390620563673e-08
8.510013353178153536e-09
6.392072459515795799e-09
4.800387272075383587e-09
3.611952347024411768e-09
2.712669044358431362e-09
2.054002712585461381e-09
1.566583648701387967e-09
1.205064718712839871e-09
9.330368638059092710e-10
7.252582930603628864e-10
5.638418026945537120e-10
4.366406345573829329e-10
3.354914007971351671e-10
2.548381578908398232e-10
1.907966872378830143e-10
1.404713876083890528e-10
1.015297590681240171e-10
7.197290678738182090e-11
5.002556985166753874e-11
3.410619921673674818e-11
2.283102926905869840e-11
