# bin_8_6
3.796700009971250524e-08
3.386954641034346264e-08
2.940453528892295975e-08
2.487305435091500443e-08
2.057078907966099853e-08
1.671659573933915672e-08
1.340270851834876919e-08
1.060257946474772025e-08
8.237386134839557230e-09
6.268926627797643058e-09
4.715314545098438428e-09
3.556617767298246822e-09
2.688044298908386165e-09
2.032423403781573368e-09
1.552748175413057888e-09
1.195488167746154608e-09
9.287424338791122959e-10
7.259263752992821936e-10
5.689557414009573545e-10
4.452813729106195388e-10
3.464811689674607033e-10
2.669670911797072282e-10
2.029638389693330178e-10
1.518129369252166424e-10
1.114764502841916950e-10
8.024399994799481337e-11
5.658505144336026639e-11
3.909177054977701046e-11
2.647981249576610861e-11
1.761274624439746523e-11
1.152552118852664204e-11
