# bin_9_8
4.483903697699482065e-08
4.057271996593852762e-08
3.573126604663808693e-08
3.063318131314646118e-08
2.562352325312253013e-08
2.100340520330146609e-08
1.695333744511257576e-08
1.350835810766616360e-08
1.059852927600172356e-08
8.148332112824872473e-09
6.151238315923758487e-09
4.621589639840737965e-09
3.486487705823340877e-09
2.626812792388554092e-09
1.989178759726950377e-09
1.520442112168857914e-09
1.171516961536159190e-09
9.095679926492076602e-10
7.096693342052099458e-10
5.543298545800854461e-10
4.316778263238783048e-10
3.337603430630875568e-10
2.552356018256262651e-10
1.924271253226547123e-10
1.426584347162950246e-10
1.038059003777398976e-10
7.405270313962818616e-11
5.176947472461672360e-11
3.547710634589140197e-11
2.385554678477951831e-11
1.576397290689773794e-11
