# bin_12_4
3.408893902064526222e-08
3.003434151910745275e-08
2.574518572527351552e-08
2.152182328540037204e-08
1.763139869289253717e-08
1.423268454497978825e-08
1.135149054854667864e-08
8.913232490333044389e-09
6.846908279482436478e-09
5.162673199698835642e-09
3.887924577614381421e-09
2.943552973102541510e-09
2.222724970904629911e-09
1.693526117748083011e-09
1.301876397931745872e-09
1.010631372724060395e-09
7.906262623929662783e-10
6.215024629773324653e-10
4.888460082249463326e-10
3.829881348889281549e-10
2.975665243453152544e-10
2.283736600867825700e-10
1.725561628309946301e-10
1.280312093304974445e-10
9.311216408730621000e-11
6.630638824400864919e-11
4.622546369398474918e-11
3.156878557452249211e-11
2.114872363503436489e-11
1.392542895941442868e-11
9.032644357250087676e-12
