# bin_18_5
4.146970718581090714e-08
3.709892672945213794e-08
3.227138679089256524e-08
2.732523898911974756e-08
2.260748642078494585e-08
1.837999836775405718e-08
1.475482909143239629e-08
1.169225232563843407e-08
9.086557322194476824e-09
6.898984011892841500e-09
5.178937869561960850e-09
3.909185053680282774e-09
2.948857006844762782e-09
2.226184913904284646e-09
1.699840622593193297e-09
1.308009804816006468e-09
1.016080817139797008e-09
7.946930977062097862e-10
6.235441433509965865e-10
4.887330844777771163e-10
3.809586089064305832e-10
2.940781733475149438e-10
2.239811793528163907e-10
1.678090244028837123e-10
1.233894373376753189e-10
8.890589183210136089e-11
6.272722199553165930e-11
4.334008993523114670e-11
2.935008887304271089e-11
1.951191618902702281e-11
1.276007390998375859e-11
