# bin_14_7
4.772235083759743813e-08
4.332650593067400227e-08
3.827065854109763928e-08
3.288918058111259355e-08
2.755694510849058603e-08
2.261426724638688818e-08
1.827348187554910755e-08
1.458349256665696375e-08
1.146364021443975321e-08
8.820832530601450395e-09
6.652130758408343963e-09
4.993427588417308608e-09
3.767369681320822781e-09
2.833155690590086451e-09
2.142961975355826650e-09
1.635520592680617220e-09
1.258982206828669200e-09
9.767331805490943786e-10
7.619277215335765720e-10
5.953666289360697120e-10
4.640390477395748511e-10
3.592509232420060830e-10
2.751774457188436482e-10
2.078434536516211946e-10
1.543855240021281004e-10
1.125541048308411896e-10
8.043718573649879808e-11
5.632169823946398285e-11
3.864732310720949248e-11
2.601374438893380560e-11
1.720286688363492953e-11
