# bin_19_1
1.685767468620527008e-91
1.886250998584790021e-91
2.071148813397553355e-91
2.221230592573662180e-91
2.312263275693309173e-91
2.322731476220133225e-91
2.222411799969721538e-91
2.006600738754492293e-91
1.712576596725544763e-91
1.403618577538137780e-91
1.161758589573157827e-91
1.004117113639696950e-91
8.350535650733836957e-92
5.949263287144987345e-92
4.385352157642883217e-92
3.460965578329705855e-92
2.320688687260070459e-92
1.722912863492464953e-92
1.214837389538489390e-92
8.453769239434935850e-93
5.934342971846842257e-93
4.193652479528618726e-93
3.006107933523832013e-93
2.189939919832853481e-93
1.627477271629677869e-93
1.231262946233195579e-93
9.452474921118939635e-94
7.322759611029157313e-94
5.683363305164653654e-94
4.387393892992920437e-94
3.347153700428343457e-94
