# bin_15_6
2.364031619194169641e-30
2.628320919764290203e-30
2.863420069896850328e-30
3.041044568058418019e-30
3.126533232806924357e-30
3.094217285620097351e-30
2.901455025325986763e-30
2.570506777115606883e-30
2.153321614708580540e-30
1.759570230518341948e-30
1.479448155995744084e-30
1.280801397092117244e-30
1.015408003152541750e-30
7.022337584727024483e-31
5.539119304782117311e-31
4.033524566503911696e-31
2.894571028475355283e-31
2.005819523489072237e-31
1.453762170097349932e-31
1.026434631132578680e-31
7.271164996339440901e-32
5.227161170489866728e-32
3.812040447115541542e-32
2.832248178494555879e-32
2.143680895892206062e-32
1.646926132042296807e-32
1.278189843233079903e-32
9.952408002281455637e-33
7.718629003144289423e-33
5.922893860478952127e-33
4.472501762170461473e-33
