# bin_19_5
7.733713117345930126e-54
8.670849156933782894e-54
9.544210667475822164e-54
1.026703511149075165e-53
1.072932929491504393e-53
1.082547194235483512e-53
1.042453667611968230e-53
9.472479004566527012e-54
8.137994523038799060e-54
6.685231660171238918e-54
5.510882123704582776e-54
4.748185939567627242e-54
3.996057667174101260e-54
2.893432200100645843e-54
2.086038590088840891e-54
1.677934773954921514e-54
1.112977304129519721e-54
8.398170778823997700e-55
5.845970732106228471e-55
4.054232474783835763e-55
2.846415635201091086e-55
2.003800571354745617e-55
1.428249830665898672e-55
1.033329281902630074e-55
7.627699880919898080e-56
5.735955236325585183e-56
4.382602262624902704e-56
3.385566278945552167e-56
2.625650844560765067e-56
2.029457327477776208e-56
1.552799344732157601e-56
