# bin_18_12
2.965613433332250357e-17
3.340744381983295764e-17
3.698276374585503566e-17
4.006472318915453025e-17
4.224065786830358480e-17
4.304312096794509851e-17
4.206916324866056747e-17
3.884541526621195792e-17
3.391650345790256757e-17
2.809168578518643672e-17
2.300390875666244775e-17
1.960436214860869295e-17
1.684725196767109038e-17
1.275900048132160899e-17
8.860456303852246186e-18
7.208067519498995167e-18
4.873300740028897655e-18
3.674481268853399194e-18
2.485953870254019514e-18
1.735297846680791757e-18
1.215508968445842513e-18
8.514097309534663268e-19
5.991655677238948999e-19
4.263462609856576098e-19
3.092450058626559323e-19
2.287309668261908263e-19
1.723192913199021790e-19
1.318354006215251503e-19
1.017923047271384171e-19
7.875157409931341649e-20
6.059763974793466692e-20
