# bin_13_13
1.158852542346375617e-10
1.297307237451672168e-10
1.425329546469902604e-10
1.529752933307103130e-10
1.593965231467746205e-10
1.602922339252599473e-10
1.536095016259358053e-10
1.389055599635622135e-10
1.187406328054018241e-10
9.736753718235262724e-11
8.050605540993924002e-11
6.953653346235726443e-11
5.800439947642830262e-11
4.147815573540102334e-11
3.040832171429041628e-11
2.412069502032418343e-11
1.612075900988487324e-11
1.202315433884608115e-11
8.450487341182373373e-12
5.875169335198153777e-12
4.124273493204110427e-12
2.911422950571096132e-12
2.084112751312258695e-12
1.515797434265616165e-12
1.124705461970415755e-12
8.497061503788602521e-13
6.516213139675508389e-13
5.044960025570733980e-13
3.915031184787034705e-13
3.023328726330883900e-13
2.308184157920520269e-13
