# bin_20_5
1.904023219496289642e-58
2.139143577326127892e-58
2.360508419008873742e-58
2.547151723196596029e-58
2.672251071489362444e-58
2.708000263725964261e-58
2.624882789181609309e-58
2.401534211367221242e-58
2.077661964568626557e-58
1.712081649103397567e-58
1.406384340127137501e-58
1.206532399757108568e-58
1.026214740245697718e-58
7.573178761108473699e-59
5.349507017953561120e-59
4.354412382770323641e-59
2.885938304451059476e-59
2.194024353544209161e-59
1.507652873377985172e-59
1.044328536236847436e-59
7.334006268231082067e-60
5.153220273933176717e-60
3.652579426051815225e-60
2.623558210432885886e-60
1.922449530888652604e-60
1.435874045533152048e-60
1.090953351949465193e-60
8.396947986641774212e-61
6.503011390266511195e-61
5.030472127772283765e-61
3.859477568606813088e-61
