# bin_14_2
1.631896003351746552e-53
1.798864476468958613e-53
1.939231891737493983e-53
2.032623489237947006e-53
2.058104171670780752e-53
1.993088136132596707e-53
1.822089283646395514e-53
1.575252782407369654e-53
1.297637528394893631e-53
1.065932882451406866e-53
9.141258642091068808e-54
7.766581513806563459e-54
5.734121185717347636e-54
4.065688864595097308e-54
3.307830891768847496e-54
2.215110731188461395e-54
1.691086151265883472e-54
1.178621445784070773e-54
8.323814701125633562e-55
5.974172444104801154e-55
4.315490694227939442e-55
3.159837544781981453e-55
2.351945253344102289e-55
1.784656642749500155e-55
1.375180923254503435e-55
1.070572828063036568e-55
8.367723252638507792e-56
6.518508761760202086e-56
5.027569305917301531e-56
3.817130186492443626e-56
2.840139035521423874e-56
