# bin_19_18
5.899171046905067221e-11
6.690895834031705559e-11
7.468717965690874963e-11
8.174012200978168177e-11
8.728029611619109857e-11
9.032116137930793119e-11
9.009662434411820537e-11
8.533627613577689772e-11
7.630928824943328482e-11
6.447633250136359998e-11
5.273471278687950828e-11
4.400998563063709276e-11
3.814513092702596402e-11
3.100255701192903557e-11
2.160012286986382787e-11
1.650329116638277682e-11
1.247686113237274810e-11
8.562773355030701439e-12
6.054266783567303845e-12
4.302461694618368587e-12
2.951901932105478103e-12
2.017764585860681002e-12
1.389723291898628973e-12
9.652954935448383673e-13
6.792438545754605422e-13
4.869511714391231035e-13
3.560580719007677536e-13
2.657164762488429348e-13
2.017349857522203176e-13
1.549356358623176422e-13
1.194924104083092160e-13
