# bin_4_2
1.012592291856892863e-11
1.043844331379847888e-11
1.037185722256496830e-11
9.788626604955272029e-12
8.728975247429523236e-12
7.363224075246495109e-12
6.022094084949230029e-12
5.025944770920148338e-12
4.339610174270621402e-12
3.511718763080212671e-12
2.478116564124966002e-12
1.903179266772737995e-12
1.449690960225368634e-12
1.028511263676150007e-12
7.546037876110622258e-13
5.564380705028801282e-13
4.082761288271027549e-13
3.043576335922296313e-13
2.312625504953242972e-13
1.789889519571249575e-13
1.407035635308301751e-13
1.117723403965075121e-13
8.907148478921000182e-14
7.069155436928964247e-14
5.548996774140652785e-14
4.280973858272463326e-14
3.229246735741615040e-14
2.373015049788020292e-14
1.695501556379229966e-14
1.178589200009940667e-14
7.988093227131738244e-15
