# bin_16_3
2.354496658934025348e-55
2.615779542443345529e-55
2.847163343246917737e-55
3.020354391921399685e-55
3.100951296984595121e-55
3.063322908709311590e-55
2.865945585941961928e-55
2.533661887614368241e-55
2.118553420126118814e-55
1.731224148829144666e-55
1.458359699425101291e-55
1.261842508806338818e-55
9.940434041492415392e-56
6.870070268685330062e-56
5.453229373193120981e-56
3.930649500160879133e-56
2.847204136705266369e-56
1.963045739426933421e-56
1.421165760886195888e-56
1.005397427982801684e-56
7.139186523457194416e-57
5.141553309900604659e-57
3.756417004797824917e-57
2.796645831392985641e-57
2.120589447262390733e-57
1.631527736614815959e-57
1.267376071796934727e-57
9.870888460096887935e-58
7.652959362027750387e-58
5.867599652187313553e-58
4.425234635049862162e-58
