# bin_18_9
8.492587228336065969e-27
9.536400967070362783e-27
1.051671127011099971e-26
1.133954153382473963e-26
1.188496874888664196e-26
1.203102118744111529e-26
1.164272924786307522e-26
1.063361499761697380e-26
9.183390082074701830e-27
7.561105215147154501e-27
6.215989766622300654e-27
5.338839040688919693e-27
4.529845383502065302e-27
3.326597517828445366e-27
2.360648500569603310e-27
1.917812407826365783e-27
1.269637655234639253e-27
9.644957796078769502e-28
6.649309489788093785e-28
4.605302154711314509e-28
3.234153845221530123e-28
2.273200538706158047e-28
1.613457360888324122e-28
1.161010267858299265e-28
8.523450020647257797e-29
6.377341674671058449e-29
4.852552457301513888e-29
3.738656091235833780e-29
2.896626784004971227e-29
2.240386748279834274e-29
1.717757140881360608e-29
