# bin_20_3
7.144398826431737010e-76
8.018543091536410304e-76
8.837512079107953944e-76
9.521890123630926604e-76
9.970561332415831355e-76
1.008255285278991992e-75
9.741799518222934962e-76
8.882826766876972447e-76
7.658537970618723431e-76
6.300852475548336862e-76
5.184232594853593582e-76
4.457355597946985066e-76
3.772481073952880973e-76
2.757729737259078064e-76
1.966458440986201997e-76
1.593271835139387833e-76
1.054782308391990290e-76
7.999834204227248030e-77
5.532188397735732180e-77
3.832534602929030235e-77
2.691265880771215885e-77
1.892363742706691249e-77
1.344932498065413537e-77
9.694599350139177414e-78
7.129744995853313394e-78
5.343275857357698195e-78
4.071233314407869073e-78
3.139464740444617766e-78
2.433233523407819222e-78
1.881626088812763894e-78
1.441750715177336382e-78
