# bin_11_10
8.195141671490281459e-11
9.089634866332572593e-11
9.873744464789474420e-11
1.044812196583995494e-10
1.069460344039550233e-10
1.052188461712343539e-10
9.794725717195639459e-11
8.618684129356914640e-11
7.179066627464430846e-11
5.868799269595301983e-11
4.964408210678134000e-11
4.287278000197627525e-11
3.329875528843984669e-11
2.302836992574393133e-11
1.849356104058813988e-11
1.303978818753940445e-11
9.628546044524488381e-12
6.596954214822556840e-12
4.750092407130886347e-12
3.375513785676613411e-12
2.409981442140635726e-12
1.742146867994224717e-12
1.277835857415742615e-12
9.555014917013625824e-13
7.272922890955588331e-13
5.612144515028252435e-13
4.367206780501367404e-13
3.402783014396896486e-13
2.635983679526152824e-13
2.017155975512812710e-13
1.517070374523481799e-13
