# bin_10_10
1.508266214662450491e-10
1.668989960011585203e-10
1.807768008254204587e-10
1.906106860230801970e-10
1.942953282683836691e-10
1.900353573920036829e-10
1.756664897565500722e-10
1.535469512653497241e-10
1.272843230618869327e-10
1.041776967387213851e-10
8.862390784227218683e-11
7.619693211310803606e-11
5.802082446035563534e-11
4.033737515772443062e-11
3.275330480534600826e-11
2.247616660735637568e-11
1.694620859956965519e-11
1.162410528679870063e-11
8.286121555003287484e-12
5.921488787452593980e-12
4.254981040596848601e-12
3.091289265695633599e-12
2.280074578932014970e-12
1.714946378330906689e-12
1.311917521465291961e-12
1.016135319534719018e-12
7.923478441545291027e-13
6.175066923833294767e-13
4.776605563677045340e-13
3.644761291158502565e-13
2.730169029618260644e-13
