# bin_18_15
2.813037766929518069e-12
3.178697729194616807e-12
3.531962808850626393e-12
3.843781637947993166e-12
4.075584222992382472e-12
4.180754335401366866e-12
4.124449437129776433e-12
3.851311949860131745e-12
3.398472980922050819e-12
2.836968469856362856e-12
2.319010987566946695e-12
1.958201501592189731e-12
1.694073918524888239e-12
1.324820886704677060e-12
9.132628492090341033e-13
7.291440909200573033e-13
5.167409705853325621e-13
3.759253206836725806e-13
2.541030885960938418e-13
1.809603034209940328e-13
1.255279027245711728e-13
8.690480602310474521e-14
6.062945473847170177e-14
4.268421826273933086e-14
3.056536491510766536e-14
2.231866787312516540e-14
1.661658710598180782e-14
1.259588094837052547e-14
9.670917634992539945e-15
7.470009387643240360e-15
5.761083878964723619e-15
