# bin_3_3
4.697419390065379187e-10
4.838512321117947283e-10
4.802573615888148958e-10
4.526695943365825933e-10
4.031883173108170025e-10
3.397744162413030311e-10
2.779014653786444106e-10
2.321638955738670794e-10
2.003816094442569179e-10
1.616348259655441235e-10
1.140394042410550544e-10
8.783738085364726789e-11
6.660790036397988343e-11
4.743817770645286626e-11
3.473514805049482522e-11
2.561343038320506588e-11
1.880975106749148782e-11
1.403409734063974923e-11
1.067135432314991144e-11
8.264227106458129994e-12
6.499784765592330629e-12
5.164805056641820528e-12
4.116115584080483726e-12
3.266257412327880980e-12
2.562960249498684887e-12
1.976241291600885620e-12
1.489740605252068203e-12
1.093934335654701260e-12
7.810399249619649684e-13
5.425613577593199088e-13
3.675228258290894774e-13
