# bin_17_1
2.207645707537032503e-80
2.456503287439169571e-80
2.678980712599802298e-80
2.848804867005862362e-80
2.933550014162920336e-80
2.909126858343441839e-80
2.734972217399418677e-80
2.428885162502654219e-80
2.039128061674538773e-80
1.666389272197779102e-80
1.398114397459128002e-80
1.210865856810874615e-80
9.667566324442161560e-81
6.696932779890942120e-81
5.240802197882359532e-81
3.860579418203505851e-81
2.741066528548084187e-81
1.913673395396499153e-81
1.386583087258820911e-81
9.769042765205311755e-82
6.903589245453856446e-82
4.952149048446258950e-82
3.603884487782619050e-82
2.671189519076575125e-82
2.017440911217035816e-82
1.547272313011680196e-82
1.199510932744449500e-82
9.336144971186918377e-83
7.242866169708779222e-83
5.562877387823845599e-83
4.206506362508395886e-83
