# bin_2_2
6.201781928220980151e-10
6.231781537379958345e-10
5.976897853549693652e-10
5.417032060331410463e-10
4.644970721022523595e-10
3.818022173006846984e-10
3.151225183560669897e-10
2.704610778417282222e-10
2.260954723572466113e-10
1.653611783534117079e-10
1.208895254843348628e-10
9.619009821506218794e-11
6.696890969182707091e-11
5.070868801334740307e-11
3.680315318817446055e-11
2.711902039401944128e-11
2.033827508446888635e-11
1.551468968516203037e-11
1.205534399691671708e-11
9.513501161031530723e-12
7.589664972114993789e-12
6.075125212483329410e-12
4.842911385085246134e-12
3.817960715961868426e-12
2.957713905940914310e-12
2.239806099138592867e-12
1.651894538816856123e-12
1.184487138288585951e-12
8.262190557443163277e-13
5.618988562661222519e-13
3.737980227879210352e-13
