# bin_2_1
2.560495023026319828e-10
2.530988131002694801e-10
2.374726343834467239e-10
2.106683792937902124e-10
1.770217022162697704e-10
1.448587428126565249e-10
1.213615348169673376e-10
1.044858051118653544e-10
8.347630298120205942e-11
5.908250513179094811e-11
4.582386485778673231e-11
3.441345357680606626e-11
2.485076127243935028e-11
1.823333725794407495e-11
1.352737076829445147e-11
1.005820854438332104e-11
7.611787577603979548e-12
5.873674988133097307e-12
4.613201052146966236e-12
3.672475295080335463e-12
2.944417598540439321e-12
2.359269997035156385e-12
1.875464689570702520e-12
1.469153463546443085e-12
1.127474991175526456e-12
8.438292626814130963e-13
6.143298780041578173e-13
4.348050316149362449e-13
2.996783836678966064e-13
2.016985993468745547e-13
1.330245124891245010e-13
