# bin_18_8
2.975326130564376659e-31
3.337650536713428435e-31
3.676235252216792794e-31
3.957854707158499726e-31
4.140298641807841517e-31
4.182217727528961084e-31
4.034225821443566692e-31
3.672219995388938074e-31
3.160555933096737009e-31
2.598260163606294127e-31
2.139724508525537584e-31
1.841688456861331203e-31
1.554520249477441313e-31
1.130963708856382929e-31
8.107095947270674109e-32
6.547650048275288173e-32
4.336675847614422143e-32
3.282220939856507539e-32
2.277142547322763817e-32
1.578166259117065758e-32
1.108116412192574400e-32
7.795507775287186851e-33
5.548199651245996206e-33
4.006562594181213870e-33
2.951987867104091790e-33
2.216075923402513787e-33
1.690864991403397135e-33
1.305058582557016189e-33
1.011827839207914767e-33
7.822835528987634240e-34
5.989930752539101114e-34
