# bin_9_15
-4.646067156541495640e-16
-5.187927045245059061e-16
-5.682174291696442823e-16
-6.074971696728804132e-16
-6.298775752335008897e-16
-6.298526230748736977e-16
-5.987903703188573272e-16
-5.373585799123405715e-16
-4.557480522563130920e-16
-3.729510679739953391e-16
-3.101101381338411083e-16
-2.684888810528292010e-16
-2.203233689399654797e-16
-1.549070927873529559e-16
-1.167413768828181769e-16
-9.005645683353002594e-17
-6.140641162645121676e-17
-4.461274186619617523e-17
-3.187426887041361693e-17
-2.227205193355257179e-17
-1.564451281207231821e-17
-1.111312378164296290e-17
-8.012102479464527225e-18
-5.875552481766872852e-18
-4.394208476179912574e-18
-3.342758716205112301e-18
-2.576845319044662359e-18
-2.000670357223566553e-18
-1.553106577488549807e-18
-1.197004407413376551e-18
-9.103364425755918363e-19
