# bin_1_12
-4.896214796109298301e-49
-5.342401982103018542e-49
-5.686809112697685195e-49
-5.865440037935620539e-49
-5.829615957567761164e-49
-5.498535494196493542e-49
-4.898654913640154047e-49
-4.125605895593424029e-49
-3.372082935378679773e-49
-2.819281661769098003e-49
-2.440263632905087696e-49
-1.967673806817564109e-49
-1.372688947485856129e-49
-1.061623879039128169e-49
-7.984651164986274777e-50
-5.625983568902402406e-50
-4.027252296283057166e-50
-2.940212135545499588e-50
-2.103013976155709997e-50
-1.517003439174581469e-50
-1.113436077533014484e-50
-8.314302174015661944e-51
-6.321337350053109993e-51
-4.884660289945843748e-51
-3.815346576026206090e-51
-2.993746739021801144e-51
-2.343230980164840998e-51
-1.816910677362970354e-51
-1.387430926126425400e-51
-1.038370830888101476e-51
-7.587901430197828517e-52
