# bin_2_11
-3.581909485907491930e-35
-3.896428064883943354e-35
-4.131894974034177426e-35
-4.241621365654875238e-35
-4.190490736978067792e-35
-3.922189074515781702e-35
-3.469264191823187476e-35
-2.902799685089576417e-35
-2.371898389552162698e-35
-1.995523014147889239e-35
-1.725410103225387156e-35
-1.363477532089325571e-35
-9.460930198223999905e-36
-7.487246909945252847e-36
-5.452978226827300415e-36
-3.954907573751682496e-36
-2.773913012718703443e-36
-2.030505076806502746e-36
-1.461209663020323163e-36
-1.060347956505832826e-36
-7.827763748396736179e-37
-5.876265438030466326e-37
-4.491908922576460008e-37
-3.485912948695948163e-37
-2.730573505374092107e-37
-2.145143530496685868e-37
-1.678140460070271051e-37
-1.298545412860520661e-37
-9.882461832247576007e-38
-7.362941389301404092e-38
-5.351675428319521682e-38
