# bin_9_13
-6.290692027528374967e-12
-6.995152450836670507e-12
-7.622518388408296411e-12
-8.097685892847576096e-12
-8.328498480398857843e-12
-8.246632755681798961e-12
-7.738261945347067556e-12
-6.860289287604370600e-12
-5.750687415549959641e-12
-4.699490019825880473e-12
-3.948849314369866097e-12
-3.418534466889920744e-12
-2.715335493254982126e-12
-1.879254854173314878e-12
-1.478712795394326474e-12
-1.080313340888104906e-12
-7.728918588288905678e-13
-5.369237575513942566e-13
-3.890639794378948528e-13
-2.745271969866043957e-13
-1.943662066863828731e-13
-1.396514023366878318e-13
-1.017999220972319350e-13
-7.559475119158175540e-14
-5.718976407889468468e-14
-4.392088605833471342e-14
-3.407903688252824383e-14
-2.653292707914658971e-14
-2.057919232469424245e-14
-1.579473550598488966e-14
-1.193069998068827127e-14
