# bin_4_9
-5.016995205439598606e-16
-5.434955506837497933e-16
-5.733739798084089178e-16
-5.849951236911771375e-16
-5.731033397697016968e-16
-5.309479872279117634e-16
-4.651314924216497968e-16
-3.862392810973375886e-16
-3.159243421758984408e-16
-2.680186032351802714e-16
-2.306637594864297569e-16
-1.771869246121238350e-16
-1.233017038479393402e-16
-9.968343366391123733e-17
-6.968856597739833263e-17
-5.231206190826440147e-17
-3.636356054779923123e-17
-2.638456439017573714e-17
-1.914489261558076780e-17
-1.402012964583660007e-17
-1.042136687991930624e-17
-7.875947216998233853e-18
-6.060236880638547242e-18
-4.726634861536244830e-18
-3.713900226052199951e-18
-2.920361797297039642e-18
-2.281753514598908008e-18
-1.760090259008776632e-18
-1.333095707017834492e-18
-9.870994258324070105e-19
-7.123373364311673783e-19
