# bin_16_7
-1.331807231972159438e-26
-1.486224203223333194e-26
-1.626595928820827925e-26
-1.737415099290433359e-26
-1.799255465644138580e-26
-1.796661450863140984e-26
-1.704733901399114311e-26
-1.527057019698250651e-26
-1.292731677457518344e-26
-1.057500329870381162e-26
-8.806377975389376316e-27
-7.626659066378422024e-27
-6.231186116381211901e-27
-4.366016904909109683e-27
-3.312606909199006136e-27
-2.536406971928836248e-27
-1.739995257623911364e-27
-1.255081695104644306e-27
-9.000497816253030110e-28
-6.297389253401983986e-28
-4.425712592196101127e-28
-3.149149391557460476e-28
-2.274298041323473393e-28
-1.671057592348363245e-28
-1.252030123670900203e-28
-9.539212348982562156e-29
-7.361787053080479101e-29
-5.718885420570298830e-29
-4.439442056955079395e-29
-3.419683260692797541e-29
-2.598187375933231882e-29
