# bin_10_11
-2.142905386533313365e-08
-2.376801905484444457e-08
-2.581859889286344034e-08
-2.732126360639507055e-08
-2.796717841791635704e-08
-2.751839563405988205e-08
-2.562061699827773578e-08
-2.254844873013430245e-08
-1.878526527836797231e-08
-1.535693234587672360e-08
-1.298791241817261089e-08
-1.121612300099040533e-08
-8.715622241611149091e-09
-6.027831343561387695e-09
-4.838375712745378241e-09
-3.414194239195648788e-09
-2.519268458945235006e-09
-1.726658501949322095e-09
-1.243561374165829937e-09
-8.835674931065163568e-10
-6.307651410863377937e-10
-4.559603612792251457e-10
-3.344378114568251697e-10
-2.500699971544955349e-10
-1.903417434920409073e-10
-1.468762002098851038e-10
-1.142948357495117971e-10
-8.905575965255560074e-11
-6.898880748919424130e-11
-5.279423195481785008e-11
-3.970688971004238187e-11
