# bin_1_16
-2.903792047788718859e-72
-3.220847090159221690e-72
-3.498868524256711315e-72
-3.702693292212418361e-72
-3.790450527147706017e-72
-3.729933435081111115e-72
-3.473040874020729432e-72
-3.056868392500051347e-72
-2.546860232181908242e-72
-2.082007271317941158e-72
-1.760678997613577250e-72
-1.520599046744641894e-72
-1.181917907197354096e-72
-8.173398497611353765e-73
-6.559929859555870159e-73
-4.630720203453900965e-73
-3.416027940932342779e-73
-2.341006354932154397e-73
-1.686376586163746583e-73
-1.198092793301963711e-73
-8.552232498035590326e-74
-6.181780153387648049e-74
-4.533898417788222933e-74
-3.389896632835439889e-74
-2.580073690351301507e-74
-1.990810541242334924e-74
-1.549156625854654549e-74
-1.207067022245670381e-74
-9.351000550167467648e-75
-7.156222384418368850e-75
-5.382541446348619018e-75
