# bin_20_6
-1.509386327443600931e-48
-1.696819555171090180e-48
-1.873813419311747192e-48
-2.023865107335702322e-48
-2.125795059500227979e-48
-2.157116378301662878e-48
-2.095253724356457582e-48
-1.921308003418513633e-48
-1.666055301080766907e-48
-1.374552950809393162e-48
-1.128072025059595565e-48
-9.661926532950091258e-49
-8.241478870517582341e-49
-6.121434313471512046e-49
-4.301114545429218322e-49
-3.505909534092468134e-49
-2.330213794202336186e-49
-1.771232386521995791e-49
-1.212097056643102768e-49
-8.400333748830161729e-50
-5.899688490568129985e-50
-4.144147145199574505e-50
-2.932504325629816163e-50
-2.101693249230502914e-50
-1.536477047305635748e-50
-1.145093608716507871e-50
-8.684132626586434932e-51
-6.675653526938155383e-51
-5.167045955728057348e-51
-3.997616661190965250e-51
-3.069432319584331222e-51
