# bin_14_7
-5.122425408419971616e-20
-5.689212069096711390e-20
-6.190303126610219203e-20
-6.564101964785175456e-20
-6.735936399040016157e-20
-6.650086275173732349e-20
-6.216992450142208707e-20
-5.492560032636386994e-20
-4.590208548777105503e-20
-3.751210863640846393e-20
-3.161730097205173489e-20
-2.734862986809128882e-20
-2.149985602611978221e-20
-1.485918629524406369e-20
-1.181607065130955551e-20
-8.489573266388671861e-21
-6.167381454385680014e-21
-4.246801790447856815e-21
-3.073277770344718775e-21
-2.175468298121329744e-21
-1.546112129327815427e-21
-1.114219512351651470e-21
-8.146391866502973568e-22
-6.069754759096714928e-22
-4.605713231514887767e-22
-3.545498006763772747e-22
-2.755115186707447230e-22
-2.146047852346380560e-22
-1.663657159520936832e-22
-1.275150685089369948e-22
-9.612492728845914150e-23
