# bin_20_14
-4.249549890403882404e-14
-4.808462329270490402e-14
-5.351705873312056943e-14
-5.836085626974448693e-14
-6.203872661935140373e-14
-6.384017512458229976e-14
-6.324360106091232299e-14
-5.936555211366610608e-14
-5.264276194917215670e-14
-4.413240444437789384e-14
-3.607087560513887159e-14
-3.032453240955995455e-14
-2.626759027210411102e-14
-2.085097286485204909e-14
-1.439178287326723311e-14
-1.132669528017393998e-14
-8.227902143918294850e-15
-5.853130505426465722e-15
-4.003490222132408428e-15
-2.864566171588630792e-15
-1.977942731480750149e-15
-1.360930311787949053e-15
-9.452824119006818684e-16
-6.622975545078597372e-16
-4.713058781292011904e-16
-3.419350116836647472e-16
-2.530076609451088793e-16
-1.907993894431835906e-16
-1.459788243590478986e-16
-1.125830495604078180e-16
-8.686550414548497767e-17
