# bin_1_2
-5.613309356229645305e-08
-5.549288731997645628e-08
-5.207624933493235109e-08
-4.620756475337777744e-08
-3.883559074610040148e-08
-3.178092634793053044e-08
-2.662096772569564963e-08
-2.291768471875314159e-08
-1.831767955861602434e-08
-1.296789168781478844e-08
-1.005202006457518731e-08
-7.553683795001279200e-09
-5.452009341113607235e-09
-4.001578726750171236e-09
-2.968446310400698617e-09
-2.206957884887584899e-09
-1.670055503284303182e-09
-1.288615378009185685e-09
-1.012021441387044151e-09
-8.056057431092942908e-10
-6.458742684904476603e-10
-5.175091583520913892e-10
-4.113836009954919011e-10
-3.222613517078982134e-10
-2.473174427770660710e-10
-1.851023902270825162e-10
-1.347625887227188969e-10
-9.538320545804885353e-11
-6.574158638522059145e-11
-4.424785960861201102e-11
-2.918252801866331600e-11
