# bin_3_3
-1.049187639825861993e-07
-1.080775740013117628e-07
-1.072871368834782505e-07
-1.011425641009466746e-07
-9.010465524847836351e-08
-7.594943874079349706e-08
-6.212266517854006191e-08
-5.188908376460799144e-08
-4.478130095826621265e-08
-3.613787300987190260e-08
-2.550485057134498899e-08
-1.963184998755673713e-08
-1.489707678191558418e-08
-1.060377311746855965e-08
-7.767783338932637799e-09
-5.727044623067905782e-09
-4.205275002093214700e-09
-3.137358038709474132e-09
-2.385405816679955854e-09
-1.847198327037797566e-09
-1.452713226519096345e-09
-1.154288549254300302e-09
-9.198909499656495752e-10
-7.299537931282424721e-10
-5.727836178406337996e-10
-4.416705248593231487e-10
-3.329535104465248592e-10
-2.445013476017157518e-10
-1.745744142328419589e-10
-1.212751303951256576e-10
-8.215223545202209948e-11
