# bin_13_16
-5.957945695492468016e-10
-6.700001348027574842e-10
-7.401797306939141218e-10
-7.998417004502813756e-10
-8.406385406132018242e-10
-8.536058648104359468e-10
-8.299802067748425063e-10
-7.619404035177234672e-10
-6.614667607087993137e-10
-5.460692940111103546e-10
-4.479678782828533069e-10
-3.833749170604142264e-10
-3.274494199705537584e-10
-2.439982541408882689e-10
-1.710548823064678908e-10
-1.394452996611211329e-10
-9.288529590935178462e-11
-7.055020968828195867e-11
-4.818180132483001488e-11
-3.341612100960781526e-11
-2.346336930963980657e-11
-1.647647409352264702e-11
-1.164860548734322484e-11
-8.338446047938145714e-12
-6.088134071659245061e-12
-4.531763944495415064e-12
-3.433157592347433592e-12
-2.637162128124730964e-12
-2.040444226859869314e-12
-1.578671603309583853e-12
-1.212574839803871195e-12
