# bin_14_13
-1.985157323098445623e-08
-2.225775810463807830e-08
-2.450070199641793055e-08
-2.635797523699968512e-08
-2.754761152487664610e-08
-2.779804787587707296e-08
-2.677498465155814600e-08
-2.433629122879689395e-08
-2.091451007381874101e-08
-1.718377407054311504e-08
-1.416312809888283829e-08
-1.219981666729437330e-08
-1.027106852016302551e-08
-7.443398291383336938e-09
-5.361733322120402388e-09
-4.314463629315337487e-09
-2.861991319649652248e-09
-2.160256751831227682e-09
-1.502813694428604646e-09
-1.042224123783008680e-09
-7.318187431879342630e-10
-5.152227571479951881e-10
-3.671941550851396859e-10
-2.656253677845894566e-10
-1.960497967436695915e-10
-1.474108220491654516e-10
-1.126199738259464576e-10
-8.699469906869403459e-11
-6.746768494868541329e-11
-5.215014625035742052e-11
-3.990463466329648006e-11
