# bin_18_19
-1.901129394672053744e-08
-2.156248452665895121e-08
-2.406888232942549696e-08
-2.634166034697054894e-08
-2.812727134349106198e-08
-2.910813461289761009e-08
-2.903760647352135665e-08
-2.750663130016307635e-08
-2.460029001342147036e-08
-2.078918559772136690e-08
-1.700437147523800647e-08
-1.418921631578571794e-08
-1.229680315835051416e-08
-9.997214206167675937e-09
-6.967523099308942816e-09
-5.320341941012278623e-09
-4.024753148873661614e-09
-2.760591062873146970e-09
-1.952954279954584891e-09
-1.387725989154383442e-09
-9.520128413784137098e-10
-6.507227829053928850e-10
-4.481380092452966858e-10
-3.112648342542576442e-10
-2.190091501669546343e-10
-1.569970429495399726e-10
-1.147881314034784875e-10
-8.565753426901515165e-11
-6.502895248363796048e-11
-4.994182139314348914e-11
-3.851685930971753641e-11
