# bin_20_9
-7.308159727263061273e-31
-8.234053252163291111e-31
-9.117241224868525462e-31
-9.879748345629312136e-31
-1.042006116542882443e-30
-1.062251728446318024e-30
-1.038902607828055215e-30
-9.600506585768080200e-31
-8.389093249519023729e-31
-6.952113157398951164e-31
-5.692008160759784992e-31
-4.847522197862974408e-31
-4.168177193111837153e-31
-3.164022370672013858e-31
-2.195217994316020790e-31
-1.784241480440290911e-31
-1.209617576101650315e-31
-9.104621322012818406e-32
-6.154746280741043395e-32
-4.300430506237385895e-32
-3.011352653317000027e-32
-2.108415177574209494e-32
-1.483031465857392372e-32
-1.054559687982878203e-32
-7.643200353184014052e-33
-5.649019728828814775e-33
-4.252968421733985604e-33
-3.252195205824002861e-33
-2.510403974313952820e-33
-1.942124608199127388e-33
-1.494717478258833537e-33
