# bin_8_12
-3.691352563009604531e-12
-4.086903745559894025e-12
-4.429701825503010066e-12
-4.674644635688856356e-12
-4.769760211225220351e-12
-4.672061101493786420e-12
-4.326375826841285870e-12
-3.788125545712419348e-12
-3.143978227160662286e-12
-2.572351201426401402e-12
-2.185117948098259579e-12
-1.880988341296432557e-12
-1.439486240374376098e-12
-9.990677742241906467e-13
-8.093249875382232568e-13
-5.588897598654938866e-13
-4.194593434079561080e-13
-2.874569121342932264e-13
-2.053896056778025027e-13
-1.466039120807697680e-13
-1.052027504802685339e-13
-7.634193626038907375e-14
-5.623320455068679128e-14
-4.223726957542604661e-14
-3.227358196263196476e-14
-2.497591072677837477e-14
-1.946659937293881901e-14
-1.517075941719533968e-14
-1.173938678316196654e-14
-8.963921280529530465e-15
-6.721055961650058321e-15
