# bin_18_8
-8.441653926986743516e-29
-9.469575438275582827e-29
-1.043017843120832405e-28
-1.122928202863878724e-28
-1.174726240868178277e-28
-1.186675965733234072e-28
-1.144818947228278967e-28
-1.042239867623375794e-28
-8.971890313201591488e-29
-7.376500331388761569e-29
-6.074262937068764697e-29
-5.227282126102679402e-29
-4.412857521114041661e-29
-3.212051392433707282e-29
-2.301557996122622835e-29
-1.859021419580406132e-29
-1.231476119240901785e-29
-9.321451757758026927e-30
-6.464585631436094063e-30
-4.480375362917311161e-30
-3.146286760910796255e-30
-2.213593069884497035e-30
-1.575421540015303522e-30
-1.137647547580221606e-30
-8.381929025750548828e-31
-6.292334850600001207e-31
-4.801023309859930329e-31
-3.705581531781505310e-31
-2.873012428859491098e-31
-2.221278525084853212e-31
-1.700867284429966473e-31
