# bin_9_18
-2.431962170755651559e-24
-2.730849745851660018e-24
-3.011561166778527282e-24
-3.247209365235133127e-24
-3.403489853133385802e-24
-3.445465552159205183e-24
-3.334642693793943267e-24
-3.046054888483334650e-24
-2.631112779664183478e-24
-2.166570154509988878e-24
-1.781033795563099640e-24
-1.529434549315321658e-24
-1.297820353687540387e-24
-9.535550940178130605e-25
-6.764395945032939107e-25
-5.495489598245449497e-25
-3.639199342720829821e-25
-2.764457886572607271e-25
-1.905233716229796781e-25
-1.319528296031302008e-25
-9.268082154223813393e-26
-6.514920278768558007e-26
-4.624096512969296381e-26
-3.327351411359590421e-26
-2.442717576018089399e-26
-1.827666590765658387e-26
-1.390678092801418735e-26
-1.071455820125936580e-26
-8.301494379779224585e-27
-6.420882908699520622e-27
-4.923151124343083402e-27
