# bin_15_11
-1.595528446925919045e-11
-1.786805564196576194e-11
-1.964022504416691799e-11
-2.109123716184021813e-11
-2.199310789090496234e-11
-2.213600067359872350e-11
-2.124098798457432316e-11
-1.923316494323766686e-11
-1.646433745600103888e-11
-1.350769998707380274e-11
-1.115893768634962723e-11
-9.631420752873472976e-12
-8.053800694887791850e-12
-5.778981471960285048e-12
-4.216935337611435665e-12
-3.358092876688794563e-12
-2.239280183532533845e-12
-1.675906073615836061e-12
-1.174642147370349172e-12
-8.161445865158793515e-13
-5.729566495714309785e-13
-4.041760670004664583e-13
-2.890005790765414025e-13
-2.099109261514090736e-13
-1.555486632271748995e-13
-1.173796417081238905e-13
-8.993376814085392136e-14
-6.959086860967243001e-14
-5.399719057082249440e-14
-4.170899186876417031e-14
-3.186115879081391891e-14
