# bin_1_15
-1.692730596666475089e-66
-1.870986314476867020e-66
-2.023753263871072588e-66
-2.130185834623471073e-66
-2.167147576139428268e-66
-2.113732626100326269e-66
-1.947671337736773910e-66
-1.697189965860892748e-66
-1.404165867510466194e-66
-1.150182155223553253e-66
-9.808083635156105559e-67
-8.408946981164678953e-67
-6.346341937859016878e-67
-4.429957000401394188e-67
-3.607261964883879403e-67
-2.450502500430315815e-67
-1.859810301764347904e-67
-1.280193316435037305e-67
-9.085808894164303939e-68
-6.506808378149175711e-68
-4.685953248964293050e-68
-3.412270124862793672e-68
-2.523449697736071044e-68
-1.903023017694342728e-68
-1.459026191233401278e-68
-1.131885907306155621e-68
-8.833137092180368414e-69
-6.883773004404753867e-69
-5.320628024754346856e-69
-4.054117218457441530e-69
-3.030926393726617001e-69
