# bin_3_9
-3.880401692461546387e-20
-4.188483465862195330e-20
-4.398796851623955851e-20
-4.464862025324692116e-20
-4.341332158215603245e-20
-3.987577784143602018e-20
-3.464131377080770178e-20
-2.861355989774795155e-20
-2.345647857004075335e-20
-2.002953827711204162e-20
-1.710824805338507225e-20
-1.283404483165041261e-20
-9.032116553868134827e-21
-7.352312854653186068e-21
-5.016577575124667483e-21
-3.827481798238499922e-21
-2.679241598420048505e-21
-1.927797428170425495e-21
-1.405473145163717809e-21
-1.034751262134401600e-21
-7.733122218083293058e-22
-5.877460985395026291e-22
-4.545703702094202252e-22
-3.558606161554499564e-22
-2.801926710751606800e-22
-2.203834797113713052e-22
-1.719355351669236496e-22
-1.322288247664094745e-22
-9.971856533749306792e-23
-7.343815823392228146e-23
-5.267437280394102481e-23
