# bin_3_12
-5.331156848188512595e-33
-5.839028111919541119e-33
-6.244830756503465537e-33
-6.479857355165176795e-33
-6.486583971832919975e-33
-6.178089219737748572e-33
-5.554659966707405616e-33
-4.720815696905730739e-33
-3.864662542643502962e-33
-3.206864932461430446e-33
-2.772861792954780961e-33
-2.286552551243275541e-33
-1.619374332851325303e-33
-1.211998653235469731e-33
-9.459027055189870680e-34
-6.462668111536349249e-34
-4.776551252865809484e-34
-3.436296297268236589e-34
-2.441451180477533262e-34
-1.754402346717040288e-34
-1.278102757242263958e-34
-9.476276351521768558e-35
-7.152221017297667723e-35
-5.493501031090518958e-35
-4.272662903507656746e-35
-3.345328723172000859e-35
-2.618721397289037648e-35
-2.034950159657383066e-35
-1.560134772866385293e-35
-1.174044146886389197e-35
-8.637126239703923098e-36
