# bin_12_19
-7.100950410981281751e-17
-8.010289331323251078e-17
-8.882295158481562293e-17
-9.642255732224455960e-17
-1.019207022878991871e-16
-1.041670130533372203e-16
-1.022498550895412214e-16
-9.489871902295972292e-17
-8.326861843623226102e-17
-6.920328669637165077e-17
-5.661170800671994368e-17
-4.804524001564928671e-17
-4.144059904250564687e-17
-3.184577250734167500e-17
-2.200780097497234508e-17
-1.778442895029870190e-17
-1.226262234292488112e-17
-9.122421468573793351e-18
-6.145850375908028142e-18
-4.329619719651227952e-18
-3.020703387561325056e-18
-2.106601681933131724e-18
-1.476782844037055775e-18
-1.045706801234299172e-18
-7.541742385967744451e-19
-5.546891291873183050e-19
-4.157645473462166371e-19
-3.168596920367086959e-19
-2.441068033309533353e-19
-1.887679247379383607e-19
-1.454300788291789827e-19
