# bin_6_1
-4.328559214141106210e-18
-4.518894856678709987e-18
-4.557344370624990625e-18
-4.391092217139786379e-18
-3.995636127952630902e-18
-3.439037712667121086e-18
-2.828322520109234281e-18
-2.327870489603706042e-18
-1.997862848512785428e-18
-1.684480227001306102e-18
-1.236409555043252500e-18
-8.917870148319307951e-19
-7.190796182206667185e-19
-4.920703198987749783e-19
-3.756649124244838729e-19
-2.690719360264731217e-19
-1.957071921984671098e-19
-1.449731657924814178e-19
-1.089246676361312985e-19
-8.332362171140111650e-20
-6.481164380171905124e-20
-5.111752776326969932e-20
-4.059959980428817381e-20
-3.223967258023270963e-20
-2.541642393360223911e-20
-1.975959858451045144e-20
-1.506303370489031398e-20
-1.120832343015745996e-20
-8.116295374110808531e-21
-5.715330461406555316e-21
-3.918634110359053103e-21
