# bin_7_8
-2.485576999360364774e-08
-2.710705809855847843e-08
-2.883631987759639743e-08
-2.971873964159924653e-08
-2.950796749019066677e-08
-2.779681787647188696e-08
-2.473510259572737962e-08
-2.080937723049119993e-08
-1.700764958743592718e-08
-1.423404161384801787e-08
-1.231864569817807073e-08
-9.900487845113879007e-09
-6.900433180520012907e-09
-5.357001468885221657e-09
-4.008059587019298861e-09
-2.837543815282322369e-09
-2.024135161271084141e-09
-1.478452276554753272e-09
-1.058480187197729703e-09
-7.642577311322246865e-10
-5.614526890856956063e-10
-4.195989546760605899e-10
-3.192924382963440867e-10
-2.468927604829093892e-10
-1.929314702650261690e-10
-1.514134268886333311e-10
-1.185014930885751530e-10
-9.185342264121580205e-11
-7.010247048260091190e-11
-5.242734000989210051e-11
-3.827820924321328145e-11
