# bin_3_15
-8.173511017989471831e-48
-9.052314312133322125e-48
-9.815537743587850769e-48
-1.036346822020874379e-47
-1.058037911535025320e-47
-1.037220147766711303e-47
-9.613961852936673067e-48
-8.425624741772889799e-48
-6.997160300851898421e-48
-5.723729493087111216e-48
-4.858453980803033550e-48
-4.185408532913753268e-48
-3.211508351164361505e-48
-2.226593573135025776e-48
-1.801845988694851838e-48
-1.248293082771300383e-48
-9.348079929546896870e-49
-6.400832570611470451e-49
-4.579697601089633269e-49
-3.266790197169525220e-49
-2.342601687514561109e-49
-1.698831898865166698e-49
-1.250414700471809750e-49
-9.384773413408143300e-50
-7.166279931161929144e-50
-5.543230242445215477e-50
-4.319434582138992377e-50
-3.366242609304185220e-50
-2.605437069471001943e-50
-1.990263601134477893e-50
-1.493112541749183670e-50
