# bin_17_5
3.970444996375963075e-35
4.431172950917400706e-35
4.850136537252477204e-35
5.181071556264928633e-35
5.366034378355684620e-35
5.358695830010122989e-35
5.085076488026074848e-35
4.555870894584979086e-35
3.857785231028111771e-35
3.157061771093588940e-35
2.630134080722529958e-35
2.277692044280428160e-35
1.860118768039763154e-35
1.304279342242208317e-35
9.901359844225124046e-36
7.575108588917289299e-36
5.203955349334128883e-36
3.751993081043418185e-36
2.689503221413625751e-36
1.882226899305608949e-36
1.323401347384063062e-36
9.418421264545408467e-37
6.802336399962188458e-37
4.998458568252639128e-37
3.745215562695087864e-37
2.853524017962631738e-37
2.202167225770308692e-37
1.710673981337542907e-37
1.327912898669761594e-37
1.022848472906035931e-37
7.771098212374296529e-38
