# bin_18_8
1.801707416984239740e-25
2.020958679053744059e-25
2.225755282250670261e-25
2.395958437140991258e-25
2.505983293423040716e-25
2.530885242824859225e-25
2.440639383839518453e-25
2.221209902067344391e-25
1.911449678294991990e-25
1.571775409900896026e-25
1.295220411496494322e-25
1.115104885582959014e-25
9.402983892198046572e-26
6.836038178674693019e-26
4.911387472802855498e-26
3.957892412969908769e-26
2.627002135926905050e-26
1.984374090597680716e-26
1.378170159617823504e-26
9.557853131657276108e-27
6.711903642613023886e-27
4.724588103133345357e-27
3.364553482283420961e-27
2.431365817274043769e-27
1.792583399582086995e-27
1.346500307608633114e-27
1.027862471064575785e-27
7.935618989518423577e-28
6.153164726784862681e-28
4.756837764933998140e-28
3.641449960253836823e-28
