# bin_10_14
7.687293064385373846e-08
8.500062631177388991e-08
9.198334593574534618e-08
9.687482659886451253e-08
9.862656529951291210e-08
9.627934454744695127e-08
8.883224762388383150e-08
7.750415706490232872e-08
6.421831037226090784e-08
5.263437596222618928e-08
4.483957013472522090e-08
3.842315391018663042e-08
2.911098326855615645e-08
2.037155309301792084e-08
1.648337603742083383e-08
1.131605457026426261e-08
8.508938424937590152e-09
5.874964889766985098e-09
4.185736207530634606e-09
2.991053751945633317e-09
2.149466230941439050e-09
1.563862052904913397e-09
1.155557333002361413e-09
8.705459644924782414e-10
6.668161912822047725e-10
5.169150955580920151e-10
4.031930394869271916e-10
3.141486882525826641e-10
2.428328185929374237e-10
1.850933502120880871e-10
1.384566733948428955e-10
