# bin_3_10
3.815997113780050621e-07
3.925471655115562749e-07
3.888215003706841157e-07
3.658538462125047231e-07
3.254562292511940093e-07
2.743466116971458680e-07
2.248762433192235728e-07
1.881896239962619962e-07
1.617501673252510427e-07
1.297473583034215536e-07
9.248181774399206928e-08
7.098877673181091911e-08
5.357253121961190519e-08
3.838491195853751986e-08
2.818262593285456490e-08
2.066524498581951580e-08
1.520341386023852493e-08
1.136431086002196715e-08
8.648642322842903984e-09
6.700620544654892613e-09
5.270753669851345132e-09
4.187565365630504542e-09
3.335924688520934684e-09
2.645440266096899559e-09
2.074085427320769369e-09
1.597793387322541392e-09
1.203362158032300251e-09
8.829715502152858312e-10
6.301243598474045906e-10
4.376335915164131769e-10
2.964435565136353945e-10
