# bin_10_10
1.075675354380047817e-08
1.186471571186592349e-08
1.280032730571347272e-08
1.342959366052378598e-08
1.361285346319332693e-08
1.320432438804487391e-08
1.209547664963516440e-08
1.047825257481281097e-08
8.644923629090639617e-09
7.100999466065367869e-09
6.081491469588758876e-09
5.173693833009572632e-09
3.841297416028640165e-09
2.719329734001616281e-09
2.206288432290382957e-09
1.488405099911140455e-09
1.130967440850193030e-09
7.865453323336758775e-10
5.569450972425682138e-10
3.993804633690670874e-10
2.882829475017711590e-10
2.108378210549545661e-10
1.567168402811264698e-10
1.187525607496200045e-10
9.140031703991610243e-11
7.109566858634299537e-11
5.554570334156793511e-11
4.327071135017272068e-11
3.338681905139430780e-11
2.536698014428838765e-11
1.889324067784357509e-11
