# bin_4_12
3.256100672210281590e-07
3.414730171169523655e-07
3.461972507389948411e-07
3.361480781360266805e-07
3.086945798653831027e-07
2.681470220258347954e-07
2.219568661354033225e-07
1.823704419119591570e-07
1.554073535521926036e-07
1.319573583865984334e-07
9.950854401132183423e-08
7.100736121649182197e-08
5.670251765381748239e-08
3.987988788921472891e-08
2.987064669431844856e-08
2.133918512054836862e-08
1.560553732329100126e-08
1.150377144393596283e-08
8.597313161621034505e-09
6.540904631680286898e-09
5.061547034628335226e-09
3.975137061029367253e-09
3.148825672784874880e-09
2.498037214200362321e-09
1.970813201132088824e-09
1.535831640319560473e-09
1.175280788370588716e-09
8.789748206735560930e-10
6.403361101406713939e-10
4.537847884692424560e-10
3.130498270598535526e-10
