# bin_8_13
1.203250286429808403e-07
1.315667520338905325e-07
1.404158803016814445e-07
1.453168837781153317e-07
1.449930594773000042e-07
1.375180782291900882e-07
1.231810275137762665e-07
1.043364055119926537e-07
8.542863659233657875e-08
7.116020785592571431e-08
6.150237480643202156e-08
5.017174859212835421e-08
3.542720303794312415e-08
2.686930920010035675e-08
2.060293094719011999e-08
1.431048076245940862e-08
1.043490842681396388e-08
7.532444742374697934e-09
5.370106324408141358e-09
3.869782768674537350e-09
2.829084476355043537e-09
2.103884975700016391e-09
1.592763102265855056e-09
1.226386800616148387e-09
9.554438570097240852e-10
7.486394455047910226e-10
5.858980736033091751e-10
4.547882049903353300e-10
3.480280120974936802e-10
2.612573604285068662e-10
1.916397819332858288e-10
