# bin_10_11
2.578487478878511047e-08
2.847302864919610580e-08
3.076134473881776866e-08
3.233035962186708310e-08
3.283690228574279283e-08
3.194528357070146479e-08
2.935827433926934773e-08
2.551561405627576492e-08
2.108980021943130780e-08
1.730369921731448903e-08
1.478506569615922255e-08
1.262419687913276033e-08
9.458644732984956618e-09
6.654852108580218635e-09
5.399862744058201654e-09
3.666096245390059198e-09
2.777120589541225742e-09
1.922984165154271827e-09
1.364878783598884060e-09
9.775008505370402375e-10
7.043726813444178540e-10
5.139453581997557318e-10
3.809909981731677427e-10
2.879504923787286997e-10
2.211579543071987853e-10
1.717740037163228062e-10
1.341138334231487648e-10
1.044915010317899724e-10
8.069437551107058824e-11
6.140214189836615170e-11
4.582351082765766322e-11
