# bin_11_20
1.194363461433878245e-07
1.327035286966810556e-07
1.444600364792270840e-07
1.532726229326896874e-07
1.574113263695305877e-07
1.555347858321446859e-07
1.455889812028419757e-07
1.287852748061593321e-07
1.077975779050475682e-07
8.816283041388087709e-08
7.425848033274477987e-08
6.418757224542624930e-08
5.060864014279796044e-08
3.512086304186894443e-08
2.775359820782265619e-08
2.006397605254994637e-08
1.448520732170836446e-08
1.006680805388233012e-08
7.256014700096908653e-09
5.131902661037826592e-09
3.644658149377099017e-09
2.623192728365554676e-09
1.915836579401121587e-09
1.425642153279444923e-09
1.080477932553107702e-09
8.309027904119192103e-10
6.451754611356182507e-10
5.023313549278919767e-10
3.893855393127462644e-10
2.985288432666666278e-10
2.251585895602720285e-10
