# bin_12_17
7.146561876720141893e-08
7.969424040112172573e-08
8.714355110312790425e-08
9.297621955621252135e-08
9.614969167663670715e-08
9.583755169905960019e-08
9.072709084484168423e-08
8.110841674146941580e-08
6.854568755175764563e-08
5.609128691145954475e-08
4.681989140695060694e-08
4.053095160502230176e-08
3.289762016638326993e-08
2.303146682528135877e-08
1.760789252681110581e-08
1.333765816490454008e-08
9.247798119776645678e-09
6.619180859166235022e-09
4.749390523512554762e-09
3.329814061276371525e-09
2.345678042280122186e-09
1.672748613872774894e-09
1.210375878389591184e-09
8.913005933314867245e-10
6.691283539100351260e-10
5.106243866603957481e-10
3.944750790090522256e-10
3.065445644961999358e-10
2.378869193350202235e-10
1.830793047118726319e-10
1.389135866851021614e-10
