# bin_3_8
3.210314919529506773e-07
3.301067652438063640e-07
3.268039241480095131e-07
3.072946795383781912e-07
2.731853551656658915e-07
2.301528437523430241e-07
1.886397052488436577e-07
1.579386790133637936e-07
1.357395813723680833e-07
1.087209406870106676e-07
7.744727902050063074e-08
5.954131574649494870e-08
4.485163852858289763e-08
3.217604994185286813e-08
2.360417856017841175e-08
1.731619868650059751e-08
1.274353812949539105e-08
9.528620524188558034e-09
7.254381574450410873e-09
5.622429417440099232e-09
4.424000743841885036e-09
3.515507576196076328e-09
2.800741620554124743e-09
2.220914153032072324e-09
1.740951552533526364e-09
1.340795776356754730e-09
1.009448460045914758e-09
7.403838610329659967e-10
5.281432559765419498e-10
3.666572669293116356e-10
2.482768794097130095e-10
