# bin_5_17
3.208191324773858746e-07
3.414246623228724620e-07
3.522483847994701501e-07
3.501619281640087257e-07
3.307018267402107334e-07
2.951192654762826481e-07
2.492363166060445074e-07
2.041016677264557888e-07
1.704539988230925850e-07
1.470164420898913050e-07
1.188347065798030494e-07
8.414009202887547286e-08
6.439209525498848134e-08
4.887279430152198840e-08
3.457765352439947959e-08
2.525920864059867137e-08
1.840370316611456465e-08
1.335057830452570976e-08
9.818890092835408031e-09
7.343105597594702431e-09
5.590898924631777103e-09
4.329275831625628279e-09
3.397316427821774570e-09
2.684039054474470853e-09
2.120183037319646864e-09
1.662873062367593005e-09
1.286476135215409139e-09
9.763843569183362263e-10
7.238133186262087288e-10
5.225444265943878400e-10
3.670603111205613178e-10
