# bin_17_10
1.891655606874415253e-17
2.122238107757481925e-17
2.337815118686979489e-17
2.517276555232666890e-17
2.633783460867661014e-17
2.660990281196112936e-17
2.567595267535326870e-17
2.338155390685001912e-17
2.013323303235003416e-17
1.655981767409872080e-17
1.364172866985209392e-17
1.174044290320024356e-17
9.909539853345610137e-18
7.216182039874604271e-18
5.174883546849742408e-18
4.175243938702053346e-18
2.770533693967285111e-18
2.094535373031811082e-18
1.453015441690956222e-18
1.007534847135688852e-18
7.075454603424624031e-19
4.979431065305760430e-19
3.544248446985476751e-19
2.559572184214686725e-19
1.885884298770232115e-19
1.415740561412307752e-19
1.080191705165546099e-19
8.337029594179431301e-20
6.463672057844875893e-20
4.997278151861146332e-20
3.826451425888439507e-20
