# bin_19_1
7.326505122743894746e-68
8.197309151089882084e-68
9.000119615488447406e-68
9.651277483034085924e-68
1.004532875358619974e-67
1.008913670796507990e-67
9.651199185457362733e-68
8.713139312723291993e-68
7.436113092931743667e-68
6.096771575792130724e-68
5.049471266531574204e-68
4.364307223489757814e-68
3.625842495185776384e-68
2.582971752293003406e-68
1.907175361302377965e-68
1.502090256498424108e-68
1.009466340785929309e-68
7.478855248172686009e-69
5.278651901862657103e-69
3.675274558823465573e-69
2.580629754908860631e-69
1.824894090355631922e-69
1.308798628888301878e-69
9.539845813863361368e-70
7.093278632294744031e-70
5.368752911227829886e-70
4.122943778430564369e-70
3.194542903779194967e-70
2.479390610828635980e-70
1.913781229658917638e-70
1.459693203282311996e-70
