# bin_15_9
5.427595636903852368e-16
6.058186040740993674e-16
6.632024010802019996e-16
7.085930095742969250e-16
7.340746984406968655e-16
7.332874150060967132e-16
6.961307869879696047e-16
6.239254513878757227e-16
5.285312243754210624e-16
4.325633423010376556e-16
3.602530642415127806e-16
3.119579807383884639e-16
2.550017062098618111e-16
1.789340217106042432e-16
1.356426939398185749e-16
1.039386123105579597e-16
7.131272583061530955e-17
5.149261275210276046e-17
3.688278030543199695e-17
2.580485830529133911e-17
1.814149714641221889e-17
1.290642482392118564e-17
9.318139474959719563e-18
6.844299608898032592e-18
5.126281757743174646e-18
3.904494949226310247e-18
3.012523285497331885e-18
2.339892691980009811e-18
1.816349078701636194e-18
1.399233373632926697e-18
1.063284372146397247e-18
