# bin_20_19
1.921604996664460358e-09
2.180721152333485449e-09
2.435959667726852577e-09
2.668303561456328103e-09
2.852220627679123122e-09
2.955679359350286765e-09
2.953073101131464144e-09
2.803317983552524724e-09
2.512218027127628918e-09
2.127559416691365173e-09
1.741402493985318070e-09
1.451336835840995086e-09
1.257564718583342031e-09
1.026805303301132080e-09
7.184400868437391793e-10
5.451112851462547643e-10
4.154308112393358859e-10
2.834195733507562399e-10
2.020678568636662405e-10
1.430180775350290110e-10
9.801488226780814378e-11
6.699210515218821726e-11
4.606000774442128075e-11
3.193354819728581962e-11
2.241639145495713952e-11
1.602760139555507398e-11
1.168714055839755145e-11
8.699442496077919255e-12
6.591259140419245019e-12
5.055655277577914827e-12
3.897370694717955786e-12
