# bin_14_12
3.931921738827564437e-10
4.396577904491980931e-10
4.823562956410753298e-10
5.167755986611796321e-10
5.372367515913460847e-10
5.388442842375884912e-10
5.144605241471924653e-10
4.635976307208195281e-10
3.948985440451383033e-10
3.236077511300293108e-10
2.683819616969053491e-10
2.321017942532798021e-10
1.920684817256467103e-10
1.362718424316121697e-10
1.012860375639207795e-10
7.924750363265975730e-11
5.350947408204370032e-11
3.940217537316334944e-11
2.791557097409205510e-11
1.945890488923588679e-11
1.366585302694059571e-11
9.677613078943225068e-12
6.952290326850998213e-12
5.077413495907828328e-12
3.782330352223000135e-12
2.867434362458826484e-12
2.204757909546869888e-12
1.709425303398625058e-12
1.326838699482166040e-12
1.023665718333394374e-12
7.800536005103040488e-13
