# bin_20_17
8.575981336969565526e-11
9.721136131405784427e-11
1.084308355091367801e-10
1.185608300917424238e-10
1.264502477872638042e-10
1.306628070888325442e-10
1.301041652742885308e-10
1.229379987698022587e-10
1.096991810931029443e-10
9.250762970780887975e-11
7.566970931097382299e-11
6.329936398474381529e-11
5.486117972760877270e-11
4.429744037091806858e-11
3.078036062201668899e-11
2.372730717599717490e-11
1.773794278879813258e-11
1.229926162155362303e-11
8.609744247216111587e-12
6.136133854740569090e-12
4.218045755724057280e-12
2.888134705875302353e-12
1.994269579903503952e-12
1.388784524307600403e-12
9.804927622893534636e-13
7.054051493568821669e-13
5.176236214152213099e-13
3.875136713446780010e-13
2.949035738591766011e-13
2.267917064089737098e-13
1.749468322293549257e-13
