# bin_8_11
8.240530620340596320e-08
9.006520631265576815e-08
9.607100762643375050e-08
9.935611019982114220e-08
9.905337701927976495e-08
9.384095038870056436e-08
8.396618976219327654e-08
7.104446925789036895e-08
5.815630049333898545e-08
4.848297279481383170e-08
4.191106659366112498e-08
3.410428773523446584e-08
2.403540192207113475e-08
1.829671139319295105e-08
1.397465972314283944e-08
9.735467348402706038e-09
7.077460909791817460e-09
5.116947472364538686e-09
3.650521566199684203e-09
2.631697374046890974e-09
1.925450681964858703e-09
1.433077460335705911e-09
1.085869371014579807e-09
8.366979636187565956e-10
6.521872858793085027e-10
5.111636640104081722e-10
4.000489382846140547e-10
3.104543548364441219e-10
2.374689784696265969e-10
1.781507004055152563e-10
1.305769949157160408e-10
