# bin_14_16
2.728981183346435376e-08
3.061029762148381582e-08
3.371159653825206395e-08
3.628873710859546086e-08
3.795404774790594075e-08
3.832977232167781477e-08
3.696320709904666080e-08
3.364356579639019433e-08
2.895495608626395565e-08
2.381466655274579685e-08
1.962713665697869027e-08
1.689276993298755476e-08
1.424012560337344185e-08
1.036157159540225338e-08
7.447081322894899271e-09
5.990807079253613152e-09
3.986600985737023726e-09
3.004959345160808264e-09
2.086615744029480098e-09
1.448067424554027383e-09
1.016841932914162355e-09
7.160079514711597029e-10
5.098744967552392963e-10
3.684102072014869743e-10
2.715724511406156621e-10
2.039533615963605662e-10
1.556583234924799721e-10
1.201526006137437371e-10
9.314862856684764744e-11
7.200106328250688785e-11
5.511374629972708713e-11
