# bin_17_15
4.492189847970494301e-10
5.064765447208063883e-10
5.612548864707518893e-10
6.087909932564914632e-10
6.428556687883838229e-10
6.562635342661194628e-10
6.430578748893081330e-10
5.956160017572180567e-10
5.216155891676466180e-10
4.330265880896148067e-10
3.545328902958389912e-10
3.014866629074382861e-10
2.595785740622678957e-10
1.982430689328401070e-10
1.374067929003698924e-10
1.113066699139938747e-10
7.615601981111797462e-11
5.694727699866984788e-11
3.847358167612359995e-11
2.700217000265309078e-11
1.887024844427668706e-11
1.318283566658740952e-11
9.257727417526440636e-12
6.570069487502831115e-12
4.750549474204397136e-12
3.502754029737196417e-12
2.631400936626650362e-12
2.008824282466238394e-12
1.549065483929352911e-12
1.198078870167182364e-12
9.224788704056677065e-13
