# bin_3_20
5.276448094037749476e-07
5.431065587719580932e-07
5.383613590836237688e-07
5.070546158693434671e-07
4.514943554439703574e-07
3.809088184859677774e-07
3.122515824887704905e-07
2.611322041214241954e-07
2.244681832476400852e-07
1.804472999221063248e-07
1.287338435909037161e-07
9.859146285011009311e-08
7.460078041565344375e-08
5.335602820603868699e-08
3.922240544170974093e-08
2.874063162983670324e-08
2.113478830571827047e-08
1.579061850646610533e-08
1.201055304233734766e-08
9.300408507991977624e-09
7.312486356203532738e-09
5.808064467833485099e-09
4.626384668125451798e-09
3.669078702893406965e-09
2.877354362175934356e-09
2.217478783163966693e-09
1.670936491236176860e-09
1.226786063139308711e-09
8.760262586651061744e-10
6.087752276418853904e-10
4.125854385789661321e-10
