# bin_15_20
5.302093131500548153e-08
5.966721689654292653e-08
6.597279631654769270e-08
7.136381784420162139e-08
7.509869146428512935e-08
7.636797998663856437e-08
7.440618214762059414e-08
6.847526128245313178e-08
5.959105318712628815e-08
4.928462053343118016e-08
4.042676617319617530e-08
3.454189629490551793e-08
2.955185431891035174e-08
2.216928100091075407e-08
1.551840713966832586e-08
1.260553419036473314e-08
8.479626349289764201e-09
6.399518655081240457e-09
4.360848470808158249e-09
3.038241148768604759e-09
2.129555008140606486e-09
1.492939467119383979e-09
1.053670689079296398e-09
7.526193675244111932e-10
5.481252905416323398e-10
4.069957408407866866e-10
3.076509247242698404e-10
2.359278151770256647e-10
1.823693174012373196e-10
1.410699043788671059e-10
1.084123376570258402e-10
