# bin_4_10
2.811885427682679329e-07
2.948151960018867985e-07
2.988086051070264599e-07
2.900183736837530793e-07
2.662132082338128470e-07
2.311441914901484260e-07
1.912784014059586976e-07
1.571857457265035902e-07
1.339852853738978327e-07
1.137149526323105789e-07
8.565471290646704808e-08
6.116009249394616728e-08
4.884419169004792574e-08
3.432591407972848974e-08
2.572363956372938764e-08
1.837869079183733477e-08
1.343948716845704748e-08
9.909258826372818517e-09
7.407629508368328420e-09
5.637303326218212657e-09
4.363410005964958144e-09
3.427540741031023478e-09
2.715390412138673028e-09
2.154263748057972985e-09
1.699514662960361057e-09
1.324243913111439062e-09
1.013167054767316926e-09
7.575422491864865263e-10
5.517130199704550332e-10
3.908646450390602902e-10
2.695677477127503120e-10
