# bin_8_1
3.460687597033934847e-24
3.678203420350666933e-24
3.788116833480409484e-24
3.758348998397557569e-24
3.538584611795086598e-24
3.148046935544032474e-24
2.649104361195653759e-24
2.166413580371620421e-24
1.813329578850244238e-24
1.567132223396053553e-24
1.258645286804105083e-24
8.823740403364732602e-25
6.845557576357951169e-25
5.138249344446244333e-25
3.663638106136226993e-25
2.645636627451249654e-25
1.943332683543237093e-25
1.412091571511193272e-25
1.039119325596043553e-25
7.787661770987617274e-26
5.942794343190217970e-26
4.612057123397460727e-26
3.625482993630127733e-26
2.867506387268599272e-26
2.266155077086985337e-26
1.776972127571791822e-26
1.373580018388312490e-26
1.040995035843242387e-26
7.702008972080917984e-27
5.547030657649842055e-27
3.886331059788649795e-27
