# bin_4_16
3.866329092963775489e-07
4.055679096655140876e-07
4.112960929332252154e-07
3.995174842145969606e-07
3.670521891297186961e-07
3.189786365922710497e-07
2.641005579792245069e-07
2.169672213568592365e-07
1.848353270489556146e-07
1.570173583853536266e-07
1.185398606695213607e-07
8.453477395816149216e-08
6.749767536906337137e-08
4.750950553195418504e-08
3.556748289132948640e-08
2.540608222457480052e-08
1.858108873907881751e-08
1.369418900401636133e-08
1.023160814838919833e-08
7.782201918238097997e-09
6.020593461390373043e-09
4.727382357209842900e-09
3.744245373074517450e-09
2.970286504689906666e-09
2.343502063623709207e-09
1.826494427228453037e-09
1.397980044423976298e-09
1.045789455116044461e-09
7.620796269983247440e-10
5.402195932968559812e-10
3.727821292820307571e-10
