# bin_1_13
7.567772247824303460e-07
7.296454282754429489e-07
6.664700450483237220e-07
5.766262426797064811e-07
4.779945215309146886e-07
3.946267734966032154e-07
3.353706269558866989e-07
2.806654827638023322e-07
2.120534624681529209e-07
1.546136909980422965e-07
1.205180804318100842e-07
8.732476828276150312e-08
6.473741714681877162e-08
4.745741722656957070e-08
3.531955728951264763e-08
2.661609358500975515e-08
2.042348111360931457e-08
1.596474135530551705e-08
1.266980578262910748e-08
1.015392831359897809e-08
8.157354434470174862e-09
6.519796445745309946e-09
5.148251541207873238e-09
3.991633825939770417e-09
3.023866021754444987e-09
2.230779311836242165e-09
1.600628648363127717e-09
1.117754420213344185e-09
7.613953395002063074e-10
5.074723908373226771e-10
3.320493674513978978e-10
