# bin_19_3
1.949015348102229639e-53
2.182456721459627625e-53
2.398602090399310547e-53
2.575346586909236181e-53
2.684767753413710959e-53
2.701376714801949952e-53
2.590878584050469538e-53
2.345031424005367449e-53
2.006628287331581563e-53
1.646555996831480143e-53
1.361341961348067361e-53
1.175393117981596127e-53
9.814782156632336578e-54
7.034544545162959517e-54
5.147593762441493062e-54
4.088147112604995602e-54
2.732725591547333013e-54
2.039819034113910760e-54
1.432133806034428098e-54
9.956527004909606439e-55
6.990680397644860249e-55
4.934752719156574637e-55
3.531023099241710528e-55
2.566736847754926648e-55
1.903424127959437516e-55
1.437285734353307643e-55
1.101767591049814922e-55
8.527899164864418467e-56
6.617405401231042673e-56
5.110740742087261206e-56
3.902858443073282854e-56
