# bin_14_3
2.073837239198795552e-35
2.288701537747722375e-35
2.470849290753236582e-35
2.594518085043837296e-35
2.632401111927946204e-35
2.556949375758184249e-35
2.345500963494246465e-35
2.034767671981016839e-35
1.679698517092210906e-35
1.378673390280900626e-35
1.179815206287546028e-35
1.005979413629227120e-35
7.495031475187128263e-36
5.283833005784855016e-36
4.298945463899995593e-36
2.897371361488196782e-36
2.206043889323927632e-36
1.530231013888071634e-36
1.083054031714922120e-36
7.766667405636576239e-37
5.603717333163535286e-37
4.094227238438667959e-37
3.039719379780326706e-37
2.300958259240695030e-37
1.769527714162723780e-37
1.375702138176725138e-37
1.074628243291266803e-37
8.372950148339787635e-38
6.463498760089736795e-38
4.914460266786332840e-38
3.663662890186767606e-38
