# bin_7_16
2.012464655788592128e-07
2.185076556058128195e-07
2.311727388514407519e-07
2.366868634716305521e-07
2.329317628755204333e-07
2.170786512643919500e-07
1.912438167260774722e-07
1.596388587191109135e-07
1.306362600165664783e-07
1.103116892547175895e-07
9.502876587948224146e-08
7.419726621849201444e-08
5.181777941460417846e-08
4.116304870154843913e-08
2.957752868800833838e-08
2.167264462074240828e-08
1.526154099574446731e-08
1.109401204504934850e-08
8.007024493124125380e-09
5.832146096203489106e-09
4.316753914392030289e-09
3.249546320370730726e-09
2.490466340674195849e-09
1.936403655775388249e-09
1.518452133018401743e-09
1.193077341775839232e-09
9.326350541738878904e-10
7.205704434861210727e-10
5.471869379749883098e-10
4.065777747781089249e-10
2.946303520154229806e-10
