# bin_4_6
1.346818937101807690e-07
1.409375170831281933e-07
1.425262866740844568e-07
1.378952464509270924e-07
1.261298747166614192e-07
1.091338845104804653e-07
9.012668496320815033e-08
7.414764498225179370e-08
6.334982073395034668e-08
5.356527756346219425e-08
3.998276086013109849e-08
2.869705100905497926e-08
2.293444873244949921e-08
1.601769505809422812e-08
1.205116060856547816e-08
8.618942076240213664e-09
6.298568207088106058e-09
4.652338277822297187e-09
3.485237834922085609e-09
2.658003198250454181e-09
2.061465538617741803e-09
1.621907855073264726e-09
1.286156981059736674e-09
1.020673511039902385e-09
8.049108635781416587e-10
6.265448432785330893e-10
4.786183797575515717e-10
3.571475335243663273e-10
2.595115015989843562e-10
1.834182527636085487e-10
1.262147090093554068e-10
