# bin_5_20
3.491213802535820456e-07
3.715748212031543966e-07
3.833929327639069756e-07
3.811696855213285430e-07
3.600457844180493565e-07
3.213569878391537304e-07
2.714348303499927304e-07
2.222851467806007969e-07
1.856173626972320769e-07
1.600945191028126548e-07
1.294544112225841361e-07
9.167745932212239967e-08
7.012784549769697010e-08
5.325465565506241450e-08
3.766283046165027732e-08
2.752173295003244197e-08
2.004922488730055442e-08
1.454293657416433828e-08
1.069501136590388925e-08
7.997497657278396347e-09
6.088517906860683289e-09
4.714148208272612777e-09
3.699077315697210833e-09
2.922328832510124380e-09
2.308397807569468711e-09
1.810537905907114083e-09
1.400793410670685661e-09
1.063231951288679834e-09
7.882742360488199912e-10
5.691449265326382681e-10
3.998406337464417192e-10
