# bin_15_15
6.834358329497228630e-09
7.678889176076411255e-09
8.474237971459818834e-09
9.145205244639146919e-09
9.595498036641453317e-09
9.725287427577296713e-09
9.428668041483732711e-09
8.629534170292953711e-09
7.468843514972733719e-09
6.158174699298992445e-09
5.061071603333143584e-09
4.341423751599848413e-09
3.691082271096283576e-09
2.726144636430341614e-09
1.928558932625118676e-09
1.565979099237277568e-09
1.041666799980825328e-09
7.898094162844773483e-10
5.427944480118914735e-10
3.765041064776912952e-10
2.643585401945655618e-10
1.857791405757056072e-10
1.316922703487182449e-10
9.459977340036714546e-11
6.931949792762620115e-11
5.177319321041377828e-11
3.933406034733225964e-11
3.027226977740657060e-11
2.344195641207386785e-11
1.813199831467724047e-11
1.391016748682913598e-11
