# bin_11_8
2.007568088379728436e-11
2.214063282470161717e-11
2.388271560117860608e-11
2.505171624941846019e-11
2.538761730280839781e-11
2.461691020444682733e-11
2.253953281567424764e-11
1.951719221979721937e-11
1.609701942822531178e-11
1.322303049452054109e-11
1.132920658777463769e-11
9.635474695410344978e-12
7.143573614237056758e-12
5.059138217516719923e-12
4.108405926226535910e-12
2.765668965659307373e-12
2.104742941517147569e-12
1.464456674829729537e-12
1.036137296157813023e-12
7.432499743611914696e-13
5.366467184393065034e-13
3.926090395525073059e-13
2.919395720421216053e-13
2.213037967735064906e-13
1.703868603746659693e-13
1.325676785347787900e-13
1.035867368761545090e-13
8.069691159428316932e-14
6.225890652035677262e-14
4.729544551174020095e-14
3.521660618492106819e-14
