# bin_8_10
5.940816233281914729e-08
6.489827904406347062e-08
6.918317542386565406e-08
7.149289973014489654e-08
7.120806776767234225e-08
6.737411423261938272e-08
6.020983559079320353e-08
5.088187545742047129e-08
4.164101192431351589e-08
3.474797443080767320e-08
3.004369130799471726e-08
2.437650098833068873e-08
1.714310369195875064e-08
1.310545238202604606e-08
9.963629782992064999e-09
6.966004466605780568e-09
5.046099251041793807e-09
3.654760178927037017e-09
2.609512004478364351e-09
1.882137433368840907e-09
1.378287609387826280e-09
1.026808437581562502e-09
7.788030622040697078e-10
6.005854147422664833e-10
4.684167000745898787e-10
3.672426828502826301e-10
2.874134867583725258e-10
2.229831880048096098e-10
1.704730162961024219e-10
1.277974807487138525e-10
9.358674909534449577e-11
