# bin_8_15
1.499083841069469736e-07
1.639446749717898214e-07
1.750123009123235790e-07
1.811742994675241805e-07
1.808343953038317704e-07
1.715947340002640727e-07
1.537767285798087238e-07
1.303114531350240499e-07
1.067072205739883111e-07
8.885341422807435577e-08
7.678775035338021875e-08
6.270812235011185787e-08
4.431586126242258936e-08
3.355790835873733166e-08
2.577466399262413928e-08
1.788013685344350003e-08
1.305460343847898070e-08
9.417116132234882547e-09
6.711798463352799689e-09
4.835784478279602181e-09
3.534127458514132501e-09
2.627263088189699716e-09
1.988246765102885549e-09
1.530422290631301391e-09
1.192042616378930675e-09
9.339153756684967561e-10
7.308951983285830853e-10
5.673958501624558379e-10
4.342853866357365544e-10
3.260971232498014270e-10
2.392814438712627856e-10
