# bin_17_11
2.608976301371652725e-15
2.930117288323324333e-15
3.231940422781150162e-15
3.485613527239940573e-15
3.654305607762781020e-15
3.700412614001482778e-15
3.582657896452037440e-15
3.274089911766948968e-15
2.829423188746397421e-15
2.331017400787137476e-15
1.916845644343232249e-15
1.646036375005808267e-15
1.396862544948888043e-15
1.027208026898984962e-15
7.291060836055754874e-16
5.916968973499806423e-16
3.926254729534324251e-16
2.978772196142098209e-16
2.052735354336704009e-16
1.422792318612178179e-16
9.992171566831341017e-17
7.024593973070838829e-17
4.985456788687260679e-17
3.586899237833928329e-17
2.632741304249881703e-17
1.969432706433039190e-17
1.498263731424407083e-17
1.154170483541764579e-17
8.941548109826532000e-18
6.915793316758848279e-18
5.302891101691339260e-18
