# bin_11_2
5.387360830650968318e-30
5.858607472655672836e-30
6.210177680036530550e-30
6.372162909515243855e-30
6.290746395738393965e-30
5.883056557508786704e-30
5.199924977839305261e-30
4.349267322516024610e-30
3.555751989699488509e-30
2.994798649881783310e-30
2.587757584597346095e-30
2.039093504074651741e-30
1.417043785764771752e-30
1.123128556259255487e-30
8.147827957767438691e-31
5.929497834545381534e-31
4.161698161620131428e-31
3.039968979642879752e-31
2.189641225353827646e-31
1.590666516833990661e-31
1.174965548891776706e-31
8.825730520130631927e-32
6.750525871671578080e-32
5.240998933908359460e-32
4.106441132845573573e-32
3.226243287127662849e-32
2.523553639615017370e-32
1.952148247932179119e-32
1.485008703759529683e-32
1.105785016451698789e-32
8.032178544984509436e-33
