# bin_6_1
1.437965311463859223e-17
1.499341836368991397e-17
1.509965342331243114e-17
1.451937558175345081e-17
1.318770326328187839e-17
1.133005388077749043e-17
9.316610976114448317e-18
7.682043564531076905e-18
6.597834125491516730e-18
5.538864942917382402e-18
4.050800616746501113e-18
2.943049603074756971e-18
2.356822647866824284e-18
1.621488960388159668e-18
1.230808959712554895e-18
8.849778830024807448e-19
6.445900751644858898e-19
4.776344425361768104e-19
3.592464814291397756e-19
2.751409127243533344e-19
2.142499663664633490e-19
1.691072772551499608e-19
1.343611355838249825e-19
1.066921023886064718e-19
8.407775693646794282e-20
6.531671063377070467e-20
4.974119968599680812e-20
3.696790770509679978e-20
2.673583968338377876e-20
1.880456283667696011e-20
1.287989879656241892e-20
