# bin_17
0.000000000000000000e+00
0.000000000000000000e+00
0.000000000000000000e+00
0.000000000000000000e+00
0.000000000000000000e+00
0.000000000000000000e+00
0.000000000000000000e+00
0.000000000000000000e+00
0.000000000000000000e+00
0.000000000000000000e+00
0.000000000000000000e+00
0.000000000000000000e+00
1.685515511683279499e-286
1.134340864116344834e-250
3.591883008224266547e-219
1.947526859563951872e-191
5.430145308113547960e-167
1.993415452646180652e-145
2.159210332925604511e-126
1.383078472809304816e-109
9.557224397540343520e-95
1.200202734377147894e-81
4.312726565504764998e-70
6.590508186821380303e-60
6.059295772616693097e-51
4.544958741408456220e-43
3.636344932258249092e-36
3.931560678973605859e-30
7.081380890887541688e-25
2.558182424024735658e-20
2.186148401065696432e-16
5.119977178587920893e-13
3.748443068536081146e-10
9.654471695051068497e-08
9.730774520109412913e-06
4.226824404034948304e-04
8.639850884854128471e-03
9.005769442615332854e-02
5.150662701229593576e-01
1.726210230005495117e+00
3.590137806046875824e+00
4.861715389844545321e+00
4.457374093267232773e+00
2.855678476609400107e+00
1.312870399334708615e+00
4.435168505591429722e-01
1.125702388545666149e-01
2.193006408922996975e-02
3.347534756387152664e-03
4.084129504687529976e-04
4.058651269661236544e-05
3.344590531258291455e-06
2.324238068093270919e-07
1.383599844614603578e-08
7.159338682392670715e-10
3.263985464684278243e-11
1.327634480826863826e-12
4.874077422300177846e-14
1.632417363921905896e-15
5.037037970742778384e-17
1.445006095655949072e-18
3.886416405669833093e-20
9.875563925127094635e-22
2.387756540579364787e-23
5.529320675892088507e-25
1.233728303906087543e-26
2.667090110824992543e-28
5.614859116902703477e-30
1.156535142022656377e-31
2.340832517213539521e-33
4.674076106233931481e-35
0.000000000000000000e+00
0.000000000000000000e+00
0.000000000000000000e+00
0.000000000000000000e+00
0.000000000000000000e+00
0.000000000000000000e+00
0.000000000000000000e+00
0.000000000000000000e+00
0.000000000000000000e+00
0.000000000000000000e+00
0.000000000000000000e+00
