# bin_19_14
1.699311513254360113e-14
1.920009315814552861e-14
2.133127449563723315e-14
2.321088304698658294e-14
2.460570581039893681e-14
2.523456775695095928e-14
2.488596518172096559e-14
2.322819068224132103e-14
2.049062523417517798e-14
1.710260893381415810e-14
1.398579295230630179e-14
1.181856612936480267e-14
1.022191907409254532e-14
7.979506863665180235e-15
5.503928510567893622e-15
4.401150206876981025e-15
3.109693139192459733e-15
2.268773537859137741e-15
1.532640970179322298e-15
1.090429741927459248e-15
7.569106773617457004e-16
5.245038590603302268e-16
3.661331281662856017e-16
2.579378893313062684e-16
1.848555590222667095e-16
1.350904853530799452e-16
1.006532569187024987e-16
7.634476036196832582e-17
5.863922658795034741e-17
4.530052273018390137e-17
3.493345235363769575e-17
