# bin_14_3
2.138877781372072895e-45
2.360201416732632776e-45
2.547664122153940222e-45
2.674682146842220654e-45
2.713135489301917848e-45
2.634506311966722585e-45
2.415556618715151799e-45
2.094626401527033068e-45
1.728459487980783534e-45
1.418688435530368208e-45
1.214590075098736185e-45
1.035527132193012410e-45
7.703712794289562106e-46
5.430449426085000111e-46
4.425597014002063112e-46
2.973301096678534767e-46
2.269367446524275207e-46
1.574702910784208731e-46
1.113059290091985124e-46
7.986213019032186931e-47
5.764535051369348782e-47
4.213120258288770644e-47
3.129157960280242698e-47
2.369616524797874294e-47
1.822963234776216542e-47
1.417625422367881628e-47
1.107557116791554386e-47
8.629919539239594887e-48
6.661463115183719177e-48
5.064194674709278287e-48
3.774400088109354222e-48
