# bin_12_18
8.164681123845597990e-08
9.107531550625547687e-08
9.962525725609952446e-08
1.063418620673788927e-07
1.100329426333960358e-07
1.097539169285486760e-07
1.039921283314797763e-07
9.304011017640686014e-08
7.868178276190427595e-08
6.438342943544209796e-08
5.370289395952870670e-08
4.650111914385565746e-08
3.783184164968085142e-08
2.648948765164345627e-08
2.020475701020348121e-08
1.536162777856147301e-08
1.061332456019263750e-08
7.613828912890598641e-09
5.464297282987453898e-09
3.828399372499826686e-09
2.694554214996403652e-09
1.920150711570992887e-09
1.388481895138894803e-09
1.021689901290066524e-09
7.664988680450049668e-10
5.846153856329145684e-10
4.514854465139671528e-10
3.508157107411021836e-10
2.722811378888202436e-10
2.096206683541257850e-10
1.591304866636056272e-10
