# bin_17_2
3.170459724676533464e-70
3.529201541165763087e-70
3.850620227667300843e-70
4.097061561872540578e-70
4.221929309741862624e-70
4.190479663861425629e-70
3.944094836417053276e-70
3.506658691127838856e-70
2.947249129693813614e-70
2.409468835188022014e-70
2.020510672318694790e-70
1.750125211787145345e-70
1.400768741839626413e-70
9.714242966549832780e-71
7.581798171488023507e-71
5.607216352613050316e-71
3.967890686112646865e-71
2.777935712606198541e-71
2.012462030042512919e-71
1.416924147867216506e-71
1.000609982493621503e-71
7.172498284661893441e-72
5.216195299444265949e-72
3.863164838018925086e-72
2.915574053290642343e-72
2.234785003511649127e-72
1.731845578358259518e-72
1.347774638588115017e-72
1.045708205443554940e-72
8.034201670522905348e-73
6.078293706790476972e-73
