# bin_9_1
1.066432311754333155e-34
1.142094565934608931e-34
1.187547827695380959e-34
1.191871887786818034e-34
1.139761972284807899e-34
1.028987487452036403e-34
8.783987562959123635e-35
7.202015087796134557e-35
5.958907337241713596e-35
5.141059134350283937e-35
4.275103975123935103e-35
3.065916483813042554e-35
2.264925860793684244e-35
1.795006197146698638e-35
1.225844427799449051e-35
9.222534770497921011e-36
6.645974474484507055e-36
4.781970720885170769e-36
3.497401213927180066e-36
2.595054890649856510e-36
1.961331493642853836e-36
1.508261301942430261e-36
1.177676639817431549e-36
9.278691422787012089e-37
7.326965455998772098e-37
5.758437038924001467e-37
4.473583753312174880e-37
3.415647684287904268e-37
2.550816521483822964e-37
1.856560942740594054e-37
1.314796212980248600e-37
