# bin_20_8
8.447015607604270939e-39
9.509052389097039384e-39
1.051820912108385119e-38
1.138333659325408130e-38
1.198648445200381116e-38
1.219693307495044556e-38
1.189565601600391737e-38
1.095773577705487918e-38
9.545339174235130994e-39
7.896348368801352548e-39
6.472930283945162924e-39
5.528241367484901387e-39
4.738803612960144569e-39
3.562847291802485915e-39
2.484457006453233371e-39
2.024831366820167763e-39
1.358248476540459150e-39
1.028858869618142620e-39
6.990285943592423463e-40
4.861420299542662341e-40
3.410608146115100541e-40
2.392729817613886439e-40
1.687531458710302755e-40
1.204143149252565231e-40
8.761187017216000039e-41
6.499607028382311314e-41
4.909617771952717101e-41
3.763499759815443016e-41
2.908943049637689340e-41
2.250767163173453016e-41
1.730624018400416412e-41
