# bin_9_20
1.692861064694595261e-07
1.863393092114323089e-07
2.005233126111404341e-07
2.097080487964911560e-07
2.118044299188386860e-07
2.043561669962402099e-07
1.861499882592158439e-07
1.603503072954193949e-07
1.319489535031692822e-07
1.086720389217557859e-07
9.339088836601071497e-08
7.880757757491420376e-08
5.764901870731035748e-08
4.141071317326336591e-08
3.336095427715486007e-08
2.246079520154784285e-08
1.701605467585674283e-08
1.194752344420791589e-08
8.453806711423846063e-09
6.067733131612443619e-09
4.390332983066149787e-09
3.223913945228593825e-09
2.407513985373828521e-09
1.832071030592921512e-09
1.414860627281552939e-09
1.103000363566219605e-09
8.624675654481692785e-10
6.715059286837196462e-10
5.172103076009888167e-10
3.918882833362388386e-10
2.908288340410814125e-10
