# bin_9_10
2.881222148251874840e-08
3.166411084477543256e-08
3.400705864318018806e-08
3.547567478262899048e-08
3.572882584861882022e-08
3.432821282870040422e-08
3.113397529739477130e-08
2.669981015339950624e-08
2.192856400354255053e-08
1.810137338727323170e-08
1.559533606312072277e-08
1.306998172003512808e-08
9.450994326516887102e-09
6.874506401978137257e-09
5.497354819825745110e-09
3.703828132357187395e-09
2.793523680374040258e-09
1.976915319045424547e-09
1.399100116671820581e-09
1.004763799447492489e-09
7.284214918114229428e-10
5.366183906305838906e-10
4.021927748118812816e-10
3.070632050123505620e-10
2.377442678782325575e-10
1.856463975972242029e-10
1.452433261207441499e-10
1.130285821477219772e-10
8.693334735813575978e-11
6.572453344112382052e-11
4.863681091939564411e-11
