# bin_4_13
3.437920455950993985e-07
3.607130969095567500e-07
3.658910195338705134e-07
3.555238324291578459e-07
3.266532805162844386e-07
2.838825355904726586e-07
2.349264208881068292e-07
1.928895320360640673e-07
1.643969650587057013e-07
1.398615017538488163e-07
1.054920172441192874e-07
7.501899096041146549e-08
6.017902809270067019e-08
4.214337571076511169e-08
3.169769888614844572e-08
2.257894608324642705e-08
1.650876017833054681e-08
1.217264940553197048e-08
9.096646074927976975e-09
6.919682249824998906e-09
5.353722283605271475e-09
4.204425152576165336e-09
3.330619406839059860e-09
2.642636913102433504e-09
2.085368160387309826e-09
1.625570599989190183e-09
1.244359486482757141e-09
9.309373240707621208e-10
6.783767556488013964e-10
4.808325814019120079e-10
3.317405243836475588e-10
