# bin_16_13
1.180218584245550762e-11
1.326419713473933431e-11
1.464290126606878801e-11
1.580872729447875065e-11
1.659560763457015944e-11
1.682959983591613372e-11
1.632999502729324803e-11
1.495810564423884807e-11
1.295693548076896493e-11
1.068622284028972649e-11
8.777841921032116370e-12
7.526491786067046907e-12
6.408726600904952910e-12
4.742997618637981573e-12
3.345245951683546598e-12
2.723352724634245270e-12
1.808427669417734751e-12
1.374264272284498615e-12
9.429792118432505383e-13
6.535252766790178534e-13
4.589893480359743164e-13
3.225045712555645591e-13
2.284618657804840901e-13
1.639722587093488170e-13
1.200522081344960231e-13
8.959524225526033395e-14
6.802682440255123185e-14
5.233542906830447786e-14
4.052327424682982943e-14
3.134966265093410854e-14
2.405983247200764535e-14
