# bin_14_7
1.949818886954831360e-22
2.165073890018918754e-22
2.355081389578929881e-22
2.496333628803263533e-22
2.560445452846225769e-22
2.526032391397749041e-22
2.359424370222716466e-22
2.082855669454430266e-22
1.739666700492058592e-22
1.422232546561049079e-22
1.200161225251708533e-22
1.037834113754264087e-22
8.133523602335196150e-23
5.623234170760127379e-23
4.485083506152385479e-23
3.206050359533340344e-23
2.340334057503061293e-23
1.608666266813631653e-23
1.162817747785795959e-23
8.240359259250118490e-24
5.863774943547355649e-24
4.229211112864160484e-24
3.094554014683717274e-24
2.307764307430001999e-24
1.752469389028275884e-24
1.349859033540021387e-24
1.049316660734596520e-24
8.174180763623568772e-25
6.335760646487459918e-25
4.854366256744507842e-25
3.657364554184473303e-25
