# bin_13_3
2.101649513457259867e-40
2.310479126417325898e-40
2.482504962930022858e-40
2.591132649990043108e-40
2.611263345270278838e-40
2.510965656838418720e-40
2.278890748248487654e-40
1.955681638562897667e-40
1.606222193182603674e-40
1.324989571926832723e-40
1.141594527931759155e-40
9.585581636245717335e-41
6.936808772962745789e-41
5.031123761238375726e-41
4.039647902268774598e-41
2.710760521845800330e-41
2.052759097606625989e-41
1.450860796839628988e-41
1.025784599622877010e-41
7.365578061119597363e-42
5.335427052176773584e-42
3.928245810122940585e-42
2.942531730773400884e-42
2.245519012767049409e-42
1.738048744353128121e-42
1.356989011955553792e-42
1.061710632724913279e-42
8.263999616969236570e-43
6.358305954943001318e-43
4.809311372722854524e-43
3.560879270993057512e-43
