# bin_11_13
3.810289100803179351e-08
4.231435460233363678e-08
4.603474145899261074e-08
4.880523132396731528e-08
5.007313887418977523e-08
4.941522262852175424e-08
4.617837849638911330e-08
4.078431299496784373e-08
3.408480325598613219e-08
2.787125975400406153e-08
2.350885452560680908e-08
2.032138097793712385e-08
1.594925949323585404e-08
1.104528902576909487e-08
8.781801067100639744e-09
6.297542089365439306e-09
4.580696475731944232e-09
3.163172390133492107e-09
2.282853232477594477e-09
1.616981924045383040e-09
1.150022982565898300e-09
8.289664391406678540e-10
6.062930244335126106e-10
4.518945362323106871e-10
3.429853898221350858e-10
2.640736674992095253e-10
2.052111740011753726e-10
1.598303027580045953e-10
1.238790173277579206e-10
9.492405691778000771e-11
7.153302546338998373e-11
