# bin_4_16
3.866989564111173008e-07
4.057832542428013289e-07
4.116684892068590556e-07
4.000876639968916284e-07
3.676834821280262762e-07
3.196131479592716637e-07
2.645307516930666814e-07
2.171806261671262817e-07
1.850710110200979645e-07
1.574876690869852321e-07
1.188580739186192400e-07
8.449506507280931179e-08
6.777677698759572898e-08
4.748447455791140200e-08
3.570521027849454183e-08
2.543122641054353915e-08
1.859548889352884770e-08
1.370973944533122273e-08
1.024390933039519314e-08
7.791312704581676159e-09
6.027317830962346761e-09
4.732925622920434815e-09
3.749045418119367098e-09
2.974574408996954168e-09
2.347365618749951280e-09
1.829921040265756903e-09
1.400929586456893104e-09
1.048207410960185138e-09
7.639455889777888457e-10
5.415664203872510129e-10
3.736965190635842102e-10
