# bin_1_19
8.309376131816935681e-07
8.019270506034211639e-07
7.329062211056214279e-07
6.342264403409975566e-07
5.252578933840329987e-07
4.331735045751168545e-07
3.685667593695124257e-07
3.093826209425452920e-07
2.332792467997091102e-07
1.694808618291655079e-07
1.329065801761767372e-07
9.576635555442967996e-08
7.126043961556591655e-08
5.210965751579665138e-08
3.879045874933836975e-08
2.923123154094297682e-08
2.242727683861056271e-08
1.753146543093801016e-08
1.391463573944068682e-08
1.115426939366065488e-08
8.963766276426192972e-09
7.166885156419578703e-09
5.661346047187810579e-09
4.390974523130652860e-09
3.327275645136247865e-09
2.454941525833809093e-09
1.761465499391452251e-09
1.229929942305292865e-09
8.376603329423327263e-10
5.581941762836352113e-10
3.651684439271961096e-10
