# bin_6_15
2.366287796889185377e-07
2.547060044298773130e-07
2.665545529595079209e-07
2.694930828737492891e-07
2.605126039518515414e-07
2.378831981079110085e-07
2.054422384144152211e-07
1.693255306176265203e-07
1.393016892370779002e-07
1.193741803355167238e-07
1.009854696023766866e-07
7.464868261036451056e-08
5.346396857428226133e-08
4.306017229755391785e-08
2.945306528573784624e-08
2.232355569817753341e-08
1.579588541275913968e-08
1.137315647271420400e-08
8.297530198308334634e-09
6.122984898663432256e-09
4.593399964084209348e-09
3.505261880130697484e-09
2.719861692726059772e-09
2.133907985925054427e-09
1.681810164405863894e-09
1.322414747700064684e-09
1.030165613372933231e-09
7.902665195281492009e-10
5.939655451574364317e-10
4.356758313279117322e-10
3.111599248462990534e-10
