# bin_17_9
7.714476824445986916e-24
8.645966247418591268e-24
9.512324055319166614e-24
1.022668296898175676e-23
1.067906237467042652e-23
1.076558346062880940e-23
1.035351557917835293e-23
9.396178876806122721e-24
8.062489716057835948e-24
6.621596304138692200e-24
5.464905762042398443e-24
4.712941007275425052e-24
3.955889131440866500e-24
2.853565858196805791e-24
2.068714144081050691e-24
1.657109202123948432e-24
1.101701238265844944e-24
8.286515523288021341e-25
5.786277831345541455e-25
4.016469435139473250e-25
2.820093680722997181e-25
1.987105216382447246e-25
1.418442517501201926e-25
1.028119261923844644e-25
7.602914642245118214e-26
5.726672001951056421e-26
4.381301439457248081e-26
3.387394984938256566e-26
2.627872026727601764e-26
2.030747506385331329e-26
1.552782125885186784e-26
