# bin_20_20
-2.484092907048341588e-08
-2.825970199650584407e-08
-3.166627068269704163e-08
-3.481920448174512607e-08
-3.739604924590973693e-08
-3.898925965765823677e-08
-3.922962127456982226e-08
-3.760898579459507110e-08
-3.402134542746915106e-08
-2.909114048239310235e-08
-2.386516295022812032e-08
-1.974622800041738887e-08
-1.706804725303406578e-08
-1.423184448841572402e-08
-1.015721429663102576e-08
-7.449719213434206775e-09
-5.889341560208859976e-09
-3.911736963570047914e-09
-2.892510541754186518e-09
-2.007451982960238145e-09
-1.368190402781500204e-09
-9.350433057727935370e-10
-6.377795937068763023e-10
-4.380626970183238440e-10
-3.037191988537672587e-10
-2.142311088059215147e-10
-1.539884988766017607e-10
-1.130617719946891745e-10
-8.470934478456300734e-11
-6.449248553114375578e-11
-4.956628301513456463e-11
