# bin_15_8
-2.777070489983102479e-19
-3.099039524742468132e-19
-3.391610970294255708e-19
-3.622392596525560472e-19
-3.750787737598773015e-19
-3.744669416785230510e-19
-3.551879084923266040e-19
-3.181024229973572103e-19
-2.692246805004488059e-19
-2.202875440582593583e-19
-1.835749547179824964e-19
-1.590108917695653943e-19
-1.297594961407311616e-19
-9.086197572994393111e-20
-6.909353692890759358e-20
-5.278381848225316007e-20
-3.629158554407013859e-20
-2.612208734729815182e-20
-1.875238846136535113e-20
-1.312720630733549620e-20
-9.228260519435547879e-21
-6.570035142437557622e-21
-4.747332450381794288e-21
-3.490033694682834419e-21
-2.616502724932925055e-21
-1.994452124068182050e-21
-1.539767660421961074e-21
-1.196431591444550190e-21
-9.288523896883482098e-22
-7.154678020364362629e-22
-5.435228395796366341e-22
