# bin_19_17
-6.200284310569587042e-09
-7.031502264398344003e-09
-7.847407849217052903e-09
-8.586306977907779492e-09
-9.165266963858368493e-09
-9.480447384522866616e-09
-9.451965943173866463e-09
-8.945985065323868794e-09
-7.995242666038476426e-09
-6.751812220554134122e-09
-5.523603566336711764e-09
-4.614396396740758459e-09
-3.999632454080853910e-09
-3.243475806083335575e-09
-2.257565979701807150e-09
-1.730824631178699878e-09
-1.303358506281591035e-09
-8.978179982799399453e-10
-6.323657318537094393e-10
-4.501450021222205768e-10
-3.090929142845476276e-10
-2.113996093422811485e-10
-1.457611981416959899e-10
-1.013602838525656495e-10
-7.142283064959929691e-11
-5.128537459557761157e-11
-3.755723317701241463e-11
-2.806706696913028492e-11
-2.133219819101870686e-11
-1.639440975349391929e-11
-1.264661989768921283e-11
