# bin_1_6
-4.141032081106323685e-18
-4.327412332111785494e-18
-4.369192511693985878e-18
-4.216156185608970662e-18
-3.842816254534100773e-18
-3.312996561848719302e-18
-2.727269830719283721e-18
-2.243860158645093322e-18
-1.924518946670761038e-18
-1.626031917189849781e-18
-1.197910631562377110e-18
-8.612538581037034269e-19
-6.956826966278096369e-19
-4.763207563407302972e-19
-3.638700373830476298e-19
-2.601414499449561162e-19
-1.892523555476495709e-19
-1.401399875165320359e-19
-1.052260046843276956e-19
-8.043635877766672619e-20
-6.251662018804841113e-20
-4.928469378303511698e-20
-3.913549854035506527e-20
-3.107885240644449971e-20
-2.450989829439739402e-20
-1.906645972102727578e-20
-1.454673002869195867e-20
-1.083500908066011007e-20
-7.854649783277983631e-21
-5.537209815483005325e-21
-3.800406021232077640e-21
