# bin_6_11
-4.879480207110564341e-15
-5.366224426329702215e-15
-5.768200179259381193e-15
-6.023742404491220117e-15
-6.074263054004012287e-15
-5.845824696937938520e-15
-5.310316737766334500e-15
-4.561191617204367644e-15
-3.747537440047619409e-15
-3.089804785073796915e-15
-2.660835178890279529e-15
-2.237577238709917848e-15
-1.622964713873703633e-15
-1.173817437283884139e-15
-9.443078736477679095e-16
-6.331890995421597290e-16
-4.801620019050235835e-16
-3.387748377732417920e-16
-2.394380053287600166e-16
-1.719104801643431500e-16
-1.244684498531905076e-16
-9.157734224032613106e-17
-6.853306894752224455e-17
-5.226457989076196742e-17
-4.043120313058691983e-17
-3.155612740923741368e-17
-2.468796968091429870e-17
-1.921975788412123767e-17
-1.479351843257413724e-17
-1.119605547161581650e-17
-8.295815185023457077e-18
