# bin_10_16
-1.280567983563827632e-15
-1.435765904759263126e-15
-1.580382673689228095e-15
-1.700043735024170135e-15
-1.776520222531310168e-15
-1.792413924211830092e-15
-1.725814761745181858e-15
-1.568177862664397394e-15
-1.347243580386395434e-15
-1.107021264391351568e-15
-9.129865764244156632e-16
-7.868241071053955877e-16
-6.618418314175827392e-16
-4.789622478873864043e-16
-3.458088044660463921e-16
-2.778712477024787421e-16
-1.844777403580532459e-16
-1.390968389249354124e-16
-9.689815615156857985e-17
-6.722316250115746433e-17
-4.720216779636992638e-17
-3.324056106765098321e-17
-2.370471104978615104e-17
-1.715681378092542296e-17
-1.267204293138726109e-17
-9.533842337493740754e-18
-7.287251939687781296e-18
-5.631080521339534427e-18
-4.367883737919327397e-18
-3.376246465565325755e-18
-2.583132065082739074e-18
