# bin_7_17
-3.061113266942179678e-30
-3.426350488659394530e-30
-3.763732623174275040e-30
-4.038413844958929415e-30
-4.206424755499294848e-30
-4.228449754385358021e-30
-4.049565944434048458e-30
-3.660061666245710980e-30
-3.127046277107512241e-30
-2.564420190694005850e-30
-2.122046619398966400e-30
-1.833697101557379441e-30
-1.527246589222396290e-30
-1.090209015517042029e-30
-8.018323193301608444e-31
-6.342732024105497313e-31
-4.247734023147709315e-31
-3.160501628483455464e-31
-2.225509850122835200e-31
-1.548283435167300229e-31
-1.086941217475521048e-31
-7.678199661306811746e-32
-5.501268866277416888e-32
-4.004732714216389385e-32
-2.974574899074281697e-32
-2.249227889830177951e-32
-1.726074079761777954e-32
-1.336959201398340616e-32
-1.037702362084176345e-32
-8.012858883512103526e-33
-6.115692731587301964e-33
