# bin_8_10
-3.289840540375625830e-09
-3.625974295711839215e-09
-3.908205813529603082e-09
-4.095403299238045019e-09
-4.145737948705710872e-09
-4.012851233985115639e-09
-3.667093836608754852e-09
-3.169099068329926003e-09
-2.610780290685255242e-09
-2.145959605964284247e-09
-1.841298695869437877e-09
-1.562790942023992246e-09
-1.152017403082931008e-09
-8.187087094344127757e-10
-6.653118845474776856e-10
-4.456909927548694061e-10
-3.400218645001260346e-10
-2.373130998626028561e-10
-1.676050920117350181e-10
-1.203013746051138884e-10
-8.691843403504969387e-11
-6.367650895505867096e-11
-4.741548984886248636e-11
-3.599872082435468844e-11
-2.775067129645237510e-11
-2.160980112110033870e-11
-1.689309322969532324e-11
-1.316005859707162994e-11
-1.014897293499040410e-11
-7.703952382263307626e-12
-5.730497499130979355e-12
