# bin_16_19
-9.650813469447614206e-10
-1.093531164025688116e-09
-1.219127411388682754e-09
-1.332187862354866063e-09
-1.419712746586657296e-09
-1.465512894583502786e-09
-1.457457441953219741e-09
-1.374872680714955753e-09
-1.224952377847244100e-09
-1.031376343958295434e-09
-8.434633794361733904e-10
-7.065370470827900052e-10
-6.123800626229221700e-10
-4.924279939750722318e-10
-3.413163479173145629e-10
-2.646559791650930808e-10
-1.964393744106430710e-10
-1.370525515236265633e-10
-9.527533658634699209e-11
-6.807939250248758474e-11
-4.685382518384973449e-11
-3.210686813786543109e-11
-2.220826761028377602e-11
-1.549170026237264495e-11
-1.096129472099806338e-11
-7.905329042841108902e-12
-5.814740217983375072e-12
-4.362555665770532255e-12
-3.325507799438375844e-12
-2.559970636591370784e-12
-1.975279370307754244e-12
