# bin_20_15
-2.973932323628815819e-12
-3.370400647423220340e-12
-3.758397434311747394e-12
-4.108143562379080511e-12
-4.379641034740187313e-12
-4.523009247369499112e-12
-4.500690786421244936e-12
-4.248812004369009558e-12
-3.788138340605742407e-12
-3.191597828179992678e-12
-2.610278045415908980e-12
-2.185204716210083078e-12
-1.894050026769943970e-12
-1.525991772578714774e-12
-1.058594868816542620e-12
-8.187872139928840930e-13
-6.097393111085997056e-13
-4.241516861232517561e-13
-2.956983549251115705e-13
-2.111521463339921395e-13
-1.452437673558969876e-13
-9.947851546440282358e-14
-6.876051581936073286e-14
-4.793142613807716361e-14
-3.388299259593817482e-14
-2.441273867845816447e-14
-1.793924748818873614e-14
-1.344746964840615076e-14
-1.024426326669011471e-14
-7.883274301215477691e-15
-6.082505498036265995e-15
