# bin_8_11
-1.650976358916364537e-10
-1.824724884731111788e-10
-1.973506438881274467e-10
-2.076952504557137313e-10
-2.112654374048519513e-10
-2.059740416712798279e-10
-1.897206244183672648e-10
-1.652614385579050661e-10
-1.367302350326524271e-10
-1.120613189158954071e-10
-9.561981001207139107e-11
-8.191730945879225392e-11
-6.172750492463374284e-11
-4.316881146940875439e-11
-3.513771916037573129e-11
-2.386064119781296423e-11
-1.810934065443381898e-11
-1.248130213202219447e-11
-8.858990628520909177e-12
-6.344019938928201874e-12
-4.568971966160569045e-12
-3.328709349279941184e-12
-2.462558271952782717e-12
-1.858076676080435805e-12
-1.425168816670154516e-12
-1.105941039940674172e-12
-8.632269093154827609e-13
-6.727667305264073016e-13
-5.199733872070803114e-13
-3.961485572214616393e-13
-2.961075130385996579e-13
