# bin_1_12
-4.646001050265080725e-49
-5.074131863963458891e-49
-5.407356882138438859e-49
-5.584989485399426567e-49
-5.560106322172443096e-49
-5.255580778908697941e-49
-4.692056827074233224e-49
-3.959547026305627132e-49
-3.238091633588054477e-49
-2.703849675811524673e-49
-2.340585647877818972e-49
-1.896373695404968991e-49
-1.326401317270787955e-49
-1.019650807906115768e-49
-7.727478880840822836e-50
-5.409949159921308800e-50
-3.896474337396500841e-50
-2.838493745487149331e-50
-2.027443767352392644e-50
-1.460859141231962634e-50
-1.070540630961650455e-50
-7.982180677269395058e-51
-6.059654515483711913e-51
-4.677111280702428435e-51
-3.650298973682571629e-51
-2.863290355035998652e-51
-2.241507927252639164e-51
-1.739102537523305329e-51
-1.329344355488987802e-51
-9.962166235906397660e-52
-7.291387646712015911e-52
