# bin_18_13
-1.054216881286344392e-12
-1.189768312378207675e-12
-1.319992928547943836e-12
-1.433835645783600703e-12
-1.516744212277121137e-12
-1.551558110160121956e-12
-1.524722706975447633e-12
-1.417043729885370418e-12
-1.245052585005185216e-12
-1.035892684388033725e-12
-8.475197076022754506e-13
-7.187689619473237799e-13
-6.204096637230100485e-13
-4.783677357449524735e-13
-3.304928875180967864e-13
-2.665796898108149524e-13
-1.847346202335899310e-13
-1.369407556537042852e-13
-9.226659690193366675e-14
-6.514960221708366744e-14
-4.540969475350616372e-14
-3.163120342286451280e-14
-2.215845254120873184e-14
-1.567218536746464879e-14
-1.128948563040039854e-14
-8.293291863211824269e-15
-6.208931971452685915e-15
-4.727707903307082452e-15
-3.640321440628860678e-15
-2.814758134082543672e-15
-2.169169018458236326e-15
