# bin_12_6
-8.804170768778964569e-18
-9.713759841576046664e-18
-1.048321160966960275e-17
-1.100300075922038647e-17
-1.115822807376883137e-17
-1.082965529912989138e-17
-9.924910552566172176e-18
-8.602015099443293938e-18
-7.096577984635902731e-18
-5.825803789307734372e-18
-4.989307221276103827e-18
-4.251157651266779600e-18
-3.158423894689678708e-18
-2.228802639937282409e-18
-1.815830012872634167e-18
-1.219259457461248522e-18
-9.306158085496251020e-19
-6.462376807037906140e-19
-4.566878378028527056e-19
-3.276711953635282002e-19
-2.365310151444957942e-19
-1.729287911991133462e-19
-1.284577196361381486e-19
-9.731057085035303092e-20
-7.488101553155989190e-20
-5.824063178428162707e-20
-4.550647474561939064e-20
-3.545849473249878750e-20
-2.736887151588240385e-20
-2.080400904631287357e-20
-1.550293059053538795e-20
