# bin_11_17
-3.397336997515211455e-15
-3.820094053791607262e-15
-4.219641088166479659e-15
-4.558851348270632369e-15
-4.790028187834866905e-15
-4.862490296306427615e-15
-4.725022290245132208e-15
-4.334985403663373706e-15
-3.761017515500864531e-15
-3.104394939783257154e-15
-2.548248918366258159e-15
-2.182634715466709111e-15
-1.862456395492484437e-15
-1.384505655769772327e-15
-9.727349386368832919e-16
-7.929105961765634507e-16
-5.273802498169023832e-16
-4.008312167368117593e-16
-2.742359534667303869e-16
-1.901248622064032108e-16
-1.335148681557800314e-16
-9.377916431026981623e-17
-6.635436399116319648e-17
-4.753452618880892616e-17
-3.474284606785484953e-17
-2.588572303778095273e-17
-1.962598685810663254e-17
-1.508450958754145476e-17
-1.167506678095793338e-17
-9.033262186089570807e-18
-6.937033404731720537e-18
