# bin_4_6
-2.434530112954294316e-09
-2.596576785260828856e-09
-2.685786104897345652e-09
-2.679045482375598090e-09
-2.540084312789830966e-09
-2.274689851126386402e-09
-1.925900502516509546e-09
-1.576018280280133082e-09
-1.311990537726424460e-09
-1.134137293577903667e-09
-9.263418736244622373e-10
-6.541102954166167527e-10
-4.969038197639331668e-10
-3.828390904439672971e-10
-2.669887088625870747e-10
-1.963042193101886932e-10
-1.433521093557175168e-10
-1.036539146888675190e-10
-7.597985185770570023e-11
-5.667522875539545873e-11
-4.306528722200362444e-11
-3.328771111679351366e-11
-2.609395277907058355e-11
-2.060701719606272123e-11
-1.628329563712578862e-11
-1.278442233467372489e-11
-9.906746261552989505e-12
-7.534730534711392858e-12
-5.599225906352242454e-12
-4.052255891094381268e-12
-2.853011431244022323e-12
