# bin_1_9
-2.907099836834233926e-32
-3.118480791939152652e-32
-3.249337373174252271e-32
-3.268983362972829202e-32
-3.136651502340985243e-32
-2.841476712778673585e-32
-2.434017061228571071e-32
-1.998015092048866022e-32
-1.649571069153263028e-32
-1.421050428824086679e-32
-1.189204470979601900e-32
-8.596533974285483350e-33
-6.280587568694438107e-33
-5.022482034297875397e-33
-3.412513438833644868e-33
-2.585565281780576892e-33
-1.851668298825976995e-33
-1.330398157279182622e-33
-9.724961096842166584e-34
-7.202096988553958143e-34
-5.430891140562541172e-34
-4.166326826648438297e-34
-3.247469794832686796e-34
-2.555745009437570010e-34
-2.017337632655012357e-34
-1.586045193088736781e-34
-1.233449789454929672e-34
-9.433168807773413548e-35
-7.059957723793733048e-35
-5.151524834446935407e-35
-3.658085182579917289e-35
