# bin_2_1
-5.417155296186864474e-08
-5.360412459384970513e-08
-5.036228487871632296e-08
-4.473982241569471838e-08
-3.764258721621037997e-08
-3.081616276896856589e-08
-2.580145794200122315e-08
-2.221709795536950760e-08
-1.779766460699176125e-08
-1.261270770486667212e-08
-9.755639758762582261e-09
-7.351817727104626705e-09
-5.295751320872443652e-09
-3.892284492156210947e-09
-2.885461956270432586e-09
-2.144001803617375998e-09
-1.621560741110472313e-09
-1.250490846115185909e-09
-9.815937499433861819e-10
-7.811053004167012863e-10
-6.261610557516607618e-10
-5.017502892652165979e-10
-3.989662739697285250e-10
-3.126787470970949064e-10
-2.401100916165914334e-10
-1.798376739071113502e-10
-1.310304629819674380e-10
-9.281186941293252992e-11
-6.401380362694232489e-11
-4.311110512890156303e-11
-2.844735596386921106e-11
