# bin_4_16
-6.408443140150861688e-45
-7.132817128235803798e-45
-7.781295883598753130e-45
-8.277705546225686819e-45
-8.527899689185179880e-45
-8.461640079053400956e-45
-7.960725601128544495e-45
-7.075301713019483195e-45
-5.944393902580565070e-45
-4.859588152427722301e-45
-4.076485962029176265e-45
-3.530785160120858386e-45
-2.822917345320567853e-45
-1.956999584622306159e-45
-1.529371834519300588e-45
-1.129038197804525055e-45
-8.002680044036880547e-46
-5.595593067428814673e-46
-4.054405458411814577e-46
-2.855600753575441082e-46
-2.017351725473280301e-46
-1.446665409796603468e-46
-1.052456056530784482e-46
-7.798099571015237547e-47
-5.888201271919775166e-47
-4.514933603769736899e-47
-3.499815007850999390e-47
-2.724127448411957576e-47
-2.113701147577097606e-47
-1.623885912949441460e-47
-1.228402555733119417e-47
