# bin_13_5
-1.665297272869200507e-25
-1.839479289317772157e-25
-1.988033029439061943e-25
-2.090356913804618561e-25
-2.124108215383107507e-25
-2.067779510714255665e-25
-1.901293382278701209e-25
-1.653332127249022906e-25
-1.366420630343328687e-25
-1.120393970564272739e-25
-9.572947496402589825e-26
-8.188321723101443518e-26
-6.139610975748149218e-26
-4.303773117591804054e-26
-3.508268920316871329e-26
-2.369305153723628310e-26
-1.804414879159382022e-26
-1.246325976667548533e-26
-8.825693088742333022e-27
-6.326735516471279478e-27
-4.561497280984356637e-27
-3.327289402276670918e-27
-2.464938160084603948e-27
-1.862459574759166299e-27
-1.430175441539960140e-27
-1.110743478678119185e-27
-8.673282174296173749e-28
-6.759433441306585355e-28
-5.222086053475743600e-28
-3.975529236423864915e-28
-2.968532210649791763e-28
