# bin_17_12
-5.884672966648508580e-13
-6.624775515476680727e-13
-7.328035322143274877e-13
-7.930951786609222273e-13
-8.351365980286131920e-13
-8.498416942741938155e-13
-8.288512683368565779e-13
-7.635306282519467160e-13
-6.651378413230769209e-13
-5.502541136815752550e-13
-4.510585967608912286e-13
-3.852145386743700610e-13
-3.302072264471677056e-13
-2.482972934327307109e-13
-1.731491829673274778e-13
-1.410909519687288851e-13
-9.467674469074440483e-14
-7.169636210265402642e-14
-4.871126259592892370e-14
-3.388335115185386182e-14
-2.376901380521374281e-14
-1.667377186905671880e-14
-1.176045003101318733e-14
-8.389828217942215723e-15
-6.104420265058957742e-15
-4.528583923384772588e-15
-3.420590601145986642e-15
-2.622044124155343309e-15
-2.026689473428462760e-15
-1.568171664130183325e-15
-1.205831750167974315e-15
