# bin_14_15
-1.852265419435947735e-08
-2.084328608325860917e-08
-2.304413500267363743e-08
-2.492438910511286160e-08
-2.622492767527353996e-08
-2.666313177188604434e-08
-2.597026846143640128e-08
-2.388820900554819717e-08
-2.077920782352323691e-08
-1.717565799836828491e-08
-1.408581227264227105e-08
-1.204265601655247986e-08
-1.030696879390480474e-08
-7.718037957984210030e-09
-5.395379188560855397e-09
-4.398629848052453388e-09
-2.940642717153399380e-09
-2.230875323130310646e-09
-1.519354197544357421e-09
-1.055252085245025098e-09
-7.406452531726180044e-10
-5.198557151498729682e-10
-3.670885328802335228e-10
-2.622723420534338359e-10
-1.911442057265282572e-10
-1.420260082045980538e-10
-1.074261654999894638e-10
-8.242961328901265007e-11
-6.374617136844915321e-11
-4.932460166187626121e-11
-3.791051493696083840e-11
