# bin_20_4
-2.731556859689455026e-64
-3.069659596935591527e-64
-3.388314940410446472e-64
-3.657495040495064647e-64
-3.838742512856196698e-64
-3.892059593487157183e-64
-3.775029528279626078e-64
-3.456506415363815905e-64
-2.992805845792838244e-64
-2.467763479165432725e-64
-2.027322886150233759e-64
-1.738829068087664538e-64
-1.479926528430681629e-64
-1.093962357826977508e-64
-7.721662461238738575e-65
-6.286562672020447965e-65
-4.170689395502887860e-65
-3.170543193046174075e-65
-2.177158004164062024e-65
-1.508398745637894022e-65
-1.059436323054282174e-65
-7.444349755966678207e-66
-5.275614605667321140e-66
-3.787225404101556234e-66
-2.774176136568334334e-66
-2.071244461946646068e-66
-1.573160689203908823e-66
-1.210608675118229717e-66
-9.375128315598401931e-67
-7.252982623825616461e-67
-5.565981976055998770e-67
