# bin_9_3
-3.688873479822482863e-20
-3.985572613082907566e-20
-4.190576707421967460e-20
-4.259162194172622725e-20
-4.148819608185838755e-20
-3.818605158249068174e-20
-3.324152604624663098e-20
-2.749458301524456335e-20
-2.253301320392526962e-20
-1.921988650613948437e-20
-1.644843112932437548e-20
-1.240154037585309367e-20
-8.704880296491872550e-21
-7.082224266533626353e-21
-4.852633095559795412e-21
-3.694098920820815334e-21
-2.580336688715055445e-21
-1.859415169230547254e-21
-1.354385575600035992e-21
-9.961092542686815629e-22
-7.435571144632315079e-22
-5.643396702979021933e-22
-4.359944028935246340e-22
-3.410588516472704002e-22
-2.684347803332434742e-22
-2.111491648994546268e-22
-1.648108803954992632e-22
-1.268565442404404848e-22
-9.577774491812491618e-23
-7.063552445072455105e-23
-5.074335067486021476e-23
