# bin_4_9
-4.766220461346451346e-16
-5.168208206397781600e-16
-5.458607653811676492e-16
-5.576725578998171703e-16
-5.473022206487788644e-16
-5.081148566269200089e-16
-4.460473251435792015e-16
-3.709835739680833709e-16
-3.034460376470988476e-16
-2.571101985087616657e-16
-2.215477223546924984e-16
-1.710867412198703012e-16
-1.189447077126770790e-16
-9.588310497788029098e-17
-6.749818174287216525e-17
-5.040518807020793972e-17
-3.504067004799622139e-17
-2.547902789572543811e-17
-1.846147213070658963e-17
-1.349834661230817926e-17
-1.002146029385179004e-17
-7.563422105371598708e-18
-5.813017377233022932e-18
-4.530043820115551530e-18
-3.557731667146337651e-18
-2.797488744970503327e-18
-2.186642737008414909e-18
-1.688043397047542183e-18
-1.279944522566799917e-18
-9.490521915652819685e-19
-6.859517114033370187e-19
