# bin_12_10
-3.864921185114979897e-09
-4.300081145466540552e-09
-4.688736916479981721e-09
-4.984831444641861159e-09
-5.131639602357992642e-09
-5.086878245717924585e-09
-4.779900072215090117e-09
-4.243414772206724192e-09
-3.561509424762792581e-09
-2.911454126213476836e-09
-2.444729952797002135e-09
-2.117056951365077954e-09
-1.687049223445976860e-09
-1.168669921366354010e-09
-9.166593078671001534e-10
-6.730884288406479881e-10
-4.794451910634756225e-10
-3.340849036772818803e-10
-2.421015541147558278e-10
-1.706870597639434522e-10
-1.207164488539600315e-10
-8.665556689884372865e-11
-6.310358365294521502e-11
-4.680861825604831871e-11
-3.537967422622926153e-11
-2.715009149212216685e-11
-2.105669962060215525e-11
-1.639268253898465251e-11
-1.271752171360508856e-11
-9.766224364228902856e-12
-7.382877810513527062e-12
