# bin_17_5
-2.523153313733538708e-42
-2.818447457515643816e-42
-3.088241111038313380e-42
-3.303331318498653794e-42
-3.427022964738647516e-42
-3.429170415501415442e-42
-3.262783901519383010e-42
-2.930662124969971883e-42
-2.487741187312273239e-42
-2.036701536813323720e-42
-1.693181696148592884e-42
-1.465964570883699354e-42
-1.204719916708963772e-42
-8.482068514736407609e-43
-6.380746534846927737e-43
-4.933381856607781447e-43
-3.359002652528768245e-43
-2.445756047793474735e-43
-1.745487926829321318e-43
-1.219292595662470254e-43
-8.564320349469895252e-44
-6.080776410217404774e-44
-4.381909271021089417e-44
-3.211387621440732680e-44
-2.400615662812212745e-44
-1.825371292118532347e-44
-1.406710201776989317e-44
-1.092077930947754222e-44
-8.478671636888979210e-45
-6.536586919827297058e-45
-4.973400172864431679e-45
