# bin_11_10
-2.029687918305814751e-08
-2.253204970854310531e-08
-2.450166632394906031e-08
-2.596069567643516681e-08
-2.661469973214164025e-08
-2.623894138412532747e-08
-2.448785701033494484e-08
-2.160125114387880969e-08
-1.803081130529079496e-08
-1.474180042135919456e-08
-1.244852882505945636e-08
-1.076090574523191764e-08
-8.413910467087710659e-09
-5.818477039822987897e-09
-4.648795260209198002e-09
-3.311344709362412032e-09
-2.424458529668719942e-09
-1.665362783548471345e-09
-1.202481562798227407e-09
-8.527884230218483574e-10
-6.073943764201680481e-10
-4.383788387575037295e-10
-3.209515875114447702e-10
-2.395359402665292156e-10
-1.820304552127097802e-10
-1.402854041148564295e-10
-1.090899857445012406e-10
-8.499366882749397802e-11
-6.587436310883875059e-11
-5.046053979764384798e-11
-3.800415944123480001e-11
