# bin_3_17
-4.208501949062971803e-58
-4.692920127546024132e-58
-5.131261071465173253e-58
-5.474154969965467002e-58
-5.659903139067770406e-58
-5.640823750025348791e-58
-5.337807278026199307e-58
-4.769961253195685140e-58
-4.028229945563510829e-58
-3.294897769287324242e-58
-2.750938146281033880e-58
-2.383188154124628829e-58
-1.933889538412161030e-58
-1.349381585951952521e-58
-1.034441816397617911e-58
-7.827872257781359374e-59
-5.426097617962766424e-59
-3.871473530628988050e-59
-2.789630850604205894e-59
-1.956121620843573975e-59
-1.376522054175973248e-59
-9.820812096902227277e-60
-7.110565352433241577e-60
-5.239487053766894787e-60
-3.936472760051807107e-60
-3.005991623093284037e-60
-2.323639011675219628e-60
-1.806568916680991168e-60
-1.402399899261879138e-60
-1.079462099161638456e-60
-8.190552040935790624e-61
