# bin_2_7
-2.501708699176239177e-17
-2.655171390958500582e-17
-2.729540693584528449e-17
-2.702006778334855084e-17
-2.536272561077504125e-17
-2.249887876576708050e-17
-1.887928035448478421e-17
-1.543237265654522189e-17
-1.294822798027931590e-17
-1.119253429428669917e-17
-8.922799262182592340e-18
-6.228663523850633938e-18
-4.882279208108190602e-18
-3.620580155617710581e-18
-2.608035771430514463e-18
-1.865532165676251451e-18
-1.375341428507656679e-18
-1.001528754398086411e-18
-7.381016324567529868e-19
-5.543316256428629704e-19
-4.237824650280397025e-19
-3.294614276683293357e-19
-2.593245486010024500e-19
-2.052560227430292196e-19
-1.622368556324896278e-19
-1.271639000177394341e-19
-9.820646041745058371e-20
-7.432613073953487431e-20
-5.489668248566941336e-20
-3.945954846543349704e-20
-2.759055354939679899e-20
