   0.1000E+05   0.2713E-10   0.0000E+00   0.9016E-03   0.4732E+00
   0.8129E+04   0.3914E-10   0.0000E+00   0.9016E-03   0.4708E+00
   0.6608E+04   0.5521E-10   0.0000E+00   0.9016E-03   0.4682E+00
   0.5372E+04   0.7600E-10   0.0000E+00   0.9016E-03   0.4655E+00
   0.4367E+04   0.1020E-09   0.0000E+00   0.9016E-03   0.4629E+00
   0.3550E+04   0.1338E-09   0.0000E+00   0.9016E-03   0.4605E+00
   0.2885E+04   0.1717E-09   0.0000E+00   0.9016E-03   0.4586E+00
   0.2346E+04   0.2166E-09   0.0000E+00   0.9016E-03   0.4572E+00
   0.1907E+04   0.2700E-09   0.0000E+00   0.9016E-03   0.4565E+00
   0.1550E+04   0.3347E-09   0.0000E+00   0.9016E-03   0.4566E+00
   0.1260E+04   0.4155E-09   0.0000E+00   0.9016E-03   0.4574E+00
   0.1024E+04   0.5206E-09   0.0000E+00   0.9016E-03   0.4590E+00
   0.8326E+03   0.6623E-09   0.0000E+00   0.9016E-03   0.4611E+00
   0.6768E+03   0.8591E-09   0.0000E+00   0.9016E-03   0.4635E+00
   0.5501E+03   0.1136E-08   0.0000E+00   0.9016E-03   0.4657E+00
   0.4472E+03   0.1526E-08   0.0000E+00   0.9016E-03   0.4673E+00
   0.3635E+03   0.2070E-08   0.0000E+00   0.9016E-03   0.4684E+00
   0.2955E+03   0.2813E-08   0.0000E+00   0.9016E-03   0.4686E+00
   0.2402E+03   0.3796E-08   0.0000E+00   0.9016E-03   0.4681E+00
   0.1953E+03   0.5052E-08   0.0000E+00   0.9016E-03   0.4669E+00
   0.1587E+03   0.6581E-08   0.0000E+00   0.9016E-03   0.4650E+00
   0.1290E+03   0.8329E-08   0.0000E+00   0.9016E-03   0.4627E+00
   0.1049E+03   0.1029E-07   0.0000E+00   0.9016E-03   0.4610E+00
   0.8527E+02   0.1234E-07   0.0000E+00   0.9016E-03   0.4579E+00
   0.6931E+02   0.1424E-07   0.0000E+00   0.9016E-03   0.4548E+00
   0.5635E+02   0.1588E-07   0.0000E+00   0.9016E-03   0.4521E+00
   0.4580E+02   0.1715E-07   0.0000E+00   0.9016E-03   0.4495E+00
   0.3723E+02   0.1796E-07   0.0000E+00   0.9016E-03   0.4470E+00
   0.3027E+02   0.1825E-07   0.0000E+00   0.9016E-03   0.4445E+00
   0.2460E+02   0.1801E-07   0.0000E+00   0.9016E-03   0.4421E+00
   0.2000E+02   0.1727E-07   0.0000E+00   0.9016E-03   0.4398E+00
