# bin_11_20
-1.718221908957511114e-22
-1.939619023739628978e-22
-2.152555708970305246e-22
-2.339044834299106890e-22
-2.475364690739502867e-22
-2.533428205746038221e-22
-2.491190579640452763e-22
-2.316961577389868287e-22
-2.036912739133387570e-22
-1.696272402351344119e-22
-1.388032197117924122e-22
-1.176956732087693535e-22
-1.016316629427550427e-22
-7.848079102687869785e-23
-5.421993901077154459e-23
-4.370950829479889825e-23
-3.035297827548760145e-23
-2.247330916294470337e-23
-1.513992840213195062e-23
-1.070090283452958590e-23
-7.456334669479407012e-24
-5.191875823430412073e-24
-3.635528764147765083e-24
-2.570636897980823461e-24
-1.850720288560537695e-24
-1.358740630690177841e-24
-1.016747430951502592e-24
-7.738797604831000300e-25
-5.957403279184591372e-25
-4.606109926483936437e-25
-3.550076417524233254e-25
