# bin_12_16
-2.388091521552917948e-11
-2.682893994099778345e-11
-2.960369027508128181e-11
-3.194159554000749037e-11
-3.350547792239435718e-11
-3.394916530427349549e-11
-3.289424432615792590e-11
-3.008583970539378183e-11
-2.600745204694744524e-11
-2.144989880232664967e-11
-1.763752829201909458e-11
-1.514382179572423699e-11
-1.286607731826643772e-11
-9.476028795142311652e-12
-6.714994912101194997e-12
-5.459061664225509780e-12
-3.619079416230216641e-12
-2.749963516914266843e-12
-1.893580087323189079e-12
-1.311986384456438899e-12
-9.215105486631255703e-13
-6.477267946215940870e-13
-4.594944175365406020e-13
-3.303968581703056369e-13
-2.423625074488597331e-13
-1.811979244300428605e-13
-1.377855727210191966e-13
-1.061127109232756404e-13
-8.220201392904883693e-14
-6.358749594853353429e-14
-4.877271420911513679e-14
