# bin_20_3
-2.024368824015034202e-73
-2.272596122938778877e-73
-2.505395413069893908e-73
-2.700269018812829285e-73
-2.828533526562293847e-73
-2.861540469291947963e-73
-2.766116545230165234e-73
-2.523738239227429429e-73
-2.176047011823746637e-73
-1.792622428079195131e-73
-1.475794166368736467e-73
-1.269166915700571665e-73
-1.074364017768827243e-73
-7.857973565313929623e-74
-5.607236378561691857e-74
-4.542727398944036368e-74
-3.009387414940741617e-74
-2.282516379729420954e-74
-1.579024456133605119e-74
-1.094188434480948800e-74
-7.684850877964774986e-75
-5.404485328266605368e-75
-3.841539542217709695e-75
-2.769435383702738983e-75
-2.036944518945348219e-75
-1.526673064644802622e-75
-1.163313204402078964e-75
-8.971328507472689299e-76
-6.953725883611888376e-76
-5.377761860357201901e-76
-4.120932725288648310e-76
