# bin_10_4
-3.016456826272864376e-19
-3.284167758191341522e-19
-3.486245608913510436e-19
-3.583236060672477320e-19
-3.545332635830991552e-19
-3.324403963123486999e-19
-2.945749696670538319e-19
-2.468961092951268792e-19
-2.018693862624700155e-19
-1.697353195360272844e-19
-1.468382832729750058e-19
-1.164835612416679592e-19
-8.090969273552519325e-20
-6.382685024527079429e-20
-4.674580982263584050e-20
-3.375480651633447171e-20
-2.374034628157720179e-20
-1.738334310273085550e-20
-1.249875297362758478e-20
-9.060076074613919397e-21
-6.682289340006686385e-21
-5.011838344786284411e-21
-3.827720201765582478e-21
-2.968433922030809016e-21
-2.324269467754948617e-21
-1.825792375493500334e-21
-1.428651265966273111e-21
-1.106069481030562223e-21
-8.424083563324008118e-22
-6.282408161311218934e-22
-4.571334127822708310e-22
