# bin_18_6
-5.514832690916716513e-40
-6.176291054626737047e-40
-6.789134613983244597e-40
-7.290802306840966737e-40
-7.602209558159485048e-40
-7.651177237435657318e-40
-7.339771790244256361e-40
-6.645153770483039473e-40
-5.684007935876922426e-40
-4.667430081302061600e-40
-3.859957955841332603e-40
-3.333893090755130594e-40
-2.784620766239571179e-40
-1.994948584036922791e-40
-1.460606477687849992e-40
-1.160634648195022448e-40
-7.752778315598848544e-41
-5.791832786294380885e-41
-4.067495368680264632e-41
-2.827687314138473894e-41
-1.985251679169701360e-41
-1.401053110526275916e-41
-1.002513768612134436e-41
-7.287698603617235644e-42
-5.404569871479464367e-42
-4.081169582821341070e-42
-3.128653879709348653e-42
-2.421822016340208004e-42
-1.879432215878612602e-42
-1.451654463042822285e-42
-1.108668289084648124e-42
