# bin_14_7
-5.092433491983798401e-20
-5.657389501195374072e-20
-6.157491702048071163e-20
-6.531427046404744461e-20
-6.704831605818423684e-20
-6.621690751452635952e-20
-6.192884943864174865e-20
-5.473471318347216034e-20
-4.577176748663309124e-20
-3.742812090733901960e-20
-3.156437828952309605e-20
-2.730755342560131670e-20
-2.146673819112899473e-20
-1.484564481490240186e-20
-1.181317790266171091e-20
-8.483716794060960195e-21
-6.169695950933129961e-21
-4.247858617157020038e-21
-3.073801978252609732e-21
-2.176778518799919640e-21
-1.547515011570677650e-21
-1.115455744090181332e-21
-8.156529060452496618e-22
-6.078242451670351722e-22
-4.612715453241899576e-22
-3.551278805932616659e-22
-2.759904873368137821e-22
-2.149990665556486286e-22
-1.666874321361539739e-22
-1.277732544074565633e-22
-9.632767142390156735e-23
