# bin_2_6
-4.649240797140566774e-14
-4.890570566978037013e-14
-4.974675487036453098e-14
-4.853003409107436021e-14
-4.475821461003052692e-14
-3.903396861683375270e-14
-3.235541169379792173e-14
-2.651034504039876904e-14
-2.256472807036308397e-14
-1.932943366544888546e-14
-1.468836579096203565e-14
-1.032438113885159891e-14
-8.365272908393535861e-15
-5.824307777596428165e-15
-4.416595020757363395e-15
-3.118474274269745135e-15
-2.278840639879521664e-15
-1.680626507602486535e-15
-1.254992370358179606e-15
-9.529597606203949765e-16
-7.359788618454068573e-16
-5.772973654795222302e-16
-4.570689212837891282e-16
-3.627057944045842550e-16
-2.864500781530523731e-16
-2.236011517009003845e-16
-1.714835872212450022e-16
-1.285687775559428944e-16
-9.390076932742371685e-17
-6.669713328212589697e-17
-4.609927368990303034e-17
