# bin_19_2
-3.223972799012656329e-78
-3.609505445367748668e-78
-3.966103903644274987e-78
-4.257097694889455253e-78
-4.436167832267504030e-78
-4.461576636244202733e-78
-4.275628422653063778e-78
-3.867152851491727769e-78
-3.304440338839740446e-78
-2.712502827889388434e-78
-2.244737388879926906e-78
-1.939633798051211336e-78
-1.616896613204908727e-78
-1.155586210592878787e-78
-8.490475616154207547e-79
-6.724724685841255303e-79
-4.501418023645025821e-79
-3.352981693500986289e-79
-2.359619403504447723e-79
-1.641357872792617969e-79
-1.152356056271299835e-79
-8.138226083893653197e-80
-5.828531573142812502e-80
-4.241575193249002581e-80
-3.148851631702722383e-80
-2.380011543542443727e-80
-1.825849855647884520e-80
-1.413936740966937657e-80
-1.097370003010475249e-80
-8.474111050069358541e-81
-6.468833120319036187e-81
