# bin_9_9
-4.205311380086030686e-08
-4.630903183799987812e-08
-4.985917817362046634e-08
-5.217477595762805403e-08
-5.273330618932005417e-08
-5.092052410251573947e-08
-4.641744412272489039e-08
-3.999029878511180649e-08
-3.293183449380923656e-08
-2.711375790473974595e-08
-2.330855460562733032e-08
-1.970381940889717878e-08
-1.441830855730619060e-08
-1.033085131437394785e-08
-8.361460407141148576e-09
-5.600745052900199239e-09
-4.264219516821130344e-09
-2.991656856547503280e-09
-2.113397432284203106e-09
-1.517291873106214880e-09
-1.097337631878301192e-09
-8.054937607276835814e-10
-6.012954125077054640e-10
-4.574602995152216851e-10
-3.532328774931165405e-10
-2.753719188816182317e-10
-2.153514306362923459e-10
-1.677137923979626673e-10
-1.292239332036863592e-10
-9.795466408104193408e-11
-7.272897867975901866e-11
