# bin_16_1
-2.886840038606341157e-72
-3.202892965314851580e-72
-3.480396817176072233e-72
-3.684347934540563939e-72
-3.773058282056687607e-72
-3.714106671694334826e-72
-3.459669058791966606e-72
-3.046122603780717269e-72
-2.539825882865576142e-72
-2.077438439898613751e-72
-1.757769672311370684e-72
-1.518314377260491705e-72
-1.180097180590700500e-72
-8.166680604701427780e-73
-6.558159852417163543e-73
-4.627873042818977360e-73
-3.417140664015508420e-73
-2.341904990784973395e-73
-1.686881781163379470e-73
-1.198912315772365226e-73
-8.560804174547065396e-74
-6.189206771627385166e-74
-4.540116376645285052e-74
-3.395163836739574273e-74
-2.584472459508669729e-74
-1.994478920989514498e-74
-1.552211338177939035e-74
-1.209585406493925815e-74
-9.371500166339705130e-75
-7.172589327882172203e-75
-5.395294326892118235e-75
