# bin_18_1
-1.462467852797020188e-83
-1.632464783418788256e-83
-1.787180404601363859e-83
-1.909570079203518626e-83
-1.978249955492836264e-83
-1.976148304069841201e-83
-1.875805857927241105e-83
-1.681279652518863395e-83
-1.423565634794900602e-83
-1.165585647969260125e-83
-9.712456661876141923e-84
-8.413341872472771434e-84
-6.874046604931154449e-84
-4.818771869886833406e-84
-3.659242726537863206e-84
-2.800688042409677523e-84
-1.923414171947813591e-84
-1.386966258258665174e-84
-9.948665686706846021e-85
-6.963097554437983619e-85
-4.894838225409350488e-85
-3.483683853126774186e-85
-2.516264771022141312e-85
-1.849154360620093952e-85
-1.385645906330613350e-85
-1.055836415637216002e-85
-8.149176222630887888e-86
-6.331161259793276957e-86
-4.915204927014005183e-86
-3.786508050214234514e-86
-2.877155849414396873e-86
