# bin_4_7
-4.513664732259047579e-11
-4.840444537992051655e-11
-5.041592318773207559e-11
-5.069746941898664144e-11
-4.861379687691130029e-11
-4.401735557240831675e-11
-3.766762335129166566e-11
-3.094149659723084148e-11
-2.557004989700241542e-11
-2.203221537816395025e-11
-1.840474272143390740e-11
-1.329246013530850994e-11
-9.740339907677001083e-12
-7.764059311050669248e-12
-5.291513980062569319e-12
-3.997142027582737801e-12
-2.867358714279666240e-12
-2.061613124257531410e-12
-1.507365039861912286e-12
-1.117107496562733807e-12
-8.428232606978126557e-13
-6.469632077727837042e-13
-5.044480694681505259e-13
-3.970834467665882780e-13
-3.134481150685580808e-13
-2.464013827058491164e-13
-1.915672410594413597e-13
-1.464428424189973844e-13
-1.095401622903541925e-13
-7.987956071533573657e-14
-5.668625703835106731e-14
