# bin_6_11
-5.117702949215587260e-15
-5.624634832147890719e-15
-6.041190149893684259e-15
-6.302384286652283844e-15
-6.347824281689842503e-15
-6.098301189416785958e-15
-5.530080410526163170e-15
-4.738648313627710295e-15
-3.893533702540790919e-15
-3.215072841370579440e-15
-2.772118973945957148e-15
-2.323152047299496327e-15
-1.676519328073719404e-15
-1.221119884120082687e-15
-9.775288856548739988e-16
-6.571135328432890906e-16
-4.964461374834068198e-16
-3.517175337598965305e-16
-2.488127619597801533e-16
-1.786666446437245700e-16
-1.294941183716679629e-16
-9.542334977106372144e-17
-7.154767284454648718e-17
-5.464556687055706880e-17
-4.232344329917314700e-17
-3.305803688459866570e-17
-2.586846553181128573e-17
-2.013291972834149043e-17
-1.548498429068448508e-17
-1.170639492240640001e-17
-8.661566013802623608e-18
