# bin_16_8
-3.192384476820539637e-22
-3.567949822879771126e-22
-3.912124629733979088e-22
-4.188075992426266046e-22
-4.349451096922216151e-22
-4.357376227081218287e-22
-4.152693661163245704e-22
-3.736048434510364534e-22
-3.175131354626796644e-22
-2.602019859756889043e-22
-2.161605086436874760e-22
-1.871251217638004959e-22
-1.542516823113398850e-22
-1.089114612389362493e-22
-8.157247313884115854e-23
-6.338858774407510556e-23
-4.300515554445472538e-23
-3.146670381997965223e-23
-2.239912523453680237e-23
-1.563452653350459588e-23
-1.098004771755002205e-23
-7.787398501236595639e-24
-5.605022420693749714e-24
-4.102535273462609341e-24
-3.062579352249750806e-24
-2.326085882670803139e-24
-1.791091233123656243e-24
-1.389860650074292620e-24
-1.079025113026748668e-24
-8.321582134235028023e-25
-6.335668125952112314e-25
