# bin_2_17
-1.737540459158418792e-67
-1.935013945667279538e-67
-2.112378023983629873e-67
-2.249029767706136327e-67
-2.319404695236221064e-67
-2.304296687911568025e-67
-2.171376045065014580e-67
-1.932863735093166945e-67
-1.626142802716094584e-67
-1.330040693707442035e-67
-1.114773620275411332e-67
-9.657763009395476812e-68
-7.750099316299344171e-68
-5.380647750218620468e-68
-4.187919061043192182e-68
-3.109884096052742658e-68
-2.193276466957277525e-68
-1.540264047170501368e-68
-1.115322200613477346e-68
-7.848670302008583841e-69
-5.539343488822943041e-69
-3.968109818104657362e-69
-2.883972053361195567e-69
-2.134345258847788369e-69
-1.609756160195312500e-69
-1.233233391940065550e-69
-9.553953736393856045e-70
-7.434715431025679178e-70
-5.769479083083414143e-70
-4.434460588096399513e-70
-3.356798716493776385e-70
