# bin_14_6
-2.851917722696070885e-24
-3.163118325811759209e-24
-3.435801780723890750e-24
-3.635329517354046404e-24
-3.720648719598777960e-24
-3.659529508662694021e-24
-3.405431887664609514e-24
-2.995512589267282921e-24
-2.495835365588875647e-24
-2.041650206502501869e-24
-1.728912487961703884e-24
-1.492720427934021360e-24
-1.156907347958404674e-24
-8.008774672575943287e-25
-6.444973960878231958e-25
-4.528299076184592516e-25
-3.355927722673685777e-25
-2.298156531635748772e-25
-1.653172239924053490e-25
-1.176021553421230396e-25
-8.406527944687688411e-26
-6.082149034717430673e-26
-4.465115599838116259e-26
-3.341959536314594528e-26
-2.545882680708501396e-26
-1.965827778527543781e-26
-1.530426194168197251e-26
-1.192691903481855032e-26
-9.238981719894511594e-27
-7.068419301109147678e-27
-5.313966082206614458e-27
