# bin_10_3
-4.262361485886657325e-24
-4.626711665754575915e-24
-4.893044977496775213e-24
-5.006522984314150929e-24
-4.923618001738460061e-24
-4.582357527475951985e-24
-4.031545447120974910e-24
-3.360178091448770523e-24
-2.748329636826916200e-24
-2.324987452996909051e-24
-2.006063215426987773e-24
-1.558944323922644025e-24
-1.082870532975856036e-24
-8.696171063996761244e-25
-6.174465494954679555e-25
-4.580296006637995814e-25
-3.187152928051530294e-25
-2.323064585146627817e-25
-1.680630827621627943e-25
-1.226596115575685804e-25
-9.093673813234347427e-26
-6.854379223390564536e-26
-5.260895665908266059e-26
-4.095495360514211431e-26
-3.214519021668283222e-26
-2.527210504683895524e-26
-1.975941840079761066e-26
-1.526418210422765765e-26
-1.158560853353634806e-26
-8.601504967229004901e-27
-6.226071857303347061e-27
