# bin_18_4
-1.500252123702977797e-54
-1.677480250632817571e-54
-1.840279478184590136e-54
-1.971402063749327034e-54
-2.049123859898670475e-54
-2.054887922390388298e-54
-1.961098445794810232e-54
-1.766675874711264277e-54
-1.503447947136374301e-54
-1.232536657138399585e-54
-1.022886900223706028e-54
-8.851623015460058083e-55
-7.317979485305412356e-55
-5.181733496085569434e-55
-3.862298173682881670e-55
-3.016445478825554326e-55
-2.038793325310273410e-55
-1.498983855628670788e-55
-1.063962318365230011e-55
-7.419719810171836791e-56
-5.210033518384216843e-56
-3.690888058214867755e-56
-2.653218032406949208e-56
-1.939213018502446330e-56
-1.445660807351335691e-56
-1.096703863706501820e-56
-8.437149274434620346e-57
-6.543999142521571191e-57
-5.080229907468680973e-57
-3.919314507809445586e-57
-2.986001395051740203e-57
