# bin_13_17
-3.483641763453993393e-11
-3.924076689657496017e-11
-4.343720461162285955e-11
-4.705184952401161834e-11
-4.959897135420753599e-11
-5.053276247216473330e-11
-4.936859011203945572e-11
-4.556507986994469365e-11
-3.975713763770259081e-11
-3.294813028009148472e-11
-2.700246170094299863e-11
-2.303628293473010710e-11
-1.978081357148028232e-11
-1.494626444530025815e-11
-1.040177529080449793e-11
-8.467589130929894001e-12
-5.710853924228398705e-12
-4.313828648209259023e-12
-2.923937771048261842e-12
-2.038656158229422730e-12
-1.428967616855984960e-12
-1.001631139155814137e-12
-7.055040533174534751e-13
-5.025607508733901002e-13
-3.649599741040975893e-13
-2.702445294256356987e-13
-2.037975710719206778e-13
-1.560338790639846289e-13
-1.205274855049036794e-13
-9.325433404382670994e-14
-7.174168465011719022e-14
