# bin_11_15
-1.586011083190743555e-11
-1.776588610268714197e-11
-1.953340917006132178e-11
-2.098305333415794824e-11
-2.188760259953900881e-11
-2.203812693408796779e-11
-2.115458600267399739e-11
-1.916479001451625797e-11
-1.640369260957970008e-11
-1.347337053388782089e-11
-1.113807861930080126e-11
-9.616804445651014042e-12
-8.041745598471922783e-12
-5.771079455084664047e-12
-4.215822272383684878e-12
-3.356190674798813000e-12
-2.239675620817565103e-12
-1.675742993900989540e-12
-1.175333848391320513e-12
-8.168111187575728322e-13
-5.734860158043055696e-13
-4.045874541409415114e-13
-2.893381577368491771e-13
-2.101880100412898414e-13
-1.557713951730741481e-13
-1.175574395843832046e-13
-9.007746962129951662e-14
-6.970704343920924835e-14
-5.409115166161342000e-14
-4.178437959969346132e-14
-3.192095295883265942e-14
