# bin_15_14
-1.943246319802346548e-08
-2.185461443132608318e-08
-2.414593002417542623e-08
-2.609420058659311918e-08
-2.742645489868616716e-08
-2.785135384949418585e-08
-2.707674098046785535e-08
-2.485412610357970110e-08
-2.156507952708642164e-08
-1.781793066296432534e-08
-1.462836978933981321e-08
-1.252956032321366666e-08
-1.069614582468770875e-08
-7.958151904349843043e-09
-5.590524691218749976e-09
-4.557579675509333766e-09
-3.033113031301282631e-09
-2.305360407439822605e-09
-1.576866258368149298e-09
-1.093569357503969702e-09
-7.679337362691121385e-10
-5.393876269506180329e-10
-3.815467986394130594e-10
-2.733163378546255263e-10
-1.997002105554254902e-10
-1.487465213449180610e-10
-1.127515050657172326e-10
-8.664542259628559076e-11
-6.705564018826828734e-11
-5.188274051363612551e-11
-3.984640303875944233e-11
