# bin_14_8
-1.427141639439832340e-16
-1.588105800916070446e-16
-1.732022266669224081e-16
-1.841880351127196692e-16
-1.896695934985989118e-16
-1.880819598743967862e-16
-1.768059078529591521e-16
-1.570262633958435756e-16
-1.318443424768831418e-16
-1.078172226580995478e-16
-9.054468598980080740e-17
-7.842262324519003039e-17
-6.252939840064844885e-17
-4.332602609301595911e-17
-3.398050600597607329e-17
-2.496800005412009048e-17
-1.778115722560760910e-17
-1.239220963231104686e-17
-8.982950614111551984e-18
-6.333643294924113250e-18
-4.479168780260552811e-18
-3.215283804200717637e-18
-2.341438387554650493e-18
-1.736728338033214915e-18
-1.312525914530739621e-18
-1.007177074499056478e-18
-7.811105953744909076e-19
-6.080904372779182368e-19
-4.717711830566752501e-19
-3.623062482583418015e-19
-2.739055651326460110e-19
