# bin_20_15
-3.115819214098806732e-12
-3.529414103150259956e-12
-3.933275966465334290e-12
-4.296016540186081354e-12
-4.575504591541614433e-12
-4.719408216872174360e-12
-4.688752640109805417e-12
-4.417169387218444258e-12
-3.930745147699660007e-12
-3.305737127820408376e-12
-2.704142396737234944e-12
-2.268724467310564375e-12
-1.966407605867605803e-12
-1.574731526682312263e-12
-1.090026651883560569e-12
-8.499270346531521017e-13
-6.263089411190902455e-13
-4.400048672854736222e-13
-3.040569366404593469e-13
-2.175058426401485107e-13
-1.498892200636054580e-13
-1.028447004982716527e-13
-7.124553617258915502e-14
-4.977315095754291880e-14
-3.528589510867866688e-14
-2.549725716559468694e-14
-1.879146718415680053e-14
-1.412269144257964662e-14
-1.077882211125798535e-14
-8.302932097267309128e-15
-6.406770632072375916e-15
