# bin_11_9
-3.730521516836474843e-09
-4.130043335038393182e-09
-4.476021707065061427e-09
-4.722740123286305738e-09
-4.817870032168354672e-09
-4.716932130768226977e-09
-4.365413676804484225e-09
-3.819533218823002448e-09
-3.170915135514202338e-09
-2.596304026442394807e-09
-2.208308978461798718e-09
-1.899912482210912942e-09
-1.449901589012252027e-09
-1.008027941600368466e-09
-8.179894619549290452e-10
-5.627260635771155773e-10
-4.237936111971212644e-10
-2.906184249488143634e-10
-2.073599527846279021e-10
-1.481581614573554763e-10
-1.064388276824388278e-10
-7.730565183869117253e-11
-5.699776020870549088e-11
-4.285400494691206953e-11
-3.277244982426879987e-11
-2.537857010913466115e-11
-1.978852805604328339e-11
-1.542386063866473133e-11
-1.193410223265574063e-11
-9.109854749540772505e-12
-6.827228773880948507e-12
