# bin_12_4
-7.462341786069701040e-27
-8.192557028830466244e-27
-8.787350381057716103e-27
-9.151403639861480357e-27
-9.199232114212729482e-27
-8.812432051150674540e-27
-7.968836789893528418e-27
-6.808602503035005079e-27
-5.588455988325007000e-27
-4.623015738128015935e-27
-3.991353334112093179e-27
-3.327234360190155492e-27
-2.384448932675097785e-27
-1.753641039227415215e-27
-1.392494755758217782e-27
-9.404788374402339631e-28
-7.058036921899933466e-28
-5.027903536742475543e-28
-3.561794481264197772e-28
-2.558031614540317355e-28
-1.857000088820060056e-28
-1.371384274249334740e-28
-1.030703687683806958e-28
-7.888361095786997524e-29
-6.119158979185667553e-29
-4.784079730157654823e-29
-3.744474858369789800e-29
-2.912944427981750275e-29
-2.238120180112774808e-29
-1.689394027424776101e-29
-1.247553831230114083e-29
