# bin_19_10
-2.256193228449869409e-23
-2.540814768454941480e-23
-2.811703645589684671e-23
-3.044576819080411890e-23
-3.207940924088862761e-23
-3.266651701323379189e-23
-3.188985516898685188e-23
-2.940719742888618796e-23
-2.563622807866709879e-23
-2.123459830397061382e-23
-1.740650034457847668e-23
-1.485977456755440581e-23
-1.274996535819731397e-23
-9.609896431262321852e-24
-6.695352132985855912e-24
-5.454634566766666432e-24
-3.668067070407976851e-24
-2.775587945361566069e-24
-1.883594483961715974e-24
-1.311517525213616463e-24
-9.197760554959848852e-25
-6.450663608696296337e-25
-4.546629705014239779e-25
-3.241575584117379245e-25
-2.356344229669715120e-25
-1.746486046860304149e-25
-1.318183037136472636e-25
-1.009875246960880096e-25
-7.803402426008637368e-26
-6.037881032737877094e-26
-4.643906613501791721e-26
