# bin_12_14
-4.727534448064240908e-09
-5.294156450480698179e-09
-5.818923672374273897e-09
-6.248171795154951791e-09
-6.514074029292679087e-09
-6.554918546459721879e-09
-6.286613259063802062e-09
-5.690350448537024421e-09
-4.866162091296834822e-09
-3.995559694218446866e-09
-3.304859187666813430e-09
-2.854690395530472576e-09
-2.383236418397918977e-09
-1.706495268917700418e-09
-1.250438922037537158e-09
-9.928273828581576725e-10
-6.635615638165709725e-10
-4.953529919896159066e-10
-3.480427029391404294e-10
-2.419925920555949185e-10
-1.698996536963602953e-10
-1.199262789760155593e-10
-8.583111530792799304e-11
-6.241027273351247282e-11
-4.629503730984496700e-11
-3.496658794279601253e-11
-2.681017132708422717e-11
-2.075515145862947339e-11
-1.610713343033485149e-11
-1.244030495148740266e-11
-9.499911300090745915e-12
