# bin_19_4
-2.056802678565089820e-59
-2.305097154541738571e-59
-2.535973054837836831e-59
-2.726232571699460047e-59
-2.846489805242689396e-59
-2.869197086040243496e-59
-2.758530296261076353e-59
-2.502972031773076989e-59
-2.145821208284221928e-59
-1.763533978394972777e-59
-1.456410513442081795e-59
-1.256538229968721306e-59
-1.053835601187938873e-59
-7.592696125948907497e-60
-5.516442850193743119e-60
-4.412382105395882045e-60
-2.936454592690776241e-60
-2.206017862001058897e-60
-1.542378568495197925e-60
-1.070979416263732970e-60
-7.519642726851204810e-61
-5.299877880821235250e-61
-3.784856390830964291e-61
-2.744806798293361591e-61
-2.030803366850753607e-61
-1.530316587448851792e-61
-1.171212424572492542e-61
-9.057162238398551703e-62
-7.026869636135794495e-62
-5.429807592081502393e-62
-4.151072471074030578e-62
