# bin_6_13
-7.285158236929708709e-21
-8.057152383289286052e-21
-8.721169517747142856e-21
-9.187498509391397965e-21
-9.355789081805804614e-21
-9.135986897484900526e-21
-8.429612134263673579e-21
-7.353354893018837619e-21
-6.093339362762047616e-21
-4.992612945453661508e-21
-4.256467938369935364e-21
-3.653041011523008982e-21
-2.764188990031793369e-21
-1.928488355554264322e-21
-1.569905460727646678e-21
-1.069143196807998153e-21
-8.106643470078078565e-22
-5.575345163891688562e-22
-3.961610411394896070e-22
-2.836113723417144059e-22
-2.041818829362509677e-22
-1.486065322491206392e-22
-1.098317432870704652e-22
-8.277860796851974389e-23
-6.343422012247489425e-23
-4.919561994589869919e-23
-3.838844280690321304e-23
-2.992090166595883136e-23
-2.313474381943172622e-23
-1.763706788640883848e-23
-1.319446737440932655e-23
