# bin_15_10
-1.648279705390427575e-13
-1.843693358647550806e-13
-2.023563454881085848e-13
-2.168999184174724024e-13
-2.256188310409001701e-13
-2.264467178221541812e-13
-2.163736219905544523e-13
-1.951487140649929482e-13
-1.662689297500433366e-13
-1.363565928400334354e-13
-1.130663084890684295e-13
-9.780549234160396486e-14
-8.106028739244969483e-14
-5.754776842413836372e-14
-4.271398337684949239e-14
-3.350117933920639480e-14
-2.257441656135652397e-14
-1.666395725319182037e-14
-1.179814923757912114e-14
-8.221342919839599197e-15
-5.772430682443522371e-15
-4.085399193120298123e-15
-2.933608641256372817e-15
-2.141439747743645598e-15
-1.594483949944615758e-15
-1.208322994156238057e-15
-9.288401800864590461e-16
-7.201073417504147692e-16
-5.589978411993799847e-16
-4.313828470458450862e-16
-3.288474898027285351e-16
