# bin_3_6
-2.959451925859224266e-11
-3.134503674641424276e-11
-3.214381373962324972e-11
-3.171521552462714640e-11
-2.965112902472623930e-11
-2.620440802972638228e-11
-2.192296888142406154e-11
-1.792587203903944956e-11
-1.508862548899129024e-11
-1.302190876788292821e-11
-1.027338418909639031e-11
-7.173915215831006096e-12
-5.670916528206917688e-12
-4.143934138645214250e-12
-3.021755597542727235e-12
-2.152630266076977807e-12
-1.584328522418130537e-12
-1.157195602243829639e-12
-8.554343136732694534e-13
-6.440575078273648247e-13
-4.935299411103321538e-13
-3.844788283575166873e-13
-3.030365846810777652e-13
-2.400037391280345501e-13
-1.896690191411614157e-13
-1.485250437003669830e-13
-1.145188562701905446e-13
-8.648319097396288306e-14
-6.370984008889112294e-14
-4.566757425430886781e-14
-3.184498663162031380e-14
