# bin_18_13
-1.086712520372222109e-12
-1.225621366604214897e-12
-1.358699359432573255e-12
-1.474467350785348984e-12
-1.557877546391978140e-12
-1.591403252886376189e-12
-1.560874144244268448e-12
-1.447276416608388824e-12
-1.268799941052698897e-12
-1.053947917217547524e-12
-8.626366631079400260e-13
-7.329905878659728200e-13
-6.317807895338024725e-13
-4.838917075138217591e-13
-3.348573794478852554e-13
-2.711212311471139222e-13
-1.860337209520389445e-13
-1.389233489720663969e-13
-9.366554391310584870e-14
-6.583365019944177790e-14
-4.598450611223496419e-14
-3.211025941787245690e-14
-2.253145117224582577e-14
-1.597308043592894873e-14
-1.153568131499514011e-14
-8.495730429479410595e-15
-6.375675636041717146e-15
-4.863528045817013698e-15
-3.748922280853783141e-15
-2.899458894966774545e-15
-2.233241014345282320e-15
