# bin_6_13
-7.160217876743725470e-21
-7.917905665651792237e-21
-8.569157361498703892e-21
-9.025862820191724149e-21
-9.189366925284493454e-21
-8.972026811592787544e-21
-8.276772162715134624e-21
-7.220752785072392735e-21
-5.979133248928595133e-21
-4.897858175865916347e-21
-4.174698691122952713e-21
-3.582639339216914037e-21
-2.710959865965311369e-21
-1.890482624244262310e-21
-1.538796903687072800e-21
-1.047957792651823094e-21
-7.943944296645302583e-22
-5.462259365411111938e-22
-3.880881981691902868e-22
-2.778120073769841273e-22
-1.999823278188919795e-22
-1.455348839287070656e-22
-1.075489822104488294e-22
-8.104840531474062380e-23
-6.210182491995553122e-23
-4.815764493266466377e-23
-3.757519456519770423e-23
-2.928479018324544718e-23
-2.264138847134740003e-23
-1.725996667552948310e-23
-1.291177296676822108e-23
