# bin_3_3
-1.025621346968467383e-07
-1.056682408075961792e-07
-1.049141187421936679e-07
-9.892492889909357506e-08
-8.814915885512149794e-08
-7.432032051578622355e-08
-6.080886783803302967e-08
-5.080643310591608429e-08
-4.385229701571404265e-08
-3.538724209853115611e-08
-2.498022450709728884e-08
-1.923562872063816630e-08
-1.459337997841796686e-08
-1.039187453047015677e-08
-7.611511359443286946e-09
-5.612422394478799245e-09
-4.121458824743878817e-09
-3.074953133362818098e-09
-2.338046219786098043e-09
-1.810590600419349174e-09
-1.423996528609095070e-09
-1.131531127154126036e-09
-9.018107591525315271e-10
-7.156562020520066080e-10
-5.616044273774566347e-10
-4.330807961894733056e-10
-3.264996793307722974e-10
-2.397765907054696521e-10
-1.712104274178881980e-10
-1.189442430014707580e-10
-8.057701208515100798e-11
