# bin_7_16
-1.301299587567393627e-26
-1.452364799218014330e-26
-1.589767087632977958e-26
-1.698346375094734774e-26
-1.759098345212043766e-26
-1.756877109374131631e-26
-1.667310532564368527e-26
-1.493878854972917076e-26
-1.264966368675584469e-26
-1.035109324456436374e-26
-8.622539588425795930e-27
-7.468535892407480527e-27
-6.101828384127263937e-27
-4.276146171567340370e-27
-3.246033935732576288e-27
-2.484794101776296289e-27
-1.705535876984234004e-27
-1.229942693433357793e-27
-8.822023708885134362e-28
-6.173468192034124102e-28
-4.339011394921721402e-28
-3.087749394725110240e-28
-2.230098811506808104e-28
-1.638705495883945660e-28
-1.227856751232722003e-28
-9.355479991884082905e-29
-7.220354648182944892e-29
-5.609272753128978873e-29
-4.354554710233871778e-29
-3.354445280350673294e-29
-2.548735194924567589e-29
