# bin_19_14
-1.861352086880962277e-12
-2.103991225243608835e-12
-2.338735332481432946e-12
-2.546423577493361889e-12
-2.701570853716172571e-12
-2.773248924264605242e-12
-2.738433116341850305e-12
-2.560042665170784835e-12
-2.261629703741128041e-12
-1.889976611145403752e-12
-1.545362907933572305e-12
-1.304174352188927880e-12
-1.128624766962464734e-12
-8.850317923932047235e-13
-6.103646600739604485e-13
-4.862549276059536476e-13
-3.460993372815616948e-13
-2.509001033016805385e-13
-1.698725619727836100e-13
-1.211301254637980402e-13
-8.395975488940357177e-14
-5.806664162857280479e-14
-4.048239348669731515e-14
-2.847768384876590068e-14
-2.037099797362349162e-14
-1.485850054073292855e-14
-1.105077188782933479e-14
-8.369534329939160041e-15
-6.422249925042072116e-15
-4.959474751312152612e-15
-3.825264678629595672e-15
