# bin_5_18
-7.944731479520355923e-47
-8.888987930348246716e-47
-9.759487981942703725e-47
-1.046550991446066508e-46
-1.089273083871357583e-46
-1.094017346918354780e-46
-1.046475948920286923e-46
-9.446561246026414165e-47
-8.061000880675475523e-47
-6.608080987446045499e-47
-5.472708251593653558e-47
-4.731389580164846836e-47
-3.931121901911988380e-47
-2.798205663812050709e-47
-2.066886973686820738e-47
-1.628357830890895567e-47
-1.093453624304152255e-47
-8.105744404033722722e-48
-5.722508176841611626e-48
-3.984131665450935507e-48
-2.797076903446872678e-48
-1.977666096937665424e-48
-1.418482952707673787e-48
-1.034083632658682810e-48
-7.690012411547325815e-49
-5.821293686039789889e-49
-4.471132253534063172e-49
-3.464759035038177329e-49
-2.689363367552685308e-49
-2.075965142655042843e-49
-1.583415561751168880e-49
