# bin_16_11
-3.223948140628837067e-13
-3.616873688078934466e-13
-3.984204662967969750e-13
-4.289951725544728118e-13
-4.488374650078965403e-13
-4.534608932091481578e-13
-4.375137505179294315e-13
-3.983703005589177907e-13
-3.429846238199111021e-13
-2.820731307287037187e-13
-2.323625796395561959e-13
-2.000107298000770550e-13
-1.688238612373365525e-13
-1.228687693840878664e-13
-8.811259102938488893e-14
-7.114383716415352040e-14
-4.715098742324583001e-14
-3.567950474920626866e-14
-2.475714934625657782e-14
-1.716175521295284906e-14
-1.205213765035886690e-14
-8.480416503907633237e-15
-6.036597163620289410e-15
-4.360037312703442332e-15
-3.212941856663385165e-15
-2.412331783567035318e-15
-1.840842857538371012e-15
-1.420955470706926604e-15
-1.101760965939486799e-15
-8.518505705224463303e-16
-6.522732963558677414e-16
