# bin_4_15
-3.542252008199515920e-40
-3.928325202462467346e-40
-4.266427265415139098e-40
-4.513565822802614742e-40
-4.618756760475658534e-40
-4.542314128138750280e-40
-4.226341697603385236e-40
-3.717462930194906321e-40
-3.095910937243224922e-40
-2.531896271243204468e-40
-2.143402770864787996e-40
-1.850486464236286220e-40
-1.434416456606587267e-40
-9.926124917824824650e-41
-7.984913936528034969e-41
-5.612294931792272809e-41
-4.156496098425565459e-41
-2.846260003052773783e-41
-2.047552212940445985e-41
-1.456119644067598746e-41
-1.040540621031113073e-41
-7.526383372332520006e-42
-5.523906974293866759e-42
-4.133248518667494292e-42
-3.147879894339492237e-42
-2.430135319454594664e-42
-1.891566756959344315e-42
-1.473953917536418322e-42
-1.141684719644020949e-42
-8.734319368685711881e-43
-6.566384315978697531e-43
