# bin_19_18
-1.857370947723875874e-08
-2.106854754201937018e-08
-2.352055309844595672e-08
-2.574527531621752772e-08
-2.749483847617619135e-08
-2.845856484590972225e-08
-2.839470558088634018e-08
-2.690292937659449121e-08
-2.406595736144477570e-08
-2.034287330437099100e-08
-1.664453215029713659e-08
-1.389316918060428230e-08
-1.204193052102929748e-08
-9.789754949822570540e-09
-6.824328687818345363e-09
-5.213538857135657647e-09
-3.942889238335941472e-09
-2.706047952704889232e-09
-1.913903181554950120e-09
-1.360232023551974626e-09
-9.333198907139273496e-10
-6.380141783315997217e-10
-4.394401653291418817e-10
-3.052446164716701206e-10
-2.147914543872107554e-10
-1.539816624665674351e-10
-1.125879107041822589e-10
-8.401859012851818395e-11
-6.378621476364371190e-11
-4.898828799110573150e-11
-3.778193080635123572e-11
