# bin_15_3
-7.986687689474788648e-48
-8.846591099047956928e-48
-9.593906901141964528e-48
-1.013113004923210542e-47
-1.034504433076703127e-47
-1.014333040640961955e-47
-9.403794435958406409e-48
-8.243352545411782384e-48
-6.847724959649901090e-48
-5.603272854440356863e-48
-4.757459247326876497e-48
-4.098650939091541242e-48
-3.144872960695954368e-48
-2.181292291391033648e-48
-1.765550453286607961e-48
-1.222991984248545497e-48
-9.161997469835682779e-49
-6.273917957663420888e-49
-4.488730463533141345e-49
-3.202129587907215989e-49
-2.296366985976068721e-49
-1.665290341633007055e-49
-1.225711109286715917e-49
-9.199193846623219335e-50
-7.024389420529143846e-50
-5.433393900999284683e-50
-4.233847872451062502e-50
-3.299592030028553221e-50
-2.553930325459935883e-50
-1.951004155571960736e-50
-1.463736455393426237e-50
