# bin_18_6
-5.420702343609899175e-40
-6.070115311376626279e-40
-6.671486282895398742e-40
-7.163346696015214281e-40
-7.468076160969177149e-40
-7.514708846863443293e-40
-7.207648444537792108e-40
-6.523617427037089357e-40
-5.582114995006006719e-40
-4.579937858808531401e-40
-3.786239149069930706e-40
-3.269693609849126777e-40
-2.730921536857173639e-40
-1.956374531817428790e-40
-1.431563549969235398e-40
-1.137739555752087781e-40
-7.597019803000673746e-41
-5.676336635586890869e-41
-3.985105887180366276e-41
-2.770144842101333359e-41
-1.944802413742273992e-41
-1.372494306550586511e-41
-9.820519401229236578e-42
-7.138816392210334795e-42
-5.294151482200259968e-42
-3.997840870178830683e-42
-3.064792001135664864e-42
-2.372389648815378099e-42
-1.841050356165772617e-42
-1.421978578251123922e-42
-1.085968618782222561e-42
