# bin_4_7
-4.435419435133611655e-11
-4.755798758294569098e-11
-4.952606514967511275e-11
-4.979301790687570358e-11
-4.773848056689770844e-11
-4.321297617146615045e-11
-3.698975053680062676e-11
-3.036097513701884924e-11
-2.508199020326868896e-11
-2.160815948646214642e-11
-1.805005932496846651e-11
-1.303567802381721868e-11
-9.547277224492443613e-12
-7.611304317015520557e-12
-5.185895437512993902e-12
-3.917760011574970612e-12
-2.809794753070088317e-12
-2.020111942006109876e-12
-1.477054852795994694e-12
-1.094661918335013220e-12
-8.258938001781099999e-13
-6.339650326295960322e-13
-4.943084166338724045e-13
-3.890941515057609681e-13
-3.071303113919710753e-13
-2.414226613456768943e-13
-1.876849559202379385e-13
-1.434653825624052224e-13
-1.073056053045267031e-13
-7.824490964145487022e-14
-5.552282892547504966e-14
