# bin_20_10
-2.242779592857933108e-26
-2.529319434330318910e-26
-2.803762706672021850e-26
-3.042402996478564230e-26
-3.214176139581752992e-26
-3.282939700109077558e-26
-3.219405750491021489e-26
-2.984474087624465229e-26
-2.615913885835999280e-26
-2.172615388525352649e-26
-1.778298839571584647e-26
-1.511306872029205596e-26
-1.302481106850872499e-26
-9.969771065492691737e-27
-6.899973408126369035e-27
-5.588841341367321220e-27
-3.831133187141407026e-27
-2.863124458567793906e-27
-1.930381260417757948e-27
-1.356165237804246551e-27
-9.474874379904388179e-28
-6.617881541497536234e-28
-4.644470335257807314e-28
-3.293235131635994096e-28
-2.378937798112608190e-28
-1.752453208308841589e-28
-1.315434932570213154e-28
-1.003624117975259390e-28
-7.737014890659613053e-29
-5.984097134533344825e-29
-4.608934784833722154e-29
