# bin_9_6
-9.147317151847512476e-11
-9.981780242155190208e-11
-1.062625590337388754e-10
-1.096125161901330101e-10
-1.089497596271040844e-10
-1.027734712748990313e-10
-9.157581554163536073e-11
-7.714610983884168397e-11
-6.308120403118336546e-11
-5.275879743775175841e-11
-4.566310439838669659e-11
-3.680401907952611178e-11
-2.570043972832755387e-11
-1.987992528506680723e-11
-1.494135622747685250e-11
-1.054012128679314272e-11
-7.548466469600599584e-12
-5.504700979771730221e-12
-3.938306965573303406e-12
-2.842316017407880749e-12
-2.086316744305261827e-12
-1.557992720241836656e-12
-1.184627874600018347e-12
-9.154395839908160527e-13
-7.150643612650682963e-13
-5.610954493183478424e-13
-4.391793223929562405e-13
-3.405362180597191109e-13
-2.600405611838826837e-13
-1.946164904595361363e-13
-1.422155327830063158e-13
