# bin_6_14
-2.803062054980064227e-24
-3.108520487717115992e-24
-3.375997272991190671e-24
-3.571468746790190885e-24
-3.654595317694867278e-24
-3.593965407557596651e-24
-3.343795351733121388e-24
-2.941043526160427070e-24
-2.449212856173849751e-24
-2.003022465698190391e-24
-1.695751101502227744e-24
-1.463982189522719212e-24
-1.134651113153559718e-24
-7.851832091991796947e-25
-6.317012061675308406e-25
-4.438975571843345704e-25
-3.288188111255160790e-25
-2.251535812258193850e-25
-1.619613418115846026e-25
-1.151845221909565016e-25
-8.231547059062354775e-26
-5.954225276115701570e-26
-4.370214009449798805e-26
-3.270145552976209647e-26
-2.490637356672885716e-26
-1.922807128290294313e-26
-1.496699548410306418e-26
-1.166268928233031091e-26
-9.033528010444806526e-27
-6.910858212809425181e-27
-5.195377767155229946e-27
