# bin_9_4
-4.902998534380678579e-16
-5.312255516755298820e-16
-5.605213379436154769e-16
-5.719847993635856770e-16
-5.604586141835050927e-16
-5.193420824472251008e-16
-4.550698308308956031e-16
-3.779905212016499358e-16
-3.092751321881968179e-16
-2.624458765281444743e-16
-2.258807072674084593e-16
-1.735089846755592527e-16
-1.207904681081457905e-16
-9.767241194534426975e-17
-6.827433229292143080e-17
-5.126826535537274460e-17
-3.564014875303831246e-17
-2.585914282277368972e-17
-1.876494225025728651e-17
-1.374265472545012190e-17
-1.021526145026848847e-17
-7.720301453978137219e-18
-5.940585886912546505e-18
-4.633410991908008467e-18
-3.640769637729160016e-18
-2.862986565379528168e-18
-2.237043889698099215e-18
-1.725707061161766723e-18
-1.307135366026434133e-18
-9.679344425605788269e-19
-6.985458257463141358e-19
