# bin_9_14
-7.646291097492855807e-14
-8.521815710055741149e-14
-9.311789393098982858e-14
-9.926169115010142672e-14
-1.025270276650119314e-13
-1.020581887133975692e-13
-9.642225522768057886e-14
-8.603216801476687171e-14
-7.254944578102136615e-14
-5.933048420551048301e-14
-4.959985609593230069e-14
-4.297077425738388000e-14
-3.473100676936510669e-14
-2.418190810228760952e-14
-1.863996031304559554e-14
-1.401134611944029913e-14
-9.769781293846580961e-15
-6.929329211314817617e-15
-5.003752075504507045e-15
-3.512765699567099236e-15
-2.473978027356439129e-15
-1.767511205042566718e-15
-1.281395244087805765e-15
-9.456277243150052155e-16
-7.113579837052850510e-16
-5.438055841506247479e-16
-4.206680048142120199e-16
-3.271418445112597865e-16
-2.539049088034998541e-16
-1.953209490772339627e-16
-1.480659477530741445e-16
