# bin_7_18
-5.265037705353496404e-34
-5.901180269999132049e-34
-6.493055020502744155e-34
-6.981410508820912897e-34
-7.291213393856728852e-34
-7.351405186618076002e-34
-7.071588345951529051e-34
-6.419138265035358230e-34
-5.509267293570053234e-34
-4.525048942960902992e-34
-3.734081471237648394e-34
-3.219910645275831495e-34
-2.703778459328239923e-34
-1.951464643160034675e-34
-1.413660320391228152e-34
-1.133107147294092657e-34
-7.530682839293551120e-35
-5.667274204948564951e-35
-3.955612540174728148e-35
-2.745433690865732617e-35
-1.927686007885246351e-35
-1.358129453480651479e-35
-9.692860786888493365e-36
-7.024011233523025350e-36
-5.193085251679046570e-36
-3.910760541592425116e-36
-2.991533857675748660e-36
-2.312685634114005738e-36
-1.794094999068081622e-36
-1.386490533774570791e-36
-1.060268147431770959e-36
