# bin_13_9
-6.146742858439717881e-12
-6.835978823236439874e-12
-7.450163234077808488e-12
-7.915865600601298670e-12
-8.142932677123207285e-12
-8.064339645990188815e-12
-7.568740665487400645e-12
-6.711562195142452724e-12
-5.627525828677431712e-12
-4.600295422148778587e-12
-3.866615332427100901e-12
-3.347690336164157876e-12
-2.658996088521792666e-12
-1.840792196832524226e-12
-1.448991044691600800e-12
-1.058319105342415420e-12
-7.575667753090150963e-13
-5.261847274337965797e-13
-3.812743131814039292e-13
-2.690681961783093028e-13
-1.905097710885412534e-13
-1.368802243594946970e-13
-9.977338834612901323e-14
-7.408525616313933692e-14
-5.604352948531123230e-14
-4.303778999300607829e-14
-3.339246327503236151e-14
-2.599793610196058331e-14
-2.016446658767887923e-14
-1.547695125413275289e-14
-1.169127703234818083e-14
