# bin_19_16
-9.939814347312359875e-10
-1.125575958547166389e-09
-1.253909525858909729e-09
-1.368947866502404233e-09
-1.457240438990518625e-09
-1.502116268680905323e-09
-1.491239290825441933e-09
-1.403555712037223403e-09
-1.247792004062945015e-09
-1.048542494914616793e-09
-8.573621167763491035e-10
-7.195238039357009367e-10
-6.235356754691090830e-10
-4.983418932060325270e-10
-3.446517760742273475e-10
-2.692650725613439857e-10
-1.978040182166231291e-10
-1.393103877553991250e-10
-9.603659271573135924e-11
-6.871326803416802700e-11
-4.736632227462249319e-11
-3.251547952526773675e-11
-2.253666891810547153e-11
-1.575369480864765070e-11
-1.117698688477658845e-11
-8.083181519952211058e-12
-5.962317337002865322e-12
-4.484236996654950437e-12
-3.424268460260287151e-12
-2.638375054569916695e-12
-2.035776831869476715e-12
