# bin_4_2
-2.211930300815875870e-09
-2.280734202654462639e-09
-2.266828703879764226e-09
-2.140147256390818350e-09
-1.909265917614770510e-09
-1.611293624224696891e-09
-1.318301822753066695e-09
-1.100368945427691203e-09
-9.501227595205823646e-10
-7.691521902626602551e-10
-5.430573285312794882e-10
-4.169659659791211535e-10
-3.177467790768566561e-10
-2.254063556832745760e-10
-1.654267324364900178e-10
-1.219789405741042490e-10
-8.949745376551459294e-11
-6.671597193123597612e-11
-5.069121948186026953e-11
-3.923195524146944069e-11
-3.083985039969695900e-11
-2.449880113451737657e-11
-1.952380546795617379e-11
-1.549597322086197335e-11
-1.216463787554416947e-11
-9.385682345446134643e-12
-7.080525460149588633e-12
-5.203622260600100720e-12
-3.718283302539328635e-12
-2.584890082577447321e-12
-1.752076654194980265e-12
