# bin_14_15
-1.910130870874633739e-08
-2.147962047402486206e-08
-2.372837714387767504e-08
-2.563905052451652167e-08
-2.694357331057016144e-08
-2.735544112962462902e-08
-2.659035996449771332e-08
-2.440281281209479678e-08
-2.117858492825558540e-08
-1.748386168490078093e-08
-1.435015168484462330e-08
-1.228857248901219210e-08
-1.048978940855560418e-08
-7.804688700207851732e-09
-5.479866740386578697e-09
-4.467338195585005213e-09
-2.972765415296428661e-09
-2.259192704203071746e-09
-1.544825838753351763e-09
-1.071174633428703014e-09
-7.522256347690322419e-10
-5.283370204508006319e-10
-3.737124208892854063e-10
-2.676903801759870905e-10
-1.955810219352378263e-10
-1.456751059752734391e-10
-1.104211743778347627e-10
-8.485328274272374419e-11
-6.566750021507054813e-11
-5.080767784800001846e-11
-3.901978137476400670e-11
