# bin_5_11
-1.814829326018548906e-18
-1.989248882684514788e-18
-2.129495305925249753e-18
-2.212233119312843150e-18
-2.217491593884238240e-18
-2.115883172777801762e-18
-1.905772176475870207e-18
-1.622685519845509563e-18
-1.329346539970842658e-18
-1.102134692315860057e-18
-9.526991158389482806e-19
-7.882579465168745696e-19
-5.601691710233528313e-19
-4.171252934555730420e-19
-3.273012805870948976e-19
-2.228015093529605828e-19
-1.654730601900078824e-19
-1.187073349473327219e-19
-8.426728808672250393e-20
-6.054224158412685974e-20
-4.405867685394358640e-20
-3.262965143435958755e-20
-2.459817993892275051e-20
-1.887464071122231436e-20
-1.466960379820875735e-20
-1.148154846455949671e-20
-8.987952394600891249e-21
-6.986992453329322724e-21
-5.360411551210224013e-21
-4.037662251779110934e-21
-2.973820089508431854e-21
