# bin_16_16
-2.801131617958293259e-08
-3.161637673208608713e-08
-3.508181016558508953e-08
-3.811438433377240280e-08
-4.032762473589046020e-08
-4.126398020023404753e-08
-4.056689917921270258e-08
-3.772008637467380490e-08
-3.315624580472519795e-08
-2.759546421563043365e-08
-2.257602892035498001e-08
-1.913887176762748173e-08
-1.652447636625153650e-08
-1.275818181789644385e-08
-8.811615288297331143e-09
-7.102129762127906746e-09
-4.931430858930043020e-09
-3.650091998818952321e-09
-2.459034998233051509e-09
-1.737911492870590593e-09
-1.210763620104229369e-09
-8.429155792249244022e-10
-5.901801790795430878e-10
-4.172721085405625296e-10
-3.003828957889203280e-10
-2.205127182864002251e-10
-1.649964230426094260e-10
-1.255740384746944520e-10
-9.666051136528840933e-11
-7.472971186883290903e-11
-5.759236617573251842e-11
