# bin_1_11
-2.672845088215437729e-43
-2.901390066886719142e-43
-3.068561293190129628e-43
-3.139932225261841102e-43
-3.088501551424997473e-43
-2.875122037505093203e-43
-2.530317103809674442e-43
-2.108597411369373949e-43
-1.724124096428689335e-43
-1.457644143210726264e-43
-1.257837233939719202e-43
-9.786660368092731604e-44
-6.794864860399321330e-44
-5.450341571720411229e-44
-3.877218326613143125e-44
-2.870668854614680018e-44
-1.998255108047567364e-44
-1.457073170887452471e-44
-1.053585110922479661e-44
-7.685455618134441113e-45
-5.695646473611415071e-45
-4.291557202309003531e-45
-3.292669815725396154e-45
-2.562530729666634528e-45
-2.010896228240900016e-45
-1.580759527408368866e-45
-1.235922501641652801e-45
-9.548162746589039434e-46
-7.248168946998361828e-46
-5.382420478604180360e-46
-3.897031437473822733e-46
