# bin_9_2
-1.690590023230606372e-25
-1.818485940473914920e-25
-1.901419036571040118e-25
-1.920447649989182857e-25
-1.853478287367801841e-25
-1.688942912518306405e-25
-1.455548285345840379e-25
-1.197672774407112617e-25
-9.854987228691451144e-26
-8.462816928286255051e-26
-7.152055796177221471e-26
-5.248420788818663766e-26
-3.765992278853241025e-26
-3.048095730933261249e-26
-2.062962914705850797e-26
-1.575668730998555652e-26
-1.117013059884103583e-26
-8.016064489279052597e-27
-5.855910305092337950e-27
-4.325988712307476958e-27
-3.249784760366779067e-27
-2.483621666474989015e-27
-1.929787764613058827e-27
-1.515608644206271828e-27
-1.195264816665031555e-27
-9.400282721146504014e-28
-7.321092779862337708e-28
-5.612667146983051635e-28
-4.214312615007247983e-28
-3.087095334506068275e-28
-2.201294435651959788e-28
