# bin_7_3
-1.134080566658978516e-13
-1.209391848589423318e-13
-1.250713205160440325e-13
-1.247332039961502763e-13
-1.182310644288486709e-13
-1.058451002953537608e-13
-8.958761822856648946e-14
-7.330408520863965237e-14
-6.103672787904127535e-14
-5.277073874710128318e-14
-4.307806242901852576e-14
-3.039223472455117085e-14
-2.311555711243617937e-14
-1.779190986053029680e-14
-1.241693154781492561e-14
-9.119422212081737449e-15
-6.665663914092028603e-15
-4.820730120260158162e-15
-3.533756814280946814e-15
-2.636607710711971895e-15
-2.003962250494343548e-15
-1.549403913373262887e-15
-1.214716814695655813e-15
-9.593788366450077350e-16
-7.580877430405055724e-16
-5.951375936637002761e-16
-4.610955403496320798e-16
-3.506044808364418884e-16
-2.604577751480692435e-16
-1.884263472258946038e-16
-1.326090028482400151e-16
