# bin_3_1
-2.126990857438778768e-09
-2.140051838420552589e-09
-2.056062041325598725e-09
-1.866591919252224730e-09
-1.603259386448656869e-09
-1.318666965922248254e-09
-1.087553919488516509e-09
-9.332420333352148956e-10
-7.825241601999232727e-10
-5.737209785279348877e-10
-4.177536524924614025e-10
-3.338583847213076161e-10
-2.317269743400848483e-10
-1.760108612667922635e-10
-1.275368427505667104e-10
-9.390135959723212748e-11
-7.039550380130985954e-11
-5.366405865143804771e-11
-4.167170948364339970e-11
-3.286852131351843314e-11
-2.621491499612203136e-11
-2.098352274139586216e-11
-1.673148570721436049e-11
-1.319657432190514358e-11
-1.022978326032947840e-11
-7.752799220400997166e-12
-5.722556251687105601e-12
-4.106665995700552286e-12
-2.866613219419828161e-12
-1.950737000187117010e-12
-1.298358177394525193e-12
