# bin_6_19
-3.047668827238917626e-44
-3.419843424122864198e-44
-3.768149768176646052e-44
-4.058629505572593952e-44
-4.248086611357231193e-44
-4.293817163313127902e-44
-4.145643344216023980e-44
-3.777389674879960218e-44
-3.254548715386268826e-44
-2.677368195346758044e-44
-2.204673157423902954e-44
-1.896923984378787621e-44
-1.602991728719338435e-44
-1.168873540635349050e-44
-8.363496487295025881e-45
-6.763304606463621616e-45
-4.480214452142322311e-45
-3.394011943000431516e-45
-2.351932303898385024e-45
-1.629967008229843985e-45
-1.144736154527679300e-45
-8.052915565073774356e-46
-5.729035717718971660e-46
-4.134883633816338409e-46
-3.044809305108609246e-46
-2.284573950383679626e-46
-1.742408547231329586e-46
-1.344517188762942280e-46
-1.042374497098811579e-46
-8.060210099735717605e-47
-6.173635635409536536e-47
