# bin_5_20
-5.353163036760524610e-56
-6.014885339532694442e-56
-6.638215562276984167e-56
-7.164240428733558524e-56
-7.517553091116660948e-56
-7.619841718937556789e-56
-7.388150147788218358e-56
-6.761955443729501109e-56
-5.852487826832098461e-56
-4.824719457623986622e-56
-3.964313903439712867e-56
-3.401127901459918626e-56
-2.893147816274868642e-56
-2.136166752070189859e-56
-1.509250996949364642e-56
-1.228440283063394407e-56
-8.145724051517883975e-57
-6.192583215524393720e-57
-4.255606543171589725e-57
-2.948073568435196342e-57
-2.070717148907718490e-57
-1.455180934624163636e-57
-1.031504621321580732e-57
-7.409584351604763825e-58
-5.429778672147553156e-58
-4.055688003664063741e-58
-3.081584351877586251e-58
-2.371964389058596579e-58
-1.837049179814150757e-58
-1.421135703567256155e-58
-1.090377043276624943e-58
