# bin_20_11
-1.688984289916797520e-22
-1.906395046203696713e-22
-2.115402883135297229e-22
-2.298331131646192148e-22
-2.431878750462621740e-22
-2.488444978445521050e-22
-2.446550714195646989e-22
-2.275016438244635742e-22
-1.999886727148503106e-22
-1.664544626957428258e-22
-1.361753573291060391e-22
-1.154368508301568703e-22
-9.967365667576137570e-23
-7.696990681001162514e-23
-5.315606812128534542e-23
-4.284111313453281060e-23
-2.975404035944318604e-23
-2.201999717995002019e-23
-1.483301307013636944e-23
-1.048451265831481412e-23
-7.303970727614326100e-24
-5.084670055958416227e-24
-3.559926856676454785e-24
-2.516787509310845624e-24
-1.811626407599030006e-24
-1.329821988350760127e-24
-9.949560370686673814e-25
-7.571922301665676301e-25
-5.828304227301847674e-25
-4.505927112515028647e-25
-3.472671035002271607e-25
