# bin_11_6
-5.029727852039998421e-15
-5.527173305963846461e-15
-5.935592029030102919e-15
-6.191198040670925077e-15
-6.234609487475147969e-15
-5.988541818672788610e-15
-5.429043264678474262e-15
-4.653747894711135626e-15
-3.820552137009414639e-15
-3.153710795103394794e-15
-2.718754197441085388e-15
-2.278360087581452445e-15
-1.644133100704142558e-15
-1.196879094395326086e-15
-9.582611963567828711e-16
-6.439653892114550647e-16
-4.865666432934930463e-16
-3.446177808494760624e-16
-2.437720872746705933e-16
-1.750482337848688374e-16
-1.268727691608466216e-16
-9.349086220804820861e-17
-7.009805117031931797e-17
-5.353815705861313418e-17
-4.146555617955108277e-17
-3.238736381003673481e-17
-2.534287247592791229e-17
-1.972300286022685977e-17
-1.516890036206067265e-17
-1.146675745438770776e-17
-8.483751065998949388e-18
