# bin_8_14
-1.402723845378790192e-16
-1.560731399365951978e-16
-1.701919435333938386e-16
-1.809578067406369078e-16
-1.863100867141542919e-16
-1.847186069857135479e-16
-1.736115128221007317e-16
-1.541520212567753352e-16
-1.294033855719120022e-16
-1.057835862041598823e-16
-8.880999409144534884e-17
-7.691285639322720546e-17
-6.132643682999167981e-17
-4.248204145449382827e-17
-3.330503112303750280e-17
-2.447775215109505857e-17
-1.742150082813765114e-17
-1.214314106215893110e-17
-8.801746398381236554e-18
-6.204141185198331717e-18
-4.386624301148588937e-18
-3.148180908554889076e-18
-2.292159610242825163e-18
-1.699832591919586383e-18
-1.284407229861046694e-18
-9.854420576150292525e-19
-7.641484351155819074e-19
-5.948210195983967342e-19
-4.614386495155355313e-19
-3.543511663890017912e-19
-2.678821520763879298e-19
