# bin_17_5
-2.603379669899114541e-42
-2.905973736421429508e-42
-3.181396828164789183e-42
-3.399350417726951909e-42
-3.521840302905341409e-42
-3.518434739456865114e-42
-3.340428626321184917e-42
-2.994105571467782650e-42
-2.536292820128306612e-42
-2.075571053598558985e-42
-1.728415777659857359e-42
-1.497013786717327366e-42
-1.224206228608831525e-42
-8.585236532507184891e-43
-6.507840434552636463e-43
-4.989592982091587906e-43
-3.420330056466074890e-43
-2.470337570291972173e-43
-1.770557258905381524e-43
-1.238653327311062625e-43
-8.704858555029100726e-44
-6.192399667077672538e-44
-4.470837531013457141e-44
-3.283926714028177004e-44
-2.459682184976875333e-44
-1.873530909385327188e-44
-1.445624393805626858e-44
-1.122939891914126272e-44
-8.717621708683585533e-45
-6.716238129126001099e-45
-5.104097562765585607e-45
