# bin_19_17
-6.384812604696961062e-09
-7.236340519868873773e-09
-8.070011069246388356e-09
-8.821924120983484478e-09
-9.406256300704114958e-09
-9.715918643502165903e-09
-9.670173178422203455e-09
-9.131820066874712822e-09
-8.143649448036461748e-09
-6.863095778028766797e-09
-5.613190690422753920e-09
-4.698001188854749248e-09
-4.072144852873226599e-09
-3.283299481604455541e-09
-2.278317151008999842e-09
-1.760543630107834203e-09
-1.312723357251875085e-09
-9.120937828450539950e-10
-6.365269117015497703e-10
-4.544357608646646816e-10
-3.125099588501347488e-10
-2.139775273760983398e-10
-1.478485280838623771e-10
-1.030256119581401039e-10
-7.279537313662681235e-11
-5.241740389864412396e-11
-3.849786245853702243e-11
-2.884469039447246631e-11
-2.196549932575055177e-11
-1.689928293076567175e-11
-1.303806955349535482e-11
