# bin_16_15
-1.888276702349384804e-08
-2.128823919200724020e-08
-2.358885945658141559e-08
-2.558426970411566454e-08
-2.701254082380206351e-08
-2.757132769638840645e-08
-2.701097605739340908e-08
-2.501059781913308686e-08
-2.189736933698153564e-08
-1.817263249530566762e-08
-1.487789087220389840e-08
-1.265596414724653275e-08
-1.089786099134213850e-08
-8.314139260189061648e-09
-5.760486761525229511e-09
-4.672903868289050043e-09
-3.188893746461366931e-09
-2.390483545459822437e-09
-1.613334163672661419e-09
-1.130981802039913533e-09
-7.909091733254842682e-10
-5.529930601148262695e-10
-3.884462187210639007e-10
-2.757490791845448695e-10
-1.994594044559563974e-10
-1.471268684832888694e-10
-1.105694434451422779e-10
-8.443699668557414732e-11
-6.512761581736311470e-11
-5.037775615198638074e-11
-3.878990019855956498e-11
