# bin_1_10
-1.119792960907201956e-37
-1.208321967039353101e-37
-1.268468125934242851e-37
-1.286912234190935443e-37
-1.250322760482228100e-37
-1.147463574352022920e-37
-9.960129104139087531e-38
-8.224612159084057085e-38
-6.746942657489387228e-38
-5.766907233515108096e-38
-4.920006343369189136e-38
-3.680146488749738846e-38
-2.596430503239008288e-38
-2.113515220145108363e-38
-1.439395240211894449e-38
-1.099365380068373945e-38
-7.708384124248882363e-39
-5.543056827128234809e-39
-4.042757873749496850e-39
-2.977946280391444725e-39
-2.227099140540712548e-39
-1.693961074180917668e-39
-1.310991667010135098e-39
-1.026800460742262370e-39
-8.086916085758766360e-40
-6.361074017199560255e-40
-4.961925585526757989e-40
-3.814728184888545005e-40
-2.875383318063583155e-40
-2.116232792622202821e-40
-1.516800149707573921e-40
