# bin_16_8
-3.137853181843807187e-22
-3.506559659770796160e-22
-3.844265909221736105e-22
-4.114784840043780970e-22
-4.272623418285907987e-22
-4.279609092988208086e-22
-4.077863997486348605e-22
-3.667546891314354036e-22
-3.117635498320540873e-22
-2.553145778745361402e-22
-2.120265215949004333e-22
-1.835213790546030210e-22
-1.512799067472374491e-22
-1.068017718230893821e-22
-7.994953874050729575e-23
-6.214142084577596762e-23
-4.213747267136488249e-23
-3.083834704603403415e-23
-2.194644818086739392e-23
-1.531637868140705461e-23
-1.075580686521646188e-23
-7.627829446176690714e-24
-5.489828416002128667e-24
-4.017956125518056994e-24
-2.999297970150656105e-24
-2.277947342114144184e-24
-1.753964690254403539e-24
-1.361009583151360650e-24
-1.056592531099470191e-24
-8.148315423352573651e-25
-6.203535216212750898e-25
