# bin_17_15
-8.465495904566142926e-11
-9.523189830983603454e-11
-1.052507736390943837e-10
-1.137929212126565307e-10
-1.196741023798251183e-10
-1.216095536921972746e-10
-1.183725695973420467e-10
-1.088087804613377339e-10
-9.458100070107817558e-11
-7.814516369879282635e-11
-6.408784934159871045e-11
-5.479093299062507217e-11
-4.684857952045896425e-11
-3.504153753642704530e-11
-2.452995243474413176e-11
-1.996515464911824431e-11
-1.336426353665828462e-11
-1.011996950390934429e-11
-6.898627885117997769e-12
-4.795035419377120150e-12
-3.364054919242532943e-12
-2.360478464779574842e-12
-1.667129053043972999e-12
-1.191835918425436386e-12
-8.689192111123946744e-13
-6.458727728037854308e-13
-4.886844918141502453e-13
-3.750315409240615860e-13
-2.900215143787477743e-13
-2.243683870674385460e-13
-1.723927889277862409e-13
