# bin_1_8
-7.153917417679662202e-32
-7.600958378356239016e-32
-7.824529472012175081e-32
-7.759597342407491669e-32
-7.300756180380807658e-32
-6.490256266790848939e-32
-5.456380039124686606e-32
-4.459396464197699353e-32
-3.732989318360109467e-32
-3.227517975008266983e-32
-2.589788773629973113e-32
-1.810716365410354084e-32
-1.408351250925229625e-32
-1.055143969124746715e-32
-7.531276667567301926e-33
-5.421599642135852672e-33
-3.991841846647253454e-33
-2.901085057717794050e-33
-2.134336319181957155e-33
-1.600114144956983760e-33
-1.221469706502618245e-33
-9.482590037251780570e-34
-7.456000970925099635e-34
-5.898051920532705950e-34
-4.661336075591698287e-34
-3.654850647724323592e-34
-2.824653603640489032e-34
-2.140126059553780997e-34
-1.582831842952345859e-34
-1.139442558703543216e-34
-7.979055619023291221e-35
