# bin_14_17
-4.900941680546514799e-14
-5.521474667831933138e-14
-6.113208589570488005e-14
-6.623812135802974195e-14
-6.985187111749791406e-14
-7.119946098531474653e-14
-6.962005630609890787e-14
-6.432191230889104021e-14
-5.619325691782606233e-14
-4.656314331188120896e-14
-3.812661977991359479e-14
-3.247458745663934237e-14
-2.791546127974236353e-14
-2.117841097171063063e-14
-1.470068877899909849e-14
-1.194716347151190086e-14
-8.097675127910719604e-15
-6.094574598213056411e-15
-4.122093179603893329e-15
-2.880127648894985882e-15
-2.016690305003386169e-15
-1.411914621736993278e-15
-9.932679302682581105e-16
-7.064433831666726419e-16
-5.121247165618307659e-16
-3.785847055490256655e-16
-2.850743447936647747e-16
-2.180183844187791037e-16
-1.682983650223538202e-16
-1.301972126512605381e-16
-1.001946397053233605e-16
