# bin_12_12
-2.811247411617199531e-11
-3.129461779044320043e-11
-3.414684652223082636e-11
-3.633596339814751947e-11
-3.745002671035807501e-11
-3.717930316400199755e-11
-3.500658336890300033e-11
-3.113404948425264109e-11
-2.617606010911935677e-11
-2.139595337060844265e-11
-1.792810679290847943e-11
-1.552498842921291322e-11
-1.244374109497345028e-11
-8.638999781404026361e-12
-6.723031582525407274e-12
-4.986101125058065991e-12
-3.518466701210457420e-12
-2.471563245587022815e-12
-1.787379617803784730e-12
-1.257752665932279211e-12
-8.880393119503427516e-13
-6.361590136557100774e-13
-4.624189806037763346e-13
-3.422791979407274777e-13
-2.581926764804092042e-13
-1.978212763648556728e-13
-1.532537098681328795e-13
-1.192473101043657060e-13
-9.251975773432564388e-14
-7.109170290612963477e-14
-5.379706571010135434e-14
