# bin_5_10
-4.700888721473575213e-20
-5.128274005334478629e-20
-5.457549236672391765e-20
-5.627261252408798178e-20
-5.590770410254144221e-20
-5.270648141048889520e-20
-4.693478635034742042e-20
-3.951111036669571071e-20
-3.229348605043166143e-20
-2.701022206611719457e-20
-2.337824286486223915e-20
-1.882720810856095272e-20
-1.312821446347557710e-20
-1.016879637006337977e-20
-7.632631432101729423e-21
-5.387718151610610266e-21
-3.851044447412346357e-21
-2.812452932716659004e-21
-2.012340231876981879e-21
-1.452052891702747456e-21
-1.066132833401719896e-21
-7.963579148867004807e-22
-6.056637531146728944e-22
-4.681319436086990154e-22
-3.657141654529268390e-22
-2.869811820703250874e-22
-2.246146490052659922e-22
-1.741408179037996895e-22
-1.329495539523728892e-22
-9.947342798547106045e-23
-7.266618577018947415e-23
