# bin_1_19
-2.665747395406967689e-94
-2.981881876299651535e-94
-3.272998869503790615e-94
-3.508645331768322354e-94
-3.650480895972608273e-94
-3.664831692297223786e-94
-3.503705910289182036e-94
-3.161054907243302829e-94
-2.695838827944220276e-94
-2.209075650019274692e-94
-1.829396908764232919e-94
-1.581470850350014138e-94
-1.313085237372434839e-94
-9.339064623536655116e-95
-6.902585970001653985e-95
-5.432574374687400281e-95
-3.649533369108915070e-95
-2.702752612787778765e-95
-1.908798531933894464e-95
-1.329017789010018669e-95
-9.329515945659956142e-96
-6.597333977469568835e-96
-4.732620452037439139e-96
-3.450709255066517995e-96
-2.566600448260810442e-96
-1.943200369246576795e-96
-1.492644948664155199e-96
-1.156696901002250161e-96
-8.977742052177764469e-97
-6.929095068171047250e-97
-5.284002205272517868e-97
