# bin_4_6
-3.422712919293841094e-13
-3.637530477587619898e-13
-3.745904800182565755e-13
-3.716266065888444229e-13
-3.498726508788776515e-13
-3.112191991810416691e-13
-2.618440623520928420e-13
-2.140579198254165439e-13
-1.790974741510766852e-13
-1.547781490780346727e-13
-1.243704571902561771e-13
-8.714958419253519744e-14
-6.756294733754325440e-14
-5.075937514593820899e-14
-3.614278375942403222e-14
-2.611657873768686803e-14
-1.918765547831314471e-14
-1.393925717379615146e-14
-1.025446341313891537e-14
-7.684210495296700240e-15
-5.863388299408861083e-15
-4.550030099330876626e-15
-3.576480606689331407e-15
-2.828592264327481153e-15
-2.235306333559268913e-15
-1.752736731351594000e-15
-1.354829597358704600e-15
-1.026788364058388373e-15
-7.597022419920912056e-16
-5.471513884061127262e-16
-3.833473152516984938e-16
