# bin_2_3
-1.573081267409062642e-11
-1.591768777928791904e-11
-1.542037800755745350e-11
-1.412401500572343853e-11
-1.223910137636244584e-11
-1.010963333196656228e-11
-8.303213200788758666e-12
-7.084185547854152717e-12
-6.010263711985508605e-12
-4.509263882876047790e-12
-3.221117212427369582e-12
-2.587552577139732156e-12
-1.811956469959431019e-12
-1.371713501425842705e-12
-9.853158782970859090e-13
-7.266871112087122520e-13
-5.427889337846523881e-13
-4.118012167756432875e-13
-3.182287400322366661e-13
-2.499367647279476109e-13
-1.987570290357743516e-13
-1.588867196461617318e-13
-1.267326749333763274e-13
-1.001464524746347512e-13
-7.788895535305129216e-14
-5.929400276695763741e-14
-4.399673277641895646e-14
-3.174978800753764554e-14
-2.228081194042995099e-14
-1.523447868057922589e-14
-1.018043602183904396e-14
