# bin_2_8
-6.863374240820380553e-26
-7.325514055174602723e-26
-7.584420939677762724e-26
-7.574318887378473258e-26
-7.193272729301959276e-26
-6.450987441386222971e-26
-5.469507597165449767e-26
-4.475580216734006270e-26
-3.719591780845837586e-26
-3.214507177945020602e-26
-2.636551241869987277e-26
-1.865808763469433632e-26
-1.408781900177503141e-26
-1.092871067563611688e-26
-7.576711722079758522e-27
-5.600089997361887739e-27
-4.080601692498690748e-27
-2.946873731943784016e-27
-2.158439001802259071e-27
-1.608121123141238884e-27
-1.220619865608073877e-27
-9.425405560804437729e-28
-7.382431002578294705e-28
-5.827309073500753378e-28
-4.603903631576140759e-28
-3.615192086685239989e-28
-2.802664719183090827e-28
-2.133075126737060842e-28
-1.586532018025102517e-28
-1.149344728326271606e-28
-8.100185587934768891e-29
