# bin_16_6
-1.064814029087913981e-09
-1.145951648899325835e-09
-1.199015684004787129e-09
-1.211964460228834383e-09
-1.171289723296479338e-09
-1.069243305273680419e-09
-9.231476830680319860e-10
-7.606114586273495181e-10
-6.255659260543652357e-10
-5.359823861459549474e-10
-4.533706359625725970e-10
-3.350660846547214688e-10
-2.398988091489404326e-10
-1.932061833306595541e-10
-1.321278160755926431e-10
-1.001362218060628585e-10
-7.084611994854944571e-11
-5.100575674315233544e-11
-3.721174714292319401e-11
-2.745922214026248135e-11
-2.059947543505355193e-11
-1.571936001859783834e-11
-1.219699088400957794e-11
-9.569022116945930560e-12
-7.541305627738335174e-12
-5.929355260861741920e-12
-4.618610222674350987e-12
-3.542730952003979465e-12
-2.662468278597441480e-12
-1.952747140222078223e-12
-1.394528969353813298e-12
