# bin_8_8
-4.987267268178163107e-11
-5.437344782484104992e-11
-5.782072473616409274e-11
-5.956448492980694917e-11
-5.910691242667422690e-11
-5.564142654463767804e-11
-4.948227367409461997e-11
-4.161058267012263950e-11
-3.401256219002413707e-11
-2.848136976486937496e-11
-2.463932398876033361e-11
-1.976511434785489335e-11
-1.378389426182706129e-11
-1.071338797592585855e-11
-7.994327709817361001e-12
-5.673568190060285747e-12
-4.045616702778354674e-12
-2.951599426719298675e-12
-2.114317736964805387e-12
-1.527814143529470638e-12
-1.122858855730914348e-12
-8.394962125478571665e-13
-6.390680688238820296e-13
-4.943086798495463544e-13
-3.863406446037248260e-13
-3.032127326000723950e-13
-2.372800288723311684e-13
-1.838801932622304202e-13
-1.402913639477419487e-13
-1.048764615063541799e-13
-7.653733882349390042e-14
