# bin_2_7
-6.381572489003324602e-22
-6.758988749775063002e-22
-6.930881860804452937e-22
-6.838983794448497201e-22
-6.393849699912759986e-22
-5.650263341549193648e-22
-4.725386724873594920e-22
-3.861553952261083892e-22
-3.249049846456822352e-22
-2.805640976543290727e-22
-2.214541151891288408e-22
-1.543138320600702083e-22
-1.221416299412069416e-22
-8.925316012519552028e-23
-6.510501771919898141e-23
-4.622765630995387880e-23
-3.409289426002319599e-23
-2.489585763666575694e-23
-1.839809835717101652e-23
-1.385139522428643971e-23
-1.061297693129660687e-23
-8.267321250043647196e-24
-6.515832473013528136e-24
-5.160447557078304804e-24
-4.078229394413484500e-24
-3.193677105666809777e-24
-2.462585132358140642e-24
-1.859822219000745790e-24
-1.370151902930204769e-24
-9.821466412353338604e-25
-6.848564798065968934e-25
