# bin_19_18
-3.558218390703258494e-11
-4.028293481831956563e-11
-4.486275917034354315e-11
-4.896185271147544894e-11
-5.209872736539993506e-11
-5.367828432399637125e-11
-5.325928796436668914e-11
-5.009453276944174876e-11
-4.450613142935157296e-11
-3.737709320067404886e-11
-3.055391427784827916e-11
-2.564368813931242209e-11
-2.221626431223427000e-11
-1.773246642930651656e-11
-1.226302431431948115e-11
-9.586205047960952306e-12
-7.029158400154650660e-12
-4.957390197722956615e-12
-3.416344773558555682e-12
-2.441843522479718845e-12
-1.683542884615302090e-12
-1.156358556396342414e-12
-8.016512342633799208e-13
-5.605752048310269727e-13
-3.979097062803905571e-13
-2.879210770950472132e-13
-2.124866135318966814e-13
-1.598786041544042072e-13
-1.221208682980313813e-13
-9.410198430158351240e-14
-7.260266332611477769e-14
