# bin_19_15
-1.524458223423164757e-10
-1.715509354435341362e-10
-1.896760951576801789e-10
-2.051730518714121937e-10
-2.159125212215779131e-10
-2.195605226569507392e-10
-2.139411453227288023e-10
-1.968909736312260660e-10
-1.713476270826387182e-10
-1.416717611674587495e-10
-1.161457351484073634e-10
-9.920821803385303015e-11
-8.492856829778483789e-11
-6.374097123702586705e-11
-4.453646855518201586e-11
-3.622865189673491881e-11
-2.433016158887268028e-11
-1.839092552443687510e-11
-1.251609419640710853e-11
-8.711714268880055658e-12
-6.108462750625717681e-12
-4.283404458606296729e-12
-3.022389717886263142e-12
-2.158103585240108148e-12
-1.571278701164666468e-12
-1.166432965080051458e-12
-8.815552094159531074e-13
-6.759772653142332827e-13
-5.225244223299555034e-13
-4.042291245012740931e-13
-3.106966395856253039e-13
