# bin_5_17
-1.832841091807775751e-47
-2.045019558529144907e-47
-2.237724560190372630e-47
-2.389588136249414381e-47
-2.473855434924427673e-47
-2.469364836640033865e-47
-2.341817799753142326e-47
-2.096737763148141778e-47
-1.774141167670067253e-47
-1.451192849145836117e-47
-1.208977727418584262e-47
-1.047071665620447294e-47
-8.544711611189395814e-48
-5.982060682032825245e-48
-4.546771684871573080e-48
-3.474369731620917930e-48
-2.387483656028618840e-48
-1.718835977361390862e-48
-1.233718034839625675e-48
-8.635010455784154032e-49
-6.069620878040030308e-49
-4.320814112975178105e-49
-3.121834121291745543e-49
-2.294927558559902260e-49
-1.720255075190506933e-49
-1.311171014289940529e-49
-1.012161327049134186e-49
-7.863820561238464073e-50
-6.104391763373242124e-50
-4.701471340488984778e-50
-3.571129481963566534e-50
