# bin_8_19
-1.581216952557555070e-37
-1.776629757098317746e-37
-1.960698442868464611e-37
-2.116043038988602752e-37
-2.220421926693549237e-37
-2.250667804096811339e-37
-2.182485368606855297e-37
-1.997704649830190071e-37
-1.729165494326591609e-37
-1.425304381885271194e-37
-1.170585139920654862e-37
-1.003843740363005670e-37
-8.542717880653853105e-38
-6.313104629523804970e-38
-4.454369396856255496e-38
-3.626821054007532353e-38
-2.405140587214701299e-38
-1.828485798960008797e-38
-1.255395325872519521e-38
-8.695696921357806314e-39
-6.107810979010944805e-39
-4.291805968175671839e-39
-3.041270691910147805e-39
-2.183720661620683157e-39
-1.599588510145592092e-39
-1.194345942435773683e-39
-9.071979107355863409e-40
-6.981373474125063517e-40
-5.406360313126094214e-40
-4.182334651771437960e-40
-3.209221834715069102e-40
