# bin_16_1
-3.686258028923770359e-09
-3.556123141916777913e-09
-3.248591131479833267e-09
-2.809892136595632850e-09
-2.326183323195559002e-09
-1.917962984798757113e-09
-1.631747612892595366e-09
-1.369288703421963200e-09
-1.031910990577426943e-09
-7.496754465084549568e-10
-5.878365586583868601e-10
-4.234562614827682843e-10
-3.151111431869682594e-10
-2.304304223395506337e-10
-1.715400567292258744e-10
-1.292824429664243123e-10
-9.920328583002964897e-11
-7.755651126763264298e-11
-6.156079941856018290e-11
-4.934951857377270986e-11
-3.965668302835600981e-11
-3.170414972824585815e-11
-2.504057703518774163e-11
-1.941815554708024225e-11
-1.471115864304283764e-11
-1.085186866758983852e-11
-7.784734052831528503e-12
-5.434535058097424451e-12
-3.700600996293874998e-12
-2.465604488367433452e-12
-1.612786635667959243e-12
