# bin_16_19
-6.663031590400404250e-14
-7.539634896703069474e-14
-8.391807123124910668e-14
-9.151842274948977041e-14
-9.729254070992957023e-14
-1.001266665080585382e-13
-9.920161853231582423e-14
-9.313219098623146772e-14
-8.259714925785404122e-14
-6.925389682271791973e-14
-5.660493898658321201e-14
-4.758167314024689707e-14
-4.121529902669594995e-14
-3.272934508316605945e-14
-2.259598954267443949e-14
-1.777289201755629153e-14
-1.291963010930809842e-14
-9.184467644883467453e-15
-6.287059017914476026e-15
-4.497296230858005173e-15
-3.105026043090602225e-15
-2.136213170728268378e-15
-1.483544987036674314e-15
-1.039267373912366412e-15
-7.394208451944212175e-16
-5.363431813627055174e-16
-3.967744661617828395e-16
-2.991627551279130176e-16
-2.288548879128343495e-16
-1.764850125450986800e-16
-1.361673656033142955e-16
