# bin_18_7
-9.318719143648089994e-10
-1.011899424613179340e-09
-1.070698100701123507e-09
-1.096366592798320908e-09
-1.079304007141910929e-09
-1.006066552926369128e-09
-8.864827818660967149e-10
-7.397909296444528467e-10
-6.049798494976967105e-10
-5.106024703240458504e-10
-4.402507213720964462e-10
-3.440981510022680307e-10
-2.396945685516896882e-10
-1.906727959138925767e-10
-1.369770873740736720e-10
-1.004117561963283437e-10
-7.051223990406267294e-11
-5.132991860258942131e-11
-3.704237166762408417e-11
-2.697195356895739316e-11
-1.995955334905266537e-11
-1.502105617817103891e-11
-1.150981954983283365e-11
-8.948012453633148662e-12
-7.016305326127655733e-12
-5.513004545238858089e-12
-4.309981266237311968e-12
-3.330490958691118863e-12
-2.529617967277879950e-12
-1.880025732655907933e-12
-1.362682866621039300e-12
