# bin_12_10
-1.708132729350316823e-10
-1.888074006665087049e-10
-2.042327079047863559e-10
-2.149859427099756813e-10
-2.187410421108406312e-10
-2.133736768239615210e-10
-1.966693184309681673e-10
-1.714196472542040511e-10
-1.418879922034387820e-10
-1.162494241108465734e-10
-9.908727882927669741e-11
-8.490540823089962862e-11
-6.415920214650251994e-11
-4.485065612631589132e-11
-3.640499356135969759e-11
-2.485285089636923730e-11
-1.877556231385413398e-11
-1.294351694957625454e-11
-9.205456570642300934e-12
-6.585010972817541899e-12
-4.737223996494452761e-12
-3.448688731407254582e-12
-2.549824867735346169e-12
-1.922286708894302748e-12
-1.473345156208338257e-12
-1.142688954770767869e-12
-8.915589158012344744e-13
-6.947149174196233554e-13
-5.369376716398823939e-13
-4.091412135526909842e-13
-3.059128674603190448e-13
