# bin_4_11
-1.018170880104326412e-27
-1.112435182613164627e-27
-1.186116445512865286e-27
-1.225948406109834402e-27
-1.221581149993096691e-27
-1.156130615708088157e-27
-1.033279204963780159e-27
-8.728980890194308059e-28
-7.137491156456421211e-28
-5.951239355156196009e-28
-5.150921721939514612e-28
-4.187879091058910113e-28
-2.934116348513640821e-28
-2.243899001746618013e-28
-1.710670740904357761e-28
-1.191178049879765204e-28
-8.621648355656631850e-29
-6.268967973146784192e-29
-4.472719412851901487e-29
-3.220365617756690737e-29
-2.357288827721047497e-29
-1.755885097873744514e-29
-1.331607941305623787e-29
-1.026845089192303114e-29
-8.009066665165296515e-30
-6.280034226714216178e-30
-4.915934371903737894e-30
-3.814848485836089912e-30
-2.917282047014227656e-30
-2.187600844988756911e-30
-1.602387720498970375e-30
