# bin_3_11
-2.652820468603627343e-33
-2.891086660340969558e-33
-3.072850407776222924e-33
-3.163407376744933655e-33
-3.136713413164645931e-33
-2.949527726399925454e-33
-2.620249789096413922e-33
-2.200858420645082744e-33
-1.798473040268874172e-33
-1.507366592299366850e-33
-1.304460445992276355e-33
-1.043658195947616450e-33
-7.259374163331129170e-34
-5.668938284277174421e-34
-4.210163842690462035e-34
-3.000195351025018885e-34
-2.127821128943179319e-34
-1.556970911532225054e-34
-1.116194045528836155e-34
-8.068003651253971781e-35
-5.935276291600667827e-35
-4.441219924118816620e-35
-3.383828644233728719e-35
-2.619208624539581899e-35
-2.048165560620762662e-35
-1.607912353149118899e-35
-1.258296690385443869e-35
-9.749003393727780009e-36
-7.434757485177898982e-36
-5.554498667109228329e-36
-4.050411813576458342e-36
