# bin_14_1
-3.564639740090366056e-09
-3.438412731424001641e-09
-3.140681043411516222e-09
-2.716242423236957652e-09
-2.248523196402841938e-09
-1.854015098251640104e-09
-1.577430883467116983e-09
-1.323513573208437444e-09
-9.971660045555892223e-10
-7.245485162373373411e-10
-5.681211227914011349e-10
-4.092067991095703555e-10
-3.045314360765619336e-10
-2.226971013411781570e-10
-1.657872236706992208e-10
-1.249542650404347779e-10
-9.588818902766679983e-11
-7.496921114532179528e-11
-5.950991035839060168e-11
-4.770682620608638123e-11
-3.833691760600353271e-11
-3.064863471119593717e-11
-2.420612755839683174e-11
-1.877015218388621229e-11
-1.421936269148872433e-11
-1.048837606344563055e-11
-7.523458593228873922e-12
-5.251800350671892899e-12
-3.575966652506096585e-12
-2.382450700123538507e-12
-1.558334014371078687e-12
