# bin_12_4
-1.444340354823535727e-09
-1.514968378060640325e-09
-1.536193150051260194e-09
-1.492051950433434817e-09
-1.370247929729219511e-09
-1.190255618311493082e-09
-9.845677350460964847e-10
-8.082060710128722295e-10
-6.887804934986210794e-10
-5.858077882726688771e-10
-4.415557466436685627e-10
-3.139943480451225171e-10
-2.518737293140506023e-10
-1.763011112833876863e-10
-1.326170283944966966e-10
-9.446587629188949292e-11
-6.906192489962963132e-11
-5.092606218060176207e-11
-3.806099677846630686e-11
-2.895557440589159441e-11
-2.240482459020236682e-11
-1.759617213750743186e-11
-1.393930324456664238e-11
-1.105946209153252670e-11
-8.726432476154719721e-12
-6.801392207557027584e-12
-5.205470760913365468e-12
-3.893547252071386807e-12
-2.836622288791531648e-12
-2.010157823998798384e-12
-1.386588490272760291e-12
