# bin_17_8
-7.103876590640595950e-10
-7.770097783493023993e-10
-8.296181727882576078e-10
-8.590302666743682651e-10
-8.577286676068222114e-10
-8.142384691613165941e-10
-7.298880386418675637e-10
-6.185763372292235834e-10
-5.062890633949148420e-10
-4.212265825783545580e-10
-3.641300381587624775e-10
-2.978878369727753181e-10
-2.103285908196174023e-10
-1.590073784595055776e-10
-1.224925706892739710e-10
-8.468404358936349773e-11
-6.192879062152819561e-11
-4.469469741653855253e-11
-3.183142405238083381e-11
-2.291656282569336058e-11
-1.673835374027772601e-11
-1.243818139740071884e-11
-9.409132555496099569e-12
-7.240362830378639417e-12
-5.638429575038694114e-12
-4.417171218386119639e-12
-3.457135821261228815e-12
-2.684205835807987466e-12
-2.054996259044157633e-12
-1.543543893897474964e-12
-1.133014889018457056e-12
