# bin_1_4
-8.163119052968093080e-16
-8.301031781877858721e-16
-8.098416645885235029e-16
-7.475155589505523812e-16
-6.526694998227528198e-16
-5.414636740606098950e-16
-4.435937867953234062e-16
-3.765397535895713751e-16
-3.220391537137918340e-16
-2.463753170968551755e-16
-1.740010022919641997e-16
-1.395506435186011894e-16
-9.908836493761432559e-17
-7.434183706559275690e-17
-5.321025134658895874e-17
-3.934329521366253877e-17
-2.927324148198300215e-17
-2.210827290936431987e-17
-1.701426904198889524e-17
-1.331504760874595446e-17
-1.056102058409165064e-17
-8.432174526413127532e-18
-6.726836847089497016e-18
-5.323570643446804123e-18
-4.151578901027467583e-18
-3.172120575850183463e-18
-2.364056139141834379e-18
-1.713996335005760066e-18
-1.208242411180710958e-18
-8.294838151559456037e-19
-5.562012283775145462e-19
