# bin_12_13
-5.575065903625557716e-12
-6.221803937368922827e-12
-6.809900466333846992e-12
-7.274475769275664494e-12
-7.534290547724735230e-12
-7.524337894981434059e-12
-7.140846962931766949e-12
-6.397919616054167339e-12
-5.417568205946971472e-12
-4.432218380778462971e-12
-3.690427202849156631e-12
-3.195538677209245911e-12
-2.611697009482743768e-12
-1.831469316077668511e-12
-1.388334333039819804e-12
-1.063729344424026968e-12
-7.295225301104025522e-13
-5.266957886614376733e-13
-3.773386532736475122e-13
-2.639820088232502364e-13
-1.855575113780991325e-13
-1.320113457595107497e-13
-9.531655902385405472e-14
-7.001740715988401305e-14
-5.244757900759269820e-14
-3.995121063944842775e-14
-3.082656020101898789e-14
-2.394443855780855949e-14
-1.858672454990150360e-14
-1.431761797745218329e-14
-1.087905247309808268e-14
