# bin_1_20
-1.005357706167822239e-99
-1.127356870609632375e-99
-1.241151449313781321e-99
-1.335489006080314697e-99
-1.396098128889895886e-99
-1.409169298144329240e-99
-1.357850489897038749e-99
-1.234684472436377834e-99
-1.061531331669288791e-99
-8.723285165052509078e-100
-7.188217655628546858e-100
-6.190271633278801754e-100
-5.215174684638356834e-100
-3.783666824650796826e-100
-2.721904542761387703e-100
-2.192251612148214391e-100
-1.453800445244317477e-100
-1.098072027788137385e-100
-7.632738160190246762e-101
-5.292577718666525005e-101
-3.716322516864246067e-101
-2.615914641004482587e-101
-1.863628473679465875e-101
-1.347489692074731263e-101
-9.940637622177647533e-102
-7.471131164840605406e-102
-5.705798242589117973e-102
-4.406493463454750371e-102
-3.417097230997544266e-102
-2.641432745723855983e-102
-2.021539220728235211e-102
