# bin_20_3
-2.376120994524433855e-09
-2.445933095437386105e-09
-2.425185142335299034e-09
-2.284232878873541811e-09
-2.033662410108312238e-09
-1.714648634864696297e-09
-1.404181704027352077e-09
-1.173750877924781269e-09
-1.010291514444068309e-09
-8.128782981171095184e-10
-5.776298336184625751e-10
-4.432347138091462696e-10
-3.355271254084383070e-10
-2.396326013820836425e-10
-1.759833504213157380e-10
-1.291663933936303188e-10
-9.493655282244016704e-11
-7.091043676127804447e-11
-5.393345829729502662e-11
-4.176657780653451709e-11
-3.284332141267364558e-11
-2.609034142521527344e-11
-2.078527370648464895e-11
-1.648665306337881395e-11
-1.293069371853571421e-11
-9.966066583497248996e-12
-7.509857483063335030e-12
-5.513276810374767714e-12
-3.936221467800802778e-12
-2.734696617896586207e-12
-1.852852240242479966e-12
