# bin_20_12
-3.692783157128473787e-10
-4.118811923202961659e-10
-4.504984450583237771e-10
-4.808150223481567355e-10
-4.974458849335316382e-10
-4.961282814615332356e-10
-4.700335476163106030e-10
-4.204709009229935366e-10
-3.555218518747577597e-10
-2.908292475669529559e-10
-2.424933453213469691e-10
-2.099417595424283283e-10
-1.708421727729082731e-10
-1.196177001999316090e-10
-9.116568134581943899e-11
-6.935516024913027415e-11
-4.787779348316353643e-11
-3.436533765994176919e-11
-2.465549104211072148e-11
-1.727065678886845603e-11
-1.215449535395743410e-11
-8.660199571972249510e-12
-6.261668708457266615e-12
-4.607005904584576078e-12
-3.455991031774775506e-12
-2.635720152037598776e-12
-2.035377884922560292e-12
-1.581471351747074416e-12
-1.227403544150693505e-12
-9.449272483804295566e-13
-7.173269570063235800e-13
