# bin_4_15
-3.001128685838179617e-45
-3.326569083313526901e-45
-3.610725598691859200e-45
-3.817132671552422190e-45
-3.902824352335071386e-45
-3.834039004586890708e-45
-3.562658054170978485e-45
-3.129713379722571102e-45
-2.603628743232339252e-45
-2.128933507661173043e-45
-1.803419821794005210e-45
-1.555953411533024043e-45
-1.202367282205851065e-45
-8.321757919495593275e-46
-6.706656272752911278e-46
-4.692976747980959127e-46
-3.487263715458859336e-46
-2.387064208594849898e-46
-1.714574157033799099e-46
-1.220397101908938364e-46
-8.730407726812539169e-47
-6.319992015731612209e-47
-4.642695144220941752e-47
-3.477276143814680601e-47
-2.650559552068702206e-47
-2.047531396838562595e-47
-1.594331676092667200e-47
-1.242404868722590143e-47
-9.621041874998339016e-48
-7.356902390312441110e-48
-5.527093670011513750e-48
