# bin_10_3
-1.719636934342680889e-09
-1.769330016190659795e-09
-1.753276478779696842e-09
-1.650106824114977980e-09
-1.468007523558229587e-09
-1.236907906393676182e-09
-1.012872435202328201e-09
-8.471277268011393050e-10
-7.291071804420412130e-10
-5.856149470219208036e-10
-4.158361714157903241e-10
-3.197005305800854016e-10
-2.414593850569330445e-10
-1.727341146782919967e-10
-1.267067481072889487e-10
-9.305140541360517732e-11
-6.841996975335528203e-11
-5.112314138875070334e-11
-3.890056319730776442e-11
-3.013734546969903125e-11
-2.370695826547564291e-11
-1.883666648479664768e-11
-1.500770458814502981e-11
-1.190321311375222412e-11
-9.334017702489914750e-12
-7.191759211661214214e-12
-5.417091813326612864e-12
-3.975036053249799701e-12
-2.836611970888603673e-12
-1.969834128260659800e-12
-1.334090871767320534e-12
