# bin_3_14
-8.458935616230450081e-48
-9.332739905554773588e-48
-1.007218315337595380e-47
-1.057220835507365465e-47
-1.072181942516004155e-47
-1.040855498958584971e-47
-9.540817050297658894e-48
-8.270731330371621161e-48
-6.822661712558164513e-48
-5.598274039057045621e-48
-4.791989065064142000e-48
-4.085091265214605542e-48
-3.038494713691124186e-48
-2.141114701371821252e-48
-1.744846440032952629e-48
-1.172033974582329799e-48
-8.944700486765360054e-49
-6.205705794591261836e-49
-4.385827375192335610e-49
-3.146909515782156779e-49
-2.271468312829717237e-49
-1.660168730996668791e-49
-1.233046314104327150e-49
-9.337647250527631422e-50
-7.183606467001356661e-50
-5.586277946907495647e-50
-4.364296032807921939e-50
-3.400418335055686751e-50
-2.624606953998645406e-50
-1.995113413288452145e-50
-1.486839789420580769e-50
