# bin_5_4
-3.468611096100352767e-10
-3.625736147102784856e-10
-3.661941855004387225e-10
-3.536495642086320064e-10
-3.227360867568242397e-10
-2.785976310203561737e-10
-2.296309309796098822e-10
-1.889072924299571968e-10
-1.616733263453158168e-10
-1.365556633446785376e-10
-1.012376158842119665e-10
-7.274313552739830559e-11
-5.837629608635554002e-11
-4.042011517231570246e-11
-3.060339702370362232e-11
-2.187616515465040385e-11
-1.596161780709997790e-11
-1.180548185587634777e-11
-8.856221678615014909e-12
-6.762985902050769055e-12
-5.251485447785400080e-12
-4.135969236644593222e-12
-3.281913222664390050e-12
-2.605117535897978045e-12
-2.054090254407412101e-12
-1.598028216538872299e-12
-1.219634991649872212e-12
-9.089913748139669926e-13
-6.595267020518146747e-13
-4.654079847775960144e-13
-3.197624879003377104e-13
