# bin_4_18
-9.293044353481335518e-60
-1.038524877792991512e-59
-1.138589084052111774e-59
-1.218798424017875665e-59
-1.265708849364765935e-59
-1.267980660546061030e-59
-1.208556284313266602e-59
-1.087196817952925225e-59
-9.243905343805218895e-60
-7.568715834143716278e-60
-6.281330988292047721e-60
-5.435279694837503361e-60
-4.485021240130014192e-60
-3.169053221427989976e-60
-2.367080324908067519e-60
-1.843425662327444591e-60
-1.247752542710242681e-60
-9.148724155057305776e-61
-6.502411302047511801e-61
-4.535861501771371319e-61
-3.184715392819464372e-61
-2.257354605259268389e-61
-1.623715520491501714e-61
-1.187613763242903236e-61
-8.859880274439309246e-62
-6.725479704814494227e-62
-5.176313386332604301e-62
-4.015609638226866244e-62
-3.117164130739934815e-62
-2.404081921997201163e-62
-1.830645423232888717e-62
