# bin_3_3
-1.507813253550262849e-10
-1.537567672800221655e-10
-1.505847613121738923e-10
-1.396510719327381209e-10
-1.224886345529388922e-10
-1.019777062522854729e-10
-8.350244871545331464e-11
-7.061551857866905612e-11
-6.053808587036302524e-11
-4.690762707500152234e-11
-3.308365722087287687e-11
-2.630096454975483631e-11
-1.896574981122793226e-11
-1.405637240468432783e-11
-1.010399256063388691e-11
-7.470847017940937303e-12
-5.542107885355610287e-12
-4.173852313761967981e-12
-3.203275701983601727e-12
-2.500840608398139807e-12
-1.979823618295394186e-12
-1.579076669655963778e-12
-1.259477930041627074e-12
-9.973842584838090903e-13
-7.789251859700748732e-13
-5.964147625359680212e-13
-4.456606621947105975e-13
-3.240694964829789066e-13
-2.291222550012494207e-13
-1.577293107569849277e-13
-1.060143731511717843e-13
