# bin_7_3
-1.270535602193166702e-09
-1.306465242712478495e-09
-1.293623156256833338e-09
-1.216300614686848215e-09
-1.081042499356833358e-09
-9.100850357111223303e-10
-7.451774052729971320e-10
-6.236845307481454465e-10
-5.367487204530850970e-10
-4.301438777281970358e-10
-3.051529763353236527e-10
-2.351906825073796215e-10
-1.771075558760037723e-10
-1.269687982673710560e-10
-9.299657856614469745e-11
-6.834510866327480834e-11
-5.027995078083533400e-11
-3.758663439592705826e-11
-2.861654585779650857e-11
-2.218177698529066995e-11
-1.745676389787814264e-11
-1.387442084872162856e-11
-1.105526429273503257e-11
-8.767677667662753201e-12
-6.873528357101485259e-12
-5.293852999891880689e-12
-3.985428897334463067e-12
-2.922724133839173517e-12
-2.084368096962360194e-12
-1.446590989163909712e-12
-9.792057366353098849e-13
