# bin_8_9
-7.157544461718422530e-12
-7.847348670630230322e-12
-8.403031659485908683e-12
-8.732680192725839548e-12
-8.757035058276885515e-12
-8.360761589655613004e-12
-7.535682718648692802e-12
-6.420746903247134156e-12
-5.261752485298024704e-12
-4.360839986552625984e-12
-3.767784279284432036e-12
-3.120709793853027627e-12
-2.222357370611678748e-12
-1.650898447898258138e-12
-1.297420807286093194e-12
-8.826689299502209760e-13
-6.564162830802172969e-13
-4.700974903069133617e-13
-3.335960560400173516e-13
-2.396874805049237493e-13
-1.743560587793627338e-13
-1.290511028026652455e-13
-9.721367596443796494e-14
-7.455518298679272917e-14
-5.791993612752622500e-14
-4.532037653211736861e-14
-3.547569445885462405e-14
-2.758167885367417326e-14
-2.116721867097579913e-14
-1.595129342258835506e-14
-1.175544203628481736e-14
