# bin_17_10
-4.370676199063181432e-10
-4.838761334899855517e-10
-5.244137009359938360e-10
-5.533321019029882857e-10
-5.645387674320743441e-10
-5.527799635238769412e-10
-5.117676879243229425e-10
-4.480007512537020627e-10
-3.719424779429843075e-10
-3.045363245030830673e-10
-2.587951422554182006e-10
-2.225134677106828543e-10
-1.701551334112645703e-10
-1.184421704563231344e-10
-9.571674870864957615e-11
-6.623848866962022051e-11
-4.957047651799732102e-11
-3.410397728151122317e-11
-2.437004802574126371e-11
-1.738579160036873968e-11
-1.246824404492222025e-11
-9.050045085159264039e-12
-6.667719648535486406e-12
-5.009570675178122536e-12
-3.828602011126588584e-12
-2.963131008876805832e-12
-2.309534182220359140e-12
-1.799767752796330335e-12
-1.392534393379670307e-12
-1.063159875427457107e-12
-7.970198239760141877e-13
