# bin_6_20
-7.691844477788043342e-54
-8.652076214017636089e-54
-9.561087728648970298e-54
-1.033512981855383600e-53
-1.086639562452779790e-53
-1.103888440323394547e-53
-1.073873117869792371e-53
-9.864242388879938008e-54
-8.568639278478835026e-54
-7.077251099638866613e-54
-5.806744135200531515e-54
-4.969382571658560066e-54
-4.246634620210225334e-54
-3.167653068117656405e-54
-2.219956403494236277e-54
-1.810111311098809766e-54
-1.206461945135260825e-54
-9.164202797579553806e-55
-6.256178523567378118e-55
-4.340262188228428540e-55
-3.047391619646636104e-55
-2.139864487298866551e-55
-1.512660192783437905e-55
-1.082277847720253326e-55
-7.899793489262213439e-56
-5.878425534221944680e-56
-4.452037797070756965e-56
-3.419225238699344413e-56
-2.645438294960347675e-56
-2.046925509152530284e-56
-1.572566398297697915e-56
