# bin_18_10
-4.757424909980343346e-10
-5.267118490771741520e-10
-5.708632504565801580e-10
-6.023762682002931864e-10
-6.146156152725833103e-10
-6.018685921978264730e-10
-5.572740356891311620e-10
-4.878873951866081561e-10
-4.050867856562738203e-10
-3.316672397483741520e-10
-2.818271810600675221e-10
-2.423347493920048729e-10
-1.853684474969297002e-10
-1.290198700706738980e-10
-1.042495102336080222e-10
-7.217071540547768114e-11
-5.399454840856180509e-11
-3.714711981473951238e-11
-2.654784111510359009e-11
-1.893801011637271510e-11
-1.358023155675258015e-11
-9.856408828671732896e-12
-7.261193677635177896e-12
-5.454968757035997700e-12
-4.168684463677573710e-12
-3.226154749306551891e-12
-2.514464626841520144e-12
-1.959460378602756509e-12
-1.516127936488354217e-12
-1.157571308045694838e-12
-8.678510229631011325e-13
