# bin_1_11
-3.331231951048819350e-48
-3.616563862654323136e-48
-3.825536042081550862e-48
-3.915263998835032425e-48
-3.851969811313577555e-48
-3.586819990810499923e-48
-3.157546257000380986e-48
-2.631827835589448323e-48
-2.151879363050165863e-48
-1.818886848852322597e-48
-1.569739685846653130e-48
-1.222305067134603795e-48
-8.486041983831865220e-49
-6.802378488281730525e-49
-4.844532398747172337e-49
-3.583248841510671867e-49
-2.495109335083231286e-49
-1.819689855782872954e-49
-1.315486821389806737e-49
-9.593469207409429693e-50
-7.108647501610869192e-50
-5.354830205944362964e-50
-4.107873793539556587e-50
-3.196742765619013074e-50
-2.508465288427743005e-50
-1.971977554814761448e-50
-1.541985691195962201e-50
-1.191488516533596391e-50
-9.047032532222756006e-51
-6.720271079285179053e-51
-4.867339711541621535e-51
