# bin_13_15
-6.115810186206428539e-13
-6.866233909421879140e-13
-7.570218784834941535e-13
-8.159929295057108687e-13
-8.548865362460730784e-13
-8.650195963958863801e-13
-8.364713006218102178e-13
-7.634620430187897350e-13
-6.589059516383897842e-13
-5.424937763944228497e-13
-4.463498258796971014e-13
-3.836194256565971350e-13
-3.249841688442837748e-13
-2.381113431570963850e-13
-1.695564972003206421e-13
-1.374381291406597007e-13
-9.109154482506725374e-14
-6.908958622693069296e-14
-4.772415120121272024e-14
-3.306977654278611527e-14
-2.322586079881409569e-14
-1.633266924208901781e-14
-1.160435060352285402e-14
-8.358778915654746577e-15
-6.144226267463291475e-15
-4.602278238173737931e-15
-3.505051486003195752e-15
-2.702153479969499189e-15
-2.094163261057252189e-15
-1.619641790593338475e-15
-1.241406943361620257e-15
