# bin_11_8
-3.322056947928427861e-10
-3.635007318606731818e-10
-3.882839873154193060e-10
-4.022587289600416950e-10
-4.018902600925738820e-10
-3.817889617919497449e-10
-3.425045968633814452e-10
-2.904844558792582571e-10
-2.378486913659291531e-10
-1.978648065918512416e-10
-1.710606372302745725e-10
-1.401161253206679986e-10
-9.902326504632738953e-11
-7.476337996786638070e-11
-5.769862801436208630e-11
-3.983988139443608358e-11
-2.917572537456717277e-11
-2.104510664506849001e-11
-1.498365957282820797e-11
-1.078473843938537025e-11
-7.874021049466824547e-12
-5.848800169860161377e-12
-4.422405948180010821e-12
-3.402123997050393423e-12
-2.648852612694925698e-12
-2.075007789662598680e-12
-1.624212973032937749e-12
-1.261410788878609000e-12
-9.660975219723421302e-13
-7.260128998595919588e-13
-5.332266473452358445e-13
