# bin_11_5
-9.830025430354711518e-10
-1.046903152926953932e-09
-1.081000098836219455e-09
-1.075807822540163547e-09
-1.017291041612513734e-09
-9.088747631599561812e-10
-7.681526528586133571e-10
-6.288697334510961129e-10
-5.246699560528089258e-10
-4.529137217904094994e-10
-3.673044238791473959e-10
-2.597598153966210511e-10
-1.984046106282142520e-10
-1.512584740332266700e-10
-1.065693862909483157e-10
-7.796176195497157431e-11
-5.684681163743087016e-11
-4.119430729638561215e-11
-3.026665176026808727e-11
-2.261635390141285729e-11
-1.720775704424993201e-11
-1.331650602829923966e-11
-1.044654692859900912e-11
-8.252323661836824719e-12
-6.519636361407049040e-12
-5.115431091106754217e-12
-3.959923101999805385e-12
-3.007746406939617940e-12
-2.231674769281537101e-12
-1.612571406712955852e-12
-1.133700041517197725e-12
