# bin_18_4
-1.789864504320073635e-09
-1.879699125640568834e-09
-1.908748632539702921e-09
-1.857413142564618924e-09
-1.709458568929039591e-09
-1.488076958734840692e-09
-1.232688447891712590e-09
-1.011604644460338077e-09
-8.611873422643280767e-10
-7.338687917778944013e-10
-5.559489363788066214e-10
-3.944431102227614279e-10
-3.161944988897780945e-10
-2.221760479615075592e-10
-1.667269717330177241e-10
-1.187010545750753639e-10
-8.682609555737895717e-11
-6.396172520910368364e-11
-4.774686377702188118e-11
-3.628243336855609789e-11
-2.804139134751557384e-11
-2.200441986765038513e-11
-1.742313278577907082e-11
-1.382218061357360160e-11
-1.090976719505176102e-11
-8.508958923258966474e-12
-6.518961669057908973e-12
-4.882226873337665551e-12
-3.562087656077626830e-12
-2.528033207924878087e-12
-1.746294768360639411e-12
