# bin_20_14
-2.294400602025486862e-10
-2.577394104556729538e-10
-2.843600373870436275e-10
-3.067717218496848067e-10
-3.217379239280704765e-10
-3.259413134468400617e-10
-3.157610982132851129e-10
-2.887823196972993602e-10
-2.497445444117720028e-10
-2.058472044353491956e-10
-1.692354030204235459e-10
-1.452408867763810359e-10
-1.233462075239833303e-10
-9.091105231929300810e-11
-6.444957428143934423e-11
-5.227300336061255381e-11
-3.476762261110394726e-11
-2.634390524505732146e-11
-1.813021113692544148e-11
-1.257666509707993043e-11
-8.830250261312194906e-12
-6.206576689555449816e-12
-4.402665671610270181e-12
-3.164563891290306983e-12
-2.320928644909663307e-12
-1.734798913059859727e-12
-1.318820264725828502e-12
-1.015440030465378376e-12
-7.864860777679950999e-13
-6.083098340086000501e-13
-4.665567553779927300e-13
