# bin_6_3
-1.047950418541889541e-09
-1.078131843908138473e-09
-1.068155959134782681e-09
-1.005012262410048373e-09
-8.939156014181008584e-10
-7.530644425003961911e-10
-6.168215264981321565e-10
-5.162105061013267702e-10
-4.443350148583601692e-10
-3.564999195631403428e-10
-2.530660181981844616e-10
-1.948661109767826483e-10
-1.469412949867512709e-10
-1.052553946170701169e-10
-7.714243926411433363e-11
-5.667565141362677504e-11
-4.168319487912258599e-11
-3.115088310444233432e-11
-2.370885402840850575e-11
-1.837171649954405465e-11
-1.445461124893087093e-11
-1.148734175940062898e-11
-9.153353959698136341e-12
-7.260392800668466873e-12
-5.693451026267436513e-12
-4.386653274834512952e-12
-3.303992501328670743e-12
-2.424252915262335688e-12
-1.729804839799256480e-12
-1.201132304989746384e-12
-8.134285283913200040e-13
