# bin_4_6
-3.385952046998427320e-13
-3.601993151953998096e-13
-3.713729698809939532e-13
-3.689623077091446755e-13
-3.479975390366597688e-13
-3.101105216813782704e-13
-2.613520565329585428e-13
-2.137551247357323065e-13
-1.786670880831268848e-13
-1.544339843961567014e-13
-1.245844575965788332e-13
-8.746941940258996506e-14
-6.750075064657784415e-14
-5.101388925359474495e-14
-3.615206648686594516e-14
-2.622874348857948521e-14
-1.924317537399879557e-14
-1.396416991599360570e-14
-1.026366327126098491e-14
-7.682506069173692055e-15
-5.856001704907708982e-15
-4.539979529687854200e-15
-3.566442408853872655e-15
-2.819799264020252427e-15
-2.228491698820865681e-15
-1.748128344083153090e-15
-1.352253508032369678e-15
-1.025862282834116763e-15
-7.599380618128497245e-16
-5.480528092171021813e-16
-3.844953832064527274e-16
