# bin_20_18
-5.884558168269127268e-11
-6.668793765935324919e-11
-7.436192296722945075e-11
-8.127784179622364017e-11
-8.664426430141045308e-11
-8.947564962094251361e-11
-8.902510213812492406e-11
-8.403654016037564568e-11
-7.492010097990081488e-11
-6.312303358037018086e-11
-5.162939782986821404e-11
-4.322388726750130034e-11
-3.745939517787201284e-11
-3.016901407825026206e-11
-2.094175088541672847e-11
-1.619501492815050163e-11
-1.205462903498765068e-11
-8.391138040984681908e-12
-5.853292622053140283e-12
-4.174600262208376176e-12
-2.871827499714105764e-12
-1.967909584080511691e-12
-1.360234211118874706e-12
-9.482129762999944621e-13
-6.703388098287196414e-13
-4.830060106941902029e-13
-3.549405859916235676e-13
-2.660670918894965055e-13
-2.026807416623080647e-13
-1.559559819867131870e-13
-1.203173279109608154e-13
