# bin_16_2
-2.814285180312513221e-09
-2.827037945238702443e-09
-2.711432104259210319e-09
-2.459469529606307277e-09
-2.111600251696642671e-09
-1.739677481347859868e-09
-1.437856458380018867e-09
-1.230797633240406760e-09
-1.025688295636159334e-09
-7.559834270501613219e-10
-5.539804786046185317e-10
-4.361545771030753767e-10
-3.081506585127039359e-10
-2.309756778008208922e-10
-1.678126583084769079e-10
-1.239914582607378026e-10
-9.293212842292546258e-11
-7.084906463272621434e-11
-5.501767611745110739e-11
-4.338873356187380840e-11
-3.459317932781734429e-11
-2.767623267875879496e-11
-2.205476253423870541e-11
-1.738392640747490865e-11
-1.346754345421860997e-11
-1.020151978969313188e-11
-7.528091244710217545e-12
-5.402531189572115588e-12
-3.772142962024640359e-12
-2.567980109007172302e-12
-1.709925096161878488e-12
