# bin_15_17
-6.646311256293321866e-13
-7.500541599372515834e-13
-8.321043907142830690e-13
-9.038081633280283036e-13
-9.559893060463819517e-13
-9.778430909631446777e-13
-9.607998974391958908e-13
-8.928122388950881553e-13
-7.843330062471762262e-13
-6.525210597861732224e-13
-5.338880542148076772e-13
-4.528308040660980436e-13
-3.907988298242723168e-13
-3.012102612955352479e-13
-2.081522539380897541e-13
-1.679006805633599796e-13
-1.163101860687401433e-13
-8.622724578497715956e-14
-5.812314687250974439e-14
-4.103018060052040400e-14
-2.860033324653049591e-14
-1.992308553866838552e-14
-1.395806740424014206e-14
-9.873667802144186030e-15
-7.113641483458471807e-15
-5.226510714760512548e-15
-3.913462456914843732e-15
-2.980142066132975806e-15
-2.294807039216678920e-15
-1.774370459825800967e-15
-1.367326992057226399e-15
