# bin_9_12
-1.671099645242626263e-14
-1.853764838687972506e-14
-2.013993111149919353e-14
-2.131534354262230610e-14
-2.182339576529857000e-14
-2.147601367741861539e-14
-1.999860016991065476e-14
-1.760462108635531263e-14
-1.467124947273568719e-14
-1.199814181197214380e-14
-1.014997652157866129e-14
-8.764447474580917958e-15
-6.810635973467575867e-15
-4.713965616306986680e-15
-3.782742302279477475e-15
-2.669857396440878933e-15
-1.969631001237057195e-15
-1.351310286653849264e-15
-9.728775037540949766e-16
-6.912808395512140827e-16
-4.934722725796037517e-16
-3.567303974144509515e-16
-2.616241218090175998e-16
-1.956265883963373697e-16
-1.489051583936838519e-16
-1.148998968116590765e-16
-8.941369599692349428e-17
-6.967273861379570113e-17
-5.397773636219563609e-17
-4.131150600916871560e-17
-3.107492178086645470e-17
