# bin_8_1
-2.925600266012691737e-09
-2.822605439131900820e-09
-2.578935126993410860e-09
-2.231099667729161182e-09
-1.847582347930611726e-09
-1.523899635871613455e-09
-1.296735956851523327e-09
-1.088016683401081952e-09
-8.199603693333163355e-10
-5.960253896781875511e-10
-4.672478860705332222e-10
-3.366638810311890147e-10
-2.505079198124077777e-10
-1.832058604666168433e-10
-1.363777100077744716e-10
-1.027775455884928428e-10
-7.886163817814369927e-11
-6.165191317999147782e-11
-4.893412139195231489e-11
-3.922818344535923862e-11
-3.152470030661564244e-11
-2.520440586215269165e-11
-1.990873876570771346e-11
-1.544034332322493576e-11
-1.169912744043264748e-11
-8.631308839330256698e-12
-6.192776664086393358e-12
-4.323888051393032485e-12
-2.944771306846032431e-12
-1.962296323198569584e-12
-1.283728091509000845e-12
