# bin_10_11
-6.121707594229263316e-12
-6.783865751933828135e-12
-7.360896129087219417e-12
-7.778229557776528715e-12
-7.948885017457226786e-12
-7.802153179501873581e-12
-7.242946043701372734e-12
-6.357216705357515098e-12
-5.286299308343789218e-12
-4.325019544063135140e-12
-3.667999470794923778e-12
-3.161818188698989528e-12
-2.435588663815829240e-12
-1.688727772712764971e-12
-1.362663799932496270e-12
-9.499323433713915095e-13
-7.078342090093495464e-13
-4.851534300177521811e-13
-3.478771893405298947e-13
-2.478177989887318572e-13
-1.774372526694368701e-13
-1.285581273611908830e-13
-9.451354731335380716e-14
-7.085726036815954323e-14
-5.405613362329166174e-14
-4.178256535932114268e-14
-3.254593828869205125e-14
-2.536404911447842036e-14
-1.963848107662730189e-14
-1.501150294202259650e-14
-1.127195642714882644e-14
