# bin_13_4
-1.507638964403075055e-09
-1.583022942859135565e-09
-1.607151609892327258e-09
-1.563463915307715389e-09
-1.438446865090340039e-09
-1.251754526559440326e-09
-1.036718928470404602e-09
-8.508652748630279095e-10
-7.245139186706230468e-10
-6.172022531047979161e-10
-4.671636277056776798e-10
-3.315984623816218191e-10
-2.658545018588673673e-10
-1.866783063340254702e-10
-1.401514820530246987e-10
-9.978938797826609519e-11
-7.298579608648132064e-11
-5.377512974046366933e-11
-4.015068219547912633e-11
-3.051624706624578044e-11
-2.358931331484433818e-11
-1.851363774029628665e-11
-1.466048692331118810e-11
-1.163086172896670441e-11
-9.179872901151199737e-12
-7.159087800349685237e-12
-5.484000957877469782e-12
-4.106358317163658954e-12
-2.995373436167099774e-12
-2.125366314729973668e-12
-1.467838089325818278e-12
