# bin_16_13
-1.505327367103095291e-10
-1.685501868920257238e-10
-1.852232878398861572e-10
-1.988433930583508414e-10
-2.072514035398585193e-10
-2.084908833765517381e-10
-1.998992598347977517e-10
-1.808944451124328531e-10
-1.547507872395887583e-10
-1.269857542311552446e-10
-1.050152819594958670e-10
-9.066411708134212900e-11
-7.565449386695547032e-11
-5.421561937917730411e-11
-3.970760781232313625e-11
-3.149063431995735467e-11
-2.108034924035992355e-11
-1.571127545191620052e-11
-1.103564502947914635e-11
-7.674203824090226072e-12
-5.388646718088679187e-12
-3.805163526384990272e-12
-2.723475894870482253e-12
-1.979916390798300544e-12
-1.468656990026804129e-12
-1.109182037747925265e-12
-8.503475876174623000e-13
-6.582248056350843573e-13
-5.107591420255916092e-13
-3.944430773128558520e-13
-3.011902952470872709e-13
