# bin_11_20
-1.570166774531327264e-27
-1.773066717032929249e-27
-1.968476489351359694e-27
-2.140038694432316070e-27
-2.266138239684535882e-27
-2.321003123474218085e-27
-2.284759304493478382e-27
-2.127799549453934276e-27
-1.873174598528482152e-27
-1.560816892013234796e-27
-1.276626418341735115e-27
-1.080822960440764654e-27
-9.339384058640303859e-28
-7.244022731186306696e-28
-4.999382778053188884e-28
-4.017176278873134960e-28
-2.809418250706214255e-28
-2.067580096209809811e-28
-1.393671714419993641e-28
-9.879645428267301685e-29
-6.872541742699042353e-29
-4.775705639363274455e-29
-3.340098603842914455e-29
-2.357803926282623283e-29
-1.694388269051445248e-29
-1.241716170695267377e-29
-9.275630128370328630e-30
-7.050350835503774045e-30
-5.422793465758147024e-30
-4.191549384611740045e-30
-3.231411836169128578e-30
