# bin_13_8
-4.840746767982364772e-10
-5.298480847552579725e-10
-5.662014700905651124e-10
-5.868816338224960813e-10
-5.867004398520212619e-10
-5.578263523350324355e-10
-5.008366924512762698e-10
-4.251176384940539592e-10
-3.481561601250488961e-10
-2.894525831884564728e-10
-2.501908973956965140e-10
-2.053040946408875729e-10
-1.453257785277967905e-10
-1.094107192297864395e-10
-8.468128859484332955e-11
-5.834630671805704392e-11
-4.283017404745326373e-11
-3.085204230270870146e-11
-2.195495622626689479e-11
-1.579868707396019068e-11
-1.152809217870332723e-11
-8.557680246885472018e-12
-6.466331987573717534e-12
-4.971735445516876744e-12
-3.869368844653772811e-12
-3.030437876590072717e-12
-2.372030291955756706e-12
-1.842495419210853354e-12
-1.411609477019246002e-12
-1.061306272928073033e-12
-7.799385436831527339e-13
