# bin_12_8
-4.131599939478777286e-10
-4.521727150307196763e-10
-4.831233806878211981e-10
-5.006723537163340123e-10
-5.004035825073650438e-10
-4.756257533381485012e-10
-4.269033990887913228e-10
-3.622504157569955816e-10
-2.966478200468063894e-10
-2.466855029542580999e-10
-2.132409275610965690e-10
-1.748643770356247214e-10
-1.237045375584268901e-10
-9.323204543156979612e-11
-7.208160895496897538e-11
-4.970464439824163319e-11
-3.645415165203047462e-11
-2.627265778432075877e-11
-1.869968292188748840e-11
-1.345740622315592113e-11
-9.821813133394067617e-12
-7.292763195126565605e-12
-5.511918508957972383e-12
-4.238804998532930289e-12
-3.299449284935158524e-12
-2.584300581832911448e-12
-2.022837715989276211e-12
-1.571158441959529650e-12
-1.203577888365822427e-12
-9.047410115909166109e-13
-6.647362290406385484e-13
