# bin_14_19
-5.449825665640693663e-17
-6.161499727262137467e-17
-6.850540109537328360e-17
-7.460949874240924511e-17
-7.918195549032939336e-17
-8.131674908433437723e-17
-8.033797612455026984e-17
-7.515370824344587126e-17
-6.643609176695946120e-17
-5.554773244114056046e-17
-4.541767665752662166e-17
-3.830796663077044141e-17
-3.315740655641261698e-17
-2.605135994988965189e-17
-1.796833322432984646e-17
-1.428891133749003521e-17
-1.020288948694090033e-17
-7.375208332979462096e-18
-5.000666260208379928e-18
-3.568266280457850626e-18
-2.471955417194870245e-18
-1.708314760167137398e-18
-1.190485761850822961e-18
-8.369156397864916515e-19
-5.982702309272558644e-19
-4.360926811508864591e-19
-3.241156734461588700e-19
-2.453433023463473500e-19
-1.881977778290542857e-19
-1.453163294473757171e-19
-1.120963725985408619e-19
