# bin_2_11
-4.337079938200259496e-40
-4.719454919077422123e-40
-5.006524988241180000e-40
-5.141715955425489650e-40
-5.082213569428770014e-40
-4.759620237302250398e-40
-4.212630521244167971e-40
-3.526850008268467700e-40
-2.882702676950159261e-40
-2.425182021371635629e-40
-2.097276586475146248e-40
-1.659092392391174843e-40
-1.151747539830641783e-40
-9.107419346349900020e-41
-6.642495733342667112e-41
-4.812535682392206732e-41
-3.378074507025494620e-41
-2.472654740420186352e-41
-1.778994471194440480e-41
-1.290546083447264863e-41
-9.524573235375231774e-42
-7.147479847922576809e-42
-5.462122913645198414e-42
-4.238141349792024721e-42
-3.319445259290434357e-42
-2.607825907452740669e-42
-2.040407989580108897e-42
-1.579278425023695974e-42
-1.202320838786797146e-42
-8.961780307051350020e-43
-6.516969636671269150e-43
