# bin_20_2
-2.994014854840551321e-09
-3.007922445835990214e-09
-2.885366806088790615e-09
-2.617660670201160112e-09
-2.247763693134748375e-09
-1.851973718760850761e-09
-1.530545381463925997e-09
-1.310055864504152794e-09
-1.092012804237689601e-09
-8.051307653110431602e-10
-5.897982543642478536e-10
-4.644429339184123342e-10
-3.281414480826277688e-10
-2.459650691894889272e-10
-1.786831061225471116e-10
-1.320210104029976138e-10
-9.894317434339001431e-11
-7.542509724603732363e-11
-5.856627240564485295e-11
-4.618399268778884005e-11
-3.682009711352640284e-11
-2.945738201798313450e-11
-2.347441546769707871e-11
-1.850364572719214916e-11
-1.433591012832299871e-11
-1.086019348227153916e-11
-8.014906598630481611e-12
-5.752457256490526329e-12
-4.016839047441610674e-12
-2.734787445751049504e-12
-1.821121743624790600e-12
