# bin_14_11
-2.002348947568568292e-10
-2.225849733160365703e-10
-2.424434126980212943e-10
-2.574128409341062994e-10
-2.645764276502351681e-10
-2.617109555372912206e-10
-2.452865941917007859e-10
-2.172393991325984865e-10
-1.819838986485014732e-10
-1.487993469216279557e-10
-1.252061006741939951e-10
-1.083159069690664983e-10
-8.570307687735297199e-11
-5.940348975777452478e-11
-4.685880460496857834e-11
-3.403605472730355832e-11
-2.447879759527494369e-11
-1.700593752399954880e-11
-1.228556501667194083e-11
-8.680522676628261195e-12
-6.156772874775040267e-12
-4.427780635711197596e-12
-3.230603942606835628e-12
-2.401649169882508098e-12
-1.818758178334711364e-12
-1.397794344837036219e-12
-1.085046437806253393e-12
-8.448739651177927614e-13
-6.551594538645221814e-13
-5.026124428276539474e-13
-3.794068706927310136e-13
