# bin_15_5
-1.275932185665013168e-09
-1.359213146399017553e-09
-1.403918810832326214e-09
-1.397710202700321170e-09
-1.322359596878516962e-09
-1.182011030660330397e-09
-9.994657341383149835e-10
-8.183071817009234189e-10
-6.824614798927858276e-10
-5.891029414851456409e-10
-4.783032030821053397e-10
-3.384957899175378804e-10
-2.581471612557894657e-10
-1.971425418444612334e-10
-1.387164309703222862e-10
-1.015942738972600515e-10
-7.403918443510036692e-11
-5.363671572380468366e-11
-3.939969201350154332e-11
-2.943147621674771376e-11
-2.238598227184827506e-11
-1.731848272790797636e-11
-1.358300792230041561e-11
-1.072863463687605737e-11
-8.475794841053083782e-12
-6.650776451450298061e-12
-5.149312226523433306e-12
-3.912105674883014433e-12
-2.903585843706374274e-12
-2.098816852853468107e-12
-1.476077842473660996e-12
