# bin_7_6
-2.082401162077379439e-10
-2.237904136073462329e-10
-2.337239089798914425e-10
-2.357555535100990003e-10
-2.271141012698679466e-10
-2.066274626352654403e-10
-1.777852623659227367e-10
-1.462601756940391964e-10
-1.205180211601171985e-10
-1.035188618798936826e-10
-8.714312546113995340e-11
-6.378373845162662776e-11
-4.606981747253398824e-11
-3.699956168395575653e-11
-2.521957381190871644e-11
-1.912300556140421872e-11
-1.359698996883406666e-11
-9.777789775151821926e-12
-7.141651845470998158e-12
-5.279828057497603256e-12
-3.970242515334080005e-12
-3.036753780518596968e-12
-2.361229048916574630e-12
-1.855169131777754725e-12
-1.463149892400701430e-12
-1.150444178119836565e-12
-8.955408125369359604e-13
-6.860647816634027369e-13
-5.146827489212253726e-13
-3.766557177339370415e-13
-2.683297456531887878e-13
