# bin_4_3
-4.593158164095400020e-10
-4.710681283166886438e-10
-4.648454292191172691e-10
-4.351105376518672849e-10
-3.850760433186600606e-10
-3.229505217217832659e-10
-2.644059164857519039e-10
-2.221242893875694195e-10
-1.910964661470356513e-10
-1.514809391034226594e-10
-1.070173121854415455e-10
-8.350946836246164663e-11
-6.196504204771119715e-11
-4.491541755732395193e-11
-3.264684323917480700e-11
-2.407743158347761943e-11
-1.775950597390005519e-11
-1.330548446573443222e-11
-1.015725353346533628e-11
-7.892647190609959886e-12
-6.224666246566250722e-12
-4.954153516635545470e-12
-3.949622357836081498e-12
-3.131475266075022094e-12
-2.452358473685606161e-12
-1.885461110084322178e-12
-1.416170274212363478e-12
-1.035769961786693357e-12
-7.366076858714658603e-13
-5.098653212156643028e-13
-3.443279537394524557e-13
