# bin_8_7
1.061099284708490856e-10
1.156348412355880326e-10
1.228989077023092004e-10
1.265136421160014375e-10
1.254314103350747359e-10
1.179285758784755669e-10
1.047547168846362114e-10
8.798874702153620801e-11
7.192630943029378343e-11
6.031866083960096874e-11
5.219813882518875762e-11
4.172156752032168465e-11
2.903134002717150681e-11
2.269729878736007716e-11
1.682894499337631897e-11
1.201536390518997515e-11
8.517378685365493804e-12
6.230414336660433877e-12
4.469056647600118850e-12
3.232260719843585693e-12
2.378778651601915345e-12
1.780763440697436913e-12
1.357336508061985734e-12
1.050876517086054780e-12
8.219386178402889765e-13
6.453218523182704792e-13
5.049869376022137563e-13
3.911989854335779352e-13
2.982655039158328601e-13
2.227626583321815426e-13
1.623787190672898054e-13
