# bin_14_2
1.699003293668239937e-53
1.871471054803953230e-53
2.015740474275088141e-53
2.110521837530616003e-53
2.134421788888309548e-53
2.063229493227967882e-53
1.882663834824537457e-53
1.624592491299301658e-53
1.337389996832016854e-53
1.100015500456018350e-53
9.447746613340410012e-54
8.002530655203171249e-54
5.874864278155295892e-54
4.191335015112505602e-54
3.401105581828279652e-54
2.276146801150619795e-54
1.736094969740408392e-54
1.214994868852620689e-54
8.580658011062723936e-55
6.161391723500021660e-55
4.454799184108431313e-55
3.267377122176517463e-55
2.437481251835878914e-55
1.852886590010647279e-55
1.429879884699123401e-55
1.114295704584016223e-55
8.712923673975391425e-56
6.786100786541797875e-56
5.230202247474522407e-56
3.966373637205362170e-56
2.946653802927645613e-56
