# bin_9_8
9.776038982204792318e-11
1.072407884235317106e-10
1.149183782701054341e-10
1.195419357731887445e-10
1.200095562931569546e-10
1.147629613102441536e-10
1.035892232299092792e-10
8.839749427797562236e-11
7.246548696731147203e-11
5.999004647847739582e-11
5.181368766101805321e-11
4.305864308026507946e-11
3.075092456895155703e-11
2.272488168387658315e-11
1.795817841830803092e-11
1.216646716945578513e-11
9.092405276061779340e-12
6.495353761888814033e-12
4.605501030663909926e-12
3.308417840640714027e-12
2.404470965305114358e-12
1.777870195828549871e-12
1.338177627590571453e-12
1.025252022333099888e-12
7.959822769606903869e-13
6.226061702113393757e-13
4.873149152035989164e-13
3.789466917316638823e-13
2.909388380172216438e-13
2.193775771364671518e-13
1.617920336228891060e-13
