# bin_17_9
8.868087970319542479e-24
9.933316187696322039e-24
1.092162944602462844e-23
1.173275890205355233e-23
1.223997064090090917e-23
1.232576004239159424e-23
1.183526731190507270e-23
1.072392109465508149e-23
9.186679561235517977e-24
7.540329932891518503e-24
6.229215712802568949e-24
5.376578675027892560e-24
4.500090868830685249e-24
3.232664741156115552e-24
2.356381126706414052e-24
1.879159262738731533e-24
1.252210998213398391e-24
9.384230000546730924e-25
6.573396568946324753e-25
4.566486859351528176e-25
3.206005197982632254e-25
2.260938056362260718e-25
1.615954165845778559e-25
1.173438340871000251e-25
8.690667180225107224e-26
6.555414616473082529e-26
5.021082635946721001e-26
3.884504295432339074e-26
3.013878909875920412e-26
2.328164717725114700e-26
1.778773470777940989e-26
