# bin_19_18
6.158178669672745013e-11
6.980235254693867886e-11
7.785806657626259680e-11
8.513367098965456886e-11
9.080269379979662673e-11
9.383263901056139576e-11
9.344073350423242736e-11
8.830115766584339983e-11
7.879865268396672226e-11
6.644971520604628090e-11
5.435195601321360594e-11
4.546440688840008919e-11
3.940858552510616310e-11
3.183249839551988903e-11
2.210759369502482085e-11
1.704245562883231966e-11
1.274690305418198636e-11
8.832153620295541287e-12
6.180799975850899515e-12
4.409255893657840031e-12
3.030612850514110701e-12
2.074063241579292486e-12
1.432010773144217991e-12
9.971517469847942371e-13
7.039086218052110673e-13
5.062740784709546133e-13
3.714470520183152027e-13
2.780466009039535332e-13
2.115791827508887273e-13
1.627098384709222044e-13
1.255197929497354088e-13
