# bin_17_3
1.723519201104442605e-60
1.918893077905767702e-60
2.094208564580064248e-60
2.229029677480476213e-60
2.298020200190052268e-60
2.282246182471779769e-60
2.149693758179221311e-60
1.912644369777309976e-60
1.608568953998716162e-60
1.315108988931846028e-60
1.102135238001632689e-60
9.547304871773617723e-61
7.657104858380574575e-61
5.313305332795411553e-61
4.137067414715934358e-61
3.069917019531513009e-61
2.165745556898381755e-61
1.519919716055479884e-61
1.100801682727182966e-61
7.746182662969047060e-62
5.467006185426362691e-62
3.916438598477800951e-62
2.846810983575130925e-62
2.107060107236432722e-62
1.589148517826932199e-62
1.217504806616573706e-62
9.431889086490028618e-63
7.338971380472271371e-63
5.694262199180678562e-63
4.375694979531536931e-63
3.311428482520375516e-63
