# bin_20_13
7.156711545722883808e-19
8.085654502930087203e-19
8.982780366120490193e-19
9.774078950609490081e-19
1.036133243478428697e-18
1.062607898729309891e-18
1.047936934302964573e-18
9.781331770945809725e-19
8.628628577559165828e-19
7.201853619123427189e-19
5.889259458293175334e-19
4.976686912410695479e-19
4.304575807669183527e-19
3.360272549062658178e-19
2.317480616015944352e-19
1.853425846349961410e-19
1.309491085591360797e-19
9.555236027230718965e-20
6.452628846604103306e-20
4.591632125368586043e-20
3.187185679250651782e-20
2.208583006589692043e-20
1.541566985739661016e-20
1.086211340654076637e-20
7.784131216683154383e-21
5.688072204037818088e-21
4.238137083640977582e-21
3.214560906356344549e-21
2.468998795474111765e-21
1.907345967112003141e-21
1.470820399694707357e-21
