# bin_20_6
5.443175945648250384e-51
6.114856284911116264e-51
6.747250346691940642e-51
7.280386394382909485e-51
7.637547295818111028e-51
7.739407911046542471e-51
7.501147934489106926e-51
6.862494131535050165e-51
5.936966343919093058e-51
4.893336106344435776e-51
4.021434514237881594e-51
3.451129198480911617e-51
2.934078771271957241e-51
2.163787454992152248e-51
1.530325403397121197e-51
1.245220523952703420e-51
8.252965478471266999e-52
6.274072672625170033e-52
4.315030479651390057e-52
2.988911799434890957e-52
2.099397519499727918e-52
1.475406793851210738e-52
1.046008362384132995e-52
7.518567750981763450e-53
5.511291735606678051e-53
4.117994632415584078e-53
3.129930541383467971e-53
2.409588879803876914e-53
1.866253805545152459e-53
1.443587061559035097e-53
1.107356037366198450e-53
