# bin_6_4
1.142394932330641113e-11
1.216339125349660175e-11
1.255432061303784240e-11
1.249065382165465106e-11
1.180225462372865648e-11
1.053450759016730804e-11
8.891024426941167063e-12
7.271846860698309915e-12
6.069574137783944206e-12
5.248397082507038936e-12
4.253144094056438843e-12
2.988349991182082090e-12
2.295639986410281726e-12
1.746747216326535303e-12
1.230765546888804757e-12
8.961164654372954341e-13
6.574192238014217514e-13
4.765201126130447900e-13
3.498589105366587593e-13
2.616190506642265942e-13
1.992533493920182354e-13
1.543588122058718930e-13
1.211762700174020163e-13
9.577819654650524642e-14
7.569052659576406024e-14
5.938716383441351989e-14
4.595854169228664550e-14
3.488732101899411684e-14
2.586324643200698264e-14
1.866692501080042945e-14
1.310604115430245532e-14
