# bin_17_16
6.546028444805887891e-11
7.391021149413097505e-11
8.204811130536370626e-11
8.919209476888130886e-11
9.444083293478055211e-11
9.671883268716089483e-11
9.520211728579302668e-11
8.865369692963543576e-11
7.803673879971740217e-11
6.501920122917923853e-11
5.318178555811114808e-11
4.502903305092781329e-11
3.890861407447547063e-11
3.016976707254815884e-11
2.082134145141208398e-11
1.673521477694574172e-11
1.169779684544348559e-11
8.612863621149346000e-12
5.804494497951284670e-12
4.114056789815132833e-12
2.862082774916789028e-12
1.989064238504300289e-12
1.390907827494084180e-12
9.822370008603962237e-13
7.058352681012097365e-13
5.172231190034604528e-13
3.863932749841670994e-13
2.936948030466792434e-13
2.258855211909313013e-13
1.745872496680492941e-13
1.345825362009822614e-13
