# bin_15_14
7.037777494694251119e-11
7.907603943088605290e-11
8.727234320351065299e-11
9.419261347197895913e-11
9.884573556178499919e-11
1.002003217786177806e-10
9.716913954642889472e-11
8.894876279700661142e-11
7.699864607350388900e-11
6.348248870400453856e-11
5.215785249726258326e-11
4.474298094029774232e-11
3.806975311009624384e-11
2.812241368928573272e-11
1.986062968755189284e-11
1.616796474197632910e-11
1.072243539587622663e-11
8.151876090149831046e-12
5.600289357050733443e-12
3.879696146165196655e-12
2.725053574700511776e-12
1.914925427486700392e-12
1.356988994216833880e-12
9.747974409682348018e-13
7.140993463616247549e-13
5.332520355124561792e-13
4.051011880891949740e-13
3.117624625082200409e-13
2.414271275823094591e-13
1.867568944964653776e-13
1.432891323781466905e-13
