# bin_3_1
1.009265512523233874e-11
1.014651102390923467e-11
9.737311648801923374e-12
8.829806012886922654e-12
7.575323165217623430e-12
6.227669325828135700e-12
5.139334982730395531e-12
4.412676388173212806e-12
3.693324041625464519e-12
2.700469778305598687e-12
1.972199098527846209e-12
1.573471626214371910e-12
1.092294673943354574e-12
8.291331260666712191e-13
6.016960901252075339e-13
4.430657178163837515e-13
3.323116551293894562e-13
2.534961250227823180e-13
1.969744064633739621e-13
1.554654685632545381e-13
1.240358703282207822e-13
9.929602351494402005e-14
7.916701757809750964e-14
6.241993600150794814e-14
4.836064600384694545e-14
3.662479361563354545e-14
2.701164779491851129e-14
1.936769159173508169e-14
1.350838308266222397e-14
9.185774838496551105e-15
6.109996349306640323e-15
