# bin_17_15
2.007424710142764018e-11
2.264116600777238923e-11
2.510171948426083373e-11
2.724416993371596029e-11
2.879069027046394199e-11
2.941681364298671790e-11
2.886200547239294919e-11
2.677192012457700148e-11
2.347930190850616988e-11
1.950846607438626079e-11
1.596607112475426626e-11
1.356238297305352398e-11
1.169316169253438963e-11
8.965822010902390120e-12
6.202148800058126297e-12
5.019134286641077030e-12
3.449140018161203504e-12
2.573103405846630462e-12
1.734216527166546643e-12
1.219825363016015918e-12
8.517687529396211727e-13
5.945735565206727351e-13
4.170232055171200545e-13
2.955937346650135825e-13
2.133653227436503908e-13
1.570575496368619945e-13
1.178187621884308045e-13
8.984519790467429768e-14
6.923964361619482654e-14
5.354663608970771859e-14
4.124504277971334102e-14
