# bin_10_4
1.302239702014716548e-21
1.416351230980762399e-21
1.501644338010124647e-21
1.541138108290064442e-21
1.522008056681185809e-21
1.423880235005870872e-21
1.258961726783647983e-21
1.053094322682300865e-21
8.607657630411536658e-22
7.247877254238168598e-22
6.266443569108617424e-22
4.942764778250397494e-22
3.429885433184511064e-22
2.720429532295315375e-22
1.975225229733564718e-22
1.437091362999027955e-22
1.006348018874155947e-22
7.366353424522834650e-23
5.305078134637340256e-23
3.852626068983801728e-23
2.845751246959218625e-23
2.137658162237205312e-23
1.634946449264613757e-23
1.269252045715767920e-23
9.945117833869503138e-24
7.813725744315721959e-24
6.112162568857533439e-24
4.728496728794048023e-24
3.597227415210486286e-24
2.678769176612486968e-24
1.945857496787146874e-24
