# bin_1_1
8.762075622577802842e-10
8.461478811907571858e-10
7.729930911419828559e-10
6.683226973768297003e-10
5.520234040938330400e-10
4.543592450089749280e-10
3.877885039999818813e-10
3.271878269323989770e-10
2.448601048428068591e-10
1.766369030408651255e-10
1.407323215216872547e-10
9.959011761518670522e-11
7.513255435220722753e-11
5.458435283728827385e-11
4.061268969402564372e-11
3.064285247004581806e-11
2.352924904343217906e-11
1.840800868924674422e-11
1.462274058591412138e-11
1.173164717205305071e-11
9.434252894344680224e-12
7.547098365212857449e-12
5.963577636392897681e-12
4.625534213024186525e-12
3.503995976273500404e-12
2.583603812073103109e-12
1.851993086235367902e-12
1.291680012187300497e-12
8.787037470507316777e-13
5.849206563145524711e-13
3.822949877357990630e-13
