# bin_13_9
2.470554661122192810e-14
2.745243532778355417e-14
2.988879458997328941e-14
3.171806804809891015e-14
3.257898799761561827e-14
3.220213395391843008e-14
3.014950932958126753e-14
2.667442294467152417e-14
2.232140718774113513e-14
1.824692209543127096e-14
1.536769414733194491e-14
1.329825283527298588e-14
1.049168691982017488e-14
7.256221531355132797e-15
5.751595657013381894e-15
4.155543095890766656e-15
3.004508328705831372e-15
2.074721462616935268e-15
1.502358863996798515e-15
1.062526147558986517e-15
7.542410868905068425e-16
5.430248174536562132e-16
3.966898113602761749e-16
2.952428265101891790e-16
2.237930803489213839e-16
1.721445762252934307e-16
1.337019459112520861e-16
1.041254875520609389e-16
8.073107858567947016e-17
6.190355405201107725e-17
4.669383969547669581e-17
