# bin_20_15
1.038362470203815432e-14
1.175172399891611384e-14
1.308312452495784905e-14
1.427247517116933762e-14
1.517877645199152585e-14
1.562808847907002034e-14
1.549233817168728113e-14
1.455426101840525908e-14
1.291660210520414035e-14
1.083692870206218358e-14
8.860311809702577618e-15
7.447257210643278948e-15
6.452287543885063657e-15
5.130491835326802132e-15
3.543379704671273039e-15
2.784637440753309203e-15
2.028107548421595216e-15
1.439747428036445181e-15
9.864234394008364125e-16
7.059056762399170323e-16
4.872884365943439594e-16
3.351013138487222171e-16
2.326359880849584579e-16
1.629166384257426016e-16
1.158472804458676060e-16
8.397050721687750711e-17
6.208278686043902660e-17
4.678504832116971066e-17
3.577588072591855775e-17
2.758387563931156827e-17
2.128249997518319763e-17
