# bin_15_8
1.131498336425326150e-21
1.260712007196582656e-21
1.377167683293024140e-21
1.467519597274931622e-21
1.515145657135514118e-21
1.507453155225088071e-21
1.423243365407963132e-21
1.269085757678530307e-21
1.069532584635589095e-21
8.745842405585807327e-22
7.315507746645333295e-22
6.337898434346559687e-22
5.114113981360103885e-22
3.557401592732266483e-22
2.748543409798988924e-22
2.060268369885264090e-22
1.440156941928728680e-22
1.018913205750660138e-22
7.364954781852131179e-23
5.173273422780658939e-23
3.644969886993936186e-23
2.605860400604060178e-23
1.890468261899804892e-23
1.396170944290091353e-23
1.050884053302844246e-23
8.038044054790716246e-24
6.220188651031700159e-24
4.837855031422188715e-24
3.754463314086153893e-24
2.887350180275288013e-24
2.187803265567116758e-24
