# bin_20_16
3.039956555979488145e-13
3.443336102376979542e-13
3.837360477252204286e-13
4.191448643209262383e-13
4.464570875144069305e-13
4.605725023637340869e-13
4.576959443706518693e-13
4.313424319854979589e-13
3.839419095841708936e-13
3.229937395960031795e-13
2.641250026719589236e-13
2.214287652693596086e-13
1.919121110001627623e-13
1.539178488409058565e-13
1.065704703758499490e-13
8.291055570384773020e-14
6.126719141028876062e-14
4.291615234614122869e-14
2.972123120347089110e-14
2.125329347095806806e-14
1.463634547798335254e-14
1.003583430531044559e-14
6.947036007630837811e-15
4.850250540998164022e-15
3.435490222340859242e-15
2.479892943874746336e-15
1.826052836101091306e-15
1.371264943138052017e-15
1.045935259478319635e-15
8.053924886927224894e-16
6.214015232309902881e-16
