# bin_18_5
3.060859762730699384e-49
3.421822725251483376e-49
3.753266271489738084e-49
4.020018440191091666e-49
4.177828624362005460e-49
4.188848023033911875e-49
3.997063828951636533e-49
3.599742050170707825e-49
3.064273106133665945e-49
2.510294750577322867e-49
2.082529959062499831e-49
1.801896398983701653e-49
1.489795817711437684e-49
1.054800458715373050e-49
7.857379115294483755e-50
6.138678800400038502e-50
4.146603929667716966e-50
3.049804834005434467e-50
2.164127377877107323e-50
1.509026393637821768e-50
1.059582032679928045e-50
7.506124223774405695e-51
5.395415819893537910e-51
3.943844624174394405e-51
2.939734936426378463e-51
2.230114782498456044e-51
1.715634959715943607e-51
1.330595496179215471e-51
1.032886935072818337e-51
7.967798714748760613e-52
6.069691791171528243e-52
