# bin_19_3
9.046680278642266508e-71
1.012353678616324344e-70
1.111756561439576999e-70
1.192565247316338889e-70
1.241780092101909805e-70
1.247808525157048593e-70
1.194446971964346476e-70
1.078993734127435262e-70
9.214055901297651356e-71
7.554994077447073367e-71
6.253902585289358688e-71
5.405269342251261363e-71
4.497478291970412323e-71
3.206661543297195817e-71
2.362664480555414579e-71
1.865879706624574486e-71
1.250933424332362971e-71
9.293882906498822692e-72
6.551492486825754091e-72
4.559387057312852134e-72
3.200947990347620760e-72
2.262082478538485565e-72
1.621316368877398902e-72
1.181223681151852141e-72
8.776695848797466813e-73
6.639426194019694033e-73
5.096843467256732385e-73
3.948265825444938149e-73
3.064280783571322097e-73
2.365563400258675901e-73
1.804746554140320725e-73
