# bin_9_2
7.625574553498261699e-28
8.195125638763052993e-28
8.559392176281659538e-28
8.634398911621914139e-28
8.318202528321732240e-28
7.565600807219572140e-28
6.507643045141935441e-28
5.350265807043671203e-28
4.406681403958100722e-28
3.788343996034821518e-28
3.192416982465230518e-28
2.331282530044127072e-28
1.681601938128238512e-28
1.357172562778547102e-28
9.186715028751874241e-29
7.006037281589128647e-29
4.983283919471189782e-29
3.576845212667360039e-29
2.613905707120583690e-29
1.932676199624491066e-29
1.453726919154701507e-29
1.112694206988961752e-29
8.654832560861317851e-30
6.802301325442416736e-30
5.366339909668952063e-30
4.219863467330764959e-30
3.284707792016145070e-30
2.515911837352674576e-30
1.886784476630615112e-30
1.380087214720476349e-30
9.825219174376464460e-31
