# bin_13_2
4.520224292461335703e-48
4.959235085738293538e-48
5.315152585583338421e-48
5.530169660556763861e-48
5.553146088626491676e-48
5.312138897663043597e-48
4.796392323089306890e-48
4.094253054483256700e-48
3.356532199175220259e-48
2.777996788755053351e-48
2.399248961349723103e-48
1.995256371353147883e-48
1.425702592595785022e-48
1.052446513033183032e-48
8.327063394016546880e-49
5.635811255361810355e-49
4.216714843494412130e-49
3.010501011497106574e-49
2.134108038475384546e-49
1.532956539246193484e-49
1.113818214572441198e-49
8.233622124313921309e-50
6.195847522154735114e-50
4.746020973585948006e-50
3.684166761814910896e-50
2.881486612828945736e-50
2.255348925083536713e-50
1.753935414054142303e-50
1.346775438169765027e-50
1.015699769090978373e-50
7.492511660938960180e-51
