# bin_14_5
8.202529307260774772e-32
9.074046600496099684e-32
9.825438777037912025e-32
1.035597807859533217e-31
1.055166050877389359e-31
1.031382827249537629e-31
9.527028251198090276e-32
8.322127603992684745e-32
6.896625739201312176e-32
5.647491304452833430e-32
4.808860484459264709e-32
4.131763257489257729e-32
3.137916011809333905e-32
2.184385265311321263e-32
1.776253758428776120e-32
1.214499856445371367e-32
9.184363314430019607e-33
6.305733173489353055e-33
4.488116087368515407e-33
3.210893677920214271e-33
2.309961945720407600e-33
1.679702073630303900e-33
1.240516192861843385e-33
9.340147484684791661e-34
7.151498303954710755e-34
5.543097981010085726e-34
4.323967039406709326e-34
3.370006571705424810e-34
2.606180359879501841e-34
1.987642493839896687e-34
1.487815908596281647e-34
