# bin_13_3
3.487193374460257800e-40
3.832043259805476456e-40
4.115290515076893499e-40
4.292724572803178514e-40
4.323103696080870928e-40
4.152921495898268844e-40
3.765318242720295542e-40
3.227944509166363994e-40
2.650108616645210906e-40
2.187409523580324475e-40
1.885641954660562106e-40
1.580553525842927208e-40
1.140837028076704707e-40
8.302028537592326606e-41
6.649472393314623653e-41
4.467481464732487541e-41
3.376864800827705071e-41
2.391484282349834725e-41
1.691721637402022159e-41
1.214939302420578905e-41
8.806352466426370084e-42
6.489319989729650095e-42
4.866676210867721093e-42
3.716897138125031739e-42
2.878872830484485250e-42
2.248675208330573688e-42
1.759552088070360876e-42
1.369318595670423659e-42
1.053079875637505701e-42
7.959989572995610394e-43
5.888641264852344423e-43
