# bin_10_7
5.390416757861680758e-13
5.915365492956566671e-13
6.341804527756330071e-13
6.600871070340575760e-13
6.631184515820632157e-13
6.347562969347818699e-13
5.735235266205627172e-13
4.899193062576192099e-13
4.017669427012998401e-13
3.323903864296275622e-13
2.869467338513414459e-13
2.389028327282432347e-13
1.710495244772394139e-13
1.259656256382088350e-13
9.983083688059082830e-14
6.752262250572447035e-14
5.058076183009911958e-14
3.606322537069097089e-14
2.555754876618957301e-14
1.835912505807170831e-14
1.333557165657201161e-14
9.852880150485270200e-15
7.410049344954408473e-15
5.673224413297922462e-15
4.402196813277589468e-15
3.442229908499467383e-15
2.694038523958407545e-15
2.095274336206662776e-15
1.609245197305581232e-15
1.214070767767693326e-15
8.959905073195465870e-16
