# bin_13_16
4.233192033900227152e-08
4.738093971601223294e-08
5.204158187158908671e-08
5.583002936898169029e-08
5.813570296198450607e-08
5.841662375987329852e-08
5.591320182979376909e-08
5.050935129911635306e-08
4.313376152319175156e-08
3.538119237026801802e-08
2.930738914456975759e-08
2.533051158027565343e-08
2.105906750172178656e-08
1.502293977599285182e-08
1.108286328642567182e-08
8.736111519163404506e-09
5.872702191394430711e-09
4.353590092450683704e-09
3.071305160610185251e-09
2.138715839865973074e-09
1.502251706941537761e-09
1.062491558724809103e-09
7.619711287942162099e-10
5.553192798976710368e-10
4.128324849961535754e-10
3.124114491670860504e-10
2.398840133836267867e-10
1.858555288542017035e-10
1.442537546972161935e-10
1.113622005615435471e-10
8.496052119104805779e-11
