# bin_15_13
1.759823430135935611e-10
1.975011481734193784e-10
2.176405256763693504e-10
2.344342654885399121e-10
2.453802671609817702e-10
2.480151067191431141e-10
2.394160971808238027e-10
2.181134896054547731e-10
1.878910158753476833e-10
1.545887677931742597e-10
1.273681856296629632e-10
1.096431751074378107e-10
9.260010928646310256e-11
6.746557050551673848e-11
4.836189278403114462e-11
3.906247430605498361e-11
2.590556065199644131e-11
1.960557217989647754e-11
1.360090691261843373e-11
9.430880445486971398e-12
6.624687931913271558e-12
4.662609434164780446e-12
3.319077012272187595e-12
2.397115910595000072e-12
1.766278818573129304e-12
1.326007705212319703e-12
1.011775375439937011e-12
7.809578955857030375e-13
6.055447011903370844e-13
4.682439703266920766e-13
3.586145954867266339e-13
