# bin_12_17
7.107862936902209439e-08
7.930518299846550372e-08
8.676928906121383075e-08
9.263797106006273517e-08
9.587048136051137904e-08
9.564226948924202175e-08
9.063081212497976995e-08
8.109516092656347525e-08
6.858791616224724678e-08
5.613798845994712144e-08
4.684494212358425929e-08
4.057434554129746772e-08
3.300421187499910323e-08
2.310858880213398034e-08
1.764147478928832680e-08
1.340612443505237835e-08
9.270277314742719631e-09
6.647681747933550300e-09
4.773419903437489463e-09
3.345654951810913684e-09
2.355566916814242388e-09
1.679279337521734389e-09
1.214797098166970336e-09
8.942536005680900653e-10
6.711429503949483747e-10
5.120511406873607395e-10
3.955478779618746994e-10
3.074097205956817311e-10
2.386246168333827881e-10
1.837272593417713539e-10
1.394839118697608801e-10
