# bin_2_6
3.677887833309030218e-07
3.688363285153644186e-07
3.529166282422767910e-07
3.193203478229459951e-07
2.735019148193418672e-07
2.251461307612443303e-07
1.863988181825052677e-07
1.597722056331399612e-07
1.325972970955120421e-07
9.719919285405930131e-08
7.166095219555730912e-08
5.624381976982342162e-08
3.973647987556856387e-08
2.978000217364800101e-08
2.168339778182390455e-08
1.602939847275736945e-08
1.203179833196706317e-08
9.188667479436892472e-09
7.147139729137725866e-09
5.644681039786225586e-09
4.504664568273176846e-09
3.605526270298136352e-09
2.872999757745870866e-09
2.263284839159285180e-09
1.751663749687050157e-09
1.325094517937491002e-09
9.763179276386388997e-10
6.995132166704208829e-10
4.876611133047141724e-10
3.315361752256217275e-10
2.205072677107262247e-10
