# bin_3_11
4.042556828793359796e-07
4.162041891654858161e-07
4.127143306593199955e-07
3.887307738914932954e-07
3.461069864442957724e-07
2.918528156835307632e-07
2.391366199691415083e-07
2.000722961864438448e-07
1.722661059597127601e-07
1.384861358239129184e-07
9.840915676312115326e-08
7.564584340070660506e-08
5.718546766949146547e-08
4.090572811958425225e-08
3.002243392340301090e-08
2.204939446393973564e-08
1.621415864693164027e-08
1.211584296567208930e-08
9.219346674538445408e-09
7.142685753968937237e-09
5.619020650726353603e-09
4.465212782865890593e-09
3.558258541316221975e-09
2.822959436993336951e-09
2.214394412479166011e-09
1.706832088102941908e-09
1.286196413124071230e-09
9.442253269144157608e-10
6.741052814801105900e-10
4.683197475867592047e-10
3.172989401371357545e-10
