# bin_6_4
7.806302220605716531e-11
8.300294879685790957e-11
8.551965217906505902e-11
8.488784292306696128e-11
7.996391335100794524e-11
7.117151972659030874e-11
5.991670811245649465e-11
4.901110092613972117e-11
4.102685105898001088e-11
3.546914069822645980e-11
2.851250049629791057e-11
1.999060178264513227e-11
1.550377984400457302e-11
1.165109332097236398e-11
8.299741817842739149e-12
5.998802980485573386e-12
4.408312682985559783e-12
3.203314811681408213e-12
2.357007671015209811e-12
1.766540448396202937e-12
1.348160489589136182e-12
1.046357747237925906e-12
8.226187503120670814e-13
6.507313506246515856e-13
5.143652724581128094e-13
4.034296532547364232e-13
3.119348618562749556e-13
2.364799910459179660e-13
1.750216222194464815e-13
1.260919091664102198e-13
8.836842623460017687e-14
