# bin_7_16
2.004144668983896998e-07
2.177219166589998208e-07
2.304786647183438743e-07
2.361158655436967456e-07
2.325521511296601725e-07
2.168809459075457559e-07
1.912022969902637128e-07
1.596526384144288067e-07
1.306366109448626274e-07
1.103160335626751796e-07
9.514862321256218637e-08
7.438642797661661585e-08
5.184740912109973368e-08
4.126373602219003314e-08
2.964627483558317036e-08
2.174577619204310792e-08
1.527377750724482023e-08
1.112135832084041106e-08
8.028377012526992165e-09
5.847418410373411049e-09
4.328210134296638574e-09
3.258014190301313208e-09
2.496966855667019899e-09
1.941589284848906085e-09
1.522748558894857270e-09
1.196749494584495755e-09
9.358203235985241017e-10
7.233288534625420294e-10
5.495379183311658908e-10
4.085272985996010096e-10
2.961838860892979593e-10
