# bin_12_19
9.055665159577164756e-08
1.010476430697282366e-07
1.105716504529866226e-07
1.180682373951771152e-07
1.222119405293820430e-07
1.219493338741922308e-07
1.155960825544633646e-07
1.034646639627027893e-07
8.753345226382146651e-08
7.164835540331106987e-08
5.977306635685270740e-08
5.177013014221350469e-08
4.214231870428670317e-08
2.952181140867581174e-08
2.251305926216413198e-08
1.712951486046401696e-08
1.183275491011303781e-08
8.494609293316043654e-09
6.096638822575346877e-09
4.272139310307345286e-09
3.007507000986742474e-09
2.143472277650638383e-09
1.550173594816139073e-09
1.140781281851767443e-09
8.559158339378874101e-10
6.528651313564733852e-10
5.042358859114667801e-10
3.918468768509088335e-10
3.041709789746912955e-10
2.342156716297358399e-10
1.778424864657014735e-10
