# bin_2_4
2.339231281342590738e-07
2.341655005288220382e-07
2.235017801881242519e-07
2.017049767535107798e-07
1.723332888424989895e-07
1.417264390005948940e-07
1.174956153183775182e-07
1.008093708823309460e-07
8.331239917046118845e-08
6.075088862986180251e-08
4.504291806783876492e-08
3.523071370784829893e-08
2.489381859547233379e-08
1.864479021899415317e-08
1.360214766698568558e-08
1.005855835624463951e-08
7.558873782410592759e-09
5.780967354704120854e-09
4.502677054148064579e-09
3.560192658229500287e-09
2.843246730409529047e-09
2.276317442741408511e-09
1.813464996075833257e-09
1.427682506263717186e-09
1.103807757871432762e-09
8.338808836309335045e-10
6.134508042141523147e-10
4.388226895257354062e-10
3.054597257411767449e-10
2.073876657642859703e-10
1.377790071280637051e-10
