# bin_14_8
7.666451203295007191e-19
8.528849679797886192e-19
9.298210478929415661e-19
9.882796456896805843e-19
1.016981430854935574e-18
1.007538201692746847e-18
9.459780867698889537e-19
8.391533639195871833e-19
7.038550187392859173e-19
5.755269361840736829e-19
4.838366665183637278e-19
4.190344029222736178e-19
3.329999446877776011e-19
2.305688077504478041e-19
1.815161298881904247e-19
1.326583393517378663e-19
9.495258349666311537e-20
6.596348827770595594e-20
4.782162993199724446e-20
3.375378490218179197e-20
2.390197266967438363e-20
1.717691285429998821e-20
1.252268089809486069e-20
9.299958745796444622e-21
7.036148184471501148e-21
5.404016211775845045e-21
4.193471720199453431e-21
3.265345223285865420e-21
2.533098336792712832e-21
1.944636152271943924e-21
1.469314055626590287e-21
