# bin_9_18
1.509266210999312667e-07
1.661712094070998402e-07
1.788622133414700918e-07
1.870961863753646719e-07
1.890065316476995314e-07
1.823914767258438553e-07
1.661696674557667714e-07
1.431623280283356811e-07
1.178320981076685325e-07
9.707841275669707182e-08
8.345576240486617122e-08
7.042864337834009404e-08
5.151626777552881998e-08
3.702722345278400925e-08
2.983042796032331632e-08
2.008875202174602818e-08
1.522059727751804171e-08
1.069156897997866136e-08
7.566728085935067751e-09
5.432232463838430474e-09
3.931480149856765198e-09
2.887729341420181297e-09
2.157020998476714198e-09
1.641830856913416294e-09
1.268198960186836881e-09
9.888384922197312783e-10
7.733189961699767110e-10
6.021801644248327759e-10
4.638765794715731609e-10
3.515246133165479958e-10
2.609073651786341813e-10
