# bin_3_14
4.589645062428102682e-07
4.726201622537775411e-07
4.687706653084087311e-07
4.416674553604666660e-07
3.933578518416008817e-07
3.317860565739858633e-07
2.718648652279135567e-07
2.274029566916947949e-07
1.958035172139091636e-07
1.575196622986535090e-07
1.119675081647076899e-07
8.600066340454781802e-08
6.507373042866212354e-08
4.651723281746773214e-08
3.415707199350552296e-08
2.508023923527430036e-08
1.843988172453181324e-08
1.377695440181956597e-08
1.048147508249358981e-08
8.119161440221777995e-09
6.386282188087486491e-09
5.074469567584097530e-09
4.043634628965526449e-09
3.208113992232885337e-09
2.516717867162788898e-09
1.940105472296806885e-09
1.462223311236802937e-09
1.073654850648591909e-09
7.666595362568398475e-10
5.327195421654421233e-10
3.609910048611420604e-10
