# bin_1_3
3.233772841254468722e-07
3.106359949786220645e-07
2.824648934699893242e-07
2.432541510039412782e-07
2.009885419711942427e-07
1.661312775443053235e-07
1.417407347481106293e-07
1.182261322585052226e-07
8.817075021351549492e-08
6.453285999267450960e-08
5.056279916976122459e-08
3.625165936266794259e-08
2.707492884448173973e-08
1.981507459725955365e-08
1.476881090338985468e-08
1.116083556412786056e-08
8.588519689972316847e-09
6.732304315946409905e-09
5.355340383187071762e-09
4.299123671346123484e-09
3.456535300826416596e-09
2.762473253041168893e-09
2.179422790427554074e-09
1.687026150560356474e-09
1.275111878508331402e-09
9.381347356822720581e-10
6.711820209021807222e-10
4.673857486468813750e-10
3.175673535231669079e-10
2.112009772722982095e-10
1.379465132824407387e-10
