# bin_5_3
7.119293008997016053e-11
7.459855477546646824e-11
7.554633182680283197e-11
7.322307121808698507e-11
6.705965454049855912e-11
5.809426538952365089e-11
4.795581081855733848e-11
3.939888184633464648e-11
3.369302195177378872e-11
2.862585117276725123e-11
2.136205120403868604e-11
1.521810220313900826e-11
1.230829300964513190e-11
8.488788490272350911e-12
6.464804275663812162e-12
4.598727247616934825e-12
3.352717851004663610e-12
2.479156155413123555e-12
1.857903810600468752e-12
1.416677695663137752e-12
1.098527385950141485e-12
8.644017000993379132e-13
6.856811610621373737e-13
5.444271782097679589e-13
4.296381737591405587e-13
3.347054412153892449e-13
2.559104191962006362e-13
1.911254647304651026e-13
1.389763256356037132e-13
9.827658288594938251e-14
6.764733483663927683e-14
