# bin_18_17
1.349108739320852125e-09
1.526422945891318105e-09
1.698585287398535722e-09
1.851791647828190753e-09
1.967607023037170173e-09
2.023451714666212322e-09
2.002588904022577116e-09
1.877325931143779064e-09
1.662808994238180862e-09
1.392750893831454904e-09
1.139067606431351738e-09
9.595773877462319234e-10
8.311356997841764398e-10
6.565571922134946311e-10
4.532202741700144667e-10
3.586780004524310677e-10
2.583766385863698039e-10
1.853602267381669134e-10
1.262744986338521077e-10
9.024629954404587945e-11
6.243973100511789521e-11
4.307080139827056265e-11
2.997451870215668145e-11
2.104420527135260298e-11
1.501369414281553570e-11
1.092062101630678267e-11
8.100329147032168851e-12
6.121237491964361258e-12
4.690008011655642252e-12
3.619593378715057415e-12
2.792682515769706432e-12
