# bin_8_10
5.903753421237506143e-08
6.454538497426304310e-08
6.887079567958127602e-08
7.124574927735482827e-08
7.105297870074157655e-08
6.732842158367920489e-08
6.025220478986939487e-08
5.097900232389074476e-08
4.172987417662995075e-08
3.479777406280765755e-08
3.010571161843467197e-08
2.450931248594979465e-08
1.724358765085069951e-08
1.314611676275629705e-08
1.004449094573377030e-08
6.993568462773430755e-09
5.080395358580010436e-09
3.680828624714000206e-09
2.626243115691855251e-09
1.892726634278772890e-09
1.385074224663916060e-09
1.031238693585359569e-09
7.816730694010865744e-10
6.025143338871407727e-10
4.698004669358961526e-10
3.683287810470007612e-10
2.883443396694155694e-10
2.238235791284301173e-10
1.712428158723058978e-10
1.284920660519517027e-10
9.419203450925595218e-11
