# bin_14_4
3.500285967342047977e-38
3.869283020096456100e-38
4.185391047245460906e-38
4.405319471148362202e-38
4.481337594548301593e-38
4.369297941022027897e-38
4.024216490676699899e-38
3.505211887604804958e-38
2.900029592937724495e-38
2.377520920102867461e-38
2.029916256309197305e-38
1.739297054782183613e-38
1.309485771770789010e-38
9.160017494317139030e-39
7.465957999343329998e-39
5.059423869312775450e-39
3.847810555642240702e-39
2.653068416497524109e-39
1.881445836919151499e-39
1.348401572210115928e-39
9.718513064441474862e-40
7.083326091085175757e-40
5.243557145838491993e-40
3.958176089121407443e-40
3.037155963559740924e-40
2.357644693095358358e-40
1.840613743701398026e-40
1.434654475523485201e-40
1.108848501650873768e-40
8.447443607555981989e-41
6.313424986375216683e-41
