# bin_17_2
3.156172221016798305e-70
3.514319617091092612e-70
3.835501722717249085e-70
4.082167727105194889e-70
4.207809930037182051e-70
4.177681740261907062e-70
3.933189182445583403e-70
3.497969818651322967e-70
2.940784954789320498e-70
2.404862858908843029e-70
2.017202775380280137e-70
1.747714428373817894e-70
1.399197301614005013e-70
9.705976789205734925e-71
7.577144441750202522e-71
5.605127662435045276e-71
3.967388761215065932e-71
2.778297170648147499e-71
2.013183317660428334e-71
1.417783152485525335e-71
1.001467367026635270e-71
7.180365234467855713e-72
5.223104740046278366e-72
3.869084902650720284e-72
2.920577230932246675e-72
2.238980916938026707e-72
1.735347385011056867e-72
1.350685135503004677e-72
1.048114617771285384e-72
8.053941521625672841e-73
6.094282420003005290e-73
