# bin_9_20
1.685511881124756575e-07
1.855842865031947003e-07
1.997690031728755645e-07
2.089800854736196899e-07
2.111306099486308146e-07
2.037650644194918420e-07
1.856649876100882596e-07
1.599782618576555597e-07
1.316800289466501042e-07
1.084806862709694558e-07
9.325122799471068845e-08
7.870967549870535862e-08
5.759222902003774295e-08
4.138045318303444904e-08
3.334360551568371728e-08
2.245489123362328051e-08
1.701495956204007373e-08
1.194945829400195506e-08
8.457018981784507162e-09
6.071266257101795450e-09
4.393727151989369587e-09
3.226967337655764161e-09
2.410172671361198350e-09
1.834349413055310538e-09
1.416802791169859339e-09
1.104655245133148371e-09
8.638785532795966679e-10
6.727070719762657187e-10
5.182257087969813930e-10
3.927341596564108559e-10
2.915168738955075306e-10
