# bin_5_12
2.478844953771676980e-07
2.639009315141121692e-07
2.723534908897703993e-07
2.708547820740450815e-07
2.558646410837157766e-07
2.283681439890963997e-07
1.928389812609310482e-07
1.578872106438400767e-07
1.318899023182540617e-07
1.138871669050999271e-07
9.210576074727083009e-08
6.504656680440150177e-08
4.988767164269452793e-08
3.787288189522830421e-08
2.678197269709071721e-08
1.954107334328251138e-08
1.427052416965585008e-08
1.035212023573240343e-08
7.612491433260265800e-09
5.694396703827663601e-09
4.337166407582613628e-09
3.359793374136455987e-09
2.637550628541487816e-09
2.084547556241827404e-09
1.647192286841255571e-09
1.292301854488969954e-09
1.000052069164572183e-09
7.591617746930710560e-10
5.628605863512421082e-10
4.063613714339081653e-10
2.854310824630124943e-10
