# bin_7_11
1.205866582932289593e-07
1.309500052554549555e-07
1.385561836367642597e-07
1.418633399114211792e-07
1.396137170083370552e-07
1.300812062391427241e-07
1.145757597570187748e-07
9.560020034751218739e-08
7.823082402138939941e-08
6.611250565922289497e-08
5.700005633229676139e-08
4.444738755544640979e-08
3.098165786338523489e-08
2.470896800621197369e-08
1.768790111316120045e-08
1.301358011373685286e-08
9.129477454758112670e-09
6.645416080109623665e-09
4.800657217566460144e-09
3.499092939960220085e-09
2.591727177637537381e-09
1.952156257325088456e-09
1.497092946194197791e-09
1.164673953929182862e-09
9.137089910374940647e-10
7.181705730484419726e-10
5.615288111803203495e-10
4.339024035478710781e-10
3.295048898742138156e-10
2.448134628690516170e-10
1.773714691489064353e-10
