# bin_8_15
1.492491323327868217e-07
1.633133127971444486e-07
1.744441378787459841e-07
1.807058246042210007e-07
1.805092636700263743e-07
1.714295930116190684e-07
1.537411090053365971e-07
1.303575424911123378e-07
1.067557671394125258e-07
8.887448634997893432e-08
7.685993613869785412e-08
6.288405097060245981e-08
4.441454980545126889e-08
3.360776942445091779e-08
2.588485222939841161e-08
1.791085549308388927e-08
1.309652753996573555e-08
9.456685695304538016e-09
6.737651593373213218e-09
4.852150967846853021e-09
3.545138032885313649e-09
2.635140260174847351e-09
1.993983397257341255e-09
1.534766377905786383e-09
1.195479526631805194e-09
9.367571208720611284e-10
7.333232209631095272e-10
5.694983616984496234e-10
4.361002430220021672e-10
3.276359583057396790e-10
2.405462963741343532e-10
