# bin_3_15
4.731869250574114496e-07
4.872863812024195057e-07
4.833433902420544357e-07
4.554291770106278033e-07
4.056414559509683983e-07
3.421673290625898039e-07
2.803730860370920885e-07
2.345079908205233188e-07
2.019224366522143832e-07
1.624677258664313296e-07
1.154922140458857813e-07
8.869256130800944391e-08
6.712440789939942921e-08
4.797603145800116904e-08
3.523193594776186370e-08
2.586815484271288720e-08
1.901849333627154433e-08
1.420878637089510730e-08
1.080958516178848819e-08
8.373011617475951004e-09
6.585743867197339328e-09
5.232855432693650977e-09
4.169815762634594356e-09
3.308240964980069291e-09
2.595311594436924485e-09
2.000748549194540836e-09
1.507984264989157805e-09
1.107302085267146224e-09
7.907204659103291578e-10
5.494612781630004984e-10
3.723494417306555039e-10
