# bin_4_10
2.802828817809711414e-07
2.940884343577913148e-07
2.983085055074069929e-07
2.898183871355261806e-07
2.662357590320076299e-07
2.313355875066739713e-07
1.914432915399786062e-07
1.572534223196917617e-07
1.341017832705175202e-07
1.140606964183446365e-07
8.594862226812306771e-08
6.117834359949451056e-08
4.909128987480166061e-08
3.435694231935586851e-08
2.586006240248346552e-08
1.842796229874988611e-08
1.347436651854273552e-08
9.939250098953958162e-09
7.430915174150650462e-09
5.655048830648403088e-09
4.377096355031189784e-09
3.438696877522548864e-09
2.724806505254557663e-09
2.162409481946674798e-09
1.706634572602507715e-09
1.330426532320297842e-09
1.018429906320842476e-09
7.618723366646342256e-10
5.551258416856743566e-10
3.934299293156196644e-10
2.714124624416070000e-10
