# bin_12_4
2.221411381854784520e-29
2.438055458841944765e-29
2.613958956853375276e-29
2.720653489702377312e-29
2.732911089350579810e-29
2.615250996931551049e-29
2.362181208700660232e-29
2.017119361409983668e-29
1.654169145674904021e-29
1.369362296822709842e-29
1.182938022935720266e-29
9.841097208216390085e-30
7.035077350025011377e-30
5.193174733070177551e-30
4.110426989517183575e-30
2.782358067228146780e-30
2.082370497352876064e-30
1.486717167219955697e-30
1.054030569918277510e-30
7.572152336818783580e-31
5.502134283400266263e-31
4.067652974397982204e-31
3.060598260915583103e-31
2.344677155720129109e-31
1.820198050081981067e-31
1.423768474204332880e-31
1.114596635381984071e-31
8.670180384606799595e-32
6.659616659162542021e-32
5.024414677620530179e-32
3.707939131632462017e-32
