# bin_12_6
4.498137076692513695e-20
4.958079542471067402e-20
5.344187937482391996e-20
5.600066992598097460e-20
5.668438694503048361e-20
5.485672331290512064e-20
5.011592891848550926e-20
4.329868886045301494e-20
3.566992086159190541e-20
2.933460886680795485e-20
2.518654669716418041e-20
2.136651369759798675e-20
1.572945760141415548e-20
1.119709551364789605e-20
9.097531538344901539e-21
6.092452226138161153e-21
4.649358720304576900e-21
3.249009625254160235e-21
2.294941836652039686e-21
1.647861400424909370e-21
1.191142638440931825e-21
8.731605063824580816e-22
6.507493955651556377e-22
4.943617223373263457e-22
3.812954543421544158e-22
2.970402619724671056e-22
2.322567819460133532e-22
1.809432813050094889e-22
1.395321398501734807e-22
1.058971105570569053e-22
7.874763303019814972e-23
