# bin_9_4
3.114990739056441077e-18
3.373345688823304086e-18
3.556946717441641820e-18
3.626677203858441799e-18
3.548905882673399927e-18
3.283336217932244250e-18
2.872636397546386337e-18
2.383835657521610223e-18
1.951786597106309480e-18
1.659108338489275187e-18
1.426306164742789068e-18
1.090229140337384642e-18
7.606065880570192896e-19
6.165462530353604504e-19
4.284520446487120920e-19
3.232337983103062564e-19
2.249433610003994548e-19
1.629127876753911304e-19
1.183840429469496673e-19
8.683146839541417437e-20
6.463167522414878738e-20
4.891412836608386076e-20
3.768687059902802082e-20
2.942328248473010422e-20
2.313446781784483331e-20
1.819681430753749030e-20
1.421672553694281955e-20
1.096232945363840280e-20
8.297477458173419104e-21
6.138414216609253138e-21
4.425063149571380112e-21
