# bin_18_15
1.727135118830955677e-11
1.951167459060969991e-11
2.167244089969171508e-11
2.357387462102257214e-11
2.497789674901420404e-11
2.559934142543673305e-11
2.522024255962697741e-11
2.350961560921841016e-11
2.071418128973590881e-11
1.727363316225969634e-11
1.413199277248433841e-11
1.196129060117383892e-11
1.034087608030737581e-11
8.037756562297748593e-12
5.548242513501900738e-12
4.452600375154984935e-12
3.124210065472559267e-12
2.293706866253549057e-12
1.547873751153770028e-12
1.098648711751644119e-12
7.639843405550986172e-13
5.305949701347985979e-13
3.709746375533997842e-13
2.618285817362077117e-13
1.880573005632538705e-13
1.377347685043154543e-13
1.028352216821609574e-13
7.813015222173050060e-14
6.007727204651477951e-14
4.643381041662681439e-14
3.580302726327318310e-14
