# bin_20_2
2.619111285350370603e-86
2.938981670347703169e-86
3.238149768549249858e-86
3.487316511552901434e-86
3.649222667776834028e-86
3.687367120474253133e-86
3.557975144502526993e-86
3.239886427836647892e-86
2.789630302149734877e-86
2.294654117622976894e-86
1.891015589842186340e-86
1.628380259837829651e-86
1.374344880145119722e-86
9.999156360231973210e-87
7.177519936572568917e-87
5.793808964319151138e-87
3.841502103496826404e-87
2.906513883056565110e-87
2.018049195005116952e-87
1.399354247015753424e-87
9.829276320292106431e-88
6.918320863832439090e-88
4.926473576514726005e-88
3.559636640623116649e-88
2.624079965856738144e-88
1.970832452227154929e-88
1.504325721220018072e-88
1.161412328387975460e-88
9.006272898705815951e-89
6.963860675400838267e-89
5.332504146433589522e-89
