# bin_8_4
2.672167022938525347e-15
2.878083128343481090e-15
3.014084737507955855e-15
3.049544537808861744e-15
2.950394912666413075e-15
2.695425975709914501e-15
2.329008290594052361e-15
1.919072784155122608e-15
1.577912919498671896e-15
1.353365702376958135e-15
1.147656025468592964e-15
8.476170124469802653e-16
6.048911874849442317e-16
4.907936049527675207e-16
3.327555342098248749e-16
2.543106172266059769e-16
1.796758179880663750e-16
1.290290259706898939e-16
9.422928196820130129e-17
6.955498757802537471e-17
5.218328845783737421e-17
3.982517254431797001e-17
3.090927946345740145e-17
2.425769035748410150e-17
1.912545964406408286e-17
1.504495089624482033e-17
1.172555934197325335e-17
8.999418885971525887e-18
6.767220882745012593e-18
4.965820692535638126e-18
3.547603749718836184e-18
