# bin_18_14
6.373372357820824951e-13
7.193724963528771964e-13
7.981905280602490414e-13
8.670890964536957474e-13
9.172441402104547853e-13
9.382604077976724096e-13
9.219132823525400038e-13
8.566130073758831258e-13
7.524782487724966262e-13
6.260257636564751223e-13
5.123843292248661320e-13
4.348489517581330723e-13
3.753179681220073455e-13
2.890328071399860430e-13
1.998177825314269997e-13
1.613466263928635383e-13
1.115963805082963972e-13
8.287633832797626641e-14
5.586629480906159234e-14
3.941730389203535132e-14
2.749423420801351049e-14
1.916711441146474663e-14
1.343473764749722350e-14
9.510815957391891872e-15
6.856561735802233690e-15
5.040674529060470503e-15
3.776576853799403499e-15
2.877217218217114745e-15
2.216217888847725404e-15
1.713863341384496442e-15
1.320716475408155977e-15
