# bin_20_7
2.906236302070149171e-44
3.270129143379042405e-44
3.615186139854195614e-44
3.909887831725010223e-44
4.113566841917897732e-44
4.181815442253525529e-44
4.072739476339059206e-44
3.745653431094233391e-44
3.257700417047746286e-44
2.692478819397019994e-44
2.208213323402232814e-44
1.888130732623855473e-44
1.615786355620328226e-44
1.209400766408916859e-44
8.455820016185713532e-45
6.895106458786044198e-45
4.606857185299965920e-45
3.496238284407260124e-45
2.381687829661865615e-45
1.653709520022065216e-45
1.160815669762392862e-45
8.148539828470459017e-46
5.754027745545667888e-46
4.112430274971403502e-46
2.997443909674196220e-46
2.227482495746910510e-46
1.685081002237967719e-46
1.293090897502614665e-46
1.000024422613517948e-46
7.737622504672346100e-47
5.946573070325114633e-47
