# bin_17_1
4.085435895718146104e-80
4.547248124609870844e-80
4.960767928924321958e-80
5.277442397148553707e-80
5.437237219052144211e-80
5.395417690557127867e-80
5.076603069348531064e-80
4.512250028874684557e-80
3.791421753213156503e-80
3.099565012225882227e-80
2.599864479600409648e-80
2.251857080980626322e-80
1.800840876724928005e-80
1.248595419278238966e-80
9.754440432125264027e-81
7.204175005623018963e-81
5.104376580297920274e-81
3.570282491947696141e-81
2.586680414430994393e-81
1.821674811775927422e-81
1.286795523575461229e-81
9.226326649538194770e-82
6.711543152408114800e-82
4.972072528574659409e-82
3.753460230012590236e-82
2.877631878282178356e-82
2.230327508769859603e-82
1.735795414298569117e-82
1.346718512481379408e-82
1.034574359733851061e-82
7.825786818914663211e-83
