# bin_8_8
1.883064204086982261e-10
2.061457556305261951e-10
2.203356790757812005e-10
2.284398070629348091e-10
2.284511783060204485e-10
2.172801759106529098e-10
1.951067366430644141e-10
1.656096781026739669e-10
1.355776247369758013e-10
1.126721143920099680e-10
9.746179550330180572e-11
8.008453102540844995e-11
5.657468366412220166e-11
4.259103981755517429e-11
3.304005770132333465e-11
2.269159929300046265e-11
1.668110262852280711e-11
1.203534783217159771e-11
8.561082842044288887e-12
6.155413655588394261e-12
4.490071772591338798e-12
3.333257870599346494e-12
2.519048902004799468e-12
1.936932397807244847e-12
1.507675004323993388e-12
1.180981607073807469e-12
9.245332665866910313e-13
7.182333743697339021e-13
5.503255911468117411e-13
4.137878020441254472e-13
3.040924586554515449e-13
