# bin_20_14
1.413592920374210594e-16
1.599825376805793577e-16
1.780978674504788270e-16
1.942696503876481847e-16
2.065772176110399666e-16
2.126532988874493609e-16
2.107549529424083010e-16
1.979323835335248169e-16
1.756088324355109375e-16
1.472965320063339324e-16
1.204291893391796895e-16
1.012478101011112909e-16
8.771604608806677037e-17
6.968623052274823663e-17
4.812117345096526199e-17
3.785218206629351531e-17
2.752859134821838585e-17
1.956877296301517427e-17
1.339496327200627317e-17
9.585062800312606393e-18
6.618251349130381390e-18
4.552860835769069241e-18
3.161819453700037195e-18
2.214717250513087290e-18
1.575513844294042031e-18
1.142605173391793421e-18
8.451228659491154698e-19
6.371174490916604456e-19
4.873374849945266648e-19
3.758056176001325564e-19
2.899631064065487932e-19
