# bin_17_8
8.402654354577065248e-28
9.410211562946408943e-28
1.034369854957052607e-27
1.110790758562167431e-27
1.158258275136340372e-27
1.165736086686286772e-27
1.118443539930739133e-27
1.012603943821841111e-27
8.667330146729316218e-28
7.111992559709034175e-28
5.878338509725346513e-28
5.075669144347171447e-28
4.241754085427273313e-28
3.040972208368466727e-28
2.222862608582989096e-28
1.768298236074744556e-28
1.180065625440530845e-28
8.824527920221581076e-29
6.191474090754015868e-29
4.303105012961068916e-29
3.021045928222387047e-29
2.131602877999607013e-29
1.524796155458449386e-29
1.108055665451843347e-29
8.214731401255395547e-30
6.201533803933829681e-30
4.753111848810957982e-30
3.678801665267934176e-30
2.854776357865377036e-30
2.205089480710556155e-30
1.684267755568421361e-30
