# bin_20_9
2.900768037726972721e-33
3.268996581466729819e-33
3.620561612580238661e-33
3.924542081017282208e-33
4.140628878388657474e-33
4.222747850213927207e-33
4.131958062483817128e-33
3.820535855531954862e-33
3.340403189019050573e-33
2.769647125375565134e-33
2.268173620417278896e-33
1.931611049365826517e-33
1.661490775666338411e-33
1.262487710829933974e-33
8.759616845801909439e-34
7.118129861738570914e-34
4.831568481605726481e-34
3.634872082844462011e-34
2.456573017715047687e-34
1.717616410478740943e-34
1.202501393705091582e-34
8.417817221994422981e-35
5.919517431375331121e-35
4.207949419416777188e-35
3.048656602362226675e-35
2.252339078745176363e-35
1.695108216137175755e-35
1.295879515630730642e-35
1.000154474027233439e-35
7.737373238955579248e-36
5.955564918971246475e-36
