# bin_14_10
3.796251344016177824e-14
4.238499306407336091e-14
4.641567463130046904e-14
4.961358616090770826e-14
5.142550119522053525e-14
5.140376732206295090e-14
4.884058812452943564e-14
4.380859915564231787e-14
3.713790305634385896e-14
3.039660382230213381e-14
2.529779709008148374e-14
2.190755424378730228e-14
1.794538800273662383e-14
1.260359068058261010e-14
9.528140218571934775e-15
7.326529940282892192e-15
5.010825233534582286e-15
3.629377135255044591e-15
2.597109737801513050e-15
1.815945292761943151e-15
1.276007847858462531e-15
9.071038192296788944e-16
6.544615665209358583e-16
4.803375384004139043e-16
3.595080640592904225e-16
2.736611876651340546e-16
2.110589959425378929e-16
1.639076816245691373e-16
1.272435175902236789e-16
9.805078944253285774e-17
7.454301857319917323e-17
