# bin_13_11
1.616259291282822689e-11
1.804034842067588736e-11
1.974905244829500662e-11
2.110053642154298486e-11
2.185888522028421550e-11
2.183539530777478705e-11
2.072774288561040963e-11
1.857634666869339467e-11
1.573396957670405508e-11
1.287569459116750867e-11
1.072336236203521639e-11
9.287675985173867112e-12
7.592513442124521531e-12
5.323683339902396343e-12
4.037335843822710372e-12
3.093653098549262553e-12
2.121765477850374694e-12
1.531685381633536214e-12
1.097959192089111841e-12
7.681817248908868301e-13
5.398886451270075853e-13
3.840999166652081464e-13
2.773408797640767204e-13
2.037340695183309149e-13
1.526125061933360589e-13
1.162531408143022874e-13
8.970567841056215230e-14
6.968293380916476648e-14
5.409519242148093379e-14
4.167393320307313637e-14
3.166832318885391728e-14
