# bin_19_12
2.502601620501669034e-19
2.823689026920337457e-19
3.131864627191668606e-19
3.400822710838157177e-19
3.595976665935828380e-19
3.676665429701774333e-19
3.610713856014684450e-19
3.353014363691470254e-19
2.943763338133966634e-19
2.447810192884663737e-19
2.002952383213370767e-19
1.699824100626162784e-19
1.466566468600250433e-19
1.128127245533776573e-19
7.797506585855795274e-20
6.298986215093711547e-20
4.349175633418540971e-20
3.233168468035149643e-20
2.178206377920026308e-20
1.535519226956061353e-20
1.071092939554059836e-20
7.467785702977911225e-21
5.233918886094185060e-21
3.705033912407940274e-21
2.671112540771218386e-21
1.963801025590657910e-21
1.471415452855156467e-21
1.121061383605419494e-21
8.635096967352305371e-22
6.677250832650256576e-22
5.144714491655271437e-22
