# bin_8_3
5.796968982607651557e-19
6.224663164661413348e-19
6.494190071404280777e-19
6.542854524953255404e-19
6.291544570474454205e-19
5.711442261014906109e-19
4.903235218173604152e-19
4.028069205731464227e-19
3.321249405117090198e-19
2.858193459552005678e-19
2.400924374689983165e-19
1.744735406491686391e-19
1.265981115708693186e-19
1.017635112443435746e-19
6.897558804654645428e-20
5.245989795123784570e-20
3.743106786852599256e-20
2.687557772652232204e-20
1.964195012053059985e-20
1.453273412937398321e-20
1.094370075937555586e-20
8.384705794660791306e-21
6.528118047607374929e-21
5.133895556022823525e-21
4.051129313986474005e-21
3.185364202931585169e-21
2.478446491172004701e-21
1.897043754873261788e-21
1.421358019365302173e-21
1.038507677775892081e-21
7.384749148654754992e-22
