# bin_10_7
5.296781543605276973e-13
5.819341746922254126e-13
6.247627083229900455e-13
6.514367275764793182e-13
6.557411038901987348e-13
6.295120418430005078e-13
5.704095948814372285e-13
4.886988703247808168e-13
4.011620500162039867e-13
3.312745034116114538e-13
2.856165845057427984e-13
2.390807844160205909e-13
1.723700419299683686e-13
1.257024395050180290e-13
1.004416416618480394e-13
6.760643949389303234e-14
5.098531333790454598e-14
3.614846711466812147e-14
2.557935064933450598e-14
1.836922829148486028e-14
1.331950200630738157e-14
9.818825922193089513e-15
7.364944855653315704e-15
5.626956292735134692e-15
4.359172115299845050e-15
3.405248532399008974e-15
2.664585966697071054e-15
2.073463978331951294e-15
1.594347553874892468e-15
1.204868354443786298e-15
8.911039695951836999e-16
