# bin_15_15
1.007246955856308245e-10
1.134246625294959497e-10
1.255093443049876674e-10
1.358957121673581513e-10
1.431792946716770258e-10
1.457887854691027183e-10
1.423255575090267884e-10
1.312490339305852362e-10
1.144565822614459060e-10
9.474605070958423860e-11
7.764321595939084549e-11
6.625655878425530515e-11
5.685563320583533672e-11
4.288013550750534141e-11
2.985371455079378262e-11
2.431344346110750750e-11
1.636264143034880940e-11
1.237242210380089886e-11
8.391980744530661576e-12
5.844622626267637821e-12
4.098203933206182884e-12
2.873532012068370982e-12
2.024900165835466151e-12
1.443272931360748139e-12
1.048810799100464821e-12
7.771445984873286830e-13
5.864139609681144037e-13
4.491737452472785300e-13
3.470402953025822361e-13
2.685116112220533668e-13
2.065259087381838083e-13
