# bin_11_4
3.275582171761844931e-25
3.582367473151054638e-25
3.824255837185102399e-25
3.958657735842875108e-25
3.951562203006920403e-25
3.748683968039765015e-25
3.357912654501544952e-25
2.843150580455467950e-25
2.326273091364067084e-25
1.936960296303649899e-25
1.676384234146511626e-25
1.369783611116806368e-25
9.630209703196548359e-26
7.314828815973892755e-26
5.621726777658996903e-26
3.889286877582288763e-26
2.834966551204687341e-26
2.055076300327870226e-26
1.464281011836216766e-26
1.053473776793797814e-26
7.699343205831985414e-27
5.726610058033995577e-27
4.336350921193739736e-27
3.339777524511190586e-27
2.602712931654042402e-27
2.040037106316081999e-27
1.597088620933817273e-27
1.240057235879342517e-27
9.491899834480122124e-28
7.126758766146692462e-28
5.228207152099887075e-28
