# bin_2_1
2.529290899832637102e-10
2.505690356318180123e-10
2.357592293512154689e-10
2.097211842837893692e-10
1.766620299724590823e-10
1.446288956132150032e-10
1.209619264539309760e-10
1.041899571259549069e-10
8.374995997771533860e-11
5.940081081707433835e-11
4.578960746734336883e-11
3.466469159645096250e-11
2.488244268585319557e-11
1.832946361469888659e-11
1.357886602119088377e-11
1.008148750019169412e-11
7.619925181994800684e-12
5.872137924622609823e-12
4.606834857451007126e-12
3.664312684125769228e-12
2.936710588649409719e-12
2.353218205850901832e-12
1.871546839637177248e-12
1.467349586485954690e-12
1.127414912213727601e-12
8.449671642388433673e-13
6.160763915807018542e-13
4.366749605160776630e-13
3.013623180595946064e-13
2.030592462587519982e-13
1.340451602388854668e-13
