# bin_7
0.000000000000000000e+00
2.741718488466829448e-319
3.548540695546869117e-261
1.633391001318160461e-213
3.632469930926756973e-174
1.375478381577331612e-141
1.431467976816172968e-114
3.743791471089173448e-92
1.459700248801440086e-73
3.597870267500689530e-58
1.826147908140662858e-45
5.044320299783248082e-35
1.695635517094377474e-26
1.355853182364643077e-19
4.521695632402430853e-14
1.009645203444581327e-09
2.256483937992631539e-06
7.129307673826217138e-04
4.306783749778902992e-02
6.530410785322132705e-01
3.200672820572449062e+00
6.354108797860397395e+00
5.997016374474519296e+00
2.898937074664292179e+00
7.403330215712986551e-01
1.033964651879265423e-01
8.293904524080011539e-03
4.044571471528342365e-04
1.270397070524626104e-05
2.715340251527747131e-07
4.154099490238352051e-09
4.761460858688854954e-11
4.259764770183032293e-13
3.084941020740510246e-15
1.868054978264004755e-17
9.733914113574820629e-20
4.477037183021693507e-22
1.859012986677583776e-24
7.109193875707974322e-27
2.548376042045263684e-29
8.697313753973204957e-32
2.865318100928400896e-34
9.223955847239661214e-37
2.932851925508776485e-39
9.298523851641695225e-42
2.964305321486910635e-44
9.572311077249448325e-47
3.151440922563776746e-49
1.063823598684693119e-51
3.700507881418802359e-54
1.332215240513882832e-56
4.982592638159592555e-59
1.942377422648964386e-61
7.914884718712552894e-64
3.379486632820809622e-66
1.515165160386384349e-68
7.145659229383625861e-71
3.550131966506494892e-73
1.860387223275673438e-75
1.029336633823212512e-77
6.018075833792659930e-80
3.720289437126472515e-82
2.432862697433225080e-84
1.683530750605710739e-86
1.233026805788039949e-88
9.558905527418014140e-91
7.843689888139389135e-93
6.811814623963216745e-95
6.259714673253921090e-97
6.085332079046609543e-99
6.256247409432099680e-101
0.000000000000000000e+00
0.000000000000000000e+00
0.000000000000000000e+00
0.000000000000000000e+00
0.000000000000000000e+00
0.000000000000000000e+00
0.000000000000000000e+00
0.000000000000000000e+00
0.000000000000000000e+00
0.000000000000000000e+00
0.000000000000000000e+00
