# bin_18_3
5.160253340450583156e-66
5.767714086677694695e-66
6.324577985653480482e-66
6.771414735562693023e-66
7.033453419784134293e-66
7.047686063725769769e-66
6.718866737800264510e-66
6.046128235290983729e-66
5.142186408429804257e-66
4.211731323222410079e-66
3.496278548548290567e-66
3.025738193703916470e-66
2.496970534468800490e-66
1.764829623078141187e-66
1.318627823257979774e-66
1.026870215654637070e-66
6.953325360097672808e-67
5.098064262583645248e-67
3.623928959240717364e-67
2.528241744896299055e-67
1.775342507464287406e-67
1.258476646423614445e-67
9.053255197282072047e-68
6.621787208947136075e-68
4.940766955509648870e-68
3.750804549174000967e-68
2.887088596060886825e-68
2.239958759006372245e-68
1.739003633266865286e-68
1.341361127054007410e-68
1.021555719414996828e-68
