# bin_1_20
8.246083873091382751e-07
7.964380963365451740e-07
7.285337647741989878e-07
6.309757937356612851e-07
5.228180384680170393e-07
4.310429429620556327e-07
3.665849721132935429e-07
3.080074552389591077e-07
2.326892153983355463e-07
1.688922531990898193e-07
1.324175542100009463e-07
9.552512586598330458e-08
7.102074027193538251e-08
5.193517191385879744e-08
3.865069969812761220e-08
2.911109077521715689e-08
2.232330139300501422e-08
1.744170864698096832e-08
1.383740042659345999e-08
1.108960256992256754e-08
8.911181669756752680e-09
7.125487180119938108e-09
5.630099663383340720e-09
4.368509991790117694e-09
3.311974569131456199e-09
2.445102147568951776e-09
1.755487162982084407e-09
1.226477324409234496e-09
8.357520850963181685e-10
5.571770161486284506e-10
3.646424333932674054e-10
