# bin_4_10
2.748918248775324804e-07
2.885853565664164448e-07
2.929234481220889657e-07
2.848772372270919981e-07
2.620116839450121256e-07
2.279320954791822146e-07
1.887387626582185735e-07
1.549180995130556115e-07
1.319432256859580133e-07
1.123648836958610181e-07
8.497634896973437604e-08
6.034349571701563521e-08
4.838709547728841040e-08
3.395322487906897571e-08
2.550266660013032369e-08
1.815956282975991837e-08
1.328060841750693936e-08
9.786665260002751259e-09
7.308578306728675754e-09
5.555938780492404996e-09
4.295584680031860857e-09
3.371822168324194525e-09
2.670309364579936198e-09
2.118548490952395061e-09
1.672050407534941594e-09
1.303859888233857112e-09
9.986404174491056712e-10
7.476335873680219251e-10
5.452440070774203979e-10
3.867930780113173778e-10
2.670747277934877206e-10
