# bin_14_6
8.200521819726147312e-27
9.097921958924480245e-27
9.885632550211459288e-27
1.046432397130165872e-26
1.071566866632423941e-26
1.054797041979809283e-26
9.825266619537667979e-27
8.651550308912525659e-27
7.211037999732195692e-27
5.896536041105729220e-27
4.987140311219467077e-27
4.307825912380428781e-27
3.350038935267557502e-27
2.317331346878296832e-27
1.859667990173600168e-27
1.313512205580361702e-27
9.687811400772315262e-28
6.639500203593125128e-28
4.783681623907357637e-28
3.398438453898823830e-28
2.425588144328357381e-28
1.753168278400344438e-28
1.285478699404457688e-28
9.609976511987588294e-29
7.313539221016083816e-29
5.642665863512852595e-29
4.390836153218307276e-29
3.421499949410684843e-29
2.650982221366364561e-29
2.029195865217093046e-29
1.526657143250582258e-29
