# bin_10_20
1.374074970423956505e-07
1.521440255512346164e-07
1.649176753060248317e-07
1.740481836164505943e-07
1.776161664497992049e-07
1.739764669908592395e-07
1.611338167400052916e-07
1.411113538732839893e-07
1.171863658093607088e-07
9.594154236272746607e-08
8.150523923141392191e-08
7.009870161485762831e-08
5.366526047901971166e-08
3.734211570244726674e-08
3.016080885865273008e-08
2.090165696559788986e-08
1.562544643047012031e-08
1.074939178077453585e-08
7.684823014298058906e-09
5.480860716616027622e-09
3.929320374859119508e-09
2.851249987362459146e-09
2.100010099675800725e-09
1.577240659139187741e-09
1.205073655973399989e-09
9.324642729068562920e-10
7.267017063413204388e-10
5.662970302871790173e-10
4.381989230263263945e-10
3.346083337294046935e-10
2.509047022115194604e-10
