# bin_16_9
5.658799766973645662e-21
6.334369857362404976e-21
6.958619770533179967e-21
7.467166590267010151e-21
7.778755380047095255e-21
7.820552307654659620e-21
7.491194271623381442e-21
6.772000989147669834e-21
5.786988697298726931e-21
4.746121211521298967e-21
3.926896724605419877e-21
3.392967672051050067e-21
2.826986377812992134e-21
2.019046239323737354e-21
1.483938171090659752e-21
1.174554998439956035e-21
7.863218232581681894e-22
5.853678374973362774e-22
4.120254795125039656e-22
2.866140827016881946e-22
2.012132670758795741e-22
1.421202359817683889e-22
1.018082860921613829e-22
7.409705862728093492e-23
5.502536275963505840e-23
4.159987970292433757e-23
3.191948434230459399e-23
2.472168892371570847e-23
1.918773897752171251e-23
1.481684347256943059e-23
1.130974926913790733e-23
