# bin_3_20
5.160174843874105459e-07
5.317390932034329229e-07
5.278988101088834186e-07
4.980140702673340183e-07
4.441062149053739315e-07
3.750009844118261275e-07
3.072494624305645378e-07
2.566428161828343363e-07
2.209364073276963558e-07
1.783257727228223136e-07
1.269404732297397858e-07
9.708304350129064875e-08
7.378329083991159663e-08
5.255928642424268479e-08
3.867774382294328204e-08
2.835641577389514879e-08
2.082706633333423861e-08
1.554535898182225922e-08
1.181356030354229467e-08
9.141099512369716004e-09
7.183161493588419572e-09
5.704130379711308037e-09
4.543846487131265730e-09
3.604865007372099806e-09
2.828740196612148166e-09
2.181808248294123411e-09
1.645637887125449584e-09
1.209427826820297336e-09
8.644429987981530884e-10
6.012180526165295627e-10
4.077372831093980425e-10
