# bin_17_1
1.038566218149557026e-80
1.156250371089501381e-80
1.261759964709800463e-80
1.342771087128817974e-80
1.384025509568388440e-80
1.374102855174691276e-80
1.293773946260850656e-80
1.150722883747319231e-80
9.674551763462552917e-81
7.909464208253343946e-81
6.630614968950047875e-81
5.743368274149159454e-81
4.601437634091485808e-81
3.192326376036269084e-81
2.488404307944295825e-81
1.843358956801799900e-81
1.302471497818533044e-81
9.130859531676720545e-82
6.612640625017455959e-82
4.654539540546473335e-82
3.286193037836237592e-82
2.354954930066664186e-82
1.712144814335984115e-82
1.267664560223086859e-82
9.565552338470474158e-83
7.330685152703650133e-83
5.680449986981569254e-83
4.420848292230394283e-83
3.430480016724847883e-83
2.636222736160211216e-83
1.995023967583125438e-83
