# bin_15_3
1.670926210571665357e-50
1.851541701273853345e-50
2.008867968850366263e-50
2.122543665515048033e-50
2.168802205240918167e-50
2.128399689030638567e-50
1.975339790245477967e-50
1.733372825812582409e-50
1.440977320084273039e-50
1.178877519144241315e-50
1.000058247232038274e-50
8.621495620059386213e-51
6.635515396764392098e-51
4.598797510667110182e-51
3.715729909860077514e-51
2.584912315358789776e-51
1.930100155591576271e-51
1.321424726268617616e-51
9.470096095243703053e-52
6.749576187741204230e-52
4.835510523152918806e-52
3.504326907825206378e-52
2.576889421841080970e-52
1.932445453141633873e-52
1.474609135822475556e-52
1.140031117239956295e-52
8.881387128980443605e-53
6.922003891633013658e-53
5.359425303257168245e-53
4.096398505516569514e-53
3.075537166978858149e-53
