# bin_1_2
1.926112037579294473e-07
1.842398154649851731e-07
1.667778671537867264e-07
1.430019604293650371e-07
1.178898585174260039e-07
9.758919807502556427e-08
8.339875964453318139e-08
6.915696076546816334e-08
5.110257017654424458e-08
3.763923273212377430e-08
2.943441665073148445e-08
2.102510188975478815e-08
1.573684618788389961e-08
1.152691994975331626e-08
8.596179034059843811e-09
6.509018304719252134e-09
5.019468755795769022e-09
3.942247047070216432e-09
3.140480403818714059e-09
2.523222837709918353e-09
2.028839437804116491e-09
1.620373624209919655e-09
1.276675754475575755e-09
9.863520367745276947e-10
7.437692405777012158e-10
5.457972473375094765e-10
3.894642225188347051e-10
2.705438186349312728e-10
1.834229344195098940e-10
1.217624991296870078e-10
7.940903731377782757e-11
