# bin_8_6
9.211994673049894970e-11
1.000191799302838083e-10
1.058104768214703370e-10
1.083111368592997597e-10
1.065799360422278389e-10
9.927452193253955302e-11
8.741844761996307592e-11
7.289250006250467701e-11
5.960780202931357410e-11
5.036700499484184328e-11
4.345519174286121416e-11
3.387200593156848822e-11
2.353923286570072014e-11
1.882994419899546148e-11
1.344525503703873288e-11
9.917763871430065136e-12
6.921778333749273777e-12
5.047628901413828717e-12
3.646750287474096636e-12
2.657753267214705253e-12
1.968646211528042921e-12
1.482521146282843678e-12
1.136918481358703264e-12
8.845071240838260736e-13
6.939263457392489740e-13
5.454488431551775742e-13
4.264989454168218411e-13
3.295705911797483606e-13
2.502757864118434110e-13
1.859446320862860728e-13
1.347107653843767507e-13
