# bin_6_8
8.349612600438918162e-08
8.983763721038140487e-08
9.396616686828306080e-08
9.494506341561716123e-08
9.169434871002539993e-08
8.364585390229511332e-08
7.216445986123931198e-08
5.944544449398195499e-08
4.892357013566369242e-08
4.195373059037320237e-08
3.544811185224380113e-08
2.612997011181548935e-08
1.875274094618336405e-08
1.509862934319673580e-08
1.031126264097286118e-08
7.820325626997416054e-09
5.539514124621724210e-09
3.986335725165756232e-09
2.909254802824034666e-09
2.147870774516600392e-09
1.612330174781615848e-09
1.231020568791214512e-09
9.557471516991376019e-10
7.501446410916589443e-10
5.913404406803812236e-10
4.649936762086754808e-10
3.621852452595189024e-10
2.777643416421703700e-10
2.086840117812299464e-10
1.529930227065066510e-10
1.092060925745023934e-10
