# bin_12_4
2.164812550084222655e-29
2.377095617053444891e-29
2.550283253166050689e-29
2.656794942136863346e-29
2.671695138706834089e-29
2.560900737451205365e-29
2.316972237265338913e-29
1.981866690516571686e-29
1.625867300425640565e-29
1.343825350014704817e-29
1.159604909056200776e-29
9.680956502655040972e-30
6.950759635520027560e-30
5.095220672132790263e-30
4.055751470875567668e-30
2.734408219793006327e-30
2.056194634418527461e-30
1.461946301913632601e-30
1.035037921864113795e-30
7.432102264052195237e-31
5.391966727464113538e-31
3.978957432556952199e-31
2.987676722267844695e-31
2.285054256072967778e-31
1.771590601034538000e-31
1.384579142083722484e-31
1.083602335988850805e-31
8.430799542929496033e-32
6.479855231578394048e-32
4.893655136378059380e-32
3.616166009508282278e-32
