# bin_8_8
1.171023025265756595e-08
1.277947968425145608e-08
1.360573771135169598e-08
1.403632778977537036e-08
1.395285517919819540e-08
1.316417541962303125e-08
1.173260337263075004e-08
9.886415700198670732e-09
8.085108565065716737e-09
6.761205113391672944e-09
5.850408079601581005e-09
4.717080186527260278e-09
3.297280418841242613e-09
2.547422380259486281e-09
1.916134841615320091e-09
1.350798716088403932e-09
9.687164592409481430e-10
7.056211693957804726e-10
5.047292689191386324e-10
3.642664170242669126e-10
2.673049478093440554e-10
1.995523902395826491e-10
1.516826126439612398e-10
1.171925152180487861e-10
9.152444344556612016e-11
7.181047633748680660e-11
5.620772213442560186e-11
4.358699797397011289e-11
3.328964072284874306e-11
2.492031656626439337e-11
1.821616021381530191e-11
