# bin_8_4
2.614259989734043440e-15
2.817181269530301492e-15
2.952420068192563814e-15
2.989729025792433210e-15
2.896434747720940558e-15
2.650115237364389908e-15
2.293295415963470975e-15
1.890807753884889163e-15
1.553045238239519758e-15
1.330142143956027950e-15
1.130362232410322572e-15
8.386258220635076263e-16
5.958176106531271537e-16
4.839842711261850738e-16
3.285771240772324031e-16
2.510476055538942416e-16
1.768342955524612782e-16
1.270161096509785765e-16
9.269680193542683558e-17
6.835603617451121460e-17
5.121560239720324574e-17
3.902618187888204594e-17
3.025367070932134540e-17
2.372268866254610335e-17
1.869420598476005513e-17
1.470436712426128587e-17
1.146336192683989667e-17
8.803542829770478825e-18
6.625868031561156689e-18
4.867642773917087573e-18
3.481914980911313617e-18
