# bin_16_18
2.151723600728590196e-08
2.428526692744654702e-08
2.694529993610345792e-08
2.927181413529195627e-08
3.096792600509934944e-08
3.168391049775571402e-08
3.114187085683876987e-08
2.895087789631019686e-08
2.544342510149766983e-08
2.117611396744952682e-08
1.732653797560064210e-08
1.468995698121673408e-08
1.267748073171204931e-08
9.784830744551919901e-09
6.764002756975108138e-09
5.447232471834676732e-09
3.783813471399664803e-09
2.797601207879022210e-09
1.888763543104964757e-09
1.334215945645026756e-09
9.295076054120435926e-10
6.469776986303805677e-10
4.530940040187470086e-10
3.203816872805110927e-10
2.306974588781841895e-10
1.694022451993467550e-10
1.267754488051466244e-10
9.649680508663891050e-11
7.428173711371665671e-11
5.742607060847336256e-11
4.425243394934847909e-11
