# bin_16_6
1.802809535951131987e-34
2.010548406217262359e-34
2.198647589818172042e-34
2.345976020235027499e-34
2.426111636380080448e-34
2.418574112542970089e-34
2.289459403795989352e-34
2.046577481329444648e-34
1.728886553960275444e-34
1.414205801425277833e-34
1.180395487638588000e-34
1.022593841581064733e-34
8.305242319229446931e-35
5.797755172106367666e-35
4.439278986027813762e-35
3.364194041446535363e-35
2.329001189129981790e-35
1.663857419652244219e-35
1.198361059797316832e-35
8.400925270399367803e-36
5.910635830189063248e-36
4.215662318285723841e-36
3.051389340767702394e-36
2.247699132650213648e-36
1.688204079503745991e-36
1.288831759088312625e-36
9.960975875911537838e-37
7.743830601761092082e-37
6.011514166068015455e-37
4.627733302355869782e-37
3.511991930942632118e-37
