# bin_8_2
1.543277464431454621e-23
1.648849890502363603e-23
1.709237971121479181e-23
1.709418493280787754e-23
1.626499291745874194e-23
1.461451669181052848e-23
1.241445700571471735e-23
1.016557885479326728e-23
8.440377761192326885e-24
7.292594067756660140e-24
6.003375054858977768e-24
4.262408628091522813e-24
3.201281445942778178e-24
2.497346655556353920e-24
1.724455866952553570e-24
1.280572870967671964e-24
9.305822884976815537e-25
6.713535804084245331e-25
4.914766084791615564e-25
3.657409104834332269e-25
2.772978730233523485e-25
2.138836847406424611e-25
1.674003453371939324e-25
1.320805119591736986e-25
1.043462413747093696e-25
8.196607307175641803e-26
6.358804574256389687e-26
4.844442791563366633e-26
3.607668917392809404e-26
2.617222375184611839e-26
1.847211842024188534e-26
