# bin_8_7
1.859719629737564616e-09
2.025028661779851361e-09
2.149997797118759880e-09
2.210391408689604596e-09
2.187707886684513276e-09
2.052426779853804762e-09
1.819557420474159113e-09
1.525747165346643390e-09
1.247283373259281635e-09
1.047798847017200449e-09
9.061767548001533575e-10
7.201994251575882231e-10
5.008854836713023279e-10
3.937221155386143888e-10
2.894158640134156911e-10
2.081863971573691355e-10
1.469794147569294075e-10
1.074544012185801137e-10
7.719403499115311277e-11
5.592123496876616541e-11
4.121266414168472224e-11
3.088801631528681933e-11
2.357384743717642122e-11
1.827231856520969729e-11
1.430135985744198229e-11
1.123181923301425291e-11
8.788690177992279302e-12
6.805464765002414301e-12
5.185013800536183592e-12
3.868761987329722066e-12
2.816874190398167313e-12
