# bin_8_11
7.997205980468995417e-08
8.751040245377813836e-08
9.348302032028737437e-08
9.685574723839124161e-08
9.677674000618775118e-08
9.194892041776042086e-08
8.249863316493725508e-08
6.997776022253185659e-08
5.729940729331481387e-08
4.766218128462472423e-08
4.120450587972932073e-08
3.376093232571059683e-08
2.386525451910112800e-08
1.801024181157622868e-08
1.390616798475357523e-08
9.598334609133852505e-09
7.031900955518721963e-09
5.071224661028540223e-09
3.610288016075231293e-09
2.598446563707196689e-09
1.896962315333261666e-09
1.408916758869406201e-09
1.065199481296029233e-09
8.193778965545749624e-10
6.379173205492969985e-10
4.997026193210433588e-10
3.911419408678992128e-10
3.037808774990140420e-10
2.326744473922471315e-10
1.748659684094825903e-10
1.284439933609042739e-10
