# bin_10_12
4.218006499846965834e-08
4.666712386561628739e-08
5.053634813021129964e-08
5.326992977085754757e-08
5.428568355457853872e-08
5.306704935910002866e-08
4.903408886682429803e-08
4.284352024651887637e-08
3.552288934823381404e-08
2.909600059611337755e-08
2.476401203927447571e-08
2.126301044585945222e-08
1.616982710136097483e-08
1.127495862183247282e-08
9.136282154228455964e-09
6.278656315682600746e-09
4.723426542934162648e-09
3.250685214421886732e-09
2.317633343696394270e-09
1.655729147030679647e-09
1.189320733849532234e-09
8.644976483323401284e-10
6.379265848579462837e-10
4.800684866084184254e-10
3.674027789196313651e-10
2.846409028941475290e-10
2.219781978907675163e-10
1.729905175812180145e-10
1.337924724259801952e-10
1.020643753571513398e-10
7.642855047660173730e-11
