# bin_7_7
1.372282109195558987e-08
1.485869819843293014e-08
1.566537513924196817e-08
1.597189041642901513e-08
1.562862952020682448e-08
1.446164705891682656e-08
1.265439505048477719e-08
1.050442801384354591e-08
8.599895093883679869e-09
7.304381650934790676e-09
6.274877076511626294e-09
4.803283459914616028e-09
3.354885185445771911e-09
2.709609368626782162e-09
1.891557525629891903e-09
1.419941351892237251e-09
9.904661056454181288e-10
7.178563049053634256e-10
5.209875944507824882e-10
3.816399903945603383e-10
2.838967487631903146e-10
2.147134340211632925e-10
1.653357315392692517e-10
1.290212600219909466e-10
1.014043328458538916e-10
7.974041475886823184e-11
6.229108304361053597e-11
4.803094062507192964e-11
3.635854631260962071e-11
2.690359222963078380e-11
1.940080493359646230e-11
