# bin_2_5
3.044602279628275830e-07
3.052872175217071457e-07
2.920769933018107066e-07
2.642537095666769613e-07
2.263133821662445417e-07
1.862633712658148745e-07
1.541503346519533528e-07
1.320874431320062756e-07
1.096303254050948014e-07
8.037482364067024073e-08
5.921801598930559337e-08
4.648005480692137842e-08
3.283051040640221324e-08
2.460034735381372875e-08
1.790532670124658809e-08
1.323333331612228994e-08
9.930054450520454000e-09
7.581206978518389151e-09
5.895155584473513828e-09
4.654446136001031683e-09
3.713686578282296478e-09
2.971936321524960525e-09
2.367833604189375730e-09
1.865188019249288634e-09
1.443512494920907431e-09
1.091990627638437178e-09
8.045946095061742818e-10
5.765010842784545901e-10
4.019190060971596538e-10
2.732512863317416562e-10
1.817436538189757494e-10
