# bin_2_15
5.971050541385232218e-07
5.998363627265663746e-07
5.753410368406399809e-07
5.219087239034274673e-07
4.481160049423822039e-07
3.691970511890988814e-07
3.051348612068505124e-07
2.611871942131020120e-07
2.176814129711143416e-07
1.604625623108028035e-07
1.175712608627460218e-07
9.257133095516792106e-08
6.540399949959966383e-08
4.902403559761772071e-08
3.561635168889590169e-08
2.631564813853761105e-08
1.972314496957734979e-08
1.503591217157487288e-08
1.167572707108245945e-08
9.207608028669206110e-09
7.340955036423949404e-09
5.873083378937075716e-09
4.680189715177449492e-09
3.689056746246434163e-09
2.858026403340408425e-09
2.164992216808453009e-09
1.597687915430967105e-09
1.146622997856904116e-09
8.006209307414500410e-10
5.450598238508187824e-10
3.629452861563897688e-10
