# bin_15_14
1.380116387060804807e-09
1.551042370927354731e-09
1.712183474329067443e-09
1.848380508226641997e-09
1.940208592307688313e-09
1.967417888052215193e-09
1.908658623030043604e-09
1.748059979846763524e-09
1.513942432157817793e-09
1.248561880402864025e-09
1.025675603626093621e-09
8.795292126347426747e-10
7.487113059645899067e-10
5.538932097390759744e-10
3.908758783728159473e-10
3.180598589901553495e-10
2.112699986715055540e-10
1.604828412077338252e-10
1.101482484198284232e-10
7.634859130193399781e-11
5.361793284706069644e-11
3.767443854607645853e-11
2.669379253304052003e-11
1.915790558040439925e-11
1.402928638587050046e-11
1.047158213575658571e-11
7.951453332961421455e-12
6.117812806555038567e-12
4.737208347041381363e-12
3.664806885579132160e-12
2.812547521261211841e-12
