# bin_5_12
2.425516821124956880e-07
2.583596417780453034e-07
2.668268486281789720e-07
2.656096646911199164e-07
2.512435160419715555e-07
2.245372793104714834e-07
1.898278522746400471e-07
1.554156703711801748e-07
1.296332674638475463e-07
1.119016900233403954e-07
9.081667817648314784e-08
6.425402409153704591e-08
4.902982598948288201e-08
3.741980021140173124e-08
2.634230015168275416e-08
1.928475475367493917e-08
1.405705469782308130e-08
1.018455770391895460e-08
7.481826187641529182e-09
5.589561787950655268e-09
4.251993197360868782e-09
3.289842401025440735e-09
2.580458380102623563e-09
2.038289227625059081e-09
1.610297479235397932e-09
1.263531533031473089e-09
9.782199762116704477e-10
7.431195924174077824e-10
5.514846870377029080e-10
3.985818092769379355e-10
2.802817840887213596e-10
