# bin_6_6
1.640143438422254420e-08
1.758795608328932304e-08
1.831805424497078215e-08
1.841928836084682876e-08
1.766292493888362146e-08
1.599383948092379326e-08
1.369510945737331149e-08
1.124410045712264155e-08
9.288768246812998241e-09
7.999077272167196338e-09
6.682566969420719584e-09
4.832891047266906924e-09
3.537688958091980874e-09
2.818235807096253316e-09
1.923301961311466542e-09
1.451675886104243381e-09
1.040219503309978522e-09
7.481712469686412363e-10
5.470108848005013749e-10
4.053389743561194082e-10
3.057418694785297572e-10
2.346026820557740294e-10
1.828837769997999988e-10
1.439320343431169597e-10
1.136017670232803323e-10
8.929921267466379940e-11
6.943014500537485090e-11
5.308272172770120919e-11
3.971493691240890576e-11
2.897008342902938745e-11
2.056620001826123033e-11
