# bin_8_20
-2.883235427935444720e-41
-3.245682518863481986e-41
-3.590054501921374225e-41
-3.885232804204992611e-41
-4.090953737576371667e-41
-4.162620901434170713e-41
-4.059568637628903636e-41
-3.739248666217002084e-41
-3.257071991471930113e-41
-2.694304461799696782e-41
-2.208670706170853024e-41
-1.886426062672299851e-41
-1.616938784649274077e-41
-1.215458186960451438e-41
-8.476451645090993448e-42
-6.908461945134769217e-42
-4.633112368052338500e-42
-3.509699539373423060e-42
-2.384570893827116904e-42
-1.658001913787070802e-42
-1.163025820656766253e-42
-8.157654094513053497e-43
-5.752067936880776232e-43
-4.103340767394823346e-43
-2.984727706516150755e-43
-2.213675262443834975e-43
-1.671763304674590803e-43
-1.281280502227230865e-43
-9.902470839994628908e-44
-7.661726388711468811e-44
-5.891362262693017718e-44
