# bin_18_7
-9.264918548599880642e-10
-1.006207626038837985e-09
-1.064850586396172430e-09
-1.090575127461693710e-09
-1.073798932183530939e-09
-1.001144302157409713e-09
-8.823535977469835239e-10
-7.365495879105529796e-10
-6.025212042052437251e-10
-5.086682518876106716e-10
-4.386208443982314000e-10
-3.428153886428196949e-10
-2.388745252378015720e-10
-1.900714786073392277e-10
-1.365134734656648515e-10
-1.001077368986010432e-10
-7.028752698618104090e-11
-5.116068843356111262e-11
-3.691775604611995641e-11
-2.687731202249849300e-11
-1.988557399425355320e-11
-1.496207546706275553e-11
-1.146240572434896381e-11
-8.909792070507435207e-12
-6.985735111725615649e-12
-5.488937421351123719e-12
-4.291434479974212425e-12
-3.316586858789958348e-12
-2.519520003399868375e-12
-1.872949775405740050e-12
-1.357910899631037594e-12
