# bin_13_20
-3.284479578524496352e-21
-3.712580704117066445e-21
-4.126727021650588587e-21
-4.493102352094768848e-21
-4.766732404285758422e-21
-4.893046105244545685e-21
-4.831414727064034558e-21
-4.516439797782686418e-21
-3.989779626527819738e-21
-3.333994058807945617e-21
-2.726085846628331017e-21
-2.300726045529135585e-21
-1.991011853586834961e-21
-1.561037233638345728e-21
-1.076544815210848299e-21
-8.577722819858209656e-22
-6.103551594318529962e-22
-4.425628887341286127e-22
-2.995740073853303052e-22
-2.135897759477350288e-22
-1.480366263531186826e-22
-1.023736429046503180e-22
-7.136214995946775352e-23
-5.019194318878463705e-23
-3.589774514474692980e-23
-2.617915401729381747e-23
-1.946738105153922083e-23
-1.474236184672044961e-23
-1.131163756297799423e-23
-8.735152408761065986e-24
-6.737765939797694919e-24
