# bin_4_20
-1.466908520934993488e-69
-1.646931725622547639e-69
-1.815859628805860702e-69
-1.957427070889813943e-69
-2.050894583433387253e-69
-2.075344654991837837e-69
-2.007177913302158129e-69
-1.832169704865446795e-69
-1.581467083639060456e-69
-1.302072831933200745e-69
-1.071211222361617059e-69
-9.206408198319410795e-70
-7.801409493658871068e-70
-5.717207203783265774e-70
-4.068742540762046148e-70
-3.300520843951088113e-70
-2.185787518220250687e-70
-1.658986503881050535e-70
-1.145633963042940437e-70
-7.935567140305710124e-71
-5.572708372107135868e-71
-3.917493453120139177e-71
-2.782142368506180598e-71
-2.003538318815461017e-71
-1.472030499408810982e-71
-1.102190079787759662e-71
-8.391784383563437313e-72
-6.468170810373499224e-72
-5.012374775455575680e-72
-3.876695336244236506e-72
-2.971691172939725971e-72
