# bin_3_3
-1.499614557593722086e-10
-1.529483371604600774e-10
-1.498206979270466072e-10
-1.389720515829776516e-10
-1.219220686551558500e-10
-1.015345521053162492e-10
-8.316589227735333860e-11
-7.034949985908350476e-11
-6.031477518343635453e-11
-4.673367208185360245e-11
-3.297053277120051232e-11
-2.621642918815286516e-11
-1.890112780995367656e-11
-1.401165327815972881e-11
-1.007013464989191145e-11
-7.444728721034206141e-12
-5.521806312805556971e-12
-4.157633352799578890e-12
-3.190062991049583417e-12
-2.489984651962700590e-12
-1.970920240457071314e-12
-1.571842428470330723e-12
-1.253705214610238696e-12
-9.928912673256058383e-13
-7.755334808472732233e-13
-5.939445576093330994e-13
-4.439311102583848613e-13
-3.229039784035575562e-13
-2.283637259676412503e-13
-1.572487177627822582e-13
-1.057158513592767648e-13
