# bin_10_16
-2.815355855997299621e-20
-3.153057121096222035e-20
-3.465991403499338074e-20
-3.722268618272017870e-20
-3.881602035126824838e-20
-3.906971066961360827e-20
-3.748913898025680068e-20
-3.394573171149185160e-20
-2.905942800014568284e-20
-2.384614918386907056e-20
-1.970853075629421526e-20
-1.701614872628183758e-20
-1.422336492740510412e-20
-1.020047906962900376e-20
-7.452990263052116685e-21
-5.930533512571309568e-21
-3.957026795870742143e-21
-2.959487344438425259e-21
-2.075686525944601926e-21
-1.442277948595117533e-21
-1.012351802622634728e-21
-7.140637325491899846e-22
-5.105662966964736434e-22
-3.708381217844710940e-22
-2.747892435676916630e-22
-2.073521230936346974e-22
-1.588656379395290895e-22
-1.229294589611030651e-22
-9.538493044619068129e-23
-7.367999761876213181e-23
-5.628584940054666347e-23
