# bin_20_4
-1.880776575291710554e-09
-1.973638566642919185e-09
-2.002313351943589598e-09
-1.946053917654076910e-09
-1.788508583877524039e-09
-1.554743279657979305e-09
-1.286830125377146207e-09
-1.056485562136645169e-09
-9.002729295999991934e-10
-7.661294865210593132e-10
-5.782540893282515511e-10
-4.110397647388813078e-10
-3.297068863581856101e-10
-2.309880834775402407e-10
-1.736711403070235603e-10
-1.236796529078410741e-10
-9.042227367217257175e-11
-6.665087357642041286e-11
-4.978921163612414761e-11
-3.785888893717963659e-11
-2.928021046800051475e-11
-2.298748783108483690e-11
-1.820627189574838941e-11
-1.444421921098342854e-11
-1.139857195354739504e-11
-8.886537720663452442e-12
-6.804165960505771514e-12
-5.091998144286718696e-12
-3.711953548520607851e-12
-2.632070214751553147e-12
-1.816626414932158644e-12
