# bin_11_11
-3.164035507970794922e-11
-3.508365006823000924e-11
-3.809635002916294652e-11
-4.029422060907420755e-11
-4.122384401669409778e-11
-4.052696392363840160e-11
-3.769384701081038351e-11
-3.314330527664385078e-11
-2.759816797784438995e-11
-2.257451609866337508e-11
-1.911552625877934453e-11
-1.649397473430273706e-11
-1.277398853052479518e-11
-8.848913483707506642e-12
-7.114448232603093636e-12
-4.998299151051734432e-12
-3.700509610063020629e-12
-2.538656158079339825e-12
-1.824602488782260754e-12
-1.297599800450911106e-12
-9.272210966195668775e-13
-6.707276526864436914e-13
-4.923571607262667898e-13
-3.684607437796410785e-13
-2.806545034298700720e-13
-2.166813259491180856e-13
-1.686656176086237099e-13
-1.314258435710737757e-13
-1.017928460105152064e-13
-7.786848220767732284e-14
-5.853434083723017559e-14
