# bin_17_8
-7.062542468707246918e-10
-7.726003595720840119e-10
-8.250419553493918876e-10
-8.544401497902533058e-10
-8.533007827167582969e-10
-8.101950463352675218e-10
-7.264324170452945865e-10
-6.158060769763713220e-10
-5.041791979635868631e-10
-4.195998791338006696e-10
-3.627794543551277863e-10
-2.967770018743135213e-10
-2.095752828198050747e-10
-1.585099168488165107e-10
-1.220795149811239367e-10
-8.443135176374449072e-11
-6.172811831296793578e-11
-4.455337303886058907e-11
-3.172950238554963960e-11
-2.284004650492184400e-11
-1.667960215669248788e-11
-1.239206997826274497e-11
-9.372536653008678487e-12
-7.211037222148787947e-12
-5.614978822318980508e-12
-4.398633446655292953e-12
-3.442734461339603293e-12
-2.673285110448627036e-12
-2.046947896469590598e-12
-1.537805368258598211e-12
-1.129069362404027450e-12
