# bin_15_10
-3.522207249795481384e-10
-3.896044089688051932e-10
-4.218005263187071970e-10
-4.444809206241092334e-10
-4.527949843489760516e-10
-4.424244716019496310e-10
-4.085833732499053265e-10
-3.568114311334733844e-10
-2.957575114361807503e-10
-2.422957796960602902e-10
-2.063001815508745989e-10
-1.770310833963108069e-10
-1.344311257219196482e-10
-9.382698754665536147e-11
-7.603138543800403755e-11
-5.219036952451878325e-11
-3.928241303986505454e-11
-2.705545831720540212e-11
-1.927810263190944563e-11
-1.377377501779223759e-11
-9.894925356620649283e-12
-7.193285686931776470e-12
-5.310044423606209947e-12
-3.996810280515912923e-12
-3.059265371956124692e-12
-2.370411660833506467e-12
-1.848591345780722416e-12
-1.440503663539729341e-12
-1.113910025040686402e-12
-8.495478820254915569e-13
-6.359738110580098694e-13
