# bin_9_5
-7.686503205383406265e-10
-8.176953633810394272e-10
-8.431490857923992053e-10
-8.376615535491702661e-10
-7.903168359148742487e-10
-7.045387488276818375e-10
-5.942476854885068308e-10
-4.863465582086906081e-10
-4.064521926189672596e-10
-3.508938445798287797e-10
-2.830835879850976658e-10
-1.996245851334801532e-10
-1.535014262407811828e-10
-1.161164373429564622e-10
-8.229848965304092438e-11
-5.990088860131054857e-11
-4.376955068659694397e-11
-3.175755633385428278e-11
-2.335359149485413295e-11
-1.747219550130453131e-11
-1.330989962944305995e-11
-1.031215359242205815e-11
-8.095840801512930730e-12
-6.398016120421315011e-12
-5.054689468606172395e-12
-3.964363198682960557e-12
-3.066488707546786609e-12
-2.326598509531612038e-12
-1.723960829266370336e-12
-1.243841666220955087e-12
-8.731355209847533213e-13
