# bin_12_10
-1.698078608735609512e-10
-1.877217216468761808e-10
-2.030892679107757859e-10
-2.138179728831367802e-10
-2.175924809849264161e-10
-2.122923910703849939e-10
-1.957149311088016494e-10
-1.706282119953462156e-10
-1.412740004959802636e-10
-1.157835760804972713e-10
-9.871497268031350746e-11
-8.459024670993493582e-11
-6.392021743959602455e-11
-4.470295654291555390e-11
-3.628890228789891744e-11
-2.477170201355385749e-11
-1.871813239804970411e-11
-1.290484182012367135e-11
-9.177194151701248763e-12
-6.564103594667852335e-12
-4.721588274109543395e-12
-3.436692215138609658e-12
-2.540483895989544375e-12
-1.914900448248501302e-12
-1.467460268979622231e-12
-1.138017207722073958e-12
-8.878913525939711905e-13
-6.918871604047991390e-13
-5.348093694364202200e-13
-4.075844587805673984e-13
-3.048099470933449455e-13
