# bin_13_5
-1.156047091455582917e-09
-1.230385549771273141e-09
-1.269426127928859022e-09
-1.262075768546520440e-09
-1.191885210150902218e-09
-1.063497541707080651e-09
-8.977885742628979285e-10
-7.348654134735566868e-10
-6.137044253914222015e-10
-5.298048487906137258e-10
-4.283695102744839416e-10
-3.024352344759217451e-10
-2.318986276372594375e-10
-1.760020943686960027e-10
-1.244221866686516585e-10
-9.075333810572293431e-11
-6.625341433603864428e-11
-4.804243745970314479e-11
-3.531318041784778468e-11
-2.640377143665630840e-11
-2.010178560921527387e-11
-1.556555988519921864e-11
-1.221517367730652129e-11
-9.651240239651256976e-12
-7.624560189352095847e-12
-5.980790830124139210e-12
-4.627692878669178204e-12
-3.512746856643623623e-12
-2.604390285449747768e-12
-1.880306164845672069e-12
-1.320796170491515079e-12
