# bin_19_7
-9.650629327569967021e-10
-1.048119318921386845e-09
-1.109233905456536312e-09
-1.136066253157732862e-09
-1.118637536857939324e-09
-1.043003123184462819e-09
-9.192908392245288833e-10
-7.674134225490269279e-10
-6.277663607089312275e-10
-5.299590930894999191e-10
-4.569897192703192019e-10
-3.572219301959399565e-10
-2.489120645015082048e-10
-1.980360479517218767e-10
-1.422617251222276346e-10
-1.043060041860326030e-10
-7.323989432434436901e-11
-5.331058630280875682e-11
-3.846765823172767184e-11
-2.800458115177390828e-11
-2.071885488400004445e-11
-1.558849840998709796e-11
-1.194189815542954243e-11
-9.282259807560244963e-12
-7.277648371364475034e-12
-5.718272042083310428e-12
-4.470760959468370510e-12
-3.455230484001421312e-12
-2.624906602937268702e-12
-1.951352337839236439e-12
-1.414805065587700521e-12
