# bin_11_6
-7.169508295696315411e-10
-7.714562431329927291e-10
-8.069919525115600391e-10
-8.154841901135938311e-10
-7.877396203948564997e-10
-7.187591256740594906e-10
-6.202602457183466416e-10
-5.110267114118859133e-10
-4.205605608277427398e-10
-3.605728025163403851e-10
-3.047103914225795364e-10
-2.247839255946789435e-10
-1.612737061389030728e-10
-1.298030601747224035e-10
-8.872114766769004592e-11
-6.724126544899258177e-11
-4.761995486295192056e-11
-3.427292407881800445e-11
-2.500501109167647421e-11
-1.845445589672492555e-11
-1.384725043840900913e-11
-1.056940210002376466e-11
-8.202734729174826623e-12
-6.436301060495921672e-12
-5.072835536769370782e-12
-3.988565106437349179e-12
-3.106672611563563715e-12
-2.382713021164338641e-12
-1.790380051431715263e-12
-1.312850077545016689e-12
-9.373360970880466586e-13
