# bin_19_20
-4.055121634729765997e-12
-4.603076683172157025e-12
-5.143439950332217741e-12
-5.636173532726546094e-12
-6.027514273718578158e-12
-6.249930601731729017e-12
-6.248915306682908599e-12
-5.937721789578393565e-12
-5.325843291963772065e-12
-4.514257478045264162e-12
-3.695301650550044774e-12
-3.077383879669711404e-12
-2.666520604890335578e-12
-2.182303629434423754e-12
-1.528862059445140198e-12
-1.156292176197549477e-12
-8.847009270459231881e-13
-6.014803738898531301e-13
-4.304376831135309439e-13
-3.042317692173594880e-13
-2.083458030958295307e-13
-1.423178075835914880e-13
-9.774162649122760411e-14
-6.768676987726851628e-14
-4.744452108897951955e-14
-3.386863500004414285e-14
-2.465659910167279781e-14
-1.832636682008500471e-14
-1.386951917925389689e-14
-1.063119627943298921e-14
-8.194304569213793432e-15
