# bin_20_10
-5.519238027357717295e-10
-6.106264673232398996e-10
-6.612515163296933451e-10
-6.970234773254077845e-10
-7.103157431511105571e-10
-6.944044754239455534e-10
-6.416731598721462415e-10
-5.606914237585252474e-10
-4.649316429988615046e-10
-3.808379719042410154e-10
-3.241104284290821010e-10
-2.782600907873339436e-10
-2.116573213215875502e-10
-1.476288292555397444e-10
-1.195531591924643376e-10
-8.222326850996470680e-11
-6.180305531873812111e-11
-4.255322302650250859e-11
-3.034110722412295324e-11
-2.166980026939039367e-11
-1.556046975995158750e-11
-1.130712035406367924e-11
-8.342850115688195412e-12
-6.276497984143597346e-12
-4.802219026537151541e-12
-3.719785694448145671e-12
-2.900462556259752495e-12
-2.260161165326607620e-12
-1.747970901131711908e-12
-1.333466141209042287e-12
-9.985851843533764123e-13
