# bin_7_9
-4.247110294931402769e-13
-4.641661417395432016e-13
-4.950804463642998836e-13
-5.119264832097188146e-13
-5.103315363600682608e-13
-4.832956507368129316e-13
-4.322274453699455898e-13
-3.654216125551639135e-13
-2.989472345155065754e-13
-2.492582769910253035e-13
-2.157104324157258294e-13
-1.755168089454970887e-13
-1.231828197274234989e-13
-9.406287093217847194e-14
-7.179927547717314403e-14
-4.996997460588506533e-14
-3.623369357477136823e-14
-2.629921904710313471e-14
-1.875859073717411885e-14
-1.350719328547218718e-14
-9.881970844540694185e-15
-7.356712716139988306e-15
-5.576036304114333691e-15
-4.297832787086422075e-15
-3.351030777729384778e-15
-2.627128444027355052e-15
-2.056478133526932600e-15
-1.596123171709596685e-15
-1.220960096867889115e-15
-9.159651849273416224e-16
-6.712969636053921686e-16
