# bin_3_17
-2.994901505211616241e-63
-3.336113789387217813e-63
-3.643076086415722611e-63
-3.880389552287670444e-63
-4.004044550682870428e-63
-3.980883754935370091e-63
-3.754993111493790249e-63
-3.345331188910458337e-63
-2.816995832694815653e-63
-2.303347179439357074e-63
-1.928099830613665099e-63
-1.670356486562207608e-63
-1.344560780601307539e-63
-9.343659957106713580e-64
-7.241237882160327038e-64
-5.405987852723328634e-64
-3.792483694740491092e-64
-2.674288061095260918e-64
-1.934425114378833295e-64
-1.359568230775768041e-64
-9.584097399839640057e-65
-6.856380779200983777e-65
-4.976864594098360941e-65
-3.678030974840744018e-65
-2.770487225559176472e-65
-2.120258529766861500e-65
-1.641413011375689881e-65
-1.276926355155613755e-65
-9.910006578965971092e-66
-7.620166588784633479e-66
-5.772384947438705805e-66
