# bin_2_7
-6.345641294778384068e-22
-6.722030943076810133e-22
-6.894219075604439866e-22
-6.804048051058028562e-22
-6.362506764319351173e-22
-5.623891276992510769e-22
-4.704620079435183934e-22
-3.845804276244522054e-22
-3.236715950060793295e-22
-2.795264910697122131e-22
-2.206291878101613493e-22
-1.537802173783636702e-22
-1.217572334920925067e-22
-8.894895169558173667e-23
-6.490861531094098349e-23
-4.607870112377573450e-23
-3.397972059759416485e-23
-2.481211002589062907e-23
-1.833386249117686824e-23
-1.380073570558841320e-23
-1.057226004203067367e-23
-8.234438139453083479e-24
-6.489297250852732436e-24
-5.139272654332838359e-24
-4.061649712603606690e-24
-3.181011334822448408e-24
-2.453204627694055999e-24
-1.853119334156653750e-24
-1.365543385769569081e-24
-9.791006677880024877e-25
-6.829077850303333196e-25
