# bin_2_5
-1.359431077243502160e-15
-1.413116933025268688e-15
-1.418137159695693281e-15
-1.356781436364936509e-15
-1.226095336271150540e-15
-1.047967988826609551e-15
-8.600819803716962737e-16
-7.112929634725148496e-16
-6.123448306804912614e-16
-5.095961561168857762e-16
-3.682940096025063342e-16
-2.714361149431295760e-16
-2.152108494452128807e-16
-1.485424771596147693e-16
-1.120635970746013174e-16
-8.118720505123485597e-17
-5.916749597100264186e-17
-4.389574391086595600e-17
-3.309797698707133502e-17
-2.541950817621036735e-17
-1.984489380183034260e-17
-1.569215806316735836e-17
-1.247950920868890692e-17
-9.909673876290856832e-18
-7.802276209425506449e-18
-6.050960701337197512e-18
-4.596994339907537008e-18
-3.406596979453447462e-18
-2.455876731434244446e-18
-1.721936257214323341e-18
-1.176068928214019662e-18
