# bin_13_7
-6.622300764648989390e-10
-7.190583128355489963e-10
-7.607674355209101659e-10
-7.789020667443436540e-10
-7.665964828748170581e-10
-7.143572237779132783e-10
-6.292857048669810869e-10
-5.250923884381648099e-10
-4.295592195890798874e-10
-3.627984440408102838e-10
-3.127702859317558609e-10
-2.441119380475112559e-10
-1.701043934987776911e-10
-1.355038738974946130e-10
-9.713051140776210402e-11
-7.134417406482040767e-11
-5.005999062691694239e-11
-3.643110622876949284e-11
-2.629892067548212389e-11
-1.915405996779937829e-11
-1.417652178486495202e-11
-1.067026785003377052e-11
-8.177262225218425671e-12
-6.357906198271582830e-12
-4.985751630113908796e-12
-3.917698576473512142e-12
-3.062816097791004319e-12
-2.366698658594950241e-12
-1.797485452413031095e-12
-1.335790787026302134e-12
-9.681122523888433738e-13
