# bin_7_4
-8.031298560087585154e-10
-8.417433437640695788e-10
-8.527524289464984769e-10
-8.271052692479659258e-10
-7.584250391783599123e-10
-6.578268966490513612e-10
-5.437555142517562709e-10
-4.467465392292433170e-10
-3.812723192059375929e-10
-3.236977780840862964e-10
-2.428803636145426451e-10
-1.732357190420404254e-10
-1.390281392746285407e-10
-9.699401466388027977e-11
-7.311927451143665718e-11
-5.212075817625072849e-11
-3.807999448408838540e-11
-2.810005771518675454e-11
-2.101946949832220268e-11
-1.600452186239131502e-11
-1.239370269268051497e-11
-9.740069414578048326e-12
-7.718990167929600719e-12
-6.125145789357997501e-12
-4.832474655555165426e-12
-3.765075245933687578e-12
-2.879961288994192437e-12
-2.152526249609775702e-12
-1.566853299013492426e-12
-1.109356349862292345e-12
-7.645786517336671540e-13
