# bin_6_19
-1.788704011789978798e-49
-2.006665234375943225e-49
-2.210408084655530943e-49
-2.379961005046735580e-49
-2.489944259568934748e-49
-2.515484506742219434e-49
-2.426855003991631005e-49
-2.209565173707884521e-49
-1.902224083490908182e-49
-1.564344204786502455e-49
-1.288700167385325437e-49
-1.109339191430560475e-49
-9.362720489107951606e-50
-6.812493290238022184e-50
-4.886350581437055643e-50
-3.945038686675550855e-50
-2.614225132627853476e-50
-1.978091010374737637e-50
-1.372592489427844199e-50
-9.513357363899760188e-51
-6.679651077620078244e-51
-4.698981281791227307e-51
-3.344115335562821169e-51
-2.414773261755080721e-51
-1.779042086387247728e-51
-1.335445145648868609e-51
-1.018898399777917089e-51
-7.864036599040755927e-52
-6.097220111256356441e-52
-4.714269819684859667e-52
-3.610023674722269686e-52
