# bin_3_13
-8.399091802154892550e-43
-9.233456112892487657e-43
-9.920651766805418010e-43
-1.035438395620667584e-42
-1.043441034390243067e-42
-1.003303218426772550e-42
-9.105190585338524540e-43
-7.813347333837865364e-43
-6.417048479571874550e-43
-5.293705564789552656e-43
-4.561166935208301110e-43
-3.829451705472254018e-43
-2.770777389531869469e-43
-2.009955063748916448e-43
-1.613584155469160250e-43
-1.082763717008978205e-43
-8.197948797989967921e-44
-5.794213636629660511e-44
-4.096073076877944465e-44
-2.940621880429614578e-44
-2.129699319381148827e-44
-1.567700390360173241e-44
-1.174090926762174950e-44
-8.958221977264662745e-45
-6.932769751145892997e-45
-5.412300195571671263e-45
-4.234431953537483927e-45
-3.295979747860333996e-45
-2.536064119203472884e-45
-1.918418140512365863e-45
-1.420608531463740244e-45
