# bin_3_6
-2.167212005946058796e-15
-2.290483527488902159e-15
-2.342823129985415050e-15
-2.303580954027951864e-15
-2.144542981165574519e-15
-1.887670729145892835e-15
-1.574179672212686536e-15
-1.287571521737354380e-15
-1.087464063992169631e-15
-9.368975224481374751e-16
-7.308470328962657132e-16
-5.104656604507092513e-16
-4.072416994573922090e-16
-2.929493207604600703e-16
-2.164092296136620432e-16
-1.533347818368338697e-16
-1.127227601877583436e-16
-8.257034140143303419e-17
-6.121300219677451639e-17
-4.619977519820890252e-17
-3.547923492689986042e-17
-2.769364089662120388e-17
-2.185564138379853303e-17
-1.731941948301704439e-17
-1.368473341330046166e-17
-1.070660359668527962e-17
-8.242743919479428350e-18
-6.212105091790812737e-18
-4.565152349897253582e-18
-3.263846885177081012e-18
-2.270191035549228051e-18
