# bin_3_11
4.067411068978491435e-07
4.185590924721788860e-07
4.148299617824856290e-07
3.904910985651547395e-07
3.474497717354848168e-07
2.927826919650660614e-07
2.397475757317688666e-07
2.004974925999523347e-07
1.725838371096960306e-07
1.386743337283029942e-07
9.847648424518829452e-08
7.568400748446274762e-08
5.719084943036224079e-08
4.089820139845289567e-08
3.000717129641159982e-08
2.203376156106975768e-08
1.619953915046773488e-08
1.210281534077733399e-08
9.207983254677588163e-09
7.132756033327780260e-09
5.610263092976228035e-09
4.457432648868525695e-09
3.551317355802755623e-09
2.816798842830395578e-09
2.209008725890726708e-09
1.702235592999528445e-09
1.282395243789448523e-09
9.411914793275808578e-10
6.717710500921019819e-10
4.665860947293224272e-10
3.160529546531126496e-10
