# bin_19_4
3.239644909969230674e-62
3.629039339839746227e-62
3.990306749943221799e-62
4.286834763858412499e-62
4.472346971279488983e-62
4.503854032187555545e-62
4.324959253531893052e-62
3.918913139083519286e-62
3.357058395587178445e-62
2.754745827325317543e-62
2.274692066066337080e-62
1.962868890572785787e-62
1.643687629580798523e-62
1.181357123652043465e-62
8.599254930448203257e-63
6.864273352457756321e-63
4.570343244515421122e-63
3.427396134152781601e-63
2.398978805158422045e-63
1.665973094444830314e-63
1.169516779739209255e-63
8.245004984750221727e-64
5.891255227567338695e-64
4.275286981577162353e-64
3.165364880876288151e-64
2.386792471542475684e-64
1.827606464924565581e-64
1.413697889970115235e-64
1.096820385357284146e-64
8.473516969582110525e-65
6.475261655224848067e-65
