# bin_12_15
4.768409900724370052e-08
5.316975996045380706e-08
5.813348860503981500e-08
6.201630906399517896e-08
6.412134599691903017e-08
6.390232987296286351e-08
6.047560059248382015e-08
5.404199801954494228e-08
4.564489559728559283e-08
3.733075506278482487e-08
3.115380895432924501e-08
2.697807731957276247e-08
2.189784642183857331e-08
1.530313072335737863e-08
1.170852054001079588e-08
8.868489068881366891e-09
6.144549180869652523e-09
4.393255872368029695e-09
3.157042269831435964e-09
2.213134859660290081e-09
1.558132159510659576e-09
1.111140858078220440e-09
8.040761535354945235e-10
5.921775987077068715e-10
4.446303838871433116e-10
3.393561660032661502e-10
2.622030632238248380e-10
2.037818188462562463e-10
1.581535468076444511e-10
1.217205715491484009e-10
9.235612047584806888e-11
