# bin_4_7
1.824298328839397865e-07
1.911803263566394240e-07
1.936557379319550901e-07
1.878029057500108590e-07
1.721731578109624492e-07
1.492969005492602861e-07
1.233668263980231374e-07
1.013235884008595092e-07
8.645926352584872887e-08
7.340792804582271707e-08
5.507823317846370439e-08
3.926674922963743429e-08
3.151554713023032994e-08
2.198625859762583168e-08
1.657402189711758865e-08
1.181351154305463729e-08
8.632518124874415069e-09
6.370852504485298103e-09
4.766243589531636627e-09
3.629690683530773951e-09
2.811203209356603204e-09
2.209546007379140987e-09
1.751179178004651778e-09
1.389607015739415262e-09
1.096295489848374070e-09
8.540708805903477602e-10
6.532080089346764547e-10
4.881395577551325641e-10
3.552602893415590842e-10
2.514837990913284648e-10
1.732954653439134692e-10
