# bin_20_5
8.055955745650091698e-59
9.048974297738115639e-59
9.983014019705239652e-59
1.076919872624118330e-58
1.129394013713310997e-58
1.144033066440153221e-58
1.108227935313381270e-58
1.013257822345559836e-58
8.760203327426604172e-59
7.216429250239189700e-59
5.929689672444165726e-59
5.089312624309961247e-59
4.324708733540036776e-59
3.185569222789857043e-59
2.254075265039677275e-59
1.833524228563295963e-59
1.214600888085232164e-59
9.231737349116301021e-60
6.351625412320858693e-60
4.399394250216987988e-60
3.089605739219903983e-60
2.171193947675214607e-60
1.539764841883615744e-60
1.106761341697336103e-60
8.115936640159009086e-61
6.065980365846560537e-61
4.611525952975593400e-61
3.550845304568960853e-61
2.750428523161029827e-61
2.127516640690759151e-61
1.631870297233530951e-61
