# bin_16_20
4.068578857545090725e-08
4.589976591900906432e-08
5.090158857504815572e-08
5.526312557516254249e-08
5.842208155717028013e-08
5.972031062586710688e-08
5.863064258932995171e-08
5.442875744253212755e-08
4.776636159244031217e-08
3.970912892596851955e-08
3.248651694486375338e-08
2.756436611907532136e-08
2.377046719288165469e-08
1.828298642359861713e-08
1.264381995156461571e-08
1.020075925031631222e-08
7.051569429940112563e-09
5.231045820405324327e-09
3.531777255117080232e-09
2.489724242611901602e-09
1.735951360977627443e-09
1.209504856242060315e-09
8.476190708996410225e-10
6.000271289576140618e-10
4.325624163954316262e-10
3.180019540989487577e-10
2.382504441744595796e-10
1.815008086996952728e-10
1.397833539848535394e-10
1.080730958912485213e-10
8.325558846575005825e-11
