# bin_5_5
2.058378931725763279e-08
2.178321038903125898e-08
2.231690991395142341e-08
2.199032429864008151e-08
2.052807412119633351e-08
1.811472626701394384e-08
1.513777459476698139e-08
1.237702441569268337e-08
1.042591710125541555e-08
8.989263841743168349e-09
7.067521789099815657e-09
4.939695657464277330e-09
3.909996065537644328e-09
2.846826865412577191e-09
2.081567369188983684e-09
1.482390475873127427e-09
1.090024769374650708e-09
7.966888787021486982e-10
5.894512370470465960e-10
4.441073913222458673e-10
3.405262043593019954e-10
2.654246247372708684e-10
2.092684233617291765e-10
1.657540741188161027e-10
1.309716186927510238e-10
1.025225334868356053e-10
7.900525547854665558e-11
5.962219638731000057e-11
4.388755870598361706e-11
3.143396128448733654e-11
2.190349767013397473e-11
