# bin_16_3
1.216689509466109961e-55
1.351285358610987336e-55
1.470251455212565442e-55
1.558941023810293575e-55
1.599610057984824406e-55
1.578981686503934037e-55
1.475826359709142573e-55
1.303550653742816508e-55
1.089150742463468841e-55
8.900595302991695773e-56
7.503723466612441585e-56
6.490753805502100068e-56
5.099431866522710052e-56
3.523912101898572270e-56
2.804181803282756128e-56
2.012568563497736309e-56
1.463496839386015695e-56
1.007209902445093344e-56
7.286549826040037950e-57
5.159162627461584676e-57
3.667242388606268749e-57
2.643049056244748092e-57
1.932466099921416385e-57
1.439935089789009939e-57
1.092663117968512611e-57
8.411583756252703045e-58
6.536482529530484269e-58
5.091401122354134976e-58
3.946817006896627042e-58
3.024980397930014423e-58
2.280182546695946875e-58
