# bin_17_2
3.179719081249797696e-70
3.539137518598850105e-70
3.860982282219339366e-70
4.107480588956331254e-70
4.231911909394298216e-70
4.199493273655823298e-70
3.951487542552810198e-70
3.512070141149141420e-70
2.950652601212740236e-70
2.411387226773528928e-70
2.021748957865731661e-70
1.751163922628974964e-70
1.401354312075284498e-70
9.713741806729506526e-71
7.581300155551822369e-71
5.605822708054005214e-71
3.966382343694457698e-71
2.776390959323947356e-71
2.011133066243709421e-71
1.415945459847288665e-71
9.998737492601208235e-72
7.167218390669423984e-72
5.212268199642927234e-72
3.860266052904244427e-72
2.913425862357522641e-72
2.233162802963237603e-72
1.730592957669283068e-72
1.346789061528896838e-72
1.044921673215644038e-72
8.027905792078674496e-73
6.073288925235075532e-73
