# bin_6_20
2.894124065330139462e-07
3.115163017768513988e-07
3.260027963629442596e-07
3.295889492221257888e-07
3.186063438961097065e-07
2.909182401988888237e-07
2.512199634093297508e-07
2.070029791455331717e-07
1.702305985601787629e-07
1.458432275237149860e-07
1.234145143110014420e-07
9.125956108213095521e-08
6.530162845455273877e-08
5.260935987793053542e-08
3.598034356964336381e-08
2.727065228894676911e-08
1.928676246878053739e-08
1.388681181532671718e-08
1.012967808038173790e-08
7.473419202118750120e-09
5.605227391167753457e-09
4.276387767024372168e-09
3.317534575922162484e-09
2.602408803654230769e-09
2.050829460693864030e-09
1.612490236650863486e-09
1.256136786131356447e-09
9.636649476357551501e-10
7.243643925364169811e-10
5.313998610096305396e-10
3.795909734418509745e-10
