# bin_3_8
3.220652828656468764e-07
3.312834095056272294e-07
3.281562380823391797e-07
3.086893613563239488e-07
2.744811375582053020e-07
2.311570987915029707e-07
1.892729231349699774e-07
1.583657199932715344e-07
1.363097634038585279e-07
1.093550499720100327e-07
7.760535935155167203e-08
5.974746527830946154e-08
4.505511079353971713e-08
3.226779981997939017e-08
2.365014362160340273e-08
1.737477106193630132e-08
1.277884372827604555e-08
9.550314813161056235e-09
7.268875159170806211e-09
5.632752706359886134e-09
4.431838492539437413e-09
3.521854951889904750e-09
2.806125252567334367e-09
2.225611805684130692e-09
1.745077714808855302e-09
1.344359066404864496e-09
1.012414665617578029e-09
7.427309381766076513e-10
5.298888155313609855e-10
3.678873880601352810e-10
2.491059824720672713e-10
