# bin_9_11
5.063733603764360660e-08
5.568234390006153299e-08
5.984663568279955124e-08
6.249023861272437942e-08
6.300316104163382677e-08
6.063081507176004831e-08
5.507761249545436707e-08
4.730880822145740131e-08
3.887168526669085241e-08
3.204531763292378891e-08
2.757730421124203674e-08
2.318256837370084585e-08
1.684214367629636267e-08
1.217722927982887395e-08
9.774137870537110025e-09
6.577350552343027143e-09
4.972882237828291840e-09
3.506289100326751665e-09
2.480546184705663852e-09
1.780881862086750007e-09
1.289859371450355962e-09
9.488164959721781739e-10
7.099461160915566107e-10
5.412226457281984371e-10
4.185567803878513174e-10
3.265899728493774518e-10
2.554424562266188158e-10
1.988229708695716158e-10
1.530114558955146394e-10
1.157904432549720766e-10
8.579179368965413545e-11
