# bin_2_3
1.393854405809426903e-07
1.390457141015991747e-07
1.320981588943715145e-07
1.186442165511621314e-07
1.008912459400331169e-07
8.280129514851789620e-08
6.877590920451392865e-08
5.907297976885440578e-08
4.844547224759858270e-08
3.501354366088450176e-08
2.621116706638962768e-08
2.035424948848098382e-08
1.440046050467738488e-08
1.075950777020298763e-08
7.876982152755385035e-09
5.827586388936657649e-09
4.386590316195870422e-09
3.361962047066747725e-09
2.623826790846149928e-09
2.078006942639684253e-09
1.661096886871515846e-09
1.330079676695531164e-09
1.058969406888322283e-09
8.325738754266288907e-10
6.424339373501417950e-10
4.841344275656037844e-10
3.551737946742134421e-10
2.533463907845166589e-10
1.758792263976958209e-10
1.191260816440010905e-10
7.898211540350460399e-11
