# bin_11_10
1.612327778958090528e-09
1.785240918910575106e-09
1.935153410027902429e-09
2.042353994524048750e-09
2.084134413565757574e-09
2.041642127114529915e-09
1.890815858039222595e-09
1.655700149692647009e-09
1.374280594017561513e-09
1.124429520710139463e-09
9.550932394645600091e-10
8.221734207869075662e-10
6.294229912196778811e-10
4.369355325399717406e-10
3.537426561466121216e-10
2.445570184071735601e-10
1.833562003359491995e-10
1.256874680735860324e-10
8.985434758500858666e-11
6.411346742648975185e-11
4.599092629636411074e-11
3.336788348510999266e-11
2.457444117727835380e-11
1.845448230240416900e-11
1.409859513500965053e-11
1.090909473773640627e-11
8.501945505471975816e-12
6.625535252444141140e-12
5.127062269194576524e-12
3.915185122168264721e-12
2.935895000900995963e-12
