# bin_20_11
4.836594211572611423e-25
5.457586345779968926e-25
6.053830301482766812e-25
6.574563829033499753e-25
6.952995146121674201e-25
7.110372840568076114e-25
6.984922540360418407e-25
6.488635809048510416e-25
5.698106279252854954e-25
4.738366974773406746e-25
3.875544516319390377e-25
3.286836710890101615e-25
2.836812958196167376e-25
2.185542450344163368e-25
1.509329426490517397e-25
1.218070414533115623e-25
8.430906117266299888e-26
6.254436355173569825e-26
4.211895144465762106e-26
2.972808377412080662e-26
2.072258798852862779e-26
1.443699789814741431e-26
1.011300437115938989e-26
7.154397885055013618e-27
5.154147441373760415e-27
3.786633151026763317e-27
2.835372487620983657e-27
2.159173372165908401e-27
1.662626845900255988e-27
1.285551877125931567e-27
9.906215055409267810e-28
