# bin_7_11
1.214272966632175674e-07
1.318069068687134042e-07
1.393999482284006748e-07
1.426583704474888542e-07
1.403223524859477886e-07
1.306643746821911686e-07
1.150157660579890540e-07
9.590179584795386223e-08
7.842954932334729698e-08
6.625386984856076323e-08
5.710621735220221710e-08
4.450661657985358238e-08
3.100134814980940280e-08
2.472131389346222842e-08
1.768693974631291982e-08
1.300994656235871763e-08
9.122442550910103992e-09
6.638341043217527579e-09
4.794155817949413790e-09
3.493351155292088242e-09
2.586791690329331827e-09
1.947927651080934384e-09
1.493491156469107153e-09
1.161608077085876628e-09
9.110986767782204362e-10
7.159554378740204366e-10
5.596645067207675098e-10
4.323555974189688462e-10
3.282486306097281434e-10
2.438216280875316068e-10
1.766138004800053301e-10
