# bin_15_19
4.444236976170281210e-08
5.001534276181317222e-08
5.530374564984970385e-08
5.982693705705573573e-08
6.296372310743359087e-08
6.403258133734097326e-08
6.239826421144219302e-08
5.742861800978573352e-08
4.997926134752125419e-08
4.132245643075457941e-08
3.387593574953080026e-08
2.893685949182557572e-08
2.477593253822629214e-08
1.859614755450865689e-08
1.299149050597468372e-08
1.056958769341394225e-08
7.098213845751743914e-09
5.365880510932160255e-09
3.650987347337378407e-09
2.541894694752843112e-09
1.781975478692095526e-09
1.249426175790142274e-09
8.814734122811992603e-10
6.293091294842262353e-10
4.581118788580993252e-10
3.400196412924683417e-10
2.569390596666792942e-10
1.969999471289406489e-10
1.522704714832012789e-10
1.177969807556053054e-10
9.054439219659641081e-11
