# bin_11_14
5.379133000800592483e-08
5.974760297200278431e-08
6.501552710433902333e-08
6.894835684817598914e-08
7.076503093749330159e-08
6.986948457284255616e-08
6.533280560826813776e-08
5.773036768870001258e-08
4.826351248653044869e-08
3.945099999868500156e-08
3.324624053973312867e-08
2.874479794547513470e-08
2.261138281907848346e-08
1.565635116672276631e-08
1.241808914377079088e-08
8.938204542668605805e-09
6.478398359140449761e-09
4.481099321915492668e-09
3.234637541748537920e-09
2.289321893487745069e-09
1.626753438746390424e-09
1.171740494428408851e-09
8.563519498088719022e-10
6.377543413030840816e-10
4.837067786361333407e-10
3.722085670226249470e-10
2.891383492455556924e-10
2.251695099212875070e-10
1.745379536204813348e-10
1.337809962135264215e-10
1.008599818021554489e-10
