# bin_10_1
3.675261443194655767e-40
3.962381726790104760e-40
4.155115976802488032e-40
4.210371351853166801e-40
4.083364860001925267e-40
3.740002112022482683e-40
3.239747626782885206e-40
2.671781665327646092e-40
2.192495704639075914e-40
1.876040879422344178e-40
1.597293743090805068e-40
1.188901962157876761e-40
8.413810438798578394e-41
6.846972212190484938e-41
4.648893149245059487e-41
3.554634208652648407e-41
2.498099019012972738e-41
1.794684035483758016e-41
1.309522795763722177e-41
9.652695638668260692e-42
7.226410885077586833e-42
5.502580788078935582e-42
4.262584788281347245e-42
3.340727741822810021e-42
2.631914286502403067e-42
2.070118888362056290e-42
1.614142461401846016e-42
1.240090910843877807e-42
9.338477509039571171e-43
6.865108372237047971e-43
4.914393861590803646e-43
