# bin_3_20
5.291337078382063621e-07
5.447095957021574098e-07
5.401103773417121241e-07
5.087294198938072581e-07
4.529204998515973088e-07
3.818578985388863888e-07
3.127049279300982588e-07
2.613958331076346702e-07
2.250153099507285631e-07
1.810531751522297932e-07
1.286441410314278132e-07
9.871909266804830938e-08
7.473215586279693537e-08
5.337280425569311575e-08
3.919578140635171034e-08
2.876798539830734881e-08
2.114389967230827948e-08
1.579226479615699342e-08
1.201081962786630984e-08
9.300899161851908487e-09
7.313588117756490211e-09
5.809740556317796664e-09
4.628437062036390794e-09
3.671315691331530960e-09
2.879586462263065166e-09
2.219519467151437008e-09
1.672632067884005778e-09
1.228051414374476208e-09
8.768512552710465452e-10
6.092477255847519030e-10
4.128198175313653354e-10
