# bin_19_14
1.704206218567468066e-14
1.925371126778062110e-14
2.138863864004746087e-14
2.327046891843746124e-14
2.466530063250197586e-14
2.529127996936155618e-14
2.493666121561713041e-14
2.326918664657635429e-14
2.052004446617409129e-14
1.712064451420597880e-14
1.399568616080408507e-14
1.182498210067719876e-14
1.022730233126473881e-14
7.982200992035864650e-15
5.503151509680173720e-15
4.400649238042924808e-15
3.108757264811609911e-15
2.267845725260381628e-15
1.531610576425840791e-15
1.089603457545638723e-15
7.563126333161810087e-16
5.240553444676758031e-16
3.658090795835994656e-16
2.577015370453149669e-16
1.846850360351089456e-16
1.349679363597900902e-16
1.005643661945092105e-16
7.627943793196790003e-17
5.859046536629785745e-17
4.526357185011885759e-17
3.490518661696075733e-17
