# bin_17_18
1.200326307542181653e-08
1.356266908307007206e-08
1.506886002381458858e-08
1.639776444660646922e-08
1.738478750858153225e-08
1.783144300554844127e-08
1.758820915860127686e-08
1.642042636113757357e-08
1.448730205536770614e-08
1.209288448112808185e-08
9.886010850160599730e-09
8.349066848143091841e-09
7.220997997388171391e-09
5.644454549214605333e-09
3.893269817803741344e-09
3.107418242028261777e-09
2.201222769397979303e-09
1.601346874024451200e-09
1.083865724172808823e-09
7.711242829093901116e-10
5.350128076944678270e-10
3.704590167086677903e-10
2.584701089915976724e-10
1.819955011549843585e-10
1.303445131826860953e-10
9.519171660683254930e-11
7.088094917965527023e-11
5.373404345907839556e-11
4.125667165679068540e-11
3.186577858799412121e-11
2.457312069710705274e-11
