# bin_20_14
2.762586310399263669e-16
3.124967913042878155e-16
3.476692669215503083e-16
3.789561171799868964e-16
4.025930796197213056e-16
4.139650429397602786e-16
4.096759452215546158e-16
3.840459800058063443e-16
3.401246304443237329e-16
2.848132669346647460e-16
2.327778839229685454e-16
1.959196592508001108e-16
1.696798564363010688e-16
1.341895462882395148e-16
9.255453809481947996e-17
7.313591034467285432e-17
5.279281949752982123e-17
3.777576683856044276e-17
2.574098854880649356e-17
1.840413710897972987e-17
1.272323311248481614e-17
8.767041373825810645e-18
6.096516715191513887e-18
4.276360139053688222e-18
3.047838787757272257e-18
2.214739842594354212e-18
1.641272608278499177e-18
1.239341401718247246e-18
9.490676915610883928e-19
7.322565037215018746e-19
5.649453041994938539e-19
