# bin_12_2
6.267060358143958505e-43
6.847072764837951710e-43
7.300210870177720464e-43
7.544719092553517815e-43
7.516879761425774819e-43
7.112664077588272452e-43
6.355471374714126961e-43
5.367649024106107367e-43
4.388672931452553493e-43
3.659992543015753956e-43
3.168220541723070792e-43
2.574595006808319419e-43
1.802997448284584887e-43
1.380042509685861871e-43
1.051152764612347516e-43
7.325082681757661354e-44
5.297629688043829913e-44
3.852896473408908403e-44
2.749277456920311654e-44
1.979566637421845675e-44
1.449170210209611920e-44
1.079513346227023138e-44
8.187322403282276834e-45
6.313868650554300660e-45
4.924806974567239684e-45
3.861698269537266429e-45
3.022881107196984247e-45
2.345754703614284984e-45
1.793767846968704334e-45
1.345031745593939095e-45
9.851531950622132402e-46
