# bin_15_16
1.421638627737071123e-08
1.598742132659706263e-08
1.766241802291713863e-08
1.908641402022386380e-08
2.006003749206729426e-08
2.036948339696317895e-08
1.980469400886611494e-08
1.818084304417806089e-08
1.578247209760873194e-08
1.302946775749574837e-08
1.068998812823484368e-08
9.148736786041453102e-09
7.812438523772437817e-09
5.821298632433596842e-09
4.084208149820730659e-09
3.325641389724423015e-09
2.218763065472245893e-09
1.682897652046736959e-09
1.149452473688897801e-09
7.980731142114367651e-10
5.600700016552423901e-10
3.931748735881109525e-10
2.779428651092753845e-10
1.989466327339304123e-10
1.452387866389893373e-10
1.080950715678821329e-10
8.187896163103299983e-11
6.288652591373827109e-11
4.865145327368276751e-11
3.763787064618998249e-11
2.890810445643517408e-11
