# bin_12_4
2.237265324242017858e-29
2.454442799500215869e-29
2.630381263305488503e-29
2.736469337428102726e-29
2.747434902085692063e-29
2.627687257887807056e-29
2.371963391637041937e-29
2.024109672561524644e-29
1.658807037475140917e-29
1.372495412651922860e-29
1.185289617375790076e-29
9.856967707526271655e-30
7.041580439975338710e-30
5.195884839515073293e-30
4.111674743688005618e-30
2.781578581535745875e-30
2.081230650490163593e-30
1.485440219995754632e-30
1.052736773917028042e-30
7.560539529285076023e-31
5.491983816003898823e-31
4.059100031786358618e-31
3.053395093149905362e-31
2.338636749550813534e-31
1.815123996606088901e-31
1.419503049567434059e-31
1.111021136254257445e-31
8.640423412971298285e-32
6.635179367139330125e-32
5.004748253210135130e-32
3.692541173250996058e-32
