# bin_5_16
3.102680083546574714e-07
3.302315496729428683e-07
3.407276111136286465e-07
3.387788812684765531e-07
3.199705593086928878e-07
2.855125264638978411e-07
2.410138555516650612e-07
1.972147787255834821e-07
1.646187059458189474e-07
1.421075005338869086e-07
1.149818874590421113e-07
8.118511046675035613e-08
6.217852176910307057e-08
4.724974723705519176e-08
3.336626391741575067e-08
2.435804731144479055e-08
1.777740234281933710e-08
1.288994455209827727e-08
9.474992352482766579e-09
7.084536044584218163e-09
5.393726999298301880e-09
4.176579818757172389e-09
3.277632178862779453e-09
2.589681624778605312e-09
2.045870712054637798e-09
1.604802160643666857e-09
1.241726868813417608e-09
9.425557490200856467e-10
6.988200019221237998e-10
5.045298089356759035e-10
3.544000838096663183e-10
