# bin_9_14
1.041423068765689914e-07
1.145919122542029881e-07
1.232603412775873605e-07
1.288355533022718296e-07
1.300419707446375871e-07
1.253576526339363039e-07
1.140780159038177042e-07
9.816441670691702679e-08
8.072204386106506408e-08
6.648603475181064963e-08
5.715572994802871099e-08
4.817869689804402406e-08
3.516805710065084323e-08
2.530125994925665119e-08
2.036416349748076561e-08
1.370442417911431096e-08
1.037699725166110688e-08
7.293553487444890313e-09
5.160146329815483509e-09
3.703696683570842790e-09
2.680394790650838240e-09
1.969123736440799022e-09
1.471208210125659093e-09
1.120071640717931877e-09
8.653062634809990152e-10
6.747208350523658268e-10
5.276081433682078902e-10
4.107411867141485220e-10
3.162812509010348163e-10
2.395556180439999484e-10
1.776964986659010198e-10
