# bin_7_1
1.068311486813164705e-24
1.125150147146026779e-24
1.146110413608922396e-24
1.120517227073288046e-24
1.035984070317950621e-24
9.058369419861301482e-25
7.514591483841583831e-25
6.148947112323967647e-25
5.220012601728724837e-25
4.482160664091632932e-25
3.432804002845370611e-25
2.402190000705959813e-25
1.941480211379796310e-25
1.363010492203372551e-25
1.027099165534348550e-25
7.238614380904566779e-26
5.304685234401101723e-26
3.904851286009648956e-26
2.909851613371778653e-26
2.205851006070155863e-26
1.700826709081887945e-26
1.332281429212457255e-26
1.053875352519747405e-26
8.359841570901300901e-27
6.603242351395094882e-27
5.157847821268867295e-27
3.960018509709156426e-27
2.973408042309573447e-27
2.175463126046339616e-27
1.548051275170939253e-27
1.071846401738093053e-27
