# bin_3_14
4.617845292918851854e-07
4.752925503544486149e-07
4.711721169410478366e-07
4.436662247201082521e-07
3.948829495374414024e-07
3.328423390050805788e-07
2.725585664953280191e-07
2.278852035790926568e-07
1.961637575727980904e-07
1.577333010784436752e-07
1.120437355133719775e-07
8.604353870136550605e-08
6.507967270162249589e-08
4.650838419440538246e-08
3.413954998563524977e-08
2.506233308317360281e-08
1.842315834816505759e-08
1.376206542362676356e-08
1.046849827692111648e-08
8.107831495411756293e-09
6.376296666795588590e-09
5.065603867930146403e-09
4.035728635696549251e-09
3.201099304662329307e-09
2.510586552920435856e-09
1.934872823243323182e-09
1.457895812883592818e-09
1.070200529721877651e-09
7.640014365299587729e-10
5.307450777820877121e-10
3.595717585886317784e-10
