# bin_17_3
8.057071423096720050e-61
8.974277906029416143e-61
9.799066246694340575e-61
1.043619706684318147e-60
1.076730228235071489e-60
1.070330295403040655e-60
1.009387233067871486e-60
8.990261871868841547e-61
7.567929664677334949e-61
6.185792614405519457e-61
5.176751823062440066e-61
4.484666041059693788e-61
3.609988896495497629e-61
2.507713979490476410e-61
1.942969263657335749e-61
1.450748035883249119e-61
1.017362595925368264e-61
7.174956461478144075e-62
5.189284955183176093e-62
3.647077573749698270e-62
2.570938152315698692e-62
1.839273368531303048e-62
1.335107727166597182e-62
9.867056999272852508e-63
7.432596910031963662e-63
5.688235687608506855e-63
4.403509962381615243e-63
3.425522390053113292e-63
2.658285616054446269e-63
2.043846840500332670e-63
1.548058000593043666e-63
