# bin_18_9
6.381201484109030302e-27
7.164069024243558517e-27
7.898586312012760540e-27
8.514009667145119114e-27
8.920147833540215992e-27
9.025948048308595858e-27
8.729064718707238074e-27
7.967147270991321933e-27
6.875888830168530508e-27
5.659461231318031173e-27
4.654186603907751840e-27
3.999154438032830265e-27
3.389765901739331454e-27
2.484692543337683519e-27
1.766601707452006566e-27
1.433758159743675788e-27
9.490813688710067949e-28
7.205722329444956021e-28
4.973945382223709737e-28
3.445198418920687226e-28
2.419403214647908945e-28
1.700799008009362382e-28
1.207843163705483115e-28
8.697605433882221126e-29
6.389937567450710185e-29
4.784277993379421683e-29
3.642444224205651130e-29
2.807374731660748111e-29
2.175419934282666895e-29
1.682452851535853375e-29
1.289636237327104506e-29
