# bin_4_17
3.991971445141295609e-07
4.188365003242926715e-07
4.248366112586053787e-07
4.127955677650622373e-07
3.792575032167008502e-07
3.295647571469861488e-07
2.726662772809747122e-07
2.237912971098706692e-07
1.906820050702139009e-07
1.622599286894883680e-07
1.224306254723747196e-07
8.700249605827368275e-08
6.979232854332473704e-08
4.888532386193634412e-08
3.675765642877442422e-08
2.617687171035093506e-08
1.914044394580679622e-08
1.411088453241019967e-08
1.054328986732366285e-08
8.018824325969539594e-09
6.203113814213547933e-09
4.870799646373560025e-09
3.858103353116779715e-09
3.060963001015952607e-09
2.415422971389767359e-09
1.882889873744988609e-09
1.441423000040816294e-09
1.078471715073593006e-09
7.859856128018726776e-10
5.571826142830572300e-10
3.844683703343159990e-10
