# bin_11_4
2.484280165535692012e-25
2.714394284915331880e-25
2.894292883373421201e-25
2.991576869731160398e-25
2.980947153678537360e-25
2.821174003747900017e-25
2.521280012128517052e-25
2.129768238824605054e-25
1.741381757825648631e-25
1.452041163680214417e-25
1.256913651931264639e-25
1.021854743282001068e-25
7.158066358243227399e-26
5.475454406951157937e-26
4.173591647712431340e-26
2.906628964790390114e-26
2.103468287372340707e-26
1.529414527341050895e-26
1.091197386966391750e-26
7.856438298842064732e-27
5.750653587859957492e-27
4.283254644159256313e-27
3.248133777395800236e-27
2.504632915282141587e-27
1.953475040545164518e-27
1.531732949271476047e-27
1.199027825638320093e-27
9.304860676758860370e-28
7.115842405807586832e-28
5.336258161462606830e-28
3.908964285576112571e-28
