# bin_11_17
9.160123348200512993e-08
1.017757706090874266e-07
1.107915871965447453e-07
1.175493886438135773e-07
1.207171927251993709e-07
1.192805166033686857e-07
1.116432449317667890e-07
9.874129954154323223e-08
8.261441276944700580e-08
6.752905843508284816e-08
5.686291379245467684e-08
4.917563423193515608e-08
3.878531165887742522e-08
2.686515960399007503e-08
2.125202586818440088e-08
1.536122995176337773e-08
1.109236707312246226e-08
7.688838450910319724e-09
5.551291823515776106e-09
3.925744922274286077e-09
2.787092665065238825e-09
2.005954134494781657e-09
1.464875836868628060e-09
1.089987775129537302e-09
8.260619416901784530e-10
6.352573080822213997e-10
4.932882003396758296e-10
3.841061807833432686e-10
2.977742702460078496e-10
2.283193036966362458e-10
1.722243098930059141e-10
