# bin_13_10
5.859639352599962647e-12
6.521750224539843911e-12
7.114525220883106792e-12
7.568351777094977449e-12
7.797213370231156329e-12
7.736813286377163618e-12
7.279310822726773664e-12
6.469375490530927762e-12
5.435094516512528143e-12
4.441965367702768601e-12
3.724449371050483984e-12
3.225660959296150117e-12
2.580583159190279222e-12
1.789388517754618051e-12
1.396487224669075908e-12
1.032229225467807080e-12
7.306215311179024735e-13
5.116218395837008256e-13
3.703491128340455356e-13
2.607666662312619485e-13
1.841844199823195856e-13
1.320256180917034648e-13
9.601694617319307216e-14
7.111405451277473611e-14
5.367291123246680717e-14
4.114129500709273270e-14
3.188232957606535665e-14
2.481098292660958171e-14
1.924912060845179320e-14
1.478794360841429687e-14
1.118678199136513440e-14
