# bin_3_19
5.204329974518155016e-07
5.357417418083734312e-07
5.312043770179684153e-07
5.003240320653959572e-07
4.454227417168213428e-07
3.755256740368712970e-07
3.075184978435700028e-07
2.570666601559918300e-07
2.212880341130227364e-07
1.780405263182971943e-07
1.264995672480471851e-07
9.708156259162889738e-08
7.348517054454692747e-08
5.248600325393445099e-08
3.854257679635118111e-08
2.828925943806136861e-08
2.079241242568979223e-08
1.552998730799519860e-08
1.181157014325143501e-08
9.146769075832500581e-09
7.192501260280571348e-09
5.713606985460256312e-09
4.551866213409246598e-09
3.610569351218782051e-09
2.831916082388701763e-09
2.182746521980628910e-09
1.644890710167102429e-09
1.207658967111352856e-09
8.622724081063017618e-10
5.991061224241429436e-10
4.059408053291454687e-10
