# bin_16_13
1.183636964680306263e-11
1.330137470724070831e-11
1.468232410776058137e-11
1.584922279465926576e-11
1.663552892486512118e-11
1.686697576741022577e-11
1.636245543802962008e-11
1.498340984327635466e-11
1.297430949049295593e-11
1.069642165480827642e-11
8.783589103685188202e-12
7.530712310176382663e-12
6.412205295024213277e-12
4.744027264457119797e-12
3.344701842868248620e-12
2.723211237090044333e-12
1.807558069647451100e-12
1.373660198664911245e-12
9.423674400100418926e-13
6.530612544843668916e-13
4.585794749784469071e-13
3.221706978887436952e-13
2.281966419403677835e-13
1.637596900231179096e-13
1.198819632957397340e-13
8.945824961712558116e-14
6.791607689867819604e-14
5.224598824021210369e-14
4.045143988899279982e-14
3.129263372336573259e-14
2.401531571781928464e-14
