# bin_6_14
2.232081124263091994e-07
2.402146151573239461e-07
2.513311590643140306e-07
2.540335133847344254e-07
2.454806982186373514e-07
2.240619658901043512e-07
1.934127507707148081e-07
1.593404176062410945e-07
1.310569739945857838e-07
1.123082864981097360e-07
9.498782158104083441e-08
7.016928908562098942e-08
5.025415299033084794e-08
4.047385678393789587e-08
2.767194394332678896e-08
2.097386672021696776e-08
1.484081870454900082e-08
1.068451324242145948e-08
7.794742395442873666e-09
5.751925440181391158e-09
4.315136602268234087e-09
3.292982293318835149e-09
2.555177537064233086e-09
2.004681036029524198e-09
1.579902733177177215e-09
1.242206603740511088e-09
9.676014932722155244e-10
7.421977543231126341e-10
5.577764274255608480e-10
4.090857248142929509e-10
2.921381486648029152e-10
