# bin_10_16
-1.347978999106880721e-15
-1.510290570112822127e-15
-1.661020533434068526e-15
-1.784952249326866501e-15
-1.862839214348459916e-15
-1.876708487395798136e-15
-1.803154149788380732e-15
-1.634857807033110804e-15
-1.401420548831883468e-15
-1.150544079883257274e-15
-9.501173313573872723e-16
-8.197941633052692073e-16
-6.869193786611066577e-16
-4.942720552618638248e-16
-3.595080000189000852e-16
-2.872008355130042440e-16
-1.912105314199380757e-16
-1.435000074071975041e-16
-1.003924399813188812e-16
-6.971988901619365252e-17
-4.895019818595696510e-17
-3.450929361441752996e-17
-2.465406998603247931e-17
-1.788815713028546708e-17
-1.324156084891477047e-17
-9.982854291609763294e-18
-7.643069731813683435e-18
-5.911782189762559903e-18
-4.586797014249916415e-18
-3.543918890038101567e-18
-2.708642052416380426e-18
