# bin_18_16
-6.147463644380117664e-09
-6.954018573339190387e-09
-7.736905970606022658e-09
-8.433367647049847815e-09
-8.959612192123994130e-09
-9.212930107284073459e-09
-9.117632332605584929e-09
-8.547464157174260135e-09
-7.570691074487084301e-09
-6.340686086869396528e-09
-5.184053562681044400e-09
-4.364846461450469710e-09
-3.780177174245750659e-09
-2.987968885516404998e-09
-2.061631341092866286e-09
-1.630289814289826841e-09
-1.175677367432917230e-09
-8.422682431570484887e-10
-5.736534706947288639e-10
-4.101623798415470519e-10
-2.836176972250170702e-10
-1.954957026864359192e-10
-1.359783086306828346e-10
-9.540738733657713576e-11
-6.802022435587215196e-11
-4.944270686017139698e-11
-3.665093745913310216e-11
-2.768205129549155861e-11
-2.120188685220570340e-11
-1.635960349723141304e-11
-1.262147069928411712e-11
