# bin_14_6
-2.860267403040881445e-24
-3.171959681343993594e-24
-3.444895176521623749e-24
-3.644355864071622243e-24
-3.729178895607006617e-24
-3.667311640364897436e-24
-3.412036073197064351e-24
-3.001064822612683810e-24
-2.499196792014131792e-24
-2.043900475202234508e-24
-1.730358266839008465e-24
-1.493859377063998750e-24
-1.157807258319960077e-24
-8.012073563256946831e-25
-6.445930675178888996e-25
-4.529566910044231978e-25
-3.355293991076695592e-25
-2.297485522712445468e-25
-1.652666753179436384e-25
-1.175352267254658761e-25
-8.399537815369750356e-26
-6.075740077669083375e-26
-4.459402050458977693e-26
-3.336883217322668329e-26
-2.541466690482538366e-26
-1.962048090092138699e-26
-1.527244437153375629e-26
-1.190070334931664158e-26
-9.217885724943676410e-27
-7.051896135519823839e-27
-5.301405884852281399e-27
