# bin_6_16
-8.502262980579114855e-32
-9.477672200809582679e-32
-1.035876357786012258e-31
-1.104555680636144797e-31
-1.141327696895216584e-31
-1.136638931896092936e-31
-1.074530144161500299e-31
-9.592921302630455519e-32
-8.093953150064367723e-32
-6.619577769884421962e-32
-5.531160435360652881e-32
-4.792005860330838943e-32
-3.879143284229572825e-32
-2.702816271323748239e-32
-2.079135606703385417e-32
-1.566896811348142796e-32
-1.090017333111118153e-32
-7.747989002115430288e-33
-5.591338586772078138e-33
-3.923488517224378039e-33
-2.762166380421837382e-33
-1.972356755450045653e-33
-1.429190358113415332e-33
-1.054096116277178531e-33
-7.925425804423656607e-34
-6.056095563453173406e-34
-4.683422772648239249e-34
-3.641746962529200405e-34
-2.826622061491714659e-34
-2.174872174975707246e-34
-1.649226174261321574e-34
