# bin_16_13
-5.939963337674991567e-10
-6.680581651964561825e-10
-7.381354453398974808e-10
-7.977541428067020873e-10
-8.385841035453038368e-10
-8.516749138404281203e-10
-8.282541502915603709e-10
-7.605201931431112700e-10
-6.603889966490315987e-10
-5.453395391113248357e-10
-4.475124371365037412e-10
-3.830762142977330461e-10
-3.272039229618882103e-10
-2.438157178969443216e-10
-1.710128108716564785e-10
-1.394165093590317376e-10
-9.287396157757205502e-11
-7.055290619469326998e-11
-4.819805172488464504e-11
-3.343295414837662130e-11
-2.347540492930351248e-11
-1.648593692472797609e-11
-1.165625030595964760e-11
-8.344788156397818927e-12
-6.093298058770002288e-12
-4.535927261793255425e-12
-3.436541634636634694e-12
-2.639907398235744842e-12
-2.042664473044400296e-12
-1.580449777901678369e-12
-1.213979429285799170e-12
