# bin_14_15
-1.949113133545545861e-08
-2.191798007553561729e-08
-2.421262973865072144e-08
-2.616229645358828532e-08
-2.749344215364301715e-08
-2.791371543839250249e-08
-2.713302037193646377e-08
-2.490082940009674471e-08
-2.161080094719961908e-08
-1.784067518867426930e-08
-1.464301192331084432e-08
-1.253935968266550829e-08
-1.070386674342408367e-08
-7.963968061436595791e-09
-5.591700755496512875e-09
-4.558508362841845937e-09
-3.033434097241255879e-09
-2.305298677758237353e-09
-1.576352896687096084e-09
-1.093035340233370920e-09
-7.675771783357474536e-10
-5.391194086232661831e-10
-3.813392049890674881e-10
-2.731534491591704383e-10
-1.995724713624877346e-10
-1.486480673217076014e-10
-1.126746677324843391e-10
-8.658498239053451435e-11
-6.700765328068422988e-11
-5.184456923265314838e-11
-3.981610344363672161e-11
