# bin_9_13
-6.272186590244613347e-12
-6.975488595139223982e-12
-7.602207381712055577e-12
-8.077413878164586457e-12
-8.309114976656343922e-12
-8.228918006112427807e-12
-7.723204760701429823e-12
-6.848532852186179925e-12
-5.742373294568794483e-12
-4.694179002192627123e-12
-3.945525849415409165e-12
-3.416010547106280703e-12
-2.713261314818153919e-12
-1.878359384522983171e-12
-1.478562290501633284e-12
-1.079917454431035541e-12
-7.730273217438933449e-13
-5.369231912589762048e-13
-3.890554216136775117e-13
-2.745593838554176775e-13
-1.943977256005524956e-13
-1.396736983260151365e-13
-1.018095799450296450e-13
-7.559720016646872273e-14
-5.718727498501147750e-14
-4.391611223776136105e-14
-3.407394211737999460e-14
-2.652850622649039010e-14
-2.057598631395807248e-14
-1.579280740217626925e-14
-1.192987452280425685e-14
