# bin_9_4
-5.003059728959877369e-16
-5.420668894648256375e-16
-5.719605489220571002e-16
-5.836579585342702819e-16
-5.718965450852089241e-16
-5.299409004563520149e-16
-4.643569702356080702e-16
-3.857046134710712020e-16
-3.155868695797930618e-16
-2.678019148246373384e-16
-2.304905176198045322e-16
-1.770499843628155901e-16
-1.232555797021895636e-16
-9.966572647484116554e-17
-6.966768601318526629e-17
-5.231455648507425032e-17
-3.636749872759011363e-17
-2.638688043140173464e-17
-1.914790025536458530e-17
-1.402311706678584546e-17
-1.042373617374336995e-17
-7.877858626508308850e-18
-6.061822333584226269e-18
-4.727970399906134720e-18
-3.715071058907308215e-18
-2.921414862632173605e-18
-2.282697846630712062e-18
-1.760925572614048400e-18
-1.333811597986156728e-18
-9.876882066944680571e-19
-7.128018630064438565e-19
