# bin_12_12
-3.398283407342818173e-08
-3.792009446947057356e-08
-4.149718871021946893e-08
-4.431760005033420339e-08
-4.588465049127851834e-08
-4.580505390912999726e-08
-4.344225371450360219e-08
-3.890043057689541533e-08
-3.292043836616229812e-08
-2.693616536693139723e-08
-2.244939379764282428e-08
-1.944542318650769721e-08
-1.586295813741615120e-08
-1.110660049533965599e-08
-8.449219765715539763e-09
-6.451302809950769261e-09
-4.437859857001687428e-09
-3.192863162278021171e-09
-2.292300762666869285e-09
-1.604804730362900532e-09
-1.128240430961865961e-09
-8.033160894663406307e-10
-5.804847253283201881e-10
-4.267963848854678901e-10
-3.199645319012089453e-10
-2.439020798154966061e-10
-1.882969722477785875e-10
-1.463017917293516237e-10
-1.135712921094743535e-10
-8.746983420264245179e-11
-6.643855330492912460e-11
