# bin_6_2
-4.661396073900022265e-14
-4.902550606232255015e-14
-4.985882983372581460e-14
-4.863147867028419560e-14
-4.484297467266038349e-14
-3.911139986779269036e-14
-3.239757512190474001e-14
-2.653797042248932860e-14
-2.258292930739499635e-14
-1.934385119251781242e-14
-1.469954118398633860e-14
-1.032796065655668661e-14
-8.367236224107236398e-15
-5.825900798462122092e-15
-4.416808764724717820e-15
-3.118318387886680337e-15
-2.278698847359536946e-15
-1.680490216781744689e-15
-1.254854323386093612e-15
-9.528423947729158181e-16
-7.358721912156133206e-16
-5.771938150070945425e-16
-4.569676466489857675e-16
-3.626060534056269724e-16
-2.863528044219123222e-16
-2.235096836903047899e-16
-1.714011515567804865e-16
-1.284979643371888508e-16
-9.384309367266368589e-17
-6.665214343810361857e-17
-4.606574882168535919e-17
