# bin_14_14
-3.075814019458883414e-08
-3.453962413140589508e-08
-3.809144160803453953e-08
-4.107316855192983872e-08
-4.305033022025644327e-08
-4.358153026180052824e-08
-4.217641966551553813e-08
-3.852439029178694858e-08
-3.327523402078931890e-08
-2.740514155817903370e-08
-2.253892778353325368e-08
-1.936243989346000025e-08
-1.642337555660774769e-08
-1.205827055047855763e-08
-8.565622446283447723e-09
-6.954831417778813859e-09
-4.607049058195535354e-09
-3.498523477506375354e-09
-2.413227720097069776e-09
-1.671744970753645364e-09
-1.174198206569549472e-09
-8.255023876592490484e-10
-5.861007258057499098e-10
-4.219055417762545384e-10
-3.098513056203775417e-10
-2.319125183564315539e-10
-1.765138989779562587e-10
-1.360229023047272573e-10
-1.053991462668395902e-10
-8.152226613749011900e-11
-6.250141316186739278e-11
