# bin_16_4
-6.746233214939204713e-45
-7.503276603061236831e-45
-8.178195742608530109e-45
-8.690430065383270696e-45
-8.940958279231658263e-45
-8.856342860018571645e-45
-8.313948821646540160e-45
-7.373904814595668606e-45
-6.183883569017669166e-45
-5.054970300487131195e-45
-4.247997433593324631e-45
-3.678249784967791250e-45
-2.923410391513901539e-45
-2.023617532528429103e-45
-1.592186757203600136e-45
-1.164038975983523964e-45
-8.325209141278146434e-46
-5.783320448159769714e-46
-4.192336305929911082e-46
-2.957963863742813503e-46
-2.093745492704720779e-46
-1.504120478854941302e-46
-1.096187226676362051e-46
-8.138053535773434405e-47
-6.155210852542976873e-47
-4.726207807592726767e-47
-3.666740184115773857e-47
-2.854734254854500843e-47
-2.214282212829328539e-47
-1.699697504336460183e-47
-1.284115788236003196e-47
