# bin_4_20
-2.874588268205495944e-64
-3.228160899573413400e-64
-3.560342295745715188e-64
-3.839331270073151009e-64
-4.024532304912326999e-64
-4.074627148157836801e-64
-3.943887126225715290e-64
-3.602986261052775340e-64
-3.112584595910147034e-64
-2.563683151483648767e-64
-2.108277784119961607e-64
-1.810965153634652456e-64
-1.536472656703153921e-64
-1.128608940735414891e-64
-8.013180512776236960e-65
-6.508189758798833333e-65
-4.311041838520554165e-65
-3.274381205229645696e-65
-2.257913939192506426e-65
-1.564098684352420838e-65
-1.098605399601646667e-65
-7.723235857034123034e-66
-5.482727586805870885e-66
-3.946080873764799952e-66
-2.897540202378226615e-66
-2.168359536087763753e-66
-1.650171195250294371e-66
-1.271526169928879583e-66
-9.852275743741824096e-67
-7.620523143687958447e-67
-5.842882622296163485e-67
