# bin_15_9
-4.632265910980451335e-16
-5.173173780948961523e-16
-5.666827010666005651e-16
-6.059520784025106522e-16
-6.283830558243338198e-16
-6.284709062205437060e-16
-5.975926013833196018e-16
-5.364071770549225954e-16
-4.550558707444669659e-16
-3.725000937270821818e-16
-3.098300988309793621e-16
-2.682874340635123902e-16
-2.201523678317691410e-16
-1.548117956805405825e-16
-1.167293620003982092e-16
-9.002527392632523405e-17
-6.141827873050538276e-17
-4.461152571372274407e-17
-3.188094502651578666e-17
-2.228016523899647959e-17
-1.565174676301496577e-17
-1.111941754953164357e-17
-8.017340551069831140e-18
-5.879976031383043539e-18
-4.397854821746106285e-18
-3.345759354816771429e-18
-2.579330087163958723e-18
-2.002714453405384430e-18
-1.554775821750574866e-18
-1.198346930325803601e-18
-9.113965270392667824e-19
