# bin_17_12
-6.191877283439152992e-13
-6.965820882366010436e-13
-7.699054881687891752e-13
-8.324287584771885523e-13
-8.754796065644942269e-13
-8.896511137218755032e-13
-8.659269411569540538e-13
-7.958590142258746231e-13
-6.917250753754915369e-13
-5.715050598518193690e-13
-4.688241205293747217e-13
-4.010539173091884787e-13
-3.429417107703350770e-13
-2.562168116692468906e-13
-1.793707105225889295e-13
-1.462550130743006834e-13
-9.759559712503868123e-14
-7.409933628564985401e-14
-5.053674750099610442e-14
-3.507526642283170531e-14
-2.462423714393258607e-14
-1.728844881119085312e-14
-1.221459760494958603e-14
-8.735957815005476727e-15
-6.372229392276596485e-15
-4.738811400069332125e-15
-3.587144788637699609e-15
-2.753918756662950556e-15
-2.130246340991822315e-15
-1.648251746879085404e-15
-1.266453781731030823e-15
