# bin_10_3
-4.274258442413956877e-24
-4.638939359246832275e-24
-4.905176787127676274e-24
-5.017985489886180006e-24
-4.934071008339999396e-24
-4.591225304061541564e-24
-4.038992036688055648e-24
-3.364750103720209262e-24
-2.751348658312007767e-24
-2.326916531625500658e-24
-2.007575396446901760e-24
-1.560141997577360983e-24
-1.083327110457439618e-24
-8.697571003240983253e-25
-6.176386388324360628e-25
-4.579746116065278156e-25
-3.186695898179431339e-25
-2.322738815309285809e-25
-1.680132214012681379e-25
-1.226072574522277490e-25
-9.088975441201698488e-26
-6.850299296244227070e-26
-5.257307204853268883e-26
-4.092383124384720716e-26
-3.211839596955957991e-26
-2.524920371446862196e-26
-1.974018529153284274e-26
-1.524836745348114655e-26
-1.157297776347537990e-26
-8.591759447331980480e-27
-6.218817685194143682e-27
