# bin_18_7
-5.372487454442344544e-34
-6.021612520407279294e-34
-6.625566347451782403e-34
-7.123888274307068622e-34
-7.440013667200740375e-34
-7.501433863895996200e-34
-7.215906475460742498e-34
-6.550141086770772430e-34
-5.621701319969449598e-34
-4.617396880572351283e-34
-3.810287215548621186e-34
-3.285623107424315940e-34
-2.758957611559426276e-34
-1.991290452204116264e-34
-1.442510531011458332e-34
-1.156231782953155720e-34
-7.684370244177088005e-35
-5.782932862192414416e-35
-4.036339326708909786e-35
-2.801462949862990547e-35
-1.967026538658416591e-35
-1.385846381102706824e-35
-9.890674272335194420e-36
-7.167358401554108291e-36
-5.299066583345963120e-36
-3.990571981216764154e-36
-3.052585569056887533e-36
-2.359883300116332501e-36
-1.830709182722532376e-36
-1.414786258953643439e-36
-1.081906272889562939e-36
