# bin_3_4
-3.776353552564292559e-08
-3.931611567952922368e-08
-3.952677999559950157e-08
-3.791237644069673340e-08
-3.434495736984419488e-08
-2.942822309823436034e-08
-2.417009816096080955e-08
-1.995583150941798832e-08
-1.716496578541431519e-08
-1.435259302494967360e-08
-1.042662452235902853e-08
-7.627024045503455746e-09
-6.086094403155575933e-09
-4.185680931147688875e-09
-3.172816951037793276e-09
-2.289953144116234636e-09
-1.667695960079740144e-09
-1.236672440089352611e-09
-9.313885123982296612e-10
-7.144497681073124874e-10
-5.571547139094622422e-10
-4.402378601676193644e-10
-3.499907777544536789e-10
-2.779410742600847761e-10
-2.189387115310811353e-10
-1.699367339545359807e-10
-1.292491495313230903e-10
-9.590748602987806526e-11
-6.923992000571194434e-11
-4.861409125161975093e-11
-3.324362953268676357e-11
