# bin_8_18
-8.416314507212533094e-29
-9.442307641070340032e-29
-1.040159218524058823e-28
-1.120023305558532023e-28
-1.171883749190107506e-28
-1.184019875967897091e-28
-1.142468607040709426e-28
-1.040331019062005530e-28
-8.957605913629924297e-29
-7.366963538886758625e-29
-6.068341380158767313e-29
-5.223277282334552334e-29
-4.409494145820526040e-29
-3.209740712788863720e-29
-2.301142471949503306e-29
-1.858528822184276907e-29
-1.231482079980411597e-29
-9.321188741762695178e-30
-6.466897617195029752e-30
-4.482603669194536450e-30
-3.148036784336945578e-30
-2.214993721155462409e-30
-1.576616161495148694e-30
-1.138669759864405744e-30
-8.390469503321621169e-31
-6.299406806295948819e-31
-4.806890456016240617e-31
-3.710406062425875289e-31
-2.876939582140694364e-31
-2.224423605683189678e-31
-1.703338421087993585e-31
