# bin_1_13
-7.496698270066991799e-55
-8.220060943529764936e-55
-8.803418929957682596e-55
-9.150560958835814316e-55
-9.178187762346352843e-55
-8.765622219957840870e-55
-7.902148708618453100e-55
-6.734486247885318770e-55
-5.518482761292473957e-55
-4.572370709754754626e-55
-3.951198213041804069e-55
-3.275200781198522746e-55
-2.332108082376777673e-55
-1.731122121432291340e-55
-1.362419907717063854e-55
-9.254863064479538235e-56
-6.891799588319882789e-56
-4.935313291987847496e-56
-3.501582335791932233e-56
-2.515464773257184210e-56
-1.829475513974325810e-56
-1.353969704604078624e-56
-1.019959743255605579e-56
-7.821502988942085731e-57
-6.076187242141046491e-57
-4.754442964239573313e-57
-3.721712892575885111e-57
-2.893641732813224756e-57
-2.220769192711984811e-57
-1.673596451913312429e-57
-1.233404858160091148e-57
