# bin_14_1
-1.100966182948820814e-60
-1.212375834498124959e-60
-1.305325500830278503e-60
-1.365996195475807781e-60
-1.380652868033711786e-60
-1.333407528648510680e-60
-1.215583949028906681e-60
-1.047965590893378640e-60
-8.623428815120856504e-61
-7.096210767408189507e-61
-6.098202156775549884e-61
-5.157905183206549159e-61
-3.777187850104871240e-61
-2.701865483381027550e-61
-2.189113632390179967e-61
-1.465135668191695872e-61
-1.116386113331126921e-61
-7.825419066821949464e-62
-5.526408861714309123e-62
-3.967696892552280224e-62
-2.869049108761037907e-62
-2.105448086376040944e-62
-1.571234961153232341e-62
-1.195073571993365943e-62
-9.226047865435703874e-63
-7.191411211327865642e-63
-5.623597744819267650e-63
-4.379631258284959432e-63
-3.374743746529132733e-63
-2.558433173630593390e-63
-1.899888605514403725e-63
