# bin_18_1
-1.466811116831989950e-83
-1.637104138802543763e-83
-1.792002930999526114e-83
-1.914420739305018117e-83
-1.982939970701551432e-83
-1.980473481247824266e-83
-1.879573083482113989e-83
-1.684121682797722389e-83
-1.426122302018694786e-83
-1.167005188856735302e-83
-9.721031475209361704e-84
-8.419734958371782497e-84
-6.879289075262695226e-84
-4.821745195245504930e-84
-3.659643227641141571e-84
-2.801695382777828769e-84
-1.923003217286615721e-84
-1.386966002751887113e-84
-9.946575485296085922e-85
-6.960285706497131919e-85
-4.892230555875518429e-85
-3.481345348321600935e-85
-2.514276933171538891e-85
-1.847448837668524201e-85
-1.384209851009228792e-85
-1.054641038895632966e-85
-8.139246052435616961e-86
-6.323006310011321306e-86
-4.908593863425632519e-86
-3.781248565187736953e-86
-2.873059984753425191e-86
