# bin_10_10
-3.882663397991075745e-08
-4.296997079251754678e-08
-4.655057824312237351e-08
-4.909249239914712907e-08
-5.005315842133621314e-08
-4.897036061485196857e-08
-4.528457977200155745e-08
-3.959925740320512181e-08
-3.284078048917884365e-08
-2.688719516303792452e-08
-2.287422716077268645e-08
-1.966821351504798837e-08
-1.498434979020766985e-08
-1.042086672214637124e-08
-8.459976081168483906e-09
-5.808926236623518139e-09
-4.378796064599862921e-09
-3.004266568597046084e-09
-2.141792680694654543e-09
-1.530664944710754141e-09
-1.099892659659385505e-09
-7.990843125829508348e-10
-5.893789190149163291e-10
-4.432846549561170849e-10
-3.390997264286885828e-10
-2.626444133346806542e-10
-2.048035230005106074e-10
-1.596166977156346996e-10
-1.234754446631407999e-10
-9.422413858063589898e-11
-7.058612381843395614e-11
