# bin_5_3
-2.385309217581684691e-09
-2.506486560340814620e-09
-2.546558912518220522e-09
-2.480239024204743811e-09
-2.283426666984181891e-09
-1.988481460944855361e-09
-1.645753112043506925e-09
-1.348857599717812807e-09
-1.149036126206482421e-09
-9.824766525605484118e-10
-7.435634153212634850e-10
-5.239010685557231395e-10
-4.244043530676273676e-10
-2.948109436208165975e-10
-2.237728888446224716e-10
-1.582052265796762948e-10
-1.155612836822389595e-10
-8.526400247598920058e-11
-6.371099422819470092e-11
-4.842062824785798838e-11
-3.742743328199500687e-11
-2.937701343940114036e-11
-2.326747231497675660e-11
-1.846493293055155829e-11
-1.457922539908571181e-11
-1.137443250003209996e-11
-8.716555306479675992e-12
-6.528970503336575256e-12
-4.763395188449119200e-12
-3.379794041208209073e-12
-2.333712966811047907e-12
