# bin_19_2
-3.233609664706671975e-78
-3.619843075984463840e-78
-3.976903001430929390e-78
-4.268024431842801685e-78
-4.446819005209694460e-78
-4.471419512850214183e-78
-4.284337243442704209e-78
-3.873868109282080331e-78
-3.311351205656171661e-78
-2.715960716505887852e-78
-2.246791683880341038e-78
-1.941103405321026788e-78
-1.618081409276209471e-78
-1.156363186029068958e-78
-8.491453921356163395e-79
-6.726653442141139693e-79
-4.500934058941641303e-79
-3.353176720777623704e-79
-2.359028060662033782e-79
-1.640783021865865573e-79
-1.151917582092718182e-79
-8.135019414469514231e-80
-5.826072872402390566e-80
-4.239698324370283580e-80
-3.147449731431139800e-80
-2.378978442050938557e-80
-1.825064829286702200e-80
-1.413327373369182539e-80
-1.096883351276333502e-80
-8.470164324523619720e-81
-6.465605147717804865e-81
