# bin_16_9
6.418737414620607944e-18
7.179371610826837225e-18
7.879429895244198150e-18
8.445427304515874455e-18
8.784805883072295460e-18
8.816878548687828078e-18
8.425585632756136228e-18
7.599102216345949568e-18
6.478673780034883796e-18
5.310120103121653423e-18
4.400977151157616618e-18
3.805307713461493364e-18
3.155082986381404322e-18
2.242299945883833370e-18
1.661511968917336601e-18
1.304254498753003244e-18
8.784331639718007190e-19
6.488368519177753309e-19
4.589131755215052180e-19
3.197064569051719854e-19
2.244899001046687360e-19
1.588591129834731962e-19
1.140336478091486087e-19
8.320644095233764300e-20
6.193004037149347603e-20
4.691518282406494781e-20
3.605311197092843365e-20
2.794534826287238750e-20
2.169073664982284737e-20
1.673867568745401857e-20
1.276095204961807789e-20
