# bin_20_11
7.587652966135270683e-21
8.562164013537692275e-21
9.497997720957307123e-21
1.031550015774698470e-20
1.090987842949194374e-20
1.115780158241493584e-20
1.096169858954369433e-20
1.018422785521322390e-20
8.945115042352609507e-21
7.441165246429778426e-21
6.088773938634031470e-21
5.165038596181214361e-21
4.456601686959550981e-21
3.433260642294411822e-21
2.373351999259345530e-21
1.914443144825975613e-21
1.325498571401654185e-21
9.828319633983106424e-22
6.629028434728032951e-22
4.677351496656233017e-22
3.260723573802612158e-22
2.271558334226964432e-22
1.591417465627972636e-22
1.126047043795646013e-22
8.113423971189456801e-23
5.961452399489459255e-23
4.464227847061609610e-23
3.399682893712761065e-23
2.617810802231113093e-23
2.023977243642558331e-23
1.559486357590292028e-23
