# bin_16_5
5.617089728936602085e-32
6.252996013789111186e-32
6.822927391046074768e-32
7.260216331290194805e-32
7.482449910042956380e-32
7.427622051972521867e-32
6.992428474531034283e-32
6.218252318450319848e-32
5.227742492370864415e-32
4.274321081650361970e-32
3.583660314884154142e-32
3.103586742968145502e-32
2.485148097425135380e-32
1.725151218108361809e-32
1.344720165827097307e-32
9.954310225799638771e-33
7.038845538413760580e-33
4.937129840773917196e-33
3.571427376760666782e-33
2.514225482301996184e-33
1.775799174396843232e-33
1.272546466783718122e-33
9.252392967381388001e-34
6.850621840199729274e-34
5.168961355334154582e-34
3.961139394715033881e-34
3.069151394769624946e-34
2.388250589677215179e-34
1.852922064903130515e-34
1.423649737856783844e-34
1.077162605104692829e-34
