# bin_11_14
5.373569301085661018e-08
5.967116581765209582e-08
6.491266290765146738e-08
6.881317319312216307e-08
7.059664688969482683e-08
6.965859213276389542e-08
6.509044126686115205e-08
5.748313047365201732e-08
4.804712090495901447e-08
3.929661112972896837e-08
3.314630119696836440e-08
2.863735544784990472e-08
2.247223102635833373e-08
1.558562963800149372e-08
1.237348285203457173e-08
8.879108022252970977e-09
6.451566683079524745e-09
4.467792791855201666e-09
3.219330340389652270e-09
2.280171224536889258e-09
1.621809148589465299e-09
1.168924133382672320e-09
8.549406187099374069e-10
6.372001075449548313e-10
4.836059086476129761e-10
3.723128247611900626e-10
2.892934755950071572e-10
2.252923489335830421e-10
1.745961347646250539e-10
1.337727088495156845e-10
1.007993110543027140e-10
