# bin_1_15
7.863772922797249033e-07
7.583065176896190045e-07
6.927703174792106508e-07
5.994792919822793209e-07
4.969801065174667291e-07
4.102758597267095930e-07
3.486448400907874379e-07
2.918351103440878592e-07
2.205669782255897210e-07
1.607898875510187148e-07
1.253344006541236529e-07
9.082940283897672558e-08
6.732791663674095636e-08
4.935619403454306669e-08
3.673092324554829196e-08
2.767729183176831875e-08
2.123585434147828749e-08
1.659834823292256522e-08
1.317174982135108844e-08
1.055575638035881850e-08
8.480078265769587715e-09
6.777863564333144010e-09
5.352278871867919180e-09
4.150115034575767648e-09
3.144200489171940374e-09
2.319780407723995580e-09
1.664654648768219985e-09
1.162573683287501652e-09
7.919907601048344371e-10
5.279010259705523363e-10
3.454358548121541489e-10
