# bin_12_9
2.494895165023721906e-11
2.764768773823748605e-11
3.000005986979109145e-11
3.170221234340031709e-11
3.239963897352605632e-11
3.180483453291653295e-11
2.952984411214856019e-11
2.592177102458777639e-11
2.155947595939800346e-11
1.764043572858849879e-11
1.495808344922630783e-11
1.289176711093284217e-11
9.936029706620612108e-12
6.892663950922910303e-12
5.555853780080584275e-12
3.878534592825281202e-12
2.885505206609050255e-12
1.980562192019820935e-12
1.420237321687795036e-12
1.011456657178082412e-12
7.239216122048592220e-13
5.243823992109593660e-13
3.855165431946340278e-13
2.889615244265569237e-13
2.203970777608925321e-13
1.703282551944671980e-13
1.326537162333895426e-13
1.033671697147710929e-13
8.002550712928553846e-14
6.116650445875456636e-14
4.592694268066685991e-14
