# bin_12_5
2.377657002047465664e-20
2.614423147541318954e-20
2.809764240909777294e-20
2.933613377401980083e-20
2.957423852698077936e-20
2.845425472837407988e-20
2.584130621619838557e-20
2.219132098724502106e-20
1.823348823186831065e-20
1.503773520459758820e-20
1.294890318810828713e-20
1.088045585086580087e-20
7.891463699554190387e-21
5.714374345267267616e-21
4.588048471764577851e-21
3.083289850778996989e-21
2.333337668355356695e-21
1.647155411470612175e-21
1.164918683077447963e-21
8.364675659927741217e-22
6.059157754755702878e-22
4.459154151658862238e-22
3.338412103583092304e-22
2.546346788075583386e-22
1.970089385924927617e-22
1.537718539129570797e-22
1.202955171360662729e-22
9.363616779476911098e-23
7.205520061632609625e-23
5.451661160350964374e-23
4.038041867933705171e-23
