# bin_7_10
9.766654235680776181e-08
1.059577653110092127e-07
1.119859712697580321e-07
1.145179769095534938e-07
1.125166653236157303e-07
1.046482989542978587e-07
9.201716774331515880e-08
7.669271312281341311e-08
6.276925605172629038e-08
5.308789085599091954e-08
4.569290557117454959e-08
3.548482962267321421e-08
2.478545036599181699e-08
1.977266770858149863e-08
1.410361633320107123e-08
1.039650570622888010e-08
7.303168302648758049e-09
5.306783384009347647e-09
3.835630902597137223e-09
2.797831604572913477e-09
2.073776357770952734e-09
1.563233936851115689e-09
1.199669407419496665e-09
9.337310590403639975e-10
7.326663385393093073e-10
5.757939738243429393e-10
4.500026628899628412e-10
3.474712723619184538e-10
2.636163777501874028e-10
1.956377379566716935e-10
1.415697841789346116e-10
