# bin_12_14
3.394361879248864450e-08
3.782747512311856927e-08
4.133054774624509161e-08
4.405323121369301391e-08
4.549947644961430205e-08
4.528303793677606596e-08
4.278017419943716235e-08
3.817027982051281876e-08
3.219628351299842396e-08
2.633796536422407079e-08
2.201978264131145268e-08
1.906538543938576423e-08
1.539918563608150654e-08
1.074727693351428873e-08
8.273762246074951551e-09
6.215962418385781162e-09
4.339395029169454122e-09
3.084573491331323895e-09
2.219519338571228464e-09
1.558412848107149449e-09
1.098815317508083842e-09
7.849398799494170406e-10
5.689775058584767682e-10
4.198315612009404227e-10
3.157710415468704146e-10
2.413485493572671209e-10
1.866565016917635671e-10
1.451246461636882565e-10
1.126124970791280454e-10
8.661473033516733071e-11
6.565165642191922693e-11
