# bin_13_16
4.258396613048514273e-08
4.763468604576057303e-08
5.228560964919510822e-08
5.604965406582363626e-08
5.831314420432943397e-08
5.853787871479626652e-08
5.596160683076147932e-08
5.049655022245822265e-08
4.307481823826234951e-08
3.531873322458748823e-08
2.926816705574300803e-08
2.529136452954147842e-08
2.097789517989935626e-08
1.494210360924499305e-08
1.105320893137706849e-08
8.679479938716595818e-09
5.851262773214954549e-09
4.321842988984186143e-09
3.052617665092273229e-09
2.126553635303148070e-09
1.493732027818159260e-09
1.057063870449570120e-09
7.584651103828977700e-10
5.531085741890586246e-10
4.114360111001163394e-10
3.115128304280608334e-10
2.392743610998007578e-10
1.853996478345818731e-10
1.438750090763523696e-10
1.110230397878419557e-10
8.464872470359657191e-11
