# bin_19_18
1.955620259414884524e-09
2.215548693190506783e-09
2.469582593083109170e-09
2.698064815279018496e-09
2.874633870017225314e-09
2.966531883743462722e-09
2.949116694811481927e-09
2.780839057996911459e-09
2.476528619964740995e-09
2.084580917833639841e-09
1.704861370974190404e-09
1.428592977407427947e-09
1.238007583923696827e-09
9.941902881184127839e-10
6.892893346850068723e-10
5.350043626135348385e-10
3.962811430066220925e-10
2.770481257699296450e-10
1.924697579181555817e-10
1.373877264516724310e-10
9.458291381261081423e-11
6.485751144703108642e-11
4.487148567224720250e-11
3.131007642293628228e-11
2.216244730905409118e-11
1.598845904487918188e-11
1.176450138720583490e-11
8.828764495401337254e-12
6.730867449794503494e-12
5.181319395484244974e-12
3.997272145679165949e-12
