# bin_19_10
1.690327406970762708e-21
1.902864927403330920e-21
2.104824882058634373e-21
2.277971917347077229e-21
2.398702471875589978e-21
2.440892590505640954e-21
2.380659281054675833e-21
2.193138579206574127e-21
1.910585738449024260e-21
1.580729389493157388e-21
1.295875180194588252e-21
1.106606361321107935e-21
9.484159992390814249e-22
7.133054207339839228e-22
4.976414070811726024e-22
4.051829423975018312e-22
2.722357491600089188e-22
2.059210273083567942e-22
1.399466198116383586e-22
9.741766049332583232e-23
6.831500119944582660e-23
4.790693067014526659e-23
3.378502693176606515e-23
2.410592214232299978e-23
1.753718744556168844e-23
1.300865069163061544e-23
9.825155781139236676e-24
7.530665264699088763e-24
5.820150757074532933e-24
4.502967763772473260e-24
3.462218799102584231e-24
