# bin_3_18
5.094668353412148636e-07
5.243666992173084397e-07
5.197484002131531924e-07
4.894796097489047865e-07
4.358066173898165198e-07
3.676452137539725998e-07
3.013761324617477960e-07
2.520531729982086372e-07
2.166617852142700856e-07
1.741367708409769320e-07
1.242216204599382917e-07
9.515580661387522332e-08
7.198343289781596934e-08
5.149260065679867935e-08
3.784830432642814120e-08
2.773550301163012441e-08
2.039652094395048665e-08
1.523968404668423214e-08
1.159210211500882987e-08
8.976817605157727220e-09
7.058355575592556468e-09
5.606363866715007435e-09
4.465763440287170757e-09
3.541668272305238402e-09
2.777372927950690140e-09
2.140347662824080923e-09
1.612738361882618706e-09
1.183992096006716327e-09
8.454192978830357909e-10
5.874735412690072361e-10
3.981294715100867773e-10
