# bin_15_17
2.475776360406468926e-08
2.784626512715273645e-08
3.076922405823120667e-08
3.325714253790490840e-08
3.496288137327444164e-08
3.551365643786631598e-08
3.454372598583923718e-08
3.173034410461532941e-08
2.756210293462154556e-08
2.276984701193917319e-08
1.868822796979554117e-08
1.599018121988303743e-08
1.365384964815429726e-08
1.018791774238366277e-08
7.153570797590024574e-09
5.814620658000034412e-09
3.892387878978944903e-09
2.945286251350982721e-09
2.012004115397091681e-09
1.398943877036041514e-09
9.813733803942804526e-10
6.887213133025462231e-10
4.868069727914105639e-10
3.483866552389960145e-10
2.542652869932085543e-10
1.891837792714134461e-10
1.432611179304088724e-10
1.100046066831508171e-10
8.509000935618958015e-11
6.582281972673619099e-11
5.055698343822311265e-11
