# bin_9_5
1.640636292102460537e-13
1.781853510036150087e-13
1.885761808326389710e-13
1.931261748607995679e-13
1.901658897808207978e-13
1.772825779049750076e-13
1.562337246248164775e-13
1.303689673871215559e-13
1.066134103558627063e-13
9.002199416305307957e-14
7.767979904472651530e-14
6.068965310173196683e-14
4.220173487098291856e-14
3.367059765431790404e-14
2.413112709946794748e-14
1.774205813572580070e-14
1.241209439662671648e-14
9.048398932116863533e-15
6.533276873637802190e-15
4.758762941151451656e-15
3.522682055236436115e-15
2.651625699750361853e-15
2.032339480930343011e-15
1.580381914469702560e-15
1.239493911654726110e-15
9.741258733158137857e-16
7.616837953763041947e-16
5.886562237278147404e-16
4.471370455151112260e-16
3.323210655378215019e-16
2.408597906962494942e-16
