# bin_2_1
6.677788755105100629e-09
6.521672649179542192e-09
6.034638353264963406e-09
5.283462796419216539e-09
4.399600540547557079e-09
3.609822492518690910e-09
3.054320763385222936e-09
2.605526853395931715e-09
2.013560520510325422e-09
1.434988918001614329e-09
1.132429560381787994e-09
8.226809832412097456e-10
6.092183156027000607e-10
4.435091700558825395e-10
3.296985239321550182e-10
2.470619852769991348e-10
1.883799321832586717e-10
1.464114663587224805e-10
1.156743630945288477e-10
9.247205590405630564e-11
7.426777119191380403e-11
5.946766142803311529e-11
4.713362393020325070e-11
3.673900092481327508e-11
2.801023187176851328e-11
2.080533017808211077e-11
1.502818096766702412e-11
1.055764122501516363e-11
7.228679995153267125e-12
4.838264421236840510e-12
3.176461360277813168e-12
