# bin_4_8
2.208857832346038706e-07
2.314766392538290029e-07
2.344779486883569817e-07
2.273967494296447808e-07
2.085442447962985088e-07
1.809124172265420351e-07
1.496320313343358217e-07
1.229972303828964131e-07
1.049045788812449685e-07
8.895067493496410806e-08
6.684798070693092939e-08
4.779231566414307549e-08
3.817642400492420621e-08
2.678633304136433389e-08
2.009403043018179981e-08
1.435978671362790056e-08
1.049904964370132274e-08
7.744689868412683523e-09
5.792620376821418121e-09
4.410654165008386069e-09
3.415680899631774568e-09
2.684172345759433538e-09
2.126996961366132518e-09
1.687587223604285647e-09
1.331223704070308696e-09
1.037011087246871002e-09
7.930957638548215217e-10
5.926961202208761601e-10
4.314061514083216513e-10
3.054498299038770452e-10
2.105403317761776330e-10
