# bin_7_1
9.881492432709951871e-21
1.041021642450655870e-20
1.060834774270409455e-20
1.037626860011989747e-20
9.600726582785936068e-21
8.401132666339497025e-21
6.976501437011521327e-21
5.712120160792028171e-21
4.847151817957212524e-21
4.159565362021847217e-21
3.191769109468591401e-21
2.238693626444271389e-21
1.802103356093577439e-21
1.271587045641379148e-21
9.537915720787590361e-22
6.743231564839691411e-22
4.942603569025803775e-22
3.635311645909548656e-22
2.707048253232186181e-22
2.051226684929848785e-22
1.581081200613994286e-22
1.238057313336274969e-22
9.790990487367701754e-23
7.765593087988069983e-23
6.133675825410994145e-23
4.791452483831268858e-23
3.679371544329226344e-23
2.763450261464028266e-23
2.022594051802759423e-23
1.439900730033941677e-23
9.974319731425046317e-24
