# bin_20_18
5.033971742894700185e-10
5.709664668846904052e-10
6.373547055984270680e-10
6.975571335619612651e-10
7.448523248337350261e-10
7.708260910721255105e-10
7.689183189516994617e-10
7.283314347753686501e-10
6.513719807467854047e-10
5.505089659487076465e-10
4.504401434461555113e-10
3.760636791435263335e-10
3.259151788019789969e-10
2.647430742674812707e-10
1.845815511592540276e-10
1.411112288692299278e-10
1.065845093053597917e-10
7.325208761007163054e-11
5.177159883883684522e-11
3.677744120709681296e-11
2.524000806336774083e-11
1.726232507314282362e-11
1.189254092322271467e-11
8.262555342161107437e-12
5.815867395806970231e-12
4.170627486783867713e-12
3.050382625694532502e-12
2.276896590130725326e-12
1.728858288155147227e-12
1.327821772439989202e-12
1.023993933132538279e-12
