# bin_10_12
4.385016306295314425e-08
4.845609726560393771e-08
5.239631496462964381e-08
5.512938672813125396e-08
5.606365547482576986e-08
5.464152023856527421e-08
5.032146906912449770e-08
4.382483065711795217e-08
3.626918065828257691e-08
2.974031482042676007e-08
2.537194925847549275e-08
2.170707735172735273e-08
1.635997123520062763e-08
1.147457868355402804e-08
9.300117174274671237e-09
6.349005984131704355e-09
4.792716475400051513e-09
3.312301436040535422e-09
2.355641867897179292e-09
1.685198352225379742e-09
1.212675872794342462e-09
8.834945018850568353e-10
6.538189642301648862e-10
4.933148973120594729e-10
3.783532816831744825e-10
2.935728875911278936e-10
2.290962629764506950e-10
1.785013599636837603e-10
1.379200404534415652e-10
1.050426715593324125e-10
7.848977311457227935e-11
