# bin_8_19
1.930622719942286807e-07
2.111750599647660657e-07
2.254788575469360439e-07
2.334802979401453094e-07
2.331169385476545476e-07
2.213031008629263280e-07
1.984073514554742199e-07
1.682018280978198094e-07
1.377467608694322824e-07
1.146628847487089278e-07
9.908486454715857423e-08
8.099520768982964235e-08
5.728194437481840381e-08
4.331471587451570503e-08
3.331878548167373235e-08
2.308727340282717231e-08
1.687601063405664886e-08
1.216632799852158329e-08
8.668954501253043095e-09
6.244912548279766332e-09
4.562589238170699159e-09
3.390726291643353262e-09
2.565147499330895678e-09
1.973925550726784724e-09
1.537174427781407570e-09
1.204181444928855641e-09
9.424056883113518147e-10
7.316590953016836628e-10
5.601109141909316283e-10
4.206803111294365697e-10
3.087773849361257609e-10
