# bin_8_14
1.359792408245204526e-07
1.486997264724083669e-07
1.587227861259979269e-07
1.642910526331100138e-07
1.639587193813607348e-07
1.555499467170508736e-07
1.393709274744609900e-07
1.180812585447826270e-07
9.668832744906099577e-08
8.052267461921267061e-08
6.959072349067780068e-08
5.680544625899907217e-08
4.013068978657474703e-08
3.040862164799157952e-08
2.333958457716175751e-08
1.619938566375869664e-08
1.182113576383323738e-08
8.529729936734079404e-09
6.080070775717600185e-09
4.380948378344005170e-09
3.202162212294108248e-09
2.380833656939509184e-09
1.802035668308293699e-09
1.387269016734416762e-09
1.080641521244194259e-09
8.466793251292714844e-10
6.626241798899440762e-10
5.143752220766290101e-10
3.936716237714597708e-10
2.955677129947009371e-10
2.168496551466163619e-10
