# bin_18_14
5.511071800415766191e-12
6.217239111278814202e-12
6.894603367219010513e-12
7.485132926420511961e-12
7.912620467402122855e-12
8.087913161648273595e-12
7.939489746656902688e-12
7.369465377628163091e-12
6.467054666750869314e-12
5.376357194905510852e-12
4.399981742328230003e-12
3.735262655608943202e-12
3.220898414254109221e-12
2.474760745950409556e-12
1.712060526856704403e-12
1.382873301467918057e-12
9.539472061384469317e-13
7.092044096922475626e-13
4.785577247676966767e-13
3.371076271880099075e-13
2.351877990929699251e-13
1.639857648101561574e-13
1.149691528922876280e-13
8.142285091976594770e-14
5.872997400957002914e-14
4.319888386247336655e-14
3.238112356610543911e-14
2.467812865570683394e-14
1.901111158468932163e-14
1.470019415331007415e-14
1.132420419762017046e-14
