# bin_1_6
5.516847248405887317e-07
5.310589071570444590e-07
4.842411184576401813e-07
4.182823844706916324e-07
3.464474914472825104e-07
2.861976244948355018e-07
2.433964619608631069e-07
2.032735387933420327e-07
1.530651462669788042e-07
1.118201555534068034e-07
8.714683513740006296e-08
6.304191061892899361e-08
4.678840426225659236e-08
3.430120180125229722e-08
2.554050661978014674e-08
1.926327950476376948e-08
1.479472196784959743e-08
1.157461573245561024e-08
9.191943607799485079e-09
7.369748147226383936e-09
5.921270484217999325e-09
4.731704940145717161e-09
3.734590095357128750e-09
2.893551657207299444e-09
2.190094412517572411e-09
1.614109888997327694e-09
1.157006284818100309e-09
8.072114033598296790e-10
5.494062632640006771e-10
3.659267807486857986e-10
2.392972818314925671e-10
