# bin_6_4
2.408340328823225771e-10
2.558150688571570415e-10
2.632752774404163698e-10
2.609528374212755546e-10
2.454219781431925205e-10
2.181138105840433042e-10
1.834175889671688097e-10
1.500298167438823308e-10
1.256850708926448157e-10
1.085404989197418621e-10
8.692747348935398778e-11
6.100240521140048919e-11
4.739015208193030210e-11
3.544654702840927392e-11
2.534385086146845992e-11
1.830298266359289618e-11
1.342843367938369906e-11
9.764851395047737061e-12
7.191788222083298737e-12
5.393183946155657611e-12
4.117873009613532072e-12
3.197343542815483829e-12
2.514181475084406491e-12
1.988777361333154335e-12
1.571573688305874901e-12
1.231986110026821109e-12
9.518956718852527570e-13
7.210043635106490618e-13
5.331023200356055277e-13
3.836898046155529998e-13
2.686537306795400245e-13
