# bin_14_8
2.198881198706659862e-16
2.445255394198575558e-16
2.664705424251291327e-16
2.830958226978338588e-16
2.911827030556568947e-16
2.883187131656548383e-16
2.705497252848045515e-16
2.398708983702539236e-16
2.011145819816421038e-16
1.644194951251664739e-16
1.382168099056089353e-16
1.196398139415348278e-16
9.497324631669905263e-17
6.579240429485523619e-17
5.178117817135437661e-17
3.779398503789192028e-17
2.706900055827709969e-17
1.881874331729165092e-17
1.361919210261845622e-17
9.612996963540302963e-18
6.809022894752044709e-18
4.892472154295665412e-18
3.566537921395905092e-18
2.648578172977474859e-18
2.003761192749058947e-18
1.538844695942663558e-18
1.193979829000440136e-18
9.295468006784046416e-19
7.209189775865245055e-19
5.532741961313466900e-19
4.178917144142783843e-19
