# bin_9_8
2.804154992659203874e-09
3.070162535747088742e-09
3.281983563173930485e-09
3.403417001769827465e-09
3.404269176824026326e-09
3.239123449128383805e-09
2.909935486735927470e-09
2.471460123917208690e-09
2.024001958708368314e-09
1.681725532414061978e-09
1.453846093786364923e-09
1.195164260117433167e-09
8.463072247602061214e-10
6.358364974001923962e-10
4.936278675444990526e-10
3.391274472207019486e-10
2.495734274033631403e-10
1.796998459830499178e-10
1.278132595026040877e-10
9.193767265123246709e-11
6.705185293234014849e-11
4.975606755313459876e-11
3.758485177875905237e-11
2.888751214703242815e-11
2.247791393480090738e-11
1.760294081511052242e-11
1.377876804139790925e-11
1.070413893718274015e-11
8.202607726102882397e-12
6.168754463968450862e-12
4.534766956917259834e-12
