# bin_7_13
1.590639823007814674e-07
1.726721039904439920e-07
1.826342253668268762e-07
1.869337374769833609e-07
1.838926787263349751e-07
1.712911170581265732e-07
1.508333132097418834e-07
1.258584932085521404e-07
1.029969493212059507e-07
8.700699303777639286e-08
7.493648303208615919e-08
5.843122462066834279e-08
4.080849173526607459e-08
3.245167463444408246e-08
2.327554926920355265e-08
1.708034066316969967e-08
1.202038214766389272e-08
8.737097110588780645e-09
6.308182872159179824e-09
4.596394270349728533e-09
3.403284640371044942e-09
2.562785849083183530e-09
1.964783994580641788e-09
1.528062493724402548e-09
1.198439462951940968e-09
9.416878843850067965e-10
7.360823739583133992e-10
5.686251349185591780e-10
4.317020667778413664e-10
3.206716184181932881e-10
2.322956010714961175e-10
