# bin_18_17
1.994588992743609700e-09
2.255388945259964833e-09
2.508110574272259850e-09
2.732296780850794853e-09
2.900705039247424292e-09
2.980164295784528677e-09
2.945909263981158897e-09
2.757803633273422072e-09
2.439497774222338365e-09
2.041040732081121447e-09
1.668972139491635575e-09
1.406865858927751710e-09
1.217692857228664412e-09
9.586821862335094682e-10
6.617771055193232115e-10
5.248462120609485931e-10
3.761233050700723606e-10
2.709067666060217319e-10
1.842871174247382718e-10
1.314392393518238711e-10
9.100315360946078181e-11
6.283933864905396784e-11
4.375475165608912092e-11
3.073933210589153660e-11
2.195121463874936865e-11
1.598275583962462720e-11
1.186657872239395797e-11
8.974304759422717436e-12
6.879235827725680168e-12
5.309680620046158702e-12
4.095488218428248484e-12
