# bin_19_16
7.623554002684941401e-11
8.625576897653778604e-11
9.599152128109760999e-11
1.046661055440208878e-10
1.112421602556576440e-10
1.144464645451640106e-10
1.133348647646245370e-10
1.063369896320892039e-10
9.426070609646501448e-11
7.900650728153240808e-11
6.460037832488154483e-11
5.435400994154186631e-11
4.707350651009412078e-11
3.729571598763948398e-11
2.575888280058792649e-11
2.030652294577615718e-11
1.470379051574139789e-11
1.049318401786472330e-11
7.173236505248905512e-12
5.125143037511307340e-12
3.541748878864490166e-12
2.439514846058347405e-12
1.695403465402114111e-12
1.188583883580872171e-12
8.464867990489528585e-13
6.146078781956756064e-13
4.550965422143400749e-13
3.433998165342507481e-13
2.628279322187980523e-13
2.027237709098499627e-13
1.563950496605478414e-13
