# bin_15_5
6.742086413593352286e-29
7.484867725649518493e-29
8.139717669602441706e-29
8.625284061207438610e-29
8.843791454572446866e-29
8.720577693479139435e-29
8.140819577202806070e-29
7.182827402962311339e-29
5.997404826387402420e-29
4.903844652557635534e-29
4.139970519842315152e-29
3.578277002703490932e-29
2.800044914356691372e-29
1.937560151293782766e-29
1.545890150634775434e-29
1.102921547869981516e-29
8.061160450125150476e-30
5.547935916864388119e-30
4.003953225155183265e-30
2.838783942565025304e-30
2.021219355623219129e-30
1.458257626007615306e-30
1.067461876176215593e-30
7.964003429184086630e-31
6.049900908467503533e-31
4.661224092337248491e-31
3.623864712741105819e-31
2.822934655476977563e-31
2.187713620330002750e-31
1.675767388862813679e-31
1.262126968802788267e-31
