# bin_7_20
2.405066578947898534e-07
2.611678413939326357e-07
2.763486325297454931e-07
2.829932246077558444e-07
2.785735492129302612e-07
2.596941465583545594e-07
2.288547878666858207e-07
1.910790102850767435e-07
1.563607927187392124e-07
1.320018979968177438e-07
1.137291087449083489e-07
8.887107845704858289e-08
6.206437297367525713e-08
4.927092192816880017e-08
3.544292378851194426e-08
2.594680597602161068e-08
1.827816099142322395e-08
1.328764619139666583e-08
9.588174888745301899e-09
6.982288322479662328e-09
5.166940464943988136e-09
3.888729850112741435e-09
2.979730808911111536e-09
2.316456025174385448e-09
1.816295173773349816e-09
1.427051203999858238e-09
1.115571085831188592e-09
8.619893840658315250e-10
6.546713237415576940e-10
4.865325807342067416e-10
3.526467170614079790e-10
