# bin_19_9
1.531600925048097915e-24
1.722665028353381573e-24
1.903494121454812394e-24
2.057408349396887763e-24
2.162933801159909925e-24
2.196970753394122780e-24
2.136937164452684998e-24
1.962653641999968184e-24
1.704648238923896353e-24
1.407944032542071982e-24
1.155375115072406307e-24
9.887953401205837501e-25
8.446395533645968009e-25
6.298608440859364045e-25
4.418121937772552902e-25
3.598805818177512428e-25
2.401403107472510086e-25
1.822029464655110317e-25
1.244377980021186523e-25
8.638701641449276963e-26
6.063854878023161523e-26
4.257334753064794712e-26
3.009507758108658945e-26
2.153993791430963654e-26
1.572359918838351952e-26
1.170139388471414477e-26
8.862896316466321796e-27
6.806903037653557954e-27
5.266201405812534125e-27
4.074339560137422684e-27
3.129678044868817590e-27
