# bin_8_6
2.754178576001897036e-10
2.986159802603571444e-10
3.153609185686307949e-10
3.221679782127849682e-10
3.161365689495467228e-10
2.935138187642323456e-10
2.576573723076252389e-10
2.143865679124765673e-10
1.754266417636097161e-10
1.486019950943697313e-10
1.279180662382077676e-10
9.883651554855666481e-11
6.888650043073744024e-11
5.533331225897738019e-11
3.909939789803590243e-11
2.907221276300395348e-11
2.030056333991415852e-11
1.475775064031610425e-11
1.068535513660289197e-11
7.807080835460908075e-12
5.794913330808912499e-12
4.373833090290843489e-12
3.361010700955610534e-12
2.618683505715040437e-12
2.056246998685435657e-12
1.616514740612015481e-12
1.263274553285330091e-12
9.750269965308721852e-13
7.391701092101886374e-13
5.479924311588822594e-13
3.960367487157264075e-13
