# bin_18_5
2.503081483107627205e-38
2.800151741645974777e-38
3.073798078844493662e-38
3.295401698856316140e-38
3.428902591074779539e-38
3.442657045023852286e-38
3.291556785849968642e-38
2.970145663893377440e-38
2.533513299027701615e-38
2.076841676516858726e-38
1.720656730320241264e-38
1.487510215362668839e-38
1.234608449941448768e-38
8.784127328032326943e-39
6.497424279173161384e-39
5.109185651307196019e-39
3.436970276149191750e-39
2.542724864688076919e-39
1.796577479973142093e-39
1.251224132266933197e-39
8.785542379711809301e-40
6.214747108928457124e-40
4.459157396587446377e-40
3.252015598358377801e-40
2.419256536281148962e-40
1.831917721146624254e-40
1.407320252990845089e-40
1.090641879411932317e-40
8.465201126517235516e-41
6.533381034086629605e-41
4.982026996375469195e-41
