# bin_2_15
6.084603334703718751e-07
6.104267821150535116e-07
5.845984674901766213e-07
5.296147666574651402e-07
4.542984248069501162e-07
3.744284899031493795e-07
3.098427478179347575e-07
2.650089662079611700e-07
2.200424168407208110e-07
1.622933216629713205e-07
1.193565694231261498e-07
9.342389220596959575e-08
6.636536815910057798e-08
4.955688497431719811e-08
3.606908723525904833e-08
2.667326366995440765e-08
1.999966541763978171e-08
1.525536406268280070e-08
1.185190746529239764e-08
9.350400461139944503e-09
7.455374671655903495e-09
5.963735760815745313e-09
4.750680584013114798e-09
3.742459530432761142e-09
2.897304887048439230e-09
2.192988482856811497e-09
1.617073734128592182e-09
1.159723066216804299e-09
8.093014640496881753e-10
5.507208181341301083e-10
3.665862638322369532e-10
