# bin_1_9
6.683779410702237452e-07
6.440503618068311085e-07
5.879254543001235969e-07
5.083766308737731500e-07
4.212949196416273902e-07
3.478914759755756273e-07
2.957277817287834015e-07
2.473078888736066182e-07
1.866282285024981421e-07
1.361687560481098517e-07
1.061343553617849043e-07
7.685833395623802260e-08
5.700100623268548670e-08
4.178680518356923471e-08
3.110457594826520299e-08
2.344687243528969592e-08
1.799736474933249362e-08
1.407250270073764987e-08
1.117077231143794724e-08
8.953886721105547001e-09
7.193554110901852427e-09
5.749090511007053150e-09
4.538933023884604736e-09
3.518336771692829214e-09
2.664492509355526195e-09
1.964981515903797595e-09
1.409417860445702346e-09
9.839036955746060823e-10
6.700234847675730454e-10
4.464631863289087697e-10
2.920712222413962219e-10
