# bin_7_18
2.227259259492798275e-07
2.418472706888991570e-07
2.558887113591076447e-07
2.620213210350776863e-07
2.579026283827189767e-07
2.403938171678506161e-07
2.118209809902745383e-07
1.768399346926603318e-07
1.447102901581315452e-07
1.221785189018041063e-07
1.052598239331007565e-07
8.222538811127219177e-08
5.742374606102046229e-08
4.559890974455628508e-08
3.278651809433033330e-08
2.401106131038630849e-08
1.691195007254815035e-08
1.229416112682648884e-08
8.872080398151578022e-09
6.461395100394475124e-09
4.781895547716835127e-09
3.599247062189502091e-09
2.758145555645028600e-09
2.144332343766393065e-09
1.681403655815259339e-09
1.321085694678584898e-09
1.032720336871725544e-09
7.979415037096261835e-10
6.059922219007250359e-10
4.503214784105493212e-10
3.263714172313556095e-10
