# bin_12_6
2.679453092802880427e-17
2.952336409150875271e-17
3.181010271962173512e-17
3.331933218691046971e-17
3.371175264186050113e-17
3.260961913128027295e-17
2.978002810036303710e-17
2.571906330849472982e-17
2.118365828070673425e-17
1.742027018226053327e-17
1.495160897055372993e-17
1.267333747667364457e-17
9.328045536890682826e-18
6.646450390508480958e-18
5.388131292259986287e-18
3.616328804312979333e-18
2.753123348084866678e-18
1.923995437691556595e-18
1.359927056438245049e-18
9.760382718587288766e-19
7.054166782366804095e-19
5.170395974456726523e-19
3.852978757976852854e-19
2.926629288845234934e-19
2.256936257934408271e-19
1.757913336139760131e-19
1.374234232958133490e-19
1.070363428631146062e-19
8.251743362329445112e-20
6.260767056015061255e-20
4.654219435135234636e-20
