# bin_20_15
5.345347523497109988e-13
6.050729399119310803e-13
6.737496247720835871e-13
7.351459772105607725e-13
7.820108825289348440e-13
8.053979362580244612e-13
7.986738148389268409e-13
7.506659743730805712e-13
6.664968312953479414e-13
5.594414711173232876e-13
4.574408348877271703e-13
3.843337915711131259e-13
3.329641303765351271e-13
2.650799090790022890e-13
1.832404568460209368e-13
1.437217494564728097e-13
1.049059076452882107e-13
7.432160807395191693e-14
5.105185155176854133e-14
3.649608843050164105e-14
2.518569422468522800e-14
1.731640002372021154e-14
1.201618180700109006e-14
8.410367960017907737e-15
5.977036781435371444e-15
4.330171535526402577e-15
3.199474139809505026e-15
2.409801797739532390e-15
1.842031689382961054e-15
1.419926998813149231e-15
1.095515144699089587e-15
