# bin_12_1
9.227546320173481843e-40
1.006523057371560213e-39
1.070967821404787348e-39
1.104040907522557311e-39
1.096494903380811164e-39
1.033297122445948870e-39
9.198656759938515449e-40
7.742846315775511584e-40
6.331136923862808812e-40
5.299474184933115269e-40
4.585807363167650229e-40
3.686557218402255467e-40
2.572901144280542125e-40
1.995857418975168713e-40
1.493970401622254183e-40
1.057714583604093337e-40
7.555447188322318231e-41
5.511684412484136496e-41
3.946289659353882322e-41
2.850129101359740110e-41
2.093583913441355013e-41
1.564423792314070215e-41
1.190293359495546818e-41
9.202899709369701925e-42
7.190941274095768234e-42
5.643301708723073896e-42
4.416726458240990233e-42
3.423747141381178019e-42
2.613289079655838553e-42
1.954674996591022876e-42
1.427400510612672057e-42
