# bin_6_17
-5.701297827225183790e-41
-6.369214988425450951e-41
-6.979894148350876840e-41
-7.467385057039906689e-41
-7.748786220735106411e-41
-7.755749025138567177e-41
-7.382127457857099797e-41
-6.633377809186410136e-41
-5.633517679903467979e-41
-4.613937560761883032e-41
-3.836332329554126764e-41
-3.321581590981945029e-41
-2.730653191076560581e-41
-1.923692751161942067e-41
-1.446807469989749877e-41
-1.119124518561884241e-41
-7.619390409325224724e-42
-5.550301182384253535e-42
-3.961051856903625833e-42
-2.767110064397181507e-42
-1.943691190541850921e-42
-1.380044689309277264e-42
-9.944226595143180177e-43
-7.287928844981177943e-43
-5.447138158743142699e-43
-4.141562385155010156e-43
-3.191467885766317480e-43
-2.477501274385796682e-43
-1.923422873443787967e-43
-1.482838470574297397e-43
-1.128230261141590779e-43
