# bin_7_13
-7.765588934085881544e-22
-8.600507143757742198e-22
-9.325419608345914448e-22
-9.845426625563768213e-22
-1.005093657213621795e-21
-9.850921245748904086e-22
-9.128619400980658502e-22
-7.999321423409739721e-22
-6.644358897212086055e-22
-5.439344289686925439e-22
-4.621604563288966066e-22
-3.979565754140061519e-22
-3.048101180067913783e-22
-2.116516468546391192e-22
-1.714640746130715060e-22
-1.184942811230366337e-22
-8.894397834470817465e-23
-6.095259304714919202e-23
-4.356496005942838255e-23
-3.110021603803243459e-23
-2.232029552010144522e-23
-1.619739800026433686e-23
-1.193085440309593292e-23
-8.961195478490238325e-24
-6.847180864500506546e-24
-5.299018592749294741e-24
-4.130411470800606243e-24
-3.219286433248307594e-24
-2.491526283073634172e-24
-1.902828519228199669e-24
-1.427018284096911516e-24
