# bin_14_18
-2.135169140732215663e-15
-2.409456971386688160e-15
-2.672880890190690159e-15
-2.903019889983652836e-15
-3.070376975541557903e-15
-3.140263174825604244e-15
-3.085078302271147448e-15
-2.866281859908401973e-15
-2.517793826975316323e-15
-2.094765236668346928e-15
-1.714592389545916363e-15
-1.455056775888286183e-15
-1.255476594358275126e-15
-9.666119153363306428e-16
-6.684029103986942883e-16
-5.396175165588697447e-16
-3.730986216776556863e-16
-2.770951364306636370e-16
-1.867982047624674250e-16
-1.317452944409442163e-16
-9.188586863985330378e-17
-6.404975225490194784e-17
-4.488736983843943740e-17
-3.177226452831876723e-17
-2.290226350633016844e-17
-1.683475218628338399e-17
-1.261161267123626411e-17
-9.607373589066257345e-18
-7.399566751143827467e-18
-5.721752633976137850e-18
-4.408729227344215496e-18
