# bin_20_17
-9.514385823971214456e-11
-1.075747316220792609e-10
-1.196156691164069017e-10
-1.302893824468519773e-10
-1.382952488584222938e-10
-1.420537507763038833e-10
-1.403757992137952166e-10
-1.313617808080078771e-10
-1.161707437867561477e-10
-9.718345158415695437e-11
-7.949768929282158841e-11
-6.706071519693873207e-11
-5.803162447949124219e-11
-4.561320142326663048e-11
-3.150186991265866610e-11
-2.502234482474906715e-11
-1.788248261456568996e-11
-1.291489280495120195e-11
-8.778700639265183342e-12
-6.257057921118313623e-12
-4.334884124003153417e-12
-2.995945822246081466e-12
-2.087343319562424614e-12
-1.467485442224131908e-12
-1.048855085929886623e-12
-7.643462202844186305e-13
-5.679700526717774052e-13
-4.298326933607500660e-13
-3.296413183327022251e-13
-2.544841506990041346e-13
-1.962806348030988951e-13
