# bin_12_5
-1.080755633271134196e-09
-1.150355313292280519e-09
-1.186983717407594864e-09
-1.180254612696287432e-09
-1.114768581198677093e-09
-9.949226206300922181e-10
-8.401163002693021413e-10
-6.878919015506198261e-10
-5.746362318062366009e-10
-4.960871105235957523e-10
-4.010716475400381157e-10
-2.832490829084373083e-10
-2.172784126861316995e-10
-1.648676143345090229e-10
-1.166189422688508148e-10
-8.506042595079786434e-11
-6.211878755951390254e-11
-4.506082394447707954e-11
-3.313417281343840649e-11
-2.478494695461763720e-11
-1.887728902154310405e-11
-1.462314611644488747e-11
-1.147926775360483466e-11
-9.071893999243745598e-12
-7.167818946328385828e-12
-5.622694106573841910e-12
-4.350332583302178735e-12
-3.301696742236128107e-12
-2.447339911933878377e-12
-1.766402841199589370e-12
-1.240398515076467472e-12
