# bin_11_20
-1.606627289023149458e-27
-1.813194873035498140e-27
-2.011663329703965029e-27
-2.185181335157982025e-27
-2.311563136576483793e-27
-2.364655017135994602e-27
-2.323772047889042240e-27
-2.159697890513604276e-27
-1.897733186140926144e-27
-1.579222921230454739e-27
-1.292523988684442206e-27
-1.096585594597061335e-27
-9.464191522881869616e-28
-7.293420202913301878e-28
-5.041623769471530722e-28
-4.068657863999073525e-28
-2.816606092500889872e-28
-2.090186231236350850e-28
-1.408506373493383381e-28
-9.940409714704548662e-29
-6.931068192648135194e-29
-4.830020704065506773e-29
-3.384126437045055318e-29
-2.394588903891426788e-29
-1.725433740315425924e-29
-1.267841146742497598e-29
-9.494715228832232693e-30
-7.231108755586625480e-30
-5.568565364790871392e-30
-4.305817131661286897e-30
-3.318017149938935762e-30
