# bin_20_15
-1.815289669369231586e-10
-2.043370580653845789e-10
-2.260016622288533569e-10
-2.445618594209526277e-10
-2.574806937824299654e-10
-2.619721733364781080e-10
-2.554256631369981709e-10
-2.352497699680847337e-10
-2.049004584660230404e-10
-1.695555221343306875e-10
-1.390813494510211817e-10
-1.188194695598142869e-10
-1.017487923785574607e-10
-7.644413680239620655e-11
-5.343814300591221451e-11
-4.346354956951129058e-11
-2.922158923184981727e-11
-2.208356327037957179e-11
-1.503168755974560806e-11
-1.046693394653557167e-11
-7.339594010753308096e-12
-5.146779016916647923e-12
-3.631322377596514771e-12
-2.592571928232024096e-12
-1.887244943974971084e-12
-1.400689071954595668e-12
-1.058399842804678492e-12
-8.114740297530469231e-13
-6.272300051036944276e-13
-4.852478971746506954e-13
-3.730134290088761117e-13
