# bin_19_1
-3.818208539047677198e-09
-3.685552498614620050e-09
-3.369176236220272991e-09
-2.916405972765270061e-09
-2.416144037733005340e-09
-1.993145981308773612e-09
-1.696091985953091496e-09
-1.423745172937259171e-09
-1.073692442839809222e-09
-7.803161021012084805e-10
-6.119180357654626265e-10
-4.409747470222206663e-10
-3.281613703037250918e-10
-2.399939664412936109e-10
-1.786597845112580655e-10
-1.346415109221759654e-10
-1.033091040478834335e-10
-8.076266941267599731e-11
-6.410568785635137953e-11
-5.139208904678591747e-11
-4.130216078668441065e-11
-3.302443726342015263e-11
-2.608804068577158912e-11
-2.023450754295046973e-11
-1.533288306863148290e-11
-1.131290661499735982e-11
-8.117116520029725815e-12
-5.667626932687579926e-12
-3.859948831122944834e-12
-2.572120778954285414e-12
-1.682640237958309681e-12
