# bin_11_17
-7.534975171072088642e-20
-8.464159353581729952e-20
-9.338297607611728627e-20
-1.007421325814206291e-19
-1.056557484166023918e-19
-1.070353048912641012e-19
-1.036851156583820603e-19
-9.481221620694585097e-20
-8.198817853764845005e-20
-6.757701475334851376e-20
-5.557241657805386813e-20
-4.772005710773625537e-20
-4.052555283131503586e-20
-2.983070559284673934e-20
-2.115134694254322867e-20
-1.719010213913485923e-20
-1.139550946882128956e-20
-8.657764658225629002e-21
-5.963901492269516227e-21
-4.131599841265758704e-21
-2.902326997938405195e-21
-2.040218846359094960e-21
-1.447645134598853830e-21
-1.041234360140357729e-21
-7.640291078645790754e-22
-5.713796195965410299e-22
-4.345909580810082613e-22
-3.347451669381811114e-22
-2.593327120706685183e-22
-2.006006313809366506e-22
-1.538456684816185111e-22
