# bin_11_19
-9.069361727728517736e-25
-1.022027374897459033e-24
-1.131893756425983526e-24
-1.226857405910597901e-24
-1.294309246272891332e-24
-1.319895759152300160e-24
-1.291294005935730908e-24
-1.193782530034951917e-24
-1.043666098854589916e-24
-8.654415093034937820e-25
-7.090371481205817525e-25
-6.041145181416913076e-25
-5.194409386428646073e-25
-3.943243613400950259e-25
-2.738555341868802537e-25
-2.226098663367250215e-25
-1.509242842580093230e-25
-1.136452095285386159e-25
-7.687379682578466526e-26
-5.370916843272122840e-26
-3.761856932506709091e-26
-2.634445870718206000e-26
-1.853381061531006275e-26
-1.318173950467363355e-26
-9.555519447514057205e-27
-7.063386351120163664e-27
-5.318442039768322525e-27
-4.067310116368707327e-27
-3.139788877848346571e-27
-2.429116940656632776e-27
-1.869542785428190933e-27
