# bin_1_6
-1.032856801653060576e-22
-1.077155136191354459e-22
-1.085058369192920014e-22
-1.043550955112680235e-22
-9.478921853694424685e-23
-8.144121399065139192e-23
-6.695961029094333788e-23
-5.521078061483210838e-23
-4.745588355799004146e-23
-3.986816448870670499e-23
-2.910789504608239929e-23
-2.114440320426986158e-23
-1.698158138276303020e-23
-1.163378530737637646e-23
-8.862486571089294221e-24
-6.372497179593082379e-24
-4.636013813481756536e-24
-3.436077049448189689e-24
-2.584544922928789586e-24
-1.979787344801275082e-24
-1.541982195857479905e-24
-1.217369044935591145e-24
-9.674406060213478996e-25
-7.683510198246424630e-25
-6.055731837413388589e-25
-4.704813530052962160e-25
-3.582931683945498737e-25
-2.662652477086556864e-25
-1.925347875969364691e-25
-1.353862836341604283e-25
-9.270506968260054718e-26
