# bin_8_1
-2.931029509023048048e-09
-2.826491099166501140e-09
-2.581197458359556085e-09
-2.232126695697503183e-09
-1.848314002856409786e-09
-1.525310024549425814e-09
-1.298596441555062231e-09
-1.088704975128008172e-09
-8.192822585114962679e-10
-5.962281912405417068e-10
-4.674648225226870657e-10
-3.365441709682222210e-10
-2.506137736858367987e-10
-1.833041375626999579e-10
-1.364865713123123831e-10
-1.029115208088496780e-10
-7.900573268539356961e-11
-6.179445069514841879e-11
-4.906924995173037130e-11
-3.934742730527451369e-11
-3.162424098047795788e-11
-2.528326713819184765e-11
-1.996728537506591998e-11
-1.548064251442278941e-11
-1.172445609686168289e-11
-8.645501811769356881e-12
-6.199563389362090821e-12
-4.326345302475253721e-12
-2.945035137515197586e-12
-1.961656098496820688e-12
-1.282856255133304061e-12
