# bin_5_12
-1.178926477472751542e-26
-1.296445824598174284e-26
-1.393464537469741367e-26
-1.455074349013980527e-26
-1.467143042423385943e-26
-1.411755530108199367e-26
-1.282292569385759675e-26
-1.101341024735149614e-26
-9.050660993896975955e-27
-7.465932139253916408e-27
-6.431326709572718433e-27
-5.404952340631254237e-27
-3.917543039911713582e-27
-2.837825677226284769e-27
-2.280826258966982024e-27
-1.530450816583565154e-27
-1.159863278608442388e-27
-8.191047743410948258e-28
-5.790866573469373810e-28
-4.158314748866276068e-28
-3.011722466100661304e-28
-2.216647522640142114e-28
-1.659801167852492141e-28
-1.266207863489911159e-28
-9.798039521589229786e-29
-7.648730728147088687e-29
-5.984248607993795491e-29
-4.658399847687900131e-29
-3.584895654387713026e-29
-2.712333462382008316e-29
-2.008961527841926515e-29
