# bin_14_12
-1.250990093207430334e-10
-1.394767460038605439e-10
-1.524777024557559458e-10
-1.626328165583464823e-10
-1.681111909491772712e-10
-1.674867218021204735e-10
-1.584334991840365965e-10
-1.415450009911048565e-10
-1.195323839121700719e-10
-9.781671079580968960e-11
-8.172762026399251577e-11
-7.078187560133935767e-11
-5.733877928694781590e-11
-4.004653233736270614e-11
-3.074571322592178304e-11
-2.320302515991885961e-11
-1.613542718074097558e-11
-1.149992186079112442e-11
-8.278153986744212689e-12
-5.808188383915589309e-12
-4.091474388438173712e-12
-2.920514198567104311e-12
-2.115448099075920058e-12
-1.559596751457942666e-12
-1.172121452379356039e-12
-8.953182857206079684e-13
-6.921702358413276855e-13
-5.381122844964080634e-13
-4.176381985242674250e-13
-3.213593006018661413e-13
-2.437308355980838642e-13
