# bin_10_12
-5.252285361285553839e-13
-5.832696576880563233e-13
-6.345318864365278566e-13
-6.726851288464463407e-13
-6.900966847580773808e-13
-6.809536940629794692e-13
-6.362214594779257479e-13
-5.618504295678847253e-13
-4.694914937512878307e-13
-3.839810111240667639e-13
-3.240708482935444580e-13
-2.801931870205912423e-13
-2.196580798301538672e-13
-1.520125309490778098e-13
-1.211554896559933621e-13
-8.666431995201198668e-14
-6.322290508575022345e-14
-4.352689895808020436e-14
-3.144865532424273709e-14
-2.228703932014141622e-14
-1.585966790304890440e-14
-1.143871098737944654e-14
-8.370342605720012846e-15
-6.242336936705856627e-15
-4.740358530642538890e-15
-3.651330317612200134e-15
-2.838366908554603863e-15
-2.211089044305744399e-15
-1.713813944977785100e-15
-1.313119055000402022e-15
-9.893479868537019989e-16
