# bin_18_7
-9.284660310829299648e-10
-1.008484867966274511e-09
-1.067429202715509726e-09
-1.093433031242207392e-09
-1.076850553043353633e-09
-1.004277856674276248e-09
-8.854367418100560032e-10
-7.394090086742873189e-10
-6.050564387966922356e-10
-5.108805021177492021e-10
-4.405358140206204610e-10
-3.444091524907222404e-10
-2.400958296279713966e-10
-1.910313635394724388e-10
-1.372533118290398265e-10
-1.006590025610556685e-10
-7.070115206858699057e-11
-5.147326665631862725e-11
-3.715312374404175107e-11
-2.705703129982042771e-11
-2.002500585083732179e-11
-1.507212968240303882e-11
-1.155032674981570620e-11
-8.980491385907763582e-12
-7.042582268977670522e-12
-5.534317272040644463e-12
-4.327160167812844966e-12
-3.344160462069625787e-12
-2.540274964195297453e-12
-1.888118822872247475e-12
-1.368648008570341067e-12
