# bin_16_11
-3.039370810176010603e-10
-3.377323228667244108e-10
-3.676944835338753780e-10
-3.901752626087469333e-10
-4.007566298145181382e-10
-3.960521727937651317e-10
-3.707749477832669337e-10
-3.280513569623577977e-10
-2.746090856651521679e-10
-2.246213455838797978e-10
-1.892576747828482707e-10
-1.636631980658048589e-10
-1.290206833356918363e-10
-8.944040373690178139e-11
-7.081214084119552723e-11
-5.113333612613119663e-11
-3.697665501071271840e-11
-2.562499438687644875e-11
-1.850275498958841471e-11
-1.308971637354829198e-11
-9.297179703930074032e-12
-6.693773690748387713e-12
-4.890027669933293562e-12
-3.639927825024985234e-12
-2.759441407421690844e-12
-2.122611614936180293e-12
-1.648545745184492584e-12
-1.283789128158809116e-12
-9.952633661408114993e-13
-7.630826857002217483e-13
-5.755410082150389990e-13
