# bin_12_4
-1.439573880187075311e-09
-1.510483488474054197e-09
-1.532260097220673216e-09
-1.488872790258682403e-09
-1.368076784178788678e-09
-1.189101645578668824e-09
-9.842894117438487028e-10
-8.084567253332311659e-10
-6.892133771236630573e-10
-5.862423804043992831e-10
-4.420539970420554018e-10
-3.145712609814212682e-10
-2.523393658517782689e-10
-1.766913191610875870e-10
-1.329313284231842742e-10
-9.471380008816013236e-11
-6.924891082828699007e-11
-5.106882257211767054e-11
-3.817074785340028047e-11
-2.904094263265580330e-11
-2.247274365382916437e-11
-1.765111681164217634e-11
-1.398429588246538958e-11
-1.109651570763020235e-11
-8.756838572065533621e-12
-6.826016301047733211e-12
-5.225001837002064637e-12
-3.908623688853198081e-12
-2.847897948948470113e-12
-2.018329599873695130e-12
-1.392330713446425476e-12
