# bin_16_15
-4.892835887270730363e-11
-5.503211304143090605e-11
-6.080880428633671385e-11
-6.572532863275273355e-11
-6.909535708504573540e-11
-7.018376877065953012e-11
-6.826102688851252947e-11
-6.269431038059158895e-11
-5.445531365279731745e-11
-4.498888319499296536e-11
-3.693466537452756792e-11
-3.161872633154753886e-11
-2.699791504788626970e-11
-2.012343912291345107e-11
-1.413262453867821923e-11
-1.150510568962703514e-11
-7.680377429041110268e-12
-5.825375519471234853e-12
-3.981477516759000192e-12
-2.764194064529727629e-12
-1.940528235425261997e-12
-1.362602684778075565e-12
-9.634898747876301581e-13
-6.898322254188562843e-13
-5.037247648842782628e-13
-3.749796208978022947e-13
-2.840876499685702777e-13
-2.182207916531238113e-13
-1.688392505853501768e-13
-1.306238670277252620e-13
-1.003275910716542665e-13
