# bin_3_11
-2.643075734593332533e-33
-2.881258992905507427e-33
-3.063369055031172873e-33
-3.154794696920813800e-33
-3.129417847570207341e-33
-2.944064050230906183e-33
-2.616963583666556039e-33
-2.199517149175271404e-33
-1.798574074476015513e-33
-1.508151900460539057e-33
-1.305302825980492546e-33
-1.044536191456049786e-33
-7.270795816470143438e-34
-5.679934224423968736e-34
-4.218312433518879189e-34
-3.007917458590828171e-34
-2.133472263662587880e-34
-1.561426496797960209e-34
-1.119689228361960136e-34
-8.095149546689772296e-35
-5.956450314256410808e-35
-4.457914332686391164e-35
-3.397202540473226979e-35
-2.630007751928897992e-35
-2.056941532424118380e-35
-1.615048266961221019e-35
-1.264054649331999647e-35
-9.794833220973138318e-36
-7.470490454891847182e-36
-5.581645496573708565e-36
-4.070425505141090853e-36
