# bin_2_6
-1.792344287954858831e-18
-1.882354582858594477e-18
-1.911269575612291817e-18
-1.859682115257413625e-18
-1.710270699781208653e-18
-1.487871442028192727e-18
-1.230836742326579723e-18
-1.009442430529831486e-18
-8.609105770527363283e-19
-7.352603855161381706e-19
-5.544933036135723312e-19
-3.915556641241683148e-19
-3.174841153065476314e-19
-2.197777955208373051e-19
-1.672465588496081602e-19
-1.183664433060225186e-19
-8.636163465665687710e-20
-6.377390856134080060e-20
-4.769663360454886838e-20
-3.627956031776920651e-20
-2.806527486180538372e-20
-2.204326697143184519e-20
-1.746651645069833636e-20
-1.386391203656883211e-20
-1.094569405686521897e-20
-8.536955410470285944e-21
-6.538655497489921970e-21
-4.894161574664675864e-21
-3.567643391414100538e-21
-2.529118828423311974e-21
-1.744845476595028071e-21
