# bin_19_12
-3.363931552888195265e-10
-3.752769579214629591e-10
-4.105553188364258297e-10
-4.382955243069081529e-10
-4.535843137484002938e-10
-4.525251280970017826e-10
-4.288716567486774121e-10
-3.838370125092882240e-10
-3.247172315504188028e-10
-2.658068583071439680e-10
-2.217613420521027152e-10
-1.920258080215315809e-10
-1.562479494083593472e-10
-1.094506247112463826e-10
-8.349134111163300545e-11
-6.348298370560390014e-11
-4.387118092598668612e-11
-3.147536031342608915e-11
-2.259237043379416789e-11
-1.583038605191691686e-11
-1.114293467911206339e-11
-7.941145214652025481e-12
-5.742762624291785124e-12
-4.226000405033899903e-12
-3.170626923933123644e-12
-2.418378527295872907e-12
-1.867738570647192916e-12
-1.451334299179914536e-12
-1.126473766230336869e-12
-8.672645850929718732e-13
-6.583910251919379823e-13
