# bin_20_1
-3.857126801054992058e-09
-3.723237307254231309e-09
-3.403742828384480764e-09
-2.946423531655004827e-09
-2.441053268308841491e-09
-2.013668732194783201e-09
-1.713529086444981685e-09
-1.438442516431181054e-09
-1.084852753658143682e-09
-7.883915598452615199e-10
-6.182548222730440120e-10
-4.455558439462330685e-10
-3.315631813850258317e-10
-2.424808016279376857e-10
-1.805098136138578355e-10
-1.360334231086381917e-10
-1.043752298567324521e-10
-8.159475598491605627e-11
-6.476529743681441554e-11
-5.192045717555848572e-11
-4.172670607773591298e-11
-3.336402235362363147e-11
-2.635654236297855352e-11
-2.044304727255705924e-11
-1.549117538961799757e-11
-1.142991872743166574e-11
-8.201234582489487942e-12
-5.726465460506822425e-12
-3.900083706564011571e-12
-2.598900269401379001e-12
-1.700177715876667809e-12
