# bin_8_13
-1.016817023624968779e-18
-1.128151361325858053e-18
-1.225925048508953610e-18
-1.297821863196939733e-18
-1.329165216205709423e-18
-1.308572863637950163e-18
-1.219173459859825940e-18
-1.073822154550695230e-18
-8.953365733497476511e-19
-7.323886342726826663e-19
-6.195641172067292445e-19
-5.351475626509108001e-19
-4.161815211399154124e-19
-2.880464527163533470e-19
-2.311616751459517281e-19
-1.632767575796308031e-19
-1.204516033699832575e-19
-8.258505890260131363e-20
-5.949821858135600870e-20
-4.227465197334648872e-20
-3.017778802147459072e-20
-2.181323471421832778e-20
-1.599811686259036407e-20
-1.196088791569394626e-20
-9.103018471989392843e-21
-7.023756215290912722e-21
-5.465585158176713284e-21
-4.258843202403701534e-21
-3.299555267474557814e-21
-2.525414978951953384e-21
-1.899758305717183643e-21
