# bin_7_3
-1.266591693023856903e-09
-1.302902568819280316e-09
-1.290635597458217954e-09
-1.214094158617267739e-09
-1.079739122236090513e-09
-9.095864964581657283e-10
-7.452586605074346663e-10
-6.240295016663930952e-10
-5.371257095958498951e-10
-4.305520029293203910e-10
-3.056364014665547591e-10
-2.356354472217400727e-10
-1.774535651477108325e-10
-1.272674720041607749e-10
-9.322057619240368260e-11
-6.851766068008740701e-11
-5.041091502449481660e-11
-3.768588988422073194e-11
-2.869284936599467299e-11
-2.224168975387832049e-11
-1.750498387439450683e-11
-1.391383055390499346e-11
-1.108781781254608205e-11
-8.794585487889567142e-12
-6.895547505731829518e-12
-5.311536625647441570e-12
-3.999265861037820758e-12
-2.933226698104355003e-12
-2.092088234185209018e-12
-1.452091653727633156e-12
-9.830136294387353200e-13
