# bin_8_11
-1.737345594795305653e-10
-1.918723006267184465e-10
-2.073256936028217119e-10
-2.179437431826555879e-10
-2.213997451495640072e-10
-2.154508911651539962e-10
-1.980276685504459796e-10
-1.721356702568616630e-10
-1.422422033855586837e-10
-1.166577939891596112e-10
-9.969716207309009777e-11
-8.522206094790508090e-11
-6.383768353638234357e-11
-4.480557246624543938e-11
-3.649424348327749561e-11
-2.465647450319527191e-11
-1.876575735023382260e-11
-1.297254188218119701e-11
-9.189445625932184169e-12
-6.587226686727929993e-12
-4.749601199471302102e-12
-3.465402215635395620e-12
-2.568669178487658144e-12
-1.941424865428696372e-12
-1.491187827913106749e-12
-1.158334255006311539e-12
-9.045147859848318928e-13
-7.048519637072285961e-13
-5.444259430693095344e-13
-4.143383124269940557e-13
-3.092662456808369103e-13
