# bin_8_15
-2.923697208341049162e-19
-3.260307501364524730e-19
-3.565002721299586093e-19
-3.803496361699943382e-19
-3.932932390835585598e-19
-3.920144379445698668e-19
-3.710217134685805530e-19
-3.315883975068350404e-19
-2.800702304427438715e-19
-2.290865044326072040e-19
-1.912418111801883941e-19
-1.656799863982535975e-19
-1.344974724984058367e-19
-9.386131967567421595e-20
-7.191867216225443752e-20
-5.445827504055540412e-20
-3.772661369328393515e-20
-2.693155529387751028e-20
-1.940357748324083412e-20
-1.360418868230367685e-20
-9.571847160693120393e-21
-6.827861838180841854e-21
-4.942720143350389264e-21
-3.641459668293884757e-21
-2.735109524918274927e-21
-2.088219660795970703e-21
-1.613953693094578653e-21
-1.254656659552630640e-21
-9.738943095089583544e-22
-7.496079397844163330e-22
-5.687731226823228869e-22
