# bin_19_12
-7.079370047506353672e-17
-7.986880901335553998e-17
-8.857526433717775954e-17
-9.616808023202995643e-17
-1.016684247021873166e-16
-1.039279228175483882e-16
-1.020336146834513004e-16
-9.471785668564333718e-17
-8.312927188510176062e-17
-6.910698805947341955e-17
-5.655096809234936772e-17
-4.800649891532465343e-17
-4.140986109196703063e-17
-3.182149310227574710e-17
-2.200014288398941842e-17
-1.778233147293507035e-17
-1.225949085843225445e-17
-9.123900450491334746e-18
-6.147492451742640943e-18
-4.330606396020359445e-18
-3.021791932978023921e-18
-2.107633042405230987e-18
-1.477574845375443892e-18
-1.046313849608764115e-18
-7.546380819450271894e-19
-5.550354734814651258e-19
-4.160262871761819338e-19
-3.170596455681609050e-19
-2.442615102834393248e-19
-1.888887812704814943e-19
-1.455249238272192314e-19
