# bin_2_7
-2.615691903804441780e-17
-2.773866994850118890e-17
-2.848693132610741997e-17
-2.816361614364167465e-17
-2.639354112094549525e-17
-2.337719688540100132e-17
-1.959001651030139270e-17
-1.601292259212414518e-17
-1.345289252455127122e-17
-1.162528620577560586e-17
-9.228812818980825677e-18
-6.436476564912791915e-18
-5.068215965811256409e-18
-3.734465980097151914e-18
-2.705422969485051552e-18
-1.928258667855655180e-18
-1.422303496653124680e-18
-1.037070323932531428e-18
-7.652435884695634031e-19
-5.753751026095497944e-19
-4.403394225733370638e-19
-3.426570940092045232e-19
-2.698749911690764501e-19
-2.136742957739690320e-19
-1.688842905707353415e-19
-1.323229885525130321e-19
-1.021205695132406537e-19
-7.721478289690473400e-20
-5.696401955207254032e-20
-4.089352953945625225e-20
-2.855693231283740646e-20
