# bin_19_13
-1.987106254498346413e-14
-2.243999233807748127e-14
-2.491496688811243731e-14
-2.708920019071821845e-14
-2.868922231469813209e-14
-2.938816053134008828e-14
-2.893630760479622684e-14
-2.695619668536318080e-14
-2.373628661147421656e-14
-1.978236499793142580e-14
-1.618014655953287667e-14
-1.369526888830577683e-14
-1.183568971251699137e-14
-9.187475033831200862e-15
-6.339932153331111963e-15
-5.091623340158392898e-15
-3.565214921310259414e-15
-2.621158691458581348e-15
-1.767041208846310050e-15
-1.253234634869083215e-15
-8.715267135403723272e-16
-6.053934331759053276e-16
-4.232538148068699669e-16
-2.987218130528341362e-16
-2.145738813552048522e-16
-1.571736661487012160e-16
-1.173633342881093765e-16
-8.917685533704782369e-17
-6.857383963159462020e-17
-5.299782085631546091e-17
-4.085768118233278550e-17
