# bin_9_10
-2.222388171139226693e-08
-2.453626372400105095e-08
-2.650205703880432597e-08
-2.784570353592142631e-08
-2.827157419059967127e-08
-2.748929880999350793e-08
-2.524252646464141634e-08
-2.192161947784941229e-08
-1.810452348709410736e-08
-1.485213456032254763e-08
-1.270176854853234504e-08
-1.084756614826065963e-08
-8.103985428652093437e-09
-5.696165492047043876e-09
-4.642107067659317287e-09
-3.128152237807532814e-09
-2.384361449782697453e-09
-1.650556253211755148e-09
-1.167985959589869801e-09
-8.376296239377791348e-10
-6.042529261422839607e-10
-4.411708138489036785e-10
-3.272655081582072517e-10
-2.475392777428932556e-10
-1.902523849458204349e-10
-1.478517706948943082e-10
-1.154789040189527618e-10
-8.998618317236424268e-11
-6.948881809881259200e-11
-5.286297267127385184e-11
-3.943525915340079157e-11
