# bin_16_19
-1.014266770133915100e-09
-1.148546896476701495e-09
-1.279499516182560552e-09
-1.396885578063678215e-09
-1.486980039786242819e-09
-1.532771702735616563e-09
-1.521672745740249002e-09
-1.432199706160433386e-09
-1.273257147003004004e-09
-1.069941321341445433e-09
-8.748593028330093293e-10
-7.342079631996943607e-10
-6.362608933358261267e-10
-5.085121359245225373e-10
-3.516854857900278992e-10
-2.747602781238206742e-10
-2.018408349149218584e-10
-1.421534568932645625e-10
-9.799652317931773857e-11
-7.011557962670203012e-11
-4.833298191288010221e-11
-3.317906074006911939e-11
-2.299660093684232771e-11
-1.607519878433434154e-11
-1.140508865793529008e-11
-8.248144408114492112e-12
-6.083997282655990726e-12
-4.575752037403005127e-12
-3.494151490061519924e-12
-2.692219443438692005e-12
-2.077323297825995033e-12
