# bin_19_18
-1.895276477269261285e-08
-2.149851790001974280e-08
-2.400056438616934603e-08
-2.627068909818118794e-08
-2.805595762875124261e-08
-2.903935188358137557e-08
-2.897418936825138144e-08
-2.745196875162704677e-08
-2.455709934841304129e-08
-2.075803398405205432e-08
-1.698421647989504726e-08
-1.417670324551457907e-08
-1.228768420513194681e-08
-9.989545867165894046e-09
-6.963600701855455903e-09
-5.319937609322095335e-09
-4.023356365648921423e-09
-2.761273421127439165e-09
-1.952962430158114452e-09
-1.387991860767321372e-09
-9.523672354223752517e-10
-6.510348758485718937e-10
-4.484083319685120250e-10
-3.114740984404792970e-10
-2.191749534563377213e-10
-1.571241453740486474e-10
-1.148856231675328867e-10
-8.573325523318184885e-11
-6.508797424861596872e-11
-4.998804897051603712e-11
-3.855299061872576604e-11
