# bin_16_11
-3.289743000641668993e-13
-3.690687436815240394e-13
-4.065514962212219450e-13
-4.377501760759925198e-13
-4.579974132733641813e-13
-4.627151971521919648e-13
-4.464426025693156774e-13
-4.065003066927736257e-13
-3.499843100203175058e-13
-2.878297252333712476e-13
-2.371046731015877706e-13
-2.040925814286500525e-13
-1.722692461605475871e-13
-1.253762952898856666e-13
-8.991080717284170125e-14
-7.259575220831992264e-14
-4.811325247269975274e-14
-3.640765790735334644e-14
-2.526239729209855633e-14
-1.751199511525804337e-14
-1.229809964322333463e-14
-8.653486228477167145e-15
-6.159793024102338708e-15
-4.449017666023922018e-15
-3.278512098636105758e-15
-2.461563044456156089e-15
-1.878411079120786803e-15
-1.449954561945842362e-15
-1.124245883611719416e-15
-8.692352760433122922e-16
-6.655849962814974881e-16
