# bin_12_10
-4.069136088937549810e-09
-4.523956884333213264e-09
-4.928471797039872342e-09
-5.233971777195621501e-09
-5.380827110932052708e-09
-5.324723551100989066e-09
-4.992514158774121725e-09
-4.422970829977663079e-09
-3.705497898777967852e-09
-3.029042480408493220e-09
-2.548043008983693422e-09
-2.205690118529355359e-09
-1.747153697285145719e-09
-1.208856473218395250e-09
-9.543978139256100703e-10
-6.939827074733903555e-10
-4.988016017772345287e-10
-3.455130726800713426e-10
-2.503587211434568806e-10
-1.768273022200431275e-10
-1.253186718733777468e-10
-9.011578066562833722e-11
-6.573951435485456442e-11
-4.885872949268389755e-11
-3.699067354844141964e-11
-2.842505887666346729e-11
-2.206391151107007927e-11
-1.718047197087257971e-11
-1.332386993788999528e-11
-1.022293628441468451e-11
-7.718242527277395724e-12
