# bin_19_14
-1.899338864164248227e-12
-2.146929821677153603e-12
-2.386464624981053359e-12
-2.598391405605470805e-12
-2.756704952771604944e-12
-2.829845841086335778e-12
-2.794319506471274923e-12
-2.612288433847740592e-12
-2.307785411980739371e-12
-1.928547562393267552e-12
-1.576900926462830144e-12
-1.330790155294826432e-12
-1.151657925471903284e-12
-9.030936657073520678e-13
-6.228210817081235455e-13
-4.961784975570952867e-13
-3.531625890628180807e-13
-2.560205135731435014e-13
-1.733393489518202446e-13
-1.236021688406102683e-13
-8.567321927490161440e-14
-5.925167513119675220e-14
-4.130856478234419089e-14
-2.905886107016928602e-14
-2.078673262614642272e-14
-1.516173524564584456e-14
-1.127629784472380267e-14
-8.540341152999141128e-15
-6.553316250042923937e-15
-5.060688521747095838e-15
-3.903331304724075414e-15
