# bin_15_11
-1.590757584649469087e-11
-1.781684274523859432e-11
-1.958668818164774259e-11
-2.103701966239297116e-11
-2.194027148576080856e-11
-2.208682105373192549e-11
-2.119778909775090417e-11
-1.919838845082535910e-11
-1.643857851053158637e-11
-1.349066855963854425e-11
-1.114838567983466656e-11
-9.624129092323896791e-12
-8.047633009921691594e-12
-5.775024283709060954e-12
-4.216342788694504723e-12
-3.357122915765786811e-12
-2.239490156905940970e-12
-1.675834156883938534e-12
-1.175006789934649847e-12
-8.164962087089460700e-13
-5.732433776821244710e-13
-4.044051265047919387e-13
-2.891929237159951363e-13
-2.100726853128642268e-13
-1.556812229755918229e-13
-1.174876747494024507e-13
-9.002241512918881439e-14
-6.966320993260200192e-14
-5.405588046905735283e-14
-4.175598504825935516e-14
-3.189818566404279553e-14
