# bin_3_15
-8.149681315790600463e-48
-9.027133774538741729e-48
-9.789700919532612947e-48
-1.033788780533888243e-47
-1.055616768445614408e-47
-1.035033714939756145e-47
-9.595708608120816293e-48
-8.411584230012024404e-48
-6.987474448622344950e-48
-5.717625361673832294e-48
-4.854550252374360411e-48
-4.182296876624017744e-48
-3.209054041526483267e-48
-2.225808460603097177e-48
-1.801582095190415778e-48
-1.247951004335251499e-48
-9.348977010036420456e-49
-6.401957099656557012e-49
-4.580337207686883218e-49
-3.267479171333896417e-49
-2.343231618342929236e-49
-1.699275858809190206e-49
-1.250725621721140005e-49
-9.386932496554308351e-50
-7.167744306662398327e-50
-5.544279490815583922e-50
-4.320252931072512273e-50
-3.366930642886275939e-50
-2.606051352510137106e-50
-1.990820566910164622e-50
-1.493608627952476294e-50
