# bin_20_11
-1.723453357057956725e-22
-1.945301067554792257e-22
-2.158574370546225002e-22
-2.345235848618560567e-22
-2.481508929043492838e-22
-2.539229569842369033e-22
-2.496480320607804547e-22
-2.321445345147588432e-22
-2.040700741988269925e-22
-1.698514925466763313e-22
-1.389544462541898095e-22
-1.177927049287315209e-22
-1.017078129344504294e-22
-7.854072123470575865e-23
-5.424088583804630634e-23
-4.371542156584980614e-23
-3.036126567290124767e-23
-2.246938487750002366e-23
-1.513572762258813100e-23
-1.069848230440287095e-23
-7.453031354708495991e-24
-5.188438832610627004e-24
-3.632578425180057102e-24
-2.568150519704943457e-24
-1.848598375101050719e-24
-1.356961212602817775e-24
-1.015261262314965700e-24
-7.726451328230278022e-25
-5.947249211532506211e-25
-4.597884808688805679e-25
-3.543541872451298814e-25
