# bin_7_14
-5.107397432314233711e-20
-5.673270321027884215e-20
-6.173869787702242614e-20
-6.547740263144535062e-20
-6.720342003645010569e-20
-6.635884622820502083e-20
-6.204987247808465709e-20
-5.483229289133888198e-20
-4.583661359937127898e-20
-3.747047791309419956e-20
-3.159111830212717556e-20
-2.732841718291464330e-20
-2.148343729107673892e-20
-1.485266902687223972e-20
-1.181476035846890891e-20
-8.486575156730392556e-21
-6.168351044059945003e-21
-4.247009370573776497e-21
-3.073172432174770121e-21
-2.175692386775280798e-21
-1.546353325387149049e-21
-1.114374290768268036e-21
-8.146983677319985986e-22
-6.069795747897906500e-22
-4.605393662590391172e-22
-3.545029232557611127e-22
-2.754646450920978873e-22
-2.145653927690878606e-22
-1.663375731292434089e-22
-1.274982208371716106e-22
-9.611754418409101031e-23
