# bin_8_19
-2.378227406643912237e-32
-2.673028392860382341e-32
-2.951131392318883876e-32
-3.186442078233024530e-32
-3.345507768133217983e-32
-3.393194885333928853e-32
-3.293210617698481987e-32
-3.017214901995052356e-32
-2.614143805459944063e-32
-2.156187312090107584e-32
-1.770874490664084329e-32
-1.518236553106652383e-32
-1.293290585820748124e-32
-9.576946661093309745e-33
-6.748919886511882651e-33
-5.498189835742049832e-33
-3.649349157283215355e-33
-2.774858430463258008e-33
-1.903249978222575558e-33
-1.318707859081752073e-33
-9.262286941889138453e-34
-6.507744464428663254e-34
-4.609204303221361767e-34
-3.307305611026819310e-34
-2.420846028562833973e-34
-1.806271347993254832e-34
-1.371189493270531457e-34
-1.054781514927888792e-34
-8.166854180136491395e-35
-6.318296708487992909e-35
-4.849584293177648288e-35
