# bin_5_13
-1.752444554341406724e-25
-1.934264860403509753e-25
-2.088540549375596594e-25
-2.193515975965077867e-25
-2.226014133111722673e-25
-2.162903272056166518e-25
-1.984550255320440792e-25
-1.722104600001783596e-25
-1.421589488122670504e-25
-1.166497591416927435e-25
-9.981907083167479698e-26
-8.517706206400253010e-26
-6.349119539606027001e-26
-4.468691666737447542e-26
-3.642806571277532792e-26
-2.449923782750681341e-26
-1.869343986297340395e-26
-1.295586800193773456e-26
-9.160811388161669694e-27
-6.571842823985767156e-27
-4.742501185886540576e-27
-3.464405412937574711e-27
-2.571550610160431094e-27
-1.946269962012663328e-27
-1.496599280382611086e-27
-1.163464675739369107e-27
-9.088629906185283103e-28
-7.082011790295523588e-28
-5.467712106578903455e-28
-4.158046527508503050e-28
-3.100396176176989386e-28
