# bin_20_19
-1.893867803623360942e-08
-2.151716274536500078e-08
-2.407087738140767800e-08
-2.641409706263312863e-08
-2.829788330857574259e-08
-2.940884913869413796e-08
-2.948126895764489913e-08
-2.811612827925261747e-08
-2.530512423234317273e-08
-2.152480705595262798e-08
-1.763216139827508407e-08
-1.464238189074223164e-08
-1.267962771091919651e-08
-1.046136082972000321e-08
-7.379143181778235573e-09
-5.510981715729831605e-09
-4.276734717411641343e-09
-2.876120032482013041e-09
-2.088214586368971322e-09
-1.465313611748635963e-09
-1.001416662615350556e-09
-6.839383706689502623e-10
-4.683047213814320112e-10
-3.232378951269035096e-10
-2.256073872647970907e-10
-1.602942269868245254e-10
-1.161235009615340662e-10
-8.591178748217070833e-11
-6.477729309264981475e-11
-4.953420706510418827e-11
-3.814689909564821778e-11
