# bin_10_14
-1.019404062215824484e-11
-1.137989384746230893e-11
-1.245978943921826238e-11
-1.331517296255165092e-11
-1.379737161146153889e-11
-1.378677192326243132e-11
-1.309305470179507656e-11
-1.173883069663157835e-11
-9.946842546516553327e-12
-8.140575583827077672e-12
-6.777548473493678924e-12
-5.869670142278980704e-12
-4.802908299757751602e-12
-3.370420577524511225e-12
-2.552204416166483813e-12
-1.958874299683555929e-12
-1.341740039371634589e-12
-9.701280963155496800e-13
-6.948166078710579378e-13
-4.859860084859897074e-13
-3.415318039740953862e-13
-2.428922903540925914e-13
-1.753156294648753551e-13
-1.287321840101321884e-13
-9.639200291933810694e-14
-7.340211815408282890e-14
-5.662614082300756515e-14
-4.398150765429538931e-14
-3.414313857534176998e-14
-2.630633330886109887e-14
-1.999459358997861861e-14
