# bin_12_4
-7.483684691909777486e-27
-8.214834437856900299e-27
-8.809875692400449626e-27
-9.173344935727388911e-27
-9.219503853150760433e-27
-8.830358801045088882e-27
-7.982698340669332979e-27
-6.822721917827522181e-27
-5.595556314453496781e-27
-4.627261597750723017e-27
-3.994394066650606017e-27
-3.329694334576350202e-27
-2.386075930259034965e-27
-1.753888913814590365e-27
-1.392931159334130987e-27
-9.404323444148467973e-28
-7.058763553987801440e-28
-5.027061296072467907e-28
-3.560918612840198784e-28
-2.557388651360104671e-28
-1.856537118401075569e-28
-1.371027639916684770e-28
-1.030423156453232780e-28
-7.886160542860015808e-29
-6.117406099045742873e-29
-4.782607124558230109e-29
-3.743198232491379093e-29
-2.911819257701253738e-29
-2.237135521664872500e-29
-1.688550313028578660e-29
-1.246857298622999048e-29
