# bin_9_12
-2.328626956658640265e-10
-2.583812524562893334e-10
-2.808049386027283034e-10
-2.973155691480000165e-10
-3.045467178497656767e-10
-2.999098581619643003e-10
-2.795111988917662863e-10
-2.462386164432725420e-10
-2.053299780997418554e-10
-1.679012413544643624e-10
-1.419427211940906059e-10
-1.226233552991834891e-10
-9.550658752853372392e-11
-6.607383055050101346e-11
-5.294472587572607915e-11
-3.749148826438816297e-11
-2.758570959291705938e-11
-1.892895226331158225e-11
-1.364397941471552436e-11
-9.688105142463979947e-12
-6.910187074953915367e-12
-4.992024419137852685e-12
-3.659063284830239273e-12
-2.733942270127627969e-12
-2.079551786656690760e-12
-1.603841705181915490e-12
-1.247680655884556176e-12
-9.720941323912771184e-13
-7.531681592543900171e-13
-5.765681331815522227e-13
-4.338582766922636515e-13
