# bin_11_18
-2.157395099637131706e-17
-2.427945554315426631e-17
-2.684693240539990381e-17
-2.904284444630997413e-17
-3.056554340314570953e-17
-3.108377653438618272e-17
-3.028921726527626240e-17
-2.787334653474660870e-17
-2.425668867170483432e-17
-2.005485487689852835e-17
-1.644468117680848096e-17
-1.405489358928685479e-17
-1.203537233149009878e-17
-9.023541928530688118e-18
-6.302534209846741119e-18
-5.138471229009308623e-18
-3.438121681147050382e-18
-2.607557430243066477e-18
-1.774520697759780380e-18
-1.232823220851083912e-18
-8.652168243534679730e-19
-6.072305812113518045e-19
-4.285947742171457280e-19
-3.061343124901383791e-19
-2.229867364442311577e-19
-1.656029694854762254e-19
-1.252090757994703482e-19
-9.604471941996451197e-20
-7.426236020684865482e-20
-5.746023739981111939e-20
-4.416801895402213888e-20
