# bin_7_16
-1.327856722007544839e-26
-1.482004897161239675e-26
-1.622211313911203351e-26
-1.733006505198710277e-26
-1.794998311440861993e-26
-1.792731744259318049e-26
-1.701337278126906361e-26
-1.524366178543793433e-26
-1.290782008852636423e-26
-1.056234004547384372e-26
-8.798509784107953068e-27
-7.620954992252543332e-27
-6.226355494007408446e-27
-4.363414460783002544e-27
-3.312279526257733615e-27
-2.535504185486019865e-27
-1.740342731616565142e-27
-1.255043564727916804e-27
-9.002065009066456936e-28
-6.299457338810332528e-28
-4.427562647879312934e-28
-3.150764688495017230e-28
-2.275611032149804581e-28
-1.672148465187699703e-28
-1.252915052278288413e-28
-9.546408154983755710e-29
-7.367708824676472733e-29
-5.723747707274465538e-29
-4.443423173708030424e-29
-3.422903347296602221e-29
-2.600750198902620400e-29
