# bin_11_1
-2.727392947158610472e-43
-2.960602109068076880e-43
-3.131184993051155478e-43
-3.204012474756977156e-43
-3.151532195331627539e-43
-2.933797997454178867e-43
-2.581956228377220127e-43
-2.151630011601401672e-43
-1.759310302478254289e-43
-1.487391982868087191e-43
-1.283507381571142982e-43
-9.986388130706872845e-44
-6.933535571836044795e-44
-5.561573032367771030e-44
-3.956345231237899959e-44
-2.929253933280291494e-44
-2.039035824538334939e-44
-1.486809358048424196e-44
-1.075086847880081157e-44
-7.842301651157596300e-45
-5.811884156746338455e-45
-4.379140002356122775e-45
-3.359867158903463660e-45
-2.614827275170038331e-45
-2.051934926776430721e-45
-1.613019925926907749e-45
-1.261145409838421625e-45
-9.743023210805138691e-46
-7.396090762243226482e-46
-5.492265794494056622e-46
-3.976562691299820227e-46
