# bin_14_4
-1.490074432708269601e-35
-1.647291062028302574e-35
-1.782166817110808471e-35
-1.876341390115588196e-35
-1.909398444402644102e-35
-1.862900675247619552e-35
-1.717134592075824251e-35
-1.496845007586291704e-35
-1.238848649672553333e-35
-1.015039185475107260e-35
-8.657050958151955259e-36
-7.423623068724899284e-36
-5.604576363505694600e-36
-3.912904027826908655e-36
-3.186760503471846806e-36
-2.165185047952921269e-36
-1.643636151366594067e-36
-1.131334544638704281e-36
-8.030348998508228242e-37
-5.751015429063196918e-37
-4.141808149392380737e-37
-3.015879118510536215e-37
-2.230188822022154653e-37
-1.681766824345404754e-37
-1.289329562177603138e-37
-1.000219596652257608e-37
-7.805754921420976261e-38
-6.083437562761982325e-38
-4.702427718045275767e-38
-3.583465806004445327e-38
-2.679400400101134028e-38
