# bin_17_8
-2.055241752862942551e-25
-2.301375835213297920e-25
-2.529255481307633348e-25
-2.715567645757541323e-25
-2.830876678048640421e-25
-2.848311394763172523e-25
-2.731588138401789397e-25
-2.472047023608773614e-25
-2.115006400433277518e-25
-1.735215416386184287e-25
-1.434617187607433044e-25
-1.238970213041908942e-25
-1.034576115027297744e-25
-7.409176108035177152e-26
-5.423948956799140124e-26
-4.309076163586027860e-26
-2.877931227564497241e-26
-2.149628221302074424e-26
-1.509537345433409429e-26
-1.049386735361965670e-26
-7.367263524132478521e-27
-5.199648621049970803e-27
-3.720869553996731536e-27
-2.705156664545390286e-27
-2.006398633487762899e-27
-1.515287450843891634e-27
-1.161738985807203267e-27
-8.993230596382268200e-28
-6.979117342033112576e-28
-5.390347410524826397e-28
-4.116387984154851706e-28
