# bin_7_20
-6.559727004681314401e-42
-7.380285574484580747e-42
-8.157990708806884412e-42
-8.821616968217033113e-42
-9.279326940410708951e-42
-9.431196255682224310e-42
-9.182149586025837987e-42
-8.441605920939398216e-42
-7.339199692602512305e-42
-6.064582086817140103e-42
-4.974424187954571977e-42
-4.254504796870817139e-42
-3.639338670402366793e-42
-2.721189333629141894e-42
-1.903859041245924674e-42
-1.552528824267864916e-42
-1.036452398809576056e-42
-7.868526144523952391e-43
-5.363572293446301738e-43
-3.723033046484495083e-43
-2.613624945988973048e-43
-1.834885499077542444e-43
-1.296063810426557202e-43
-9.266547005675136557e-44
-6.756929984829796239e-44
-5.023244432662092939e-44
-3.801368341657712950e-44
-2.917792381416688985e-44
-2.256780062386236908e-44
-1.746161473889878955e-44
-1.341813365206507854e-44
