# bin_2_16
-4.855641821988042348e-62
-5.390472470300471752e-62
-5.861912500638904852e-62
-6.211348594401740892e-62
-6.368217674375914488e-62
-6.279101910716721968e-62
-5.860903574277032536e-62
-5.170564313196458948e-62
-4.316328771589692779e-62
-3.528905512896453312e-62
-2.979590017822139240e-62
-2.575929902229056563e-62
-2.014827975788310464e-62
-1.393074433205377058e-62
-1.112928508268802937e-62
-7.931274283189498915e-63
-5.805093314795807989e-63
-3.986615550553737548e-63
-2.879553687593192566e-63
-2.041888185083431537e-63
-1.454095739414228517e-63
-1.049303662115518344e-63
-7.682039293901026772e-64
-5.732345327819809194e-64
-4.355337229943415014e-64
-3.356126999993166952e-64
-2.609537752069573724e-64
-2.032953482179424125e-64
-1.575551685517634147e-64
-1.206846214288333476e-64
-9.089103128425364492e-65
