# bin_4
0.000000000000000000e+00
6.092446255924117848e-157
1.859051609028836200e-122
5.895771356795781437e-95
6.491878090045534191e-73
2.875399005531332616e-55
3.394189231862479016e-41
4.760171577626682783e-30
2.625045608730385290e-21
1.498372803879057582e-14
1.950568622822793825e-09
1.111174964204229165e-05
4.782398006128922227e-03
2.491169336646814059e-01
2.414329989269826893e+00
6.561591115055907864e+00
6.906685195833390800e+00
3.169250100307755780e+00
6.346053677112843960e-01
5.708878730654175920e-02
2.481278475750662346e-03
5.695970251462498571e-05
7.546677991798509594e-07
6.263022118888935636e-09
3.502743854261828263e-11
1.407943275534154687e-13
4.302753538826269545e-16
1.049941528074224808e-18
2.134648382725712229e-21
3.752110905754538858e-24
5.887510577308534237e-27
8.479347127566199007e-30
1.148223553942314110e-32
1.492735653801650810e-35
1.897025609684781634e-38
2.393748673540999449e-41
3.039879826750713412e-44
3.930597577261386769e-47
5.226773044325674370e-50
7.209678506984371235e-53
1.039208345684862665e-55
1.575147720212874426e-58
2.523992758622543559e-61
4.294959915284070866e-64
7.790669765708743738e-67
1.511120372239218006e-69
3.142341693781797979e-72
7.020157359278177540e-75
1.687726839365838995e-77
4.371987846744561683e-80
1.221501283422292473e-82
3.683314125730762528e-85
1.199211404697921895e-87
4.216496206007452604e-90
1.601069461698003503e-92
6.564507420148395795e-95
2.905331151965320374e-97
1.387407683882418536e-99
7.144860901026792311e-102
3.965430736461301832e-104
2.370198735739842727e-106
1.524537834972441943e-108
1.054354958511237003e-110
7.833317485785736311e-113
6.246149494912473453e-115
5.340352169644507995e-117
4.890911327862718154e-119
4.793297263155519732e-121
5.021794279043054095e-123
5.618412719321033428e-125
6.705717881958262540e-127
0.000000000000000000e+00
0.000000000000000000e+00
0.000000000000000000e+00
0.000000000000000000e+00
0.000000000000000000e+00
0.000000000000000000e+00
0.000000000000000000e+00
0.000000000000000000e+00
0.000000000000000000e+00
0.000000000000000000e+00
0.000000000000000000e+00
