# bin_1
0.000000000000000000e+00
8.948269871933463290e-51
5.950031835887381460e-35
2.776025444506530769e-23
9.626275924476885671e-15
1.166186898724734995e-08
1.609961894835471269e-04
6.539181542737695918e-02
1.760350071381708625e+00
6.863282623527917181e+00
7.781872726210933067e+00
3.117562609157609188e+00
3.948657482708929356e-01
1.626261650352544760e-02
2.491189394003689582e-04
1.657185880288337865e-06
5.532854956701352347e-09
1.052747336299375866e-11
1.272984587124010267e-14
1.073106615066201235e-17
6.819854187696403578e-21
3.490647098107381283e-24
1.521314667336216575e-27
5.916823880848828493e-31
2.136331635141297401e-34
7.402697904815077741e-38
2.531505894559924217e-41
8.745988263684194715e-45
3.113125718839799730e-48
1.160517777559180653e-51
4.592900883994062230e-55
1.951624993127855300e-58
8.986805382150702348e-62
4.518550922567857394e-65
2.495923714051949857e-68
1.522004028182765585e-71
1.028504788994663420e-74
7.724377084588662275e-78
6.461189369852539187e-81
6.028268103090796916e-84
6.279128217526850015e-87
7.305017252605240630e-90
9.492283887193729971e-93
1.377245146967538464e-95
2.229875055805572338e-98
4.025412917691503484e-101
8.093647538457406138e-104
1.810304833154997766e-106
4.498228078900382627e-109
1.239859728511029610e-111
3.784981042296293100e-114
1.277619992372366820e-116
4.760454343422761407e-119
1.954550691546700888e-121
8.827280296563260354e-124
4.377326920172330270e-126
2.379078036552968439e-128
1.414620068147189032e-130
9.185804931672125297e-133
6.502183753121449857e-135
5.008293228793208299e-137
4.190249507440079541e-139
3.801451851817628876e-141
3.733089066896625916e-143
3.961477102253053388e-145
4.535115167973694640e-147
5.591736394678152031e-149
7.413614521301484199e-151
1.055235301492698848e-152
1.610012669436877259e-154
2.629108072617255306e-156
0.000000000000000000e+00
0.000000000000000000e+00
0.000000000000000000e+00
0.000000000000000000e+00
0.000000000000000000e+00
0.000000000000000000e+00
0.000000000000000000e+00
0.000000000000000000e+00
0.000000000000000000e+00
0.000000000000000000e+00
0.000000000000000000e+00
