# bin_8_4
3.105421747124535186e-08
2.722288007008616605e-08
2.323222789750672944e-08
1.935321364538506748e-08
1.581348463713623357e-08
1.273706839484910874e-08
1.013213419732697323e-08
7.930262493101857814e-09
6.076591517975583554e-09
4.581309659208704869e-09
3.454200954667526476e-09
2.616433547644866792e-09
1.979315011379311726e-09
1.511633642090548620e-09
1.164668657252575738e-09
9.059417737585238307e-10
7.097435478918249151e-10
5.582593193826081733e-10
4.389759233096350786e-10
3.435233391694424830e-10
2.663953290563641037e-10
2.039349418940528300e-10
1.536318457072785232e-10
1.136172532802471776e-10
8.234848709115274857e-11
5.844361957305610646e-11
4.061340251406668334e-11
2.765521778074651510e-11
1.847966561742793097e-11
1.214180671180696811e-11
7.861889120624949688e-12
