# bin_17_10
5.939349604040829617e-08
5.500871710595183641e-08
4.961181154829208029e-08
4.352574832739098049e-08
3.716436626254977869e-08
3.096805514108564326e-08
2.530707566651186972e-08
2.038244155886183184e-08
1.620748400850729740e-08
1.267216417244537168e-08
9.688836789716292956e-09
7.276367521639651767e-09
5.455734540716268201e-09
4.102847752136427878e-09
3.072500792258954454e-09
2.318744491661970193e-09
1.762105189588124961e-09
1.350946435887357500e-09
1.043041979667753683e-09
8.092792567151980963e-10
6.287335599932613698e-10
4.871388843033321837e-10
3.749046750084799033e-10
2.855249021003539259e-10
2.145066663015729832e-10
1.585681698261721997e-10
1.151221704359232502e-10
8.199023629372599348e-11
5.725517323346501674e-11
3.921070616379953916e-11
2.635678924926661673e-11
