# bin_12_4
3.398849786847125448e-08
2.994600138255033321e-08
2.566952728243094925e-08
2.145859558752571327e-08
1.757957367321691153e-08
1.419075492218002006e-08
1.131788411607404857e-08
8.886588920243301699e-09
6.826110009678981501e-09
5.146630833294017471e-09
3.875467454866095995e-09
2.933758083729765383e-09
2.214986632750810738e-09
1.687341895299293954e-09
1.296888463703786207e-09
1.006585179517142798e-09
7.873412624111900448e-10
6.188464457637722268e-10
4.867180298445185444e-10
3.813062978106473668e-10
2.962604070495379361e-10
2.273802631971238326e-10
1.718181700491888876e-10
1.274966795951246315e-10
9.273500847503909338e-11
6.604706957258054817e-11
4.605144774435353180e-11
3.145450967916116281e-11
2.107503555994035068e-11
1.387859998041384727e-11
9.003216208172334334e-12
