# bin_19_19
7.835190654596083231e-08
7.442613862605116207e-08
6.897292818000426383e-08
6.224633433361323794e-08
5.465286871570100233e-08
4.670968948670864817e-08
3.896240026677764261e-08
3.186719757963626935e-08
2.567529023493357416e-08
2.041035112214085878e-08
1.595049408127678758e-08
1.219360454639787034e-08
9.150585474657633399e-09
6.836195344759478495e-09
5.114308779543535926e-09
3.809431149048813124e-09
2.849780630213959954e-09
2.146143113678012471e-09
1.627875259335425462e-09
1.243324699600011906e-09
9.546090939721315940e-10
7.345375635188532263e-10
5.644068472642381048e-10
4.314730480209676447e-10
3.270014423032997307e-10
2.449228014509191326e-10
1.808452746528069069e-10
1.313881479321930214e-10
9.380368513790234597e-11
6.576764618129780925e-11
4.527975770026226472e-11
