# bin_18_3
3.081586164968169679e-08
2.685574537234800127e-08
2.277747881069083280e-08
1.887064908468814208e-08
1.535928740943738737e-08
1.234405762951285107e-08
9.796201361212277031e-09
7.626657367452167780e-09
5.801007162005298156e-09
4.361937924565560704e-09
3.298695725963014087e-09
2.495515546810260356e-09
1.890630078442307712e-09
1.449448564839953075e-09
1.120767403562061243e-09
8.752270013571496073e-10
6.882306749580578262e-10
5.428661800434149366e-10
4.275878388082033568e-10
3.347449207915107450e-10
2.593476899407203461e-10
1.981014117983899062e-10
1.487326683620871998e-10
1.095081196718284275e-10
7.895223926485973224e-11
5.570514121626019359e-11
3.847324232774069563e-11
2.603944192733012080e-11
1.730179678709947637e-11
1.131094039123946675e-11
7.292710928447435208e-12
