# bin_13_7
4.677019800893006802e-08
4.241352375469667002e-08
3.742289851152720461e-08
3.212881046003250903e-08
2.689826847251351776e-08
2.206046869236305088e-08
1.781730324934459325e-08
1.421154301590556488e-08
1.116315879991441304e-08
8.583816344283385716e-09
6.472019363322362032e-09
4.859068626520259355e-09
3.665978354429916638e-09
2.757393147818577796e-09
2.086529254706691599e-09
1.593002033446234946e-09
1.226713796289413943e-09
9.519723399578868423e-10
7.427240841082439767e-10
5.803579136790411244e-10
4.522667028252339999e-10
3.500281113970636839e-10
2.679963111622783622e-10
2.023121415586146733e-10
1.501872097058658758e-10
1.094238959733875014e-10
7.814987531682032873e-11
5.468590954146170572e-11
3.750297341547211330e-11
2.523030392034851773e-11
1.667729605609889209e-11
