# bin_13_2
2.396356471121055443e-08
2.049886756610000563e-08
1.710574488437508186e-08
1.399695107212840122e-08
1.129304468732290948e-08
9.003427609884022767e-09
7.061128630732473700e-09
5.414732564794064831e-09
4.083572059468534252e-09
3.084376284800309861e-09
2.340343722549330357e-09
1.773948132841535601e-09
1.359244973977066978e-09
1.051252971515614147e-09
8.215016837520301964e-10
6.469175781929911225e-10
5.115754682612675817e-10
4.043954564294241795e-10
3.180312969232341802e-10
2.477177950872651753e-10
1.903467922381760108e-10
1.438213707133869556e-10
1.065900274232907953e-10
7.735779838036132397e-11
5.493451347103478688e-11
3.817638871883163615e-11
2.598843775002000439e-11
1.735944731211836033e-11
1.140261287753995588e-11
7.382663733273135852e-12
4.722617441637613222e-12
