# bin_10_5
3.684570028560387430e-08
3.274206527723169377e-08
2.830830292062925586e-08
2.384884100405096778e-08
1.965632345495939659e-08
1.593408018676337117e-08
1.275349950081715405e-08
1.006767800293927991e-08
7.793207070501527249e-09
5.907061196111119579e-09
4.439719509891756114e-09
3.354455641124848205e-09
2.533286129956076682e-09
1.918694261688160313e-09
1.469048135243791503e-09
1.133890513404651307e-09
8.829009581621906470e-10
6.915459845467874917e-10
5.428127299137632900e-10
4.251270638128806509e-10
3.307711775046491783e-10
2.546353190193602185e-10
1.932698412744525049e-10
1.442265434821657799e-10
1.055980464852346152e-10
7.575598243653029863e-11
5.322256973646588098e-11
3.662708841779421874e-11
2.471572505870745779e-11
1.638055834315832461e-11
1.068494227590422272e-11
