# bin_17_4
3.673453830951743984e-52
4.103223273023403244e-52
4.495825661975448809e-52
4.808737228328434394e-52
4.988533694933215140e-52
4.991346423827644162e-52
4.748797192047084778e-52
4.265055547436711586e-52
3.620220415220866310e-52
2.963809899842505956e-52
2.464091397179830325e-52
2.133395286892126172e-52
1.752913968965720261e-52
1.234064543751402176e-52
9.286073293645579296e-53
7.177913101547350351e-53
4.889029871078170688e-53
3.559210561862397053e-53
2.540786795611549119e-53
1.775270447182951668e-53
1.247252225909127081e-53
8.858032724133158993e-54
6.384900838336759212e-54
4.680003076585766347e-54
3.498946032731795787e-54
2.660400472705039010e-54
2.049815461877905144e-54
1.590785460975198323e-54
1.234415173449140558e-54
9.510240120806730174e-55
7.230019668026153546e-55
