# bin_8_1
1.719580175692862556e-29
1.833537442812762821e-29
1.895868595773219742e-29
1.890344565959383156e-29
1.791287065035416429e-29
1.603208885581964175e-29
1.356622360490597619e-29
1.109970470411268865e-29
9.243918832168874974e-30
7.992700255981350908e-30
6.520339577884043863e-30
4.598729682560835656e-30
3.501122719896587383e-30
2.692323922805261628e-30
1.880667552177026508e-30
1.380301883799386446e-30
1.009063078279251265e-30
7.298429185866415505e-31
5.350114595325165351e-31
3.991205919838979143e-31
3.032704113378606581e-31
2.343744581492406333e-31
1.836638517213421961e-31
1.449610653232602301e-31
1.144564905422933394e-31
8.977420054789851943e-32
6.948389934622355195e-32
5.277398482910361763e-32
3.915678600124380514e-32
2.829092557547242909e-32
1.988361590764676884e-32
