# bin_10_9
8.158797991582523155e-11
9.023899828233402980e-11
9.768342446883933243e-11
1.029182294849826982e-10
1.048186217696277169e-10
1.023838571070077900e-10
9.450192185989503774e-11
8.248831196755027232e-11
6.833060318061598917e-11
5.596807625444223233e-11
4.768201109664521851e-11
4.093508183278365641e-11
3.102637962029305303e-11
2.162703872996825312e-11
1.758851393403873664e-11
1.200749132504402729e-11
9.086755847673301662e-12
6.247010079006724450e-12
4.443561148385777591e-12
3.179611271382761343e-12
2.287798911644118668e-12
1.664586833023893940e-12
1.229242718779144258e-12
9.258871011887962164e-13
7.090393114353201855e-13
5.494764908293245074e-13
4.284757800487486608e-13
3.337526361765924803e-13
2.578991077198745340e-13
1.964964256217614620e-13
1.469156865446634970e-13
