# bin_17_5
9.160576252835466401e-45
1.024148889314316338e-44
1.123375787490321559e-44
1.203210723455108966e-44
1.250403031642714767e-44
1.253660738266772443e-44
1.196159716721832410e-44
1.077221182883169570e-44
9.169179162879964626e-45
7.511489138615127192e-45
6.231828006453145587e-45
5.391861007330153441e-45
4.457343619367391956e-45
3.155761328254233244e-45
2.351249178469294693e-45
1.836545471150079127e-45
1.240957780910358329e-45
9.125389841949238069e-46
6.476562878072339481e-46
4.516811465993944850e-46
3.172065411090056643e-46
2.247477291747076987e-46
1.615926772321066259e-46
1.180991615628598151e-46
8.805370684679404709e-47
6.679321870492479625e-47
5.137359979345382107e-47
3.983302401692524028e-47
3.090835406738177384e-47
2.383068821544420612e-47
1.814254008464088775e-47
