# bin_15_7
1.206975990194366428e-25
1.346176508713906703e-25
1.472288153922302538e-25
1.571174942328727897e-25
1.625155155664767964e-25
1.620478694570627459e-25
1.534457458038401592e-25
1.372061587421743063e-25
1.159421061069602596e-25
9.484299855044877170e-26
7.914278211080055838e-26
6.856068474658129413e-26
5.572616690536252125e-26
3.892094449979891646e-26
2.976964879315526160e-26
2.259049382816181034e-26
1.562368751656060699e-26
1.117645623857991733e-26
8.046507241064807087e-27
5.640604347497922962e-27
3.968788499369556044e-27
2.830370640958984685e-27
2.048411447759402425e-27
1.508482181780789317e-27
1.132683179899574766e-27
8.643817140284583175e-28
6.677454799602732448e-28
5.188587452203668527e-28
4.025693931354517763e-28
3.097187541088290884e-28
2.348938985570495043e-28
