# bin_15_4
1.297680455567432496e-42
1.441579298440672639e-42
1.568928592691613193e-42
1.664121731714685064e-42
1.708230081090784533e-42
1.687028801053448661e-42
1.577804723560138581e-42
1.394579086996910700e-42
1.165986141563452227e-42
9.531676891899185365e-43
8.034621815387461822e-43
6.950741381111851139e-43
5.467620981618294759e-43
3.780532424824598742e-43
3.005360488479251947e-43
2.161179673091857797e-43
1.569468673960286372e-43
1.081427644930408354e-43
7.827052610184922281e-44
5.541322935049854384e-44
3.938399067189164725e-44
2.838518688021206163e-44
2.074860516677475652e-44
1.545720390510800957e-44
1.172672652903724511e-44
9.023992050733680814e-45
7.009484557592050925e-45
5.457479552652827645e-45
4.228595664233305590e-45
3.239276698150345637e-45
2.440345269064213720e-45
