# bin_17_15
1.807111731702815985e-11
2.042580178130748631e-11
2.270319859942342082e-11
2.471712042680529326e-11
2.622007811520578090e-11
2.691224327564712738e-11
2.656905748707662171e-11
2.483227997274227360e-11
2.193330008720994022e-11
1.832559114319283905e-11
1.498420845129532358e-11
1.264781689084394381e-11
1.094443391556731807e-11
8.576898698939432471e-12
5.915162730210900977e-12
4.714968935691587942e-12
3.352728402042534184e-12
2.432888821643546113e-12
1.646953049514481845e-12
1.174242432275385732e-12
8.143140016365357227e-13
5.635460276009308838e-13
3.931806651187285867e-13
2.767263939442378623e-13
1.981171306239901293e-13
1.446308530622864399e-13
1.076353024518540577e-13
8.155789742823719555e-14
6.259582510270332243e-14
4.833404651269861072e-14
3.726575355524178300e-14
