# bin_5_2
8.151273921891334751e-14
8.518565790365432263e-14
8.601378170210979436e-14
8.301752775163060178e-14
7.569843636440809729e-14
6.528989255493986663e-14
5.377753590179577335e-14
4.425468538213413983e-14
3.792923280172629422e-14
3.203492279522094238e-14
2.365489853653130970e-14
1.701368748655005432e-14
1.370041760523809470e-14
9.429182939178855137e-15
7.174859661608255519e-15
5.129815585136876249e-15
3.737315976255248577e-15
2.766178304595991814e-15
2.076533862993254150e-15
1.586507300841120683e-15
1.232098235191007449e-15
9.705125954009827244e-16
7.699630051555272243e-16
6.108733608859434441e-16
4.812861194691066545e-16
3.740200757154752437e-16
2.850619116329972869e-16
2.121032316863587501e-16
1.536002403292803309e-16
1.081692708792275338e-16
7.416363254456677606e-17
