# bin_20_2
5.980227065754083171e-86
6.720197814076203034e-86
7.417528023167362652e-86
8.006462960344329976e-86
8.402799153780845858e-86
8.519021693888387784e-86
8.262233216749209426e-86
7.564495481651262942e-86
6.549210227486823338e-86
5.400052827481965206e-86
4.436479783843189044e-86
3.805230241286560878e-86
3.238282081705696359e-86
2.393332191424699886e-86
1.689793102316194062e-86
1.375507161016480616e-86
9.127095526569895162e-87
6.937898030492890211e-87
4.765479019630892280e-87
3.302486937508137218e-87
2.320013311806687061e-87
1.630648400662681787e-87
1.156058489476515058e-87
8.300769534888324665e-88
6.082359700430618685e-88
4.542037168339142335e-88
3.449874880074763212e-88
2.654474313775324309e-88
2.055030659879586301e-88
1.589079065053284843e-88
1.218671579417421286e-88
