# bin_5_3
9.849761758657315939e-12
1.037678344805187668e-11
1.057401070666969995e-11
1.034216308371381036e-11
9.567833244850855913e-12
8.371484955347808507e-12
6.949917394548743296e-12
5.689505669025123363e-12
4.829093728816716869e-12
4.145986656415834845e-12
3.179567958504436920e-12
2.227770149771897266e-12
1.797004080410238861e-12
1.265227257347903623e-12
9.514222185252183815e-13
6.714163673754435270e-13
4.921373224853008940e-13
3.621083024799691515e-13
2.697148473515094379e-13
2.043665729578264826e-13
1.574596331492405196e-13
1.232556138279519270e-13
9.742837215970006635e-14
7.722323786923375466e-14
6.094817883639156217e-14
4.756826028374570440e-14
3.649002411753982654e-14
2.737443090781492473e-14
2.000980870222404292e-14
1.422537356032389959e-14
9.839786259598554579e-15
