# bin_14_4
5.436641298632159721e-38
6.020918268694345926e-38
6.528037914411297995e-38
6.891575795297147098e-38
7.034819949451042308e-38
6.894131052995949295e-38
6.387769588290734134e-38
5.596447615157301380e-38
4.647168050110176348e-38
3.803048672318402262e-38
3.230413209756823954e-38
2.781944986885987043e-38
2.131205539989104091e-38
1.479037714151774512e-38
1.198083021596363054e-38
8.282980211635584741e-39
6.214770627255461609e-39
4.257737591260327882e-39
3.044181638509520906e-39
2.172821716212620354e-39
1.559132802806655657e-39
1.131379475138709290e-39
8.329471557885744896e-40
6.254404590621570096e-40
4.777160273944680710e-40
3.695102531138250907e-40
2.878631714721863805e-40
2.242305228251979781e-40
1.734265772091476505e-40
1.323549777035449721e-40
9.918312836469571991e-41
