# bin_20_1
6.418513217831494291e-97
7.210898363868513804e-97
7.956720600181821197e-97
8.585234204715715993e-97
9.005955520684523297e-97
9.125715805301108989e-97
8.843584154165402563e-97
8.089889617582684753e-97
6.998065840703776230e-97
5.767733918395231408e-97
4.740348698064678987e-97
4.068164701279056937e-97
3.457978171580885849e-97
2.549615656950333062e-97
1.804071234097555815e-97
1.467262230623740632e-97
9.729641786094155666e-98
7.393836255712190409e-98
5.086630041939895536e-98
3.524699732174049162e-98
2.476139047472428965e-98
1.740665133252235454e-98
1.234871170579624224e-98
8.874489501423791471e-99
6.508682348492133111e-99
4.864529936692096957e-99
3.697471089663886122e-99
2.846351903531368638e-99
2.204025941774879203e-99
1.704163060091700492e-99
1.306511600479767214e-99
