# bin_20_8
1.596375199014149758e-38
1.799978428439673719e-38
1.994807297052873764e-38
2.163943289565343867e-38
2.285258285801448474e-38
2.333170548316644639e-38
2.286538172382711712e-38
2.118103336763795815e-38
1.855223850712717858e-38
1.540079751210450702e-38
1.260735853711734829e-38
1.072060573267927092e-38
9.234403994548625223e-39
7.053907839664386752e-39
4.885337768600779391e-39
3.960801017913636165e-39
2.707713162554913433e-39
2.027572295125172593e-39
1.368138740521947560e-39
9.600509788292596297e-40
6.713156805935763811e-40
4.693444208341817721e-40
3.297575814946336788e-40
2.340106882746138790e-40
1.692633689450253741e-40
1.248399898798232840e-40
9.379514729042995012e-41
7.160744660941758177e-41
5.521536831932658284e-41
4.269605795255477530e-41
3.286322379644235725e-41
