# bin_17_4
3.939315801974180600e-52
4.392505200084285238e-52
4.802603708018224648e-52
5.123456916193230521e-52
5.297403140346475682e-52
5.279832506386303050e-52
4.996879635597185326e-52
4.465407957837058130e-52
3.771197952156804521e-52
3.083796971323311537e-52
2.573263012985109634e-52
2.228989845424385068e-52
1.810192039087450063e-52
1.263316480552317936e-52
9.670038579401849503e-53
7.328923524321368512e-53
5.071602883484772800e-53
3.623416890230669080e-53
2.609526235074335468e-53
1.829120095402428267e-53
1.286793941744670445e-53
9.177209160481254054e-54
6.642450836800143236e-54
4.892865583155906039e-54
3.674527766610331381e-54
2.805125893236854847e-54
2.167838363152922441e-54
1.685142882947229811e-54
1.308017695883353546e-54
1.006791438406891308e-54
7.639381959391735557e-55
