# bin_9_4
2.107659168789517936e-18
2.283186877525522362e-18
2.408626409627609171e-18
2.457352304356047297e-18
2.407271089033303287e-18
2.230060689759521436e-18
1.953504013493887965e-18
1.622095256516236083e-18
1.326807396850102777e-18
1.125671199773146511e-18
9.687417934499744128e-19
7.440191848260016191e-19
5.177773070430453980e-19
4.186368698467857682e-19
2.926022763537513764e-19
2.196817086971161872e-19
1.527079007270100543e-19
1.107933669402021883e-19
8.039641747370395385e-20
5.887861682031657713e-20
4.376709642584300168e-20
3.307833391659709263e-20
2.545348373995688572e-20
1.985281878131826694e-20
1.559939182804439034e-20
1.226635925393656934e-20
9.583930982978671350e-21
7.392662864469640947e-21
5.599046324220084356e-21
4.145689769503191434e-21
2.991592147568565796e-21
