# bin_15_5
5.557197450560899488e-36
6.169887283975946161e-36
6.710371460452490382e-36
7.111693129265822116e-36
7.293034607734061058e-36
7.193730761098012532e-36
6.717872765703297723e-36
5.929028107240832461e-36
4.950720183749563591e-36
4.046054940931536624e-36
3.413336770033914576e-36
2.951464810646442688e-36
2.313115089927840353e-36
1.598586618277079077e-36
1.274712835218253588e-36
9.113802891102056623e-37
6.649872186674666031e-37
4.570728549065484520e-37
3.304454549550564423e-37
2.341412478558922046e-37
1.666044070168298253e-37
1.201659101409267953e-37
8.793257280771642110e-38
6.558038613307293170e-38
4.980442470910604252e-38
3.836497420544130020e-38
2.982436906931804781e-38
2.323358242498428925e-38
1.800800165995057708e-38
1.379697341236314100e-38
1.039431360581773938e-38
