# bin_20_3
7.170100760221645226e-76
8.047170546626226310e-76
8.868825990268734755e-76
9.555424645175550355e-76
1.000559036648517897e-75
1.011801891637718354e-75
9.776589232337659230e-76
8.915251991675412243e-76
7.687413542755818825e-76
6.325137341479623218e-76
5.204040271390417229e-76
4.473776682048520775e-76
3.786485825557140615e-76
2.768821100362080874e-76
1.974009235252078521e-76
1.599296481311478420e-76
1.059015737908791005e-76
8.031679172153802547e-77
5.552929155299038192e-77
3.846957967124358220e-77
2.701761546703233740e-77
1.899959729539742030e-77
1.350387275395385990e-77
9.734429210741259186e-78
7.159460458454576704e-78
5.365888728844029311e-78
4.088677536054683531e-78
3.153049701510317478e-78
2.443829699227974881e-78
1.889846233692797918e-78
1.448048676258450401e-78
