# bin_13_8
1.315003605562700263e-16
1.459478930348870824e-16
1.586654593953783250e-16
1.680657501868964953e-16
1.722418499721929258e-16
1.697507693085897267e-16
1.583548894971831963e-16
1.396228375575293536e-16
1.164911474114059516e-16
9.521234669100581814e-17
8.039348933327325037e-17
6.948678980421512121e-17
5.429598240579388392e-17
3.753018369485425382e-17
2.999891262294904339e-17
2.134893820581146711e-17
1.564039176802845242e-17
1.073694712168875303e-17
7.752705873055691667e-18
5.498557784583285739e-18
3.917087279014745713e-18
2.827469490873154001e-18
2.070726949457843193e-18
1.545760498932464269e-18
1.174849001320479642e-18
9.055568182297263394e-19
7.042225477897687884e-19
5.486435070525894023e-19
4.251684496347930433e-19
3.256136676547549420e-19
2.451656272264833300e-19
