# bin_20_11
5.750543886245339222e-25
6.489894912541597039e-25
7.200296332211213075e-25
7.821560751634526690e-25
8.274411465147925030e-25
8.465021612163151670e-25
8.320552192133676636e-25
7.735052331358114782e-25
6.797608663356920499e-25
5.655926655742031152e-25
4.625646805342920712e-25
3.920351161370823816e-25
3.384663248386915541e-25
2.613261343318588948e-25
1.804085297830989486e-25
1.453807507098344379e-25
1.009568594874923176e-25
7.469822419101975346e-26
5.031368510218923610e-26
3.556160855995592742e-26
2.477122348127733877e-26
1.724332599161638420e-26
1.207249174276502007e-26
8.535105591026842934e-27
6.143930153054272141e-27
4.510219948150820934e-27
3.374693192577248588e-27
2.568372391861556041e-27
1.976998466994260075e-27
1.528442432287264102e-27
1.177924855039041275e-27
