# bin_18_5
2.943739647009568743e-49
3.293132650570499693e-49
3.615027696723660615e-49
3.875820023988356958e-49
4.033195015604358725e-49
4.049847265448412148e-49
3.872869763426128927e-49
3.495031029687553254e-49
2.981471810302094314e-49
2.443294016132147256e-49
2.022955085679939857e-49
1.748668137310217187e-49
1.452736347616694374e-49
1.033803625641504622e-49
7.633756174488496770e-50
6.013922379237650172e-50
4.037137286536493669e-50
2.992640574078634725e-50
2.112344548149286502e-50
1.470500765398227072e-50
1.032262576717443511e-50
7.298134632435254086e-51
5.234199565921801579e-51
3.815472646044057472e-51
2.837233271215981511e-51
2.147660917083825802e-51
1.649452527241978420e-51
1.278119538890764540e-51
9.920231726622205277e-52
7.657110945024480911e-52
5.839969009624468048e-52
