# bin_16_16
9.539035595164382755e-11
1.076525044799461621e-10
1.194334903754986712e-10
1.297346716717638597e-10
1.372408896720818682e-10
1.403964301420696872e-10
1.379919039723770729e-10
1.282726298894569720e-10
1.127190946060156326e-10
9.378351846395339162e-11
7.670120300711087801e-11
6.500975518509450698e-11
5.612336553534493323e-11
4.332394762131532925e-11
2.991147198816176581e-11
2.410544461670995487e-11
1.673546017644528725e-11
1.238443179746621755e-11
8.342595227741908330e-12
5.895734171748251986e-12
4.107025834271001262e-12
2.859070114237334467e-12
2.001822617613881710e-12
1.415370552913112589e-12
1.018931910932162831e-12
7.480562167010044387e-13
5.597642590796834602e-13
4.260447019188164883e-13
3.279585777001653942e-13
2.535509871607175431e-13
1.954007373462343004e-13
