# bin_12_2
9.481542173573514661e-43
1.036410398884846501e-42
1.105687000480545518e-42
1.143650823557543349e-42
1.140568781560010512e-42
1.080732380765399778e-42
9.669568056140016351e-43
8.177624893900162311e-43
6.687820343323109853e-43
5.571164521571464199e-43
4.821490505144304049e-43
3.930844350115658609e-43
2.758838700801637978e-43
2.101522667238759770e-43
1.609442639505104459e-43
1.116382137810137628e-43
8.112312529891671382e-44
5.888573435240169311e-44
4.197988380676258252e-44
3.021141860902025938e-44
2.209520596911632800e-44
1.644476843289833823e-44
1.246075722868092670e-44
9.602323493417361393e-45
7.485944877527974609e-45
5.868486370078003516e-45
4.593935461804488455e-45
3.565944073741232653e-45
2.728255224161655313e-45
2.047195881176166039e-45
1.500740013498100323e-45
