# bin_17_12
2.140276703112922385e-15
2.407459830508619949e-15
2.660444765575650170e-15
2.875973432203023692e-15
3.024094375862220434e-15
3.072357638468099692e-15
2.989693715379273273e-15
2.746994018006436631e-15
2.386838054389545810e-15
1.971358664444323216e-15
1.616689815406276462e-15
1.382727654031322507e-15
1.182240698471761590e-15
8.830977821862300793e-16
6.180064786757439323e-16
5.038836723788955971e-16
3.361686956756534843e-16
2.552048913983946388e-16
1.740249464870913932e-16
1.207568584708965621e-16
8.477729742931675635e-17
5.951927943928108067e-17
4.205084965755214218e-17
3.007451517609695312e-17
2.193725100736595675e-17
1.631433099044473259e-17
1.234965039806242792e-17
9.481100443585216432e-18
7.333842501117269210e-18
5.674288742166056949e-18
4.359687603217052930e-18
