# bin_19_11
2.607551686252426012e-22
2.938567617239268090e-22
3.254626111538897757e-22
3.527976944270447014e-22
3.722436024168555263e-22
3.796536020962740192e-22
3.715596011584290202e-22
3.436302767191960954e-22
3.005005041205467328e-22
2.491527019699740935e-22
2.039565863534945292e-22
1.735889653148636360e-22
1.493568183447567812e-22
1.136290061468334027e-22
7.876859966577811691e-23
6.396590031171668194e-23
4.348931840478440170e-23
3.267364236889232750e-23
2.206790169795291572e-23
1.544054381812754970e-23
1.080582167037399668e-23
7.561133906418681297e-24
5.315124194266836300e-24
3.776540327144785116e-24
2.734682809864985158e-24
2.019390941423062779e-24
1.519127317077699481e-24
1.160964806624961260e-24
8.958571745916615325e-25
6.930211090461313522e-25
5.334771299752880755e-25
