# bin_16_11
1.167390948828953193e-15
1.309481533386253526e-15
1.442235826577001684e-15
1.552624704845940705e-15
1.624101921255968869e-15
1.640460616185974199e-15
1.582370929043632117e-15
1.440380990601300318e-15
1.239739688793338600e-15
1.019234868111286451e-15
8.393755515350658890e-16
7.223880537850176790e-16
6.096789499543901041e-16
4.436170512212801744e-16
3.180272758011140453e-16
2.567671780465686824e-16
1.701344967995528445e-16
1.287343438529431239e-16
8.930370929130565611e-17
6.189929569685646091e-17
4.346794558500993584e-17
3.058513444542518972e-17
2.177057824892467218e-17
1.572373083146767074e-17
1.158685907138203993e-17
8.699639155676759000e-18
6.638623886002873168e-18
5.124307137656510117e-18
3.973089875282801437e-18
3.071738951591034231e-18
2.351927585452927535e-18
