# bin_17_7
1.173035052594145181e-32
1.311875021291097416e-32
1.439586237318726392e-32
1.542745320678446473e-32
1.604460299209860279e-32
1.610023427035252339e-32
1.538211266544351468e-32
1.386876517108101545e-32
1.181965015842288740e-32
9.683476628152044503e-33
8.022760374140298811e-33
6.937346184335831779e-33
5.752491846494763564e-33
4.084914158830221676e-33
3.026265467412666282e-33
2.376523754243799971e-33
1.598843041425744686e-33
1.181671153790580097e-33
8.357331872053747823e-34
5.821231487399356921e-34
4.086484902506513731e-34
2.891178821833304670e-34
2.075290525825592821e-34
1.514267787673391429e-34
1.127091849915459686e-34
8.538657406819901818e-35
6.562027605583481193e-35
5.086537159767610825e-35
3.948181239598488810e-35
3.046804342562501772e-35
2.322713706562303608e-35
