# bin_19_7
2.339330541916240502e-40
2.626710444170009260e-40
2.896552243161955750e-40
3.122981657089678204e-40
3.272993812620773516e-40
3.313033378716823662e-40
3.205991797616195622e-40
2.928078060351662071e-40
2.528803823499919497e-40
2.082169563903831621e-40
1.711781395046538398e-40
1.470115419512464169e-40
1.247197443823962331e-40
9.159568926342004889e-41
6.500549111821552643e-41
5.279971847159914870e-41
3.496319782741810030e-41
2.655619249753433910e-41
1.830753897605634949e-41
1.267961327232133979e-41
8.905824703397807986e-42
6.260477311594331496e-42
4.444051567924161858e-42
3.198319810793158549e-42
2.348385730842486722e-42
1.757361921393948851e-42
1.337358350945577792e-42
1.030465382667480035e-42
7.984199485374067088e-43
6.175381573134100835e-43
4.734640707628726287e-43
