# bin_20_14
1.368904346388773624e-16
1.548919297304908595e-16
1.723873938587274686e-16
1.879851337145825241e-16
1.998253122660200254e-16
2.056193809291878115e-16
2.036872903838725920e-16
1.911847098897752982e-16
1.695237331884003909e-16
1.421102946875597582e-16
1.161512934950486237e-16
9.765289064155337477e-17
8.458756029819888155e-17
6.713243154659073324e-17
4.633453677565185191e-17
3.647373065141597286e-17
2.648695115025022145e-17
1.884756079376698761e-17
1.288902616451391206e-17
9.222168802256307613e-18
6.368106207903110778e-18
4.381902193731462809e-18
3.043782272791096095e-18
2.132710399571359707e-18
1.517806714810858188e-18
1.101269342244726434e-18
8.149276630054703761e-19
6.146001478894047973e-19
4.702479552139921968e-19
3.626774205306176747e-19
2.798299041839075519e-19
