# bin_20_10
7.709971467344104880e-29
8.693823718232071832e-29
9.635637134850685717e-29
1.045391566484413677e-28
1.104195051268268096e-28
1.127570028466583722e-28
1.105486940785357564e-28
1.024532301735595098e-28
8.977444607664856166e-29
7.453656123698044845e-29
6.098988237717705827e-29
5.182204614800826770e-29
4.465680421268828495e-29
3.417654004468406025e-29
2.364438626656143430e-29
1.914933884502432884e-29
1.312476461333514823e-29
9.806651559045990338e-30
6.611269066401869702e-30
4.644076605730050276e-30
3.244454791318627742e-30
2.266035052518462692e-30
1.590334891395211567e-30
1.127675054815156711e-30
8.146355880242642264e-31
6.001447502883004371e-31
4.505122975735204531e-31
3.437403016788587142e-31
2.649992357968227466e-31
2.049601881401620213e-31
1.578551814382504970e-31
