# bin_18_9
8.523173973377939074e-27
9.570485095327601578e-27
1.055401391603252504e-26
1.137951348591457660e-26
1.192674819214637221e-26
1.207335248842989232e-26
1.168429659907452972e-26
1.067241679651121301e-26
9.217982233683902625e-27
7.590241810117027913e-27
6.239767607775523220e-27
5.358529823079807921e-27
4.546618217070260396e-27
3.339951703976473743e-27
2.369743444928353254e-27
1.925049736898436180e-27
1.274763352675417850e-27
9.683136031360925822e-28
6.674315953893496142e-28
4.622516158524552725e-28
3.246747891110253402e-28
2.282303356892447421e-28
1.619994519816577361e-28
1.165775382145181335e-28
8.558939670816891934e-29
6.404308368762570208e-29
4.873331044947293280e-29
3.754826108763257476e-29
2.909236535836990319e-29
2.250171411319867847e-29
1.725258641087057099e-29
