# bin_13_13
1.162976365950840794e-10
1.301888900253985393e-10
1.430327088631573683e-10
1.535087799512357530e-10
1.599518283854671957e-10
1.608527018554862621e-10
1.541561489342958361e-10
1.394112751054517302e-10
1.191880879216055461e-10
9.774143075697319426e-11
8.081038748722998320e-11
6.979003788790581625e-11
5.822183238943323770e-11
4.164608180411038933e-11
3.052173132801624160e-11
2.421318030189006913e-11
1.618214931586939469e-11
1.207105894077260868e-11
8.482180882245146356e-12
5.897492047522805827e-12
4.140034441488733392e-12
2.922733039407297692e-12
2.092171697655846210e-12
1.521642194130047305e-12
1.129035877542397416e-12
8.529767338788540995e-13
6.541256831426380036e-13
5.064329125274832162e-13
3.930044599196407680e-13
3.034911546142343982e-13
2.317016220953173039e-13
