# bin_13_6
2.696471900138091527e-23
2.979778366047549728e-23
3.222376272119997976e-23
3.391088760765022209e-23
3.449167625861620071e-23
3.363242985056306953e-23
3.098198562779610437e-23
2.699115296364863956e-23
2.232847081117240263e-23
1.829124824415471164e-23
1.559962626439214942e-23
1.336925177409710621e-23
1.008188455036516272e-23
7.040576427434423278e-24
5.733507155932813543e-24
3.891555957868391822e-24
2.954832740273921148e-24
2.034316506417231763e-24
1.443269025277277126e-24
1.033568144376573326e-24
7.443601660975086125e-25
5.420595980810338197e-25
4.009045680715247083e-25
3.023694514686965830e-25
2.318432348024150022e-25
1.798691994966543733e-25
1.403677053968237683e-25
1.093821047688402971e-25
8.453160248351280443e-26
6.439607894732011216e-26
4.813046002103828065e-26
