# bin_13_19
7.391792136768713432e-08
8.270867664322524518e-08
9.082162513720139804e-08
9.741656260394591715e-08
1.014341280770091201e-07
1.019264455505086643e-07
9.758724939848285384e-08
8.818125949259306973e-08
7.532886546387049873e-08
6.177308632101705732e-08
5.111084056445367244e-08
4.413490147571231410e-08
3.673527126050930553e-08
2.624802555721046248e-08
1.929565329200958404e-08
1.524354623856836311e-08
1.022535746255374415e-08
7.594532453233426050e-09
5.345480238175312635e-09
3.718700087056627694e-09
2.610629589864296206e-09
1.844431589917473906e-09
1.321052397059150248e-09
9.614225586167906521e-10
7.137867287772144537e-10
5.395258140710223711e-10
4.138827595890186861e-10
3.204589714950370473e-10
2.486411764774230464e-10
1.919306319404346784e-10
1.464429799505496196e-10
