# bin_7_18
2.236526540867518570e-07
2.428395234016359577e-07
2.569365071136729909e-07
2.630900202177653168e-07
2.589984754065264254e-07
2.414396183528152298e-07
2.127598421316543739e-07
1.775712336331188202e-07
1.452161196041788105e-07
1.225481151316325598e-07
1.056516808179496501e-07
8.258756250041618362e-08
5.753303824665913946e-08
4.575516129944545338e-08
3.287517441701078822e-08
2.409345300235615934e-08
1.691784061366255061e-08
1.231415684634200863e-08
8.884995953898435409e-09
6.468185778375207580e-09
4.785555434624342333e-09
3.600762836153200819e-09
2.758567714216391719e-09
2.144234683686678550e-09
1.681113299879879950e-09
1.320780314503445670e-09
1.032470634809596763e-09
7.977646204911861012e-10
6.058813626405819306e-10
4.502622634194421168e-10
3.263398367786756364e-10
