# bin_12_18
8.201907073835716817e-08
9.146394946656753653e-08
1.000211870652207655e-07
1.067332942773288585e-07
1.104057077263757231e-07
1.100936524372934525e-07
1.042837749353618706e-07
9.327414948103853714e-08
7.885713188271386742e-08
6.450866761642250513e-08
5.379246422580562167e-08
4.656639888549080668e-08
3.787522099838754141e-08
2.651274475660458499e-08
2.021752603778635210e-08
1.536776703109147016e-08
1.061484177205012656e-08
7.613099844404749805e-09
5.462508499260425597e-09
3.826207671625457390e-09
2.692354850747604606e-09
1.918134761203184225e-09
1.386719380481980228e-09
1.020189073968533988e-09
7.652390330691410187e-10
5.835656674562444889e-10
4.506141451814774975e-10
3.500943311035675901e-10
2.716858088864950762e-10
2.091320882825661600e-10
1.587334795466528052e-10
