# bin_11_13
3.827394486808790114e-08
4.249195299531623453e-08
4.621447351328773985e-08
4.898147539754843816e-08
5.023929969385021852e-08
4.956477939210016041e-08
4.630473458404961669e-08
4.088416426284698603e-08
3.415850853876741968e-08
2.792366380994657006e-08
2.354661367657298770e-08
2.034875282611771471e-08
1.596666538165310012e-08
1.105437837915030793e-08
8.787010917834653949e-09
6.299747574390656097e-09
4.581255464440694301e-09
3.162768479405071520e-09
2.282068822780509598e-09
1.616065625176762743e-09
1.149120899200804909e-09
8.281481262720572689e-10
6.055813934311093847e-10
4.512895852859872142e-10
3.424766135040251024e-10
2.636474464186357472e-10
2.048543434037923279e-10
1.595316013589688343e-10
1.236295292528862740e-10
9.471702788520794628e-11
7.136351373174088025e-11
