# bin_16_19
3.194837896700729344e-08
3.603113703500971219e-08
3.994446475673488002e-08
4.335232719310321464e-08
4.581391219236810506e-08
4.681463779354294178e-08
4.594068709042496627e-08
4.262945533432567135e-08
3.739787407776507710e-08
3.108304282850938353e-08
2.543227624133793526e-08
2.158373041171718543e-08
1.860373652872688028e-08
1.429096395563367864e-08
9.887170069126462109e-09
7.980573985715788900e-09
5.506546121176314377e-09
4.090036797662997103e-09
2.761197121740517391e-09
1.944631988838714219e-09
1.356170769895596778e-09
9.451490225870062969e-10
6.624414309733783757e-10
4.690283700602687517e-10
3.382168638324755521e-10
2.487134366847143192e-10
1.863891047983865736e-10
1.420212324337174764e-10
1.093883138683172077e-10
8.456990958085896110e-11
6.513785054167740858e-11
