# bin_10_10
9.285181631707048914e-09
1.024458913757378411e-08
1.105718815015610943e-08
1.160787904944333800e-08
1.177468620707476538e-08
1.143499424935023819e-08
1.048755038720694538e-08
9.096603519901399414e-09
7.507624208333344503e-09
6.160226779698420767e-09
5.269773355803016026e-09
4.492678373687736418e-09
3.347578857517296824e-09
2.358863221734357999e-09
1.918636032754873952e-09
1.293205439817795560e-09
9.842803273453175333e-10
6.824307511871851466e-10
4.829594317787942107e-10
3.462554182496314053e-10
2.497764312836037880e-10
1.824488057826868799e-10
1.354242487143477800e-10
1.024886694566598822e-10
7.880263173564995202e-11
6.125401230069684912e-11
4.784140201008068335e-11
3.727042565476408481e-11
2.876698854155690888e-11
2.186965218744113393e-11
1.630125342437475828e-11
