# bin_3_17
5.010383134921550607e-07
5.157050104568975733e-07
5.112815912550643949e-07
4.815314302790102677e-07
4.286925811622410627e-07
3.614424263361880633e-07
2.960066620011673997e-07
2.474325798176626333e-07
2.129477829498438596e-07
1.713007299975228056e-07
1.217243748397847196e-07
9.341388914375501679e-08
7.069343102283766084e-08
5.049499911607122717e-08
3.707506092408326495e-08
2.721074816429491139e-08
1.999843549029157272e-08
1.493607264707360675e-08
1.135931036588608953e-08
8.796146824808200690e-09
6.916465810966235412e-09
5.493975866912822669e-09
4.376516265684195317e-09
3.471085052134198698e-09
2.722118132487812951e-09
2.097751641007306620e-09
1.580524602859842402e-09
1.160150846390768864e-09
8.281652038457761479e-10
5.752795539479185799e-10
3.897124286273330238e-10
