# bin_7_20
2.415011847341044952e-07
2.622294142259473404e-07
2.774653981663198868e-07
2.841270517590384929e-07
2.797301984749500689e-07
2.607908459806426961e-07
2.298333021915516316e-07
1.918349273393194897e-07
1.568797364082082402e-07
1.323809051340375894e-07
1.141332986484833449e-07
8.924065120469382597e-08
6.216742351260423845e-08
4.943045958033926102e-08
3.552880744180610010e-08
2.603034876078479405e-08
1.828008304770470589e-08
1.330611937276775196e-08
9.600040076544156669e-09
6.988216644528018117e-09
5.169959636161227503e-09
3.889745046005138891e-09
2.979769737815448282e-09
2.316062015125389356e-09
1.815772977825083537e-09
1.426562226149951212e-09
1.115173428112075813e-09
8.616917439204859431e-10
6.544614742053878529e-10
4.863928053649336787e-10
3.525501789898867024e-10
