# bin_16_16
5.468494782336486409e-09
6.160481336055626454e-09
6.820498785411986027e-09
7.390294890992415102e-09
7.794025927655677173e-09
7.945370448513856679e-09
7.770812716317628578e-09
7.181819068430313236e-09
6.276311970809945580e-09
5.202275487860085740e-09
4.259641433684134180e-09
3.626826795405789030e-09
3.117635743833874654e-09
2.367457412071239836e-09
1.643321237343001998e-09
1.334290155172913337e-09
9.059374464578470674e-10
6.808241601885608403e-10
4.603916630101303094e-10
3.219435726083709671e-10
2.252724446468821773e-10
1.576057631672186216e-10
1.108127139327786434e-10
7.876592974316087802e-11
5.706130528604169738e-11
4.215393453989947454e-11
3.172291629921673890e-11
2.424944520105441606e-11
1.871327704581469463e-11
1.447444817516050145e-11
1.113875758240519782e-11
