# bin_12_20
9.994603873050513507e-08
1.114633961617310456e-07
1.219026282529812958e-07
1.300976069392532936e-07
1.345930546368853207e-07
1.342353447514531021e-07
1.271808320290501912e-07
1.137786580081007909e-07
9.621319687801602176e-08
7.870973084378296919e-08
6.562270937717292668e-08
5.680600984445423367e-08
4.622859732101944907e-08
3.237209099983429870e-08
2.466617370690763451e-08
1.876632957087732638e-08
1.295254953994877263e-08
9.297216637986865107e-09
6.668510191728362023e-09
4.670192896510562650e-09
3.285941911480825719e-09
2.340571254031690609e-09
1.691784196961915556e-09
1.244338519049063335e-09
9.331752528589392833e-10
7.115058876494979949e-10
5.493365882956644473e-10
4.267688100591163638e-10
3.311901790558491175e-10
2.549531990756248590e-10
1.935347453131103203e-10
