# bin_11_18
1.019951942326678904e-07
1.133084306769224165e-07
1.233322367521307849e-07
1.308453729371732182e-07
1.343678755224566178e-07
1.327736587633554608e-07
1.242887211277247359e-07
1.099450862420000432e-07
9.200832351426170017e-08
7.521259096163612938e-08
6.331864894777686856e-08
5.474730143567678349e-08
4.319407556724141151e-08
2.992629750487286802e-08
2.365847029292890793e-08
1.711056351031871913e-08
1.234713450546935743e-08
8.560927725259729983e-09
6.180288641892008671e-09
4.369204296653326393e-09
3.100976660328771400e-09
2.231174019800082005e-09
1.628877850271313794e-09
1.211660316029909541e-09
9.180259838061394090e-10
7.058192540978647668e-10
5.479829119803303995e-10
4.266379199463062856e-10
3.307135560346609861e-10
2.535552978800710778e-10
1.912467908413334212e-10
