# bin_1_15
7.902762383320756324e-07
7.623375168346270096e-07
6.963985426520872762e-07
6.023596502729833693e-07
4.986836935084244512e-07
4.111758898903116951e-07
3.497917169104743802e-07
2.934881862953785474e-07
2.211594807588515726e-07
1.606788900212611659e-07
1.259778246029178815e-07
9.074015023371185387e-08
6.751838571644748230e-08
4.936691697294260911e-08
3.674526036949659601e-08
2.768921316240987468e-08
2.124377320118020013e-08
1.660587982131573103e-08
1.317931317478530552e-08
1.056385090075318926e-08
8.488101942961918748e-09
6.785284213082940504e-09
5.358645863420262443e-09
4.155060219081443712e-09
3.147558134203618528e-09
2.321601561863696078e-09
1.665254423800420378e-09
1.162387409036458039e-09
7.914276150516620310e-10
5.272458344651510854e-10
3.448411584406446227e-10
