# bin_1_11
7.225211727038028558e-07
6.967597047143864083e-07
6.362783385420230899e-07
5.501811885206134374e-07
4.554113173592393644e-07
3.755440373629310851e-07
3.195292081072436245e-07
2.679865886613154849e-07
2.018020892867630585e-07
1.466801648350713596e-07
1.149951018720380092e-07
8.280269999528716231e-08
6.162577822067479460e-08
4.506030011393453822e-08
3.354203790302359729e-08
2.527967377990864381e-08
1.939855879300280857e-08
1.516601027600391056e-08
1.203813526570401824e-08
9.649922741023966790e-09
7.753916667414410311e-09
6.198154966765084143e-09
4.894521055384610462e-09
3.794663646276866401e-09
2.874057395456197528e-09
2.119467532741058465e-09
1.519972878408114571e-09
1.060786435110130780e-09
7.221366396833388982e-10
4.810203473911591683e-10
3.145735229126112929e-10
