# bin_2_16
6.238556183366450015e-07
6.260808047761088240e-07
5.997752914944285954e-07
5.433618871054648985e-07
4.659523934805978240e-07
3.836219706487765109e-07
3.171270267120000068e-07
2.715028888455073450e-07
2.258822070099866446e-07
1.661100031721907147e-07
1.219306156113876813e-07
9.589135620349774900e-08
6.771334748747928686e-08
5.075034341234792200e-08
3.688903901273761810e-08
2.725467833377970030e-08
2.043418351465382563e-08
1.558503721840109483e-08
1.210710913345038047e-08
9.551376281556945951e-09
7.616042320598706804e-09
6.092759691506759969e-09
4.853928328117236644e-09
3.824147746514777038e-09
2.960704334569362637e-09
2.240941524041104511e-09
1.652227899523324913e-09
1.184640600996299488e-09
8.264090550057726574e-10
5.621437269798767860e-10
3.740450694493049992e-10
