# bin_1_8
6.397987889295884269e-07
6.166955348023870672e-07
5.628773783774150509e-07
4.864763266838139461e-07
4.025799250710506472e-07
3.320409870020185136e-07
2.825816083140158026e-07
2.368516004073897741e-07
1.781685820951337689e-07
1.295890727569331590e-07
1.015862575674025292e-07
7.311183918646796195e-08
5.443147321304772013e-08
3.980233661652450711e-08
2.963121247708961730e-08
2.233785882649628502e-08
1.714573018288143452e-08
1.340806862578769512e-08
1.064486727061468113e-08
8.534104746322712331e-09
6.857547372117754661e-09
5.481326874514623620e-09
4.327869495557420255e-09
3.354654237298369450e-09
2.540139402842717528e-09
1.872681397452895642e-09
1.342598134303273381e-09
9.367414507986317771e-10
6.375390444788143186e-10
4.245834872439298748e-10
2.776196596527100334e-10
