# bin_3_13
4.462194096634839333e-07
4.592080651418242478e-07
4.551770363484954785e-07
4.285794557836576495e-07
3.814548247367975321e-07
3.215426755852959235e-07
2.633239372487532403e-07
2.201545331143992128e-07
1.894673370597161570e-07
1.523221770243928937e-07
1.082117691555750433e-07
8.309839095581317264e-08
6.283810006022911354e-08
4.490918464693396783e-08
3.296075714821623893e-08
2.419575773738968296e-08
1.778502075791733204e-08
1.328459537412327043e-08
1.010481713999128724e-08
7.825815048148981386e-09
6.154222574137125992e-09
4.888866383352716772e-09
3.894588733349893937e-09
3.088795807771133377e-09
2.422155701949812059e-09
1.866393210019539902e-09
1.406016010314331818e-09
1.031892444286462500e-09
7.364874077743445707e-10
5.115161854760058103e-10
3.464694645982199086e-10
