# bin_11_6
3.642180757341867125e-17
3.998641892191686518e-17
4.289413378900774247e-17
4.468246100114724553e-17
4.493039211178651160e-17
4.307190329682473253e-17
3.897137436084202416e-17
3.333898430705501047e-17
2.734615710640567994e-17
2.259096265021476725e-17
1.948537056069457219e-17
1.627414478459863316e-17
1.169281967932984254e-17
8.558502705241087025e-18
6.818325973660265418e-18
4.593377421205506668e-18
3.456489687162594396e-18
2.455483827389767746e-18
1.737973056654879341e-18
1.247855405820753335e-18
9.051039163957224610e-19
6.676936591097091667e-19
5.012484261333641939e-19
3.832435099191624518e-19
2.970574231197396963e-19
2.321195303941088844e-19
1.816298529849562169e-19
1.412923909522882052e-19
1.085808191039250867e-19
8.198991350821752101e-20
6.057863534279507524e-20
