# bin_3_1
6.061475918248576122e-11
6.067037681713155025e-11
5.787697727036578410e-11
5.217592626335539974e-11
4.450650763266607020e-11
3.651907391070300510e-11
3.023719002932415727e-11
2.600008257705162510e-11
2.152657956654838176e-11
1.556857875221305667e-11
1.154561212311856248e-11
9.090408252619227864e-12
6.351876734079406144e-12
4.783725687085660252e-12
3.494908855969366906e-12
2.577272647948938521e-12
1.936178083201744205e-12
1.480834362340097219e-12
1.153674716006800869e-12
9.124454506268205584e-13
7.288983473313500601e-13
5.836474829591973847e-13
4.649755627674859631e-13
3.660033081670224177e-13
2.828712960148674954e-13
2.135702610620023113e-13
1.569812450303694034e-13
1.121726835294901857e-13
7.798976073752018071e-14
5.288707647101005765e-14
3.509729557854859157e-14
