# bin_9_12
7.085577849530313600e-08
7.792903314043125642e-08
8.378082823772462641e-08
8.751914310576722433e-08
8.828433247634424920e-08
8.503552581710030377e-08
7.732366096351610642e-08
6.648828530357547776e-08
5.465987878807544585e-08
4.503813489837949463e-08
3.872860729542691325e-08
3.259974971376822480e-08
2.374792381121899191e-08
1.712359490727192335e-08
1.376176724825323493e-08
9.261700713956769695e-09
7.007081357687285334e-09
4.931467770794504831e-09
3.488394933099260081e-09
2.503854212542838538e-09
1.812521445079788175e-09
1.332170198592309641e-09
9.958800173472149881e-10
7.585761977577449792e-10
5.862610450489965983e-10
4.572371523285773099e-10
3.575484357252605133e-10
2.782954763641219690e-10
2.142109226165618737e-10
1.621559697481458880e-10
1.201998578215083998e-10
