# bin_15_11
1.988609894887355454e-13
2.225235374569911695e-13
2.443678438211199784e-13
2.621344107772720120e-13
2.729753398515976386e-13
2.743362727889392461e-13
2.626880505144965462e-13
2.373719090453975246e-13
2.027741700591545182e-13
1.662526725012241165e-13
1.375291091780506503e-13
1.187985922597769546e-13
9.893267903026390227e-14
7.063182145396072834e-14
5.191526879174286769e-14
4.106623341959486796e-14
2.749484975103360729e-14
2.045508227195678432e-14
1.439723647261065418e-14
1.001320599714383442e-14
7.028033042822755912e-15
4.963312348200505875e-15
3.554723624522936016e-15
2.587069237992931756e-15
1.920790244451048808e-15
1.451955010101483940e-15
1.113943250318874261e-15
8.626095766072035209e-16
6.693857537186367561e-16
5.167827115857564506e-16
3.943527959268532649e-16
