# bin_20_12
1.261716554748441330e-21
1.424608634469012835e-21
1.581527987951554224e-21
1.719381795376172044e-21
1.820855377639566801e-21
1.865222237287210430e-21
1.836752863849730326e-21
1.711415152662875628e-21
1.507247135190829546e-21
1.256276726328695181e-21
1.027169066868278640e-21
8.688182556188594346e-22
7.508183998647761856e-22
5.835032548208325114e-22
4.024730012522992644e-22
3.228196868864180096e-22
2.264957476450592511e-22
1.661683515245818341e-22
1.120284772596118668e-22
7.950372744522530858e-23
5.524714114987635509e-23
3.834233866108672686e-23
2.678844922186102566e-23
1.889238910026074408e-23
1.355897852641157476e-23
9.923559388529767260e-24
7.404387511200016878e-24
5.622665125931928745e-24
4.321818457237481858e-24
3.339445862708683848e-24
2.574427470742445763e-24
