# bin_11_19
1.113179540706932869e-07
1.236693874530722538e-07
1.346152872517639737e-07
1.428230544815796476e-07
1.466772036112299388e-07
1.449487847079518252e-07
1.356997972567460978e-07
1.200508708248567767e-07
1.004738803688583690e-07
8.213272949086299914e-08
6.913859411631953156e-08
5.978093547770991974e-08
4.717875068898258298e-08
3.268829832237709713e-08
2.583469028996194979e-08
1.869284472235672905e-08
1.348358298885002018e-08
9.350993025114776603e-09
6.750802736690770176e-09
4.772119996160886713e-09
3.386619134190906941e-09
2.436491248463973284e-09
1.778620717942329194e-09
1.322923949410630955e-09
1.002242097652028488e-09
7.705173112257615750e-10
5.981881064808226772e-10
4.657195266999431928e-10
3.610130991227279486e-10
2.767960472753916540e-10
2.087881225356571670e-10
