# bin_4_3
2.947036996760202441e-09
3.050618474734943091e-09
3.046490700324591161e-09
2.895340184729291444e-09
2.599490788817101624e-09
2.207612302972271181e-09
1.808272780299303495e-09
1.501411377581213496e-09
1.294498886616734354e-09
1.063432717867150396e-09
7.593437382958715557e-10
5.703995893591326683e-10
4.443159447864262588e-10
3.100790985049690130e-10
2.311636911742521855e-10
1.688927825281784874e-10
1.234301173390269181e-10
9.176709349932724620e-11
6.943828694760908899e-11
5.352879396719352904e-11
4.193089915928796651e-11
3.323125815484629818e-11
2.645402957901176162e-11
2.100010148355930611e-11
1.650844472609368725e-11
1.276868489989728428e-11
9.665416813456601263e-12
7.131941360786040150e-12
5.118050710563498691e-12
3.572639769978255046e-12
2.430402773576827487e-12
