# bin_6_7
4.932007235614020800e-08
5.294747403284880768e-08
5.522937718402182085e-08
5.563249734694378967e-08
5.349619448644943378e-08
4.857786240902960525e-08
4.171813535739924246e-08
3.428730478260668710e-08
2.826895565815330735e-08
2.429641229410583394e-08
2.039594964516829986e-08
1.486532037677440853e-08
1.078167102512819146e-08
8.635130076278489282e-09
5.885973428368917985e-09
4.456319531672728717e-09
3.176153737534350525e-09
2.283693379084573032e-09
1.668434927576141640e-09
1.234335765061327537e-09
9.290194264289979207e-10
7.113506315806421067e-10
5.535104025835900838e-10
4.350725317654687226e-10
3.431677118566891365e-10
2.697422786090694998e-10
2.098345047695206208e-10
1.605930051008090514e-10
1.203247776707346921e-10
8.792776116030573541e-11
6.254260906038146896e-11
