# bin_19_1
7.370175551664841163e-92
8.243026853257580970e-92
9.046662036210227128e-92
9.696996106680968241e-92
1.008817699578596060e-91
1.012719290575195848e-91
9.681642162583358769e-92
8.734860054692918422e-92
7.449550052575666791e-92
6.104717426890829952e-92
5.055415055137513981e-92
4.369766429288424432e-92
3.627683284961041142e-92
2.580125090974256592e-92
1.907077889940956310e-92
1.500664847796946812e-92
1.008162023758952618e-92
7.464823922384334783e-93
5.271655124567220684e-93
3.669919159000086894e-93
2.575880831456126786e-93
1.821205480019801355e-93
1.306253198792101301e-93
9.523093382117202084e-94
7.082306776561508897e-94
5.361533999117264819e-94
4.118078754097507173e-94
3.191025289540986530e-94
2.476582881132055997e-94
1.911318588825712972e-94
1.457415908302525625e-94
