# bin_1_5
4.965848142025579863e-07
4.780836202602081038e-07
4.358012141795578372e-07
3.761866321984755367e-07
3.111150361753383498e-07
2.567258855579137605e-07
2.186156977552665257e-07
1.829488331951194217e-07
1.372528309009215377e-07
9.999994465084467565e-08
7.837205859819358718e-08
5.633443724139880855e-08
4.197625902454684737e-08
3.069943349289342006e-08
2.286055592697497296e-08
1.724481157128159217e-08
1.324549758471412939e-08
1.036461414179863898e-08
8.232757784999796482e-09
6.602333414615669865e-09
5.305698848693110504e-09
4.240310897965785122e-09
3.346848179269296395e-09
2.592883442119849944e-09
1.962040459104033903e-09
1.445430374225930749e-09
1.035516292940121023e-09
7.219873021457717252e-10
4.910785920576383978e-10
3.268765956326621562e-10
2.136429057922636274e-10
