# bin_4_18
4.101104968257208673e-07
4.302492363022045863e-07
4.363907051744566215e-07
4.240303864331763978e-07
3.896144357070763173e-07
3.386141311974425753e-07
2.801947113538046157e-07
2.299704389475703198e-07
1.959056233411894137e-07
1.666841515903779713e-07
1.258011703193736509e-07
8.939620494939468269e-08
7.169299315111462831e-08
5.022669397328025181e-08
3.775654933428024606e-08
2.688642435726639997e-08
1.965720686318351777e-08
1.448988576029140087e-08
1.082490466771181415e-08
8.231818977539502691e-09
6.367046071351524115e-09
4.998901969897358117e-09
3.959112269051980677e-09
3.140747938829475183e-09
2.478095086613487210e-09
1.931507441898658527e-09
1.478448998282326049e-09
1.106024439657200018e-09
8.059542525489792918e-10
5.712586850866415699e-10
3.941259080867271504e-10
