# bin_13_20
8.253131909206911186e-08
9.235004643903063433e-08
1.014135826579005385e-07
1.087841223645743318e-07
1.132791112906073928e-07
1.138387905042402061e-07
1.090061535221486057e-07
9.851178120094517497e-08
8.416451667401172824e-08
6.902164875170701354e-08
5.710360311032226498e-08
4.930703929722944161e-08
4.105011152754353394e-08
2.934001870187955719e-08
2.155937783718803791e-08
1.703834549270532187e-08
1.142673007317011758e-08
8.489618796971850103e-09
5.973978746213379014e-09
4.155658303447118426e-09
2.917376482425267650e-09
2.060987999291154726e-09
1.475993716374947362e-09
1.074040308188126299e-09
7.972932386376221606e-10
6.025755211904377027e-10
4.622078992591447853e-10
3.578570564458203123e-10
2.776545500010023573e-10
2.143321130331514309e-10
1.635447400632914476e-10
