# bin_4_17
3.996847684559897323e-07
4.193010355116188040e-07
4.252738982497327893e-07
4.132114154153086483e-07
3.796561845502288181e-07
3.299445707411114865e-07
2.730136247638782385e-07
2.240797965686801132e-07
1.908934353779870536e-07
1.624119240480311366e-07
1.225622779347966066e-07
8.710049841293482089e-08
6.985268515853472873e-08
4.893326254978250673e-08
3.678623060861313397e-08
2.619594203931339956e-08
1.915212588890939112e-08
1.411789258316682153e-08
1.054728842586220985e-08
8.020924687631681460e-09
6.204085374520721628e-09
4.871058572027731910e-09
3.857908927285151001e-09
3.060475401621221831e-09
2.414747176879055005e-09
1.882107582498204358e-09
1.440607652774021246e-09
1.077687771440607643e-09
7.852823508171909858e-10
5.565896744014370519e-10
3.839944338057282554e-10
