# bin_1_14
7.762963866578674109e-07
7.488068971116004685e-07
6.839939878631602786e-07
5.915937096886840817e-07
4.897553387889439991e-07
4.038239981025053029e-07
3.435476773449025714e-07
2.882264622161275086e-07
2.171654863382942013e-07
1.577905444800367589e-07
1.237117684218311908e-07
8.910242273054322736e-08
6.630256886612335212e-08
4.847833625465524134e-08
3.608434210049730652e-08
2.719205485797714588e-08
2.086305159709324714e-08
1.630879268677694128e-08
1.294385484101663411e-08
1.037528082463179133e-08
8.336618073696072921e-09
6.664142299350137147e-09
5.262883360058761673e-09
4.080699882237528587e-09
3.091126947299711195e-09
2.279895412204059118e-09
1.635278601976015712e-09
1.141424164361632893e-09
7.771308660270377989e-10
5.177081686092171678e-10
3.385960628012506852e-10
