# bin_13_2
2.698543656691140949e-48
2.960955240115496250e-48
3.174010248491462385e-48
3.303336365416929319e-48
3.318233169657224144e-48
3.176209645719468081e-48
2.869571496055349604e-48
2.451076118412063468e-48
2.009447786198059268e-48
1.661626941404116018e-48
1.434175279897191579e-48
1.194460482353992093e-48
8.550950349944388262e-49
6.290803094296377440e-49
4.990080323367677735e-49
3.370322131679517991e-49
2.527007222657864318e-49
1.800418001634808666e-49
1.275253069904781724e-49
9.156768529568849591e-50
6.647248070470505961e-50
4.909141417689340978e-50
3.689867026577180164e-50
2.824149702555310187e-50
2.190768965820928855e-50
1.712664528133338409e-50
1.340268034286209988e-50
1.042356276838183897e-50
8.005920611005797646e-51
6.040472451217729721e-51
4.458513602715954009e-51
