# bin_9_14
1.043007279771808874e-07
1.147464677524637045e-07
1.234079787398096821e-07
1.289740793413917550e-07
1.301697717013574914e-07
1.254765655113266218e-07
1.141894566991531219e-07
9.826905159815507085e-08
8.081649367461710336e-08
6.656333267456630420e-08
5.721068778742427883e-08
4.821641915206193316e-08
3.520017069469218453e-08
2.532461081991964914e-08
2.037743479961051445e-08
1.371503638805765179e-08
1.038294916853653907e-08
7.296951840691375384e-09
5.161861985637913676e-09
3.704548941280949383e-09
2.680714280559327101e-09
1.969103592377024073e-09
1.471031803030268425e-09
1.119821421048633079e-09
8.650314957234028440e-10
6.744457630180586434e-10
5.273424496640712166e-10
4.104891943522527272e-10
3.160460589723018473e-10
2.393411179229686600e-10
1.775074503175078022e-10
