# bin_16_8
1.003226652680572604e-24
1.120473976580937800e-24
1.227610933962016923e-24
1.313061312711892283e-24
1.362292343318759670e-24
1.363269964747486183e-24
1.297488649827981709e-24
1.165635243886344729e-24
9.897319433260507903e-25
8.101455021702212848e-25
6.730400219765085845e-25
5.825093338505162552e-25
4.791450982683750410e-25
3.376103369032219648e-25
2.534303231000243380e-25
1.963007197190789678e-25
1.334076758081098560e-25
9.730761211535664958e-26
6.935595837326214230e-26
4.841906826294709768e-26
3.399829050107505454e-26
2.412292914640617381e-26
1.737102169144046439e-26
1.272224894434314788e-26
9.503029192673367488e-27
7.221540882348035484e-27
5.562599379671307612e-27
4.317004112462833840e-27
3.351032491706347176e-27
2.583319569103319740e-27
1.965597803011241971e-27
