# bin_5_14
2.837991856987025444e-07
3.019972918148776156e-07
3.115359809835089849e-07
3.096997780968454219e-07
2.924632541127041505e-07
2.609459689917849512e-07
2.202723283722784455e-07
1.802539431991995165e-07
1.504651012479047989e-07
1.298605946796179807e-07
1.050324497463156853e-07
7.416002344280326930e-08
5.681078890897853485e-08
4.314684107346484977e-08
3.047758390938440513e-08
2.224031880467156373e-08
1.623168341033296917e-08
1.176830776458526171e-08
8.649619230748102395e-09
6.466889035622602026e-09
4.923125890604627906e-09
3.811924159703654406e-09
2.991225130079791328e-09
2.363159210378170776e-09
1.866685814558867436e-09
1.464019094448663109e-09
1.132580691598966391e-09
8.595181703350239278e-10
6.371015270798197869e-10
4.598546598500897948e-10
3.229367016374921236e-10
