# bin_10_14
7.713436554304762728e-08
8.529180667499334734e-08
9.230713603155627629e-08
9.723412191151724579e-08
9.901451178482616255e-08
9.670540210599764394e-08
8.926821891780225787e-08
7.792248735154074322e-08
6.456374471104319005e-08
5.287982321142334863e-08
4.501724119402584634e-08
3.861571372806941080e-08
2.930284181085086290e-08
2.045035209158821098e-08
1.657150962003807342e-08
1.136684046133476799e-08
8.557616897428462473e-09
5.893528715388935133e-09
4.198244630761361353e-09
2.999727284979741668e-09
2.155231154912932713e-09
1.567024898648561355e-09
1.157000602111352065e-09
8.710451872933190208e-10
6.668354328548229668e-10
5.167334567937419011e-10
4.029755127739131615e-10
3.139747593144662194e-10
2.427290023881714893e-10
1.850564439845898264e-10
1.384720482381343971e-10
