# bin_10_8
1.144996677237141349e-10
1.258782998592396931e-10
1.352618730490267578e-10
1.412063215017361315e-10
1.423380019554439614e-10
1.369443092846301543e-10
1.243632499712857430e-10
1.067935451615675392e-10
8.772683032253809915e-11
7.231695982298189333e-11
6.225020149426433762e-11
5.232215565409703405e-11
3.795806652589235183e-11
2.745043370242492309e-11
2.206097191174470912e-11
1.480662547848312478e-11
1.121501193352136889e-11
7.911658229434247097e-12
5.592334764459023179e-12
4.014876485441273820e-12
2.907222255153850076e-12
2.138768227316387604e-12
1.600653217399705895e-12
1.220519083092503625e-12
9.440731911816908954e-13
7.367380402086149591e-13
5.762693333685779180e-13
4.485143785077256523e-13
3.451170939519509021e-13
2.610997431249202216e-13
1.933900688039371451e-13
