# bin_4_11
3.062595543406622660e-07
3.211939358810621384e-07
3.256559183571177544e-07
3.162623552323906035e-07
2.904200607223480912e-07
2.522564389148077655e-07
2.086637437335701996e-07
1.712936146840707709e-07
1.459791020607015963e-07
1.241283954991608188e-07
9.353849342276434993e-08
6.652862096543152794e-08
5.336164400080490364e-08
3.734279574568229506e-08
2.809118308620163180e-08
2.000851460563968581e-08
1.462608409833939034e-08
1.078445340018863664e-08
8.059562990845458526e-09
6.131096114313073874e-09
4.743790784251651247e-09
3.725450885248740144e-09
2.951023394462032270e-09
2.341151298883310647e-09
1.847085064177692636e-09
1.439434284610873997e-09
1.101510476919486674e-09
8.237622373197821048e-10
6.000409715680117449e-10
4.251403424083986577e-10
2.932060698364496240e-10
