# bin_16_4
1.337804223537790908e-47
1.487029898589801968e-47
1.619692010396635772e-47
1.719813051288390966e-47
1.767828200650604033e-47
1.749251166769319349e-47
1.640058115771178763e-47
1.452890184324607309e-47
1.217096912368101280e-47
9.946159343947811092e-48
8.362724647667820658e-48
7.237898968740120675e-48
5.735795897286349296e-48
3.967457324293372793e-48
3.129728067177899304e-48
2.277694160799322158e-48
1.635134628862478974e-48
1.132726522984288762e-48
8.207959569064778222e-49
5.794502708981124061e-49
4.104447697004459952e-49
2.950203142401232606e-49
2.151250746875002584e-49
1.598153292795457756e-49
1.209488224523759485e-49
9.291201255006449607e-50
7.210204195353105248e-50
5.613420742059040582e-50
4.352878621490529674e-50
3.339595370517871123e-50
2.521278232036999065e-50
