# bin_1_3
3.254317912684448132e-07
3.124330147155655198e-07
2.839396642167885923e-07
2.443883743473656816e-07
2.018147081702130017e-07
1.667246211627607497e-07
1.421756263266208364e-07
1.185346806165267210e-07
8.836058761295314594e-08
6.464301647976908013e-08
5.063155922963275759e-08
3.628674696795130542e-08
2.709283117136834641e-08
1.982204916408948189e-08
1.476992805968530424e-08
1.115879524490338550e-08
8.584803028250772763e-09
6.727707677366126782e-09
5.350273992146412676e-09
4.293838130673652867e-09
3.451209466261137876e-09
2.757272270867402179e-09
2.174512476305534750e-09
1.682561903047178295e-09
1.271215032448231965e-09
9.348738243690519384e-10
6.685646028614656173e-10
4.653674535118551377e-10
3.160683905262106252e-10
2.101249077783830466e-10
1.371967008653428325e-10
