# bin_3_11
4.072079860070507599e-07
4.190024766799877947e-07
4.152506888892139939e-07
3.908966158722548779e-07
3.478384609807025238e-07
2.931483433395798222e-07
2.400655426710273690e-07
2.007423337878266434e-07
1.727576693429475281e-07
1.388162442599396699e-07
9.859563317165126354e-08
7.575745077522656215e-08
5.724791760833781287e-08
4.093408527837466341e-08
3.003284631941632182e-08
2.205016433648466705e-08
1.620986218756770036e-08
1.210933502819581969e-08
9.212067263489266830e-09
7.135286355196284245e-09
5.611778396303556220e-09
4.458245160116438424e-09
3.551628940394471992e-09
2.816742788512091249e-09
2.208689886803877383e-09
1.701748870257416925e-09
1.281828393364856552e-09
9.406183975023543116e-10
6.712456506600825726e-10
4.661395031172542828e-10
3.156959608810617619e-10
