# bin_18_5
1.395423362504715262e-49
1.560429922817225017e-49
1.712219283586554705e-49
1.834850160232826944e-49
1.908262061341144357e-49
1.914947253268341600e-49
1.829739911107804811e-49
1.649962544878196058e-49
1.406424572563141034e-49
1.152340663957702977e-49
9.546081234038098992e-50
8.253117014121282458e-50
6.844515521200219249e-50
4.862018153476691734e-50
3.600329524992383573e-50
2.828160678727104637e-50
1.902160399592179792e-50
1.406199579835953953e-50
9.941557349663774164e-51
6.923102947601607776e-51
4.859285134069728992e-51
3.436929977683735066e-51
2.466302595679135165e-51
1.799038401130179848e-51
1.338665624506330545e-51
1.013896616146510229e-51
7.790385214135290929e-52
6.037895908954354038e-52
4.686265754431947441e-52
3.616241692310629306e-52
2.756776851231186440e-52
