# bin_8_11
8.278895097983106884e-08
9.049551288492136142e-08
9.655087644518897854e-08
9.988434596901141283e-08
9.963004035521499150e-08
9.444930500361845412e-08
8.455684872233652730e-08
7.157209633970378582e-08
5.856600552968600661e-08
4.877331672828864663e-08
4.216752016662164768e-08
3.439025896634317768e-08
2.422547898998594044e-08
1.839687657634843427e-08
1.410232080710175005e-08
9.785822503735505041e-09
7.127264299192503577e-09
5.153751530724127044e-09
3.673180429894421954e-09
2.645266011774893555e-09
1.933648820868155369e-09
1.438100455461442588e-09
1.088878081103382625e-09
8.385220574146939283e-10
6.533368657901119956e-10
5.119499853084363260e-10
4.006502598142519169e-10
3.109578587735560662e-10
2.379126120811865278e-10
1.785459075253338921e-10
1.309220780801305590e-10
