# bin_1_16
8.027983643977678996e-07
7.744572531855443693e-07
7.075096319995671685e-07
6.120029887963939962e-07
5.066810574086069510e-07
4.177611743137775058e-07
3.553846688701901818e-07
2.982012518656085867e-07
2.247370068876666575e-07
1.632660574822912388e-07
1.280075910128847897e-07
9.220710595899088707e-08
6.860742498387752855e-08
5.016284219687270464e-08
3.733726233024682656e-08
2.813453100809946092e-08
2.158479562458146729e-08
1.687198864307214498e-08
1.339021945080890565e-08
1.073275812288437007e-08
8.623790065771144746e-09
6.893794240192556377e-09
5.444422877764212810e-09
4.221666743608344139e-09
3.198105042444970593e-09
2.358958863144488405e-09
1.692104559309475440e-09
1.181164740520415414e-09
8.042335901040884687e-10
5.357889730509558384e-10
3.504350550346264805e-10
