# bin_6_4
7.867940417553872333e-11
8.360991055860442102e-11
8.609514435840775002e-11
8.540974647235884021e-11
8.040935616109076171e-11
7.152723875152767471e-11
6.018219702462978182e-11
4.920090965039136833e-11
4.116359079486503235e-11
3.556955100570643370e-11
2.857942104769520018e-11
2.002717959830921502e-11
1.552531723023284224e-11
1.166236363039661848e-11
8.303999380406068580e-12
5.999322791539081654e-12
4.407029280166250259e-12
3.201103676392521668e-12
2.354474575702122838e-12
1.764007066739250550e-12
1.345766549770171075e-12
1.044156299496264930e-12
8.206224184698330317e-13
6.489363682657687355e-13
5.127662701744448108e-13
4.020243812212684411e-13
3.107242861612404034e-13
2.354656206052744300e-13
1.741998209259573191e-13
1.254504299682426021e-13
8.788551209616925529e-14
