# bin_14_10
1.255732745235133330e-13
1.400453139435848000e-13
1.531629605421313643e-13
1.634606252387590392e-13
1.691058588329352828e-13
1.686620834635744720e-13
1.597859867947846038e-13
1.429315437857341473e-13
1.208347281762031354e-13
9.883044288225093190e-14
8.239841171681599000e-14
7.135678634745595305e-14
5.808353646312599800e-14
4.060882158973380279e-14
3.097026185824843192e-14
2.356482082922700865e-14
1.625147086667865462e-14
1.165464919222191382e-14
8.375860437565140099e-15
5.865760110383747762e-15
4.124320968796143585e-15
2.937971428354147854e-15
2.124004792666265182e-15
1.562566210999325996e-15
1.172085386314705254e-15
8.938643896542997458e-16
6.902831519853779814e-16
5.363689374395968916e-16
4.163035348245605736e-16
3.205014915463131256e-16
2.432990490307586559e-16
