# bin_4_13
3.451025749406508466e-07
3.619835250640911101e-07
3.670736802118452951e-07
3.565704714001368131e-07
3.275214009292633361e-07
2.845565176292908659e-07
2.354182322237889290e-07
1.932403109429829219e-07
1.646529517754948405e-07
1.400453825680593807e-07
1.056055945098427190e-07
7.508170688826078291e-08
6.021805718993007726e-08
4.216171708788809533e-08
3.170628768461905318e-08
2.258103617700092843e-08
1.650785811189161210e-08
1.217038386771588754e-08
9.093874485833183640e-09
6.916822458283085210e-09
5.350931528321640859e-09
4.201755533888740996e-09
3.328075503522191464e-09
2.640221754970631231e-09
2.083099631741865538e-09
1.623482761323422550e-09
1.242495530942656207e-09
9.293358244807321293e-10
6.770580271051439787e-10
4.797924972249822620e-10
3.309527792641081842e-10
