# bin_20_11
4.846103079851905148e-25
5.467208705303832959e-25
6.063367257792033217e-25
6.583807322067693044e-25
6.961754743154733726e-25
7.118503620310587777e-25
6.992372444911783982e-25
6.495467613581184953e-25
5.704359725361249970e-25
4.744021851432845202e-25
3.880380413255945577e-25
3.290518315664401210e-25
2.839254669624981697e-25
2.187354144186535379e-25
1.510862650310420675e-25
1.218935122295735324e-25
8.436607703100253032e-26
6.257498286312009303e-26
4.214140295988746575e-26
2.973657020430313603e-26
2.072479688866495569e-26
1.443565260125355766e-26
1.010981604592458954e-26
7.150466644613716775e-27
5.150089741067485345e-27
3.782785162022958093e-27
2.831916099572342541e-27
2.156171896493310236e-27
1.660083822393814927e-27
1.283437498895026762e-27
9.888892218491354692e-28
