# bin_17_14
1.447947216706936825e-11
1.631033706315648098e-11
1.805595901977212763e-11
1.956194314838654579e-11
2.062739556759586494e-11
2.102398777437306282e-11
2.055674788794689081e-11
1.899237779711477125e-11
1.659260490471038868e-11
1.374972424578227727e-11
1.125869417796104805e-11
9.588893751831518930e-12
8.241473480856650790e-12
6.252149913513609797e-12
4.340243708379613253e-12
3.526722602714400478e-12
2.390268391486739892e-12
1.798827857683179162e-12
1.216428693580997217e-12
8.498736648577886573e-13
5.949293426220766260e-13
4.164186219116696566e-13
2.928618524058778174e-13
2.082327767615488164e-13
1.509109174198360050e-13
1.115282527372153223e-13
8.396037735509061987e-14
6.419852483326055389e-14
4.955073690454347040e-14
3.832912799936485184e-14
2.949453025171811303e-14
