# bin_18_17
1.362092031779608719e-09
1.540214806460112955e-09
1.712931353772574127e-09
1.866338287730261917e-09
1.981901312114256890e-09
2.036958002013314337e-09
2.014778161343184583e-09
1.887653679079814555e-09
1.670988981803431416e-09
1.398799153588049872e-09
1.143363680119654079e-09
9.626612269481586567e-10
8.333652397063344219e-10
6.579708072503522201e-10
4.539454929017973466e-10
3.590762963709105234e-10
2.585294781692589963e-10
1.853769144474842898e-10
1.262146653194029151e-10
9.015687534234194531e-11
6.234274575890718248e-11
4.297821055061679806e-11
2.989167943994596680e-11
2.097288473293209025e-11
1.495365734213962293e-11
1.087076419471803054e-11
8.059299861203783869e-12
6.087704019616008521e-12
4.662784054609726865e-12
3.597662771285733500e-12
2.775178518684185068e-12
