# bin_8_6
6.292187187099616029e-07
6.853605032428890424e-07
7.279352177087989763e-07
7.487218781999534364e-07
7.415020918939226570e-07
6.961683189141995425e-07
6.176000467915286578e-07
5.181482648302080341e-07
4.235472652431600602e-07
3.555993449917939854e-07
3.076461784191403156e-07
2.450071056801926842e-07
1.703456281573996685e-07
1.337197651354308573e-07
9.858463436445438969e-08
7.074689025576107183e-08
4.998013468975652927e-08
3.657550872884458534e-08
2.626291961947138081e-08
1.901241738091043417e-08
1.400480484353378374e-08
1.048948362201916654e-08
7.999616471548602380e-09
6.196046700811100743e-09
4.845843159591480623e-09
3.803042583868038040e-09
2.973810636825303607e-09
2.301236440427247543e-09
1.752137604341622230e-09
1.306478391901125005e-09
9.506066339068664387e-10
