# bin_10_8
7.719211218017751658e-07
8.517449405945642973e-07
9.193172269911166911e-07
9.650398976429679546e-07
9.788126239257420018e-07
9.502373614979123568e-07
8.711076224624008174e-07
7.552239406186657783e-07
6.231657764978368032e-07
5.115395994197967958e-07
4.379791474741277885e-07
3.732938516224366253e-07
2.776007531245476479e-07
1.958111573454287901e-07
1.594988282951954844e-07
1.072071532705162118e-07
8.178974601766357337e-08
5.678157321234888153e-08
4.014647901648535040e-08
2.880585170676723808e-08
2.079403611570974872e-08
1.520155133827283330e-08
1.128824152120348042e-08
8.548390342766801226e-09
6.575136248058506751e-09
5.111216774692970679e-09
3.991298957642718867e-09
3.107980735682591841e-09
2.397192404682028808e-09
1.820756827875949255e-09
1.355660722881554545e-09
