# bin_5_2
3.912486959263081442e-09
4.089121304037514106e-09
4.129262157073359692e-09
3.985969328833738773e-09
3.635076501496928431e-09
3.135709321739303152e-09
2.582971552941670879e-09
2.125436940621189138e-09
1.821487151639503205e-09
1.538740420316926406e-09
1.136637250236913697e-09
8.172340868076869882e-10
6.581898141987809491e-10
4.530208439148352411e-10
3.447271079971889488e-10
2.464205614074727576e-10
1.795329353173288368e-10
1.328762139371964505e-10
9.974168492450440771e-11
7.619813348766012383e-11
5.917162720702440158e-11
4.660623934782600452e-11
3.697420883873137746e-11
2.933446086082896903e-11
2.311212409846408051e-11
1.796188214714016301e-11
1.369070478611475536e-11
1.018757107480249305e-11
7.378300411282857457e-12
5.196480303719584291e-12
3.563149137914937025e-12
