# bin_19_19
7.763201002960391884e-06
8.823606032675523561e-06
9.875586720775707741e-06
1.084327757325260373e-05
1.162500346117021999e-05
1.209260971686400002e-05
1.213544995527112672e-05
1.159085548961554484e-05
1.044735459341025453e-05
8.899886165327625370e-06
7.293096784552486430e-06
6.049774370593582973e-06
5.236418337831992484e-06
4.334098244665726095e-06
3.067030282498893061e-06
2.278580507983204292e-06
1.778244071320443858e-06
1.191229708621218946e-06
8.698811837788652787e-07
6.085197356739160263e-07
4.156309261036071055e-07
2.839949583802076553e-07
1.943048691258764477e-07
1.340029995024866344e-07
9.339458077172148302e-08
6.627113417563963492e-08
4.793368730031208419e-08
3.540634020924679940e-08
2.666029178420287082e-08
2.036613255586952168e-08
1.567500043862088400e-08
