# bin_18_6
1.372065885408412632e-37
1.538830150497610530e-37
1.694479552357078491e-37
1.823655181880713399e-37
1.906856967365559601e-37
1.925244014737832397e-37
1.855618699548181995e-37
1.687880090780237465e-37
1.451653060010371129e-37
1.193321730045774730e-37
9.835770509974811347e-38
8.471342080170796502e-38
7.138528690466863702e-38
5.180785729797740592e-38
3.727701565918960617e-38
3.003096128243784985e-38
1.991836668366701818e-38
1.504902311938279086e-38
1.046383545815391767e-38
7.257327062384650956e-39
5.097125448053974672e-39
3.588545511713829473e-39
2.557405686672795413e-39
1.848944702430577633e-39
1.364259579917193645e-39
1.025321412757370480e-39
7.829282739089952789e-40
6.045047411149958908e-40
4.686181757274402853e-40
3.620843570307826162e-40
2.769619964280484990e-40
