# bin_18_12
2.302639032096720752e-12
2.597957336443734026e-12
2.881328043865352602e-12
3.128525454276912313e-12
3.307723293915285922e-12
3.381602841105221132e-12
3.320323348995395253e-12
3.082720461989666195e-12
2.705965994543202735e-12
2.249779127006866214e-12
1.840963212023753690e-12
1.562564267329481481e-12
1.347954971978626454e-12
1.036354795347562495e-12
7.164563358854666982e-13
5.789047389218338033e-13
3.994594264578613178e-13
2.971137098042279819e-13
2.002455060913478146e-13
1.411384701460842439e-13
9.849230994017024490e-14
6.870419036479119700e-14
4.818664095671040567e-14
3.412225187396416243e-14
2.461785083641954229e-14
1.811097397516461653e-14
1.357580484126867939e-14
1.034603793679122146e-14
7.969375032634918728e-15
6.160981948542485427e-15
4.744613679362914087e-15
