# bin_11_3
4.462254304376125351e-26
4.876549285008222266e-26
5.200936609298808109e-26
5.377232024611910507e-26
5.359860985509294196e-26
5.074662551261382589e-26
4.537515632726641999e-26
3.834938492296928780e-26
3.136882917139437330e-26
2.615932420285241202e-26
2.264331350407597074e-26
1.841874522995459712e-26
1.291275618342248443e-26
9.872449042915032820e-27
7.531054543514851390e-27
5.244009757577228342e-27
3.798257339091627460e-27
2.761056847419683941e-27
1.970053712078271148e-27
1.418525070106888621e-27
1.038192741439288064e-27
7.731269364634025247e-28
5.860693015277433271e-28
4.517758409000883507e-28
3.521868102982724608e-28
2.759991672172806938e-28
2.159211319805978732e-28
1.674503657050779268e-28
1.279622643145379640e-28
9.588324048864384427e-29
7.017657166770064170e-29
