# bin_15_4
8.356051925816191111e-38
9.283056800296823406e-38
1.010366907666658992e-37
1.071741955912136894e-37
1.100239023051778310e-37
1.086701742880352727e-37
1.016482330072659341e-37
8.985547521006515761e-38
7.513485995689136028e-38
6.142078051694026756e-38
5.176818376942066824e-38
4.478634159769558468e-38
3.524340698932478104e-38
2.436918166898465043e-38
1.936557886196906063e-38
1.393438477635275041e-38
1.011375814699175927e-38
6.970583969866588326e-39
5.045588071186345185e-39
3.571703108493130801e-39
2.538157563115696340e-39
1.829130573863262412e-39
1.336892058084815902e-39
9.958324142815807527e-40
7.554167801770455897e-40
5.812633123231375434e-40
4.514799995465851396e-40
3.515108773406252606e-40
2.723654490007522990e-40
2.086537115777209380e-40
1.572034015846364721e-40
