# bin_17_5
6.418281232982671872e-40
7.175908920763715839e-40
7.871559435669042395e-40
8.431496835770096813e-40
8.762904887705360494e-40
8.786550715981784281e-40
8.384645459493493153e-40
7.551877243907257071e-40
6.428907890872854701e-40
5.266806345251016076e-40
4.369139951705133768e-40
3.780094066772295412e-40
3.125778389224030511e-40
2.213637772380365764e-40
1.648552553917998367e-40
1.288271895049047970e-40
8.701930947917106954e-41
6.401804336620164945e-41
4.542312283206374003e-41
3.167584520873815406e-41
2.224505637837968873e-41
1.575945679585901585e-41
1.132966310817099115e-41
8.279095930183237800e-42
6.172026143865417567e-42
4.681272089047793987e-42
3.600268859322897893e-42
2.791377790770317968e-42
2.165954035064664957e-42
1.670030215518631775e-42
1.271492019725274772e-42
