# bin_19_16
2.852262443847931986e-07
3.234022667513769459e-07
3.608440998444500131e-07
3.947091116259012022e-07
4.211764512063846668e-07
4.354673032834148203e-07
4.339282517683537279e-07
4.104111882875897632e-07
3.665491724946285663e-07
3.093475616894753899e-07
2.530522728689690251e-07
2.115189290613456566e-07
1.833378177492736139e-07
1.484164737604644253e-07
1.032049423836777527e-07
7.931730067976393591e-08
5.955159479449017578e-08
4.113291058235371935e-08
2.889339680655679616e-08
2.058948190199978824e-08
1.414782101746099315e-08
9.682687187618943528e-09
6.683308695356597800e-09
4.652574254285680969e-09
3.282775240536456822e-09
2.360659904705088072e-09
1.731093860693357778e-09
1.295149925053556012e-09
9.851359231162552999e-10
7.573312393269075763e-10
5.840829937604455709e-10
