# bin_14_9
1.863445086872301356e-11
2.080252408416987146e-11
2.277679093115422947e-11
2.434054589961761817e-11
2.522192678670297019e-11
2.520266390371504645e-11
2.393397564190790621e-11
2.145899311427346656e-11
1.818270146458282836e-11
1.488076751585640448e-11
1.238921296998042649e-11
1.072951540330509170e-11
8.779831203018831640e-12
6.161020669582559021e-12
4.665519879692242230e-12
3.581144774938162752e-12
2.453082788898031239e-12
1.773847182090646681e-12
1.270708938950038665e-12
8.889681397968150321e-13
6.248572766889582837e-13
4.444882644051008168e-13
3.209007173518045409e-13
2.356480645317372904e-13
1.764820261345943849e-13
1.343832374463547117e-13
1.036510311319078074e-13
8.048173856141227952e-14
6.245065053534579750e-14
4.808844191501153684e-14
3.652473423112128040e-14
