# bin_8_3
2.597326986972357222e-14
2.794048657815253467e-14
2.921737080301113331e-14
2.951338937262062023e-14
2.848751119441043484e-14
2.596322669596529857e-14
2.237886642359100900e-14
1.841586786420254090e-14
1.515320578926780054e-14
1.301108743250045817e-14
1.099813989487015674e-14
8.074319019755539107e-15
5.792954034419196084e-15
4.688695714003480757e-15
3.174533596892815416e-15
2.424533797911195011e-15
1.718490763483451301e-15
1.233398405055779345e-15
9.009132476147767837e-16
6.653520238639223464e-16
4.996864196528451866e-16
3.816243094638548664e-16
2.963721794733982928e-16
2.326138107121583339e-16
1.833142291128340023e-16
1.440608223274486260e-16
1.121063648966624263e-16
8.587102448987034162e-17
6.441746336125653947e-17
4.714185263122834853e-17
3.358130201827468777e-17
