# bin_20_14
1.180210145840404233e-11
1.337332912321389393e-11
1.490993294680038638e-11
1.629356518064136860e-11
1.736530326981159786e-11
1.792718212362997966e-11
1.783074022494696809e-11
1.682306864365426349e-11
1.499067497765789047e-11
1.262352689433385911e-11
1.032364049754987579e-11
8.646539727521088859e-12
7.494266263889553566e-12
6.028858974879147251e-12
4.179445585386655928e-12
3.239103348299399577e-12
2.406027813163590649e-12
1.677700127523364018e-12
1.167123465199628691e-12
8.340078600659751806e-13
5.740562276923930448e-13
3.934542872755713250e-13
2.722183379643838355e-13
1.899411416642857448e-13
1.344305451325440158e-13
9.698200708795901849e-14
7.134802233958655450e-14
5.353420712840988830e-14
4.080727078560231424e-14
3.140810838330517433e-14
2.422709270853314086e-14
