# bin_9_7
6.963283327963827857e-07
7.638254477487099772e-07
8.184339892299989009e-07
8.512357273584903917e-07
8.544196681745840888e-07
8.168316039161380583e-07
7.371259591323143179e-07
6.288559647433999004e-07
5.154830968412002404e-07
4.268213313110419502e-07
3.686713725061668044e-07
3.062081005802656679e-07
2.185772047072996801e-07
1.616824293214574201e-07
1.276507252217897979e-07
8.654846877411850368e-08
6.463027384169977772e-08
4.618770318275158462e-08
3.275386541840941088e-08
2.352866675512167134e-08
1.709995393378754650e-08
1.264428519442888780e-08
9.513211376838803988e-09
7.287958503504010348e-09
5.656021568318718430e-09
4.421771413209092266e-09
3.458925712679329702e-09
2.687879229103309032e-09
2.061996382704831921e-09
1.553445762450754361e-09
1.144582811016117864e-09
