# bin_18_9
6.179344482837344756e-22
6.950099640492393650e-22
7.679466662601973126e-22
8.300105020636925851e-22
8.725375491703495742e-22
8.862296625187336811e-22
8.619087874868845293e-22
7.914930306898424953e-22
6.873399252441208234e-22
5.676162645534804277e-22
4.657685003616136869e-22
3.986723313629009965e-22
3.405800388095487686e-22
2.538494482627445913e-22
1.780056858902819935e-22
1.451416688939131170e-22
9.669396206338930637e-23
7.346721623523118082e-23
5.018758423536024576e-23
3.481833204755938715e-23
2.445391241833868779e-23
1.717751917406141430e-23
1.215000123845219628e-23
8.697101618546065355e-24
6.352104398981748837e-24
4.729012089882260817e-24
3.582547740235476936e-24
2.751645195119680701e-24
2.128545690436554689e-24
1.646243569797330209e-24
1.263872993114964074e-24
