# bin_11_5
4.048915426312321653e-16
4.446822822288919193e-16
4.771983864386406419e-16
4.972876391861797050e-16
5.002572890996181860e-16
4.797690172036439728e-16
4.342966899414507250e-16
3.716907582306798918e-16
3.049815796691493098e-16
2.519954498981611469e-16
2.173915299946005814e-16
1.816716842131894617e-16
1.306157137268614012e-16
9.557863060597240830e-17
7.620094239229171875e-17
5.133633353645866264e-17
3.865597345749139935e-17
2.746139812970293417e-17
1.944082496256782969e-17
1.396138615444250490e-17
1.012708092533735276e-17
7.470875515490832008e-18
5.606492552486331066e-18
4.285785560085060043e-18
3.320747297796220995e-18
2.593660021484449370e-18
2.028566120744067980e-18
1.577266400996813220e-18
1.211454227106052304e-18
9.142516742078343521e-19
6.750851930507522394e-19
