# bin_11_9
8.559596589762652139e-07
9.492022645136497887e-07
1.030821563032739008e-06
1.090426866926064103e-06
1.115730793728550790e-06
1.097061706383990580e-06
1.020548748914440492e-06
8.975158256728663521e-07
7.473713995498647196e-07
6.112466753141318892e-07
5.175246355700029038e-07
4.467204296566312039e-07
3.461182412307333135e-07
2.395907981865561740e-07
1.927514216444926740e-07
1.354304228272692975e-07
1.003346694687876005e-07
6.874068097178888028e-08
4.944645566841768788e-08
3.517264421410845450e-08
2.514136535578996957e-08
1.819241275637575936e-08
1.335287566826291519e-08
9.993504523552560972e-09
7.611881139448177984e-09
5.875474613088692655e-09
4.572016150182387235e-09
3.560981075286080593e-09
2.756471274317229497e-09
2.107121395980942082e-09
1.582633531174858429e-09
