# bin_17_1
1.387387395086921489e-75
1.546580851704756649e-75
1.690375999634134222e-75
1.802460331261016029e-75
1.862479971733110355e-75
1.854826262748228666e-75
1.753472488923679348e-75
1.565487230694981257e-75
1.320894123466727764e-75
1.080303980611711150e-75
9.026647031213551656e-76
7.819944082638984040e-76
6.330385251642138505e-76
4.411668722290416090e-76
3.393241346358502155e-76
2.557510076179758074e-76
1.779397142647405820e-76
1.265269598621344310e-76
9.129226468693391288e-77
6.407299164317896823e-77
4.512192815693642619e-77
3.222614175415284134e-77
2.335459011539364938e-77
1.722587356577011690e-77
1.295307836625388366e-77
9.896633459892704385e-78
7.651556554872959482e-78
5.947576176350008490e-78
4.614047763009726994e-78
3.547957220973779294e-78
2.688484395407128444e-78
