# bin_3_1
4.279188340518733980e-07
4.318019540282833130e-07
4.165709963648108870e-07
3.798277966851268140e-07
3.276578881791915395e-07
2.700209555692742227e-07
2.222310173792395025e-07
1.902526866433569686e-07
1.605540289642270943e-07
1.189592815882453106e-07
8.573760536312393074e-08
6.885843672542007299e-08
4.785796380880314973e-08
3.638732336669978050e-08
2.622966914727219016e-08
1.931059110848442499e-08
1.444832822885434788e-08
1.098403130231257796e-08
8.504489050348510187e-09
6.688613574118304904e-09
5.323382317985556994e-09
4.255184703544642665e-09
3.390745324933097487e-09
2.674588731630915094e-09
2.074753057027611337e-09
1.574244832295507825e-09
1.163689522700673224e-09
8.363620201092437764e-10
5.845799801922998215e-10
3.982047337091343304e-10
2.652032948924228557e-10
