# bin_18_14
6.933115773117457734e-08
6.515744407084221098e-08
5.969201406837840284e-08
5.322436218177064030e-08
4.617007149318401567e-08
3.901751106396289099e-08
3.224025331189163370e-08
2.618051206801245551e-08
2.097291142547898281e-08
1.656486530802310088e-08
1.283114128505781894e-08
9.722015269246596990e-09
7.274319632189252571e-09
5.450786427844204754e-09
4.080353339477125349e-09
3.048797286020680348e-09
2.297972724229593876e-09
1.742220722713153143e-09
1.332024442914632354e-09
1.024833768461273153e-09
7.914513695174288216e-10
6.113789625644260914e-10
4.705802512486134383e-10
3.595456550678471578e-10
2.717450431659960526e-10
2.025857023381652208e-10
1.486339260172792467e-10
1.071487070995340967e-10
7.582222807446694412e-11
5.265108456720126088e-11
3.588747858735869960e-11
