# bin_6_5
3.155320117247094216e-08
2.775425619651387760e-08
2.377052139674291798e-08
1.986778521937925752e-08
1.627635573060113535e-08
1.313248887722953760e-08
1.046090568136310783e-08
8.206532379578528777e-09
6.311448358148581079e-09
4.770677572170160079e-09
3.592990834144810343e-09
2.719188564481317755e-09
2.057539417234907898e-09
1.566862923510754165e-09
1.205134829258479072e-09
9.349330626448622182e-10
7.308417022811762098e-10
5.738656870770930291e-10
4.507670593161107157e-10
3.526433884238831222e-10
2.735970397188613831e-10
2.097067372654418601e-10
1.582844641945894183e-10
1.173554799564011944e-10
8.531784975937073846e-11
6.075935816352034290e-11
4.237733130366746749e-11
2.896304489743045324e-11
1.942200188738104444e-11
1.280195201030658918e-11
8.312420254955299352e-12
