# bin_17_14
6.825678068234643206e-08
6.406651094702955074e-08
5.861468161359139490e-08
5.219362440930679776e-08
4.521789741534083079e-08
3.816992009875233338e-08
3.151205149797449218e-08
2.557217907821168031e-08
2.047319876267216917e-08
1.615758014636065594e-08
1.250377247896206826e-08
9.467783684564233736e-09
7.084678704933686899e-09
5.310186232804454330e-09
3.975412792227596817e-09
2.972390669136918298e-09
2.241896878679939726e-09
1.701109824089242173e-09
1.301564220639528261e-09
1.002051138707423773e-09
7.742131880574825511e-10
5.981976754780813862e-10
4.604251670608343667e-10
3.516947886150660683e-10
2.656846822488713578e-10
1.979370333457495311e-10
1.451058300837682319e-10
1.045091518542543283e-10
7.388107760308713770e-11
5.125066826913379300e-11
3.489747296031044487e-11
