# bin_6_4
2.854355918734913856e-08
2.489754973416837543e-08
2.115421636081876870e-08
1.756017340803763007e-08
1.431044129285017882e-08
1.150046995437304300e-08
9.123910581425383859e-09
7.117516428263149496e-09
5.439637375032877157e-09
4.100492411831672306e-09
3.095412796508362510e-09
2.345792597376760080e-09
1.777896364240639379e-09
1.361104619355518654e-09
1.051124163195797519e-09
8.193243379870112265e-10
6.428475349869581412e-10
5.059792209592944710e-10
3.977760812883246606e-10
3.109414250767671201e-10
2.406773727709743082e-10
1.837834714692610652e-10
1.380348382478131285e-10
1.017417108000657038e-10
7.348231024504694779e-11
5.196763607935916008e-11
3.599123428523232672e-11
2.443180453675696397e-11
1.628111406739525548e-11
1.067246196086525470e-11
6.897328234315303193e-12
