# bin_16_7
4.880486090655990251e-08
4.439142921872203020e-08
3.928104767606381156e-08
3.381112071722260965e-08
2.836562996773511730e-08
2.329987374040819442e-08
1.884144458566442319e-08
1.504907235504223198e-08
1.184192216567882330e-08
9.120125688058533123e-09
6.878405903430477612e-09
5.160097017823411900e-09
3.891486910644057981e-09
2.924130061834387750e-09
2.208985428361075568e-09
1.683923736130650125e-09
1.294671715050661220e-09
1.003409564074569540e-09
7.822023906280891418e-10
6.110245819746278332e-10
4.762891067030329050e-10
3.689100289705217189e-10
2.828046651919734659e-10
2.138351560769145139e-10
1.590406873399443387e-10
1.161134510297046071e-10
8.310520954488544534e-11
5.827718676806473695e-11
4.004674926442741520e-11
2.699140989909094298e-11
1.787025402318087071e-11
