# bin_13_8
4.984272983643800902e-08
4.548384223666625453e-08
4.039471303780953566e-08
3.490379401105204611e-08
2.939004403263765309e-08
2.421318938473245677e-08
1.962007050077940991e-08
1.569407129749837687e-08
1.237658498361433853e-08
9.567745992738816820e-09
7.240745394836213382e-09
5.430243703185241339e-09
4.089787432183196946e-09
3.076130822693583113e-09
2.317651253448667079e-09
1.763913501757417012e-09
1.352246518399375081e-09
1.045537275496489985e-09
8.132920123810779093e-10
6.342920506922395586e-10
4.939893710591847700e-10
3.825751924507757475e-10
2.934780095871216691e-10
2.222188465626612312e-10
1.656201587083015945e-10
1.212401504125826021e-10
8.704836204596404569e-11
6.125661008543738989e-11
4.225025098764784662e-11
2.858263507548582629e-11
1.899104156779714541e-11
