# bin_17_6
4.534237052461458284e-08
4.094030841363629775e-08
3.595089765465007199e-08
3.071367468121915550e-08
2.559900611110681556e-08
2.092329434867631433e-08
1.686088875778938911e-08
1.342245666262900663e-08
1.050726975479048435e-08
8.037973706878233903e-09
6.041045524219147457e-09
4.542863216855458466e-09
3.428512758807292073e-09
2.577746204103525295e-09
1.957558545843151859e-09
1.497505609215500892e-09
1.156926727181860966e-09
9.004510008450752548e-10
7.041688088456200646e-10
5.510973848291668582e-10
4.297481057973839906e-10
3.325010485242368022e-10
2.542579797839251274e-10
1.915334952473436159e-10
1.417732921826323859e-10
1.029257342729530131e-10
7.320947497400009687e-11
5.100304734051418490e-11
3.481893832229662119e-11
2.332118828044852088e-11
1.535233403724000132e-11
