# bin_18_16
7.276894906377915392e-08
6.869179433182837097e-08
6.323151024244159769e-08
5.666380529498129291e-08
4.940088713371943751e-08
4.194273964986757268e-08
3.479152292935386714e-08
2.833476768112944499e-08
2.275206620644045350e-08
1.801961357271004879e-08
1.401118317204433869e-08
1.065510132791632426e-08
7.979559501474503564e-09
5.970616558967615094e-09
4.468993559966704770e-09
3.333507685258677499e-09
2.504653451203664727e-09
1.893223304306590976e-09
1.442743525832545096e-09
1.106615429129030680e-09
8.525729134322643777e-10
6.575795056956120408e-10
5.058378456197790308e-10
3.866260204237300317e-10
2.925877875943782967e-10
2.185822844090000579e-10
1.608215993589853149e-10
1.163291827224586617e-10
8.263616794784425554e-11
5.762171818138592270e-11
3.944517581739567023e-11
