# bin_20_4
3.670767203903837364e-08
3.247418152628014359e-08
2.793562814578930581e-08
2.341810606296311122e-08
1.922436074339599411e-08
1.554518055201369349e-08
1.242311767740758412e-08
9.778370064206360107e-09
7.525039058990088004e-09
5.673340466046087011e-09
4.267406591810881333e-09
3.228547935690874054e-09
2.433430811722731044e-09
1.849778970742425163e-09
1.418788398410223099e-09
1.099132810681033943e-09
8.585447863895156014e-10
6.743645002217187561e-10
5.304447069123637706e-10
4.159258373302594846e-10
3.236578485980300199e-10
2.489271789295537255e-10
1.885688616782880341e-10
1.403116848023630172e-10
1.023492118102074391e-10
7.310267343574014489e-11
5.110955447682052175e-11
3.499592563601850923e-11
2.349878970948050977e-11
1.550313400067345536e-11
1.007217634842112215e-11
