# bin_20_1
1.888280614938455578e-08
1.586467264216375988e-08
1.304991063685987684e-08
1.057132439394548956e-08
8.462665963396738905e-09
6.674754762867056435e-09
5.151666869539781285e-09
3.898662781823700228e-09
2.942571516156584540e-09
2.234501831588932657e-09
1.695619021056891523e-09
1.297597495170062186e-09
1.003877208031055196e-09
7.847547254321206625e-10
6.188806584340457507e-10
4.906577867681571821e-10
3.892700022688180649e-10
3.075362623543008232e-10
2.408156392805087054e-10
1.861248521395129110e-10
1.414975138866114796e-10
1.055255891464684861e-10
7.706099381160891299e-11
5.505211320130342177e-11
3.847506626570571001e-11
2.632963549965407766e-11
1.767183893769709289e-11
1.165790054419692062e-11
7.576833393277616739e-12
4.863098458856969425e-12
3.089303905945806558e-12
