# bin_4_2
1.883317664077412858e-08
1.594529123683673002e-08
1.319936242783002450e-08
1.073523271651840101e-08
8.614464392127484921e-09
6.822808177392584119e-09
5.310723087002838387e-09
4.052581856271672496e-09
3.058833206016659134e-09
2.317010676778783926e-09
1.761321078489518081e-09
1.342097511134565292e-09
1.034172178374571639e-09
8.042316211598537358e-10
6.312258814233545478e-10
4.984099463449006552e-10
3.943381940304602376e-10
3.111899709177550889e-10
2.438179681030235433e-10
1.888767424682876158e-10
1.441480946540613387e-10
1.080743190787441048e-10
7.943665582728248547e-11
5.716856281354480354e-11
4.026753663508536323e-11
2.777217626631311882e-11
1.877811248670123440e-11
1.247021691948294926e-11
8.151365675043234483e-12
5.256885785991972822e-12
3.352348677459744327e-12
