# bin_18_10
5.998526889707265958e-08
5.560842436391923567e-08
5.019958298254593547e-08
4.408079942956339708e-08
3.766800153672862810e-08
3.140733474799352578e-08
2.567782437796945091e-08
2.068888560992679677e-08
1.645851047164066838e-08
1.287567072476484112e-08
9.848730592306698716e-09
7.396197490708826726e-09
5.543834558824614317e-09
4.168366833534629086e-09
3.120049869097479606e-09
2.353162372717151186e-09
1.787117870303506371e-09
1.369272629058889836e-09
1.056627244360836849e-09
8.195157857305904424e-10
6.365725501988192617e-10
4.932233677116420561e-10
3.796690794634070364e-10
2.892652958315299844e-10
2.174317475299774872e-10
1.608335838303877040e-10
1.168511303110950629e-10
8.328552868580245099e-11
5.820516286616665981e-11
3.989173455994307801e-11
2.683376772065934931e-11
