# bin_11_1
1.775145854335758188e-08
1.488755890997840452e-08
1.222980807643323660e-08
9.895847146585322151e-09
7.911841335759519823e-09
6.231000803172398884e-09
4.803752850637568648e-09
3.635182223679503903e-09
2.745397415106543566e-09
2.085695568993040634e-09
1.584168157408609604e-09
1.213807664905154653e-09
9.401003892136483716e-10
7.356026518506021122e-10
5.804584683343551914e-10
4.602567338363241798e-10
3.650267323547515331e-10
2.881602139719957462e-10
2.253869660320638500e-10
1.739543063178653681e-10
1.320342134952397576e-10
9.830165795197430708e-11
7.166348746430806270e-11
5.111228997179951511e-11
3.566756007023542592e-11
2.437556654532449945e-11
1.634143349348326330e-11
1.076988360154295135e-11
6.994224360434896095e-12
4.486386660110892287e-12
2.848637383440971393e-12
