# bin_12_1
1.794340744430686883e-08
1.505333980393217673e-08
1.236894980091834286e-08
1.001045115892851707e-08
8.005296287509830535e-09
6.306289722037113968e-09
4.862781200597812531e-09
3.679885286872033993e-09
2.778850689682260640e-09
2.110942582752118890e-09
1.603077321666453224e-09
1.228023760336674156e-09
9.509210052711327338e-10
7.439419803301035335e-10
5.869773247803304516e-10
4.654146935009887493e-10
3.691399385006145478e-10
2.914476280185051804e-10
2.280046526873548918e-10
1.760192061594737244e-10
1.336397914893667249e-10
9.952729597606570419e-11
7.257924739527815081e-11
5.178073404041042725e-11
3.614389117112614402e-11
2.470710048585930330e-11
1.656715453066226650e-11
1.092054750150947913e-11
7.093071728662372023e-12
4.550300818748475669e-12
2.889469651431851262e-12
