# bin_17_2
2.469348594547285048e-08
2.114925969439140250e-08
1.766519075933099778e-08
1.446486287144175491e-08
1.167772250430828052e-08
9.316924814304445086e-09
7.312958994868909362e-09
5.610575799925635823e-09
4.230399378016275225e-09
3.193788493793099239e-09
2.422468432704091934e-09
1.834732130150606747e-09
1.404616499817580387e-09
1.085437019873980366e-09
8.476355835326341813e-10
6.672011660529597167e-10
5.275422186280804063e-10
4.170902366346297275e-10
3.281676227827215673e-10
2.557948938678910852e-10
1.967303506725518217e-10
1.487980420336751042e-10
1.104002966111478983e-10
8.021313548081325233e-11
5.702432089550798641e-11
3.966890255655792524e-11
2.702896261038839800e-11
1.806860754030994535e-11
1.187618520253627325e-11
7.693366700104789887e-12
4.923447159993820424e-12
