# bin_13_13
6.110352209846100461e-08
5.681117635510120043e-08
5.145896894818744241e-08
4.535722838153540350e-08
3.891243706006330644e-08
3.256602732343706318e-08
2.670434888419110857e-08
2.155991195302591938e-08
1.717895435059570472e-08
1.347349476048363811e-08
1.034840609872342854e-08
7.797013541010484451e-09
5.839919337914623690e-09
4.386671777009407676e-09
3.286347929486089241e-09
2.470927847287763697e-09
1.873475813241742508e-09
1.430889636103279166e-09
1.101154055292427617e-09
8.519688604119636496e-10
6.605184189252399938e-10
5.111646567577695302e-10
3.933146791711290669e-10
2.997817748122295564e-10
2.256016568567430406e-10
1.671937483094817019e-10
1.217827327435657247e-10
8.707178773362208481e-11
6.106918892219805977e-11
4.201781452349962205e-11
2.837841436054204909e-11
