# bin_19_17
7.542261327520144017e-08
7.142057564768936293e-08
6.596521355245897617e-08
5.932166009419131201e-08
5.189949740264109186e-08
4.420750256663694531e-08
3.676962115225041289e-08
3.000745780716985165e-08
2.413502247343270535e-08
1.915057473217614360e-08
1.492825507154363365e-08
1.138091192535480582e-08
8.529874008411788729e-09
6.376803346007489499e-09
4.771914417928151785e-09
3.556091372754994485e-09
2.665990376438754870e-09
2.011226155350774858e-09
1.529106625971355780e-09
1.170355315873368512e-09
9.001588044010656844e-10
6.935016053411474295e-10
5.332139266704363143e-10
4.076251478620468331e-10
3.087324260970634615e-10
2.309629659797328498e-10
1.702494349477228286e-10
1.234294626875350188e-10
8.790695624647773159e-11
6.146855695936238340e-11
4.220078769075713497e-11
