# bin_15_3
2.999769959399116006e-08
2.611492238910226700e-08
2.212975266285432885e-08
1.832187984763068586e-08
1.490493418202477203e-08
1.197260253565040717e-08
9.495045315641544863e-09
7.387136999442850085e-09
5.616952349393673768e-09
4.224034465140202438e-09
3.194677828211130548e-09
2.417046157164175774e-09
1.831905908232173287e-09
1.404879977281646202e-09
1.086691258325244974e-09
8.488254044632716147e-10
6.675461491195716503e-10
5.265273033057804874e-10
4.146347002156895608e-10
3.244932146842920792e-10
2.512903783421374795e-10
1.918435935982989419e-10
1.439496395512269139e-10
1.059221434375629671e-10
7.632129580873892360e-11
5.381871799558399731e-11
3.715164658758817064e-11
2.513401340061329444e-11
1.669412616492745469e-11
1.091047844737119829e-11
7.032895521876754923e-12
