# bin_5_1
1.561380638584554134e-08
1.304132678569285324e-08
1.068024412440450688e-08
8.619548869446954704e-09
6.871070915469305031e-09
5.392537648646098637e-09
4.146376950042776576e-09
3.137341487198536200e-09
2.372841325681407665e-09
1.804529465029376045e-09
1.373584288301743204e-09
1.055488734689877676e-09
8.195956101003427255e-10
6.427310027114881432e-10
5.078606844327540635e-10
4.028146934953695346e-10
3.192196672687588446e-10
2.515496376266077094e-10
1.962348516498020629e-10
1.509583391597105259e-10
1.141535179656219760e-10
8.465219566528661339e-11
6.146501195066124684e-11
4.366807384192464356e-11
3.036283249495500849e-11
2.068339089131094517e-11
1.382765751451019454e-11
9.091992068207987579e-12
5.893395259561137145e-12
3.774596540274616323e-12
2.393902313101060059e-12
