# bin_9_4
3.187451874256591657e-08
2.798881746741995608e-08
2.392103429893331315e-08
1.995021146901003525e-08
1.631532149297413873e-08
1.315071262528815455e-08
1.046998774777107649e-08
8.203145389706556941e-09
6.290481754218665083e-09
4.742214526154485745e-09
3.573586170241568545e-09
2.705956772275094012e-09
2.045354368645611276e-09
1.560483669904891997e-09
1.201131124486895848e-09
9.334861580367059503e-10
7.308519917315952729e-10
5.746804098115962680e-10
4.519048874985722010e-10
3.537750799019426970e-10
2.745334253993380237e-10
2.103621233946001284e-10
1.586527376239300699e-10
1.174782752038850127e-10
8.526001771959592681e-11
6.059073962292888571e-11
4.215951434751446326e-11
2.874196914991422855e-11
1.922592740046217986e-11
1.264337688178785825e-11
8.192666484280496389e-12
