# bin_3_1
1.399392210198599556e-08
1.164227773120473527e-08
9.506006915790270515e-09
7.652389001130624760e-09
6.082390855424659541e-09
4.757163112726447413e-09
3.648227741170173316e-09
2.760085830682005000e-09
2.090524566583131774e-09
1.591466462782377743e-09
1.214007284608076895e-09
9.355172868866778930e-10
7.282790313176697776e-10
5.723543509315851105e-10
4.528472134681633459e-10
3.592859900564577453e-10
2.845077595071970504e-10
2.238066857127220477e-10
1.741438104709935337e-10
1.335323369430670729e-10
1.006037957539829545e-10
7.430884209717577300e-11
5.373676696452832533e-11
3.802696666749352131e-11
2.634299789397766140e-11
1.788552332541211589e-11
1.192276239947728259e-11
7.820516299765934712e-12
5.059207443524767510e-12
3.235215513427927673e-12
2.049312870912171886e-12
