# bin_18_6
4.578787997348713513e-08
4.136653781921396701e-08
3.634484200963426007e-08
3.106468358979538939e-08
2.590091173203544923e-08
2.117572219498337585e-08
1.706831026038219352e-08
1.359151229392681042e-08
1.064329062767000186e-08
8.143975670252569033e-09
6.120538632926855698e-09
4.602065126420872238e-09
3.473011186472228037e-09
2.610576474574837032e-09
1.981978258944830542e-09
1.515763880472286486e-09
1.170749225690443393e-09
9.110405852623625718e-10
7.123818486597635543e-10
5.575270898280809527e-10
4.348058608503230421e-10
3.364777784051652207e-10
2.573660743146554281e-10
1.939360290773507768e-10
1.436022514258148346e-10
1.042922531399157630e-10
7.420911582295839300e-11
5.171799417209278309e-11
3.531867063705702152e-11
2.366279978352538260e-11
1.558107810473546825e-11
