# bin_20_10
6.132342182353329312e-08
5.693771337252497890e-08
5.148018343594207358e-08
4.527296226154955217e-08
3.873785737130330136e-08
3.233327912994358451e-08
2.645545872517336255e-08
2.132934870091965172e-08
1.698128624694725132e-08
1.329783968375161468e-08
1.017988100772392730e-08
7.645402462611506682e-09
5.728559947892695248e-09
4.306842825135262289e-09
3.221866511603920294e-09
2.428062468689850579e-09
1.842530639763982627e-09
1.410624780689573150e-09
1.087806644054400455e-09
8.433186828114370299e-10
6.549387138172193830e-10
5.074976071687101296e-10
3.907939910431201356e-10
2.979149117171770228e-10
2.241065607827801877e-10
1.659232632409119175e-10
1.206716334254933975e-10
8.610053597921635474e-11
6.023711445618292642e-11
4.132713885794409607e-11
2.782600247670811119e-11
