# bin_1_1
1.093063781210911428e-08
8.999928617044658636e-09
7.290625288797369953e-09
5.828915012892558444e-09
4.595736551219956397e-09
3.559857756036659322e-09
2.710638987627762954e-09
2.051258279028263782e-09
1.560159866291881412e-09
1.190915468934008562e-09
9.142666576326528218e-10
7.099936836230707289e-10
5.565647194899819662e-10
4.399013886875931612e-10
3.492321384479386439e-10
2.772440931504464931e-10
2.190483278253423646e-10
1.714733845980710398e-10
1.324699656830942107e-10
1.006656869777413303e-10
7.505938504909611382e-11
5.482188802788040247e-11
3.918874802366518199e-11
2.741807765590201535e-11
1.879098378258000255e-11
1.263471967038468026e-11
8.351391035072721911e-12
5.438858322161592284e-12
3.497875389516559905e-12
2.226326548443155103e-12
1.405113968153005947e-12
