# bin_11_11
5.425857411939299261e-08
4.993083160884202290e-08
4.474200903945966920e-08
3.901235373585781049e-08
3.313089483027754365e-08
2.748949778597875463e-08
2.239306414727181988e-08
1.798597384872541608e-08
1.425328044025297966e-08
1.109697955268448991e-08
8.457173492249036362e-09
6.351347904684902159e-09
4.768803658404604843e-09
3.587267392495051678e-09
2.693305658204368506e-09
2.038668473546049213e-09
1.554363885415030877e-09
1.195287218124902876e-09
9.252152042752809861e-10
7.190289860430091722e-10
5.589242456422517287e-10
4.328081094619696607e-10
3.325528201980066732e-10
2.526278537184167590e-10
1.891694119092795360e-10
1.393005222401220571e-10
1.007070141804565355e-10
7.140825837139647407e-11
4.964674710048024036e-11
3.385732642638441302e-11
2.267051065009948470e-11
