# bin_20_15
-1.930928176897592813e-10
-2.169688808303363594e-10
-2.394675647798968659e-10
-2.584666835781794136e-10
-2.712470121319082443e-10
-2.749763886911472185e-10
-2.666827523481441275e-10
-2.441682338951481852e-10
-2.114039360161328772e-10
-1.743374689914536944e-10
-1.432566812494386353e-10
-1.228595843125640450e-10
-1.045085899371762237e-10
-7.726017680527808302e-11
-5.460628815898739864e-11
-4.435661692306548982e-11
-2.950911250516502388e-11
-2.237570094913134021e-11
-1.536545289346578024e-11
-1.065655989799531479e-11
-7.480068982441082397e-12
-5.254273386432096827e-12
-3.721348106869935931e-12
-2.672509781137650419e-12
-1.956706080241954417e-12
-1.460603176029454415e-12
-1.109377715172519541e-12
-8.537505860680611067e-13
-6.612786871268830141e-13
-5.117694846865186770e-13
-3.929303881221220585e-13
