# bin_11_13
-5.931945770676720704e-13
-6.600108592300714571e-13
-7.197310412625913601e-13
-7.652910386483427313e-13
-7.879824471335867768e-13
-7.813148193943600503e-13
-7.344288296643177511e-13
-6.521931058401352847e-13
-5.475678902646137572e-13
-4.476459947958486404e-13
-3.757830298560448881e-13
-3.254174608615638092e-13
-2.595469335191588082e-13
-1.798698997265881186e-13
-1.409082337073004739e-13
-1.036172261846206127e-13
-7.369876798548548811e-14
-5.141922198064756783e-14
-3.724139161850796070e-14
-2.624537868630204011e-14
-1.855486517067079070e-14
-1.331261444217157470e-14
-9.692933471502803371e-15
-7.187989151890282336e-15
-5.430988118156816107e-15
-4.167919958333887210e-15
-3.233185731566301042e-15
-2.518024724065372370e-15
-1.954704816795284828e-15
-1.502313052337057223e-15
-1.136811035136742173e-15
