# bin_8_17
-2.004216888205529699e-30
-2.239681106338408773e-30
-2.455389813590206036e-30
-2.628232917218247639e-30
-2.729160124005166332e-30
-2.733750978865135894e-30
-2.605070873146879803e-30
-2.343096051274250854e-30
-1.991892117024360953e-30
-1.631257982877930489e-30
-1.354626868616995652e-30
-1.172511511542032967e-30
-9.666683727046891666e-31
-6.824888333698360007e-31
-5.107789088455250991e-31
-3.970882685882766788e-31
-2.691734944867828603e-31
-1.970229595983885167e-31
-1.401777511130810215e-31
-9.780684034007464277e-32
-6.866780395940998545e-32
-4.868596366911212467e-32
-3.502882462525565526e-32
-2.563814800731352038e-32
-1.913334071157047204e-32
-1.453284461046897295e-32
-1.119271843406347742e-32
-8.688352695825246440e-33
-6.748738398069980930e-33
-5.208265116363076557e-33
-3.968598515091083111e-33
