# bin_8_9
-7.597112323043491121e-12
-8.304513422370968063e-12
-8.859974480000700621e-12
-9.164655562589384894e-12
-9.140068702729902317e-12
-8.660838518276360171e-12
-7.749849846439126056e-12
-6.555305343659198149e-12
-5.363155674873881480e-12
-4.469742646832198158e-12
-3.868053296128997640e-12
-3.151689158474331471e-12
-2.213290031505572123e-12
-1.686939350899018005e-12
-1.290538726975901378e-12
-8.963394265102379955e-13
-6.510650226523441172e-13
-4.723345353589916809e-13
-3.367938707500355638e-13
-2.424652916194660608e-13
-1.773647824722644156e-13
-1.320408048907993970e-13
-1.001027907630897914e-13
-7.716735366127064749e-14
-6.019615501913992670e-14
-4.722280179916910875e-14
-3.699467439941092254e-14
-2.874110468529895137e-14
-2.201053520509893872e-14
-1.653325811617597814e-14
-1.213363229471447445e-14
