# bin_1_11
-3.507847626085818338e-48
-3.796277352305328059e-48
-3.999962525354411929e-48
-4.075103003104301517e-48
-3.983767862854873086e-48
-3.681477173846095455e-48
-3.217450829977310937e-48
-2.667649226324409049e-48
-2.183849153291927016e-48
-1.857132260691380994e-48
-1.595251356934571908e-48
-1.216098977586431054e-48
-8.487102258495511705e-49
-6.887037034551209749e-49
-4.769515527057324366e-49
-3.606176944327308646e-49
-2.508855201560341562e-49
-1.814981365496343104e-49
-1.319472597383463554e-49
-9.684164185558276731e-50
-7.211935425150568052e-50
-5.464011019358196897e-50
-4.213410556051504399e-50
-3.292314357478585528e-50
-2.590865417784052435e-50
-2.039366054393751562e-50
-1.594282313602348197e-50
-1.229994294856395960e-50
-9.314396243210321973e-51
-6.893738448607141848e-51
-4.971681906120640578e-51
