# bin_9_1
-3.128744017670649275e-09
-3.005898244856414339e-09
-2.733816169984157914e-09
-2.354732718810753245e-09
-1.945531737459928411e-09
-1.607379485358964092e-09
-1.370640211079306958e-09
-1.143557221752088635e-09
-8.535175860110122609e-10
-6.241257290098012153e-10
-4.888716925888382983e-10
-3.506236551009436128e-10
-2.617123424796488352e-10
-1.915219128894013128e-10
-1.427383693509146487e-10
-1.078632757920509240e-10
-8.301193130135173552e-11
-6.508525715994091651e-11
-5.179774580440188918e-11
-4.160251190769153539e-11
-3.347035740802682625e-11
-2.677106726207394724e-11
-2.114021489483666960e-11
-1.638133428639655973e-11
-1.239638757754351259e-11
-9.132337751645119010e-12
-6.542802231101967210e-12
-4.562717894841756801e-12
-3.104617431101936371e-12
-2.067646067925923266e-12
-1.352299141578075656e-12
