# bin_7_9
-4.451255319597865360e-13
-4.853893773026838791e-13
-5.162851406549557483e-13
-5.319942942669426391e-13
-5.280843511705984919e-13
-4.972912635277632437e-13
-4.424003994757881120e-13
-3.721258628715177266e-13
-3.042414225498518363e-13
-2.548119727458613722e-13
-2.205114463968998181e-13
-1.769686893894979436e-13
-1.233540318390633690e-13
-9.592160906343003709e-14
-7.159179537805369980e-14
-5.079802964602009741e-14
-3.619578332044422496e-14
-2.643215016144419778e-14
-1.893332951734382766e-14
-1.367752242203489135e-14
-1.005290437683757468e-14
-7.517955517092474466e-15
-5.725231286342908598e-15
-4.429951981031862968e-15
-3.464608500916143199e-15
-2.721273812416083585e-15
-2.131458333007942047e-15
-1.653497800480244861e-15
-1.263007488444196734e-15
-9.453725026458017687e-16
-6.908409390775835912e-16
