# bin_13_17
-1.622757407172908330e-15
-1.823551769170546577e-15
-2.012839925079594684e-15
-2.172791736709910872e-15
-2.280563475157298756e-15
-2.312282825386898862e-15
-2.243048240661232237e-15
-2.053985411441411489e-15
-1.778646098522524791e-15
-1.466697519039077884e-15
-1.204906211138731940e-15
-1.033377655650577995e-15
-8.796113441880593551e-16
-6.503858140902442557e-16
-4.589764886032692650e-16
-3.736598277617997350e-16
-2.479259817166929725e-16
-1.884422310850951397e-16
-1.293555629294215918e-16
-8.960750459344757418e-17
-6.292068808938976532e-17
-4.419932033561033469e-17
-3.129982389863463801e-17
-2.247450397606562701e-17
-1.645293409429141162e-17
-1.228036134600840641e-17
-9.326985404759339073e-18
-7.178019373630367442e-18
-5.560283561403794977e-18
-4.303750264084963736e-18
-3.304917385524833348e-18
