# bin_15_3
-2.196115453130866892e-09
-2.254021061994862478e-09
-2.226459195081341234e-09
-2.086903558897501459e-09
-1.849368965752225678e-09
-1.553037759010834877e-09
-1.271804418993398469e-09
-1.067295567477686988e-09
-9.180350669891370435e-10
-7.300162801641281442e-10
-5.168119808849404917e-10
-4.015239597389291696e-10
-2.993212561110606890e-10
-2.162314329775658595e-10
-1.576281422179618357e-10
-1.161002468355352707e-10
-8.559783307937496225e-11
-6.412294203523387386e-11
-4.894017572818352569e-11
-3.803176083366645001e-11
-3.000115850092344993e-11
-2.388662470915476745e-11
-1.905784640562922657e-11
-1.512577204421339749e-11
-1.186086054759366124e-11
-9.133379516471212256e-12
-6.872527267662297721e-12
-5.036554793478938933e-12
-3.589442111523639008e-12
-2.489861009380973969e-12
-1.684966426809321673e-12
