# bin_7_6
-2.183706948833177590e-10
-2.338959272986077252e-10
-2.432548428183288012e-10
-2.441899129864345033e-10
-2.336301816031553064e-10
-2.110723652463805950e-10
-1.803304289879171091e-10
-1.479551610109076337e-10
-1.224101500441479377e-10
-1.054947917311406480e-10
-8.773836388101995431e-11
-6.315239550805044444e-11
-4.656024699368580639e-11
-3.685450348608576159e-11
-2.525019399431014017e-11
-1.896530887233826916e-11
-1.363992865091923520e-11
-9.821066751916913538e-12
-7.185838923827662313e-12
-5.333468375138717303e-12
-4.030353121970818425e-12
-3.099788720824615757e-12
-2.420456015678619307e-12
-1.907719233623663868e-12
-1.507348331912372832e-12
-1.185615565692651818e-12
-9.220433640116278373e-13
-7.048983071955179142e-13
-5.272129171388530053e-13
-3.843847384306708151e-13
-2.727353650609004933e-13
