# bin_16_9
-5.460099994492638300e-10
-5.996434105834999256e-10
-6.434804018704535350e-10
-6.705734501262301966e-10
-6.745594767921977771e-10
-6.470395148584112686e-10
-5.858885900009257760e-10
-5.016193554694140291e-10
-4.117821186130101038e-10
-3.402920880984253280e-10
-2.933549271256115453e-10
-2.450591311269490378e-10
-1.765658315228947486e-10
-1.291379394296488663e-10
-1.027380782820965976e-10
-6.944754707119052632e-11
-5.214700266482949587e-11
-3.700925109377443260e-11
-2.621285179188735905e-11
-1.882584463603037181e-11
-1.366094633592883684e-11
-1.007519000051893750e-11
-7.564273511314154648e-12
-5.782381525319927366e-12
-4.482615110171878904e-12
-3.504025872779325003e-12
-2.743450165705125026e-12
-2.136000122022477211e-12
-1.643325028424897889e-12
-1.242568160011992153e-12
-9.195146552023762073e-13
