# bin_14_3
-2.129591280497968725e-09
-2.185650149277721442e-09
-2.158805219848472629e-09
-2.023350129384486642e-09
-1.792930051349879709e-09
-1.505557669945834437e-09
-1.232921000385105129e-09
-1.034717500562415556e-09
-8.899977300042891877e-10
-7.076046378287831451e-10
-5.009279403999383840e-10
-3.892438576918159579e-10
-2.901059617438069413e-10
-2.096074637490358549e-10
-1.527850232805676431e-10
-1.125370419054110100e-10
-8.297410957115372355e-11
-6.215969929364827332e-11
-4.744367349510071014e-11
-3.687017177926917367e-11
-2.908571489362185715e-11
-2.315818126579950765e-11
-1.847676387474069578e-11
-1.466447785823676980e-11
-1.149892158332330876e-11
-8.854414969338377319e-12
-6.662370076956678025e-12
-4.882335337737684886e-12
-3.479383872157857376e-12
-2.413420414051217564e-12
-1.633179174440855433e-12
