# bin_16_2
-2.897436540193828858e-09
-2.899258574265561777e-09
-2.766095121834201837e-09
-2.495371592039368396e-09
-2.131233948149593980e-09
-1.752282016243292013e-09
-1.452419734132335507e-09
-1.245686298703336411e-09
-1.028866393884450943e-09
-7.500890325910059184e-10
-5.561429250487947706e-10
-4.346434167884607198e-10
-3.072056217600022154e-10
-2.299620701873675428e-10
-1.677774596655564498e-10
-1.240903794313125479e-10
-9.327587788235307278e-11
-7.136692189859470262e-11
-5.561627512253504559e-11
-4.400817319752006457e-11
-3.516867450529584333e-11
-2.817670189150019492e-11
-2.246479571693375888e-11
-1.769984510117744511e-11
-1.369620990426015444e-11
-1.035648497605991842e-11
-7.626497358409775199e-12
-5.461447038354064209e-12
-3.806054514825414025e-12
-2.587160802591090471e-12
-1.720863066075526316e-12
