# bin_19_16
-1.131355677330469966e-10
-1.274174366951669853e-10
-1.410184981739113054e-10
-1.527250896740608225e-10
-1.609606945813194566e-10
-1.639563562927515344e-10
-1.601483277721589698e-10
-1.477881210652169958e-10
-1.289648370160798292e-10
-1.068158899115331546e-10
-8.753150835859005776e-11
-7.464824173084671369e-11
-6.407202401085733699e-11
-4.842537993966843475e-11
-3.371274774399979705e-11
-2.740296556323849717e-11
-1.851868374596920921e-11
-1.395492824685515866e-11
-9.463080380004805321e-12
-6.603458391147971610e-12
-4.624304627932896735e-12
-3.237911898415814800e-12
-2.278911390547269585e-12
-1.623316165493553712e-12
-1.178073863066717125e-12
-8.719033146464569940e-13
-6.573629264469104568e-13
-5.032313333282193232e-13
-3.887404038203885852e-13
-3.008606637819523067e-13
-2.315700421707915634e-13
