# bin_11_8
-3.529047756281704837e-10
-3.849880118078936579e-10
-4.097105650460633193e-10
-4.224795788841978877e-10
-4.197109253427820705e-10
-3.957160345628964872e-10
-3.524512875199916162e-10
-2.968569750335305560e-10
-2.427961620695168003e-10
-2.031566495971893219e-10
-1.757231407999216946e-10
-1.414006722663365679e-10
-9.888588930835673029e-11
-7.649871111621903748e-11
-5.737328987514149768e-11
-4.055331095548117494e-11
-2.905614103132906786e-11
-2.114353647603151460e-11
-1.513238715020953547e-11
-1.093048452427624350e-11
-8.025485204389206145e-12
-5.995707548606631934e-12
-4.561375836569291471e-12
-3.526369259931406719e-12
-2.756173321907074208e-12
-2.164039040282970397e-12
-1.694878480664228571e-12
-1.315083503082067780e-12
-1.004964418593236670e-12
-7.527221666119509575e-13
-5.505302967521383825e-13
