# bin_3_3
-1.537078389797306157e-10
-1.563057034648159557e-10
-1.524846801318653206e-10
-1.407711341324660386e-10
-1.229327144774428967e-10
-1.020469523833288703e-10
-8.365759523306240237e-11
-7.100905723870193985e-11
-6.067419050806097308e-11
-4.643739467715661432e-11
-3.286924733134597738e-11
-2.628563659700487788e-11
-1.871411121810708135e-11
-1.400683662446450778e-11
-1.004920263417256495e-11
-7.427819464049112026e-12
-5.527609424933297842e-12
-4.176973386352240916e-12
-3.216193872206570345e-12
-2.519090209669065275e-12
-1.999560262008242503e-12
-1.597795342341131537e-12
-1.275842224926909239e-12
-1.010681402411230366e-12
-7.890114348475024967e-13
-6.035645163641012119e-13
-4.503900338245521283e-13
-3.270022943820940550e-13
-2.308623319695193708e-13
-1.587416448614366336e-13
-1.066107169275021712e-13
