# bin_1_14
-1.066518461696250787e-65
-1.171403899729368014e-65
-1.257199157014502788e-65
-1.310346676189743282e-65
-1.318402395380462240e-65
-1.264807438704837771e-65
-1.145215678154810622e-65
-9.804132933845682202e-66
-8.045097632072875053e-66
-6.645988502101005580e-66
-5.732938791328763348e-66
-4.793488776944348526e-66
-3.448067970838756366e-66
-2.520512686938961004e-66
-2.011190551514207308e-66
-1.353729886230592030e-66
-1.020049279939757965e-66
-7.240802339035450996e-67
-5.123956641691908426e-67
-3.679136431530569210e-67
-2.668160438564525603e-67
-1.967750484088199993e-67
-1.477489748021840508e-67
-1.129584487661018758e-67
-8.758118026588811695e-68
-6.847350560651361230e-68
-5.362040555711267943e-68
-4.175469083995035034e-68
-3.212841342610583950e-68
-2.429609342038411835e-68
-1.798082109640283155e-68
