# bin_9_9
-4.428883118630050642e-11
-4.850394215534021649e-11
-5.186975180386016416e-11
-5.381479087478952136e-11
-5.386011487463422258e-11
-5.128622705674849767e-11
-4.610516559104884334e-11
-3.918187845148589200e-11
-3.208847417753536479e-11
-2.664589103436618411e-11
-2.303779250285176732e-11
-1.897395023474330397e-11
-1.344104979486871376e-11
-1.007575674790956315e-11
-7.845855442959222047e-12
-5.373829276218153829e-12
-3.963968995002213866e-12
-2.852362289720839674e-12
-2.027340627598743072e-12
-1.457437521881296530e-12
-1.062278917495126192e-12
-7.878969863459410585e-13
-5.950876493414765851e-13
-4.572853583064562336e-13
-3.558968735808424037e-13
-2.788509509738760368e-13
-2.184378361311900293e-13
-1.698715588488174611e-13
-1.303410379207901917e-13
-9.816985082445903130e-14
-7.228692162960501509e-14
