# bin_4_18
-9.788223655715713032e-60
-1.092020721075225610e-59
-1.194783583791580234e-59
-1.275675424518593384e-59
-1.320377119373004426e-59
-1.317620559527636975e-59
-1.249035554833552601e-59
-1.117931485428358515e-59
-9.456142118614722920e-60
-7.736486807544831848e-60
-6.450405369259825573e-60
-5.587762500207961034e-60
-4.553231281897379875e-60
-3.184795182178100027e-60
-2.427066489220075326e-60
-1.849481772490124902e-60
-1.274106411299797259e-60
-9.148032382479433110e-61
-6.574052453885674376e-61
-4.603278622029545308e-61
-3.236062040450275566e-61
-2.304846011609070750e-61
-1.666096877584268022e-61
-1.225757194053855667e-61
-9.193106681458605503e-62
-7.012323075252185550e-62
-5.417285428740688257e-62
-4.211703184886313986e-62
-3.271476581106136917e-62
-2.521142932291890435e-62
-1.916131198567014876e-62
