# bin_19_9
-6.746734773089827379e-10
-7.410166603479381199e-10
-7.952839378403337249e-10
-8.288947891416613089e-10
-8.339666679996542700e-10
-8.001452359213328366e-10
-7.247081564804024786e-10
-6.206335580948777250e-10
-5.095296558573370440e-10
-4.210043716622641823e-10
-3.628905317993247396e-10
-3.032857399665561477e-10
-2.186550102138925172e-10
-1.597914789498172583e-10
-1.272047473539463362e-10
-8.596057355232677783e-11
-6.457748495077163878e-11
-4.580958507451511229e-11
-3.244325036467844651e-11
-2.329977548748207478e-11
-1.690514720129489603e-11
-1.246542097600543053e-11
-9.356847588042604916e-12
-7.151351470082525016e-12
-5.543072128886961828e-12
-4.332596397316281850e-12
-3.392090477532230692e-12
-2.641114539141940627e-12
-2.032114441036281986e-12
-1.536748262707146843e-12
-1.137405046996071459e-12
