# bin_5_9
-2.603077209290845055e-17
-2.820933264798563748e-17
-2.977318627063927657e-17
-3.039214880032555472e-17
-2.979417587410743910e-17
-2.762451493628056468e-17
-2.421933970935005503e-17
-2.012563970616465470e-17
-1.646560573494977377e-17
-1.396560858346307261e-17
-1.202338291383193689e-17
-9.250688066362379090e-18
-6.437822527134178476e-18
-5.199659694467792376e-18
-3.643057515259785670e-18
-2.730210526632916946e-18
-1.898175053247939226e-18
-1.378132505150227229e-18
-9.995399624392050529e-19
-7.317022809912030851e-19
-5.437255608597036513e-19
-4.110131867757758395e-19
-3.162781491218924655e-19
-2.467447821085876121e-19
-1.939926488789892773e-19
-1.526639614799788274e-19
-1.194011023938193985e-19
-9.221700423075244185e-20
-6.994501503914725439e-20
-5.187340371314667507e-20
-3.749813945436331796e-20
