# bin_10_11
-6.553389331975753271e-12
-7.242277051930964311e-12
-7.832039385267722524e-12
-8.241799093265163475e-12
-8.382380553830492862e-12
-8.171731365807371755e-12
-7.525850258720764087e-12
-6.554745134546759766e-12
-5.422649275033944402e-12
-4.444503569564811814e-12
-3.792813491072777107e-12
-3.248888448977846916e-12
-2.447134293346187781e-12
-1.711670664132776269e-12
-1.393294071953474359e-12
-9.456337440193139534e-13
-7.178809227399120378e-13
-4.948125025478612030e-13
-3.510755803688206880e-13
-2.514408475858637623e-13
-1.811224483867363736e-13
-1.319414430020298491e-13
-9.768579533475441687e-14
-7.372273814294641725e-14
-5.656830723718088967e-14
-4.392360023205473733e-14
-3.430406266766938170e-14
-2.675217235689389467e-14
-2.069092493234744857e-14
-1.577560254690538203e-14
-1.180131550652269074e-14
