# bin_7_15
-4.126636055435286688e-28
-4.584895073534765947e-28
-4.990979609040472331e-28
-5.295306298729050567e-28
-5.437526348415561260e-28
-5.372729593304106471e-28
-5.027941480056141839e-28
-4.446462869118060218e-28
-3.719345284384571144e-28
-3.040360382807606142e-28
-2.561620101718762981e-28
-2.216544122133236545e-28
-1.746410904796340203e-28
-1.207378452420505614e-28
-9.584576320186657020e-29
-6.908983861003779416e-29
-5.005238466070405982e-29
-3.450415357084165308e-29
-2.498318217341653104e-29
-1.767273505915111619e-29
-1.254866015545637426e-29
-9.036415654801447792e-30
-6.603929205555513992e-30
-4.917301065100266930e-30
-3.729167057368946628e-30
-2.870376339495554750e-30
-2.230881682347455520e-30
-1.738586205932592875e-30
-1.348947346057856538e-30
-1.035144646818785087e-30
-7.814413998205223388e-31
