# bin_14_18
-2.271498100719731327e-15
-2.558891544755732940e-15
-2.832889993513972787e-15
-3.069192017842336558e-15
-3.236181730685692635e-15
-3.298043160139213111e-15
-3.223890257515886046e-15
-2.977431121883652859e-15
-2.600288332690094376e-15
-2.154468268817524321e-15
-1.764905416571733720e-15
-1.504387011754481008e-15
-1.292675821599173795e-15
-9.790038579633830374e-16
-6.802667700736639277e-16
-5.533274521669172142e-16
-3.741343037834550895e-16
-2.820776240845241328e-16
-1.909020709626653558e-16
-1.332161135823570567e-16
-9.330195397261165479e-17
-6.533858887826854939e-17
-4.595865782635363643e-17
-3.271006085853842599e-17
-2.371760364776766665e-17
-1.753881639308054763e-17
-1.321368991287007218e-17
-1.011048620044694537e-17
-7.808525230742135077e-18
-6.043698120074326318e-18
-4.653238142997055828e-18
