# bin_2_9
-2.800353187362637891e-30
-3.002301973520253733e-30
-3.126178044466193973e-30
-3.142651912575755162e-30
-3.012259085405114065e-30
-2.725721255213204539e-30
-2.332259009089920257e-30
-1.913621142942523144e-30
-1.580880820567824442e-30
-1.362650893296725603e-30
-1.138134353023051207e-30
-8.204410489508528732e-31
-6.014070355815930166e-31
-4.797633956985367402e-31
-3.262615757272161553e-31
-2.467663349115971929e-31
-1.770916122662414211e-31
-1.272863337522806351e-31
-9.306987019611608164e-32
-6.898163290158612691e-32
-5.207166323520397034e-32
-4.001123590728896685e-32
-3.122135573123485614e-32
-2.459878747657990440e-32
-1.943601745456498665e-32
-1.529251327568287543e-32
-1.190018729699189197e-32
-9.105527941946050815e-33
-6.817401720400092769e-33
-4.976095690968310845e-33
-3.534580344344327306e-33
