# bin_9_18
-2.367588299848874196e-29
-2.653691783763139036e-29
-2.919978542595564201e-29
-3.139817243233777668e-29
-3.279479708989685089e-29
-3.306918707801015426e-29
-3.181621437453702821e-29
-2.888573629687316043e-29
-2.479572298432878485e-29
-2.036746253457138859e-29
-1.680570328534823072e-29
-1.449046394173055548e-29
-1.217160073264413462e-29
-8.788333524336977600e-30
-6.362514253198063812e-30
-5.102219186477746254e-30
-3.389597191853557658e-30
-2.551728918474691256e-30
-1.780158061346251122e-30
-1.235157739326157684e-30
-8.670534071088521192e-31
-6.106518313621103272e-31
-4.355576810736399855e-31
-3.156145007557753154e-31
-2.332240572091983876e-31
-1.756002612928893278e-31
-1.343300285277296022e-31
-1.038675751691222144e-31
-8.061051206716931670e-32
-6.233645487746174394e-32
-4.770924113459741878e-32
