# bin_4_6
-3.526889422479611573e-13
-3.738852093498946306e-13
-3.838301268740079324e-13
-3.792711177123403403e-13
-3.552343134370419588e-13
-3.144749247499213365e-13
-2.634602330790578450e-13
-2.153992705620133256e-13
-1.810380039304239171e-13
-1.563372879544807081e-13
-1.239279651148750253e-13
-8.653390209303604898e-14
-6.812348664845385741e-14
-5.012729023891695594e-14
-3.633823422491507561e-14
-2.593638429549302823e-14
-1.910770219860889157e-14
-1.393851276411301787e-14
-1.029194057976675478e-14
-7.743049205655143865e-15
-5.931154130737652191e-15
-4.619513914894740005e-15
-3.641236212567933813e-15
-2.885538502877242968e-15
-2.282625536439403129e-15
-1.789944819894176254e-15
-1.382558590125532801e-15
-1.046280936896711466e-15
-7.725823904215928927e-16
-5.551731011519261896e-16
-3.881072467228840130e-16
