# bin_4_11
-1.060381767207834312e-27
-1.156126542429266874e-27
-1.229481839096895298e-27
-1.266554433261955290e-27
-1.256887066893497387e-27
-1.183074881712953110e-27
-1.052031218637107890e-27
-8.844749853737136585e-28
-7.230101189957634392e-28
-6.057648066555641732e-28
-5.243338572751696224e-28
-4.203707597229024018e-28
-2.926119286315962749e-28
-2.280361768897181553e-28
-1.698687693403028630e-28
-1.207360026393055326e-28
-8.579261751733907021e-29
-6.275796472918158811e-29
-4.496779074967190474e-29
-3.248640863380456798e-29
-2.388808315046232890e-29
-1.787138481110542605e-29
-1.361503173753777408e-29
-1.053823520271136983e-29
-8.243838940766238382e-30
-6.476048495907755564e-30
-5.072578364413645295e-30
-3.934819758783992562e-30
-3.005079361932246187e-30
-2.248779402103115442e-30
-1.642793236537039979e-30
