# bin_14_9
-4.354415304982733241e-10
-4.781526505137845898e-10
-5.130262536419320796e-10
-5.345181522485430094e-10
-5.375710400357814720e-10
-5.154663215644901453e-10
-4.665923720364491326e-10
-3.993431095989907356e-10
-3.277816304992837898e-10
-2.709310438568196599e-10
-2.335986922238282439e-10
-1.950214148820821321e-10
-1.403960052196362682e-10
-1.027954621490492875e-10
-8.171236085107492674e-11
-5.525688505229526626e-11
-4.146472280877955027e-11
-2.944658137222888750e-11
-2.085868604619714577e-11
-1.498111992505852852e-11
-1.087300443022910983e-11
-8.021117078285462421e-12
-6.023804016796405721e-12
-4.605941186354454958e-12
-3.571298958559962791e-12
-2.791984091603439779e-12
-2.186033518837477922e-12
-1.701924133869411847e-12
-1.309214295945961454e-12
-9.897610467043496849e-13
-7.322679988249470516e-13
