# bin_19_2
-3.045175844929244235e-09
-3.047371434303302451e-09
-2.907767325993830783e-09
-2.623508135926409857e-09
-2.240939650153987333e-09
-1.842552335989845030e-09
-1.527130185580910721e-09
-1.309717685059061138e-09
-1.081996603634245875e-09
-7.890017695872029502e-10
-5.848232431334770117e-10
-4.571593858412267614e-10
-3.230963914753831716e-10
-2.418756759710999194e-10
-1.764507620910281592e-10
-1.305018459896097660e-10
-9.808977841862802538e-11
-7.504497206641121109e-11
-5.847876993676125582e-11
-4.627074274934269148e-11
-3.697556370128121809e-11
-2.962406054504809296e-11
-2.361904967950358467e-11
-1.860990104816245411e-11
-1.440116370494541048e-11
-1.089026414187769189e-11
-8.020169885924542516e-12
-5.743800819640109841e-12
-4.003111451386442275e-12
-2.721281154993427784e-12
-1.810169317322043683e-12
