# bin_18_17
-1.901291831359674990e-08
-2.152572666695065794e-08
-2.397404789191425709e-08
-2.616554527927610792e-08
-2.784255565300833483e-08
-2.868630795298458442e-08
-2.846155124610575320e-08
-2.676742994126809085e-08
-2.377967803189360465e-08
-1.996934773136911578e-08
-1.632765673612152857e-08
-1.371129506505758235e-08
-1.188116611289291082e-08
-9.475752887784344544e-09
-6.549311207052304884e-09
-5.129414990489351024e-09
-3.754803145531056312e-09
-2.653082950994761834e-09
-1.824121467844285678e-09
-1.305408762552052989e-09
-9.003792663608542590e-10
-6.185161933918047146e-10
-4.290001178122128324e-10
-3.000995245591699447e-10
-2.131178806175115244e-10
-1.542802086874435440e-10
-1.139116949191889779e-10
-8.574532369737238295e-11
-6.551709094401653696e-11
-5.049616646517452703e-11
-3.896297318164973255e-11
