# bin_16_8
-2.879957039832110221e-22
-3.217818715622990632e-22
-3.526990122785387520e-22
-3.774213013708343107e-22
-3.917689978907858336e-22
-3.922598790635800084e-22
-3.735676254898432350e-22
-3.358088921468642276e-22
-2.853081128519131577e-22
-2.336213901521984478e-22
-1.940884991754725362e-22
-1.680155651144054277e-22
-1.383395842122434634e-22
-9.756324128165827577e-23
-7.316951423943941892e-23
-5.675982830486168341e-23
-3.854633015509190957e-23
-2.815657768354688886e-23
-2.005986848331676859e-23
-1.400460994091871937e-23
-9.835360950310903853e-24
-6.978164691359841818e-24
-5.024628725295513527e-24
-3.679459373107458758e-24
-2.748023392190517036e-24
-2.088025392768874712e-24
-1.608253117902585039e-24
-1.248153945804440093e-24
-9.689869821160848960e-25
-7.471658854700870063e-25
-5.686887871407228892e-25
