# bin_3_7
-1.096266287074748548e-13
-1.168203292718680859e-13
-1.206985031106804958e-13
-1.202366384112992145e-13
-1.137953675843726460e-13
-1.017276713962072534e-13
-8.598084529357448112e-14
-7.033540478512253823e-14
-5.863264079054672280e-14
-5.070052607578612693e-14
-4.124466493888465071e-14
-2.903284850812354947e-14
-2.219146575740333736e-14
-1.698614470789972754e-14
-1.190838086955741224e-14
-8.707386004073069112e-15
-6.377369392663464049e-15
-4.616891004383435569e-15
-3.386456677964249391e-15
-2.529310178768330210e-15
-1.924249712341827582e-15
-1.489119365459335111e-15
-1.168227679551496166e-15
-9.230116978212358694e-16
-7.294073522963738364e-16
-5.724928846605830633e-16
-4.433318063306440846e-16
-3.368506421127312444e-16
-2.500097500967537304e-16
-1.806794011655523846e-16
-1.270215325541733082e-16
