# bin_12_17
-6.006401089005854795e-13
-6.756257620909882650e-13
-7.466235946229930675e-13
-8.070967227778873185e-13
-8.486273945072368977e-13
-8.621262976177541344e-13
-8.387874384054985601e-13
-7.705618836214152153e-13
-6.694306168021700577e-13
-5.529466863760395528e-13
-4.536727024602991571e-13
-3.882193716613089925e-13
-3.317911884092411013e-13
-2.475666362121711194e-13
-1.734679706155425516e-13
-1.414397671529569730e-13
-9.429563908618370608e-14
-7.161818279798270044e-14
-4.888393092891435676e-14
-3.391710472699434962e-14
-2.381355719862305441e-14
-1.672140635020349885e-14
-1.181822071304410108e-14
-8.456475128508061877e-15
-6.171521958505351741e-15
-4.591796172544134092e-15
-3.477329086394345779e-15
-2.670410031798825652e-15
-2.065955343488614882e-15
-1.598493521564407637e-15
-1.228037934879136954e-15
