# bin_13_3
-6.353634245648962147e-38
-6.986110322550950398e-38
-7.507789522781064342e-38
-7.838337540321111836e-38
-7.901550621367436380e-38
-7.601326800194281684e-38
-6.901787963074970058e-38
-5.925584740648346548e-38
-4.867589852333710922e-38
-4.014286483712305003e-38
-3.457841138947370694e-38
-2.905632772656132465e-38
-2.105114677981247146e-38
-1.524609895763589940e-38
-1.225444163175117856e-38
-8.219477222824224501e-39
-6.229250529973975239e-39
-4.399059951859233470e-39
-3.109721586641923099e-39
-2.232936399105686957e-39
-1.617196046355917918e-39
-1.190300207783800018e-39
-8.913051029007094807e-40
-6.799678913848829236e-40
-5.261762702351372455e-40
-4.107548558166206453e-40
-3.213631308025133359e-40
-2.501543090996708029e-40
-1.924978285387189202e-40
-1.456350417855737829e-40
-1.078613452460094519e-40
