# bin_4_20
-1.840230711936793254e-64
-2.066309282254620179e-64
-2.278575254536170636e-64
-2.456645732999632548e-64
-2.574516982452355656e-64
-2.605849365266670447e-64
-2.521193414494931736e-64
-2.302264014583021520e-64
-1.988022993129290456e-64
-1.637099198959772751e-64
-1.346572998438777273e-64
-1.157003698575724798e-64
-9.810036833866354206e-65
-7.197115091056822109e-65
-5.116281539089963279e-65
-4.152782392173948194e-65
-2.750505980631995079e-65
-2.088410687765803193e-65
-1.441277541975527294e-65
-9.984373051645611857e-66
-7.012819367712737864e-66
-4.930518711710993599e-66
-3.501414524753570084e-66
-2.521238933453652320e-66
-1.852182022090153266e-66
-1.386684108698776963e-66
-1.055687549542148628e-66
-8.136504496974837027e-67
-6.305114504276530290e-67
-4.876663070951928341e-67
-3.738457217170277232e-67
