# bin_10_9
-2.228216812208918618e-08
-2.459436340436484525e-08
-2.655648787702454039e-08
-2.789192909521413294e-08
-2.830604652191589763e-08
-2.750468115531996635e-08
-2.523837337848918867e-08
-2.190215067249349830e-08
-1.808135189449694895e-08
-1.483701275932882619e-08
-1.269530587490801090e-08
-1.083285447687945326e-08
-8.076753111838288814e-09
-5.685291478997808542e-09
-4.632718421053847226e-09
-3.117855040699428415e-09
-2.377685553103468039e-09
-1.647864613507104552e-09
-1.165558202977684873e-09
-8.360551158647248513e-10
-6.032784556110085947e-10
-4.406828624815996307e-10
-3.270987997329073275e-10
-2.475536270308752344e-10
-1.903515217094225986e-10
-1.479761791617077742e-10
-1.155924323786678459e-10
-9.007111888237313191e-11
-6.954048997790975226e-11
-5.288462782542613469e-11
-3.943386577560534056e-11
