# bin_3_18
-1.997132391107142436e-63
-2.230909141418854877e-63
-2.444563854811024970e-63
-2.614990279627585510e-63
-2.713163896892632418e-63
-2.715132542338767957e-63
-2.583847218091877448e-63
-2.321081521681685074e-63
-1.970627499938926293e-63
-1.613387776323435953e-63
-1.341117788044367966e-63
-1.161117241533372063e-63
-9.545022136289589850e-64
-6.722412785085174396e-64
-5.054380149405848401e-64
-3.910095003259042718e-64
-2.661152634298543124e-64
-1.938717834545765783e-64
-1.383218452632960300e-64
-9.661503741897215860e-65
-6.786187441356364509e-65
-4.817786410118897331e-65
-3.471280347882100614e-65
-2.543825646585541500e-65
-1.901185453045481678e-65
-1.445432225621876486e-65
-1.113795051210719996e-65
-8.645992798990095544e-66
-6.712206692054410884e-66
-5.174609856047718351e-66
-3.937110296373470527e-66
