# bin_19_5
-1.541277647986321005e-51
-1.728000216808747829e-51
-1.901986487315696037e-51
-2.045933722167202571e-51
-2.137907599339377656e-51
-2.156909056468451940e-51
-2.076730555983991396e-51
-1.886896617115126368e-51
-1.621007733579256184e-51
-1.331922747519924069e-51
-1.098501492309950420e-51
-9.467445876666403789e-52
-7.962862570082845929e-52
-5.761683633487880785e-52
-4.160650295633878989e-52
-3.343018209400699198e-52
-2.219368173094182139e-52
-1.673383426194755605e-52
-1.165856906499594952e-52
-8.088314405414079634e-53
-5.679470913509990760e-53
-3.999663810074242828e-53
-2.852236981086916336e-53
-2.064822325602669815e-53
-1.525078014519647336e-53
-1.147459338290325195e-53
-8.771154189413172491e-54
-6.777770925083230775e-54
-5.257215690045127551e-54
-4.063460290935975734e-54
-3.108654116930419371e-54
