# bin_13_6
-6.590702431164529489e-21
-7.286358678516064069e-21
-7.883313846959303494e-21
-8.300373404845224587e-21
-8.447165826466346326e-21
-8.242260632081308821e-21
-7.598168997411248887e-21
-6.624126214391166348e-21
-5.482751769390682378e-21
-4.492102646762003632e-21
-3.830900526620893483e-21
-3.285433274955973052e-21
-2.481151980844073275e-21
-1.731962800069891627e-21
-1.410459511298253195e-21
-9.586035062227593184e-22
-7.275649337147103646e-22
-5.007196449115078846e-22
-3.554622168887153093e-22
-2.545539557941211655e-22
-1.833159050257506794e-22
-1.334727525479934636e-22
-9.869237418369492753e-23
-7.441688591803609191e-23
-5.704790228565038403e-23
-4.425373675016227457e-23
-3.453501481340331495e-23
-2.691507787592612876e-23
-2.080563907001402101e-23
-1.585562287305027153e-23
-1.185621241992557719e-23
