# bin_6_3
-2.877955179627664955e-11
-3.045890744552288337e-11
-3.120695339207664408e-11
-3.075346397562212785e-11
-2.870923283095642667e-11
-2.533652742352819145e-11
-2.117299507757150493e-11
-1.731443710719025316e-11
-1.459128490940208381e-11
-1.258529365899929297e-11
-9.890003890902591584e-12
-6.906724780761318427e-12
-5.477298449684138589e-12
-3.980429717427094119e-12
-2.915866704952789041e-12
-2.073613644135727456e-12
-1.525426486061227251e-12
-1.115385947374258772e-12
-8.254283662648225008e-13
-6.220407944385191075e-13
-4.770602580823260596e-13
-3.719284925127150137e-13
-2.932933497369248800e-13
-2.323412160039648333e-13
-1.836043392311111560e-13
-1.437293401136642563e-13
-1.107589054500851459e-13
-8.357964538694641217e-14
-6.151439358712505699e-14
-4.405066273451176500e-14
-3.068809157080428568e-14
