# bin_12_16
-2.354279585639943135e-11
-2.644214445592425785e-11
-2.916787080730287375e-11
-3.145987229291696978e-11
-3.298588547733123844e-11
-3.340598236236954250e-11
-3.234820336204304709e-11
-2.956588266419229395e-11
-2.555378160798121401e-11
-2.105233417639370422e-11
-1.730912484722072811e-11
-1.486346680249285948e-11
-1.261862790471421573e-11
-9.281362615490442333e-12
-6.581915001343562075e-12
-5.348038089716937752e-12
-3.544023782930057583e-12
-2.692093859884452783e-12
-1.854750762275855848e-12
-1.284886803508649502e-12
-9.024865292442360944e-13
-6.344051422700976926e-13
-4.501945763101091809e-13
-3.238568262579071286e-13
-2.376794708698555490e-13
-1.777798934409355964e-13
-1.352392158531567127e-13
-1.041785638602802734e-13
-8.071160118854786608e-14
-6.243068268355308210e-14
-4.787556528796130131e-14
