# bin_19_3
-1.470711288469400017e-68
-1.646894684198637177e-68
-1.810038744020884047e-68
-1.943465272205483481e-68
-2.026113334538673675e-68
-2.038733966689601408e-68
-1.955390934979851534e-68
-1.769791523336677697e-68
-1.514348370681161630e-68
-1.242475224265959792e-68
-1.027173154689291209e-68
-8.870330665926976968e-69
-7.408349376306876168e-69
-5.307164606895336369e-69
-3.883693728977186619e-69
-3.086274153287398809e-69
-2.061011076746008802e-69
-1.539770274684529249e-69
-1.081047225867570136e-69
-7.514760153606060405e-70
-5.275831032773275762e-70
-3.723391581609358358e-70
-2.664220601662183155e-70
-1.936730090256177050e-70
-1.436302611347322882e-70
-1.084627395533727006e-70
-8.314948457789371401e-71
-6.436437456443757853e-71
-4.994864770128443260e-71
-3.857870016223770410e-71
-2.946231233727476582e-71
