# bin_7_7
-5.237032855163302967e-08
-5.687959013211933764e-08
-6.019817185146650865e-08
-6.164995977341561609e-08
-6.070794334632124759e-08
-5.659299084505539603e-08
-4.987186598948123563e-08
-4.160651485512950411e-08
-3.401847981036033595e-08
-2.872692611644405049e-08
-2.479957422439169707e-08
-1.937178705687582847e-08
-1.345225648360319013e-08
-1.075114064007384997e-08
-7.695872051013062624e-09
-5.666921979422501209e-09
-3.953915472932549053e-09
-2.885795056298765480e-09
-2.084038452845516294e-09
-1.518153297523995715e-09
-1.124004404488404016e-09
-8.461433140943298922e-10
-6.486050334574007047e-10
-5.044237772321205840e-10
-3.956608014344504029e-10
-3.109803606201458835e-10
-2.431766393699225749e-10
-1.879436462337361128e-10
-1.427624150519116692e-10
-1.061027460125634479e-10
-7.689726555264861356e-11
