# bin_2_16
-2.990695107948265493e-62
-3.319448400688696312e-62
-3.608878657096040882e-62
-3.822846195838244918e-62
-3.917960345899156866e-62
-3.861224082256581804e-62
-3.601870350630520467e-62
-3.175813428320784849e-62
-2.649903439323375084e-62
-2.166586743782470985e-62
-1.830252781353187032e-62
-1.581927352608356899e-62
-1.235217003238176964e-62
-8.541187051372105046e-63
-6.833145625046829646e-63
-4.856615845032652382e-63
-3.562964198320664351e-63
-2.445059970645383815e-63
-1.764855536932167747e-63
-1.252146869474152019e-63
-8.922901742669016933e-64
-6.441866510022218829e-64
-4.718398345443626739e-64
-3.522734798455930640e-64
-2.677752635539931667e-64
-2.064155176278035375e-64
-1.605313636377071065e-64
-1.250677382247959884e-64
-9.691836163878643684e-65
-7.422051913787356921e-65
-5.587868623456695325e-65
