# bin_5_5
-7.015732498380323305e-08
-7.468077404556275548e-08
-7.705761471557424473e-08
-7.663469072153960117e-08
-7.237450124434988184e-08
-6.457028393145638631e-08
-5.447673219648036903e-08
-4.455748904265435602e-08
-3.720592735394410794e-08
-3.216637371109896386e-08
-2.603031951203149728e-08
-1.829104185985157129e-08
-1.406771117327000880e-08
-1.068197280109244476e-08
-7.540784058339394369e-09
-5.485034141699426301e-09
-4.022363886344096522e-09
-2.916443088174245943e-09
-2.142086968091298044e-09
-1.602153493311058336e-09
-1.220413113872826051e-09
-9.455536994669749956e-10
-7.424140467356855393e-10
-5.868369856942086641e-10
-4.637586305270269674e-10
-3.638525813871848912e-10
-2.815545363441610640e-10
-2.137046376636669910e-10
-1.584066573497924778e-10
-1.143171068240359391e-10
-8.025428585481244447e-11
