# bin_4_19
-1.360139939600679417e-59
-1.523929221057033310e-59
-1.676038408895469249e-59
-1.801114670302441312e-59
-1.879738696268457976e-59
-1.893770320704946070e-59
-1.819598792494255401e-59
-1.649814934176218894e-59
-1.414283835990554871e-59
-1.161117704495025465e-59
-9.588321213309159671e-60
-8.273001274149665379e-60
-6.932442063597672899e-60
-4.988611250132813457e-60
-3.628100567100894922e-60
-2.898622433573909251e-60
-1.929743835419316693e-60
-1.448337581843827029e-60
-1.013204693770685534e-60
-7.036369333294103712e-61
-4.940266934982305455e-61
-3.482801541039652103e-61
-2.488147699303573790e-61
-1.805286998914965234e-61
-1.336329999481044760e-61
-1.007451792452567408e-61
-7.713188742516626443e-62
-5.966004915441191424e-62
-4.628884145189038999e-62
-3.576470328578720249e-62
-2.733559528250739589e-62
