# bin_2_19
-1.803371389547992256e-78
-2.018484452923463849e-78
-2.217199917128944919e-78
-2.378989969525656754e-78
-2.477962722823311897e-78
-2.490884622069585357e-78
-2.385580377325495204e-78
-2.156063882506537611e-78
-1.842132925397032620e-78
-1.510691562644706654e-78
-1.250102746986911235e-78
-1.080225106292875445e-78
-8.996722923461025123e-79
-6.422573497173915473e-79
-4.723702810013254550e-79
-3.736488719947256695e-79
-2.502504670954896342e-79
-1.861897666131177873e-79
-1.311109683818826865e-79
-9.121612662997245080e-80
-6.403850966534010764e-80
-4.523911179581446375e-80
-3.241211062205454657e-80
-2.359798512047082420e-80
-1.752673136012276235e-80
-1.325292321970801166e-80
-1.017040121893328392e-80
-7.877383570143308500e-81
-6.113870324860398404e-81
-4.720680843174801113e-81
-3.602713528662727949e-81
