# bin_7_4
-4.326293732525390840e-11
-4.636085153854474808e-11
-4.824348926599441200e-11
-4.846228189405467373e-11
-4.640620364858004310e-11
-4.195693791611497390e-11
-3.587085251179489659e-11
-2.943114862339744285e-11
-2.433291239312049650e-11
-2.097291466632676532e-11
-1.747941941794377529e-11
-1.258958804058301559e-11
-9.256488687053821606e-12
-7.355237641301619020e-12
-5.021188030395568278e-12
-3.783520785860430352e-12
-2.719246121267990424e-12
-1.955985576211276658e-12
-1.430455042695556070e-12
-1.060832122288609640e-12
-8.010018489940591922e-13
-6.153412038139072244e-13
-4.800792502188642770e-13
-3.780389073282456778e-13
-2.984450753829899146e-13
-2.345683804936509216e-13
-1.822931477116410090e-13
-1.392673661996156136e-13
-1.040911636293896189e-13
-7.583747970290350464e-14
-5.376713628978367909e-14
