# bin_1_10
-8.386761772681733758e-38
-9.045690814070765849e-38
-9.490534313172341682e-38
-9.622349660818787791e-38
-9.339852331491383477e-38
-8.562555729464783953e-38
-7.424660608465660332e-38
-6.127498776430416417e-38
-5.028533049836801260e-38
-4.301222001367928674e-38
-3.665070257947069326e-38
-2.733689088593132399e-38
-1.932725597081922496e-38
-1.572906091443972320e-38
-1.069421267011198245e-38
-8.173558359115971642e-39
-5.739465654891321665e-39
-4.124856710813051066e-39
-3.009412559909543485e-39
-2.217784029953617365e-39
-1.659689115267054667e-39
-1.263263895052077358e-39
-9.782521524751219573e-40
-7.665137673460188465e-40
-6.038246700305279165e-40
-4.749597446006694571e-40
-3.704110854951465588e-40
-2.846594108341211879e-40
-2.144461315916418892e-40
-1.577214089661304221e-40
-1.129612412851950460e-40
