# bin_5_1
-1.585249482210301371e-14
-1.634515054650785956e-14
-1.624610232510247681e-14
-1.533686172869328917e-14
-1.368103005170365927e-14
-1.154283990812440791e-14
-9.442135196686081429e-15
-7.881823733244468221e-15
-6.808094609303100272e-15
-5.512155110110438269e-15
-3.886085765338101028e-15
-2.986699154054496909e-15
-2.275556193361012626e-15
-1.613722220954207250e-15
-1.183368183569898391e-15
-8.738596827712987535e-16
-6.411716791908514826e-16
-4.778098859598730208e-16
-3.630958137819422972e-16
-2.810626645146717568e-16
-2.209743723701201124e-16
-1.755621387859380589e-16
-1.399242108445128925e-16
-1.110642423943113490e-16
-8.718973378985755853e-17
-6.727049665780088412e-17
-5.074547209382881388e-17
-3.728986403378289093e-17
-2.664163991886548080e-17
-1.851764877142749102e-17
-1.254938287299725483e-17
