# bin_6_5
-2.941902124695987757e-08
-3.150559050499652279e-08
-3.275847819074887637e-08
-3.287663204320859226e-08
-3.143887938319020674e-08
-2.838479543814154291e-08
-2.423238803738242217e-08
-1.987075826850702429e-08
-1.644214541357331846e-08
-1.418260142003843446e-08
-1.179138967676133476e-08
-8.461453535064121082e-09
-6.250248492808803951e-09
-4.950283910328845484e-09
-3.384054420043463746e-09
-2.544097600509243811e-09
-1.833021868106905352e-09
-1.319131738780108226e-09
-9.648238179271476731e-10
-7.159434756275576140e-10
-5.410783689888133025e-10
-4.160545649600577673e-10
-3.248374475605747880e-10
-2.559156657067973524e-10
-2.020734126432205154e-10
-1.588074115409712128e-10
-1.233701721608887281e-10
-9.419399399176821366e-11
-7.034501711171117528e-11
-5.120104475031414649e-11
-3.626227360184638991e-11
