# bin_9_7
-3.141454163221928938e-09
-3.438211370821067709e-09
-3.673745889813760439e-09
-3.807366803249176271e-09
-3.805802421191532016e-09
-3.617358632725922325e-09
-3.246181348602828324e-09
-2.753651995010938009e-09
-2.253933811667491586e-09
-1.873995936529464116e-09
-1.621310036437787255e-09
-1.330410491952939792e-09
-9.386453710074037390e-10
-7.082083001840782440e-10
-5.481467001573956136e-10
-3.771002833640068875e-10
-2.766875911543452996e-10
-1.998509427788993220e-10
-1.422182399500996765e-10
-1.022692963479706694e-10
-7.463450715041756221e-11
-5.543331289894986741e-11
-4.191448071583747682e-11
-3.224269257738432639e-11
-2.510514869325022758e-11
-1.966867128542529448e-11
-1.539794563085051815e-11
-1.196055188333915938e-11
-9.162110331555146053e-12
-6.886489698676659150e-12
-5.058615683073355919e-12
