# bin_6_18
-4.293950757342099430e-40
-4.807650025333774810e-40
-5.282970682408696143e-40
-5.671160262071326658e-40
-5.910680939095104792e-40
-5.945607862158839885e-40
-5.699912096202975489e-40
-5.156514689441538363e-40
-4.410137413599393672e-40
-3.617776773824334767e-40
-2.991751465073852753e-40
-2.584159942825483083e-40
-2.156376112936634027e-40
-1.542959004880961343e-40
-1.130941356061190506e-40
-8.974676135005867286e-41
-5.998171120908483700e-41
-4.475768942813697036e-41
-3.145332429177396542e-41
-2.186992370627731067e-41
-1.535379998651857518e-41
-1.083895160716720452e-41
-7.758846573233825607e-42
-5.643020574040346105e-42
-4.186955925758075782e-42
-3.163153755399899901e-42
-2.425750869957137440e-42
-1.878100001628342392e-42
-1.457533771559240107e-42
-1.125647234115705927e-42
-8.594679286338721870e-43
