# bin_16_19
-1.006919902198161384e-09
-1.140119145897559625e-09
-1.269962324814276594e-09
-1.386274546516360298e-09
-1.475420708483236255e-09
-1.520515725555559852e-09
-1.509080493737039916e-09
-1.419833945086227937e-09
-1.261835933867556080e-09
-1.060016131742665602e-09
-8.667269603264293205e-10
-7.275985488187422478e-10
-6.305085427743259694e-10
-5.034182775303319207e-10
-3.480614048884297122e-10
-2.722437258049606607e-10
-1.996605522663119556e-10
-1.408330020124884184e-10
-9.696617194140534556e-11
-6.938471860869678352e-11
-4.784210925360727080e-11
-3.285294668968767480e-11
-2.277811480859520639e-11
-1.592789960217003017e-11
-1.130562323969999821e-11
-8.180041207858697905e-12
-6.036542196570026223e-12
-4.541874102969991845e-12
-3.469276567277459954e-12
-2.673444120734823637e-12
-2.062835644775430352e-12
