# bin_18_5
-5.917583055928694440e-47
-6.619884949042551060e-47
-7.266797928772776166e-47
-7.790662822495502836e-47
-8.106247066404853270e-47
-8.138752201444690631e-47
-7.781238520250071098e-47
-7.020795994402909396e-47
-5.988061788107663061e-47
-4.908069703951993100e-47
-4.066157929734208755e-47
-3.515992156921419498e-47
-2.918435139812981873e-47
-2.075065975913103880e-47
-1.535361207636654089e-47
-1.207596066525048977e-47
-8.118340172315678421e-48
-6.008810787946802185e-48
-4.246464356540245662e-48
-2.957359884171167407e-48
-2.076255849935873849e-48
-1.468548509502833814e-48
-1.053781042393249150e-48
-7.686076271567086800e-49
-5.718613612254070625e-49
-4.330836734687048985e-49
-3.327468154017819745e-49
-2.578990873400675683e-49
-2.001887348634221110e-49
-1.545114471779294172e-49
-1.178241155439667986e-49
