# bin_1_8
-3.465296263879053608e-27
-3.683701544086927902e-27
-3.794351803909972512e-27
-3.765583067519711970e-27
-3.546139324339916276e-27
-3.155259832093703209e-27
-2.654988092316007541e-27
-2.170640058267379167e-27
-1.816516417092559364e-27
-1.570836325619185790e-27
-1.262626718507119416e-27
-8.836220016604719434e-28
-6.860685973884456256e-28
-5.153012957857575001e-28
-3.671284238641061649e-28
-2.647518079164313388e-28
-1.948371283251548100e-28
-1.415470589224161206e-28
-1.041047658122112500e-28
-7.801697958533032987e-29
-5.953465237550305451e-29
-4.620412413724601211e-29
-3.632215769583264029e-29
-2.873044658103700290e-29
-2.270761193091051569e-29
-1.780797199228287434e-29
-1.376712645640681200e-29
-1.043500064956874926e-29
-7.721366426213230181e-30
-5.561287124045624593e-30
-3.896333816395146528e-30
