# bin_3_5
-2.342846828812284625e-09
-2.460405424055575196e-09
-2.498046204710991389e-09
-2.430601212744196162e-09
-2.235269358965460840e-09
-1.944443176452143417e-09
-1.608264513958911865e-09
-1.318564226143831914e-09
-1.124109435706617823e-09
-9.601295874091616568e-10
-7.245220748443165809e-10
-5.113067839914472315e-10
-4.144003706954942656e-10
-2.871543712096989785e-10
-2.183047687310232940e-10
-1.544579260997183617e-10
-1.127491906365391426e-10
-8.323498495788280188e-11
-6.223540697034009613e-11
-4.732967262130469392e-11
-3.660666939725110436e-11
-2.874708216198909921e-11
-2.277545611836070040e-11
-1.807621000559529864e-11
-1.427071395094785502e-11
-1.113032205034617806e-11
-8.525433089923231380e-12
-6.381907293622766120e-12
-4.652820050629687998e-12
-3.298952616779433527e-12
-2.276341073804969369e-12
