# bin_17_1
-3.158447136455990414e-78
-3.514310781501487962e-78
-3.832339990363555805e-78
-4.074917055458325187e-78
-4.195649779598243589e-78
-4.160054328736864496e-78
-3.910225400216240225e-78
-3.472209510648156033e-78
-2.914981828648032769e-78
-2.382946332253600852e-78
-2.000453894008322933e-78
-1.732457344168579183e-78
-1.381662739475200721e-78
-9.572348749990797507e-79
-7.502137716454379049e-79
-5.515752524389529232e-79
-3.924392095256583686e-79
-2.736420696929212153e-79
-1.983148341173534800e-79
-1.397790782259087736e-79
-9.882615976469913782e-80
-7.091980381005137217e-80
-5.163248036957147554e-80
-3.828692406355771799e-80
-2.892786678963215515e-80
-2.219318053355126862e-80
-1.720873051801870818e-80
-1.339522209699062565e-80
-1.039153524059480184e-80
-7.980139228120818311e-81
-6.033068713514559415e-81
