# bin_15_19
-6.748168382686994626e-11
-7.634066016015625246e-11
-8.494235847777596471e-11
-9.259838202080744905e-11
-9.838937519757136885e-11
-1.011875826112243970e-10
-1.001617538763698030e-10
-9.392299624383698079e-11
-8.321049431711410237e-11
-6.970676769421299530e-11
-5.699165047271592055e-11
-4.797514421187038459e-11
-4.155062949972442561e-11
-3.286749582388805263e-11
-2.268123415808516325e-11
-1.792114899689074001e-11
-1.294002533459376704e-11
-9.259494314836459512e-12
-6.311642304771254583e-12
-4.513124092691846770e-12
-3.120068409623907495e-12
-2.150020857250113110e-12
-1.495108018902101819e-12
-1.048760975080633372e-12
-7.474655540172427323e-13
-5.431358837833453274e-13
-4.024843869844172497e-13
-3.039073211292814140e-13
-2.327194080615667415e-13
-1.795519617569969037e-13
-1.385261333297500680e-13
