# bin_17_5
-2.002025545025156619e-42
-2.234344034663840946e-42
-2.445602030441262991e-42
-2.612468535772876504e-42
-2.705700314654377947e-42
-2.702024796340300352e-42
-2.563939405799128402e-42
-2.296962651230528563e-42
-1.944754801450987591e-42
-1.591342237352483274e-42
-1.325736475950967872e-42
-1.148317596141231838e-42
-9.378951081168688440e-43
-6.571416236182854339e-43
-4.990603273954161062e-43
-3.818268182921244966e-43
-2.621965318167617519e-43
-1.889907214144555240e-43
-1.355870685596715661e-43
-9.488971291044072083e-44
-6.669640376631343480e-44
-4.746834725758363318e-44
-3.428743655296009618e-44
-2.519806875899439047e-44
-1.888277382805993310e-44
-1.438890713325867402e-44
-1.110583652595515769e-44
-8.628074529903089780e-45
-6.698062496962209545e-45
-5.159520453385322537e-45
-3.919986169740329268e-45
