# bin_2_18
-4.002607204563312112e-73
-4.468585390914501022e-73
-4.893117750384909664e-73
-5.229683657217724731e-73
-5.419924576795405719e-73
-5.416774247694543840e-73
-5.145496472601096635e-73
-4.614361795837659542e-73
-3.910833353216721322e-73
-3.200756355592185699e-73
-2.664302794625073124e-73
-2.307397158803682078e-73
-1.889176821535344744e-73
-1.326167430760142179e-73
-1.003383546084093355e-73
-7.708876688595821249e-74
-5.275646666030529838e-74
-3.817968072866175635e-74
-2.733544416795669310e-74
-1.911648687174188676e-74
-1.343284888691691273e-74
-9.551332000769290459e-75
-6.892711221991207484e-75
-5.060157620241796693e-75
-3.788198563177738049e-75
-2.884230690110073424e-75
-2.224798700156939590e-75
-1.727926794426601982e-75
-1.341432668619624289e-75
-1.033621936977627460e-75
-7.857244256298032176e-76
