# bin_13_12
-2.020424018440034039e-08
-2.258096915811267123e-08
-2.475927256149358883e-08
-2.650637009879275283e-08
-2.752955355388440523e-08
-2.758195402251341806e-08
-2.629182850661502759e-08
-2.365508567212761813e-08
-2.011607070264531762e-08
-1.647552728218853953e-08
-1.367842199153673364e-08
-1.183796441761660125e-08
-9.765911139230641327e-09
-6.900536243128940986e-09
-5.158596330957822975e-09
-4.015001047120710241e-09
-2.719901062029821662e-09
-1.993132714939076410e-09
-1.417236269998941094e-09
-9.888367091087684095e-10
-6.943842316207184031e-10
-4.922874387886461401e-10
-3.541737786526109943e-10
-2.591069534423028209e-10
-1.933379546491492140e-10
-1.467867717893004143e-10
-1.129917204727323887e-10
-8.766392766105606527e-11
-6.805419285803251391e-11
-5.248714432594806179e-11
-3.996717777624989139e-11
