# bin_15_3
-5.699336837195144013e-48
-6.311580148687974931e-48
-6.842901692061288306e-48
-7.223647990451563738e-48
-7.373291234887637145e-48
-7.225507415769674687e-48
-6.694297319147417744e-48
-5.864520424477942424e-48
-4.869476950271365053e-48
-3.985021389823073004e-48
-3.385269061198867967e-48
-2.915171217061798992e-48
-2.232648197474373150e-48
-1.549447868424103053e-48
-1.255315165113434070e-48
-8.673917946388201735e-49
-6.510055898420154427e-49
-4.459287910560815165e-49
-3.187237596865694232e-49
-2.274880415851690750e-49
-1.632352014991078384e-49
-1.184310829925488786e-49
-8.721521631648646161e-50
-6.549254869157263797e-50
-5.003265871677305401e-50
-3.871387105115217543e-50
-3.017252371977665861e-50
-2.351490751168685608e-50
-1.819830591422305156e-50
-1.389829872769370294e-50
-1.042320509565662497e-50
