# bin_4_16
-4.911875919282762281e-45
-5.462022053577002377e-45
-5.951924476833614277e-45
-6.322857653494479937e-45
-6.502766961063997681e-45
-6.438207499934631497e-45
-6.040321114449643069e-45
-5.354386297040844107e-45
-4.488070555753642590e-45
-3.668708230092525113e-45
-3.084541465153305410e-45
-2.670544777215050098e-45
-2.119045150779501622e-45
-1.466388024446162942e-45
-1.155776445817993926e-45
-8.427440559301852491e-46
-6.042080459764256423e-46
-4.190705333838611622e-46
-3.037616178175464445e-46
-2.144299095002558643e-46
-1.518692964514145094e-46
-1.091540727559125370e-46
-7.958829988202770392e-47
-5.911810182962819257e-47
-4.473561188805795034e-47
-3.436300672942046590e-47
-2.666648012333076842e-47
-2.076284602360223570e-47
-1.610355312890182743e-47
-1.235856906598410164e-47
-9.333855253144840301e-48
