# bin_11_4
-6.167133147436987890e-23
-6.740390946107399285e-23
-7.189734850658414177e-23
-7.434777753757754227e-23
-7.412389764818232043e-23
-7.020158502568300631e-23
-6.278576067442950023e-23
-5.307848784384392979e-23
-4.341750439722690247e-23
-3.619810346614866376e-23
-3.133350948216373317e-23
-2.550485605250878341e-23
-1.788515024886159164e-23
-1.366148944485277824e-23
-1.043295379847205206e-23
-7.256305833466677069e-24
-5.259779504077667208e-24
-3.822615265618186841e-24
-2.726803242024385822e-24
-1.963053188888926109e-24
-1.436544543713641740e-24
-1.069755239303343201e-24
-8.110493884737034938e-25
-6.252894707235721866e-25
-4.876415472974892533e-25
-3.823572811262970479e-25
-2.993293934353443552e-25
-2.323270029155348922e-25
-1.777116702380911522e-25
-1.333059404468067856e-25
-9.768194960572025567e-26
