# bin_10_19
-2.034171439814980244e-23
-2.290224772436458894e-23
-2.533670879303390154e-23
-2.742591371234033669e-23
-2.888598720865354311e-23
-2.940104586199508793e-23
-2.868626251012126053e-23
-2.643640499571515499e-23
-2.303917527217860688e-23
-1.906405295479947487e-23
-1.562543973444695791e-23
-1.334055593917585465e-23
-1.144075858599507289e-23
-8.612564306896853012e-24
-6.001515024511049670e-24
-4.890203164839512463e-24
-3.284289025428676743e-24
-2.486290309306131508e-24
-1.688013332205104908e-24
-1.174524327376405785e-24
-8.238554574990992800e-25
-5.778672705301601201e-25
-4.074094456046821694e-25
-2.905727453174504968e-25
-2.113081316611010620e-25
-1.566838274765988547e-25
-1.183027189031459278e-25
-9.065691907019034947e-26
-7.006022138496619440e-26
-5.420792179025687849e-26
-4.168629683245372661e-26
