# bin_17_15
-5.777420872281571792e-09
-6.520646676023419693e-09
-7.234928893070237774e-09
-7.859752195387570753e-09
-8.315385521731258069e-09
-8.507525861823884498e-09
-8.362534258260511574e-09
-7.774252043594524208e-09
-6.832446930078750169e-09
-5.685788289810878492e-09
-4.651700880906001997e-09
-3.944097748754413405e-09
-3.404995947134876810e-09
-2.627522177480454417e-09
-1.814913034066674400e-09
-1.463310882121455618e-09
-1.015228010004844016e-09
-7.519307529882642426e-10
-5.065499585001965427e-10
-3.578732287232266050e-10
-2.493667456291561223e-10
-1.736433851266186981e-10
-1.215964663603410335e-10
-8.598667683943041972e-11
-6.191265462468033931e-11
-4.546015537997175674e-11
-3.402185082769306152e-11
-2.589710849535378188e-11
-1.993621714430848041e-11
-1.541346066399425211e-11
-1.187837186092918267e-11
