# bin_5_7
-2.687335421371504555e-09
-2.894386099035485866e-09
-3.031336601318700173e-09
-3.067313483791152818e-09
-2.968478449601707564e-09
-2.712879075587961177e-09
-2.344921782084589311e-09
-1.932240780273905246e-09
-1.587859157304534900e-09
-1.360957955022793905e-09
-1.154813487857312186e-09
-8.541761636033595288e-10
-6.083917021691381878e-10
-4.938911312791938780e-10
-3.348679168903989911e-10
-2.559389762911931929e-10
-1.806035070928212101e-10
-1.296737269036302688e-10
-9.467719138528360750e-11
-6.986040137602735980e-11
-5.238382841349996649e-11
-3.995545205764225072e-11
-3.099530819843447234e-11
-2.431596747964614344e-11
-1.916630888945294183e-11
-1.507482728870197375e-11
-1.174831801497365397e-11
-9.017312357014445771e-12
-6.781557746726926235e-12
-4.977369464008729694e-12
-3.556752789815979053e-12
