# bin_9_19
-1.386142172853516358e-27
-1.559160252313025037e-27
-1.722962230522696651e-27
-1.862458633440774061e-27
-1.958221493839081097e-27
-1.989283868024203948e-27
-1.935307896447996394e-27
-1.777754491050606116e-27
-1.544317029998072159e-27
-1.275531618185178881e-27
-1.046540569584515700e-27
-8.956093360880842508e-28
-7.653905231117983054e-28
-5.709652573967984324e-28
-4.000933548603305829e-28
-3.262697681363993723e-28
-2.174390030819070494e-28
-1.651856342790148308e-28
-1.127619569891606048e-28
-7.822352183735032015e-29
-5.492471594202999353e-29
-3.856877351843644056e-29
-2.726060605834172881e-29
-1.950738217822098871e-29
-1.423745419214652234e-29
-1.059380259363360483e-29
-8.023075522654494199e-30
-6.161576380828837431e-30
-4.766994987599739475e-30
-3.688373435435117402e-30
-2.833524385290539998e-30
