# bin_13_4
1.072676979254755654e-28
1.181852284000694129e-28
1.273298626764391063e-28
1.333586242602379752e-28
1.349148258398634016e-28
1.304790864368663093e-28
1.191218638415248299e-28
1.028474680792639248e-28
8.468627868204488557e-29
6.963789987227436097e-29
5.979042678471530043e-29
5.068207006585494331e-29
3.726045910615289243e-29
2.654288629889319250e-29
2.155408160369810786e-29
1.442551405166518904e-29
1.100572359304188434e-29
7.694427473594383571e-30
5.433180936458864655e-30
3.900486785379032733e-30
2.819094863518835962e-30
2.066636738971216969e-30
1.540405834422798829e-30
1.170348156403149857e-30
9.027386905695638717e-31
7.032608628544746106e-31
5.498315518618931899e-31
4.282717608605799684e-31
3.301600468462829296e-31
2.504788183593995195e-31
1.861796398165794117e-31
