# bin_10_2
8.155985461467021124e-28
8.826011502170764099e-28
9.298597953139242389e-28
9.472168665343609479e-28
9.257966512425918473e-28
8.553653953380407269e-28
7.473937059160049511e-28
6.196116063304515472e-28
5.072850992908732478e-28
4.314608580610644617e-28
3.705327906072118750e-28
2.823186424678918568e-28
1.971238557933224461e-28
1.599582073571155994e-28
1.107360034949366365e-28
8.374228923124124937e-29
5.829500301111428009e-29
4.215860092732826581e-29
3.065187912546779656e-29
2.249594434105847817e-29
1.675289856113066163e-29
1.268558807769982489e-29
9.778703668062148474e-30
7.637045437117653655e-30
6.005471749528257691e-30
4.723184417309493390e-30
3.688833067256681783e-30
2.842839202462282612e-30
2.150198333273703931e-30
1.589316079774581348e-30
1.144613446847908847e-30
