# bin_9_1
7.084909528141275223e-30
7.594075538552091304e-30
7.904932988476450413e-30
7.943647634132630611e-30
7.609979736472572702e-30
6.882526995443186228e-30
5.885957807894110734e-30
4.828746410315956397e-30
3.990635619593787616e-30
3.440400590147153805e-30
2.870622031229002339e-30
2.067108771003552716e-30
1.518110634748454403e-30
1.209109963958681689e-30
8.232748137103134026e-31
6.218487810323390830e-31
4.466598870269813786e-31
3.211217122051121290e-31
2.347940087004640867e-31
1.740386026975334592e-31
1.313779673163331525e-31
1.009074368119222919e-31
7.871653766163190960e-32
6.198228753069215493e-32
4.893366593957215194e-32
3.846428218028159539e-32
2.989713148022309601e-32
2.284554157300815369e-32
1.707937164300209544e-32
1.244651143327084829e-32
8.826179445379036182e-33
