# bin_9_8
5.792424497209034223e-06
6.359909888158696025e-06
6.822686019952483594e-06
7.106957369236010205e-06
7.145893726263200198e-06
6.848788770425646865e-06
6.195503516844532360e-06
5.298919961907169834e-06
4.347009833553322197e-06
3.593343892668588461e-06
3.100734207527393114e-06
2.587800027792657472e-06
1.857772386413047376e-06
1.362442173035567189e-06
1.083889110200735374e-06
7.311987650979402521e-07
5.495439051439298635e-07
3.908638728313310847e-07
2.767894583389590521e-07
1.987821712833103369e-07
1.442582967120622793e-07
1.064782920441182101e-07
7.998000421017126115e-08
6.118085830593592406e-08
4.744077449542194278e-08
3.708057565129025703e-08
2.901986265143558967e-08
2.257654679763170454e-08
1.734952481978112164e-08
1.309973623196780110e-08
9.677489150037968401e-09
