# bin_19_18
6.086636212123906471e-06
6.904309977322422448e-06
7.708005891093304090e-06
8.437287606456146539e-06
9.010937499061046684e-06
9.327153883893988994e-06
9.306663876632990278e-06
8.818285619603385140e-06
7.888849909643165097e-06
6.668816446586817803e-06
5.456471800056505105e-06
4.554272397021537815e-06
3.947411051220848656e-06
3.209631460863873157e-06
2.237622131209657485e-06
1.709079578712690034e-06
1.292886112198182797e-06
8.871226637280664194e-07
6.275998735163592231e-07
4.459944225770891441e-07
3.060051192518390958e-07
2.091793931558680576e-07
1.440660735959257564e-07
1.000651939411571955e-07
7.040723665254544642e-08
5.046981790923430801e-08
3.689913872095063992e-08
2.753372331605530741e-08
2.090207586269749638e-08
1.605235400531442112e-08
1.238016467602611571e-08
