# bin_4_3
8.475369633202124562e-06
8.824165966990824136e-06
8.871847391169761479e-06
8.510042968428738281e-06
7.709781388394240580e-06
6.606506509840469267e-06
5.426213449747387785e-06
4.479933697226496430e-06
3.853287760320715139e-06
3.222316037054694706e-06
2.341251034849272472e-06
1.712286562365762655e-06
1.366528119574558543e-06
9.397751999771351069e-07
7.124259780749192727e-07
5.141354561751311069e-07
3.744228979078678733e-07
2.776471975075160936e-07
2.091006792230403858e-07
1.603909298608512878e-07
1.250744345998002674e-07
9.882554901245702849e-08
7.856567406633515914e-08
6.239198823983222064e-08
4.914777232117013563e-08
3.814859716090197525e-08
2.901570882245417809e-08
2.153154601116330997e-08
1.554526560699810997e-08
1.091496408197409889e-08
7.464236437507772773e-09
