# bin_17_15
1.740774573544876715e-06
1.964971641236544296e-06
2.180561390187866665e-06
2.369337913543494574e-06
2.507292926922814523e-06
2.565957844298277620e-06
2.523223684561980719e-06
2.346844924993382067e-06
2.063464984618992040e-06
1.717753104938905763e-06
1.405246288726366640e-06
1.191009080094122956e-06
1.028481006510217606e-06
7.947366946035767322e-07
5.488068700206473582e-07
4.421023343539586221e-07
3.073745796284308093e-07
2.272807959541581897e-07
1.531203830629474093e-07
1.082787274021572163e-07
7.541399209672839676e-08
5.248439269164673952e-08
3.673930838871092487e-08
2.596835331053961751e-08
1.868755433062285181e-08
1.371393823270046767e-08
1.025806553491534425e-08
7.805170326117024227e-09
6.007095318792556917e-09
4.643957506638802484e-09
3.579185167230871983e-09
