# bin_2_1
1.224374262473265281e-05
1.210679159231229243e-05
1.136428828479647952e-05
1.008643936950381740e-05
8.479856555197892270e-06
6.941599585797424171e-06
5.815941603797932052e-06
5.007460530290565009e-06
4.002801142704974659e-06
2.834518886205867793e-06
2.197611226700882703e-06
1.651413990240993907e-06
1.192197301868716618e-06
8.750208075505118840e-07
6.491374615019811615e-07
4.826310657137296283e-07
3.652208540817278913e-07
2.818063867213057554e-07
2.213219866401600560e-07
1.761870222570464300e-07
1.412609511166624213e-07
1.131939063549782774e-07
8.998896190818052386e-08
7.050042995398042278e-08
5.411054347288527000e-08
4.050260408903554559e-08
2.949056538090502817e-08
2.087497098481264367e-08
1.438900971463790107e-08
9.685349277378328345e-09
6.388121191060939153e-09
