# bin_10_9
5.650514093376105210e-06
6.238605601906843811e-06
6.738640909182747580e-06
7.080566634293299034e-06
7.189173667017479380e-06
6.990710363000891338e-06
6.419809503763331893e-06
5.575625102518663929e-06
4.604956094646892755e-06
3.777602354981842808e-06
3.230494366950553846e-06
2.759135847648574073e-06
2.061710100220550329e-06
1.448940733676570811e-06
1.180820594687643521e-06
7.958258151122438424e-07
6.065623405485129317e-07
4.198398684894729477e-07
2.971072458132917639e-07
2.130677781485280755e-07
1.536993410658708124e-07
1.122116139526423501e-07
8.323484510489469151e-08
6.295411406970376966e-08
4.838265531369209718e-08
3.759862255722826418e-08
2.936578917501745344e-08
2.288318106378715807e-08
1.767112087319562952e-08
1.344358933872739116e-08
1.002923302490084446e-08
