# bin_20_5
1.566498523346122491e-53
1.760173339401271630e-53
1.942628629388786777e-53
2.096627907838413785e-53
2.200106864498832740e-53
2.230134601980383175e-53
2.162459340366862847e-53
1.979308805090762536e-53
1.713212071756938802e-53
1.412398358439420197e-53
1.160487762474450868e-53
9.955794799123391191e-54
8.469601869090215833e-54
6.254742351679153292e-54
4.418381614761862402e-54
3.596511358990511988e-54
2.384975755194300578e-54
1.813141751060955289e-54
1.245855045465593110e-54
8.630764584332627408e-55
6.062209241502309610e-55
4.260118278338467607e-55
3.019622499357491354e-55
2.168925825891725083e-55
1.589282245122527031e-55
1.187007259648053653e-55
9.018565439852150320e-56
6.941514720788191160e-56
5.375998137680516809e-56
4.158874316538168356e-56
3.191004310089079362e-56
