# bin_19_17
2.066129147476800314e-06
2.341722889910655159e-06
2.611557613151646417e-06
2.854958488282062353e-06
3.044156799938129327e-06
3.144499560894201054e-06
3.129847304646681437e-06
2.955795130674965881e-06
2.636102666390735223e-06
2.221715320458057559e-06
1.817109038274940861e-06
1.520762342699073119e-06
1.318171954169442004e-06
1.062995752517405919e-06
7.376827440938694881e-07
5.699102630991891466e-07
4.250656769114916966e-07
2.952655726069684056e-07
2.061107829810569473e-07
1.471383914175511574e-07
1.011807291557676062e-07
6.927631378457518776e-08
4.786374859074829612e-08
3.335094048742830512e-08
2.356306294275930430e-08
1.696548576040324066e-08
1.245920000784376017e-08
9.334396131794559521e-09
7.107822940527258813e-09
5.468269591839448483e-09
4.218837213998067953e-09
