# bin_8_6
7.101584047127777836e-07
7.719033315914014575e-07
8.177264767657734030e-07
8.384081640494322721e-07
8.268889498816868789e-07
7.723084634586191020e-07
6.818018482241612450e-07
5.696091243873220959e-07
4.656411344763415941e-07
3.926031853004253491e-07
3.392150213952924165e-07
2.663566808470630017e-07
1.848757650534956513e-07
1.471686554285086526e-07
1.061483372593835744e-07
7.766835491763760826e-08
5.427882270623038451e-08
3.968203469999816735e-08
2.861319632734327991e-08
2.080849878745732832e-08
1.538667732523207465e-08
1.156860648294164768e-08
8.857008177508683329e-09
6.881711095587441159e-09
5.394766636756845570e-09
4.239411077266143051e-09
3.315836284357166402e-09
2.564193120245186937e-09
1.949495905260973205e-09
1.450548882079397535e-09
1.052670462080004408e-09
