# bin_6_5
6.806520214085542519e-06
7.293477056817564162e-06
7.589096329365099602e-06
7.622884768595665877e-06
7.298331448036135919e-06
6.597177230123837813e-06
5.638948238023716274e-06
4.625788089682811180e-06
3.824615134188086878e-06
3.297415991208728041e-06
2.747749576721867122e-06
1.977183692276700279e-06
1.454711390647263662e-06
1.156030695839091261e-06
7.886803286058020575e-07
5.945057169676921209e-07
4.274257859804627846e-07
3.074326917305038337e-07
2.248182804120960658e-07
1.667151476351976021e-07
1.258966123096451769e-07
9.673043570104616662e-08
7.547722920594531938e-08
5.944029415898037749e-08
4.692820332293099708e-08
3.688466781697322246e-08
2.866391055553173218e-08
2.189709982080685102e-08
1.636466947779662294e-08
1.192111335013418713e-08
8.450390413938843599e-09
