# bin_15_5
3.807406909081485116e-31
4.227923877744417724e-31
4.599219528832106725e-31
4.875400667047203377e-31
5.001015371370741571e-31
4.934343208841764871e-31
4.609507286070247178e-31
4.069692702278824371e-31
3.399468575488905708e-31
2.779130123615391703e-31
2.344927923390315482e-31
2.027890671293566221e-31
1.589858018962534314e-31
1.099115059382036025e-31
8.764180264228739400e-32
6.268415882559794144e-32
4.573583092853834147e-32
3.143997988080251388e-32
2.273065407682195038e-32
1.610628136681117689e-32
1.145943673216981757e-32
8.264275687291895287e-33
6.046436357820960528e-33
4.508628101581648659e-33
3.423427794166925557e-33
2.636737783235926525e-33
2.049588329367777671e-33
1.596618538431999557e-33
1.237561291006124858e-33
9.482516534176242669e-34
7.144832477300587576e-34
