# bin_17_1
1.559811828812137605e-75
1.735903416170427007e-75
1.893459294221201183e-75
2.013926006054896387e-75
2.074385957790732096e-75
2.057780861851183591e-75
1.935400668754125089e-75
1.719594920914570252e-75
1.444390330149963700e-75
1.180795201781947043e-75
9.907605726427695029e-76
8.580997509689603404e-76
6.854890935966342432e-76
4.751290019567402130e-76
3.716585006200831957e-76
2.740001063566278182e-76
1.944571580621180196e-76
1.358445599304992545e-76
9.843364005546890043e-77
6.934466360381694352e-77
4.900091758194246749e-77
3.514576305115219987e-77
2.557466894042197105e-77
1.895346681512517289e-77
1.431299717348901219e-77
1.097623087971905400e-77
8.508731838079518661e-78
6.622523992670541417e-78
5.137870871292047220e-78
3.946458292471977436e-78
2.984554952820587503e-78
