# bin_19_2
1.031486063790968125e-75
1.152661154169199308e-75
1.263665405280327020e-75
1.352604352060263841e-75
1.404526705756515740e-75
1.406865454027726548e-75
1.340616357930378045e-75
1.205782188399101271e-75
1.025036518112981917e-75
8.394582313489459460e-76
6.971161427619189234e-76
6.033869431583667882e-76
4.974288017249850903e-76
3.512019868284362087e-76
2.628549081239270492e-76
2.043282385019775467e-76
1.385228402022263363e-76
1.013821268195129813e-76
7.213137304885719067e-77
5.032882939726220314e-77
3.533498749777611817e-77
2.505288728892017444e-77
1.802501390205423550e-77
1.319263318081011894e-77
9.845312910014719978e-78
7.477948095994775172e-78
5.759171060508865334e-78
4.470481124496394541e-78
3.472419165238284003e-78
2.679760767091722867e-78
2.041899285105662725e-78
