# bin_8_5
1.806689248566072422e-08
1.951458927531454442e-08
2.051189311214747748e-08
2.084017643871024609e-08
2.029131852039600425e-08
1.866792118988580143e-08
1.624335879832697145e-08
1.343316981399288977e-08
1.101230559165867703e-08
9.395085746208492716e-09
8.033494226685487039e-09
6.050345005587449070e-09
4.253679615625849586e-09
3.456201607140193073e-09
2.370161548792421037e-09
1.802126812436984841e-09
1.260047085859792982e-09
9.084661149878781119e-10
6.617035812741133531e-10
4.867609385096910575e-10
3.635066800842406582e-10
2.762215848754730585e-10
2.135542795236731276e-10
1.671846745430845085e-10
1.316980913293875185e-10
1.036721999140236671e-10
8.097939933330090857e-11
6.237560354964804649e-11
4.712784135787004113e-11
3.478152186862267869e-11
2.500514386325551360e-11
