# bin_4_2
5.742734229751271910e-07
5.903763386145187244e-07
5.845955135381507457e-07
5.492559783760081472e-07
4.877607475188627685e-07
4.098931546506367970e-07
3.352071665408779559e-07
2.808342866369641611e-07
2.424188627392769336e-07
1.939844916447234220e-07
1.362896375355409401e-07
1.061073755849628416e-07
7.947542270617442288e-08
5.717198763005909499e-08
4.150936003943832413e-08
3.073009058264589995e-08
2.262573335666549792e-08
1.691592945724481730e-08
1.289752316644364097e-08
1.001503756005211245e-08
7.896610930079456381e-09
6.286551697501835651e-09
5.017079742532398027e-09
3.984397016333146368e-09
3.127209202561338454e-09
2.410771166483410350e-09
1.816180936885784602e-09
1.332511619552119503e-09
9.505322533541496772e-10
6.598137776155608994e-10
4.467381600969781098e-10
