# bin_14_13
6.401121811331385579e-06
7.165527715209807623e-06
7.872304132726088663e-06
8.448681096264327780e-06
8.802851901926393941e-06
8.851801273603967908e-06
8.481904564933416850e-06
7.669614322393530112e-06
6.556199276067785008e-06
5.377448364097475772e-06
4.448416351211841422e-06
3.843194688263886448e-06
3.203965590223615910e-06
2.289765865964113472e-06
1.681166532091724382e-06
1.331948115930983074e-06
8.909928720355654331e-07
6.638464161673695027e-07
4.669156811925492280e-07
3.246792759769528031e-07
2.278883252321190261e-07
1.608940922792868276e-07
1.151811422454130030e-07
8.382508078422938188e-08
6.221015161997330280e-08
4.702156800294950477e-08
3.608024956614532689e-08
2.794926526666508572e-08
2.170212596848754723e-08
1.676956538888652511e-08
1.281124755130176891e-08
