# bin_15_7
1.058210391731736335e-20
1.176130517806485627e-20
1.280844689173930671e-20
1.359663537426012539e-20
1.397084311766424652e-20
1.381610232849059576e-20
1.294321853210603372e-20
1.145767008864488810e-20
9.592193298290348771e-21
7.840884673308978241e-21
6.600459605737976868e-21
5.712923806493932159e-21
4.514609316158133194e-21
3.121868596541998264e-21
2.471172582573892386e-21
1.789833669922731835e-21
1.291024808183388160e-21
8.919255724108977714e-22
6.462351822722226993e-22
4.567033605809402796e-22
3.239056658860755122e-22
2.330474155582095112e-22
1.701602433079138723e-22
1.265766729140499785e-22
9.590713504921598674e-23
7.376862670080083513e-23
5.730816995169580436e-23
4.465528833713844394e-23
3.465223388862025535e-23
2.660135862443556556e-23
2.009328792914131874e-23
