# bin_17_5
8.296256954869698046e-40
9.243703764805398651e-40
1.009749154648305670e-39
1.075974791426811047e-39
1.110857902687846660e-39
1.105171087077666418e-39
1.043369851497421109e-39
9.302984584596784079e-40
7.839691913618719647e-40
6.410668854820670156e-40
5.362552323056257111e-40
4.645956550648556365e-40
3.748179575529651666e-40
2.606874457082390320e-40
2.014572862875077309e-40
1.509543033980225568e-40
1.055339002096886382e-40
7.463188082694651042e-41
5.394434290839352794e-41
3.788523814081227523e-41
2.668757869929393755e-41
1.907661610440526523e-41
1.383846163641194977e-41
1.022046310432003465e-41
7.693212079243712126e-42
5.886012990420022880e-42
4.556719181494151830e-42
3.545978680223675275e-42
2.753786148300222486e-42
2.119539109944860086e-42
1.607555596399727489e-42
