# bin_20_12
1.209726418179311782e-16
1.364471042240381362e-16
1.512803725467032249e-16
1.641966633908223558e-16
1.735215790584311236e-16
1.772983772944471430e-16
1.739602774657427981e-16
1.613671626231555251e-16
1.415245880125815203e-16
1.175912375801964159e-16
9.623823831861691973e-17
8.174953470323495942e-17
7.048507312587006394e-17
5.404660781535765360e-17
3.738395726450431752e-17
3.025383292443324131e-17
2.078842401939852116e-17
1.550800178605490745e-17
1.044890998759562261e-17
7.347998941713824320e-18
5.129390733290614201e-18
3.579304778163910002e-18
2.509100689825825369e-18
1.777981965967847619e-18
1.282732428154246002e-18
9.438188045455092173e-19
7.078683089261269797e-19
5.397747829434175685e-19
4.160490516572785720e-19
3.218811014902351513e-19
2.480866049073039979e-19
