# bin_19_11
2.607271300353152357e-17
2.933819220382818032e-17
3.243577841682155099e-17
3.508294920485327256e-17
3.691495159181776351e-17
3.753229687270929198e-17
3.656139736414243412e-17
3.363289543167051145e-17
2.925824315109471948e-17
2.418495169330497236e-17
1.983356334422880533e-17
1.695621029816445642e-17
1.451457382260410137e-17
1.087055985619752796e-17
7.596745895695154495e-18
6.194796990171173186e-18
4.140092682806596966e-18
3.141439697697048980e-18
2.138729548729734502e-18
1.484823842320176946e-18
1.041941709408128526e-18
7.311293227387748942e-19
5.158549295751963979e-19
3.686260599041277598e-19
2.684776961989599344e-19
1.994032460980760453e-19
1.508078301402742246e-19
1.157163493518720245e-19
8.950629063002665676e-20
6.928690939827936819e-20
5.328684909034776260e-20
