# bin_14_11
1.223324979637552945e-07
1.365291183371433286e-07
1.494430376540993547e-07
1.596491096508300477e-07
1.653612833721984681e-07
1.651535740370376680e-07
1.567382344430191546e-07
1.404381105426180198e-07
1.189225811330663359e-07
9.731566987520045855e-08
8.106495923657426578e-08
7.021304750403692764e-08
5.736440801264928667e-08
4.020521830442737848e-08
3.051632921450615305e-08
2.335952542317923824e-08
1.603276450415347708e-08
1.156176054746466678e-08
8.290354856150943069e-09
5.800399399255785358e-09
4.076303783569132102e-09
2.900313722856922514e-09
2.094356531582252421e-09
1.539072260232284184e-09
1.153036992187301713e-09
8.786999358743963873e-10
6.783762540790258470e-10
5.272325927222052875e-10
4.095350896260110798e-10
3.157057082465273443e-10
2.400804424663014566e-10
