# bin_15_14
6.462421830057167043e-06
7.254877328912307542e-06
7.998362791051301995e-06
8.621194687266732829e-06
9.031986977035493823e-06
9.138641680812824303e-06
8.837191382023556132e-06
8.065347017332969790e-06
6.960559342596746578e-06
5.730423644346521199e-06
4.714802519976631190e-06
4.052552243301675488e-06
3.433297947092830241e-06
2.514797142076851777e-06
1.790500214984389485e-06
1.452128879303836307e-06
9.615217602588763257e-07
7.297042968156123616e-07
5.040384150822768365e-07
3.491052790696233103e-07
2.451372872826860648e-07
1.723197900252833277e-07
1.223628901649827679e-07
8.817354648480499852e-08
6.478822088335369506e-08
4.852647185601137257e-08
3.696403995524085885e-08
2.850382660834783327e-08
2.209922820591963022e-08
1.710112488081327158e-08
1.311629345136092538e-08
