# bin_7_6
7.311504010238497524e-06
7.892931160548796686e-06
8.290455214071505707e-06
8.416342543043187725e-06
8.185009528350378809e-06
7.519901477371254490e-06
6.534452776652022751e-06
5.399388814874372421e-06
4.427891613602210311e-06
3.781566516476778343e-06
3.229591394811758979e-06
2.423015873224380099e-06
1.706636232063007847e-06
1.388201212010470656e-06
9.481272110021230896e-07
7.228019155049240149e-07
5.061115230922353130e-07
3.643244439341019978e-07
2.655837576226935676e-07
1.955420859457835511e-07
1.461561600960810648e-07
1.111639562946533556e-07
8.601455608796863026e-08
6.737873427730218752e-08
5.309473532096785390e-08
4.179793929256557558e-08
3.264126762826752120e-08
2.513052927977580362e-08
1.897434839912539241e-08
1.399143642087929216e-08
1.004889969661344380e-08
