# bin_10_10
1.152609081942236737e-05
1.273070552269464182e-05
1.375808006846065691e-05
1.446559921918617007e-05
1.469817474017888193e-05
1.430841033892980766e-05
1.315596912282660031e-05
1.143992548964859173e-05
9.454665416857229734e-06
7.752629255104104619e-06
6.624106474649372947e-06
5.665531604739872359e-06
4.247628957555062074e-06
2.977972778946969967e-06
2.427006170922116015e-06
1.639253363635285763e-06
1.248131146542543523e-06
8.621129459323655057e-07
6.104964059314839349e-07
4.376161222839527989e-07
3.155198929028516121e-07
2.301089349125925676e-07
1.705946584784253614e-07
1.289157319956397342e-07
9.902793118677356363e-08
7.695277920926525337e-08
6.012306583171943792e-08
4.688627570826805136e-08
3.624907541691828876e-08
2.761838367479360091e-08
2.064078220698336584e-08
