# bin_9_1
8.163240706159097129e-30
8.727520511074288469e-30
9.055264420833723518e-30
9.065689712275484113e-30
8.638969567249575956e-30
7.772760385086696643e-30
6.612097127946089331e-30
5.415758912842118985e-30
4.491570175621093702e-30
3.879749753812409966e-30
3.203762475640770014e-30
2.280487065414202206e-30
1.704363035839423220e-30
1.336285144640733319e-30
9.190939055316821110e-31
6.853944188043146877e-31
4.969478038155352908e-31
3.582391749577566156e-31
2.622150953937616614e-31
1.950217656402173490e-31
1.477909669405965488e-31
1.139884197602601763e-31
8.920716690476172771e-32
7.041400281411745896e-32
5.567071859451043554e-32
4.377689278998201931e-32
3.400854235308664939e-32
2.595280030544886940e-32
1.936408075983592016e-32
1.407714792476584183e-32
9.956945497158124414e-33
