# bin_10_9
6.520733470945397784e-06
7.184567909425168350e-06
7.740875605068149088e-06
8.108040320941017881e-06
8.203377892621245248e-06
7.934967890391016280e-06
7.245542848730636137e-06
6.256744110464009606e-06
5.152417479292890001e-06
4.236596973581329879e-06
3.637052866316557170e-06
3.083608220557920026e-06
2.268011117657750008e-06
1.615097201127734806e-06
1.311395301440035156e-06
8.779186879515686887e-07
6.696366838956235127e-07
4.679381533948892119e-07
3.304123582440817909e-07
2.371717296345388480e-07
1.713998673106703837e-07
1.256132847372075279e-07
9.365723712509322926e-08
7.115441535477734090e-08
5.489710334189555983e-08
4.278606034736665264e-08
3.347081466696073997e-08
2.609031214138099981e-08
2.013168481628312645e-08
1.528921831497160238e-08
1.137786030100469805e-08
