# bin_19_19
9.836953010507625591e-06
1.115190891701440375e-05
1.244126262386403824e-05
1.360683100192340823e-05
1.451672935585857900e-05
1.500607087879301831e-05
1.494927539164466275e-05
1.413436458155792185e-05
1.261933784317345772e-05
1.064664676749151012e-05
8.708862064700989420e-06
7.281829087915874333e-06
6.311947029314380407e-06
5.105084951113441201e-06
3.547733691560906767e-06
2.730096826823133114e-06
2.046393129193281872e-06
1.415053412078498353e-06
9.921412082583304145e-07
7.072234189233722286e-07
4.857980034031132808e-07
3.322541541601465155e-07
2.291920493444394075e-07
1.594404931255165370e-07
1.124276450656622078e-07
8.075863891367655902e-08
5.918677033995608311e-08
4.426495684037865528e-08
3.366457898641693217e-08
2.588579189854918723e-08
1.997578199228775475e-08
