# bin_12_7
4.093071290520140604e-12
4.513254530334323552e-12
4.867373091758311510e-12
5.104380552587296576e-12
5.171361091913360070e-12
5.012260510333814898e-12
4.586537836042838074e-12
3.969175654731873941e-12
3.271943701360966973e-12
2.687695149168887024e-12
2.304172181671822240e-12
1.959501995746637517e-12
1.449652470810908782e-12
1.026457605033814159e-12
8.356009221344254495e-13
5.599032396751027410e-13
4.275107009400357990e-13
2.976224783411662298e-13
2.101777968761155473e-13
1.508383804418115139e-13
1.089355906834123909e-13
7.971264666890754784e-14
5.932820559818163707e-14
4.499992823772350939e-14
3.467269145768681085e-14
2.699985927271599783e-14
2.111432187537619511e-14
1.646147759109864092e-14
1.271012600518775564e-14
9.662763541827886375e-15
7.200500797197620553e-15
