# bin_16_15
6.549749559456181496e-06
7.372022474205281711e-06
8.152947479177557877e-06
8.821759543629896329e-06
9.286938156637121981e-06
9.447405455376612396e-06
9.210511299997834207e-06
8.480546622467442208e-06
7.384206568416832182e-06
6.107022347842165894e-06
5.006842844216123056e-06
4.277593799679348780e-06
3.665129369291160361e-06
2.752068855956497637e-06
1.920385787444287915e-06
1.565412602156763619e-06
1.048689186681719606e-06
7.948068987045024272e-07
5.402961222196661914e-07
3.754696728922975288e-07
2.633918705380293842e-07
1.847586361538066480e-07
1.302669281357982954e-07
9.300221064684804786e-08
6.766728403606853322e-08
5.020861202192212443e-08
3.794024719961510325e-08
2.909409847228399236e-08
2.249707991394679804e-08
1.741492660412046178e-08
1.339711439540977049e-08
