# bin_18_13
3.784565436966544383e-10
4.261376254777003261e-10
4.715012387345032233e-10
5.104765241108274819e-10
5.377847563252599364e-10
5.475248249095780696e-10
5.344433057351702173e-10
4.927644186590337327e-10
4.296454500379315636e-10
3.556192228181431851e-10
2.914392524215907827e-10
2.487369608357178031e-10
2.134150360887219727e-10
1.608700032650180355e-10
1.120203999856412201e-10
9.124740008831464242e-11
6.136247101808214893e-11
4.641366712618346365e-11
3.148296527322866137e-11
2.191438200435829642e-11
1.536362523451235137e-11
1.077008834287775809e-11
7.585375267332050095e-12
5.407782777771521343e-12
3.928477590005394426e-12
2.910432891825267848e-12
2.196312261039510495e-12
1.682559607392912410e-12
1.300351006224751385e-12
1.006548157121213777e-12
7.746294849729005329e-13
