# bin_3_3
4.681992984704120225e-10
4.824976444726805202e-10
4.791669108196271074e-10
4.519111799173248255e-10
4.027731224305545154e-10
3.396610840388718265e-10
2.779854718944735817e-10
2.323338332399507718e-10
2.005823207412875368e-10
1.618751062097817079e-10
1.142894798091906524e-10
8.804282404152015207e-11
6.679235645091764493e-11
4.758152140972010062e-11
3.485248668882741240e-11
2.570470590637083672e-11
1.888023635678388859e-11
1.408898990930287229e-11
1.071466251278804358e-11
8.299001064646403924e-12
6.528181396905284036e-12
5.188289340925333429e-12
4.135675634089871901e-12
3.282532617819016951e-12
2.576374930491991635e-12
1.987107290331648507e-12
1.498329458261944808e-12
1.100529206672702322e-12
7.859482563784058571e-13
5.461042224811728154e-13
3.700076794327405681e-13
