# bin_15_1
6.569224395834238272e-69
7.263931455466023647e-69
7.860283693405893826e-69
8.277149586235236176e-69
8.424403205981369722e-69
8.220138821741727720e-69
7.577614922188754554e-69
6.606064852736813741e-69
5.468419356351135096e-69
4.482063941378625252e-69
3.824219144442512423e-69
3.279450805745570469e-69
2.475169640256871039e-69
1.729183372501366045e-69
1.408576673243606866e-69
9.569305671414697787e-70
7.266762905276988324e-70
5.004730814743112957e-70
3.552756823540277034e-70
2.545025958586722214e-70
1.833392695768139986e-70
1.335438864204795032e-70
9.878726854124002550e-71
7.451817305043309114e-71
5.714501131733532293e-71
4.434115027453247111e-71
3.461005392194946270e-71
2.697707816752172771e-71
2.085522661534902164e-71
1.589410976185022075e-71
1.188514727781962194e-71
