# bin_9_9
1.672237127369545843e-10
1.841704390583802334e-10
1.983100485653310449e-10
2.075375254267037048e-10
2.097682694111932845e-10
2.025687336766197471e-10
1.846499792447159795e-10
1.591700901454347062e-10
1.309948984655594808e-10
1.078511458692203899e-10
9.272625012323173211e-11
7.839342576117230392e-11
5.736734966822204382e-11
4.110144433560636657e-11
3.327199017165665348e-11
2.228803127317162694e-11
1.697173875948364291e-11
1.190771819071513052e-11
8.413208533127269047e-12
6.041616537394166804e-12
4.370451186495758410e-12
3.208836573886384199e-12
2.395899443857763500e-12
1.823141441489443896e-12
1.408008254479518428e-12
1.097811127347153854e-12
8.586356516565023604e-13
6.687697580136092945e-13
5.153414763370691477e-13
3.906800115345944117e-13
2.900995571948921822e-13
