# bin_11_4
2.865521713793182456e-25
3.133767726948265561e-25
3.344949629058037780e-25
3.461675000153263435e-25
3.454295278333612067e-25
3.275078091079633947e-25
2.932152541957321683e-25
2.481366106722403440e-25
2.030542655744753272e-25
1.692310651502093304e-25
1.465163160235038404e-25
1.195136255517022057e-25
8.393141081298366768e-26
6.395275624153692066e-26
4.900043251106822554e-26
3.400040193489008017e-26
2.471709696428067679e-26
1.794546430120705428e-26
1.279660822736160476e-26
9.211176333861358559e-27
6.737652034663088029e-27
5.015238707492151594e-27
3.800658956785120899e-27
2.929129773491659440e-27
2.283842001202188732e-27
1.790687973231547234e-27
1.402079185237351921e-27
1.088622851427553965e-27
8.331463001965246387e-28
6.253766102387523767e-28
4.586041780441521912e-28
