# bin_10_2
1.442216941900040995e-32
1.561068058625824464e-32
1.645025013712952565e-32
1.676091956636324644e-32
1.638484229888514581e-32
1.514078242047343455e-32
1.323172155458984322e-32
1.097171005695244604e-32
8.985451242226280149e-33
7.645167342198121545e-33
6.566547089431729734e-33
5.002713747230778793e-33
3.494458483844949323e-33
2.836572675872426904e-33
1.963402594753648813e-33
1.485494513005712275e-33
1.034415583136373261e-33
7.481346989919146734e-34
5.440882468737092741e-34
3.994247655662230226e-34
2.975309060064046510e-34
2.253520300465508344e-34
1.737533242107508151e-34
1.357274625923569734e-34
1.067508143215877435e-34
8.397184821642964383e-35
6.559309567865822084e-35
5.055787768360615048e-35
3.824535381082980884e-35
2.827269231171608618e-35
2.036406762600287939e-35
