# bin_18_16
1.981155380632751416e-11
2.241698929078505509e-11
2.494745727115015769e-11
2.720042398192255863e-11
2.890525548913695508e-11
2.973000224335478319e-11
2.942951976453210716e-11
2.759535152743841012e-11
2.444741740683332184e-11
2.048022639561885546e-11
1.674910210575231959e-11
1.410702209401191374e-11
1.222044141195722572e-11
9.660146155960316939e-12
6.666965497215669711e-12
5.274363637109018860e-12
3.803389514330902625e-12
2.726258839503344881e-12
1.857020694542142056e-12
1.328066340254227622e-12
9.186459583835468091e-13
6.334642587867841559e-13
4.407807373876938110e-13
3.093931959588678711e-13
2.206732735479849344e-13
1.604687260759278611e-13
1.189965289328091553e-13
8.990479709036305901e-14
6.887534883133237846e-14
5.315405951299090208e-14
4.101315249086702026e-14
