# bin_20_11
5.705865050702381335e-25
6.442099461957037821e-25
7.150312963758672491e-25
7.770698859534629749e-25
8.224361495139385504e-25
8.417794942560985837e-25
8.278040579928942829e-25
7.699370796918729514e-25
6.769775027782866106e-25
5.635963843411534196e-25
4.612094640907994548e-25
3.910999770090745864e-25
3.377716409614379477e-25
2.608525743185113904e-25
1.802024625389393363e-25
1.452863549351043896e-25
1.009014730228815099e-25
7.470929275191719467e-26
5.033930161613903722e-26
3.558673381864692356e-26
2.480009928906120267e-26
1.727130457265636806e-26
1.209668534732998023e-26
8.555460646092436942e-27
6.160834405471929588e-27
4.524068647145542463e-27
3.385999242936621370e-27
2.577571824971504198e-27
1.984451900244075238e-27
1.534442793751225978e-27
1.182712441493900495e-27
