# bin_11_5
7.476977507332700793e-21
8.197757309105446704e-21
8.778007739599160634e-21
9.121364253894431718e-21
9.145295085795345986e-21
8.728217532370575386e-21
7.863270051074342987e-21
6.696739796187184304e-21
5.487593542714187060e-21
4.551109094898001476e-21
3.935141125942881054e-21
3.256308081524141086e-21
2.314362267359691985e-21
1.724166328220855356e-21
1.352876675420085381e-21
9.213085896814599997e-22
6.842561616834822814e-22
4.910359844266350346e-22
3.486610205026654349e-22
2.505490715953219950e-22
1.823748553131652934e-22
1.350950177457533781e-22
1.018633077148781371e-22
7.817577800353614306e-23
6.076922371631777265e-23
4.757002101445426044e-23
3.724431521711878414e-23
2.895731000520409987e-23
2.221972335209487499e-23
1.673962776455084342e-23
1.233117345151036880e-23
