# bin_19_13
6.540687322983740332e-17
7.388282562059003437e-17
8.205372886445461219e-17
8.923792154919380344e-17
9.453323126553278439e-17
9.686070104654434859e-17
9.539396681257936793e-17
8.888593022726501527e-17
7.828614289117301464e-17
6.526087049970724678e-17
5.339288136726348551e-17
4.520807168457838938e-17
3.907869278412366834e-17
3.033692860656181774e-17
2.094060183128907603e-17
1.682386171431612047e-17
1.177972549160445505e-17
8.664850579129677048e-18
5.842791079345765308e-18
4.144506290923857561e-18
2.883227346127349323e-18
2.003599339862576809e-18
1.401340207151372111e-18
9.894393027864836160e-19
7.110224588217779525e-19
5.210295318483912869e-19
3.892008330247018672e-19
2.958185940905692420e-19
2.275273064509713382e-19
1.758758541775108930e-19
1.356040532195866325e-19
