# bin_18_14
1.635796115749210667e-13
1.847303458998458280e-13
2.050972673763872706e-13
2.229704980191669287e-13
2.360908836807120439e-13
2.417694954560260854e-13
2.379261666953112138e-13
2.214882471423738354e-13
1.949058712000714753e-13
1.623681304370380693e-13
1.328568522218160116e-13
1.125776988240666657e-13
9.726799949822716661e-14
7.530897677056380465e-14
5.200622667301183624e-14
4.185577451556931037e-14
2.918613970007084981e-14
2.153907629745851854e-14
1.451972328866601589e-14
1.028165378360434359e-14
7.158994938311200949e-15
4.980279560202844362e-15
3.485774555633466556e-15
2.463329864710345816e-15
1.772070628436311339e-15
1.299956649447545066e-15
9.720215447052084814e-16
7.393891170922772721e-16
5.689799927443033489e-16
4.398843956318388404e-16
3.391030585519865643e-16
