# bin_18_4
5.455852824988646361e-57
6.101244696366732473e-57
6.694204207530987722e-57
7.171922719034203711e-57
7.455310229471859566e-57
7.476703226720645795e-57
7.135810682172428698e-57
6.427772666254963696e-57
5.472746200761068315e-57
4.484542297404840666e-57
3.721641817659074611e-57
3.221015537037512931e-57
2.663232155164652001e-57
1.885849176326089225e-57
1.405568065276825705e-57
1.097968140588306490e-57
7.420731438794527399e-58
5.457060028344137565e-58
3.873794961665909617e-58
2.701874214497438784e-58
1.897561948721943834e-58
1.344574843252741313e-58
9.667670684296459861e-59
7.067472128557190701e-59
5.269749833202708509e-59
3.998435300238654028e-59
3.076508855620133945e-59
2.386468351412943335e-59
1.852834628038359499e-59
1.429556544333686974e-59
1.089230726931985199e-59
