# bin_16_16
9.464927717487755581e-11
1.068597538609653307e-10
1.186044758745044049e-10
1.288911201011164521e-10
1.364108394415676195e-10
1.396132482730296090e-10
1.372869652187391736e-10
1.276810021271094217e-10
1.122576342521501508e-10
9.345258489997345310e-11
7.647654825301746431e-11
6.485472783169145718e-11
5.600820445596053883e-11
4.324546906207467141e-11
2.987735052099066770e-11
2.408980041017918004e-11
1.672632204830359931e-11
1.238627335692347689e-11
8.346858553605319822e-12
5.899929702493384205e-12
4.111826357370821628e-12
2.863713739572783610e-12
2.005835957453693347e-12
1.418745826322437638e-12
1.021733544736843591e-12
7.503501741750548841e-13
5.616359837592582653e-13
4.275667920914019801e-13
3.291911005693477620e-13
2.545427438918648703e-13
1.961917455013729330e-13
