# bin_13_5
6.872334601252095801e-28
7.587386552850888150e-28
8.194706783279516261e-28
8.608797522025389890e-28
8.738538071813166388e-28
8.492742534005701269e-28
7.794166735645717715e-28
6.764916981688167643e-28
5.585799087779847102e-28
4.584864449407874214e-28
3.924573753179581992e-28
3.349491728316154459e-28
2.496905896703330602e-28
1.758088823507534853e-28
1.433456957977468326e-28
9.641963075285235420e-29
7.358823542203034095e-29
5.101974495698745675e-29
3.608188191684584412e-29
2.589073856368090121e-29
1.868813833977744354e-29
1.365504207257979726e-29
1.013822518862466638e-29
7.674713811617539439e-30
5.902636165017599955e-30
4.589504906012323516e-30
3.585720702955207188e-30
2.794458673564066823e-30
2.157799384311781184e-30
1.641203614775508491e-30
1.223938006450691371e-30
