# bin_13_8
1.305297491106128917e-16
1.449319992300332553e-16
1.576303766998236894e-16
1.670453159582730525e-16
1.712765939929550495e-16
1.688789731689794712e-16
1.576196769334093513e-16
1.390468216895338133e-16
1.160755724993501889e-16
9.492946683749813797e-17
8.019873806273890111e-17
6.934194098708586553e-17
5.419535202834554041e-17
3.748376939009735574e-17
2.997760783851822424e-17
2.133444188422319343e-17
1.564091742501819591e-17
1.073953852180160807e-17
7.755647121851985922e-18
5.502703305991315152e-18
3.921239191184060945e-18
2.831090666970937757e-18
2.073735595253706295e-18
1.548239591053755519e-18
1.176873555298980848e-18
9.072199975915307499e-19
7.056025628373166399e-19
5.497967790944744925e-19
4.261364865727768032e-19
3.264233938470461005e-19
2.458343961438511655e-19
