# bin_2_11
-3.561878116348001959e-35
-3.875774245159952452e-35
-4.111320609503054037e-35
-4.222016879517754592e-35
-4.172580778885757160e-35
-3.906954703087688840e-35
-3.457237402236425077e-35
-2.894422007960488666e-35
-2.366549692069675595e-35
-1.992162502244891776e-35
-1.722815128077750279e-35
-1.361370232384588394e-35
-9.451760025226013981e-36
-7.485125936648335595e-36
-5.448928367053541257e-36
-3.955980274280762540e-36
-2.774063604238515143e-36
-2.030616389610551431e-36
-1.461750127704031944e-36
-1.060939946979784453e-36
-7.833077604186530171e-37
-5.880628988057675025e-37
-4.495633636562500171e-37
-3.489071122069157571e-37
-2.733280285326257128e-37
-2.147490599366789241e-37
-1.680161826420329729e-37
-1.300264996275717022e-37
-9.896716882394503228e-38
-7.374371689348798051e-38
-5.360506780620108887e-38
