# bin_1_19
-4.652143381275205771e-89
-5.206685784481787766e-89
-5.718688264871700594e-89
-6.135086404114883030e-89
-6.388907872441793092e-89
-6.420631030808981644e-89
-6.146344565214769291e-89
-5.553284356814285568e-89
-4.740081356093458328e-89
-3.889571159276097319e-89
-3.221157814367994207e-89
-2.784541676758113853e-89
-2.316299985588659347e-89
-1.651265030603856517e-89
-1.217815602168694166e-89
-9.611219989283522151e-90
-6.448710139197893435e-90
-4.787930383555039787e-90
-3.376964796681784069e-90
-2.350538234403562985e-90
-1.650274955880763102e-90
-1.166364794163596626e-90
-8.361526373643694546e-91
-6.091885990202992658e-91
-4.527506146381918088e-91
-3.425409464051284559e-91
-2.629831070271859169e-91
-2.037419796458790298e-91
-1.581398333212265778e-91
-1.220894583701886246e-91
-9.315122708423892706e-92
