# bin_11_14
-3.859377814975186806e-10
-4.315490808896671389e-10
-4.734573765929857962e-10
-5.072273013349858420e-10
-5.272717006854820964e-10
-5.288091100268656088e-10
-5.047507114327323435e-10
-4.547811565398090986e-10
-3.870858483075116162e-10
-3.173572571883113789e-10
-2.633513478397263666e-10
-2.278709371873057200e-10
-1.884423063125429024e-10
-1.334938499423390057e-10
-9.944490254033163748e-11
-7.770398431160557979e-11
-5.250596311977804428e-11
-3.862037701510277606e-11
-2.740214276701085436e-11
-1.910761284471858996e-11
-1.341751663824667474e-11
-9.504255968327400403e-12
-6.831157268935461308e-12
-4.991932420455062891e-12
-3.720777248405350726e-12
-2.822206220388998189e-12
-2.170906098209014888e-12
-1.683663227218823298e-12
-1.307026363434980115e-12
-1.008373940421684243e-12
-7.682990549014210813e-13
