# bin_10_12
-4.057190716968590294e-09
-4.511264387162768746e-09
-4.915362657313970152e-09
-5.220890406730806564e-09
-5.368348287050668510e-09
-5.313284916875593734e-09
-4.982729879719890279e-09
-4.415227483966714235e-09
-3.700068181109833380e-09
-3.025569339571744487e-09
-2.545869710775678041e-09
-2.204005789424151376e-09
-1.745795588452219042e-09
-1.208246736534816125e-09
-9.542747986242207290e-10
-6.937344653808037399e-10
-4.989147950294922407e-10
-3.455635064406658290e-10
-2.504052459971473902e-10
-1.769115203043677350e-10
-1.254079766629709706e-10
-9.019966344940779741e-11
-6.581326771125694527e-11
-4.892389668939036951e-11
-3.704708759592201538e-11
-2.847316742533799543e-11
-2.210440336167692795e-11
-1.721390288300579287e-11
-1.335089116740372997e-11
-1.024423188306113612e-11
-7.734565357488416781e-12
