# bin_20_4
-2.865961105579284613e-64
-3.218862254181878117e-64
-3.550576413687183745e-64
-3.829387567984336097e-64
-4.014776590207336458e-64
-4.065575604656564553e-64
-3.935758752523789405e-64
-3.596367103733454707e-64
-3.105818146621166117e-64
-2.560382524425801699e-64
-2.106229498800964980e-64
-1.809569005211506582e-64
-1.535369175494915076e-64
-1.127801292952808170e-64
-8.011826256500195183e-65
-6.506688262596479543e-65
-4.310808687113178470e-65
-3.274311228422913661e-65
-2.258638216156707378e-65
-1.564806010188297717e-65
-1.099081724700569104e-65
-7.726647480294243568e-66
-5.485344245773756309e-66
-3.948093778582630689e-66
-2.899076652033715428e-66
-2.169511491224846645e-66
-1.651052665114749969e-66
-1.272210978066086460e-66
-9.857703662894739404e-67
-7.624871753502575725e-67
-5.846386065569621643e-67
