# bin_6_17
-7.907767999680186613e-36
-8.836794595973399466e-36
-9.687502814026382208e-36
-1.036854768047322523e-35
-1.076500880976742331e-35
-1.078108293927368759e-35
-1.026991875253682256e-35
-9.235508537387046694e-36
-7.845491438667958688e-36
-6.428640240513087578e-36
-5.342352274025019192e-36
-4.625230554332048755e-36
-3.808932809984467576e-36
-2.686926060704094680e-36
-2.015659470219006373e-36
-1.563685899095585571e-36
-1.062244696447946789e-36
-7.759725760686200026e-37
-5.528813552160806383e-37
-3.860271907717411018e-37
-2.711239603003068835e-37
-1.923646196357936096e-37
-1.385125560100414837e-37
-1.014304485166420939e-37
-7.575261857126376471e-38
-5.755774682850821237e-38
-4.433229017695646662e-38
-3.440637965173097156e-38
-2.671182963734197643e-38
-2.059804900122219401e-38
-1.567887409925333786e-38
