# bin_5_20
-5.445997611231728430e-56
-6.119931983564717657e-56
-6.755076209713753093e-56
-7.291476507109037337e-56
-7.652338239917756135e-56
-7.758037674756180847e-56
-7.523349396841161983e-56
-6.887158567478726215e-56
-5.959045196511312198e-56
-4.916865546936244453e-56
-4.041238740375127279e-56
-3.467845457106408752e-56
-2.950065058243717458e-56
-2.178184526614990429e-56
-1.539765937384898370e-56
-1.253231078837932838e-56
-8.311320874564234538e-57
-6.318944229693073668e-57
-4.343885597103200394e-57
-3.009690608225071026e-57
-2.113962067003988894e-57
-1.485610772835679260e-57
-1.053131459258068657e-57
-7.565367893434750436e-58
-5.544201432515411665e-58
-4.141268892682897590e-58
-3.146693256099280888e-58
-2.422136238463821978e-58
-1.875953822465953011e-58
-1.451271087024785187e-58
-1.113532866222639130e-58
