# bin_18_5
-8.082736515783044771e-47
-9.044528734986150708e-47
-9.931663346265437613e-47
-1.065180350580220991e-46
-1.108846462304666092e-46
-1.113890002450396593e-46
-1.065667100890054070e-46
-9.622775950415771120e-47
-8.208690760305264672e-47
-6.734417246930071972e-47
-5.579333509726777114e-47
-4.824298677671122922e-47
-4.008394232029754964e-47
-2.853418221950728774e-47
-2.108834642625167504e-47
-1.661091387897256981e-47
-1.115916463610683084e-47
-8.270721476089274841e-48
-5.840668518192582545e-48
-4.066835309662236886e-48
-2.855253358888649598e-48
-2.018847950104863393e-48
-1.448067171062597109e-48
-1.055679356120472848e-48
-7.850680762912450509e-49
-5.942893038195560949e-49
-4.564538824082117872e-49
-3.537163904404847590e-49
-2.745609747675809952e-49
-2.119435427589498107e-49
-1.616627790318093570e-49
