# bin_4_16
-6.726411663435431609e-45
-7.482203864697837697e-45
-8.156417073248161455e-45
-8.668679894180775401e-45
-8.920179962173654365e-45
-8.837283156460343035e-45
-8.297622339485642611e-45
-7.361093405760259909e-45
-6.174682875359922203e-45
-5.049143850445040458e-45
-4.244366834581345729e-45
-3.675444832264095385e-45
-2.921140832835360347e-45
-2.022570901811343453e-45
-1.591986548647232391e-45
-1.163611798717871950e-45
-8.327111586043274096e-46
-5.784006437251684782e-46
-4.193055984122636327e-46
-2.959310781209123602e-46
-2.095167447765356335e-46
-1.505459242591945417e-46
-1.097359332250660836e-46
-8.148387856960132494e-47
-6.164140764251127833e-47
-4.733813296556404108e-47
-3.673140943276516575e-47
-2.860022560347594269e-47
-2.218562967700266399e-47
-1.703078210102105107e-47
-1.286713948362316024e-47
