# bin_14_13
-1.973284666255611565e-08
-2.213008270949129057e-08
-2.436695473407620449e-08
-2.622219507272702055e-08
-2.741484110013415376e-08
-2.767464331342114617e-08
-2.666545102717548283e-08
-2.424846946366184212e-08
-2.083599203584779043e-08
-1.713955912329046793e-08
-1.413610318182439494e-08
-1.218120468586297950e-08
-1.025582682394318325e-08
-7.432933872832871467e-09
-5.360098055812300718e-09
-4.312200264889724313e-09
-2.862140797826776139e-09
-2.160068543477144774e-09
-1.503780640693346831e-09
-1.043132746060652983e-09
-7.325042424413997663e-10
-5.157414045249939866e-10
-3.676159967034420007e-10
-2.659688868896502264e-10
-1.963241728287462375e-10
-1.476280986095018683e-10
-1.127943388679326371e-10
-8.713489644083197094e-11
-6.758068528039148224e-11
-5.224069001857195243e-11
-3.997649763245221614e-11
