# bin_3_16
-6.179817715620880035e-53
-6.867390555133253881e-53
-7.477105923910492961e-53
-7.934682159383152911e-53
-8.149726619191388471e-53
-8.054409680037715164e-53
-7.539523749131005567e-53
-6.669288748982652604e-53
-5.580991991972578390e-53
-4.563565371362076087e-53
-3.845789355917140308e-53
-3.327972269231745544e-53
-2.622696483855566710e-53
-1.814025068600026216e-53
-1.440095515727946435e-53
-1.038346176415201961e-53
-7.524040848872585004e-54
-5.189282230906636305e-54
-3.757368201273372147e-54
-2.658766909826664204e-54
-1.888339500608007012e-54
-1.360171101971170295e-54
-9.938854512441854602e-55
-7.400495186479259303e-55
-5.612175624650586396e-55
-4.318344349845589549e-55
-3.354879507093481750e-55
-2.613219162123962323e-55
-2.026275358146954214e-55
-1.553741595315351533e-55
-1.171932262505334152e-55
