# bin_6_3
-3.011862103834376396e-11
-3.190528531630104009e-11
-3.272435071491734164e-11
-3.229348184042145944e-11
-3.019738822530132984e-11
-2.669123159001798551e-11
-2.233746928308392074e-11
-1.827110235074116363e-11
-1.538360496524503687e-11
-1.327763929458810214e-11
-1.047497782390728857e-11
-7.316680172411788194e-12
-5.785602231506061050e-12
-4.226910352295303021e-12
-3.083592801093723198e-12
-2.196478871645773027e-12
-1.616643953232653665e-12
-1.180913248184971181e-12
-8.730131161627611165e-13
-6.573142793854802731e-13
-5.036993784973875927e-13
-3.924159509165382751e-13
-3.093053584490582114e-13
-2.449809943074387519e-13
-1.936143868930487063e-13
-1.516247268094773460e-13
-1.169170315971552665e-13
-8.830027606352473532e-14
-6.505247788721372270e-14
-4.663267486553782290e-14
-3.251959430499060897e-14
