# bin_1_4
-1.229034551420493947e-11
-1.254088331998694427e-11
-1.229181857723404117e-11
-1.140701604496674869e-11
-1.001033596837941484e-11
-8.338313953812126172e-12
-6.828614929637832802e-12
-5.778034216104249462e-12
-4.960375664821047628e-12
-3.844563119535667204e-12
-2.705944438030009329e-12
-2.158526041828580233e-12
-1.552867207403002763e-12
-1.154105758640684641e-12
-8.271759124913283144e-13
-6.122847218357811091e-13
-4.543367596232920722e-13
-3.421486235167121606e-13
-2.626020836914461979e-13
-2.050302037928831930e-13
-1.623406585932231110e-13
-1.295076335164638129e-13
-1.033230523266676177e-13
-8.184671798083878045e-14
-6.394006399755405587e-14
-4.897343149400103076e-14
-3.660424198709579734e-14
-2.662261470231328773e-14
-1.882485255919986088e-14
-1.295991950266432669e-14
-8.710942517368015132e-15
