# bin_2_2
-1.360518084830729463e-07
-1.367727545434317858e-07
-1.312473505890529527e-07
-1.190318993739764623e-07
-1.020969082005978909e-07
-8.401467688448258088e-08
-6.937696217425308128e-08
-5.955516808392020635e-08
-4.979958801643678380e-08
-3.644547246934062985e-08
-2.665490282987624328e-08
-2.120985327873344509e-08
-1.477310087529613362e-08
-1.118679349776317942e-08
-8.120116575704062658e-09
-5.983883300645076011e-09
-4.487795979040925472e-09
-3.423481022466132543e-09
-2.660182356194099792e-09
-2.099390579025763864e-09
-1.674974713402538121e-09
-1.340871414571138015e-09
-1.069045719348041372e-09
-8.429212598365683939e-10
-6.531021592895416595e-10
-4.946576647645414526e-10
-3.648752136675013896e-10
-2.616708424667680880e-10
-1.825485479450158516e-10
-1.241629893510435363e-10
-8.260639158201051227e-11
