# bin_19_5
-2.170712665570731943e-51
-2.434331336290895372e-51
-2.680269246065781351e-51
-2.884177871934801333e-51
-3.015144871559598297e-51
-3.043478106737902290e-51
-2.932140456910925645e-51
-2.666031952192888420e-51
-2.290538629309664344e-51
-1.884069969558714783e-51
-1.554017787206004605e-51
-1.339224500728577628e-51
-1.127323797598529729e-51
-8.167211795884905149e-52
-5.892058562711256179e-52
-4.739022910668682836e-52
-3.145499480457980114e-52
-2.373581721832813229e-52
-1.652810849466952913e-52
-1.146542528621958422e-52
-8.051025621719365850e-53
-5.668594730022847565e-53
-4.040874230240998886e-53
-2.923896548697903432e-53
-2.158516453712938794e-53
-1.623291888160412005e-53
-1.240373080184837665e-53
-9.582538645692319095e-54
-7.432222231325813237e-54
-5.745091598575927529e-54
-4.396136354610487708e-54
