# bin_17_9
-2.379863234940510391e-21
-2.668240826111564046e-21
-2.936947807060156785e-21
-3.159234663559191790e-21
-3.301170543212909717e-21
-3.330455426794011867e-21
-3.206152546116109280e-21
-2.912905922407348865e-21
-2.500619876137003319e-21
-2.056196603672121462e-21
-1.696764012283333676e-21
-1.462889436567593215e-21
-1.229764600997336988e-21
-8.890597912016170769e-22
-6.430711567219941953e-22
-5.162170305681524063e-22
-3.429207997721345736e-22
-2.583754742307614723e-22
-1.801877041088296084e-22
-1.250370784798447330e-22
-8.779755381939290880e-23
-6.183842200505622044e-23
-4.411140844143741286e-23
-3.194518010980297732e-23
-2.360277585499505393e-23
-1.776380142247965624e-23
-1.358185465006255025e-23
-1.049672163545828821e-23
-8.142288750423608813e-24
-6.293189186752302998e-24
-4.813918842085074365e-24
