# bin_19_18
-1.889448420826413565e-08
-2.143486189324290751e-08
-2.393256721897848222e-08
-2.620003115181967379e-08
-2.798493826932644946e-08
-2.897077888357530569e-08
-2.891096903981303005e-08
-2.739708903493539977e-08
-2.451580613808485325e-08
-2.072247474387531337e-08
-1.696382703501304987e-08
-1.416434766362660891e-08
-1.227843723437966400e-08
-9.981970269442163226e-09
-6.959487667702286734e-09
-5.319429672614385060e-09
-4.021881359895382778e-09
-2.761956753752372130e-09
-1.952977129608292185e-09
-1.388255263924643926e-09
-9.527482647443582478e-10
-6.513833571303575863e-10
-4.487188783117158416e-10
-3.117266931099862670e-10
-2.193846348501046783e-10
-1.572946969123036275e-10
-1.150234647300692502e-10
-8.584523766724260744e-11
-6.517864819848356117e-11
-5.006102348835699897e-11
-3.861101631298215208e-11
