# bin_11_5
-1.846601744154981897e-18
-2.024361179489159653e-18
-2.167421879136094436e-18
-2.252007795371213348e-18
-2.257786763640763557e-18
-2.154705077206362648e-18
-1.941338795556549894e-18
-1.652532762391774600e-18
-1.354780839873912844e-18
-1.123613141008937022e-18
-9.714034414243684988e-19
-8.037431044543408850e-19
-5.712233780902020135e-19
-4.255817411462650094e-19
-3.338682004531674568e-19
-2.273712082070462574e-19
-1.688351299480590451e-19
-1.211480216381799834e-19
-8.600842823881519850e-20
-6.179513830484801900e-20
-4.497158673806304218e-20
-3.330665762528103522e-20
-2.510934018918281986e-20
-1.926733943534443498e-20
-1.497517249358772451e-20
-1.172111623940918865e-20
-9.175877391455331324e-21
-7.133440743659296110e-21
-5.473066574989664713e-21
-4.122752886770321008e-21
-3.036653346684400510e-21
