# bin_11_4
-7.013546325062825689e-23
-7.669153752081909903e-23
-8.185132626405309924e-23
-8.470068254358922485e-23
-8.451479431748770426e-23
-8.012637239928835372e-23
-7.174211982995735488e-23
-6.069409161941466142e-23
-4.968150245801176622e-23
-4.140628085999681608e-23
-3.584340405994232607e-23
-2.923442135340646749e-23
-2.053033333135077992e-23
-1.564395756940016619e-23
-1.198378197202684239e-23
-8.316038592315295576e-24
-6.044235825543312891e-24
-4.387774172283223004e-24
-3.128541119109177990e-24
-2.251662964625199588e-24
-1.646774872958482379e-24
-1.225617127337553310e-24
-9.286876959063034956e-25
-7.156509246426826474e-25
-5.579357996648579439e-25
-4.374194669965026580e-25
-3.424602822044829496e-25
-2.658713533189766088e-25
-2.034540373456079815e-25
-1.526980371069145446e-25
-1.119631304327508568e-25
