# bin_2_4
-2.251405323044385327e-09
-2.321841274106588598e-09
-2.308094024892002141e-09
-2.179501006231285226e-09
-1.944857395017088227e-09
-1.641380027002748378e-09
-1.343606481135163230e-09
-1.121842589843262389e-09
-9.687729101934071240e-10
-7.842458539595400667e-10
-5.538042260286252441e-10
-4.253951034306575461e-10
-3.241005037856410339e-10
-2.300099966825810793e-10
-1.687790814660856343e-10
-1.244635043923645246e-10
-9.132807057618435921e-11
-6.808267187203796741e-11
-5.173109048604363234e-11
-4.003780294780157182e-11
-3.147465145749064775e-11
-2.500427406930043838e-11
-1.992775999744354854e-11
-1.581763049197708376e-11
-1.241801545393508137e-11
-9.581859537518141693e-12
-7.229015172370374122e-12
-5.313092802007047060e-12
-3.796733073219429388e-12
-2.639572467459793167e-12
-1.789230994271509112e-12
