# bin_17_1
-5.851998779039756407e-78
-6.513344472222895797e-78
-7.105350994438656640e-78
-7.558360004005910930e-78
-7.786311736075791068e-78
-7.724902002339564824e-78
-7.266341532286512691e-78
-6.457292369125772032e-78
-5.424589862712579391e-78
-4.436234419666290435e-78
-3.723623738465212838e-78
-3.225323999791470817e-78
-2.576016484689290350e-78
-1.785828186662145901e-78
-1.397809314763625784e-78
-1.029937828369458206e-78
-7.315955717186012104e-79
-5.108972530755489649e-79
-3.702400467738135686e-79
-2.609139162693331684e-79
-1.844198372869007870e-79
-1.323104862819153746e-79
-9.630160385435202516e-80
-7.138837469171629405e-80
-5.392294565891019262e-80
-4.136050330044794841e-80
-3.206790473334343212e-80
-2.496209840833421721e-80
-1.936747498788878417e-80
-1.487686485271447968e-80
-1.125077768957201062e-80
