# bin_13_13
-3.210998462576104403e-08
-3.595511776143169265e-08
-3.951444358731681464e-08
-4.242317712037246320e-08
-4.422036861034222261e-08
-4.448824787198327255e-08
-4.265429172065968415e-08
-3.859725938308640451e-08
-3.299679019626622274e-08
-2.709052853165699723e-08
-2.241192315022672385e-08
-1.936158208805204679e-08
-1.615459661865900278e-08
-1.155902687401009412e-08
-8.478741712448899215e-09
-6.725500895233219380e-09
-4.497769733284154882e-09
-3.354704310621898760e-09
-2.358540781209498286e-09
-1.640164946858531584e-09
-1.151532601695839220e-09
-8.129927683965864168e-10
-5.820148275300718281e-10
-4.233351418909972495e-10
-3.141216018512916189e-10
-2.373212609613333763e-10
-1.820020266513494258e-10
-1.409146978374795266e-10
-1.093604446551867269e-10
-8.445876063685443788e-11
-6.448694421909056787e-11
