# bin_5_9
-5.537717948168994096e-13
-6.022649214554847443e-13
-6.384601068102864748e-13
-6.551489361721918314e-13
-6.468114248541454622e-13
-6.048722220433212549e-13
-5.346078357838816892e-13
-4.471618255213011252e-13
-3.656354532737651774e-13
-3.081064289297516130e-13
-2.663296570453095118e-13
-2.097249725546291218e-13
-1.456224875154514871e-13
-1.156630099161336700e-13
-8.376256550675971424e-14
-6.109277329491147870e-14
-4.276427885879756317e-14
-3.127463794504500223e-14
-2.253622956969088628e-14
-1.637645733364444978e-14
-1.210125523205694200e-14
-9.092384795953864937e-15
-6.956684875524658746e-15
-5.402529035925563425e-15
-4.233947489059910277e-15
-3.326985432301551473e-15
-2.602623443170485076e-15
-2.013400154285469425e-15
-1.531573647785627099e-15
-1.140369235685875084e-15
-8.282217244226429203e-16
