# bin_4_3
-3.766696679147315596e-08
-3.922207730082173967e-08
-3.943980835167731920e-08
-3.783531060341565115e-08
-3.428415582871638015e-08
-2.936880201686430642e-08
-2.413961073632638081e-08
-1.993703049681813719e-08
-1.715164153612169046e-08
-1.434181369040638124e-08
-1.041925440064111681e-08
-7.625383124825134588e-09
-6.084044227669466225e-09
-4.185330759704494002e-09
-3.172359210906928257e-09
-2.290081084596883238e-09
-1.667885643409363791e-09
-1.236817799618642438e-09
-9.315153475032947747e-10
-7.145672630082904929e-10
-5.572694987079964357e-10
-4.403493779338241805e-10
-3.500985241382240638e-10
-2.780442585054915387e-10
-2.190352013980695700e-10
-1.700236580329055838e-10
-1.293241087478316503e-10
-9.596932057358025958e-11
-6.928854768144031507e-11
-4.865085807271188904e-11
-3.327038136659648135e-11
