# bin_14_3
-9.275440027935558984e-43
-1.024074802024720565e-42
-1.106130672806977143e-42
-1.162195439493614704e-42
-1.179964003875427967e-42
-1.147149849283935052e-42
-1.053228235819245632e-42
-9.141446668560275998e-43
-7.554194627319432517e-43
-6.199373476106182072e-43
-5.304416654528922354e-43
-4.528888607199445190e-43
-3.379930160887152409e-43
-2.378026327853919268e-43
-1.938643970266928638e-43
-1.304965367148240906e-43
-9.955283552069382440e-44
-6.896601269300350037e-44
-4.878363758990866997e-44
-3.499210727684653441e-44
-2.524858140656538152e-44
-1.843919993246869357e-44
-1.368270148962954627e-44
-1.035262448247621856e-44
-7.958795251936829137e-45
-6.186263358188338435e-45
-4.832322658816917289e-45
-3.765699526995275645e-45
-2.907836731828202683e-45
-2.211897958913698441e-45
-1.649803927620268804e-45
