# bin_11_1
-2.719798657274744437e-43
-2.952794839735963517e-43
-3.123436637029032816e-43
-3.196687810589478174e-43
-3.144850691989407709e-43
-2.928127073430702026e-43
-2.577211230765266065e-43
-2.148693397213855511e-43
-1.757374803549332146e-43
-1.486156911692223706e-43
-1.282539860751670852e-43
-9.978717492183796731e-44
-6.930578086520621371e-44
-5.560686583072838028e-44
-3.955101296035604983e-44
-2.929618843996636132e-44
-2.039323268761247092e-44
-1.487016305462261890e-44
-1.075410209693778345e-44
-7.845703544005504345e-45
-5.814947457316913928e-45
-4.381802618035976210e-45
-3.362210262421783971e-45
-2.616859686152274138e-45
-2.053684023664275640e-45
-1.614513738370486698e-45
-1.262398736632754090e-45
-9.753317870360590590e-46
-7.404304261836637243e-46
-5.498597202177816537e-46
-3.981271451457899618e-46
