# bin_14_4
-1.485756405721644105e-35
-1.642739103832691864e-35
-1.777510013444053984e-35
-1.871748797784500425e-35
-1.905104518309121125e-35
-1.859010758136509826e-35
-1.713873518332658906e-35
-1.493822844838557671e-35
-1.237263852010617490e-35
-1.013988538850787971e-35
-8.650107151508718044e-36
-7.418126598180298853e-36
-5.600341584492936928e-36
-3.911776533175333193e-36
-3.186144781874045131e-36
-2.164795327126046724e-36
-1.643734465333229684e-36
-1.131658575159151610e-36
-8.033482315774330103e-37
-5.753588138553146781e-37
-4.144112578947372630e-37
-3.017844193463893550e-37
-2.231882212133457758e-37
-1.683228753667173907e-37
-1.290574007402033174e-37
-1.001274139798026661e-37
-7.814624687829740732e-38
-6.090795072123813168e-38
-4.708421773244881121e-38
-3.588237872370083638e-38
-2.683092261353000417e-38
