# bin_20_14
-4.223600809048337858e-14
-4.780191012403205005e-14
-5.321632750908781128e-14
-5.804993001979729368e-14
-6.172813087210912032e-14
-6.354318603237461859e-14
-6.297160600521209555e-14
-5.913350592055304461e-14
-5.246116405897662647e-14
-4.400365774466401982e-14
-3.598866526331906952e-14
-3.027326854894537504e-14
-2.622839130942706291e-14
-2.081914836673747027e-14
-1.437785694017126037e-14
-1.132450763522168680e-14
-8.222058768183995218e-15
-5.855940424583823982e-15
-4.004242923460977366e-15
-2.865081006296566480e-15
-1.979286850995261665e-15
-1.362311042692148030e-15
-9.464997749228954910e-16
-6.632532783170445202e-16
-4.720760744825440149e-16
-3.425418227744576343e-16
-2.534862414751952248e-16
-1.911794472211966209e-16
-1.462808678138579985e-16
-1.128225150749623141e-16
-8.705384449294106805e-17
