# bin_7_10
-1.294205476367230162e-10
-1.421082136307922026e-10
-1.524703737885811017e-10
-1.588644936397541619e-10
-1.597886287934753883e-10
-1.532428032780338876e-10
-1.387167132962075058e-10
-1.187244870511954911e-10
-9.740621061596279530e-11
-8.045092307807962051e-11
-6.936749428112856556e-11
-5.797397703839983359e-11
-4.171394847289447911e-11
-3.048574551053259985e-11
-2.430625142017993594e-11
-1.637447866774527258e-11
-1.232644299727789991e-11
-8.749630892407220969e-12
-6.192202819252874539e-12
-4.446144262342084347e-12
-3.224615120802488197e-12
-2.378044473204642034e-12
-1.784559497983600577e-12
-1.363979953748687198e-12
-1.056962726646284834e-12
-8.257642566023373806e-13
-6.461062804924002358e-13
-5.026363930434642707e-13
-3.863205073369344122e-13
-2.917755681055744136e-13
-2.156414610964680318e-13
