# bin_17_9
-2.398079548046758749e-21
-2.687551422035321886e-21
-2.956927342534684047e-21
-3.179304860521258168e-21
-3.320622281445937244e-21
-3.348433916616564391e-21
-3.221994362680998516e-21
-2.925669584246632952e-21
-2.511835192528942852e-21
-2.063021533741634483e-21
-1.701319955785087841e-21
-1.466165604746106852e-21
-1.232152627439133077e-21
-8.905235738460157181e-22
-6.435995496205083859e-22
-5.165892074403346104e-22
-3.429703957393448555e-22
-2.583765993299002147e-22
-1.800765604192402763e-22
-1.249119025426389107e-22
-8.768298540627137331e-23
-6.173854446285170042e-23
-4.402516890881485346e-23
-3.187229460298370554e-23
-2.354211493943072219e-23
-1.771383548685294954e-23
-1.354076846779000735e-23
-1.046305839011437955e-23
-8.114817087712475879e-24
-6.270927601173238053e-24
-4.796052208590095728e-24
