# bin_16_7
-1.333922237310381505e-26
-1.488341358824258696e-26
-1.628671801820796404e-26
-1.739399708413595725e-26
-1.801093737090552214e-26
-1.798295004477025578e-26
-1.706121494723373865e-26
-1.528211701668754159e-26
-1.293667567950786021e-26
-1.058295505494370068e-26
-8.813238830657267955e-27
-7.631693579943314627e-27
-6.233525961172714479e-27
-4.367268292517434035e-27
-3.314384224496398958e-27
-2.536532022164581722e-27
-1.740596485723939673e-27
-1.254932531323034211e-27
-8.999186077094777791e-28
-6.295906347019552472e-28
-4.423996505271890111e-28
-3.147498900052888907e-28
-2.272760691996837485e-28
-1.669726408846024228e-28
-1.250886123411429010e-28
-9.529534942856744900e-29
-7.353724695627886143e-29
-5.712180900551502486e-29
-4.433880059881477784e-29
-3.415067280094922381e-29
-2.594373773740146149e-29
