# bin_13_5
-1.760151199489573764e-25
-1.942206127745348424e-25
-2.096503789696264675e-25
-2.201236960643099956e-25
-2.233198431221171605e-25
-2.169253769078425311e-25
-1.989802395960714712e-25
-1.726168859510702970e-25
-1.424538572585941561e-25
-1.168591074764679769e-25
-9.997136059848939092e-26
-8.528512926777122100e-26
-6.355546024393367350e-26
-4.472060058121746172e-26
-3.644772902606999131e-26
-2.450628322285082121e-26
-1.869515762415529074e-26
-1.295411664836384531e-26
-9.157649640268529433e-27
-6.568322878944407546e-27
-4.739127897937918813e-27
-3.461394823604407150e-27
-2.568958872451987152e-27
-1.944076658616031775e-27
-1.494751187356691955e-27
-1.161903609221386480e-27
-9.075377714903930206e-28
-7.070721400652245217e-28
-5.458109342982181580e-28
-4.149958782271846835e-28
-3.093720328689769571e-28
