# bin_3_1
-2.177910386930929826e-09
-2.190655786387620812e-09
-2.104079293380634201e-09
-1.909643018027204271e-09
-1.639776039251046309e-09
-1.348327611318614135e-09
-1.111715366612504536e-09
-9.537338378786755884e-10
-7.995180914666803723e-10
-5.860357793057690189e-10
-4.266185196417476579e-10
-3.408806944211760338e-10
-2.365422307751101095e-10
-1.796371299472080638e-10
-1.301373854998477040e-10
-9.579670158207679634e-11
-7.180272392503420669e-11
-5.472662060224072449e-11
-4.248920194858901714e-11
-3.350744852144328707e-11
-2.671993155622981396e-11
-2.138407674023345351e-11
-1.704786930092113643e-11
-1.344368282961676474e-11
-1.041941573055443138e-11
-7.895047588908526408e-12
-5.826469686842165769e-12
-4.180455032414263478e-12
-2.917575934068353837e-12
-1.985054345100614881e-12
-1.320969738514288650e-12
