# bin_3_10
-4.292098099936692049e-24
-4.656949113927565199e-24
-4.922788789465812214e-24
-5.034539612587851746e-24
-4.948915210427648579e-24
-4.603712594087135997e-24
-4.048823196459968738e-24
-3.371985071709754714e-24
-2.756497096333970182e-24
-2.330645910700275712e-24
-2.010288547930831004e-24
-1.561863434791687129e-24
-1.084237345394656926e-24
-8.703020957986767602e-25
-6.178765713757299497e-25
-4.580540609021472831e-25
-3.186454653865793393e-25
-2.322081710662232916e-25
-1.679294791467662120e-25
-1.225203015933551917e-25
-9.080718665930054941e-26
-6.842778213804653199e-26
-5.250608865845704634e-26
-4.086483583559920949e-26
-3.206677199346216344e-26
-2.520431534721866342e-26
-1.970150480284137049e-26
-1.521551555822984061e-26
-1.154567055052128451e-26
-8.569717610261501070e-27
-6.201635723596126466e-27
