# bin_2_9
-1.732107392456875730e-25
-1.862603474314004361e-25
-1.946982688603720932e-25
-1.965896557993193707e-25
-1.896793845962877661e-25
-1.727916954148959273e-25
-1.488712318238027199e-25
-1.224616557492186944e-25
-1.007391874226232945e-25
-8.648558168907335026e-26
-7.307223744444258368e-26
-5.360953308946108148e-26
-3.845814446645381104e-26
-3.112102766339777551e-26
-2.105787871259146155e-26
-1.608110227352698221e-26
-1.139799741563088652e-26
-8.178225797754957163e-27
-5.973528250941495003e-27
-4.412329619355844621e-27
-3.314288494748024600e-27
-2.532666560976942135e-27
-1.967704260969997501e-27
-1.545221208860652795e-27
-1.218464085055377922e-27
-9.581281221962029901e-28
-7.460719357573953554e-28
-5.718551028233399418e-28
-4.292879522743745703e-28
-3.143948324097931710e-28
-2.241342705930147890e-28
