# bin_3_15
-8.185940939720941964e-48
-9.064658832301261632e-48
-9.827527273814681305e-48
-1.037480019468381302e-47
-1.059076616777107832e-47
-1.038123789626849855e-47
-9.621568659297381704e-48
-8.431834069681724953e-48
-7.002290931313544727e-48
-5.728136966515158545e-48
-4.862149917472750012e-48
-4.187755269419379496e-48
-3.212421494735394285e-48
-2.227562210336292650e-48
-1.802603995672837085e-48
-1.248363229084372076e-48
-9.350185531961965823e-49
-6.401382121615384645e-49
-4.579085038162176429e-49
-3.266035890340868508e-49
-2.341853909810662636e-49
-1.698072478481514574e-49
-1.249720702489687581e-49
-9.378708765294588957e-50
-7.161028853680558480e-50
-5.538739029254857980e-50
-4.315601211315015407e-50
-3.362953831176716093e-50
-2.602610440305566384e-50
-1.987840222831866159e-50
-1.491061009747002334e-50
