# bin_17_14
-7.223254322798803098e-10
-8.142169674102042627e-10
-9.020936578591352920e-10
-9.783136250099292933e-10
-1.032885676436697543e-09
-1.054251117590226192e-09
-1.032952101535886713e-09
-9.566489598735161428e-10
-8.377239421413428757e-10
-6.952584048223429708e-10
-5.689921997210579418e-10
-4.836892221190380521e-10
-4.165292695995971890e-10
-3.181421605178985109e-10
-2.202720013081754339e-10
-1.785176115816234577e-10
-1.220352755706907413e-10
-9.133093107812062760e-11
-6.160109177692718241e-11
-4.321400703618301726e-11
-3.019893943258078783e-11
-2.109886032614212702e-11
-1.481096543340322690e-11
-1.050606213975018632e-11
-7.593209498794386911e-12
-5.596573269843953550e-12
-4.203022860976618093e-12
-3.207916895308484965e-12
-2.473439117616666945e-12
-1.912953450550472759e-12
-1.472947027651669422e-12
