# bin_15_1
-1.695276429486715126e-66
-1.873509225097518977e-66
-2.026197198252763179e-66
-2.132488110606810120e-66
-2.169250228068230667e-66
-2.115552190042212901e-66
-1.949199431945190767e-66
-1.698431823484404276e-66
-1.405196499403523221e-66
-1.151070064593891678e-66
-9.815432169250563784e-67
-8.413412362679797934e-67
-6.348017783744423866e-67
-4.432036562215198381e-67
-3.608567787750965143e-67
-2.450766588600166834e-67
-1.860104277503620329e-67
-1.280370763436926799e-67
-9.085978012712844029e-68
-6.505984927680244373e-68
-4.684919613417068012e-68
-3.411201571133181783e-68
-2.522517494917381356e-68
-1.902233761309111929e-68
-1.458358404612774184e-68
-1.131321796524054178e-68
-8.828281039607716292e-69
-6.879482047277804925e-69
-5.316770605735731476e-69
-4.050638075157700745e-69
-3.027835509805131272e-69
