# bin_11_19
-7.727090370946090190e-20
-8.706661855993921426e-20
-9.641810071606909717e-20
-1.045041175427217716e-19
-1.102539735076667161e-19
-1.124406237218098929e-19
-1.100375321325823524e-19
-1.017650003501318522e-19
-8.899315734061665638e-20
-7.378956942013193433e-20
-6.040554762448192859e-20
-5.140804244266171921e-20
-4.422461795073057530e-20
-3.364250463952448436e-20
-2.332380374007932945e-20
-1.893792556766865087e-20
-1.287440871654274799e-20
-9.671986723979232846e-21
-6.531391233318075240e-21
-4.569528451523922792e-21
-3.197113517152007736e-21
-2.236607368480502380e-21
-1.571801807702587593e-21
-1.116508760047584276e-21
-8.082723661874680424e-22
-5.967017662748908717e-22
-4.487802509208734410e-22
-3.429105410784207760e-22
-2.645715475736518815e-22
-2.046491153814643634e-22
-1.575247160539903794e-22
