# bin_13_13
-3.235479733905523744e-08
-3.621419564555407251e-08
-3.978195980449128854e-08
-4.269125911851475367e-08
-4.447945099974298402e-08
-4.472712592895100994e-08
-4.286365222341125366e-08
-3.876400888221082588e-08
-3.314174246991059604e-08
-2.717946407842034882e-08
-2.247116429309665264e-08
-1.940448052637545675e-08
-1.618578515505437826e-08
-1.157760754337260178e-08
-8.485436866663026362e-09
-6.730421758797811257e-09
-4.498075677398880550e-09
-3.354693423477637754e-09
-2.357175304461087689e-09
-1.638598670169128840e-09
-1.150077290951178861e-09
-8.117212910020692616e-10
-5.809224027712594027e-10
-4.224152543851522897e-10
-3.133590354237794488e-10
-2.366947728102715164e-10
-1.814873808119450553e-10
-1.404928698260390705e-10
-1.090155640267311173e-10
-8.417845050878545391e-11
-6.426114710799922368e-11
