# bin_18_2
-6.994127904825912731e-73
-7.807341858049596733e-73
-8.548236482940043546e-73
-9.135760466164578665e-73
-9.468284092704010324e-73
-9.463468991493037124e-73
-8.991458038197878618e-73
-8.064813742891968568e-73
-6.836545398973669244e-73
-5.594190399672470638e-73
-4.653490000746565677e-73
-4.028747486983199133e-73
-3.301418526345427057e-73
-2.318975896865403357e-73
-1.751049961026935340e-73
-1.347611053967875201e-73
-9.205619304347579391e-74
-6.672951193290232333e-74
-4.771954974729400389e-74
-3.335211020137832617e-74
-2.342729150535339242e-74
-1.664666953533867320e-74
-1.200517978865072258e-74
-8.807262767378316124e-75
-6.589186437427554209e-75
-5.014083218759420147e-75
-3.866076835023913240e-75
-3.001860228127568190e-75
-2.330141259790163946e-75
-1.795460884365915006e-75
-1.364972319958251808e-75
