# bin_10_2
-3.450877364278432497e-30
-3.733189660364608158e-30
-3.931809647204540814e-30
-4.003887601521575966e-30
-3.911998075130487094e-30
-3.613119250146670942e-30
-3.155948618478420275e-30
-2.615527746552528559e-30
-2.140807224924928788e-30
-1.820423223593329333e-30
-1.562883539444042185e-30
-1.190299685180337237e-30
-8.309537419830446607e-31
-6.741937082621011272e-31
-4.665279161776481316e-31
-3.527879302522789609e-31
-2.455401820681234948e-31
-1.775286983590503058e-31
-1.290571363460491731e-31
-9.470644370160240704e-32
-7.052134439137080032e-32
-5.339515089751210778e-32
-4.115619647071687439e-32
-3.213934474988285014e-32
-2.527008102756503751e-32
-1.987141373520995051e-32
-1.551678411445182313e-32
-1.195554441548085619e-32
-9.040419596371457758e-33
-6.680477925575894760e-33
-4.809977449067868834e-33
