# bin_3_4
-3.790477893120445383e-08
-3.945175791902910677e-08
-3.965169381469581150e-08
-3.802125284276436547e-08
-3.443375609263218897e-08
-2.949595789759492575e-08
-2.421898692431544806e-08
-1.999077328582084945e-08
-1.719063677425529871e-08
-1.437064157785816669e-08
-1.043726175306969966e-08
-7.633099546183395993e-09
-6.089888706936765927e-09
-4.187438489724575182e-09
-3.173710957419080611e-09
-2.290272308130316986e-09
-1.667728205311116645e-09
-1.236580255965902816e-09
-9.312449730467558951e-10
-7.142871431724303819e-10
-5.569836309913670853e-10
-4.400611893034707611e-10
-3.498086656480068328e-10
-2.777551973002746973e-10
-2.187532840935059211e-10
-1.697580647377573065e-10
-1.290844501164063667e-10
-9.576297824621705684e-11
-6.911937721198307338e-11
-4.851828269207685522e-11
-3.317077623299403983e-11
