# bin_8_15
-2.937012093133020802e-19
-3.274202466624713267e-19
-3.579151580520379570e-19
-3.817475922284712695e-19
-3.946234525929657419e-19
-3.932256936498425520e-19
-3.720601243365202090e-19
-3.324205639713339553e-19
-2.806928209737765487e-19
-2.295308042566674804e-19
-1.915597439915596032e-19
-1.659117540041350685e-19
-1.346510805027211826e-19
-9.394322101090574960e-20
-7.196384446937659043e-20
-5.447976391865403087e-20
-3.773186589102955776e-20
-2.692880485338361056e-20
-1.939715140400359080e-20
-1.359635876795719021e-20
-9.564003147452674679e-21
-6.820678789778279500e-21
-4.936442036871499452e-21
-3.636113446932033537e-21
-2.730620198169108200e-21
-2.084477200983755806e-21
-1.610845521461932143e-21
-1.252081749892386340e-21
-9.717681104806963799e-22
-7.478621522905150677e-22
-5.673541321162379755e-22
