# bin_3_9
-3.885604226683300608e-20
-4.193516516731473085e-20
-4.403531006375684569e-20
-4.469177996059001189e-20
-4.345062595081187859e-20
-3.990713120213832637e-20
-3.466679755872488100e-20
-2.863480300369614816e-20
-2.347483752262000125e-20
-2.004466223378219960e-20
-1.711741356850674093e-20
-1.283771886426639298e-20
-9.036679078867496432e-21
-7.355018766408376032e-21
-5.017431410568861397e-21
-3.828138983330065169e-21
-2.679704891967686172e-21
-1.927899180010495364e-21
-1.405362916881108187e-21
-1.034574687626859985e-21
-7.731148305475243342e-22
-5.875604966962643341e-22
-4.543998993114038208e-22
-3.557041102154345409e-22
-2.800488783742884174e-22
-2.202504406934355028e-22
-1.718119511148765603e-22
-1.321154460797608187e-22
-9.961715708939112177e-23
-7.335076983598520863e-23
-5.260241532009767577e-23
