# bin_16_3
-6.225862991375681800e-53
-6.915642082801853901e-53
-7.526341913049606160e-53
-7.983309444051160070e-53
-8.195780575744623905e-53
-8.096191724078039191e-53
-7.575009019102539614e-53
-6.697516689614088266e-53
-5.601113020735273901e-53
-4.577378251142522547e-53
-3.855266327980886542e-53
-3.335028858333841838e-53
-2.627621571466883686e-53
-1.816406695025824562e-53
-1.441147593445251791e-53
-1.039071260255078735e-53
-7.523286897462505183e-54
-5.187626540518475657e-54
-3.755287023874278162e-54
-2.655889373264379026e-54
-1.885389581489580474e-54
-1.357449811488006739e-54
-9.914962318482302542e-55
-7.379733159518627172e-55
-5.594419028195295966e-55
-4.303314639554153397e-55
-3.342263968402793883e-55
-2.602746679132720437e-55
-2.017692441287910079e-55
-1.546819992583591557e-55
-1.166460635065617994e-55
