# bin_20_12
-3.497605350394274207e-19
-3.950090701162579764e-19
-4.386436072235197651e-19
-4.770444649809176878e-19
-5.054176749210217563e-19
-5.180015928013647167e-19
-5.104565783575236250e-19
-4.760363519541774256e-19
-4.195841226223594261e-19
-3.499471684128805133e-19
-2.861014293681271066e-19
-2.418191975847060500e-19
-2.090542959531397688e-19
-1.628739479910927192e-19
-1.123144015763020304e-19
-8.991953479078333274e-20
-6.334095144326329495e-20
-4.631500950967491313e-20
-3.124853348926721187e-20
-2.220916619914507964e-20
-1.542042695750476585e-20
-1.069056875705239634e-20
-7.464059238805473268e-21
-5.259755695624497637e-21
-3.771105345396364117e-21
-2.757177795483882646e-21
-2.055274695655655573e-21
-1.559508425954186161e-21
-1.198112329907610857e-21
-9.256139153962553998e-22
-7.136684985895828334e-22
