# bin_20_8
-5.002094937896164942e-36
-5.630378332523218001e-36
-6.227424624302928982e-36
-6.739440949264302612e-36
-7.096795303711788275e-36
-7.221963701685107280e-36
-7.045401413709830222e-36
-6.492068642898980343e-36
-5.657142434576096724e-36
-4.680200674176245387e-36
-3.834755776847023538e-36
-3.272686104817370954e-36
-2.806358703806538161e-36
-2.113086021634221185e-36
-1.471695987729695084e-36
-1.198774532524127349e-36
-8.052867796457569839e-37
-6.093212542533799758e-37
-4.134650919322965831e-37
-2.876771853796201993e-37
-2.017194161971794978e-37
-1.414413046916841312e-37
-9.968019833865501420e-38
-7.106389376346024874e-38
-5.165692769839947322e-38
-3.828867460972389078e-38
-2.890004731345716740e-38
-2.214089891881234859e-38
-1.710763549390045796e-38
-1.323533592628508536e-38
-1.017748627911256044e-38
