# bin_19_4
-2.072526188075215886e-59
-2.321756085307662349e-59
-2.553198018155389681e-59
-2.743522309515817360e-59
-2.863231729263322563e-59
-2.884658626326548171e-59
-2.772131028371890393e-59
-2.513887891964222711e-59
-2.155392515027118116e-59
-1.769368777731155369e-59
-1.460300508685981426e-59
-1.259341796285258204e-59
-1.055877290480365409e-59
-7.605100630588680342e-60
-5.520911625920216654e-60
-4.415572971090695064e-60
-2.936805722672422148e-60
-2.206028571590826904e-60
-1.541448644581476583e-60
-1.069930015449020108e-60
-7.510001050667921908e-61
-5.291484573585300226e-61
-3.777629830532325752e-61
-2.738716038565529372e-61
-2.025748243208329492e-61
-1.526161918155107470e-61
-1.167800666699098146e-61
-9.029222097020867844e-62
-7.004057785831744980e-62
-5.411298229075994060e-62
-4.136188746400651111e-62
