# bin_7_20
-6.590581746837622796e-42
-7.412841820338598139e-42
-8.191584755238265029e-42
-8.855352000395083883e-42
-9.312085547853194966e-42
-9.461723822557776882e-42
-9.209186777583881333e-42
-8.464007926801183022e-42
-7.356567391050268027e-42
-6.077186778018937553e-42
-4.983357793405499967e-42
-4.260981322447809027e-42
-3.643915166039804212e-42
-2.723893227377565657e-42
-1.905240164396083072e-42
-1.553290529815230792e-42
-1.036681577376838576e-42
-7.868457207747713676e-43
-5.362087522298044115e-43
-3.721018007499367686e-43
-2.611511963124972127e-43
-1.832905115307151119e-43
-1.294314658343199279e-43
-9.251608402074879864e-44
-6.744416890977206095e-44
-5.012884761839985160e-44
-3.792855463703191359e-44
-2.910835150709699672e-44
-2.251123919200919731e-44
-1.741590383358324813e-44
-1.338146624061979727e-44
