# bin_2_1
-5.618965337914917980e-08
-5.554279626323611256e-08
-5.211862808315381230e-08
-4.624266953822014301e-08
-3.886440129928528981e-08
-3.180556852835387550e-08
-2.664204922740497717e-08
-2.293273939860558583e-08
-1.832510066986203932e-08
-1.297306861928412792e-08
-1.005743656178421487e-08
-7.555093924727436776e-09
-5.453927193844639222e-09
-4.001994168413618460e-09
-2.968586124433975184e-09
-2.206912983634727380e-09
-1.669877797590960076e-09
-1.288372681009317216e-09
-1.011750226950008827e-09
-8.053298961216624910e-10
-6.455986510181218232e-10
-5.172397842977861516e-10
-4.111254415215660736e-10
-3.220196650983390541e-10
-2.470983364935095251e-10
-1.849111304779829605e-10
-1.346026476254841123e-10
-9.525500390519275934e-11
-6.564299732210291276e-11
-4.417485729047742278e-11
-2.913025560630113818e-11
