# bin_8_16
-3.216583178810495604e-22
-3.593494730085741571e-22
-3.938423627923775620e-22
-4.214336086848137525e-22
-4.374714254377113907e-22
-4.380588753716682821e-22
-4.172871012930164536e-22
-3.751910852594950701e-22
-3.188433686997387750e-22
-2.610385841758225679e-22
-2.167197717481390570e-22
-1.875337431710515928e-22
-1.545474786785961000e-22
-1.090795321300108254e-22
-8.163402176395514257e-23
-6.343634225210258600e-23
-4.300408967824643528e-23
-3.146540324602035911e-23
-2.238735808604274205e-23
-1.562019412055728279e-23
-1.096645554651891594e-23
-7.775355216153858276e-24
-5.594740978503646850e-24
-4.093892982100557886e-24
-3.055427639865190044e-24
-2.320212307002212886e-24
-1.786263005690821831e-24
-1.385897802069006296e-24
-1.075778528988955306e-24
-8.295133366405508575e-25
-6.314320288976377673e-25
