# bin_4_10
-3.037669997818405775e-19
-3.305820901431597355e-19
-3.507646387658815713e-19
-3.603532445436530025e-19
-3.563770562326741304e-19
-3.340101903471616514e-19
-2.958199180104643845e-19
-2.478023686025927039e-19
-2.024854633518621625e-19
-1.701570923003160051e-19
-1.471525861628853456e-19
-1.167053793522204588e-19
-8.102100898585778884e-20
-6.387701346811015834e-20
-4.678231629021130372e-20
-3.375550143500162072e-20
-2.373768483235686169e-20
-1.737730652863974647e-20
-1.248926524622074595e-20
-9.050077160238040868e-21
-6.672885910354761172e-21
-5.003468955962401166e-21
-3.820334399203658730e-21
-2.961999749149453387e-21
-2.318701204704303282e-21
-1.820997212081230567e-21
-1.424562457759420020e-21
-1.102631520469936023e-21
-8.395783342494383470e-22
-6.259758548194433269e-22
-4.553802708047740126e-22
