# bin_17_3
-4.450758478995603009e-58
-4.958015050824190225e-58
-5.414801653908958243e-58
-5.768725781775432715e-58
-5.954586647439704105e-58
-5.923013039532247946e-58
-5.591012923691594285e-58
-4.984368857579595038e-58
-4.199797004036605499e-58
-3.433369348857632140e-58
-2.870839953782557573e-58
-2.486504364700107169e-58
-2.006244990119303466e-58
-1.395450483098235752e-58
-1.077526657874669874e-58
-8.077719651608923637e-59
-5.643336230197899792e-59
-3.993071528074225279e-59
-2.884881621326445973e-59
-2.025661403767699274e-59
-1.426776096990047824e-59
-1.019645986693281965e-59
-7.394202466717311184e-60
-5.458681120923280245e-60
-4.107764082492504788e-60
-3.141097235023405327e-60
-2.430225490283141991e-60
-1.889915010825248484e-60
-1.466568321324763401e-60
-1.127804919820293658e-60
-8.545433193105213141e-61
