# bin_7_17
-3.237669873370485690e-30
-3.620353336203018214e-30
-3.972297109207860331e-30
-4.256500265398920385e-30
-4.426405138930580632e-30
-4.441457170783958377e-30
-4.243203259211617441e-30
-3.825747697481122016e-30
-3.260570290343795620e-30
-2.671397320440297244e-30
-2.213226837235657022e-30
-1.913569500838161596e-30
-1.586509370402748238e-30
-1.126592179735257452e-30
-8.346734978829028625e-31
-6.553367274841395833e-31
-4.409094937379536756e-31
-3.258005080672481827e-31
-2.304061215879021434e-31
-1.604639221119085780e-31
-1.126283339553360238e-31
-7.966917903181967641e-32
-5.717695529170000556e-32
-4.171380028026300853e-32
-3.104370149325255705e-32
-2.351524263094841651e-32
-1.806991909973985957e-32
-1.400573163652084950e-32
-1.087052517232991748e-32
-8.388150183932303475e-33
-6.394114692605622301e-33
