# bin_11_6
-5.154627926384583696e-15
-5.662779857649729462e-15
-6.079447455924926274e-15
-6.339400343618151132e-15
-6.381993979210640009e-15
-6.128333807104361441e-15
-5.554176287228269107e-15
-4.759646422933190538e-15
-3.906391653568880550e-15
-3.223675900123270859e-15
-2.778336144125256206e-15
-2.327703919071872429e-15
-1.679307042783386257e-15
-1.222178161250493835e-15
-9.783135145016373929e-16
-6.572705732309362536e-16
-4.965221587860361876e-16
-3.515913502418548073e-16
-2.486509416987413424e-16
-1.785158042940352421e-16
-1.293615178247658193e-16
-9.530841789825639451e-17
-7.144973615700821917e-17
-5.456294858441066191e-17
-4.225374683481806286e-17
-3.299866703546567236e-17
-2.581757428780634021e-17
-2.008923867417291342e-17
-1.544777303382702549e-17
-1.167522750213902923e-17
-8.636176085411123931e-18
