# bin_6_10
-1.102545403136521413e-12
-1.207122172550671408e-12
-1.290472929654717898e-12
-1.338389237778103816e-12
-1.339054401053575210e-12
-1.274504607148158712e-12
-1.145214459015218412e-12
-9.727419259706908484e-13
-7.962824067292006038e-13
-6.610678639168900177e-13
-5.715716181073077074e-13
-4.705877620828702836e-13
-3.329516357877655116e-13
-2.497331863113321292e-13
-1.943972906986569507e-13
-1.330931959143728686e-13
-9.813505969897186974e-14
-7.067014486779557958e-14
-5.022660631468952383e-14
-3.609546780328241945e-14
-2.630592681219859011e-14
-1.951103959140345069e-14
-1.473166961319406141e-14
-1.131865961271827197e-14
-8.805075914895182311e-15
-6.894533377525223254e-15
-5.396578702663356979e-15
-4.192580999262406177e-15
-3.213134079634283557e-15
-2.416803299260095747e-15
-1.776961294164227262e-15
