# bin_17_5
-2.668650074413366562e-42
-2.977963852404346393e-42
-3.259258592444879563e-42
-3.481528524069094746e-42
-3.605925498910798516e-42
-3.601388247286372274e-42
-3.418192687575620222e-42
-3.062923335590417106e-42
-2.593844558449485478e-42
-2.122067409199062050e-42
-1.766645307624986302e-42
-1.529720143864802065e-42
-1.250630676961081813e-42
-8.768198370316063765e-43
-6.644881415481151538e-43
-5.093494034230124492e-43
-3.490644777911792091e-43
-2.520533762609552971e-43
-1.806114891420981584e-43
-1.263219923938278882e-43
-8.875353166450680309e-44
-6.312219495355285355e-44
-4.556355937347299073e-44
-3.346081648940564003e-44
-2.505804967151656583e-44
-1.908377469845461443e-44
-1.472318586993059580e-44
-1.143534449901329797e-44
-8.876373558273968879e-45
-6.837575613106643462e-45
-5.195465988951616875e-45
