# bin_13_8
-3.445232144954894613e-14
-3.823230817799493266e-14
-4.155899002650994886e-14
-4.401704689837075274e-14
-4.510757173369685771e-14
-4.445278767291504999e-14
-4.146798006810525529e-14
-3.656305407040905124e-14
-3.050689321994675033e-14
-2.493513357636831268e-14
-2.105310048121084428e-14
-1.819416307101239494e-14
-1.421549616183214982e-14
-9.826663700530772774e-15
-7.854000075631238027e-15
-5.588489355214254953e-15
-4.094123004066586453e-15
-2.809947666169159961e-15
-2.028478810501151102e-15
-1.438465434163443101e-15
-1.024504595742730433e-15
-7.393199411656861144e-16
-5.412910639102168330e-16
-4.039524566340728451e-16
-3.069431089387435469e-16
-2.365351773023638419e-16
-1.839132839244638517e-16
-1.432621151091534741e-16
-1.110072575098882399e-16
-8.500559473622838599e-17
-6.399727885647339602e-17
