# bin_17_20
-1.191495704728160809e-09
-1.351270078593917835e-09
-1.508269873170496065e-09
-1.650684881025659453e-09
-1.762658950658773534e-09
-1.824328391578592629e-09
-1.820197353948313559e-09
-1.724708422639955120e-09
-1.542920272274857368e-09
-1.304302642527901493e-09
-1.066931933820973970e-09
-8.900483419975071664e-10
-7.712239328207495630e-10
-6.273739208293438597e-10
-4.374763141147237497e-10
-3.336963164314648664e-10
-2.526936043525722119e-10
-1.731578489144081763e-10
-1.226258918804590383e-10
-8.707280499460727352e-11
-5.971361761805171841e-11
-4.080331168163380464e-11
-2.808532874157914620e-11
-1.949562900949190806e-11
-1.370792818823326037e-11
-9.819285805931813405e-12
-7.174091890954749775e-12
-5.349977564011333292e-12
-4.059480809788938615e-12
-3.116622701677710140e-12
-2.403295363031891489e-12
