# bin_14_20
-4.256915761335828866e-14
-4.815944068826791836e-14
-5.359168708403987765e-14
-5.843370588656493065e-14
-6.210799199002620609e-14
-6.390398922007287401e-14
-6.329968309081310514e-14
-5.941292616955284005e-14
-5.268174805621718490e-14
-4.416425118108135111e-14
-3.609803927215689095e-14
-3.034768870064982036e-14
-2.628336188237774040e-14
-2.085747988487300984e-14
-1.439657537546584699e-14
-1.133201282053556200e-14
-8.227493472965208306e-15
-5.854809499371592876e-15
-4.002928314306374380e-15
-2.863433832358706895e-15
-1.977083491183977208e-15
-1.360154320682444984e-15
-9.445790037565728280e-16
-6.616459983401466696e-16
-4.707390455194919321e-16
-3.414468082669660112e-16
-2.525955580009805774e-16
-1.904571424948603388e-16
-1.456978351308844007e-16
-1.123549287101313312e-16
-8.668217139360802468e-17
