# bin_2_15
-1.432221697299360073e-56
-1.584261895533769960e-56
-1.715326250232019701e-56
-1.807874260989826455e-56
-1.842012081729551585e-56
-1.800663589062822972e-56
-1.663574203003872162e-56
-1.453395687863070175e-56
-1.204463689622674404e-56
-9.859476177133163714e-57
-8.390062413715143651e-57
-7.209125952406644364e-57
-5.480703216398846449e-57
-3.812630814542884465e-57
-3.097579434164505428e-57
-2.120901088055702159e-57
-1.601482114712969814e-57
-1.098897216076088393e-57
-7.824156682902309221e-58
-5.593776481508256503e-58
-4.021277629315660033e-58
-2.922439000647697982e-58
-2.156352619948812764e-58
-1.622552621281581797e-58
-1.241666175180952840e-58
-9.619572938414120031e-59
-7.501753565361812786e-59
-5.846007898241923225e-59
-4.521040851496828653e-59
-3.448471077156222035e-59
-2.581861157510781492e-59
