# bin_18_12
-8.779985984890099096e-15
-9.888804112245457980e-15
-1.094534730284821854e-14
-1.185584290654139561e-14
-1.249840062878739576e-14
-1.273491864765709190e-14
-1.244663129103976189e-14
-1.149357770420730416e-14
-1.003639063976050228e-14
-8.313924029117914743e-15
-6.808317999201777412e-15
-5.800995178999982599e-15
-4.984120878421512264e-15
-3.775461859118744234e-15
-2.622033336509117655e-15
-2.132217323939921471e-15
-1.441974467920590287e-15
-1.086836010618789253e-15
-7.352753640892208734e-16
-5.131427878325707247e-16
-3.593880120180730117e-16
-2.516833307018609576e-16
-1.770781353032756527e-16
-1.259715287403844509e-16
-9.134883511197295861e-17
-6.754963493588028840e-17
-5.087965629878333164e-17
-3.891993913406367207e-17
-3.004709340402610707e-17
-2.324382799220490613e-17
-1.788430487220229496e-17
