# bin_2_6
-4.679257576234325013e-14
-4.919910514024858086e-14
-5.002088444565437470e-14
-4.877545588667758047e-14
-4.496282677919393321e-14
-3.920481385466990731e-14
-3.246579808818736514e-14
-2.658654173504685084e-14
-2.261833109158641966e-14
-1.936943646431217964e-14
-1.471553156815781812e-14
-1.033679110992360068e-14
-8.372858698111861005e-15
-5.828689544056223122e-15
-4.418280514123971923e-15
-3.118895178473121789e-15
-2.278878132000350103e-15
-1.680483924974840985e-15
-1.254771850312301096e-15
-9.527327622781915394e-16
-7.357500952018594052e-16
-5.770611088065047762e-16
-4.568214602902831912e-16
-3.624452189973953348e-16
-2.861799193737391662e-16
-2.233312249162420510e-16
-1.712262111040272458e-16
-1.283360475315436412e-16
-9.370176252774303232e-17
-6.653553373369451179e-17
-4.597433269659216250e-17
