# bin_12_6
-9.304399634526547713e-18
-1.025482042147586907e-17
-1.105361468010788020e-17
-1.158487447941898569e-17
-1.172941145266584962e-17
-1.135904937941994428e-17
-1.038533050951918249e-17
-8.979701557741900494e-18
-7.398141428895755475e-18
-6.077006990275818464e-18
-5.210384015872787117e-18
-4.426315667243881626e-18
-3.268831756931949761e-18
-2.317474926014135531e-18
-1.885097298243566621e-18
-1.262538334088588549e-18
-9.636952742878348620e-19
-6.715192481830043996e-19
-4.741569653234744335e-19
-3.402791832235279124e-19
-2.457661341588990926e-19
-1.799169337939201189e-19
-1.338917573655319187e-19
-1.015795150062460747e-19
-7.826106655810192640e-20
-6.091807901226269376e-20
-4.760890441495149463e-20
-3.708368165249046658e-20
-2.859863091958716732e-20
-2.171066130722105753e-20
-1.615182842859038151e-20
