# bin_18_5
-8.144231176433726362e-47
-9.109547666081016540e-47
-9.998728207362705034e-47
-1.071892303384876956e-46
-1.115322763394737405e-46
-1.119853728518522709e-46
-1.070878414145069027e-46
-9.664052117910244151e-47
-8.244217243162938508e-47
-6.756363816100870220e-47
-5.593955585690205576e-47
-4.834921561909017054e-47
-4.016105165409740008e-47
-2.857936899930300831e-47
-2.110465482113741078e-47
-1.662316907408020363e-47
-1.115951501600132995e-47
-8.270638176588048820e-48
-5.837459161147455179e-48
-4.063095574034694182e-48
-2.851766496329113703e-48
-2.015805411378094787e-48
-1.445472180028918997e-48
-1.053507540818459588e-48
-7.832784217096364372e-49
-5.928261340274689460e-49
-4.552555938195429911e-49
-3.527354032240484748e-49
-2.737582502091439869e-49
-2.112894021638994418e-49
-1.611337898896819057e-49
