# bin_2_19
-3.248541296919406127e-78
-3.635500248131008072e-78
-3.992938978346742992e-78
-4.283981699438041024e-78
-4.462140113436894664e-78
-4.485516629477200361e-78
-4.296596077345010233e-78
-3.883831019294354887e-78
-3.318911103111833166e-78
-2.721392247226368264e-78
-2.250657736073552693e-78
-1.943923583914488464e-78
-1.620014007336955866e-78
-1.157436587645138271e-78
-8.497139451884639912e-79
-6.729646873226554029e-79
-4.501688583261431114e-79
-3.352973071096201674e-79
-2.358279724971762230e-79
-1.639819198514154449e-79
-1.150928588941665827e-79
-8.125794443992663827e-80
-5.817895743263574796e-80
-4.232656163799368128e-80
-3.141487205408411086e-80
-2.373982189323714442e-80
-1.820908837836365000e-80
-1.409891932739835897e-80
-1.094062823411382979e-80
-8.447197543572551981e-81
-6.447105325640662282e-81
