# bin_17_3
-1.400707652673775138e-84
-1.560836801258607869e-84
-1.705180828241960193e-84
-1.817221345505507085e-84
-1.876360238244276635e-84
-1.867062121238054552e-84
-1.762958808387714691e-84
-1.572148255219405368e-84
-1.324986918256833753e-84
-1.083420277223940928e-84
-9.061495607946521080e-85
-7.851460745653691969e-85
-6.338028882798908063e-85
-4.406940821855316728e-85
-3.404612383324828496e-85
-2.553459120234818784e-85
-1.783559905467890795e-85
-1.261644352418172232e-85
-9.126550891125697405e-86
-6.409615167674461823e-86
-4.514071771048039827e-86
-3.226864856377693883e-86
-2.340624319775294439e-86
-1.728312859811301611e-86
-1.300852601330505247e-86
-9.949161854615272552e-87
-7.698958868981206742e-87
-5.988351696643194465e-87
-4.647810284654218763e-87
-3.574907621516086753e-87
-2.709281490353288367e-87
