# bin_8_15
-2.482257611925916663e-24
-2.767961467700365111e-24
-3.026529355032320661e-24
-3.228839641004530873e-24
-3.338463172373792228e-24
-3.327389291878652531e-24
-3.148757166998948420e-24
-2.813710176903010081e-24
-2.376069266355461234e-24
-1.943362152148924963e-24
-1.622492629457381486e-24
-1.405824485700569724e-24
-1.141052429760851878e-24
-7.956811071142808317e-25
-6.101035496159841764e-25
-4.617901435276736682e-25
-3.199317810164548067e-25
-2.281897640537888446e-25
-1.645823354163868455e-25
-1.154001493687383170e-25
-8.117337410045317864e-26
-5.791201428923293979e-26
-4.192997217979253764e-26
-3.089660919376585400e-26
-2.321060864253420819e-26
-1.772384579754182855e-26
-1.370035496889426819e-26
-1.065139159483113938e-26
-8.268238693711894372e-27
-6.364054549980983168e-27
-4.828568494893434987e-27
