# bin_9_16
-2.610475444117180188e-23
-2.920900223379353829e-23
-3.207158317730322078e-23
-3.439454721013227744e-23
-3.580250512566578881e-23
-3.596286566716777134e-23
-3.440530020828707795e-23
-3.106085901298897230e-23
-2.650775760227696443e-23
-2.172886409033149632e-23
-1.799266249670221538e-23
-1.555723314150551550e-23
-1.293117532978062037e-23
-9.203494286588561022e-24
-6.795718812740360041e-24
-5.357993937769223239e-24
-3.594714580320767570e-24
-2.667276919845121997e-24
-1.882521643123667729e-24
-1.310488073031448066e-24
-9.199491711615906916e-25
-6.503007599850689657e-25
-4.663755758612168468e-25
-3.399577700867710254e-25
-2.527886391701669543e-25
-1.913467646979961245e-25
-1.469621954566535192e-25
-1.138846332307113520e-25
-8.840193624195028386e-26
-6.824412360455418611e-26
-5.205724223872484957e-26
