# bin_18_8
-5.067019481455448990e-39
-5.684693083089151826e-39
-6.262200549403901244e-39
-6.742977271386398363e-39
-7.055144798723372940e-39
-7.128185086459943598e-39
-6.877801423203626666e-39
-6.262493517484928300e-39
-5.391844355754555766e-39
-4.433990760552052766e-39
-3.652277889222458858e-39
-3.144032279918488036e-39
-2.654359961302693764e-39
-1.931391513852466812e-39
-1.384559161009581730e-39
-1.119010109669386127e-39
-7.407066569686591769e-40
-5.611046418278915463e-40
-3.893483863427680483e-40
-2.698226649096121909e-40
-1.894910533004692273e-40
-1.333031328123578438e-40
-9.488823520309090302e-41
-6.853651100237224139e-41
-5.050768053971825893e-41
-3.792445690559965124e-41
-2.894219951139575790e-41
-2.234247939829983734e-41
-1.732503520322713746e-41
-1.339623645954174185e-41
-1.025829277492734910e-41
