# bin_4_9
-2.325731264576784944e-19
-2.519747156434267111e-19
-2.658548375157324234e-19
-2.712622618358984720e-19
-2.657688201959256587e-19
-2.462177372998076570e-19
-2.157075306604876910e-19
-1.791128454204375831e-19
-1.465326417386550301e-19
-1.243807758532939075e-19
-1.070880307069457839e-19
-8.218902291067092620e-20
-5.716631879325139325e-20
-4.631155263708668372e-20
-3.228702532907419342e-20
-2.431213245856083352e-20
-1.686967122509505925e-20
-1.223304996911296087e-20
-8.882641566419473163e-21
-6.509799234087357791e-21
-4.839856549161043491e-21
-3.658299443673182417e-21
-2.815502963607329105e-21
-2.196325574035693700e-21
-1.726004273651508407e-21
-1.357379327547469703e-21
-1.060637874992058264e-21
-8.181812927744830874e-22
-6.196866878762430312e-22
-4.588244173703617956e-22
-3.310717229274069529e-22
