# bin_5_13
-7.088797824767514176e-34
-7.824279353162320905e-34
-8.448333519073240549e-34
-8.872960116949464699e-34
-9.004301027898578750e-34
-8.748920882945349755e-34
-8.026802283025658835e-34
-6.964783941738625585e-34
-5.748546346099446236e-34
-4.716504891977804721e-34
-4.036587436414209222e-34
-3.445321851387953967e-34
-2.567158038305951903e-34
-1.805608184760096369e-34
-1.473960214144497834e-34
-9.892279783497175961e-35
-7.561291994537675192e-35
-5.240039805460637785e-35
-3.701515218154494787e-35
-2.656500986693416061e-35
-1.917567791821334242e-35
-1.400904231344365960e-35
-1.039944245294987935e-35
-7.871703449118361226e-36
-6.053676854702117997e-36
-4.706629109644802702e-36
-3.676969530089609962e-36
-2.865310016879991147e-36
-2.212241104131429083e-36
-1.682351286330484927e-36
-1.254397930635656626e-36
