# bin_5_15
-2.115610993447987252e-46
-2.349243493025226059e-46
-2.555508584585090032e-46
-2.708897039613548262e-46
-2.778544642819755833e-46
-2.741397097646040179e-46
-2.560707147794942771e-46
-2.260627400458143137e-46
-1.888039833509051994e-46
-1.543363575847123889e-46
-1.302337196410181041e-46
-1.126477912380655806e-46
-8.828918515629505867e-47
-6.099549414869101133e-47
-4.868802249806878717e-47
-3.479689866979531792e-47
-2.541550228184195001e-47
-1.743832064584759095e-47
-1.261872284046662897e-47
-8.941657457225293845e-48
-6.362492349572165308e-48
-4.589224285377937991e-48
-3.357978388842320934e-48
-2.504276451335861462e-48
-1.901758454722422378e-48
-1.464913181107574432e-48
-1.138817216855893082e-48
-8.871916248599513538e-49
-6.876972384517455893e-49
-5.269308488559795751e-49
-3.970171346087742542e-49
