# bin_16_16
-3.432324958464924425e-08
-3.874338491366943442e-08
-4.299351649774161903e-08
-4.671465475086465856e-08
-4.943334763838016296e-08
-5.058782275980794174e-08
-4.974312324145557620e-08
-4.626253980545303031e-08
-4.067386467401316054e-08
-3.385577910073140264e-08
-2.769551697603556208e-08
-2.347515604192165592e-08
-2.027368277011315207e-08
-1.566146040184824071e-08
-1.081218153667250925e-08
-8.715107499749026925e-09
-6.054759988526266941e-09
-4.481239040570302971e-09
-3.016114493086979920e-09
-2.132897122418129281e-09
-1.485685557331787420e-09
-1.034220347051300963e-09
-7.240177889014831843e-10
-5.117884595107330208e-10
-3.683375898994039382e-10
-2.703377178747306902e-10
-2.022374201965709435e-10
-1.538959715437972334e-10
-1.184539876819479594e-10
-9.158026418823657341e-11
-7.058498161676933897e-11
