# bin_2_15
-2.909923314184193319e-82
-3.219848451712437640e-82
-3.487342332723551051e-82
-3.676701284101805172e-82
-3.747282277142143899e-82
-3.664432133889622954e-82
-3.386424602477076805e-82
-2.959492625261549002e-82
-2.453022271662998791e-82
-2.008338570645099977e-82
-1.709639541919149609e-82
-1.469861019045378144e-82
-1.117544152440805375e-82
-7.770887712351332182e-83
-6.321397008241401942e-83
-4.322823225893428881e-83
-3.270139070686113310e-83
-2.242074751591652615e-83
-1.595597407991387366e-83
-1.141437127634167064e-83
-8.210793802135401897e-84
-5.967981660784456641e-84
-4.403871978631083415e-84
-3.314038987872312143e-84
-2.536335348590240621e-84
-1.965192793532142230e-84
-1.532743027139801021e-84
-1.194633013966914158e-84
-9.240485054914274892e-85
-7.049785222886415698e-85
-5.279400631727300940e-85
