# bin_11_12
-1.982942381635878819e-08
-2.208847948890015069e-08
-2.412068465549325777e-08
-2.569161038569996718e-08
-2.650958242596296244e-08
-2.635593982575004832e-08
-2.485909941573637633e-08
-2.214579421007833466e-08
-1.864637092896936832e-08
-1.524549165836113228e-08
-1.276237280839204852e-08
-1.105738616285556547e-08
-8.900515969186308871e-09
-6.181946309427173746e-09
-4.793181100212861825e-09
-3.577916927950646136e-09
-2.510087438900919055e-09
-1.768820445736513465e-09
-1.280605760461341084e-09
-9.001220185613674710e-10
-6.344518529569065984e-10
-4.539653281528712764e-10
-3.295789834505769654e-10
-2.436086909868081234e-10
-1.835271819163117079e-10
-1.404709743371045992e-10
-1.087553064688336918e-10
-8.460765026364312101e-11
-6.566053532177526280e-11
-5.048461116699579323e-11
-3.823798923772568287e-11
