# bin_1_13
-1.261629235611932428e-79
-1.383393471905893419e-79
-1.481605741672349848e-79
-1.540076375173063117e-79
-1.544793298580375679e-79
-1.475369096772448436e-79
-1.329971918552302304e-79
-1.133363339157975158e-79
-9.285897097056699569e-80
-7.693226825581712133e-80
-6.649775488504558787e-80
-5.513291753767900767e-80
-3.923000072194173445e-80
-2.912587416206556929e-80
-2.293358413785669029e-80
-1.556465363818684674e-80
-1.159845529748674227e-80
-8.307430306159512655e-81
-5.893589767899980611e-81
-4.233114587707471781e-81
-3.078267332448289218e-81
-2.278286445388925800e-81
-1.716396768903031947e-81
-1.316317552977876522e-81
-1.022672308498386209e-81
-8.002726612963498571e-82
-6.264826955330359808e-82
-4.871149696158864036e-82
-3.738551252951749755e-82
-2.817454482551790868e-82
-2.076392492617505737e-82
