# bin_20_9
-3.164923261728460269e-42
-3.566319415773364534e-42
-3.949374397034692141e-42
-4.280310709890125142e-42
-4.515129079625054450e-42
-4.603603560201638672e-42
-4.503197778564216953e-42
-4.162092384048632109e-42
-3.637650167194485124e-42
-3.015122912295163234e-42
-2.469286824965878028e-42
-2.103674312082887344e-42
-1.809232809824610637e-42
-1.373021105172008360e-42
-9.527339861426515647e-43
-7.749720694231442480e-43
-5.247723522331851494e-43
-3.955544467138412891e-43
-2.673118712603835377e-43
-1.866599658505698382e-43
-1.307635117313197434e-43
-9.160163628277958113e-44
-6.443681802498797193e-44
-4.582335371273025943e-44
-3.321501646579772290e-44
-2.455101800748440870e-44
-1.848533382925269414e-44
-1.413673369925211594e-44
-1.091316938899034819e-44
-8.443340306376946396e-45
-6.498596720554913096e-45
