# bin_13_19
-3.702347113800683403e-17
-4.180913885877099160e-17
-4.641927434186956681e-17
-5.046855715296264466e-17
-5.344733522092183745e-17
-5.474603686931394687e-17
-5.390069643357562634e-17
-5.020703996241931664e-17
-4.420571401695755255e-17
-3.683695538632279074e-17
-3.012784861076306862e-17
-2.550354943393231334e-17
-2.204307913572628175e-17
-1.710440732898670687e-17
-1.179897243528881752e-17
-9.483184400669153531e-18
-6.634510602271603098e-18
-4.883196633026839069e-18
-3.287635811886410739e-18
-2.332203128094484102e-18
-1.621994664856956728e-18
-1.126976229174888016e-18
-7.880049073880229797e-19
-5.562061477478217377e-19
-3.995868538266503060e-19
-2.927410520656456363e-19
-2.186282449312281452e-19
-1.661466057050692767e-19
-1.277764829203415524e-19
-9.876133710757209479e-20
-7.614122151231645904e-20
