# bin_16_17
-1.932357333177424683e-08
-2.183667173986622621e-08
-2.426506107576629194e-08
-2.640924239893952099e-08
-2.800419505874890468e-08
-2.872932654151863204e-08
-2.834553993669910708e-08
-2.647180473121427850e-08
-2.336369047628204076e-08
-1.950777850479583661e-08
-1.595092334846213517e-08
-1.347300927835374606e-08
-1.165692461630785639e-08
-9.113613473205754465e-09
-6.283100894005359880e-09
-5.020590933508640978e-09
-3.555523749097570868e-09
-2.589721070432287521e-09
-1.748552917155383472e-09
-1.245842038940007440e-09
-8.642942165693906269e-10
-5.985158103490981000e-10
-4.176386676158133780e-10
-2.940771754092996800e-10
-2.106280462333954434e-10
-1.538305070141941500e-10
-1.145511163575251086e-10
-8.684791084213021995e-11
-6.668909210253823656e-11
-5.151624595737817279e-11
-3.973203715101046208e-11
