# bin_15_7
-2.409140115922446509e-30
-2.682577002074732561e-30
-2.928010369605746854e-30
-3.116880116234243442e-30
-3.213721213656642406e-30
-3.192189479511660191e-30
-3.007267407682489956e-30
-2.676005912606601843e-30
-2.250709135331936586e-30
-1.839978040062340014e-30
-1.541812678035627088e-30
-1.335799684720473882e-30
-1.071914524152953298e-30
-7.434153552199362809e-31
-5.788032077193489736e-31
-4.298169363319969634e-31
-3.029577327775239065e-31
-2.125261932747455243e-31
-1.540869815992694589e-31
-1.084061585547111897e-31
-7.646965578562889543e-32
-5.477621499053693541e-32
-3.980801394338127315e-32
-2.945817573644677600e-32
-2.221627210151736473e-32
-1.701898771011256781e-32
-1.318419308603926800e-32
-1.025934310959927952e-32
-7.961144075514367825e-33
-6.118723669400372681e-33
-4.631516884659764871e-33
