# bin_1_8
-1.826509275375740033e-36
-1.943036322629768531e-36
-2.003151694750798355e-36
-1.990256128692468360e-36
-1.876879597397333609e-36
-1.672129421361564010e-36
-1.408477298445658579e-36
-1.151448508748367655e-36
-9.625132118528290489e-37
-8.327086840255676230e-37
-6.718320255774599738e-37
-4.701782946009688310e-37
-3.637869410197944178e-37
-2.747526074578801648e-37
-1.947370807773823677e-37
-1.408377150783019334e-37
-1.036865102578941104e-37
-7.524557201370551039e-38
-5.527186715183519428e-38
-4.138394868304732027e-38
-3.155644508164581921e-38
-2.447363452726709569e-38
-1.923032720657924129e-38
-1.520771590330428514e-38
-1.202025410579842072e-38
-9.429483515751458098e-39
-7.293605652336598727e-39
-5.532198830976187813e-39
-4.096976109048016567e-39
-2.953442003073585112e-39
-2.070992487469614547e-39
