# bin_2_17
-2.884080761670507355e-99
-3.211524666101154284e-99
-3.505488534507745745e-99
-3.731790278916881532e-99
-3.847979901980669896e-99
-3.822486442577956407e-99
-3.601422469577528354e-99
-3.205024661217158202e-99
-2.695913955775406325e-99
-2.203971250557990120e-99
-1.846663091668492509e-99
-1.599907718075836568e-99
-1.284178714137586960e-99
-8.907789074341679046e-100
-6.932695495221397578e-100
-5.150466997126149273e-100
-3.628905052602605616e-100
-2.546829954057066981e-100
-1.846154134534660753e-100
-1.298741233144105452e-100
-9.160896062015423499e-101
-6.561418664817309008e-101
-4.768015432176239132e-101
-3.528007467082803750e-101
-2.660449675174560822e-101
-2.037908187942978595e-101
-1.578634343787952197e-101
-1.228393051858215482e-101
-9.532254045224726149e-102
-7.326467475195528071e-102
-5.545999891324370855e-102
