# bin_7_8
-2.262622766276332821e-08
-2.468141364378213110e-08
-2.626301521503095024e-08
-2.707449279594214609e-08
-2.689224752364339412e-08
-2.534214430593051529e-08
-2.255923635568106861e-08
-1.898455830693634031e-08
-1.551947930111882840e-08
-1.299056946781814824e-08
-1.124638116046306066e-08
-9.044001691850530908e-09
-6.300334397706828750e-09
-4.893461072328791962e-09
-3.663101833361956879e-09
-2.592471700970044596e-09
-1.848085869714215490e-09
-1.351630474906212361e-09
-9.676885058515889074e-10
-6.984638445613122592e-10
-5.131475518559099603e-10
-3.835073622861151222e-10
-2.918369750926473458e-10
-2.256722315081972113e-10
-1.763612163790340895e-10
-1.384234186515489404e-10
-1.083489727141269759e-10
-8.399632202603360059e-11
-6.411600240165162120e-11
-4.795791222817926953e-11
-3.502011246361833740e-11
