# bin_17_17
-3.343203544904901038e-08
-3.781885934237924791e-08
-4.207708529017172045e-08
-4.586550488351252145e-08
-4.872838751419524062e-08
-5.010667034015064456e-08
-4.958998933886934363e-08
-4.648985777931651328e-08
-4.117750297991551567e-08
-3.448667244095161225e-08
-2.819438772484673912e-08
-2.373856275188111171e-08
-2.056079086589540204e-08
-1.625301368404190201e-08
-1.121029444898551875e-08
-8.867643012299814149e-09
-6.395016665916262629e-09
-4.581761813275956279e-09
-3.118156447895677771e-09
-2.230959955342359119e-09
-1.542559760882905353e-09
-1.063132634588555484e-09
-7.395012839326558888e-10
-5.188600043918476388e-10
-3.699196064544318249e-10
-2.688894352659786384e-10
-1.993253852610060274e-10
-1.505524027859803652e-10
-1.153136267777664840e-10
-8.898139871521805102e-11
-6.865280342463465315e-11
