# bin_2_6
-2.252283163158197150e-16
-2.368402251231286915e-16
-2.408056436010247103e-16
-2.348063514117514218e-16
-2.163938676264604879e-16
-1.886411175805796423e-16
-1.561522821910096831e-16
-1.278788570351282404e-16
-1.088932672820865267e-16
-9.332304760986236503e-17
-7.077584392514983496e-17
-4.964919356115434792e-17
-4.038184173936441200e-17
-2.795398419287719333e-17
-2.130569853123976137e-17
-1.501301110235852753e-17
-1.095391240991946093e-17
-8.087598234612759311e-18
-6.045497626919049481e-18
-4.592499950469911315e-18
-3.548028463121188583e-18
-2.784006339626698303e-18
-2.204730557505928176e-18
-1.749765559905199287e-18
-1.381883957608227777e-18
-1.078550684723369354e-18
-8.269610809539804564e-19
-6.197917821894008185e-19
-4.524649827754335471e-19
-3.212164049126580855e-19
-2.218959589016593859e-19
