# bin_8_16
-7.233876388160931975e-29
-8.083728745699420347e-29
-8.862040449926571385e-29
-9.485373680408025718e-29
-9.848830375710479327e-29
-9.864541782946819616e-29
-9.398689168785465804e-29
-8.452005272959493118e-29
-7.183678247653862283e-29
-5.882349241728774734e-29
-4.885064416458832645e-29
-4.229119255892289418e-29
-3.485963865100588416e-29
-2.459509298274427553e-29
-1.841935407857158615e-29
-1.431465074167503566e-29
-9.704542509492091947e-30
-7.101900027614490268e-30
-5.056294714580399395e-30
-3.528908365018702213e-30
-2.477779208118717550e-30
-1.757236178173749505e-30
-1.264871033588367712e-30
-9.258990355656262130e-31
-6.912733189058409036e-31
-5.250996820702893040e-31
-4.043702424628530818e-31
-3.138086635264902118e-31
-2.436345963209871664e-31
-1.878919573823623127e-31
-1.430445178069651657e-31
