# bin_11_7
-4.518977638097453382e-14
-4.978146610107622856e-14
-5.362307443882689269e-14
-5.614842376544074751e-14
-5.678855826092930444e-14
-5.489773777283643471e-14
-5.009367489317058073e-14
-4.322741886082982808e-14
-3.558225759047646934e-14
-2.926303128210742920e-14
-2.513566417423474450e-14
-2.129700598345612353e-14
-1.563155828086627246e-14
-1.114335112835032433e-14
-9.055740495462394580e-15
-6.048888804196742169e-15
-4.620312569888953492e-15
-3.233323867774590987e-15
-2.281813132474668220e-15
-1.638311792962388911e-15
-1.184093150412067315e-15
-8.683401686418588001e-16
-6.475084701978708915e-16
-4.921590515230796516e-16
-3.797534050325628826e-16
-2.959126562608683588e-16
-2.313831834940314918e-16
-1.802278088080529121e-16
-1.389241399697787302e-16
-1.053738091261587000e-16
-7.830077868837935618e-17
