# bin_20_7
-2.308582574914487017e-59
-2.597391205357529027e-59
-2.871135461611128032e-59
-3.104746667862188218e-59
-3.265907861824749928e-59
-3.319402769720029564e-59
-3.231862032983684568e-59
-2.971186990845179120e-59
-2.583172534311122388e-59
-2.134408245412686158e-59
-1.750584415331277414e-59
-1.497316622466796790e-59
-1.281077135566737795e-59
-9.577945242891156986e-60
-6.697603178657187256e-60
-5.466228123512670735e-60
-3.644746923409173479e-60
-2.769950967984771799e-60
-1.887837085911237936e-60
-1.309461014156444885e-60
-9.195434371013349105e-61
-6.457186813439366072e-61
-4.561040774233668038e-61
-3.260992630213679241e-61
-2.377875537763063798e-61
-1.767807719813348541e-61
-1.337846892739468111e-61
-1.026930218252296386e-61
-7.943252739124581133e-62
-6.146333222672572077e-62
-4.723278466017690764e-62
