# bin_8_13
-1.089050138753747376e-16
-1.208797584180831483e-16
-1.314237149221845617e-16
-1.392207186525305563e-16
-1.426870737043232690e-16
-1.406292386156228878e-16
-1.311872862284565916e-16
-1.156722285880116850e-16
-9.650928052188979877e-17
-7.889792767031160691e-17
-6.664950993548424127e-17
-5.762273550900170219e-17
-4.499317818951047448e-17
-3.108802609057385615e-17
-2.489384740458095330e-17
-1.768592514438118796e-17
-1.298626738503246522e-17
-8.894032901996460056e-18
-6.425915962755948921e-18
-4.558970482235876936e-18
-3.248920761967516036e-18
-2.345728356160158835e-18
-1.718160300851819941e-18
-1.282823910044477725e-18
-9.751653295160254567e-19
-7.517512292452969708e-19
-5.846817542968920410e-19
-4.555462367486162492e-19
-3.530354199711880483e-19
-2.703688089274616145e-19
-2.035612341378444984e-19
