# bin_7_4
-3.809566845223286107e-12
-4.084543961051221578e-12
-4.253322223219803891e-12
-4.275994539592088032e-12
-4.098838849138380799e-12
-3.709138481617547908e-12
-3.173898242762909817e-12
-2.604198257941467378e-12
-2.151285725789405127e-12
-1.854332127987186533e-12
-1.549102935980780834e-12
-1.116811208681887225e-12
-8.184761628973447377e-13
-6.532326694040232560e-13
-4.440834696592436997e-13
-3.360137799446158556e-13
-2.411253357526308755e-13
-1.732806828118628883e-13
-1.266864442756208538e-13
-9.387211123383093120e-14
-7.083621377986070714e-14
-5.438754307884904215e-14
-4.241563091794627474e-14
-3.339316521875610984e-14
-2.636200507354963849e-14
-2.072339687919823296e-14
-1.611060479755781468e-14
-1.231412317626622118e-14
-9.209287425767273603e-15
-6.713917628762810981e-15
-4.763000356144026816e-15
