# bin_5_18
-5.234807557247602065e-67
-5.857082624848054581e-67
-6.430797889454428782e-67
-6.896186528983896110e-67
-7.177952788056422755e-67
-7.209494166665072012e-67
-6.896418128338921084e-67
-6.225323077600252264e-67
-5.312139503493115905e-67
-4.354313060753195279e-67
-3.605905829948010465e-67
-3.117942408618943427e-67
-2.591008966253038098e-67
-1.843623719798710263e-67
-1.361861421551929832e-67
-1.073296265968375341e-67
-7.202951436169979946e-68
-5.342474980887205603e-68
-3.771592005670838755e-68
-2.625730685335423311e-68
-1.843244666545888405e-68
-1.303091005683844387e-68
-9.346382157493622871e-69
-6.813763934726792031e-69
-5.067247520842590877e-69
-3.836027339321481302e-69
-2.946464295563788413e-69
-2.283389441867201692e-69
-1.772472530283914137e-69
-1.368265932666539091e-69
-1.043665606846688948e-69
