# bin_15_4
-1.125480561646159301e-56
-1.248169074734610506e-56
-1.355622256832522817e-56
-1.434178952026767823e-56
-1.467605210038842560e-56
-1.443363417970474967e-56
-1.342957804396263858e-56
-1.181263941332679747e-56
-9.836601410418703679e-57
-8.043791169318367786e-57
-6.809782368136177358e-57
-5.880699809619746138e-57
-4.557855024962616726e-57
-3.152021359763674468e-57
-2.537884177659323561e-57
-1.782489503041394308e-57
-1.321637461026750537e-57
-9.034602275691660919e-58
-6.502191262249572504e-58
-4.624471477349880504e-58
-3.305374982565479793e-58
-2.390977595433555876e-58
-1.754850229159279872e-58
-1.313127904469475317e-58
-1.000132282794640526e-58
-7.721382501998020438e-59
-6.010531548206638100e-59
-4.683808485594222035e-59
-3.628115081154710025e-59
-2.775732253764659529e-59
-2.086812339609831077e-59
