# bin_15_3
-1.356119565743792221e-68
-1.502158968646405778e-68
-1.629091084146509092e-68
-1.720360091929003368e-68
-1.756694864317371331e-68
-1.722511010426883178e-68
-1.596915119060436488e-68
-1.399874023422821009e-68
-1.162736410529557288e-68
-9.513388023417408879e-69
-8.077938136559209664e-69
-6.961375359751934097e-69
-5.340426983870309680e-69
-3.701832021806632140e-69
-2.999112862564649560e-69
-2.075039968998306355e-69
-1.556815668204979650e-69
-1.064579228072485664e-69
-7.614843912725393998e-70
-5.433885480903545466e-70
-3.898493935399513689e-70
-2.827226293138868482e-70
-2.080912129234599459e-70
-1.561818889612830159e-70
-1.192636050450692872e-70
-9.225537741390739818e-71
-7.189176592269848949e-71
-5.603072019924822357e-71
-4.337043472997884053e-71
-3.313268614947979185e-71
-2.485826247430850806e-71
