# bin_1_16
-9.251467419121556790e-107
-1.026324675436746867e-106
-1.115117267109912700e-106
-1.180313209151570446e-106
-1.208526685584368493e-106
-1.189515418816431693e-106
-1.107851081315904791e-106
-9.753546999893388072e-107
-8.127876938861391894e-107
-6.645794047111794573e-107
-5.621660891398717932e-107
-4.856820230642017617e-107
-3.774847320789012820e-107
-2.609616178400812912e-107
-2.096855430398972412e-107
-1.479118465606609734e-107
-1.092694314308784440e-107
-7.474530549312688008e-108
-5.387397569137755094e-108
-3.828034699393399837e-108
-2.733067168514890783e-108
-1.975593383235676116e-108
-1.448875117975277046e-108
-1.083267256433902006e-108
-8.244627176445333597e-109
-6.361626830610835186e-109
-4.950474791533247654e-109
-3.857502122888955470e-109
-2.988581498928962237e-109
-2.287324818432462445e-109
-1.720567122668777983e-109
