# bin_7_3
-1.267356791065437814e-09
-1.303422166514638488e-09
-1.290840610008657985e-09
-1.213925007784523977e-09
-1.079176831106245018e-09
-9.087510333488178875e-10
-7.443139746387347742e-10
-6.231379456614060980e-10
-5.363396016848810955e-10
-4.298076366028860324e-10
-3.049820046921588968e-10
-2.351411208991244416e-10
-1.770418994702237513e-10
-1.269652390065965070e-10
-9.298621259359416930e-11
-6.834380481260965031e-11
-5.028221043907269321e-11
-3.758938318149628206e-11
-2.861937591356805500e-11
-2.218462204346332356e-11
-1.745977830141808643e-11
-1.387749889950800561e-11
-1.105838029574139042e-11
-8.770753065419143519e-12
-6.876438608097453305e-12
-5.296481991398557158e-12
-3.987687947178998641e-12
-2.924571369484321218e-12
-2.085810575886658760e-12
-1.447671194344552537e-12
-9.799851622078410415e-13
