# bin_2_19
-1.829900176013689751e-83
-2.047880992186652290e-83
-2.249091340342602379e-83
-2.412676489642654035e-83
-2.512341660465287253e-83
-2.524631306941427526e-83
-2.416781308886126681e-83
-2.183274821208947503e-83
-1.864505372975176695e-83
-1.528815774520416535e-83
-1.265490495641345711e-83
-1.093727036901345878e-83
-9.100981348882058516e-84
-6.489937961512516197e-84
-4.780929729264254669e-84
-3.776055824765656935e-84
-2.531498003523268637e-84
-1.880894041824977600e-84
-1.325754086578768572e-84
-9.226050274558753613e-85
-6.477225433309090883e-85
-4.577266715215988120e-85
-3.280823880937868776e-85
-2.389830047320212740e-85
-1.775837141412601650e-85
-1.343383894865491832e-85
-1.031266686810463029e-85
-7.989110692887972356e-86
-6.200851976665298768e-86
-4.787372108487086642e-86
-3.652825700398729549e-86
