# bin_19_17
-6.712592138900191926e-11
-7.587536976281198553e-11
-8.434024097975476084e-11
-9.182929120209955147e-11
-9.742372061022553600e-11
-1.000104399738355608e-10
-9.875365788600149637e-11
-9.232307327517020715e-11
-8.156440522333667537e-11
-6.816908919432261984e-11
-5.574550142722561822e-11
-4.704367386378392388e-11
-4.070142553739877864e-11
-3.192128701786374512e-11
-2.203145960970283150e-11
-1.753376838888926215e-11
-1.248693215387407457e-11
-9.043668984242083521e-12
-6.136050066189562308e-12
-4.370626562563694888e-12
-3.029592332123775510e-12
-2.095244067387663008e-12
-1.460556685820076243e-12
-1.027394747350487833e-12
-7.348586230867234428e-13
-5.359448220016495035e-13
-3.985515462311926040e-13
-3.018094777306951139e-13
-2.315572467483385754e-13
-1.787932561025917348e-13
-1.378894856269293615e-13
