# bin_4_5
-1.127591808277021194e-11
-1.188173373831580833e-11
-1.211073305074084907e-11
-1.184985123025205601e-11
-1.096845355523504617e-11
-9.601651560768070478e-12
-7.975239001424564232e-12
-6.529226063305632908e-12
-5.538926633727159539e-12
-4.754893631446514792e-12
-3.652394292690650838e-12
-2.560305505398656720e-12
-2.060544057342184301e-12
-1.455358450302342475e-12
-1.090992002602750578e-12
-7.709588111421736336e-13
-5.653119971604475722e-13
-4.157040485176417554e-13
-3.094855811970039465e-13
-2.344555754799137557e-13
-1.806780567015233656e-13
-1.414537578661386201e-13
-1.118542118559319454e-13
-8.871235841032762777e-14
-7.007226015802433415e-14
-5.474424660423408892e-14
-4.204521940276941039e-14
-3.158544453482353647e-14
-2.312333064994417238e-14
-1.646576731147920711e-14
-1.140862248028242871e-14
