# bin_17_19
-7.299583917320386052e-13
-8.266782616088643252e-13
-9.210437273205724206e-13
-1.005692601638795059e-12
-1.070754996215075078e-12
-1.103990963941169129e-12
-1.096313586822275386e-12
-1.032247913155088852e-12
-9.180246855915214993e-13
-7.717018755489961026e-13
-6.310248610532055234e-13
-5.294069132018074137e-13
-4.587823565783759984e-13
-3.670403914229827550e-13
-2.539702651769718678e-13
-1.981459052940969812e-13
-1.458144097534671467e-13
-1.025318558493581117e-13
-7.079805707804678182e-14
-5.063233361689032988e-14
-3.489305008035879608e-14
-2.394691596913008182e-14
-1.659141106440834737e-14
-1.159349130958546970e-14
-8.221405484066923131e-15
-5.942668733488679981e-15
-4.381203534536413693e-15
-3.293605195432016486e-15
-2.514233451608719314e-15
-1.936838925492346165e-15
-1.494426715158036951e-15
