# bin_11_20
-1.608124305928708635e-27
-1.814726215534392667e-27
-2.013152231418617495e-27
-2.186528779982365916e-27
-2.312647117527310171e-27
-2.365316137264290020e-27
-2.323954762967369061e-27
-2.159287853525580643e-27
-1.896726588101587482e-27
-1.577787988848870806e-27
-1.290933295578554725e-27
-1.095060396538429236e-27
-9.450984528183930731e-28
-7.281526211620947362e-28
-5.031114879921399388e-28
-4.060453790864445052e-28
-2.810272815171635154e-28
-2.085369386110761604e-28
-1.404793170161210154e-28
-9.913986346331085031e-29
-6.911809169560429193e-29
-4.816039389669155622e-29
-3.373959336718294632e-29
-2.387138127849683607e-29
-1.719897979061268804e-29
-1.263666931912200593e-29
-9.462744079609629745e-30
-7.206316281481829725e-30
-5.549202891407955688e-30
-4.290688647998758825e-30
-3.306275962824463838e-30
