# bin_3_11
-2.645356468754558997e-33
-2.883371938573420709e-33
-3.065142028055789005e-33
-3.156022913391744499e-33
-3.129949778700136676e-33
-2.943755907659819186e-33
-2.615725338061592847e-33
-2.197636294840222089e-33
-1.796401520858958158e-33
-1.506066250547680729e-33
-1.303477269526376396e-33
-1.042840869155254948e-33
-7.255577521817842976e-34
-5.668236447798298989e-34
-4.208580217563785407e-34
-3.000696297366460092e-34
-2.127832699885525051e-34
-1.557105673664565831e-34
-1.116488948066356099e-34
-8.071064538212654772e-35
-5.938139201686595235e-35
-4.443674120637266893e-35
-3.385974264596588541e-35
-2.621052787448610348e-35
-2.049748620727528058e-35
-1.609268223195022804e-35
-1.259441476304232622e-35
-9.758503720638833553e-36
-7.442436620800082602e-36
-5.560512939947098045e-36
-4.054957111057079592e-36
