# bin_4_8
-1.143213279653939300e-17
-1.230914989464479162e-17
-1.288658168095020042e-17
-1.303385551168899480e-17
-1.260565276467505484e-17
-1.151221592654856886e-17
-9.943738072527557735e-18
-8.190936273798974877e-18
-6.733151403726031067e-18
-5.773716100765017760e-18
-4.894463447287405023e-18
-3.613320073794041264e-18
-2.578379627426378813e-18
-2.091494166941876946e-18
-1.417599485707988699e-18
-1.083209090804386718e-18
-7.652252022498370450e-19
-5.494064258143788250e-19
-4.011632142704009913e-19
-2.960754597780700820e-19
-2.221037549586924592e-19
-1.694873063342738542e-19
-1.315295189777030906e-19
-1.032125770312523293e-19
-8.136429910061065645e-20
-6.399392881722751671e-20
-4.986474582949313334e-20
-3.826260141151130421e-20
-2.876484780125561407e-20
-2.110238261553965912e-20
-1.507182265316254580e-20
