# bin_12_17
-1.851738041289840469e-17
-2.082162498578128325e-17
-2.299968299844449882e-17
-2.484926822413226913e-17
-2.611042836140007724e-17
-2.650599139865619592e-17
-2.575940423704982064e-17
-2.363506495941938808e-17
-2.050776900955005730e-17
-1.692823315148427540e-17
-1.389539124871905251e-17
-1.190088732765635810e-17
-1.015589742580752756e-17
-7.551692148727875835e-18
-5.305027927813652848e-18
-4.324053838249013408e-18
-2.876805152109892543e-18
-2.186197054426861010e-18
-1.495516700578998627e-18
-1.036948913009286587e-18
-7.281914925424856305e-19
-5.114717162420093653e-19
-3.618446982134477486e-19
-2.592484904288211240e-19
-1.894583746526180036e-19
-1.411465976789587817e-19
-1.070090874125121302e-19
-8.224201321861101669e-20
-6.365036112319901390e-20
-4.924622200937226173e-20
-3.781754190135361021e-20
