# bin_5_4
-3.459654828715791811e-10
-3.616975089253732438e-10
-3.653748457725848562e-10
-3.529234099814266402e-10
-3.221434360609100952e-10
-2.781521530546920052e-10
-2.293307723623564494e-10
-1.887191901212048168e-10
-1.615466573589084233e-10
-1.364507903298281444e-10
-1.011632943547482620e-10
-7.272261241263982809e-11
-5.835950256046354206e-11
-4.041340042094046259e-11
-3.060081126137871373e-11
-2.187785661293657799e-11
-1.596347062999177165e-11
-1.180721350326691240e-11
-8.857854054228170234e-12
-6.764484581209024560e-12
-5.252912643270897021e-12
-4.137309309492755272e-12
-3.283168370427186343e-12
-2.606286861269690413e-12
-2.055158615800411775e-12
-1.598973406312685133e-12
-1.220440117594471968e-12
-9.096493749793613884e-13
-6.600405459753364699e-13
-4.657943057459653286e-13
-3.200421119467225214e-13
