# bin_1_4
-8.143136302684781102e-16
-8.282186182227268779e-16
-8.081492387101523345e-16
-7.461101923984140167e-16
-6.515939424167279253e-16
-5.407228927196966876e-16
-4.431251442372241618e-16
-3.762341562740892906e-16
-3.217930674624446877e-16
-2.461840677358482062e-16
-1.739307032572778678e-16
-1.395143178054060545e-16
-9.905473609009445554e-17
-7.433448092520858441e-17
-5.320606240142486549e-17
-3.933950726316839888e-17
-2.927118705279817428e-17
-2.210695792902025867e-17
-1.701333087665617146e-17
-1.331450611032452996e-17
-1.056090887922144881e-17
-8.432453714881492775e-18
-6.727460418913183083e-18
-5.324446712511979182e-18
-4.152585542189574578e-18
-3.173144766480562909e-18
-2.365008096876249584e-18
-1.714813793125498952e-18
-1.208903999625904236e-18
-8.299902357868049097e-19
-5.565719770520618660e-19
