# bin_13_17
-1.528909475647555529e-15
-1.720987385942011804e-15
-1.903429026530168512e-15
-2.059721305051331210e-15
-2.168506050803084984e-15
-2.206189565644898268e-15
-2.151115920828029507e-15
-1.980943235389587250e-15
-1.725114171106602423e-15
-1.426892448666896020e-15
-1.169811514061893213e-15
-9.992745476978519697e-16
-8.562589617155653180e-16
-6.432760301214749132e-16
-4.488605764892514107e-16
-3.657596191531958519e-16
-2.452712124855162854e-16
-1.857878628350480091e-16
-1.262982119258398201e-16
-8.783094546296889863e-17
-6.161865785634613254e-17
-4.322955624267087985e-17
-3.049559623588233610e-17
-2.176686170293444362e-17
-1.584240380837777529e-17
-1.175654195965050436e-17
-8.882922859889169964e-18
-6.810526689874104683e-18
-5.264557213019440452e-18
-4.073342999029827740e-18
-3.131683318588277303e-18
