# bin_15_16
-4.789921300614763412e-12
-5.393455729775924245e-12
-5.967554474520220008e-12
-6.460675687707445252e-12
-6.806005607470147630e-12
-6.929024699639771508e-12
-6.762874892941701600e-12
-6.235114470405083423e-12
-5.436095839627741837e-12
-4.499531297352953233e-12
-3.687739367734300195e-12
-3.147346511004356801e-12
-2.699794832110305715e-12
-2.034967279862991796e-12
-1.417713545373310095e-12
-1.154188796863769614e-12
-7.768265036718596181e-13
-5.871819846391939980e-13
-3.985006393836318537e-13
-2.775838302507492653e-13
-1.946178020498185600e-13
-1.364473478573518976e-13
-9.616721541723216633e-14
-6.856097445900607773e-14
-4.983474858649997496e-14
-3.693495953534560729e-14
-2.787562288662928986e-14
-2.135452086566263171e-14
-1.649969085766678407e-14
-1.276569479830947985e-14
-9.817736704282208227e-15
