# bin_19_14
-2.045572575715353541e-10
-2.296166789957152368e-10
-2.531083018662172694e-10
-2.727611086544561920e-10
-2.856800287756773807e-10
-2.889652399554019146e-10
-2.793131365939813280e-10
-2.548326483341848617e-10
-2.198508435741638193e-10
-1.809987815251482095e-10
-1.489756905886846855e-10
-1.280511668624817610e-10
-1.083700681762231104e-10
-7.934422492816891213e-11
-5.661166774092691471e-11
-4.577528281165891687e-11
-3.041207776922773631e-11
-2.301089156493878735e-11
-1.590667981525773345e-11
-1.103186225918968287e-11
-7.746754456572768694e-12
-5.449296091632132260e-12
-3.872742729158149973e-12
-2.791218683722705527e-12
-2.052336075927439783e-12
-1.537751996811956789e-12
-1.171410420040988005e-12
-9.031388007410069526e-13
-6.998772800870331204e-13
-5.411789152587321617e-13
-4.146689140037669133e-13
