# bin_1_16
-2.202593341644802914e-77
-2.442460639731304302e-77
-2.652417534751350589e-77
-2.805720979550575784e-77
-2.870703035348717588e-77
-2.822628305885945580e-77
-2.625656558825641051e-77
-2.308997136313262312e-77
-1.922624451533208631e-77
-1.572424998382271344e-77
-1.331406760581672525e-77
-1.149285102554363304e-77
-8.902886456281717970e-78
-6.161849275209342186e-78
-4.958660585934795740e-78
-3.482099951973179653e-78
-2.580673999417365339e-78
-1.767274450143483252e-78
-1.270889936375705331e-78
-9.039683933489143301e-79
-6.461199450829504104e-79
-4.674280610996703740e-79
-3.431296331734924474e-79
-2.567978290843245095e-79
-1.956111488452268554e-79
-1.510297613350178870e-79
-1.175668513841256406e-79
-9.161165470135416600e-80
-7.095638144933105032e-80
-5.427896167615014617e-80
-4.080081551456377525e-80
