# bin_10_15
-4.972504520321150559e-18
-5.558331049766312685e-18
-6.095712729007442359e-18
-6.527433739963094401e-18
-6.781526178941481553e-18
-6.796878236852658345e-18
-6.482262657506601838e-18
-5.834999730693716998e-18
-4.964527750833593305e-18
-4.066568471540228494e-18
-3.374925826490339013e-18
-2.920421227501002802e-18
-2.411813995824404622e-18
-1.705967952137327932e-18
-1.273065721351926269e-18
-9.926519558775066301e-19
-6.715494571879157177e-19
-4.929674407009010602e-19
-3.501627867578398321e-19
-2.442380238680898639e-19
-1.715014628282684188e-19
-1.215380959654484943e-19
-8.740123640803669820e-20
-6.390857502829723432e-20
-4.766355842778115761e-20
-3.617211127920668847e-20
-2.783540564385737925e-20
-2.159235878919082114e-20
-1.676210433592883382e-20
-1.292953394645521709e-20
-9.847820133392279075e-21
