# bin_12_19
-1.103519329740561108e-21
-1.244590719205099754e-21
-1.379747027145813430e-21
-1.497333138499703508e-21
-1.582069281880841825e-21
-1.616152757521180968e-21
-1.585202144536852329e-21
-1.469890129169092926e-21
-1.288673319806729136e-21
-1.070479543690600358e-21
-8.761587510964893491e-22
-7.444591458913506969e-22
-6.416890130963803227e-22
-4.915310979250934030e-22
-3.401262219363990898e-22
-2.753805669459195538e-22
-1.889779424605723825e-22
-1.411140084726636756e-22
-9.513537101867426652e-23
-6.687094253602890762e-23
-4.670796578112078768e-23
-3.261478472926362063e-23
-2.288479906928550129e-23
-1.622295181604577676e-23
-1.171562995421488209e-23
-8.627891030244383253e-24
-6.474610299516492839e-24
-4.938859655898558749e-24
-3.806932231514235093e-24
-2.944320854727642722e-24
-2.267820275785383204e-24
