# bin_10_13
-2.195522780953864692e-14
-2.443797373383651921e-14
-2.666162546481740724e-14
-2.836536589388641438e-14
-2.922682747563155546e-14
-2.900474582994229500e-14
-2.729487382623329116e-14
-2.426404506268947888e-14
-2.039132204340712873e-14
-1.667120227730628730e-14
-1.398178907984435825e-14
-1.210943653200306973e-14
-9.687338608762795132e-15
-6.719925647532920658e-15
-5.245853574422652408e-15
-3.876836931115030299e-15
-2.745327143890389536e-15
-1.922269532941470682e-15
-1.391683771093237636e-15
-9.799972122511929334e-16
-6.922699215228686833e-16
-4.962656144086953817e-16
-3.609460537143644398e-16
-2.673525335088557555e-16
-2.017950140031974611e-16
-1.546873951410609573e-16
-1.198791379394086094e-16
-9.329281753715980459e-17
-7.238045318719773512e-17
-5.560578241196336992e-17
-4.206447848161863066e-17
