# bin_12_2
-2.550774272039511892e-09
-2.559863238415868733e-09
-2.452032682000230054e-09
-2.221119705104641353e-09
-1.904474645863736260e-09
-1.568160351060496829e-09
-1.296970800301435747e-09
-1.110830468389498997e-09
-9.237849617100117219e-10
-6.789406555109839541e-10
-4.989172255470532245e-10
-3.922315629184919519e-10
-2.770368180201557215e-10
-2.076506520747352415e-10
-1.510074561234098501e-10
-1.115921266200604149e-10
-8.369398603540963526e-11
-6.385640998674945367e-11
-4.962385563193968108e-11
-3.916116715288732603e-11
-3.123439797006468010e-11
-2.499217948875606321e-11
-1.991330872148601252e-11
-1.568990187094752130e-11
-1.214770189079137418e-11
-9.194429718315524262e-12
-6.778724035310728706e-12
-4.860097561800223849e-12
-3.390307931684892769e-12
-2.306141963127231135e-12
-1.534498927533021472e-12
