# bin_17_12
-2.644846781706818692e-10
-2.949971385833153131e-10
-3.226505325864342338e-10
-3.443496166471575638e-10
-3.562311005783723961e-10
-3.552435522942167067e-10
-3.364857089187944554e-10
-3.009570644178570318e-10
-2.544355656278849838e-10
-2.081878996470325038e-10
-1.736952188387240965e-10
-1.504066194474192216e-10
-1.222734306669445714e-10
-8.557182567890986590e-11
-6.534106918109171176e-11
-4.961528627326555027e-11
-3.431563921981078879e-11
-2.458990343088498376e-11
-1.765616659807402055e-11
-1.237309054368177360e-11
-8.709737066458154070e-12
-6.208290817006674311e-12
-4.490522570358864073e-12
-3.305311845804973351e-12
-2.480458689364331173e-12
-1.892333268993523451e-12
-1.461661918268476628e-12
-1.135841561845418244e-12
-8.815594309731035182e-13
-6.786204206897395761e-13
-5.150809452094126695e-13
