# bin_3_9
-7.105371266749464739e-25
-7.665022040690619616e-25
-8.043809999895416938e-25
-8.157625915193689905e-25
-7.921147244923679471e-25
-7.264956646765370039e-25
-6.302138120803899819e-25
-5.202259513611441055e-25
-4.268601186239215581e-25
-3.650144798577754931e-25
-3.111805717058731470e-25
-2.323648371782854049e-25
-1.641471367209618644e-25
-1.335993527969204813e-25
-9.089542374174340112e-26
-6.945196159613971936e-26
-4.874132118854569763e-26
-3.503750560902074985e-26
-2.555964249893315508e-26
-1.883287502220804705e-26
-1.409016206905135556e-26
-1.072179361098411166e-26
-8.300894532648329542e-27
-6.503162992616151913e-27
-5.122483512278942622e-27
-4.029290361403453101e-27
-3.142628729465894347e-27
-2.415475814039471841e-27
-1.820076640502229428e-27
-1.338992338540190144e-27
-9.592788148369634792e-28
