# bin_2_14
-3.756555390446010075e-56
-4.139613985988625297e-56
-4.460881363756020850e-56
-4.673366141076430500e-56
-4.729336881940546656e-56
-4.575943984856098280e-56
-4.179665759338757160e-56
-3.610416762865825137e-56
-2.973570525127456589e-56
-2.444644126092086101e-56
-2.098292630109448510e-56
-1.779856617806243302e-56
-1.310245818726695853e-56
-9.322071667315255247e-57
-7.573923233895697744e-57
-5.070345497254439516e-57
-3.869099616440585991e-57
-2.702660829219950054e-57
-1.908486478934544632e-57
-1.370035884264865007e-57
-9.900403130675975896e-58
-7.255294233595690069e-58
-5.405648777709181059e-58
-4.105492964919298392e-58
-3.165795119461444337e-58
-2.465761935716138360e-58
-1.927663347284685491e-58
-1.501550319087166342e-58
-1.157737135237939831e-58
-8.785359264389488294e-59
-6.532145970857164799e-59
