# bin_11_9
-2.020241476853714182e-10
-2.221677943978536603e-10
-2.388027094983621263e-10
-2.493752194705851527e-10
-2.514511592970362655e-10
-2.420154298469080166e-10
-2.198912989894822270e-10
-1.889221733268141869e-10
-1.552813031860457040e-10
-1.280547292595033823e-10
-1.102142495526339553e-10
-9.263863199176009343e-11
-6.730695189523295770e-11
-4.869484409233268527e-11
-3.907314017762582160e-11
-2.630570664684246973e-11
-1.988527789612540186e-11
-1.402550345335010848e-11
-9.923674156682542797e-12
-7.125406428773639136e-12
-5.161556512489574290e-12
-3.797376570918014899e-12
-2.841823632791048768e-12
-2.166744558637993001e-12
-1.675855361476434511e-12
-1.307748964419853045e-12
-1.022917371728296656e-12
-7.962095090815601178e-13
-6.127542288036314211e-13
-4.636879668949595834e-13
-3.435410847200131644e-13
