# bin_15_15
-2.027037011672061138e-11
-2.278323169666790548e-11
-2.515378038768743244e-11
-2.715968939612390094e-11
-2.851583910914434039e-11
-2.892278093107354194e-11
-2.807144074237404686e-11
-2.572104171244499997e-11
-2.228680811015836654e-11
-1.838464595050444498e-11
-1.510039480679453262e-11
-1.294452394421629350e-11
-1.102505052520512268e-11
-8.167096197411973232e-12
-5.758071988715661723e-12
-4.685721946033556140e-12
-3.115208799628640056e-12
-2.365661376533463432e-12
-1.622371471193305861e-12
-1.124880443921746811e-12
-7.899262801637411301e-13
-5.549846077294530742e-13
-3.930549797436589429e-13
-2.820142783199334344e-13
-2.064032874448861770e-13
-1.539865537532205901e-13
-1.168818213505392131e-13
-8.990118434994345800e-14
-6.960164880577735959e-14
-5.384411882638887797e-14
-4.132666566397853780e-14
