# bin_8_14
-2.909843727088785826e-21
-3.236157459058155515e-21
-3.526954656749982389e-21
-3.747473488189151911e-21
-3.855018415668408981e-21
-3.817901926189858179e-21
-3.583342387809926981e-21
-3.177572037465759040e-21
-2.664331981825252662e-21
-2.177949531307107584e-21
-1.830571952648449161e-21
-1.584966856708005052e-21
-1.258985515459740250e-21
-8.714501690261416965e-22
-6.860339727868131234e-22
-5.010985372256046294e-22
-3.586858535406886914e-22
-2.490654305656658831e-22
-1.805225553799182977e-22
-1.273925924104144430e-22
-9.019276327387842124e-23
-6.480352226121808434e-23
-4.723565984961394090e-23
-3.507393764651335990e-23
-2.653241783760923387e-23
-2.037519221795880479e-23
-1.580894732693303402e-23
-1.230829606460546720e-23
-9.546663913107949604e-24
-7.327515184005733713e-24
-5.535284324534143680e-24
