# bin_12_18
-1.848374126293456563e-19
-2.081595336501150519e-19
-2.303596867176285445e-19
-2.494522311989383283e-19
-2.628607980250227120e-19
-2.676961709909672872e-19
-2.614011814324034121e-19
-2.411254040625214330e-19
-2.103331330524822487e-19
-1.741412459042539831e-19
-1.426959300884397785e-19
-1.217431628869212697e-19
-1.044968856922018707e-19
-7.887338333179068311e-20
-5.489141875455979855e-20
-4.469552345266573339e-20
-3.010540672098724824e-20
-2.275265455814638954e-20
-1.542649762369083202e-20
-1.074793769247957880e-20
-7.535222527882827379e-21
-5.282608750457528200e-21
-3.721672400328072581e-21
-2.651897821554473284e-21
-1.926477910470055522e-21
-1.427023137680188107e-21
-1.076493363926028748e-21
-8.243873561251803185e-22
-6.368651754609992922e-22
-4.927477168733748688e-22
-3.790266602044176745e-22
