# bin_17_2
-2.880647330796870514e-09
-2.891602220149717403e-09
-2.770702938457915539e-09
-2.510624943112197410e-09
-2.153403886038868400e-09
-1.773353918066558760e-09
-1.466420432466863353e-09
-1.255802870056251705e-09
-1.044913837039944318e-09
-7.684817329263254048e-10
-5.643084317114001098e-10
-4.438358969356916112e-10
-3.134803178960915123e-10
-2.349851048421023291e-10
-1.708431559794596200e-10
-1.262451253753380114e-10
-9.466947742969890847e-11
-7.221711867168764126e-11
-5.611123515922100027e-11
-4.427420059489747263e-11
-3.530912535591998257e-11
-2.825162378541345801e-11
-2.251098639883796869e-11
-1.773813207318142732e-11
-1.373536221968923856e-11
-1.039792119578492637e-11
-7.667537142297132004e-12
-5.498475079729571353e-12
-3.836370916245446209e-12
-2.610008981520318141e-12
-1.736941326681772918e-12
