# bin_10_9
-1.156199250335340693e-10
-1.270587885721776804e-10
-1.364531324158513816e-10
-1.423363749697359213e-10
-1.433411304469839098e-10
-1.377066737507408463e-10
-1.248791203009997242e-10
-1.070813100118857456e-10
-8.794220084765119916e-11
-7.259854080932601976e-11
-6.255112265350849309e-11
-5.241178321186905798e-11
-3.788877849028799526e-11
-2.756959059860818239e-11
-2.204063607986970782e-11
-1.485171156169244678e-11
-1.119920647342725731e-11
-7.927090668237637224e-12
-5.610364920337121043e-12
-4.029121289803526792e-12
-2.921148159676574558e-12
-2.152151055639847141e-12
-1.613176605565783156e-12
-1.231716718921175749e-12
-9.537186036047219430e-13
-7.447550230044578773e-13
-5.826766559899404391e-13
-4.534324848208745717e-13
-3.487333446126734271e-13
-2.636385514620095184e-13
-1.950804479441926049e-13
