# bin_3_15
-6.691980220077413719e-53
-7.409597678087799896e-53
-8.031674043231571140e-53
-8.476358608005657042e-53
-8.649344872101853793e-53
-8.472338146582696603e-53
-7.845467526422635277e-53
-6.869655449585781687e-53
-5.702126502180403324e-53
-4.666889309261804029e-53
-3.966118658134184031e-53
-3.414138205240156064e-53
-2.611049447926474993e-53
-1.812882605520741904e-53
-1.469789407101457814e-53
-1.013678367119241822e-53
-7.618552278302873528e-54
-5.220032462942580499e-54
-3.728152804663804056e-54
-2.662041119492310402e-54
-1.911028108245641745e-54
-1.387025376438258916e-54
-1.021873089227731253e-54
-7.676953122298161733e-55
-5.866979864334131554e-55
-4.540979204657344166e-55
-3.539654727891078041e-55
-2.758669669967091639e-55
-2.134718667272482912e-55
-1.629967582398535370e-55
-1.222050246756570323e-55
