# bin_18_9
-6.042911403329465041e-10
-6.651002862402240869e-10
-7.156410015790244379e-10
-7.483060575629967709e-10
-7.556565111390736309e-10
-7.288982486806799028e-10
-6.637848559991832814e-10
-5.716330686205566421e-10
-4.703292768753765898e-10
-3.874111004546267347e-10
-3.329862388500839172e-10
-2.808753592461989678e-10
-2.053216039493353848e-10
-1.475955674268361752e-10
-1.188560538265599750e-10
-8.002146154468188528e-11
-6.060980932789903240e-11
-4.257581930205166987e-11
-3.012556560992353347e-11
-2.162351991034446374e-11
-1.564765235289537369e-11
-1.149262696205357242e-11
-8.584211090874450244e-12
-6.533717742051971739e-12
-5.046610134462710445e-12
-3.934647783799169237e-12
-3.076723170718963147e-12
-2.395427480776382536e-12
-1.844859130920148786e-12
-1.397657623221374645e-12
-1.037053837631402066e-12
