# bin_15_8
-6.118354964690180910e-10
-6.692588120941285883e-10
-7.146153779962599715e-10
-7.399859432712134841e-10
-7.388889203146642265e-10
-7.014191608896855068e-10
-6.287786660703409234e-10
-5.329191832715497014e-10
-4.362973257381925824e-10
-3.631578935310066892e-10
-3.139900698920532092e-10
-2.567492524195138758e-10
-1.812496830035313880e-10
-1.371811011924583495e-10
-1.055806921136463420e-10
-7.306748815797944810e-11
-5.339395630904936428e-11
-3.855452818943773265e-11
-2.746590067894747018e-11
-1.977678527796068771e-11
-1.444837991922769158e-11
-1.073897542802939120e-11
-8.125727655702999366e-12
-6.254056454713385880e-12
-4.871141892058054023e-12
-3.816534768304255695e-12
-2.987244657832345383e-12
-2.319418990874842421e-12
-1.775677378213671261e-12
-1.333658125053337925e-12
-9.788531015757913722e-13
