# bin_1_13
-7.634419330685569669e-60
-8.366639184479159610e-60
-8.954495749197535739e-60
-9.299721793652264011e-60
-9.318727655010312412e-60
-8.887557273673696458e-60
-8.001463447413681058e-60
-6.809791806858854311e-60
-5.578141211492388829e-60
-4.626276577889026422e-60
-3.999504113429337476e-60
-3.305966367963187808e-60
-2.347206972024714776e-60
-1.750594100833177474e-60
-1.371427803711321413e-60
-9.346882594665750124e-61
-6.931948347486198917e-61
-4.977225628707652990e-61
-3.534266389083868302e-61
-2.539463792736832603e-61
-1.848712551116652977e-61
-1.369660921076282519e-61
-1.032935697952077970e-61
-7.928529184958913890e-62
-6.163654276941779823e-62
-4.824812120500615927e-62
-3.777021142600202700e-62
-2.935894473973713725e-62
-2.252000838686137521e-62
-1.695847030789831503e-62
-1.248616960466703804e-62
