# bin_20_11
-4.527783989644215393e-10
-5.031529643440279265e-10
-5.478325732848101390e-10
-5.813864148181918536e-10
-5.972266873348494545e-10
-5.903309016306089870e-10
-5.527877279632195613e-10
-4.891517663334779258e-10
-4.094807877317861501e-10
-3.348265066314678780e-10
-2.819457742627497303e-10
-2.438440767591251117e-10
-1.924561233483683216e-10
-1.333793162009430847e-10
-1.054558909080603644e-10
-7.630105376603713219e-11
-5.506362672782029233e-11
-3.819219130391440707e-11
-2.757751680398276275e-11
-1.949994962618871641e-11
-1.384242742503684886e-11
-9.961487644600610513e-12
-7.273606724187961347e-12
-5.411301122309588210e-12
-4.100414588159358789e-12
-3.152929571204318719e-12
-2.448139854419159130e-12
-1.906263943365318659e-12
-1.477883231953014670e-12
-1.133282644062867238e-12
-8.549673334259791943e-13
