# bin_4_2
-1.069158508997791938e-09
-1.069875240412623666e-09
-1.020753493590097915e-09
-9.208450911168994080e-10
-7.864525405733342387e-10
-6.465757722424829498e-10
-5.359213848902098819e-10
-4.597112682115392827e-10
-3.797588163175885812e-10
-2.767951879350553142e-10
-2.052317029341416173e-10
-1.604628894245532037e-10
-1.133635233368364706e-10
-8.488520897888617344e-11
-6.192128919064059246e-11
-4.578233775844609213e-11
-3.440038084419327345e-11
-2.630621165068719624e-11
-2.048711200861437712e-11
-1.619690214312180238e-11
-1.293342584421443806e-11
-1.035288792582958212e-11
-8.246237068638249771e-12
-6.490603417796165015e-12
-5.017002068524997090e-12
-3.789182453279234367e-12
-2.786816480173733234e-12
-1.992984803852421037e-12
-1.386941038144008512e-12
-9.414169262279343554e-13
-6.252962837238364415e-13
