# bin_14_3
-2.068713142134285122e-09
-2.129479544114789681e-09
-2.111313128640060383e-09
-1.988412748990800579e-09
-1.770194181763840103e-09
-1.492520216157903301e-09
-1.222615704838048643e-09
-1.022488333260070434e-09
-8.801776184452098146e-10
-7.077049258790214327e-10
-5.028610011952981814e-10
-3.862848719678427891e-10
-2.921153042441810271e-10
-2.088299786154909457e-10
-1.532816034074227580e-10
-1.125394353120073799e-10
-8.273391903183183773e-11
-6.180626508786611035e-11
-4.701802713472072979e-11
-3.641798536232099471e-11
-2.864255254937223375e-11
-2.275632724663994899e-11
-1.813080869828393428e-11
-1.438180900260498755e-11
-1.127981352022089473e-11
-8.693285632847514480e-12
-6.550204318890348849e-12
-4.808213652739119189e-12
-3.432409440302891399e-12
-2.384384275828354769e-12
-1.615333591800624485e-12
