   0.1000E+05   0.4191E-12   0.2996E-04   0.9370E-03   0.5215E+00
   0.8129E+04   0.5428E-12   0.2996E-04   0.9370E-03   0.5204E+00
   0.6608E+04   0.6939E-12   0.2996E-04   0.9370E-03   0.5198E+00
   0.5372E+04   0.8797E-12   0.2996E-04   0.9370E-03   0.5197E+00
   0.4367E+04   0.1112E-11   0.2996E-04   0.9370E-03   0.5202E+00
   0.3550E+04   0.1410E-11   0.2996E-04   0.9370E-03   0.5212E+00
   0.2885E+04   0.1806E-11   0.2996E-04   0.9370E-03   0.5228E+00
   0.2346E+04   0.2348E-11   0.2996E-04   0.9370E-03   0.5248E+00
   0.1907E+04   0.3110E-11   0.2996E-04   0.9370E-03   0.5269E+00
   0.1550E+04   0.4197E-11   0.2996E-04   0.9370E-03   0.5290E+00
   0.1260E+04   0.5759E-11   0.2996E-04   0.9370E-03   0.5307E+00
   0.1024E+04   0.7991E-11   0.2996E-04   0.9370E-03   0.5319E+00
   0.8326E+03   0.1114E-10   0.2996E-04   0.9370E-03   0.5326E+00
   0.6768E+03   0.1548E-10   0.2996E-04   0.9370E-03   0.5327E+00
   0.5501E+03   0.2129E-10   0.2996E-04   0.9370E-03   0.5324E+00
   0.4472E+03   0.2878E-10   0.2996E-04   0.9370E-03   0.5316E+00
   0.3635E+03   0.3805E-10   0.2996E-04   0.9370E-03   0.5305E+00
   0.2955E+03   0.4877E-10   0.2996E-04   0.9370E-03   0.5289E+00
   0.2402E+03   0.6053E-10   0.2996E-04   0.9370E-03   0.5276E+00
   0.1953E+03   0.7335E-10   0.2996E-04   0.9370E-03   0.5259E+00
   0.1587E+03   0.8534E-10   0.2996E-04   0.9370E-03   0.5241E+00
   0.1290E+03   0.9593E-10   0.2996E-04   0.9370E-03   0.5225E+00
   0.1049E+03   0.1044E-09   0.2996E-04   0.9370E-03   0.5209E+00
   0.8527E+02   0.1100E-09   0.2996E-04   0.9370E-03   0.5194E+00
   0.6931E+02   0.1126E-09   0.2996E-04   0.9370E-03   0.5179E+00
   0.5635E+02   0.1118E-09   0.2996E-04   0.9370E-03   0.5165E+00
   0.4580E+02   0.1078E-09   0.2996E-04   0.9370E-03   0.5151E+00
   0.3723E+02   0.1011E-09   0.2996E-04   0.9370E-03   0.5138E+00
   0.3027E+02   0.9245E-10   0.2996E-04   0.9370E-03   0.5126E+00
   0.2460E+02   0.8261E-10   0.2996E-04   0.9370E-03   0.5115E+00
   0.2000E+02   0.7240E-10   0.2996E-04   0.9370E-03   0.5106E+00
