# bin_20_18
2.066672383898889360e-11
2.346250973454700460e-11
2.622125353093917294e-11
2.873915199321078984e-11
3.074253438025126117e-11
3.188744660615177317e-11
3.189467959806704626e-11
3.032222182257684938e-11
2.721063344210200955e-11
2.307504728538396734e-11
1.889004490350882155e-11
1.572458895080480750e-11
1.362504851230612787e-11
1.116487585731662619e-11
7.827691769204197435e-12
5.909706499389717481e-12
4.531391537237348567e-12
3.075222578796806842e-12
2.205467521173973494e-12
1.557679312958356095e-12
1.066500139052149316e-12
7.284776418455126608e-13
5.001601351849861592e-13
3.462799348163400118e-13
2.426379153792856784e-13
1.731436481241999592e-13
1.260004661608665330e-13
9.361769920802551156e-14
7.083094672728038422e-14
5.428451032399832469e-14
4.184038600045881550e-14
