# bin_12_2
9.312850206376702921e-43
1.018116193656745959e-42
1.086340701466474631e-42
1.123831561201387626e-42
1.121001187011536050e-42
1.062395983495706225e-42
9.507671308302585030e-43
8.042735009047601342e-43
6.579542591571749863e-43
5.482628492036818649e-43
4.745533329964161167e-43
3.868785713549749403e-43
2.715771817176199675e-43
2.069719156377555018e-43
1.584675724873245006e-43
1.099787419731960440e-43
7.989956941424422739e-44
5.800821679479594669e-44
4.136002094159350725e-44
2.976761833025196355e-44
2.177234130262852332e-44
1.620538025460058378e-44
1.228019194395461441e-44
9.463695603496661548e-45
7.378274048000277957e-45
5.784425298790744230e-45
4.528400607927074679e-45
3.515288702792974892e-45
2.689656220299062566e-45
2.018340545760157462e-45
1.479653614138689906e-45
