# bin_4_1
5.512982227781009819e-14
5.624048327697477851e-14
5.511090943907118107e-14
5.112991132986638032e-14
4.486507262498309812e-14
3.735139833304034464e-14
3.057939946688115634e-14
2.586956675427061074e-14
2.220609910639585016e-14
1.720778189551230460e-14
1.210800542708313566e-14
9.657526257772373998e-15
6.946948415861825901e-15
5.162285844947369245e-15
3.699786225005889639e-15
2.738514224956612285e-15
2.032003779894818409e-15
1.530227131469503842e-15
1.174454831184265110e-15
9.169598923748740722e-16
7.260147155746641432e-16
5.791513696921070992e-16
4.620241440578490288e-16
3.659587169280168948e-16
2.858660594779506063e-16
2.189303009982126677e-16
1.636181615679991690e-16
1.189890038037502395e-16
8.412895148997815802e-17
5.791325170965553775e-17
3.892305647869673980e-17
