# bin_10_5
6.914979958699795448e-18
7.550067815993802551e-18
8.043176634066085386e-18
8.303899987007370922e-18
8.262779749675720313e-18
7.805146071159315875e-18
6.963628884645315262e-18
5.872968620680336710e-18
4.802397781653703935e-18
4.012146543840670594e-18
3.473304221077716535e-18
2.809586290509747589e-18
1.963289046545285715e-18
1.512711901898380996e-18
1.143395618426104911e-18
8.023514679561463292e-19
5.765779116222565183e-19
4.204616762003410050e-19
3.004912030514325039e-19
2.166036087607982266e-19
1.588313009002289805e-19
1.184985792927476886e-19
9.001360455592969437e-20
6.950566502514873400e-20
5.426400521006438251e-20
4.257061145709856596e-20
3.332403561190342481e-20
2.584883493699141595e-20
1.975079138756960828e-20
1.479360919614769423e-20
1.082071867155456063e-20
