# bin_15_4
1.365326598808169782e-42
1.514099908397217445e-42
1.644368550591489866e-42
1.739559609299548458e-42
1.780026573193897417e-42
1.750465368256391453e-42
1.628585461271144959e-42
1.432399004936261696e-42
1.192843811850012216e-42
9.755390385427568380e-43
8.259001839267580846e-43
7.130083278519243077e-43
5.525830513055812793e-43
3.823976850583321271e-43
3.076564405242411485e-43
2.161756769416456294e-43
1.601403377528059033e-43
1.096561307669805448e-43
7.887688844265974758e-44
5.609697089612147738e-44
4.008978221858927142e-44
2.899900446960672732e-44
2.128467497746984212e-44
1.592715023652353517e-44
1.213073591291530675e-44
9.365188087767716922e-45
7.289831396808260865e-45
5.680433124129285385e-45
4.399851854136601769e-45
3.365959602414742628e-45
2.530398713111716484e-45
