# bin_4_4
3.665172649833492769e-10
3.848662160307929595e-10
3.907129895489710028e-10
3.800991912470607701e-10
3.495134993875024778e-10
3.040000008070884314e-10
2.514563044972090790e-10
2.061985208462978112e-10
1.757872192172427788e-10
1.500689437144674788e-10
1.132300630730734814e-10
7.999331094469797897e-11
6.474405712273050341e-11
4.493129555576425340e-11
3.410516004802020306e-11
2.415172423767731314e-11
1.763759550118941597e-11
1.301709973566405061e-11
9.731059971163302385e-12
7.400610979652270221e-12
5.724178651011294516e-12
4.495191073417768448e-12
3.561348387580794952e-12
2.826436494987819257e-12
2.231281561999859716e-12
1.740154142826533808e-12
1.332796887523029949e-12
9.976231179861826412e-13
7.272868768465910901e-13
5.156423334725569040e-13
3.557973576939459422e-13
