# bin_16_4
2.502995781676592848e-47
2.783812542935881150e-47
3.034132703451859625e-47
3.224062409075512560e-47
3.316864733236532147e-47
3.285295271307939932e-47
3.083878086664855420e-47
2.735012097233854327e-47
2.293495302285260734e-47
1.874797939515244730e-47
1.575595872624235999e-47
1.364258199765413365e-47
1.084083129583459518e-47
7.503855536863576284e-48
5.905277117878477750e-48
4.315978673231475938e-48
3.087671659686752364e-48
2.144521200990080778e-48
1.554563357697177958e-48
1.096908039983023888e-48
7.764799817284495301e-49
5.578454661108358241e-49
4.065746437347146118e-49
3.018586937887905306e-49
2.283235621744584933e-49
1.753235584545519288e-49
1.360254468475616957e-49
1.059033909183002856e-49
8.214351906334200810e-50
6.305232195004312481e-50
4.763401771414994785e-50
