# bin_18_8
2.918276137467828009e-31
3.273964015457680280e-31
3.606492146211682652e-31
3.883283774979666387e-31
4.062936840362972254e-31
4.104837474188776390e-31
3.960531549332785587e-31
3.606218528150228494e-31
3.104867687738056595e-31
2.553448504657626325e-31
2.103410576889928521e-31
1.810566757192875273e-31
1.528318490725704409e-31
1.112284230270122908e-31
7.975910142959044841e-32
6.440897546608577768e-32
4.267962065060293667e-32
3.230146550058041625e-32
2.241305456601434025e-32
1.553619297561651408e-32
1.091069171280625687e-32
7.677052462094462188e-33
5.464769630977299947e-33
3.947064944887356080e-33
2.908664074038194574e-33
2.183912349091678801e-33
1.666567080525852391e-33
1.286455070079075808e-33
9.974910716181025006e-34
7.712433970154323606e-34
5.905578744349427650e-34
