# bin_19_2
1.143248125543316172e-80
1.279773766771747205e-80
1.405972726187615994e-80
1.508844325768876049e-80
1.571985887863168583e-80
1.580606278903968788e-80
1.514369070032794209e-80
1.369188460578659150e-80
1.170288257987123477e-80
9.598451384654372373e-81
7.940726844911564076e-81
6.860553058168284958e-81
5.718115313750682927e-81
4.085772040855993460e-81
3.001005678022378827e-81
2.376773354342723084e-81
1.590566674440337655e-81
1.184730819327660827e-81
8.336014948528298201e-82
5.798209465549052569e-82
4.070651233540382298e-82
2.874891249107939886e-82
2.059044008035179267e-82
1.498499781624452635e-82
1.112529400236508000e-82
8.409508736780779953e-83
6.451780327979884518e-83
4.996386216423755000e-83
3.877714605804509874e-83
2.994332844491375319e-83
2.285611998630058175e-83
