# bin_3_2
2.015473446253446492e-10
2.053314645768707140e-10
2.008344866251579145e-10
1.859133989893638129e-10
1.627858560770096876e-10
1.353066024745625766e-10
1.108046180413950499e-10
9.389949663448485637e-11
8.050639390959162859e-11
6.201727458282111928e-11
4.366842482233017824e-11
3.497317612987599748e-11
2.496805032239361872e-11
1.866719797054048262e-11
1.335447905063000802e-11
9.878319443014020231e-12
7.341190571584211452e-12
5.536954242310401171e-12
4.255058096856390918e-12
3.325734282146355666e-12
2.635444631724654627e-12
2.103303562141907304e-12
1.678042652186224527e-12
1.328710957914141431e-12
1.037201542471144387e-12
7.935518091493444026e-13
5.923335392364950333e-13
4.301797401821954783e-13
3.037397458411588143e-13
2.088304728111471427e-13
1.402037727591172148e-13
