# bin_20_9
2.417713552842340422e-33
2.724291135715227812e-33
3.016839011614260797e-33
3.269549241218507520e-33
3.448806833155982127e-33
3.516312467273302098e-33
3.439445686882940101e-33
3.178852824168592651e-33
2.778203157295236042e-33
2.302883877591131637e-33
1.886107443034113100e-33
1.606775451853679528e-33
1.381591803660459390e-33
1.048535123626400815e-33
7.278669607426150106e-34
5.917354051874979375e-34
4.010448289008194903e-34
3.020013951170944580e-34
2.042070794757875416e-34
1.426770357089928905e-34
9.991779450806813668e-35
6.996686760050558959e-35
4.921794481092479803e-35
3.500191957166061332e-35
2.537118391581278315e-35
1.875309157165817168e-35
1.411958533019050482e-35
1.079761557791097447e-35
8.335051091132566333e-36
6.448327136344842171e-36
4.962812502367550243e-36
