# bin_13_3
3.299425954815584293e-40
3.628786808248320128e-40
3.900984352897248799e-40
4.074354137023381417e-40
4.109056322317283979e-40
3.955544502187549979e-40
3.593931844536785378e-40
3.087727164549543861e-40
2.537108900565109505e-40
2.091535694226951907e-40
1.800952000523406770e-40
1.515081925391556281e-40
1.099589104490044459e-40
7.946389791990988390e-41
6.397130656843772667e-41
4.287955320063477506e-41
3.253465346608317339e-41
2.294690411764492098e-41
1.621737938601049157e-41
1.164468026755458698e-41
8.431071065475481417e-42
6.202386208573526101e-42
4.641762003052575971e-42
3.539394068067847939e-42
2.737819038844908261e-42
2.136738769709515027e-42
1.671604725085191344e-42
1.301321858690276408e-42
1.001621569098668465e-42
7.580461728904151857e-43
5.616822730197585797e-43
