# bin_6_5
1.242879654258518366e-10
1.331707519301918873e-10
1.385563391099435195e-10
1.391593251643988692e-10
1.332153350303045454e-10
1.204001981903029460e-10
1.028973105956867376e-10
8.440551789066685329e-11
6.979316254638253613e-11
6.017623892067162099e-11
5.013160343261254613e-11
3.606101917460430443e-11
2.654427986864661877e-11
2.108607083147138382e-11
1.438877353238933881e-11
1.084296602437993475e-11
7.797626342580023176e-12
5.608895475990619338e-12
4.101742212268157101e-12
3.041901359401795594e-12
2.297337611240349147e-12
1.765284311618550798e-12
1.377523439100316944e-12
1.084885668340584935e-12
8.565332898980828944e-13
6.732097761632182809e-13
5.231452355003258311e-13
3.996181702499299982e-13
2.986269513146245232e-13
2.175180328977584624e-13
1.541734118525401167e-13
