# bin_17_7
1.147289956105480712e-32
1.283243146974654191e-32
1.408365750256552921e-32
1.509522674569716231e-32
1.570172872525779603e-32
1.575898803880129549e-32
1.505892719826239992e-32
1.358045030719677898e-32
1.157677331655012708e-32
9.487399942319793428e-33
7.862769009168728553e-33
6.800167280673493219e-33
5.638613068659737999e-33
4.004499392536828520e-33
2.968308564658325137e-33
2.330537013882759682e-33
1.568656984777992983e-33
1.159141443075064249e-33
8.200612036181999874e-34
5.712940577520466740e-34
4.010909638406937375e-34
2.838039054055527271e-34
2.037422691413253108e-34
1.486856958936994595e-34
1.106827680055599078e-34
8.386062513625211991e-35
6.445404787224377180e-35
4.996536294900559952e-35
3.878568396227964308e-35
2.993222162123930871e-35
2.281942167353562544e-35
