# bin_10_10
1.483511776386240014e-10
1.641779815548904227e-10
1.778528825149255226e-10
1.875570611765685255e-10
1.912184196773412245e-10
1.870693041808761907e-10
1.729759481124157261e-10
1.512480225907640731e-10
1.254279442726054640e-10
1.026913271409885991e-10
8.736976570078056927e-11
7.511956920842222851e-11
5.721777441684197098e-11
3.979548011197204273e-11
3.231003468288395301e-11
2.217932797597120234e-11
1.672198659407864169e-11
1.147357937930707706e-11
8.178822898965929054e-12
5.845438787374528139e-12
4.200616968703085768e-12
3.051964097759381177e-12
2.251172569861946886e-12
1.693264570346469900e-12
1.295367983450799251e-12
1.003346976096080785e-12
7.824009854296223039e-13
6.097762920362774930e-13
4.716992026722685047e-13
3.599418802933788538e-13
2.696309517616645606e-13
