# bin_17_1
2.169199419891256027e-80
2.413975561548095242e-80
2.632926755238319508e-80
2.800243286390574053e-80
2.884055622206764237e-80
2.860651825162717850e-80
2.690139261127324413e-80
2.389858036815841833e-80
2.007139249604244732e-80
1.640833117473595264e-80
1.376921826429714452e-80
1.192534692262926951e-80
9.522868109488040383e-81
6.599797785516598736e-81
5.164851489200766703e-81
3.805321390602882177e-81
2.702189673185624596e-81
1.886872449995849641e-81
1.367307169255095475e-81
9.633529298898581910e-82
6.808166088427109159e-82
4.883729624418317408e-82
3.554177892191088601e-82
2.634361275182813851e-82
1.989614930801248894e-82
1.525925796070587830e-82
1.182965953364993026e-82
9.207478887527152574e-83
7.143209712527724287e-83
5.486506901266195614e-83
4.148914802599752362e-83
