# bin_20_14
1.334503872460282612e-16
1.510167103105646898e-16
1.680964019225557569e-16
1.833327109916709236e-16
1.949112090587887300e-16
2.005979737639809726e-16
1.987485440987623985e-16
1.865866483306017572e-16
1.654848728807564504e-16
1.387616447677460229e-16
1.134502457333291451e-16
9.540976489548989452e-17
8.265304142947739716e-17
6.559530259639361704e-17
4.528707602562951391e-17
3.566300184793216561e-17
2.589122925755615479e-17
1.843459519557809635e-17
1.260462967580375887e-17
9.018599309684445611e-18
6.228953618700481379e-18
4.286756025920330852e-18
2.977996410535969637e-18
2.086685978731256256e-18
1.485111464416305405e-18
1.077554968367673756e-18
7.973771692642444558e-19
6.013600979871502765e-19
4.601134993908775830e-19
3.548590389302640738e-19
2.737969685194759846e-19
