# bin_20_12
1.121408059082588209e-21
1.266830579224310063e-21
1.407150681683321261e-21
1.530745797376576338e-21
1.622210814419172109e-21
1.663020349773913828e-21
1.639186147221381705e-21
1.528996738342606296e-21
1.347981066130264406e-21
1.124526401517320118e-21
9.196302948411164665e-22
7.775514025795666357e-22
6.723584191974526195e-22
5.238700595322314890e-22
3.613538651009322731e-22
2.894156586440933940e-22
2.038589267641335761e-22
1.491381729851329884e-22
1.006432151366938953e-22
7.154030415317424417e-23
4.968881558738981062e-23
3.446036206996677314e-23
2.406793340987083764e-23
1.696590476432322307e-23
1.216824329242806611e-23
8.899403079978872316e-24
6.635688250681135673e-24
5.036176044483632666e-24
3.869758436112830666e-24
2.989980887587229088e-24
2.305540411578180431e-24
