# bin_16_8
1.148212105790191373e-24
1.283103229265237465e-24
1.406638798706422062e-24
1.505574858940111674e-24
1.563262299836171373e-24
1.565743566227532529e-24
1.491832440516256614e-24
1.341638047568497071e-24
1.140397827941323116e-24
9.338990551316233990e-25
7.755967089092471769e-25
6.713353623466026313e-25
5.533147602787901441e-25
3.905809740432663348e-25
2.924487161997680587e-25
2.272525163197447449e-25
1.541262138299421831e-25
1.127707621875801652e-25
8.026565740607027193e-26
5.601966308973133815e-26
3.933970015271973732e-26
2.790056664397334592e-26
2.008151773692672142e-26
1.469847608413428196e-26
1.097272176468018905e-26
8.334164840177037176e-27
6.417360501833922259e-27
4.979722625952734225e-27
3.865902067201174023e-27
2.981275176112680609e-27
2.269644155506888918e-27
