# bin_5_5
2.985109688610187376e-10
3.179389219949678734e-10
3.282927957493216711e-10
3.267784733587387438e-10
3.089724005679320849e-10
2.759578422376842786e-10
2.330636534345556413e-10
1.906531401581841125e-10
1.590537257479034492e-10
1.375076011688875886e-10
1.115833497631159573e-10
7.851735437277861228e-11
6.017076834321975233e-11
4.588709968707588985e-11
3.227729468840969669e-11
2.355052069591788842e-11
1.725046086380083126e-11
1.249753400511159839e-11
9.173929462611997711e-12
6.856215778020148726e-12
5.218882493840321518e-12
4.040785372311014298e-12
3.171143499367752654e-12
2.505942135454611097e-12
1.980289431391200812e-12
1.553975613583235522e-12
1.202958700436336372e-12
9.135841423096034996e-13
6.776647904607245770e-13
4.894357510001876317e-13
3.438746575943946169e-13
