# bin_5_4
1.420375323339972090e-10
1.503059838676567153e-10
1.539683491397608590e-10
1.516990612680746553e-10
1.415709907792951769e-10
1.249018597277237213e-10
1.043387456278390460e-10
8.531485766760087034e-11
7.191682214913856706e-11
6.204084995402756271e-11
4.871043452192642652e-11
3.398659595061331392e-11
2.700043441284968779e-11
1.958843555626817146e-11
1.437573279700966472e-11
1.019856305441323986e-11
7.509868348883414462e-12
5.492763938322537379e-12
4.065866776735968245e-12
3.064950530376728590e-12
2.351121467283647903e-12
1.833401284641174723e-12
1.446010362402104732e-12
1.145615776663276140e-12
9.053365017439201433e-13
7.086911848936882474e-13
5.460691822548144649e-13
4.120032919874189175e-13
3.031692234639373322e-13
2.170456281722689187e-13
1.511650591747943487e-13
