# bin_15_11
6.005106083457602293e-08
5.570936640467902696e-08
5.033837769746017846e-08
4.425489843070630978e-08
3.786826422222588003e-08
3.161721826532380746e-08
2.587764772470209831e-08
2.086397239172182646e-08
1.660503146485843001e-08
1.300191096969236802e-08
9.963222337207812482e-09
7.494192438179306258e-09
5.615658622351277929e-09
4.221582888068877445e-09
3.162448757082957735e-09
2.382457703336870323e-09
1.808923052043440035e-09
1.384531403700281842e-09
1.067384807014044058e-09
8.271269965872397268e-10
6.419898970913559043e-10
4.971326748340582048e-10
3.825456807091753113e-10
2.914347460367998519e-10
2.191049332617944139e-10
1.621462413554463061e-10
1.178902176410553672e-10
8.410736162041587381e-11
5.884874394442630454e-11
4.038694751122195331e-11
2.720611094756718550e-11
