# bin_19_11
6.365274251306404053e-08
5.931053013971728716e-08
5.383308469069836251e-08
4.753438214058509237e-08
4.083594352521295083e-08
3.420573659568290546e-08
2.806441860424903834e-08
2.267097895781579872e-08
1.808225871830185161e-08
1.419905979931955742e-08
1.091006245468377685e-08
8.212595206796207391e-09
6.147598283806726888e-09
4.619665234279171243e-09
3.456554738569358501e-09
2.597625942363376980e-09
1.967976286606134068e-09
1.502556399567703955e-09
1.155905361560945653e-09
8.943457314479795813e-10
6.936022556080160888e-10
5.370929651249692344e-10
4.136151430068157710e-10
3.155742809445827876e-10
2.377501970982582618e-10
1.763977424012549834e-10
1.286275065267312893e-10
9.205638946995953030e-11
6.461845106130935690e-11
4.448751797475249760e-11
3.005851011218244482e-11
