# bin_19_6
4.633076458342058157e-08
4.187869053345229861e-08
3.681262810698833521e-08
3.147763051479255233e-08
2.625380419879508421e-08
2.146956230594596693e-08
1.730906444482478871e-08
1.378708820189434415e-08
1.080017852537447807e-08
8.266252438616333403e-09
6.212760094848692606e-09
4.671354071834695841e-09
3.525569257517456724e-09
2.649909088702177486e-09
2.011692081039026809e-09
1.538351629259210120e-09
1.188113034047769036e-09
9.245129869892774586e-10
7.229188009832827791e-10
5.658037393979845298e-10
4.413053182164515021e-10
3.415563078803496903e-10
2.612964348695867131e-10
1.969365203991263051e-10
1.458542346985713146e-10
1.059496398353435393e-10
7.540316525933903974e-11
5.255943667802518302e-11
3.589875991038818483e-11
2.405446058031892078e-11
1.584054138510169469e-11
