# bin_18_1
1.876989969647446171e-08
1.576595575862814427e-08
1.296642630648381090e-08
1.050222672344351102e-08
8.406105225755088686e-09
6.629057486939159224e-09
5.115950544678906009e-09
3.871970037909890360e-09
2.923050809757035798e-09
2.220154008945231712e-09
1.685248648394363570e-09
1.290133986857292037e-09
9.984513874066247797e-10
7.807507836722139195e-10
6.158552931425575703e-10
4.883095729551223731e-10
3.874012673248687385e-10
3.060214481591406601e-10
2.395764652711879937e-10
1.851120567972776122e-10
1.406779470969041408e-10
1.048737780361407540e-10
7.655431538189213737e-11
5.466853979123946656e-11
3.819275623683698361e-11
2.612761706602629197e-11
1.753107286464120384e-11
1.156214375979782348e-11
7.513043151218945008e-12
4.821348604951236422e-12
3.062375930851539260e-12
