# bin_20_5
4.198771927442554418e-08
3.759386917702826497e-08
3.272666005161294346e-08
2.772795932384340552e-08
2.295134039636591184e-08
1.866610132013377866e-08
1.498971228738105850e-08
1.188358955779029909e-08
9.239243864303756068e-09
7.015874668186808526e-09
5.265419973622120372e-09
3.973513594210559762e-09
2.996505699507671508e-09
2.260850190868772001e-09
1.725396418266165365e-09
1.326908378813268731e-09
1.030269715042712580e-09
8.055163384431478154e-10
6.319312830297959308e-10
4.953164707738280767e-10
3.861659444027295353e-10
2.982030003260849258e-10
2.272317442247697866e-10
1.703424213965438442e-10
1.253323841897741299e-10
9.036642636487391648e-11
6.380038963020719558e-11
4.410972305118702693e-11
2.988870326503911846e-11
1.988014091858621912e-11
1.300648937529367243e-11
