# bin_16_12
6.337778488981414366e-08
5.907625816829836786e-08
5.365040710435099290e-08
4.740933488409389297e-08
4.076725890970852141e-08
3.418324190065189620e-08
2.807051805843636519e-08
2.268856137848578470e-08
1.810102079594708741e-08
1.422050112193797983e-08
1.094004270593619324e-08
8.247255418528822246e-09
6.173948351746311921e-09
4.637055198626312563e-09
3.472188720776523520e-09
2.607283605195861426e-09
1.974729847352134286e-09
1.506279386495054660e-09
1.157880757068613162e-09
8.951427063653301809e-10
6.937026386141982296e-10
5.368505226445329201e-10
4.132568492828864248e-10
3.152394133024421303e-10
2.375054557006937456e-10
1.762621746554053351e-10
1.285917592207065793e-10
9.209611317331480697e-11
6.470507849027695833e-11
4.459504757425374224e-11
3.016718062418654002e-11
