# bin_10_1
1.758244282879627180e-08
1.474038644089281912e-08
1.210565775487785125e-08
9.793257017662203244e-09
7.827967999629319265e-09
6.163295957542762590e-09
4.750773281586073180e-09
3.595404686198713641e-09
2.716070740501585881e-09
2.063932968201055174e-09
1.568229750345684356e-09
1.202143918808827902e-09
9.314649454984532589e-10
7.291149604122732766e-10
5.754841119936077113e-10
4.563615162062569018e-10
3.619216254697994812e-10
2.856561792479816876e-10
2.233601373226122131e-10
1.723208613040021151e-10
1.307330055929232893e-10
9.728316206089790466e-11
7.088370078265258370e-11
5.053005207224778667e-11
3.524417837752843754e-11
2.407569078170614752e-11
1.613424779296389163e-11
1.062991351845188066e-11
6.901493998867012771e-12
4.425960538562653409e-12
2.809796838214442716e-12
