# bin_9_4
3.196922009937057406e-08
2.807203705721435918e-08
2.399225676964980349e-08
2.000974014658308652e-08
1.636420872375084571e-08
1.319037529547259220e-08
1.050188980353124060e-08
8.228476431317940379e-09
6.310316006941030251e-09
4.757595373735427750e-09
3.585565676108039783e-09
2.715385748486028239e-09
2.052805142727443121e-09
1.566425219213814401e-09
1.205899106123888010e-09
9.373256644065265848e-10
7.339410379646518250e-10
5.771523536880576997e-10
4.538634634147982090e-10
3.553052946215433794e-10
2.757082334648142716e-10
2.112459586997112275e-10
1.593029370249434674e-10
1.179453139902503451e-10
8.558734627427306242e-11
6.081462611691748447e-11
4.230916480753404157e-11
2.883996284355793381e-11
1.928898807178601910e-11
1.268339654872460653e-11
8.217792859854649240e-12
