# bin_11_6
1.278337774014713902e-12
1.404800537646304884e-12
1.508650305062100800e-12
1.573677469912983597e-12
1.584779931380279128e-12
1.522327632665245325e-12
1.380186651419853586e-12
1.183166068753063808e-12
9.713583758150757088e-13
8.017862048405455181e-13
6.911820775211203656e-13
5.792870336075027638e-13
4.180985827981341946e-13
3.042989369906676964e-13
2.436716579832534322e-13
1.637375254856696274e-13
1.237324292600740407e-13
8.762466143228697558e-14
6.198135452742605301e-14
4.450757109528296179e-14
3.225750394564998997e-14
2.376899056628279867e-14
1.782068545225160279e-14
1.361011318761676444e-14
1.054072240180403751e-14
8.232826523926964520e-15
6.442087528307802023e-15
5.013578577416805516e-15
3.856014697169149033e-15
2.915008067210204021e-15
2.156779024927731754e-15
