# bin_7_4
1.053768264175741524e-08
1.129926345543630335e-08
1.176741833211746087e-08
1.183148935683657151e-08
1.134419414523114037e-08
1.026959061610029854e-08
8.791340899733929331e-09
7.216082042890538555e-09
5.961100090682265403e-09
5.135311710456653421e-09
4.290322849983808152e-09
3.099029216089450754e-09
2.269144038133781369e-09
1.809373437499081610e-09
1.232671387663136842e-09
9.313806285713989643e-10
6.678882120152923291e-10
4.801669162218140239e-10
3.510821171063019030e-10
2.601804360222135667e-10
1.962892714070061044e-10
1.506659803837929481e-10
1.174709260016206155e-10
9.246468319263898313e-11
7.298600739344322407e-11
5.737172361556280655e-11
4.460246321878317790e-11
3.409508712675199825e-11
2.550275970463298621e-11
1.859707104064313308e-11
1.319730142945160730e-11
