# bin_17_4
2.853419083799789288e-47
3.182228017152168077e-47
3.480015187495169055e-47
3.713341498223531370e-47
3.840396287148886157e-47
3.828724439627094984e-47
3.624738908917733469e-47
3.240364823132626572e-47
2.737649048915864767e-47
2.239381070113107970e-47
1.869006014320282174e-47
1.619164203234996860e-47
1.315332612037131914e-47
9.183266086910300453e-48
7.029401545590399572e-48
5.329055971901468896e-48
3.688046978499599516e-48
2.635627170006402558e-48
1.898040631091895773e-48
1.330478558359629932e-48
9.360061407860340991e-49
6.675108363894827920e-49
4.830982452651542852e-49
3.558172125279200071e-49
2.671880719220949273e-49
2.039517953763367418e-49
1.576082606727468178e-49
1.225137036605411514e-49
9.509957056256765555e-50
7.320480207961114880e-50
5.555313375179053114e-50
