# bin_16_8
8.762136300342949772e-20
9.791911884594410258e-20
1.073521054824711455e-19
1.149100029280973327e-19
1.193226260151252869e-19
1.195232499121831631e-19
1.138962505030741856e-19
1.024422762987818830e-19
8.708768404379671409e-20
7.132036521005438596e-20
5.922530143476020367e-20
5.126214632704889402e-20
4.226213603118129528e-20
2.984046097486347670e-20
2.233287779824160394e-20
1.736253374290284013e-20
1.177124483382546956e-20
8.616772361695999790e-21
6.131397331846237493e-21
4.278908756793067391e-21
3.004806360140850624e-21
2.130841759836186327e-21
1.533500504239545348e-21
1.122281229580041608e-21
8.377005692575874852e-22
6.361935233503559751e-22
4.898338815763790291e-22
3.800842855322030355e-22
2.950704046334579293e-22
2.275586408141313999e-22
1.732521557308524471e-22
