# bin_15_1
4.317897430654681131e-64
4.773361373822391150e-64
5.164040007865769578e-64
5.436723217695516118e-64
5.532290571672023721e-64
5.397241865097540265e-64
4.974623708771748779e-64
4.336166254624980170e-64
3.588700343118727442e-64
2.940460148382290638e-64
2.507943209319005214e-64
2.150410864727182309e-64
1.623240835409763006e-64
1.133487332079173222e-64
9.230453892481074178e-65
6.271633964264060013e-65
4.760473940454770337e-65
3.277217994164362608e-65
2.326267251180177547e-65
1.665944960120196773e-65
1.199772968835820874e-65
8.736543078574638334e-66
6.460831810782101788e-66
4.872268073336594526e-66
3.735459582030498000e-66
2.897909988579892285e-66
2.261555944500267117e-66
1.762535928222994033e-66
1.362391772644596670e-66
1.038172948898721383e-66
7.762239393422515623e-67
