# bin_17_8
5.715636403112476869e-23
6.400263719655786584e-23
7.034181977216606217e-23
7.552568161151853171e-23
7.873570534191646153e-23
7.922409461401410391e-23
7.598234093653277257e-23
6.876723074802235323e-23
5.883894164398943756e-23
4.827431650888615583e-23
3.990993562825138933e-23
3.446617012987470012e-23
2.878370664943310470e-23
2.061686666196130920e-23
1.508941040381666609e-23
1.199019289635241098e-23
8.007025395711033804e-24
5.981757689288853025e-24
4.200037818335353073e-24
2.919640512702137428e-24
2.049749096420566770e-24
1.446608002077037139e-24
1.035134496531983499e-24
7.525152110162467369e-25
5.580991869084768004e-25
4.214670344563464960e-25
3.231150217239811315e-25
2.501224290925826108e-25
1.941040714430454501e-25
1.499189839003747931e-25
1.144903725432296747e-25
