# bin_11_2
8.598055560423448451e-33
9.354643132878218794e-33
9.921878593916587874e-33
1.018756054500828348e-32
1.006707379040163737e-32
9.425036774843470002e-33
8.339088097620397953e-33
6.979717403903180946e-33
5.704966723847090609e-33
4.800798586851813248e-33
4.151417247391012617e-33
3.281069316483439278e-33
2.277401018274339680e-33
1.802598763616943050e-33
1.312876370582075255e-33
9.524344908623158440e-34
6.680225618367457462e-34
4.889911069418045515e-34
3.519155505705898620e-34
2.553710223042521187e-34
1.885153167552692547e-34
1.415089756054551494e-34
1.081663424151916279e-34
8.393843371143901460e-35
6.574957276910933431e-35
5.165405563937843395e-35
4.041080847615349796e-35
3.127224116983900598e-35
2.380167520521795937e-35
1.773533357604727369e-35
1.289217011657384694e-35
