# bin_19_2
8.971931156230155781e-76
1.004378175063300883e-75
1.103478226366306889e-75
1.184294277678708529e-75
1.233957018760768586e-75
1.240841514581982168e-75
1.189005654680657025e-75
1.075162164166541316e-75
9.191033720562660108e-76
7.538627357921086387e-76
6.236089883387679159e-76
5.387477595444256874e-76
4.491521255633393332e-76
3.210392816046076067e-76
2.356915057476479226e-76
1.867472288867532685e-76
1.249393687343785562e-76
9.309714673864853897e-77
6.548667107276191845e-77
4.554639859368166003e-77
3.197603376973787615e-77
2.258094435531529696e-77
1.617086650989072787e-77
1.176687717439209171e-77
8.734838172250507640e-78
6.601760277080020887e-78
5.064384967859393363e-78
3.921743493891633781e-78
3.043646870109897482e-78
2.350346987876168491e-78
1.794167780801238746e-78
