# bin_9_7
7.855759347756285909e-07
8.600261511939126486e-07
9.192628411662918605e-07
9.531231436015470432e-07
9.532304087237188377e-07
9.066873422373752340e-07
8.142104695550954620e-07
6.911522329197474320e-07
5.658100036611448104e-07
4.701817153527285203e-07
4.067263208004916447e-07
3.342786173842129393e-07
2.361463337836613230e-07
1.777368221718658055e-07
1.379260097643313965e-07
9.469159998726617323e-08
6.963536909270045341e-08
5.023736098697236301e-08
3.573312837765184399e-08
2.569032744573105295e-08
1.873842101558011291e-08
1.391011286646473617e-08
1.051189317492809025e-08
8.082497769761432373e-09
6.291164992439112968e-09
4.927936801929094436e-09
3.857889205070100121e-09
2.997115390036386874e-09
2.296534374541475049e-09
1.726831861503628378e-09
1.269111127723463755e-09
