# bin_1_1
4.074975801541644603e-05
3.938702893277506767e-05
3.601655442713029993e-05
3.116916172779801627e-05
2.575841234202784179e-05
2.119371521549181007e-05
1.807813651002517917e-05
1.527001232928570554e-05
1.145445419245620013e-05
8.250392858933846155e-06
6.573971293390301793e-06
4.657963079312716650e-06
3.511256372879482228e-06
2.549960778587669726e-06
1.897312440153051704e-06
1.430850129059880540e-06
1.098087921466662675e-06
8.586870898890321199e-07
6.818089107396925964e-07
5.468914448480324388e-07
4.397779817052910027e-07
3.518520655077973013e-07
2.781110022749876336e-07
2.158091784437247549e-07
1.635754933280754173e-07
1.206859988988345364e-07
8.656721127095847589e-08
6.041365041189098792e-08
4.112064049587856364e-08
2.738525022741841057e-08
1.790550860577537556e-08
