# bin_11_7
5.156976679906741184e-10
5.681584028927704784e-10
6.120853454116931134e-10
6.410203040609271201e-10
6.484500539569006454e-10
6.270606225918879122e-10
5.724275192253030384e-10
4.941756254895001487e-10
4.069107684789226573e-10
3.346360209890753136e-10
2.873201251758631322e-10
2.434868997489989171e-10
1.789769088226228319e-10
1.275664946983056509e-10
1.035190352759330545e-10
6.933246851689703291e-11
5.286026074343353900e-11
3.696304222464510888e-11
2.610806373474180650e-11
1.874185305351590847e-11
1.354628158089812978e-11
9.931409311108530743e-12
7.403249628776700861e-12
5.625150986416128726e-12
4.339149326093072083e-12
3.380426686816710113e-12
2.642925247121251134e-12
2.058561281983791394e-12
1.586896738508916362e-12
1.203837216797201721e-12
8.947376844307121677e-13
