# bin_14_7
1.341604378589503850e-17
1.490279733497054614e-17
1.621823017448139180e-17
1.720093166169282121e-17
1.765507614828305980e-17
1.743413952380262086e-17
1.630316018986981801e-17
1.440769581453840639e-17
1.204463916754381731e-17
9.846215678291920153e-18
8.300818694000648147e-18
7.180902701980036681e-18
5.646125588218200455e-18
3.903505454385532252e-18
3.104554678201268280e-18
2.230683159194888432e-18
1.620902037212439137e-18
1.116155121732045699e-18
8.077015740131767101e-19
5.717886570551819224e-19
4.063637641522479726e-19
2.928293996686028360e-19
2.140707435122242151e-19
1.594808754478957069e-19
1.209980535591307428e-19
9.313512813131943674e-20
7.236833237043054847e-20
5.636886916609346605e-20
4.369929395721470231e-20
3.349647302701306606e-20
2.525304151948959431e-20
