# bin_7_6
6.336946808340355432e-06
6.857357944209361658e-06
7.224307979368653147e-06
7.359013487629528949e-06
7.192263216675015084e-06
6.645056770996288421e-06
5.806142856316409806e-06
4.813872814727901617e-06
3.941531558097861738e-06
3.352175671747125634e-06
2.878066964294086492e-06
2.193129173128381041e-06
1.532143693866601641e-06
1.242283134036648962e-06
8.609447057165893965e-07
6.503256034022946573e-07
4.530355321864005361e-07
3.277554429088208783e-07
2.382325004093126833e-07
1.747962694210054134e-07
1.301711047725660869e-07
9.856954299329020050e-08
7.598160071517252578e-08
5.933965739437071891e-08
4.666132536919060383e-08
3.669724094317607513e-08
2.865999268640464395e-08
2.208658533114933852e-08
1.670498089290267642e-08
1.234730291124248162e-08
8.892455570088140678e-09
