# bin_10_8
8.701504190817925496e-07
9.583436345819856353e-07
1.032004470710045212e-06
1.080217798182370244e-06
1.092089729666902501e-06
1.055128383555690893e-06
9.622937544824221972e-07
8.299519130201248094e-07
6.830855310114876716e-07
5.620028250756571487e-07
4.828275633429913711e-07
4.086180088856716679e-07
2.995860969685136425e-07
2.140575517740925141e-07
1.735195958145661690e-07
1.161585461080582122e-07
8.852513260534860891e-08
6.200752874682205772e-08
4.379254719164000489e-08
3.144024719214991868e-08
2.273168023975027548e-08
1.667698649983732505e-08
1.244147463937971757e-08
9.460127287214493491e-09
7.301577711873980017e-09
5.690479876226772066e-09
4.449647349204315341e-09
3.465512554645058316e-09
2.670708626000064410e-09
2.025099016933539875e-09
1.504225566209890072e-09
