# bin_7
0.000000000000000000e+00
2.532410851900359155e-222
8.412242718321810358e-182
1.234025026034327728e-148
2.842865159425162462e-121
1.264160826968322799e-98
7.593027728158754957e-80
2.885905045270237564e-64
2.401068357293130084e-51
1.196486337731122491e-40
8.128265668357393137e-32
1.480968969988575311e-24
1.267142850203343669e-18
8.117706095515947372e-14
5.756007041258393492e-10
6.281788179306317120e-07
1.396738803151781100e-04
8.053291812081957851e-03
1.486118378767930237e-01
1.056729424532202755e+00
3.402251245439534610e+00
5.652447450448653932e+00
5.323017722021665676e+00
3.023535298824536977e+00
1.083687882913415557e+00
2.552280970144440997e-01
4.113959741599455822e-02
4.727188011398097967e-03
4.028067430765271410e-04
2.641387705428416139e-05
1.379098006863325653e-06
5.912719959778707490e-08
2.140183743258464672e-09
6.704229802628010044e-11
1.858089771941634671e-12
4.646477082678457705e-14
1.066794960739267803e-15
2.283714254368500770e-17
4.621104153117329492e-19
8.946488096086054437e-21
1.675010343258897372e-22
3.061671552493603664e-24
5.509557888286537118e-26
9.833510504241388883e-28
1.752159264928535932e-29
3.134842438643595039e-31
5.660312719073267109e-33
1.036065693102397010e-34
1.930007925929740366e-36
3.671533752163671961e-38
7.154117749237723980e-40
1.431595647401292008e-41
2.948669894650185811e-43
6.263621036594866418e-45
1.374519600942640233e-46
3.120531091939211542e-48
7.338189538333089219e-50
1.789277993519462459e-51
4.527566906595393090e-53
1.189739635255515942e-54
3.248480441141689290e-56
9.220131009800146746e-58
2.721206356295799929e-59
8.353134834682613777e-61
2.667220748557958218e-62
8.859590924209338376e-64
3.061308897978624225e-65
1.100287311290091462e-66
4.112949978685095053e-68
1.598714795691549116e-69
6.460440264388429012e-71
0.000000000000000000e+00
0.000000000000000000e+00
0.000000000000000000e+00
0.000000000000000000e+00
0.000000000000000000e+00
0.000000000000000000e+00
0.000000000000000000e+00
0.000000000000000000e+00
0.000000000000000000e+00
0.000000000000000000e+00
0.000000000000000000e+00
