# bin_13
0.000000000000000000e+00
0.000000000000000000e+00
0.000000000000000000e+00
0.000000000000000000e+00
0.000000000000000000e+00
1.041865964756868779e-306
5.281022434594079241e-263
1.347064570538912337e-225
1.746405553989679861e-193
7.596594702208253905e-166
5.231021964128944583e-142
2.058563279088636515e-121
1.347861205222255723e-103
3.591708173030359619e-88
8.267616291021312519e-75
3.106013750740725873e-63
3.269046821930534792e-53
1.528047638519144626e-44
4.706189012743653198e-37
1.340434053446002935e-30
4.729818152226383591e-25
2.662968178218448979e-20
2.980277484783055010e-16
8.029760889107962587e-13
6.158466786290421176e-10
1.557690753093942729e-07
1.479520748596488506e-05
5.920946331637603945e-04
1.106151706467744383e-02
1.057062010557550669e-01
5.603902072373294629e-01
1.769318488850444071e+00
3.534762908157859318e+00
4.699436455417204783e+00
4.333405801334584417e+00
2.868218624575753051e+00
1.403378968160189810e+00
5.211162553532325825e-01
1.504569810531626861e-01
3.455071501071447365e-02
6.446483404475940836e-03
9.969694595130429611e-04
1.302025487941121755e-04
1.460947506869531350e-05
1.431033638176392479e-06
1.241743689939319875e-07
9.674302121239478360e-09
6.851025989083118879e-10
4.459856180124603448e-11
2.696306128890265998e-12
1.528132967718246848e-13
8.188345700110471104e-15
4.180643779359565678e-16
2.048183155375086888e-17
9.690890771609862348e-19
4.454168568167817132e-20
1.999339802304884839e-21
8.806898115275816502e-23
3.823701309462762144e-24
1.642870934104671841e-25
7.010616911015214247e-27
2.981068714611477350e-28
1.266916146562069640e-29
5.395852907417904813e-31
2.308736767398655378e-32
9.946164423023727114e-34
4.322911291345274919e-35
1.898999038036877165e-36
8.445241089327855293e-38
3.807841603425783791e-39
1.743015767722055983e-40
0.000000000000000000e+00
0.000000000000000000e+00
0.000000000000000000e+00
0.000000000000000000e+00
0.000000000000000000e+00
0.000000000000000000e+00
0.000000000000000000e+00
0.000000000000000000e+00
0.000000000000000000e+00
0.000000000000000000e+00
0.000000000000000000e+00
