# bin_12_12
5.683039476374546797e-08
5.248160484450235613e-08
4.719765597796521844e-08
4.129917525179685984e-08
3.518603202311673201e-08
2.927227129127777860e-08
2.389363076147511202e-08
1.922320662498700458e-08
1.526245874420939601e-08
1.191168870970605071e-08
9.098772242233854653e-09
6.837746912140912145e-09
5.130158370699851845e-09
3.858433080461589066e-09
2.894704428678007005e-09
2.187396092575588002e-09
1.665531889450878507e-09
1.278938627311588592e-09
9.889367491989530186e-10
7.681993251209905567e-10
5.972685352730484269e-10
4.629151717673735158e-10
3.562399352474886882e-10
2.712102778681445720e-10
2.036329221525424372e-10
1.504209547974620591e-10
1.091232514435060586e-10
7.766139115343290617e-11
5.419946048730932360e-11
3.710243787331596929e-11
2.493485391372840840e-11
