# bin_12_8
4.787324717868319230e-08
4.352795357255475228e-08
3.851398819861649362e-08
3.315931084081195899e-08
2.783297408121154712e-08
2.287390171836191768e-08
1.850105795468552402e-08
1.477436447601610414e-08
1.162515767465601703e-08
8.961895900944128416e-09
6.770467682422648330e-09
5.080880635406396700e-09
3.830547728094913499e-09
2.882520327845436983e-09
2.177354268198804631e-09
1.660860634916107990e-09
1.276940830871232647e-09
9.898536411745449068e-10
7.717079438284431730e-10
6.028764637407172554e-10
4.700031012623418102e-10
3.641243787130167237e-10
2.792421350186703532e-10
2.112638942276188966e-10
1.572544796838166484e-10
1.149300776019605251e-10
8.236598238264232869e-11
5.784879019868516293e-11
3.982278953217018080e-11
2.689209197964903969e-11
1.784000263496880978e-11
