# bin_13_1
1.770766139531641411e-08
1.483564381533653761e-08
1.217765280735173157e-08
9.848954850504522981e-09
7.871335368347143919e-09
6.194613942926592045e-09
4.770282281119545134e-09
3.607447714231968429e-09
2.725733186681258531e-09
2.071465283002032156e-09
1.573819113540092121e-09
1.207225761419110345e-09
9.359374867722783452e-10
7.332385101243401599e-10
5.792494617268840930e-10
4.597527407815965442e-10
3.649121598611914317e-10
2.882286267695477513e-10
2.255134959965041607e-10
1.740744518806735720e-10
1.321223979088189568e-10
9.835396589207953244e-11
7.168726526813167284e-11
5.111840693058858481e-11
3.566568671269854656e-11
2.437213771517374812e-11
1.633953570639770123e-11
1.077020921461169795e-11
6.996266426093302540e-12
4.489324243807711121e-12
2.851772358405260709e-12
