# bin_6_1
1.578714408918760685e-08
1.318070310689347874e-08
1.079099532044865480e-08
8.707913509342071804e-09
6.941398232432465844e-09
5.446398875935961257e-09
4.185103567014035498e-09
3.165154716077358067e-09
2.394587835656500653e-09
1.821458980756021201e-09
1.386639265283473363e-09
1.066274304421920204e-09
8.285122107726068415e-10
6.502831578735330570e-10
5.142784348907341601e-10
4.082547727375018272e-10
3.237878361027177814e-10
2.553299878050974857e-10
1.993055407516189482e-10
1.534010176984223187e-10
1.160534078924851243e-10
8.609528294344399704e-11
6.253536675357875217e-11
4.444400183300341459e-11
3.091354320766738569e-11
2.106694839776117822e-11
1.409043014397898570e-11
9.269454312578340137e-12
6.011757188426738559e-12
3.852693511300396890e-12
2.444955520025523564e-12
