# bin_19_12
6.506743086899070907e-08
6.074733608661840562e-08
5.525129704926891043e-08
4.888962119657621480e-08
4.208546945525472861e-08
3.531525904761653492e-08
2.901506698964989292e-08
2.346325813016380041e-08
1.873185352560105785e-08
1.472805012272530074e-08
1.133509009250230839e-08
8.541846619912848318e-09
6.391995477412115801e-09
4.801445990807948170e-09
3.593101594463918826e-09
2.697110836656516550e-09
2.042096427026807472e-09
1.557565759334314369e-09
1.197419518164150715e-09
9.261195173380836077e-10
7.182605353355915835e-10
5.564520293361454988e-10
4.289177045816228677e-10
3.276932784967013044e-10
2.473144863640526453e-10
1.838792717673343166e-10
1.344032734906884685e-10
9.644181475251919241e-11
6.788495309342782589e-11
4.687043135470277443e-11
3.175974646898185254e-11
