# bin_14_5
3.868406583546922207e-08
3.444789684802083757e-08
2.983387656900237736e-08
2.516457101339326138e-08
2.075771230551703555e-08
1.683893291463309260e-08
1.349100871620081302e-08
1.066271288348992039e-08
8.259222981025735373e-09
6.257090202067233550e-09
4.699665976023177465e-09
3.551054486918711686e-09
2.679353614329414119e-09
2.027891797982780561e-09
1.551785672568741790e-09
1.197424072889114738e-09
9.323960419965655810e-10
7.306802621192725296e-10
5.740728209890096208e-10
4.502170139184808520e-10
3.508841862343196466e-10
2.706450724693858511e-10
2.058610727148007323e-10
1.539681120265995515e-10
1.129875490210586897e-10
8.123904903182226733e-11
5.719725462859437875e-11
3.944145489559138394e-11
2.666400670317323377e-11
1.770159696752130124e-11
1.156437996500293345e-11
