# bin_5_5
2.879506653574223318e-08
2.514451948202153563e-08
2.138863939586942532e-08
1.777357955660839722e-08
1.449616878605062346e-08
1.165599987790092389e-08
9.251641224842408126e-09
7.223260328240264398e-09
5.527682156849233673e-09
4.170416478638604013e-09
3.147206547644610721e-09
2.385307291686581183e-09
1.808487485235247573e-09
1.383837366812272690e-09
1.068661751243772187e-09
8.328244643553895856e-10
6.534089494350365692e-10
5.143744630601193846e-10
4.045343672879518513e-10
3.164292609817624959e-10
2.451473519663996628e-10
1.874175384987589398e-10
1.409671773481238183e-10
1.040778899865764752e-10
7.531225751574329946e-11
5.337203556098441519e-11
3.704452577128878457e-11
2.520267046633298446e-11
1.683147858298490983e-11
1.105617587689580455e-11
7.159090704182966270e-12
