# bin_3_3
1.959339778732790063e-08
1.664875882778596120e-08
1.382438813922833402e-08
1.126963291486882110e-08
9.058255903291139528e-09
7.187168779927278056e-09
5.610233679339347209e-09
4.295209074947012271e-09
3.245722048361593505e-09
2.455461744926308067e-09
1.866637438300316152e-09
1.421321899832873735e-09
1.093081812196055247e-09
8.488086464121012723e-10
6.652227906662385876e-10
5.247112988712017717e-10
4.149985765596594102e-10
3.276208008478861308e-10
2.569873499442721098e-10
1.994541519916828147e-10
1.526120738910804228e-10
1.147832073813521825e-10
8.467769381814749467e-11
6.118721668186125716e-11
4.328230037509325702e-11
2.998037574447776313e-11
2.035613884241035644e-11
1.357103558985310284e-11
8.902291970873726195e-12
5.759032097364945829e-12
3.682439651825087596e-12
