# bin_11_10
5.140619836344008691e-08
4.706208183694787933e-08
4.194311197517791429e-08
3.637377725372054388e-08
3.073489363489642344e-08
2.539549600695074513e-08
2.062271262147032295e-08
1.652251960217391752e-08
1.305505239298510004e-08
1.012318666242651414e-08
7.686130007333781873e-09
5.768351410303692036e-09
4.338694410689293778e-09
3.265474497188235753e-09
2.457311116276167394e-09
1.867057827034162126e-09
1.428724617283773280e-09
1.102948879097055616e-09
8.567789534778526464e-10
6.676879970102441641e-10
5.199628349459262164e-10
4.029622066145457880e-10
3.095552963650471995e-10
2.348928619827065101e-10
1.755527444582477048e-10
1.289414180086832773e-10
9.293187106006505788e-11
6.567094842379921011e-11
4.549529217402737631e-11
3.091648375757936800e-11
2.063238883342345081e-11
