# bin_5_1
1.524833428535040733e-08
1.271640195452963054e-08
1.040196220988094601e-08
8.387789106889621408e-09
6.680500063519809530e-09
5.236483654788607317e-09
4.020928943356194266e-09
3.041067348055920945e-09
2.301683463338163839e-09
1.751318549075063038e-09
1.334125091115918003e-09
1.026729723048639519e-09
7.983735564700376954e-10
6.270096545588030604e-10
4.960505170123128581e-10
3.938067830216426306e-10
3.122502192367658048e-10
2.461001238160645025e-10
1.919527781355290015e-10
1.476009898979079236e-10
1.115451777733643515e-10
8.265605188655438682e-11
5.996775839872954026e-11
4.257146578665830146e-11
2.958030667241367734e-11
2.013966170036729041e-11
1.345943276760666384e-11
8.848410291697861659e-12
5.735548366714469464e-12
3.674083679353771180e-12
2.330821085410724516e-12
