# bin_4_3
2.160978511550141325e-08
1.847594933450728999e-08
1.542120599592690880e-08
1.262111139554222617e-08
1.017630945992149194e-08
8.101367817942059342e-09
6.351508866866730677e-09
4.883393700556393494e-09
3.694937848700256272e-09
2.790196676232187593e-09
2.118559850714555140e-09
1.610033884885593590e-09
1.233400019276016566e-09
9.547099179196876604e-10
7.457880414050019653e-10
5.869006169761802466e-10
4.636475292859021168e-10
3.660707563819814143e-10
2.875459293568008165e-10
2.237382956401558506e-10
1.717968473029377738e-10
1.297699872095285266e-10
9.620175734951069310e-11
6.987845780549116442e-11
4.969453083189663044e-11
3.460147287494582616e-11
2.360822121477300997e-11
1.580778398456469850e-11
1.040854319374798821e-11
6.754556916548881969e-12
4.329952873054441095e-12
