# bin_13_8
4.892489902430472427e-08
4.455346723370139488e-08
3.948171504388157506e-08
3.404032485754062568e-08
2.860596474372993394e-08
2.352999370273639543e-08
1.904473610552905692e-08
1.521933554438931902e-08
1.198653352120700368e-08
9.249432595484720041e-09
6.990390383116496355e-09
5.244190193199859775e-09
3.952807103255214233e-09
2.973607420038315540e-09
2.244245219918092355e-09
1.710668232760845805e-09
1.314141119517102917e-09
1.017999977656827812e-09
7.932761319788493951e-10
6.195928525120829034e-10
4.830660161671648715e-10
3.743689214626071290e-10
2.872629240641247534e-10
2.174997833163584913e-10
1.620459918545846584e-10
1.185542527426026801e-10
8.505598414576871107e-11
5.980388558028426342e-11
4.121253304634819069e-11
2.785808039326611469e-11
1.849708353200075890e-11
