# delta_i
5.760697370883744952e+02
5.645959620907317458e+02
5.525022867955696029e+02
5.402543129044371426e+02
5.281180008216196029e+02
5.162513256382916325e+02
5.047483330672370698e+02
4.936628606057248021e+02
4.830224140302902356e+02
4.728368731187536582e+02
4.631042657961465920e+02
4.538147455750454924e+02
4.449533885209365280e+02
4.365021737868735840e+02
4.284413818974915671e+02
4.207505719822971741e+02
4.134092536448034139e+02
4.063973376952343983e+02
3.996954252899463427e+02
3.932850033116799295e+02
