# bin_9_4
3.350333018435936148e-18
3.628727009101750503e-18
3.827185388292689084e-18
3.903517312789446657e-18
3.822124144126460962e-18
3.538792901457455109e-18
3.098377168195097886e-18
2.572208631035653655e-18
2.104982675478161019e-18
1.787391972252637985e-18
1.537384124667494405e-18
1.178258309917835769e-18
8.209710231974132660e-19
6.644704510174927183e-19
4.632585679152967680e-19
3.485257945238876163e-19
2.423892238072595475e-19
1.757137413561484125e-19
1.275728693601728828e-19
9.348217986661442922e-20
6.952374755000225451e-20
5.257184158143943927e-20
4.047303555323868120e-20
3.157895133443101749e-20
2.481886382783893732e-20
1.951750459565704290e-20
1.524831216410598826e-20
1.175959994959896202e-20
8.903666526958485264e-21
6.589779365102487612e-21
4.752995635148316510e-21
