# bin_17_6
1.940902514168585011e-38
2.168469609283364261e-38
2.376644428818412919e-38
2.543002298636470187e-38
2.639364878783776792e-38
2.642313387680809223e-38
2.515922432547771067e-38
2.261218183836173232e-38
1.920809818286811705e-38
1.572771983012616313e-38
1.306819805951132811e-38
1.131308920441980673e-38
9.311073312869580918e-39
6.564215839735224704e-39
4.926195261368042486e-39
3.818703761569351099e-39
2.594759311561947725e-39
1.894074030620521349e-39
1.349920693745522229e-39
9.425484740381735648e-40
6.619652709974594916e-40
4.697348798676740691e-40
3.382866529179868242e-40
2.477671240964773593e-40
1.850779111738300549e-40
1.406480450145716573e-40
1.083425320890042173e-40
8.408842284514989089e-41
6.528084052800001380e-41
5.033414403112539433e-41
3.830719978221046161e-41
