# bin_10_5
1.210516598520319171e-17
1.321269847014247039e-17
1.407003017341925621e-17
1.451883780964908698e-17
1.443799062084221759e-17
1.362730945411302491e-17
1.214893107338623897e-17
1.023888871476553767e-17
8.371909054940214232e-18
6.998818306191348854e-18
6.058603779702540133e-18
4.890948754988764449e-18
3.414938295372444718e-18
2.637925021453772745e-18
1.987377332730047018e-18
1.398686734474634827e-18
1.002640142154478940e-18
7.316396193260619263e-19
5.231977324514257188e-19
3.773368416689828892e-19
2.768657404978218124e-19
2.066771692821780761e-19
1.570869426006017977e-19
1.213544410505850631e-19
9.477335773229839565e-20
7.436143746240356261e-20
5.820746756241877285e-20
4.514130038860419638e-20
3.447999740482470258e-20
2.581396570174366255e-20
1.887094989406169097e-20
