# bin_15_3
2.453727475040126725e-50
2.717516871986307992e-50
2.946550761972728445e-50
3.110852176799985013e-50
3.175712323144381632e-50
3.112642610810205553e-50
2.884440178884958346e-50
2.527441634004353600e-50
2.098912993749882754e-50
1.717609402079388011e-50
1.458847396487407759e-50
1.256458306424476555e-50
9.628842085461015174e-51
6.680995961318405235e-51
5.411182777642422720e-51
3.742094115379753830e-51
2.806885229518465775e-51
1.922424065521523327e-51
1.374515235563168605e-51
9.808926298970547788e-52
7.037207828250399872e-52
5.104956206094442510e-52
3.758807868393600111e-52
2.822137436507118881e-52
2.155655139635067311e-52
1.667815870461393541e-52
1.299782162151010018e-52
1.012984593802539892e-52
7.839931163075107183e-53
5.988009127163456845e-53
4.491340867540093244e-53
