# bin_16_15
1.397809575806683515e-09
1.574172238569875656e-09
1.742046139858473085e-09
1.886415560765565849e-09
1.987796039334347330e-09
2.024358915993784355e-09
1.976727893665861368e-09
1.823426914293554244e-09
1.590580452174044104e-09
1.316958005585682001e-09
1.079200449759168117e-09
9.206929048440675290e-10
7.901676961011781328e-10
5.964696810350580594e-10
4.152326493413241838e-10
3.379368848406106226e-10
2.277996634546189530e-10
1.720393042898681978e-10
1.166689047210235971e-10
8.132355727862717014e-11
5.700201796240131825e-11
3.995306433238405299e-11
2.814713682997524435e-11
2.005643943811880197e-11
1.456974161626226481e-11
1.079213503657115782e-11
8.140920080375246664e-12
6.234147671586718283e-12
4.815887849913616536e-12
3.725957402636280070e-12
2.865963437871542635e-12
