# bin_17_10
2.729471454370031178e-20
3.062889928480003973e-20
3.374976755918914553e-20
3.635328674429794883e-20
3.805265429147216512e-20
3.846499042554665610e-20
3.714159792078560477e-20
3.384618061223908213e-20
2.916479790378237346e-20
2.399385828652189633e-20
1.975662780173657209e-20
1.699753448930695849e-20
1.436612798213270712e-20
1.047897498115391724e-20
7.495383930027036618e-21
6.062308556945206971e-21
4.015963884213191885e-21
3.042568029379374875e-21
2.107942232712269337e-21
1.460848642101165807e-21
1.025961447498498988e-21
7.217162374063607083e-22
5.133938391900965993e-22
3.704887111286046002e-22
2.727802740394607270e-22
2.046459941597563025e-22
1.560638048087224579e-22
1.204169612459379595e-22
9.335366185130965645e-23
7.218672527222544393e-23
5.529302327581364032e-23
