# bin_19_8
5.413900449966428205e-35
6.084639809599759701e-35
6.717210339181624577e-35
7.252175687822974126e-35
7.613362307931914547e-35
7.720938511227457517e-35
7.492041695926360329e-35
6.862788285710227247e-35
5.944792677619285617e-35
4.902871209641029628e-35
4.027069452706716245e-35
3.453017658543078367e-35
2.940621902163373359e-35
2.176348238990423832e-35
1.534429982347401038e-35
1.249858143469283172e-35
8.294174165122364027e-36
6.306439520006765433e-36
4.327122040257706588e-36
2.998034652773956454e-36
2.105755014745671888e-36
1.479567715836409239e-36
1.048088444977859893e-36
7.522045144263679174e-37
5.507094765835768553e-37
4.109857192481537798e-37
3.120441671025487855e-37
2.400667749926009379e-37
1.858861562244825851e-37
1.438090787312871038e-37
1.103721754165348025e-37
