# bin_5_15
2.942251219689386087e-07
3.133866331666145483e-07
3.236409153350880757e-07
3.221499221591652641e-07
3.047112209362985321e-07
2.722947474324210923e-07
2.301878258153022428e-07
1.884511078340609972e-07
1.571943712825660292e-07
1.357015555749746535e-07
1.101190630409136751e-07
7.789124423191468693e-08
5.945396921025649794e-08
4.536923877081799195e-08
3.194130575559523359e-08
2.337978770591776432e-08
1.704687155494782216e-08
1.235161090596046703e-08
9.074352651894997801e-09
6.779996932045477375e-09
5.158165381994970916e-09
3.991494679800613076e-09
3.130890734268369292e-09
2.473137100480169565e-09
1.953801417394881238e-09
1.532952078402836791e-09
1.186667987017761331e-09
9.013303334499093083e-10
6.687675326206001175e-10
4.832402588672623829e-10
3.397335812487614299e-10
