# bin_20_5
1.162648527247446114e-58
1.306255391901990136e-58
1.441474814855233188e-58
1.555500941796395630e-58
1.631949857204478483e-58
1.653859145622456493e-58
1.603136119139660843e-58
1.466834996407580554e-58
1.269177399901085193e-58
1.046144591970771306e-58
8.596937874039274461e-59
7.377046800137409663e-59
6.272734121943048196e-59
4.627736193362115206e-59
3.272008794398524023e-59
2.662469192471673964e-59
1.765062149683983716e-59
1.341722243208222361e-59
9.225389682711659958e-60
6.390668007320771821e-60
4.488771675379661903e-60
3.154599023030605293e-60
2.236630494907751292e-60
1.607104498210545444e-60
1.178052220447533553e-60
8.801784655266914069e-61
6.689356089347797353e-61
5.149772974981911504e-61
3.988688066830981892e-61
3.085557025297850063e-61
2.367161299403374323e-61
