# bin_20_9
1.637850326905318100e-33
1.845474201965156746e-33
2.043566965385370778e-33
2.214638409174836721e-33
2.335913073005522776e-33
2.381466552488176083e-33
2.329166257313752560e-33
2.152438025522503384e-33
1.880934171102545535e-33
1.559014858962826761e-33
1.276902062187642888e-33
1.087891941607849278e-33
9.353276385469526538e-34
7.096144099118522889e-34
4.926717365570297576e-34
4.005679846813087319e-34
2.713797786491748995e-34
2.044044130490794625e-34
1.382369699292915602e-34
9.656800493555264599e-35
6.763205064821072679e-35
4.736251519279690743e-35
3.332026029361273939e-35
2.369908667162346726e-35
1.718075179613960693e-35
1.270090411883277817e-35
9.563954943352726185e-36
7.314479484371347872e-36
5.646587305474792680e-36
4.368456671913387926e-36
3.361974967271001967e-36
