# bin_6_15
2.347533421937262629e-07
2.528085614047786422e-07
2.647290576096092773e-07
2.678317303443561218e-07
2.591659054013218601e-07
2.369043252191929918e-07
2.048142085985297961e-07
1.688939420031061540e-07
1.388802010119381069e-07
1.189366460172821732e-07
1.007624990488832867e-07
7.468724767669627097e-08
5.335949310772560048e-08
4.301893583638490144e-08
2.944582230988986309e-08
2.232022205712459876e-08
1.577119417479657943e-08
1.135829044616131184e-08
8.283990682613744097e-09
6.109608024885638299e-09
4.580246747929985869e-09
3.492765219208223888e-09
2.708569114126434999e-09
2.124191793830710841e-09
1.673831354309129174e-09
1.316183260068308310e-09
1.025560111556064248e-09
7.870689957029951833e-10
5.919062501676664290e-10
4.344713305494847899e-10
3.105378095153833752e-10
