# bin_16_20
4.038823520035381454e-08
4.557344516949750000e-08
5.055207198587522740e-08
5.489988305945643319e-08
5.805902794394380254e-08
5.937455113997196269e-08
5.832423992061059005e-08
5.418212305253892375e-08
4.758471561950241838e-08
3.958487370846473231e-08
3.239353901704318373e-08
2.748009076637066554e-08
2.370405108326669847e-08
1.825804564896633784e-08
1.262872690638633139e-08
1.018095940076952672e-08
7.051731357081115641e-09
5.224616110057508427e-09
3.528434190556874363e-09
2.489157204078312320e-09
1.735119442167551200e-09
1.208519206451066447e-09
8.467053167346645195e-10
5.991727476988387065e-10
4.317535128759753184e-10
3.172599278624773543e-10
2.375915282209414994e-10
1.809368670179030110e-10
1.393199707172477006e-10
1.077087904803046279e-10
8.298245998754240694e-11
