# bin_6_18
2.687188706780606381e-07
2.894118475566781778e-07
3.030918424049043087e-07
3.066828229463768989e-07
2.968145219698530529e-07
2.713726334422376980e-07
2.346599336620908273e-07
1.935247359179793407e-07
1.591207447636237174e-07
1.362534973444715696e-07
1.154628222529041022e-07
8.562791140116897734e-08
6.114959349588986139e-08
4.930571459749645841e-08
3.375594648901722436e-08
2.558609415622116353e-08
1.807442984998656241e-08
1.301793085370169260e-08
9.493781673966300495e-09
7.001114949141093244e-09
5.247923554603090230e-09
4.001389559807761238e-09
3.102650973016180733e-09
2.433062279473497570e-09
1.917143964085255332e-09
1.507512906513694110e-09
1.174693541921716809e-09
9.015919079461011451e-10
6.781044207293354941e-10
4.978075482453190393e-10
3.558582408387711882e-10
