# bin_19_10
6.822015357571848653e-26
7.681065553055561173e-26
8.497971626932229603e-26
9.199260670144771303e-26
9.689747342616061857e-26
9.863384279652085017e-26
9.624827645583592705e-26
8.871267244087495175e-26
7.732384348997576539e-26
6.398831480786969383e-26
5.244461625027921639e-26
4.477067338249851702e-26
3.840022042734509425e-26
2.891967840730366348e-26
2.014815393627384322e-26
1.641537614201921207e-26
1.102984281891317263e-26
8.347631108478471830e-27
5.666229191269738289e-27
3.943430899802028235e-27
2.765853720420684124e-27
1.939868606162968493e-27
1.367503559213161813e-27
9.751949487558681622e-28
7.090624899228423099e-28
5.256859171310288197e-28
3.968610802730949765e-28
3.040900369175945682e-28
2.349904733654213297e-28
1.818194581545470420e-28
1.398264604467954849e-28
