# bin_11_20
1.187248556869000743e-07
1.319657831260264180e-07
1.437270512397330089e-07
1.525866823957397748e-07
1.568151502734559378e-07
1.550965405065131836e-07
1.453412514561078280e-07
1.286995951222748119e-07
1.078023447681294511e-07
8.814728642343149931e-08
7.418043445159096300e-08
6.416857155328925589e-08
5.074870665217544528e-08
3.517888504434676063e-08
2.775885202601930341e-08
2.014913938234610166e-08
1.449976722084663165e-08
1.007243463258438342e-08
7.274765513491441840e-09
5.140744510196085443e-09
3.646733657474856695e-09
2.622751329003395630e-09
1.913910227177078709e-09
1.422924531795402965e-09
1.077578005030572823e-09
8.281906618279300370e-10
6.428710385694479523e-10
5.005311473916482538e-10
3.880902560293761757e-10
2.976794477106987420e-10
2.246657383784835913e-10
