# bin_7_10
9.693865262727387572e-08
1.052558929822801852e-07
1.113593400807708258e-07
1.140106113267272424e-07
1.122063282944310258e-07
1.045547228612473475e-07
9.209887794835849614e-08
7.684404931126039040e-08
6.286114794315463000e-08
5.309369969003787748e-08
4.577479978866926374e-08
3.572174579286178424e-08
2.488700174713145626e-08
1.983230917771073940e-08
1.421190448414465774e-08
1.044341630733332998e-08
7.325576994865915472e-09
5.332872396011856572e-09
3.850742682070804713e-09
2.805402481795221124e-09
2.077054961523074579e-09
1.563858263405232630e-09
1.198853088254352946e-09
9.323602315884579518e-10
7.312725716387211743e-10
5.746735391096417033e-10
4.492780275226237262e-10
3.471416052894736829e-10
2.636132837830425619e-10
1.958621265114387245e-10
1.419136964551688939e-10
