# bin_7_11
1.201344696920420276e-07
1.304717669146665992e-07
1.380768799983922133e-07
1.414130570518759691e-07
1.392395505509158440e-07
1.298188350094606860e-07
1.144154009166265681e-07
9.550667547426781103e-08
7.812518013056177520e-08
6.595557240340869994e-08
5.687613680792871458e-08
4.445377789766111958e-08
3.097115131245885884e-08
2.464826965975724798e-08
1.770234529435783199e-08
1.298407258487980079e-08
9.115123336117333157e-09
6.636585178829595440e-09
4.790049618650401043e-09
3.488183677320543309e-09
2.581526124511988133e-09
1.942928101716318133e-09
1.488878625379711581e-09
1.157574850218772791e-09
9.077445861943071125e-10
7.133087360530884362e-10
5.576957951449050148e-10
4.309848827107769213e-10
3.273688191679621766e-10
2.433156827834401498e-10
1.763677613919343825e-10
