# bin_4_19
4.142316144461279677e-07
4.350573364066618453e-07
4.418156397881063254e-07
4.300064150363406673e-07
3.958087418082164789e-07
3.445990398452665759e-07
2.854694077388524875e-07
2.342502348352907396e-07
1.994058804705248373e-07
1.699700748457627251e-07
1.288024335685870653e-07
9.134410157369156017e-08
7.325151422216763349e-08
5.146309857349077115e-08
3.863013104103609391e-08
2.749573968013771423e-08
2.011383665132417953e-08
1.481794003404585054e-08
1.106159737765558925e-08
8.405298980165708600e-09
6.496541700944467078e-09
5.097762366994735782e-09
4.036311759815043734e-09
3.202088987143281608e-09
2.527343805644067614e-09
1.971120563073560509e-09
1.510078877157680231e-09
1.130881469701833712e-09
8.250391875472200458e-10
5.854854986768377813e-10
4.043982329707767188e-10
