# bin_3_6
2.312536858375634989e-07
2.379987679071550690e-07
2.359125662704201027e-07
2.221029136240354724e-07
1.976590127865640333e-07
1.665923975722018029e-07
1.364496556572249871e-07
1.141427164804393977e-07
9.827080344062004782e-08
7.895605202401139793e-08
5.605537852615290116e-08
4.311390144024911618e-08
3.256789224253133704e-08
2.329860214880483034e-08
1.708792784550731231e-08
1.255276261625824196e-08
9.229615555654391238e-09
6.895946550004902380e-09
5.247105496887203034e-09
4.065036302402419856e-09
3.197748687892640138e-09
2.540928555251442751e-09
2.024583290997618310e-09
1.605943460611301822e-09
1.259469487771920361e-09
9.705364683680061857e-10
7.311406525130450325e-10
5.365745307734082433e-10
3.829442239594493640e-10
2.659524306993796217e-10
1.801319939705104716e-10
