# bin_2_17
6.262385929898609688e-07
6.296127898581495037e-07
6.045829441100211791e-07
5.490368487770069329e-07
4.719045831270057469e-07
3.889291363449329044e-07
3.212410625582630284e-07
2.748876020618269251e-07
2.295418572878160142e-07
1.695348396579869335e-07
1.239159691386440496e-07
9.774625280607802563e-08
6.902476387351824963e-08
5.176704006892810260e-08
3.757906699496689719e-08
2.776119407404179544e-08
2.079713789765637911e-08
1.584570508082975715e-08
1.229779578693873848e-08
9.694228478646212411e-09
7.726514452631753081e-09
6.180848579709044280e-09
4.925820418939084683e-09
3.883576672852743064e-09
3.009849007341895465e-09
2.281094132755626502e-09
1.684266162880993841e-09
1.209409633594089701e-09
8.448764684415564405e-10
5.754304440791679262e-10
3.832983359280907914e-10
