# bin_18_5
1.894363378848611212e-49
2.119314342099874038e-49
2.326589966595225218e-49
2.494541532073426560e-49
2.595894161940454435e-49
2.606651952571109709e-49
2.492626696053029447e-49
2.249443540840414484e-49
1.918928044657290619e-49
1.572921731116845540e-49
1.302937996789802991e-49
1.126567356022028595e-49
9.354590083767762406e-50
6.654166674538383637e-50
4.920217658990549583e-50
3.872356472473635588e-50
2.602134984673918595e-50
1.927130881034526158e-50
1.361373618053212411e-50
9.479929236734143922e-51
6.655505098569399039e-51
4.706833742713699840e-51
3.376907384045375099e-51
2.462575610194628807e-51
1.831872271460271993e-51
1.387094090646273029e-51
1.065601296603300215e-51
8.258510380253789680e-52
6.410444178170729465e-52
4.947999084640618530e-52
3.773489913931263425e-52
