# bin_13_9
7.684000615028562869e-14
8.540951420353610821e-14
9.302091038658275498e-14
9.875321169862616528e-14
1.014818164791833600e-13
1.003685366439124006e-13
9.404243299181714567e-14
8.326157588945773888e-14
6.971770485321694949e-14
5.699173987155781358e-14
4.796847750271239022e-14
4.151564082905211116e-14
3.282249208239360458e-14
2.270778807552108059e-14
1.795991509977748074e-14
1.301985763762985138e-14
9.384064497184904560e-15
6.491623052586989472e-15
4.701369278884850686e-15
3.322511957852202795e-15
2.356453904349931626e-15
1.695389353971144969e-15
1.237445891700390640e-15
9.202450783275515876e-16
6.970850501206216218e-16
5.358921797399926475e-16
4.160744728718309265e-16
3.240076938621160026e-16
2.512500396047366907e-16
1.927262435980370289e-16
1.454523367415129267e-16
