# bin_11_10
1.611698884049746931e-09
1.785105534797647752e-09
1.935744591886469917e-09
2.043934296200192950e-09
2.086892471398468000e-09
2.045869039834838039e-09
1.896442080884544636e-09
1.662171916972458090e-09
1.380760029718004643e-09
1.129969056655607586e-09
9.594529862962980964e-10
8.262857255172643984e-10
6.338396413041589108e-10
4.399513887388666389e-10
3.558502778184647551e-10
2.466409380192439428e-10
1.846074000594353516e-10
1.265546649000202981e-10
9.055264397959234403e-11
6.458712032719608469e-11
4.630890110561381808e-11
3.358553510856810631e-11
2.472365604103031055e-11
1.855760709589995658e-11
1.417154850641327515e-11
1.096228487109820036e-11
8.542151990323289250e-12
6.656981848915355819e-12
5.152254903753589700e-12
3.935571232223514502e-12
2.952336754702131276e-12
