# bin_9_10
2.861304444266320704e-08
3.145378276713589774e-08
3.379257529642060638e-08
3.526705689049831595e-08
3.553600396060465246e-08
3.416721242062317343e-08
3.101017369020570032e-08
2.661318996804611798e-08
2.186347849566618302e-08
1.803999453894178187e-08
1.553679712685047320e-08
1.303729802048336952e-08
9.444363866905614025e-09
6.854068841002452215e-09
5.490282954424285415e-09
3.696331643004010267e-09
2.791423548485474234e-09
1.972781949670678395e-09
1.395860845950321457e-09
1.002379933054064667e-09
7.264364221284823361e-10
5.348690746909763345e-10
4.006419111297848936e-10
3.057185795828042070e-10
2.366076530052440989e-10
1.847126463117900577e-10
1.445026733800878666e-10
1.124636425116702109e-10
8.652069682835554829e-11
6.543721799053727896e-11
4.844753860121539870e-11
