# bin_16_1
1.020169859723888635e-74
1.131522482607722130e-74
1.229128354501123679e-74
1.300615020085702979e-74
1.331279288645435883e-74
1.309720019441296542e-74
1.219153940165576914e-74
1.072808246637683815e-74
8.937350556360573865e-75
7.308840625728751736e-75
6.185089025488567895e-75
5.340856586356269529e-75
4.145267405372074651e-75
2.868158822809888253e-75
2.305019455430934944e-75
1.623317711072912986e-75
1.200225011089406962e-75
8.221957013973636505e-76
5.918334077984739822e-76
4.207054388151939464e-76
3.004870843913530009e-76
2.172759336498628121e-76
1.594121019981280119e-76
1.192343866273870028e-76
9.077882327708672323e-77
7.006269178669247306e-77
5.452725947513415738e-77
4.248762012501347220e-77
3.291231417762312699e-77
2.518347884617612779e-77
1.893739028677132787e-77
