# bin_20_4
6.505432095718405840e-67
7.304893070777835379e-67
8.055633401421163188e-67
8.685620337650308569e-67
9.102942666401740976e-67
9.214381545107226381e-67
8.915992300194850612e-67
8.142685855818694381e-67
7.032082455199725842e-67
5.791097079157957463e-67
4.763127050632996287e-67
4.092276718424941814e-67
3.470353817307994005e-67
2.546834683218865077e-67
1.809897354206774189e-67
1.469307442950361361e-67
9.731873751278602334e-68
7.389880814783955613e-68
5.098876967091985143e-68
3.532164617917652929e-68
2.480912863120622536e-68
1.744201999241383077e-68
1.238517161573536059e-68
8.916891318676091925e-69
6.549714750813309968e-69
4.902970070149024202e-69
3.732235418603548096e-69
2.876328948750220652e-69
2.228836800825770746e-69
1.723892940663578221e-69
1.321592905163913059e-69
