# bin_20_3
4.960563311367410205e-76
5.567560234450964143e-76
6.136250045288839188e-76
6.611470025908299308e-76
6.922983307380256306e-76
7.000780490725869896e-76
6.763951555445217781e-76
6.167646965809435908e-76
5.317951556743961108e-76
4.376308036069653393e-76
3.602304697548794273e-76
3.098021755165098679e-76
2.620956731534608003e-76
1.915102019584174195e-76
1.367243582926450568e-76
1.107084873625070927e-76
7.332925849926179191e-77
5.559595445316053995e-77
3.847245206619499314e-77
2.665843578992464663e-77
1.872303848467630310e-77
1.316850470290961622e-77
9.362633106888682563e-78
6.752024528891137262e-78
4.967986127553639200e-78
3.724785583225932153e-78
2.839082618295761676e-78
2.189873716792734678e-78
1.697487650138446274e-78
1.312695462126468487e-78
1.005735987362499131e-78
