# bin_14_7
2.141469444585940666e-22
2.378379480432732549e-22
2.587771349929196358e-22
2.743856483302059285e-22
2.815414403506783967e-22
2.779012441499387224e-22
2.597382062085405139e-22
2.294289668887246651e-22
1.917220029477951179e-22
1.567331280479022468e-22
1.321902673698344342e-22
1.143355296532657734e-22
8.976706516406729386e-23
6.206178309559873237e-23
4.942214349858809053e-23
3.542907189680710333e-23
2.579686118976261701e-23
1.774959849394871974e-23
1.283801293485800435e-23
9.092492300309706945e-24
6.465601989940717169e-24
4.660999153182932205e-24
3.408774784223205789e-24
2.540662184303524038e-24
1.928370294276694533e-24
1.484775195081893513e-24
1.153924330270428670e-24
8.988531068536313042e-25
6.967667553615687175e-25
5.339816822437044792e-25
4.024537080423759029e-25
