# bin_19_11
2.903359309605350336e-22
3.271970213562081965e-22
3.623925841119424050e-22
3.928283434558857304e-22
4.144700705171959046e-22
4.227051034714829845e-22
4.136375426937439744e-22
3.824855083654004675e-22
3.344374475299142917e-22
2.773062064051362343e-22
2.270948976913792996e-22
1.933874096389985960e-22
1.663496063227410178e-22
1.264239874416565190e-22
8.771438290707097935e-23
7.126945410921909024e-23
4.838955572813072806e-23
3.639651792913599497e-23
2.459733370108521961e-23
1.720089375836942233e-23
1.204148964298978846e-23
8.428734984414879302e-24
5.926927026661447484e-24
4.212985132465837785e-24
3.052101814947001013e-24
2.254735112617752311e-24
1.696808722364851276e-24
1.297118458881043573e-24
1.001081996749709502e-24
7.744485205776888007e-25
5.961106503645143666e-25
