# bin_17_15
2.027183878368172974e-10
2.286520374054108987e-10
2.535073932349850286e-10
2.751453895673218960e-10
2.907602127195962926e-10
2.970789261879993708e-10
2.914627069113961218e-10
2.703464877735200073e-10
2.370861389711416132e-10
1.969927161154925344e-10
1.612286488500421173e-10
1.369549772534563598e-10
1.180624859317335638e-10
9.052194567700824019e-11
6.263450687254294972e-11
5.067352134082385597e-11
3.483302984188631479e-11
2.597379455389613694e-11
1.751506643138377846e-11
1.232084211251309943e-11
8.602405335345250272e-12
6.003891250553694115e-12
4.211677394570781265e-12
2.984756339612216804e-12
2.154680309181749263e-12
1.586202912480823497e-12
1.189914899816592618e-12
9.074173566794543353e-13
6.993213290542982929e-13
5.408254194151520760e-13
4.165807705828453519e-13
