# bin_10_17
1.137755377156291267e-07
1.259005567320538240e-07
1.363703322310488922e-07
1.437894341659404023e-07
1.465804162527144569e-07
1.433660675585432328e-07
1.325527312636624697e-07
1.158863779252287929e-07
9.612778214623775240e-08
7.872997245006883421e-08
6.697408308260971849e-08
5.752642678622407996e-08
4.382550690841699432e-08
3.054776378212969340e-08
2.472604553781364730e-08
1.703517340050966802e-08
1.279026238423121608e-08
8.804032591695430333e-09
6.281948359806629512e-09
4.485766834363993208e-09
3.220424473646489854e-09
2.339693297803947588e-09
1.725919514626337890e-09
1.298119109464709946e-09
9.929947797398207756e-10
7.690491611009409245e-10
5.996068369162569723e-10
4.672364304244278725e-10
3.613773588695218525e-10
2.757176817780241165e-10
2.065117721635413956e-10
