# bin_2_9
4.823112839754021447e-07
4.846504014413910534e-07
4.650403670273444421e-07
4.219908101073965868e-07
3.624378440678286738e-07
2.986166931282566481e-07
2.467398976776000946e-07
2.112051587544410842e-07
1.761581835302511320e-07
1.298973903697699306e-07
9.509419788307458726e-08
7.494877278301361321e-08
5.291728034481938354e-08
3.968532315969478900e-08
2.882378171260215167e-08
2.129467210795356605e-08
1.595830788679948144e-08
1.216405601474088981e-08
9.444297469085392444e-09
7.447391714410754740e-09
5.937068360187917844e-09
4.749776054488292026e-09
3.785123229902111829e-09
2.983685765088742125e-09
2.311721194491355065e-09
1.751310298797834134e-09
1.292512572733738028e-09
9.276695553860743972e-10
6.477685802480785069e-10
4.410093842314302112e-10
2.936617915587167184e-10
