# bin_6_17
2.585153148217462708e-07
2.784158850266903021e-07
2.915673102157156731e-07
2.950115984484957060e-07
2.855045320632509521e-07
2.610180371156468015e-07
2.256940035675365528e-07
1.861254189828730387e-07
1.530402993961836190e-07
1.310513561256665965e-07
1.110467099909334472e-07
8.234123522606844957e-08
5.880937568539949097e-08
4.741710840362510431e-08
3.246114549251738409e-08
2.460499610626864075e-08
1.738251666451559021e-08
1.251935960372263696e-08
9.130349330716235556e-09
6.733298070838243520e-09
5.047347304820226601e-09
3.848594135056327855e-09
2.984265163584566114e-09
2.340274749905300320e-09
1.844050622614227530e-09
1.450035724380442725e-09
1.129892490225695445e-09
8.671881733552085496e-10
6.522096983546437446e-10
4.787807662734608597e-10
3.422435664719602053e-10
