# bin_10_18
1.239012329756668514e-07
1.371102892697046386e-07
1.485188505796419767e-07
1.566075669496214047e-07
1.596576067044298017e-07
1.561708359701665367e-07
1.444072039177531566e-07
1.262634432011233835e-07
1.047429530980073254e-07
8.578395639308657174e-08
7.296867049912736314e-08
6.268052695004830520e-08
4.776650776039502119e-08
3.329110087876547712e-08
2.694315841660145467e-08
1.856931688607890679e-08
1.393849283202197343e-08
9.594001927242078791e-09
6.846443205291422652e-09
4.888505583552836543e-09
3.509266895751776631e-09
2.549343609754398041e-09
1.880408379881205225e-09
1.414188868526598167e-09
1.081700502587987214e-09
8.377030095634170508e-10
6.531152383723722258e-10
5.089314298093289546e-10
3.936351042874835344e-10
3.003427128960184622e-10
2.249699359837968128e-10
