# bin_15_20
5.277653519373746267e-08
5.941223196475497633e-08
6.571749163089888508e-08
7.112303807374968952e-08
7.489186380040395478e-08
7.620970944089823363e-08
7.432841954295562352e-08
6.847736786905944963e-08
5.965732227583350608e-08
4.936400737788685187e-08
4.047238348929469620e-08
3.455707074404768927e-08
2.960956604012497549e-08
2.227579481164346497e-08
1.555071758497035730e-08
1.264683575536663079e-08
8.512346339103277597e-09
6.428250503929464590e-09
4.370742581535257205e-09
3.045405820576044984e-09
2.134654669700151356e-09
1.496328835943013425e-09
1.055188145878452846e-09
7.528634465594053014e-10
5.476650758462696804e-10
4.062049651284380853e-10
3.067650026628539084e-10
2.350993629961294879e-10
1.816800316439686742e-10
1.405510390856552317e-10
1.080595765442857353e-10
