# bin_15_8
1.267510969437343983e-21
1.413225804940632765e-21
1.545010842482527022e-21
1.647984945596401585e-21
1.703560506509841314e-21
1.697413097948861675e-21
1.605746977608866648e-21
1.434443141490400456e-21
1.211051629484264739e-21
9.905364222605943832e-22
8.272202966024776350e-22
7.166568638322488477e-22
5.810923514288875926e-22
4.052673693958545343e-22
3.110284827516438363e-22
2.350530006352967076e-22
1.631188469569799915e-22
1.162403901212209678e-22
8.380121326369979284e-23
5.877468731877707048e-23
4.136392348427858252e-23
2.951824861778942572e-23
2.137675247761093920e-23
1.575594651572358241e-23
1.183917194201706792e-23
9.042109777937180308e-24
6.990134196646127568e-24
5.434528266231212489e-24
4.218264860109527807e-24
3.246307654129509144e-24
2.462560411529037765e-24
