# bin_6_7
4.863677658044126043e-08
5.225502078357955866e-08
5.455724506436024218e-08
5.501080001721369257e-08
5.296868482735134385e-08
4.816382784443379502e-08
4.141895926899454138e-08
3.406581039829119827e-08
2.807766310310716683e-08
2.412489146194273635e-08
2.029218387518385838e-08
1.483223095568866838e-08
1.072804803115213862e-08
8.610344048033638153e-09
5.868089660522234983e-09
4.448648270715106619e-09
3.165896740673542931e-09
2.276601821825365532e-09
1.663176070631860014e-09
1.230002420261610467e-09
9.252642568612349600e-10
7.080791815235108334e-10
5.507294550888667756e-10
4.327864295485646618e-10
3.413624175985327343e-10
2.683861337803804400e-10
2.088757367238528043e-10
1.599643684423604725e-10
1.199517558201626266e-10
8.773700099204126197e-11
6.246806055323811342e-11
