# bin_17_6
2.161610721005106684e-33
2.415612206880386047e-33
2.648226909508610757e-33
2.834489581257650775e-33
2.942990346069213747e-33
2.947522040643428205e-33
2.807954672891579939e-33
2.525286777257811745e-33
2.145344378689917119e-33
1.757936144706946230e-33
1.460816022200574152e-33
1.264706892032281247e-33
1.041646805383183284e-33
7.349007452993636803e-34
5.511780060294395957e-34
4.276896615780768831e-34
2.904848537326482835e-34
2.122493109257472020e-34
1.512077786961298695e-34
1.055701977032387305e-34
7.414589076759819958e-35
5.260419737242084557e-35
3.787555143580978790e-35
2.773379056403821399e-35
2.071147444264102489e-35
1.573596605488205267e-35
1.211970912880160717e-35
9.405931106126252941e-36
7.302404085055244081e-36
5.631131725532196534e-36
4.286455664566182173e-36
