# bin_18_3
8.657349966194135452e-61
9.673707880367147104e-61
1.060400277938850766e-60
1.134816994342969565e-60
1.178034098386873439e-60
1.179589677062241253e-60
1.123393941540447792e-60
1.010018578697022744e-60
8.578149800167558301e-61
7.028629681113711534e-61
5.842016362501309941e-61
5.058001299010986280e-61
4.163131804690001914e-61
2.935568349528541003e-61
2.203969214150851111e-61
1.708235684546694433e-61
1.161284161478550067e-61
8.475843909146197116e-62
6.041777822441856745e-62
4.219108954400920385e-62
2.963437046851858288e-62
2.103020337958865778e-62
1.514600629345624087e-62
1.109380210470830042e-62
8.287189192623636750e-63
6.297917009438000520e-63
4.851479645261783026e-63
3.765507719993639605e-63
2.923396644331408669e-63
2.254142558664812166e-63
1.715609576558580515e-63
