# bin_12_8
9.470509164674485927e-10
1.048840877445271559e-09
1.137190610211343723e-09
1.200513917008456556e-09
1.225456026660330367e-09
1.200845246617650183e-09
1.112520214232181825e-09
9.744011960635488314e-10
8.094848568680490647e-10
6.626638873336178552e-10
5.631619282476804921e-10
4.848656828958150744e-10
3.711254910853835509e-10
2.577760022317166249e-10
2.088758789900694247e-10
1.442581647349465375e-10
1.083240496724077772e-10
7.425270884332012266e-11
5.306242938140258449e-11
3.788212064860191342e-11
2.718974011559344393e-11
1.973319112169278216e-11
1.453734932771519579e-11
1.092058704374153768e-11
8.345390149610876480e-12
6.459083940368533350e-12
5.034919811101212956e-12
3.924317293360971300e-12
3.037100030376079110e-12
2.319365947064742454e-12
1.739259074412489996e-12
