# bin_19_11
2.268763425071906826e-17
2.557467255427308978e-17
2.833426517230428587e-17
3.072494776482397052e-17
3.243143419603543880e-17
3.309216131249592545e-17
3.240148409476758293e-17
2.998181324880775873e-17
2.622728261473142386e-17
2.176848705206837996e-17
1.782892356270899315e-17
1.518040686084015480e-17
1.306426925503099034e-17
9.942577075891608638e-18
6.897455729582716803e-18
5.602222270569942969e-18
3.810283130573731019e-18
2.863611381194581058e-18
1.934512297391111026e-18
1.354035462359704978e-18
9.476351918757345283e-19
6.631600841006220575e-19
4.661795930678648562e-19
3.312374224113877841e-19
2.398532005098661737e-19
1.771063824001921576e-19
1.332247919594048951e-19
1.018111195439386245e-19
7.856256446561865569e-20
6.077732372482628151e-20
4.678935959345440131e-20
