# bin_16_16
8.566643282591884971e-06
9.670465457001857062e-06
1.073210497726095886e-05
1.166188055416501522e-05
1.234152179047316359e-05
1.263101591250221682e-05
1.242040907708862285e-05
1.155176464905182663e-05
1.015550912465256950e-05
8.457241048506837340e-06
6.920469259109633633e-06
5.868058666550969914e-06
5.067044171881963076e-06
3.912873939532282134e-06
2.703399937007214508e-06
2.179202367717953638e-06
1.513403417480788600e-06
1.120405467882958929e-06
7.548909031173906124e-07
5.335585723550253128e-07
3.717721103077435115e-07
2.588561258006851594e-07
1.812577495909637537e-07
1.281638048585955417e-07
9.226954677647029773e-08
6.774014621337022982e-08
5.068903899180100628e-08
3.858031474069122267e-08
2.969896594224187140e-08
2.296212057934353934e-08
1.769744433276071705e-08
