# bin_11_2
8.574008754077969933e-33
9.329845289004245547e-33
9.897172554856414930e-33
1.016404688882801794e-32
1.004554875981988969e-32
9.406653544377830137e-33
8.324390150887619572e-33
6.969582309507306337e-33
5.698499464906896918e-33
4.796748113069169317e-33
4.148278409522483189e-33
3.278545754104854035e-33
2.276281062598505973e-33
1.802343556951996939e-33
1.312403533307253553e-33
9.525887297221274748e-34
6.680732954029370663e-34
4.890381252198902650e-34
3.520180568811558473e-34
2.554804356863555831e-34
1.886162823534075114e-34
1.415962240168556873e-34
1.082429890741900844e-34
8.400474478685883080e-35
6.580645947826223288e-35
5.170254956123396338e-35
4.045146717812050052e-35
3.130566306451553840e-35
2.382839463504958481e-35
1.775600433726993317e-35
1.290760393612640947e-35
