# bin_3_1
4.761086105718171527e-07
4.791411431993619673e-07
4.604371114300088897e-07
4.181327415567986857e-07
3.590876991105264035e-07
2.955698766402017613e-07
2.438357521466101676e-07
2.092692621594083616e-07
1.754923456323397693e-07
1.286858131614369110e-07
9.373317310981912048e-08
7.490919253920553815e-08
5.200313197588686615e-08
3.950065535792236463e-08
2.862498426682334389e-08
2.107654402894963495e-08
1.580055587021818531e-08
1.204518153634969228e-08
9.353539313355321640e-09
7.377800905794249000e-09
5.884557773846058550e-09
4.710522397594305583e-09
3.756271130597559994e-09
2.962924116783583555e-09
2.297023869911035141e-09
1.740998317314416536e-09
1.285201225906164414e-09
9.223792498409129460e-10
6.439119943792471665e-10
4.382172304766356122e-10
2.916851008532805309e-10
