# bin_20_16
2.933670508503092957e-08
3.325857284786590766e-08
3.710261708656009528e-08
4.057576067326280977e-08
4.328395195109897172e-08
4.473469178392399717e-08
4.455372291733158034e-08
4.210857022031598800e-08
3.758603632300540147e-08
3.169634269350566914e-08
2.593720133608691779e-08
2.170371766132812317e-08
1.881459678344547947e-08
1.519485362880918308e-08
1.055494510408005175e-08
8.141721645905774425e-09
6.086288612857548254e-09
4.220931915259391197e-09
2.952737474458853379e-09
2.106622839698907235e-09
1.448375275169217020e-09
9.915004272926548032e-10
6.847620276184135994e-10
4.769202874022159108e-10
3.367547568252740963e-10
2.423055536458826553e-10
1.778256883689799262e-10
1.331465061172625837e-10
1.013413278400348630e-10
7.794659200186337631e-11
6.013609127406110317e-11
