# bin_14_9
2.087801224335080669e-11
2.327211603309516442e-11
2.543380095907041818e-11
2.711711347962521689e-11
2.801520046024351135e-11
2.789348448039493594e-11
2.635982106434351706e-11
2.352782082455297984e-11
1.984271615235524037e-11
1.623487026893182850e-11
1.357581108730331914e-11
1.176266732918338443e-11
9.508687004153116570e-12
6.622399439099965025e-12
5.105874869439810587e-12
3.838114528837265292e-12
2.677172859027204607e-12
1.898931470537510755e-12
1.371348263882677645e-12
9.629126101081590710e-13
6.782623307107771070e-13
4.846472243565745246e-13
3.513962449452635650e-13
2.593527458351355918e-13
1.951236304561956825e-13
1.491802052155627766e-13
1.154120474285038681e-13
8.976102732587210266e-14
6.967229782705506799e-14
5.360087241895983086e-14
4.063585460262985339e-14
