# bin_20_11
5.166381195853141954e-20
5.832187715323570272e-20
6.472601798419343184e-20
7.033550792349188177e-20
7.443714093851364795e-20
7.618616690534632044e-20
7.492006944817182570e-20
6.968491918306418218e-20
6.126604732371966254e-20
5.102264277977843658e-20
4.175063062523048600e-20
3.539974307383375548e-20
3.056919022751738340e-20
2.361026866043723776e-20
1.631101924539317131e-20
1.314757116533277551e-20
9.132678930227450819e-21
6.760267517044538865e-21
4.554336236350765542e-21
3.219416707282826770e-21
2.243132018017930832e-21
1.561781563492381238e-21
1.093557151825562389e-21
7.731925930919651868e-22
5.566148621813488510e-22
4.086179166508181964e-22
3.057476822335381062e-22
2.327015410470894173e-22
1.791297020131041626e-22
1.384969104911167923e-22
1.067452776967878023e-22
