# bin_16_13
1.714170449967295629e-07
1.928170104797811750e-07
2.130773777470568417e-07
2.303296899375384792e-07
2.421680266664378368e-07
2.460089200121967620e-07
2.392977750978793232e-07
2.197872922125502474e-07
1.908205580141986776e-07
1.577141166265530794e-07
1.294537884378011426e-07
1.108329089294062473e-07
9.468157638036735557e-08
7.056548003766229203e-08
4.951314563076853946e-08
4.036623192809631952e-08
2.689639153270464568e-08
2.043425689604563367e-08
1.396187653406522981e-08
9.686761357519000809e-09
6.801439801147659721e-09
4.776486738726579300e-09
3.377137519397989012e-09
2.417656196826014655e-09
1.765286835066913406e-09
1.314028503470473274e-09
9.954960471971176307e-10
7.647032536853238845e-10
5.916963351310366214e-10
4.578168606798408226e-10
3.516764211232452998e-10
