# bin_7_6
6.319431843146753121e-06
6.839429192740639806e-06
7.206606797238628396e-06
7.342422743737904839e-06
7.177216304006199787e-06
6.632427751436351346e-06
5.794768101505302793e-06
4.807616736916108561e-06
3.937398930039648682e-06
3.349474365123414759e-06
2.875934422045409434e-06
2.191470456330569519e-06
1.531623921038860107e-06
1.242036144246195167e-06
8.607266587821816750e-07
6.503434891223300228e-07
4.531031091728565042e-07
3.278064984073328212e-07
2.382833099411261576e-07
1.748446208814135377e-07
1.302113867709675864e-07
9.860351718167257507e-08
7.601109487566362869e-08
5.936525771486301315e-08
4.668378017320856866e-08
3.671705625426682530e-08
2.867727093827555405e-08
2.210136066603417206e-08
1.671723051475645124e-08
1.235707027806078653e-08
8.899941052853687606e-09
