# bin_16_6
2.278106875078975109e-29
2.539838593381258065e-29
2.776425893367081449e-29
2.961069764103192497e-29
3.060298620527395290e-29
3.048418241031250392e-29
2.882565519328722368e-29
2.574352756919519639e-29
2.172271321425074966e-29
1.777434713885893326e-29
1.485580459526597571e-29
1.287196744482818711e-29
1.042149045548303737e-29
7.263218528998028403e-30
5.588600146784752695e-30
4.211783836320917718e-30
2.931020346900844191e-30
2.083503987295931303e-30
1.503686862824017375e-30
1.055353452154302942e-30
7.430843528843696555e-31
5.306811787219053203e-31
3.845802996144611124e-31
2.836820785873092665e-31
2.133158698425224386e-31
1.630185131059452835e-31
1.260809937463816602e-31
9.804697847619623344e-32
7.610758899525959868e-32
5.856345996928497740e-32
4.441232400330367908e-32
