# bin_19_15
2.113994974003569870e-08
2.392080290807210616e-08
2.662348355029108885e-08
2.903260901676468826e-08
3.086019616266042466e-08
3.175240893797531104e-08
3.144724276361417270e-08
2.950748238968433220e-08
2.615869220152644006e-08
2.192799972527025302e-08
1.793375115714353465e-08
1.509534674950416580e-08
1.307631375707151314e-08
1.035676604702914649e-08
7.150232413641269541e-09
5.644397043287079390e-09
4.083198787638157721e-09
2.917857429809422571e-09
1.991095088104900396e-09
1.424055200926982706e-09
9.844082361074397554e-10
6.781448963489064684e-10
4.714762557738001400e-10
3.306268372622847319e-10
2.355513473519584867e-10
1.710878201013855461e-10
1.267297108841538005e-10
9.565774190482336869e-11
7.323409961394719904e-11
5.649852297849122237e-11
4.359240925502936921e-11
