# bin_13_1
1.846111526026572690e-52
2.024580628440077307e-52
2.168665947031458295e-52
2.254646127945208170e-52
2.261985895040453082e-52
2.160820336504968149e-52
1.948682867758132306e-52
1.660371715134628532e-52
1.361609893231366026e-52
1.128513648475923038e-52
9.753215915265190519e-53
8.085737140390939343e-53
5.758722148569784197e-53
4.276016234600181815e-53
3.365343147360906847e-53
2.286684074836135390e-53
1.702833106961031542e-53
1.219570290545716890e-53
8.653278626469729039e-54
6.216445197355769577e-54
4.521050427243749252e-54
3.345879396744960715e-54
2.520421259937730870e-54
1.932723315022656867e-54
1.501428994830914438e-54
1.174839617280681550e-54
9.196821451333048744e-55
7.150988151602439045e-55
5.488568338480630338e-55
4.136630295894520388e-55
3.048910414055785822e-55
