# bin_17_15
1.735494706892880097e-06
1.959236738181325070e-06
2.174486444668544950e-06
2.363088648779442456e-06
2.501090394135481396e-06
2.560100433856735753e-06
2.517882788323909522e-06
2.342317833693642269e-06
2.059648252496706323e-06
1.715485615007759185e-06
1.403719566812304636e-06
1.190031420958470387e-06
1.027714671333064882e-06
7.941335114993706650e-07
5.485955759064828724e-07
4.420447424729193022e-07
3.072910414228040776e-07
2.273217591033187776e-07
1.531626903761731753e-07
1.083024730722782953e-07
7.544692080474559650e-08
5.251859239716900190e-08
3.676851668226699436e-08
2.599279959030681190e-08
1.870829902882665260e-08
1.373123736263775248e-08
1.027244185553790339e-08
7.817064619319614369e-09
6.016846459166177860e-09
4.651838216594946853e-09
3.585437426060268512e-09
