# bin_7_2
5.969137214890986827e-15
6.331294141834837239e-15
6.503483299697657145e-15
6.431056656004337306e-15
6.028331811255329693e-15
5.340726386339043435e-15
4.476872113261782984e-15
3.660717721687689483e-15
3.076232085423513303e-15
2.658591220427263882e-15
2.110829326554725084e-15
1.472578487639516199e-15
1.159775624200322118e-15
8.545799274388800310e-16
6.192849198887522503e-16
4.414000458684205602e-16
3.255929432709869383e-16
2.374357241298310526e-16
1.752150359959394536e-16
1.317496328989907965e-16
1.008340818659581954e-16
7.847049067731812447e-17
6.180691096159475949e-17
4.893922436807063135e-17
3.868372088574422516e-17
3.031168514884144810e-17
2.339508260314981541e-17
1.769078597501412407e-17
1.305208664648612806e-17
9.370535724697314408e-18
6.544077079329662390e-18
