# bin_19_18
6.067937350690614047e-06
6.883886899219756216e-06
7.686190416636470886e-06
8.414619009205709260e-06
8.988153632308676719e-06
9.305155284447579273e-06
9.286384073494454499e-06
8.800681658659182673e-06
7.875609469598048430e-06
6.657398318251591685e-06
5.449935896302752331e-06
4.550316241611369132e-06
3.944452491712436682e-06
3.207207517373792281e-06
2.236306086166127654e-06
1.708921758691733272e-06
1.292416481477033995e-06
8.873447907118372923e-07
6.276064559517686221e-07
4.460807478586745595e-07
3.061286153479992587e-07
2.092920614761260360e-07
1.441663001411603419e-07
1.001466790351111868e-07
7.047484339096829329e-08
5.052479089867011722e-08
3.694355778665616502e-08
2.756980170020556698e-08
2.093128398524063468e-08
1.607585834971106730e-08
1.239885403310453292e-08
