# bin_18_4
4.119440162589152810e-52
4.606174394256934560e-52
5.053331512029452457e-52
5.413560169530939318e-52
5.627217216193113812e-52
5.643310553181640419e-52
5.386095265300164836e-52
4.852426222674285809e-52
4.129698478328573730e-52
3.385617176616457411e-52
2.809603783494832975e-52
2.431263212669625234e-52
2.010294932881838834e-52
1.423653302216746784e-52
1.060901806818895551e-52
8.287567739729278579e-53
5.600540069626518701e-53
4.118614651570875741e-53
2.922946463856534952e-53
2.038279676014129352e-53
1.431246037652339290e-53
1.013868186061706842e-53
7.287821425950339365e-54
5.326238004132876475e-54
3.970388333462649507e-54
3.011834957199605601e-54
2.316961837006643575e-54
1.797033964029642712e-54
1.395067469341310994e-54
1.076289316333194266e-54
8.200168274060472681e-55
