# bin_15_3
2.100503138549498187e-45
2.327020992223061210e-45
2.524042741049385769e-45
2.665910618775680423e-45
2.722838062420965011e-45
2.670336552431921140e-45
2.476274744374225184e-45
2.170872962085037308e-45
1.804502572480887684e-45
1.476892910444261097e-45
1.254204391975552425e-45
1.080645198938312118e-45
8.293204363880124004e-46
5.754219089907300099e-46
4.657962284165382430e-46
3.227166697539949747e-46
2.418080263687994496e-46
1.656078651797246606e-46
1.185043876844844366e-46
8.454964384677217490e-47
6.064370738642008560e-47
4.398430379471225971e-47
3.237890759474800242e-47
2.430484980846946836e-47
1.856157125899821568e-47
1.435937444347566773e-47
1.119059012408547881e-47
8.722186476140791996e-48
6.751746922515466539e-48
5.158242295190184276e-48
3.870230158730651688e-48
