# bin_20_20
8.680857789763774961e-06
9.871248378471455552e-06
1.105491140501095171e-05
1.214719239409878657e-05
1.303476389856664156e-05
1.357454812615262993e-05
1.364015855744642679e-05
1.305114602434593625e-05
1.178471936440256210e-05
1.005181262995737510e-05
8.247012438942173803e-06
6.836000419615960029e-06
5.914936024766803814e-06
4.911293530853643961e-06
3.487735555336042949e-06
2.578633431192909220e-06
2.023216278132243369e-06
1.350708936414374508e-06
9.915371564815971556e-07
6.914324284023033387e-07
4.718112036080265181e-07
3.223469082367334582e-07
2.202002003801900078e-07
1.515495057130199553e-07
1.053754187741452690e-07
7.454934689877366284e-08
5.376094755630521377e-08
3.959950112059241189e-08
2.974917304202417926e-08
2.269235957135203989e-08
1.745666218783929382e-08
