# bin_9_4
1.187687941442160775e-13
1.287050219132791590e-13
1.358294657319815621e-13
1.386394398442569235e-13
1.358751730055353822e-13
1.259386659858071851e-13
1.103603276074074043e-13
9.172600265520765210e-14
7.506864171122762757e-14
6.371499652309472380e-14
5.484399220075208459e-14
4.213485384591787321e-14
2.934270585657193221e-14
2.372916607112868059e-14
1.658920452827902561e-14
1.245925384248267460e-14
8.662012855373430179e-15
6.285305923583327607e-15
4.561259016539457785e-15
3.340644612543703430e-15
2.483242298286562635e-15
1.876778035531140893e-15
1.444179352291328984e-15
1.126439372077402019e-15
8.851577172408749572e-16
6.961041701770138293e-16
5.439536134159265119e-16
4.196537904428109304e-16
3.178945449191098030e-16
2.354216142022231843e-16
1.699149635075870647e-16
