# bin_20_1
5.449358736365740010e-92
6.113910781431255431e-92
6.735309393354661257e-92
7.252671078023673717e-92
7.588562474041006171e-92
7.667339022672906296e-92
7.397565775072448483e-92
6.736174791285059918e-92
5.796356328991739811e-92
4.770855094215717228e-92
3.931822439366053253e-92
3.385375532321845687e-92
2.856748954275300909e-92
2.078147741585347940e-92
1.492031983606362763e-92
1.204025453021188567e-92
7.983245395675824049e-93
6.038631920441866601e-93
4.192987274171658653e-93
2.907138782257147259e-93
2.041565996781071094e-93
1.436652366731470088e-93
1.022841202584016844e-93
7.389284636217920625e-94
5.446334531873291097e-94
4.089901025753028027e-94
3.121430706292208480e-94
2.409663225934401017e-94
1.868443916176753726e-94
1.444611411703145804e-94
1.106101506039612853e-94
