# bin_13_7
1.012537489659499214e-14
1.121837895226728886e-14
1.216983028064331522e-14
1.285626473099271234e-14
1.313363274199103196e-14
1.288575585441163176e-14
1.195533565082633093e-14
1.048760554230230165e-14
8.716527216943572787e-15
7.131515579412885907e-15
6.051320047748396796e-15
5.215910252797109018e-15
4.010708441928401574e-15
2.780178205943338481e-15
2.247694539496223976e-15
1.561551516375430290e-15
1.167241554337312591e-15
7.991006482474216376e-16
5.723940831888247369e-16
4.080733627183180726e-16
2.924419149920916452e-16
2.119611366297658137e-16
1.559176439356473528e-16
1.169459247777617619e-16
8.925072171397100812e-17
6.900836896997047037e-17
5.376162552733467562e-17
4.189759753878593189e-17
3.243451616915279320e-17
2.478517697779250251e-17
1.860311330781687849e-17
