# bin_15_9
1.261391437098534586e-13
1.408713271797814045e-13
1.543180407600789854e-13
1.650171193999489020e-13
1.711327805557174224e-13
1.711649444267329240e-13
1.627661318152468189e-13
1.461102882657795014e-13
1.239592898864743562e-13
1.014720744834160337e-13
8.439594177621400465e-14
7.307907792586584804e-14
5.997639039834127820e-14
4.218081532993046646e-14
3.179727372492482017e-14
2.452925658569224552e-14
1.673131998174620109e-14
1.215587717486825741e-14
8.685865054096278752e-15
6.069890841732031244e-15
4.264021086513238758e-15
3.029100914572327431e-15
2.183919283545544734e-15
1.601595756490749706e-15
1.197818239335735068e-15
9.112160099511320118e-16
7.024516969853057259e-16
5.454060467720648374e-16
4.234174269152711572e-16
3.263559345622156100e-16
2.482165680546045624e-16
