# bin_16_4
1.786135382539761211e-42
1.986613688965943245e-42
2.165367252457259104e-42
2.301069746154361252e-42
2.367502802273434271e-42
2.345221315831433156e-42
2.201739717300193097e-42
1.952915389388374344e-42
1.637840572783478163e-42
1.338842850448491771e-42
1.125048477540631798e-42
9.741661301421285148e-43
7.743930382968427560e-43
5.360643565496431651e-43
4.216914918323453797e-43
3.083889402268907036e-43
2.204987497529539602e-43
1.532036542003545119e-43
1.110576051299603734e-43
7.835393329944365498e-44
5.545794573762791526e-44
3.983807171599634791e-44
2.903199214330560983e-44
2.155191267071168812e-44
1.629987145113325589e-44
1.251511455878593850e-44
9.709341771230971553e-45
7.559117675603254328e-45
5.863297391382691661e-45
4.500812730894488842e-45
3.400472571279571169e-45
