# bin_19_3
6.726846085637305585e-66
7.533918343325566986e-66
8.281897992049725298e-66
8.894604346995008560e-66
9.275793356661503035e-66
9.336932015355472405e-66
8.959919759110590276e-66
8.113671288092708784e-66
6.946306211234909275e-66
5.700264235985760172e-66
4.710921987952773509e-66
4.067202983557508950e-66
3.400193549005221872e-66
2.438979579052307138e-66
1.781574684895384057e-66
1.418037499032141488e-66
9.460649288395318591e-67
7.077843781400797609e-67
4.963977990436687026e-67
3.449648837433936227e-67
2.421902870313039776e-67
1.708684770674360793e-67
1.222060198843342845e-67
8.878705819058319478e-68
6.580984282058918629e-68
4.967240919204581633e-68
3.806532898411634248e-68
2.945907466933176508e-68
2.285987805474912858e-68
1.765810607114347107e-68
1.348862791298027773e-68
