# bin_7_1
5.507625695405873520e-20
5.808252856450212019e-20
5.925457936803254592e-20
5.805510884559043279e-20
5.381059700605031591e-20
4.716749613961466678e-20
3.920231400191382328e-20
3.207479945413266201e-20
2.718589475606797439e-20
2.337959755824317165e-20
1.801957481047595127e-20
1.259120100055716362e-20
1.014474483598150425e-20
7.174565969603587298e-21
5.377009809326200395e-21
3.790306894961761586e-21
2.782137463202213962e-21
2.045203411923072970e-21
1.521748484164563477e-21
1.152055771526855059e-21
8.871915885246099108e-22
6.942192000115584615e-22
5.487875853031935379e-22
4.352249167021461992e-22
3.438435919358397160e-22
2.687429572548182937e-22
2.065293747029283880e-22
1.552672308249304785e-22
1.137639942377064874e-22
8.107549652585667282e-23
5.621574136927924593e-23
