# bin_8_7
6.012372294982360755e-06
6.558077510475460655e-06
6.977807814008242580e-06
7.192911082957625334e-06
7.143572925809263356e-06
6.731152304923514747e-06
5.991531969272208827e-06
5.042252455550073355e-06
4.122378455101112863e-06
3.450904919095924808e-06
2.986895576755636171e-06
2.400941988914546148e-06
1.673935606186794655e-06
1.299765775151616010e-06
9.725210560224960784e-07
6.886956484859143818e-07
4.913005179731316236e-07
3.588691427486033723e-07
2.569590061670051321e-07
1.855454654233599884e-07
1.363157405230560246e-07
1.018776349796373480e-07
7.752629716560724389e-08
5.994922971983929017e-08
4.684873700665320263e-08
3.676932299576612926e-08
2.877904978137302599e-08
2.230922167140449955e-08
1.702790860510455074e-08
1.273577751905310707e-08
9.299459635804486693e-09
