# bin_19_1
1.291037628863712396e-86
1.444781663945925735e-86
1.586673276048539290e-86
1.701995110517841905e-86
1.772191601447856450e-86
1.780733035763841239e-86
1.704488607939968343e-86
1.539655641823266280e-86
1.314727050147848855e-86
1.077993574725254206e-86
8.923820023263684584e-87
7.712835963072174628e-87
6.416593155350927360e-87
4.574741569227514984e-87
3.371215490923460193e-87
2.661712869534030251e-87
1.784880913480762246e-87
1.325718832526496946e-87
9.346297326853647094e-88
6.504546263496552183e-88
4.566567330635111432e-88
3.227289252173932833e-88
2.313390759605520544e-88
1.685283045784925746e-88
1.252410367765603388e-88
9.474930946797218447e-89
7.273955542067556488e-89
5.635203622987163404e-89
4.373826886167916262e-89
3.376718466259400137e-89
2.576348883891475280e-89
