# bin_18_12
2.574029499390347091e-12
2.900002366024427478e-12
3.210857408890785647e-12
3.479071622664906861e-12
3.668833120386771330e-12
3.739506724381614854e-12
3.656134725744817166e-12
3.377390973811455932e-12
2.950239162464977382e-12
2.444720510601293338e-12
2.002528560159847410e-12
1.706623609305647707e-12
1.466779597912882665e-12
1.111589230534797017e-12
7.721363243826097166e-13
6.280029180810583909e-13
4.249171581075840072e-13
3.202946270314240004e-13
2.167284054157847074e-13
1.513090282328161648e-13
1.059952744967809978e-13
7.424620534133895964e-14
5.224914909638267830e-14
3.717679175804082534e-14
2.696338673323115564e-14
1.994135056560051918e-14
1.502189632246933153e-14
1.149197351874352109e-14
8.872894754582405073e-15
6.864603828095697329e-15
5.282442209401489950e-15
