# bin_6_3
6.899626692573327479e-09
7.308031337737686062e-09
7.494626197008744741e-09
7.395168527335582260e-09
6.914427494323184883e-09
6.111134791965636120e-09
5.112979930029343153e-09
4.180745796576465261e-09
3.518806058140594346e-09
3.036905226684178334e-09
2.396411993434680937e-09
1.673440855580657987e-09
1.322585052057244251e-09
9.667548009894648420e-10
7.047738235475828410e-10
5.021278176576593314e-10
3.695679439992079217e-10
2.699167646311344677e-10
1.995189894006551701e-10
1.502104101871662427e-10
1.150983250892965813e-10
8.966231138569866786e-11
7.066759615917248637e-11
5.596769515105568031e-11
4.422996521897405434e-11
3.463595212570248765e-11
2.670652024100057556e-11
2.016924982863592632e-11
1.485887614193934787e-11
1.065149229795087692e-11
7.427903879899002725e-12
