# bin_16_2
1.271063219125721688e-59
1.411098048424441920e-59
1.534552645023010978e-59
1.626085666149560019e-59
1.667222588471106402e-59
1.643984326581835012e-59
1.534598921690866339e-59
1.353930626868277182e-59
1.130306558630600464e-59
9.241015169234180050e-60
7.802093499857801082e-60
6.745274782813224308e-60
5.277022771997431712e-60
3.648572023633862315e-60
2.914364884016179703e-60
2.077559339935210269e-60
1.520206353753213208e-60
1.044091680116239019e-60
7.542083250739976695e-61
5.347745861974971519e-61
3.808014455890036643e-61
2.747792854696389266e-61
2.011571890122293348e-61
1.500945789531538167e-61
1.140331990881849194e-61
8.786784601574820093e-62
6.831946149150513491e-62
5.322377378358710239e-62
4.124922840560473048e-62
3.159705504915810016e-62
2.379756076494298690e-62
