# bin_17_16
-4.396909225791503490e-11
-4.956728185353319482e-11
-5.492014928608272658e-11
-5.956083525635244476e-11
-6.287927890173289249e-11
-6.417373886179243029e-11
-6.285880396156452069e-11
-5.819528082230919648e-11
-5.094314832548660325e-11
-4.227822251458284502e-11
-3.461733438516314407e-11
-2.944848226884510683e-11
-2.534741021093314610e-11
-1.933315832828830085e-11
-1.340507543110225219e-11
-1.086611634092334963e-11
-7.421145013982711642e-12
-5.556666200113243992e-12
-3.754718665340625884e-12
-2.633120750432665565e-12
-1.840823173016393468e-12
-1.286564168617863457e-12
-9.038174143881519312e-13
-6.417061325433437269e-13
-4.642314434323293812e-13
-3.424703573778560270e-13
-2.573966688914507013e-13
-1.965684289567906307e-13
-1.516123315659108025e-13
-1.172664435701063982e-13
-9.028230054176640518e-14
