# bin_6_14
-2.861948735198967420e-29
-3.171992267344433384e-29
-3.442487753853902014e-29
-3.638597239128377113e-29
-3.719416326242527280e-29
-3.652418096975353143e-29
-3.392249832576511542e-29
-2.978754389905107309e-29
-2.477527501431557670e-29
-2.026674562957544630e-29
-1.718231848867567724e-29
-1.481967564097831419e-29
-1.142925727912681949e-29
-7.916820704034043866e-30
-6.389543777680425518e-30
-4.457699675153137237e-30
-3.321255153920983259e-30
-2.273427552214075926e-30
-1.631103258634616547e-30
-1.161807556122734109e-30
-8.317568003457989254e-31
-6.024060275054477982e-31
-4.427605951342010704e-31
-3.318014222126211064e-31
-2.530336602332916138e-31
-1.955347092811031385e-31
-1.522859098110863601e-31
-1.186753336156920595e-31
-9.189070335296127903e-32
-7.024921276155787330e-32
-5.275883034042890304e-32
