# bin_7_6
-2.126189238247301581e-10
-2.281988805435176822e-10
-2.379387508284452393e-10
-2.395566969271993148e-10
-2.301620040829446861e-10
-2.088192932895671183e-10
-1.791718427779638867e-10
-1.472312024347574454e-10
-1.215009100684695286e-10
-1.045149791658136865e-10
-8.758777477561073437e-11
-6.367296914344358690e-11
-4.634778796670292650e-11
-3.704421423999767727e-11
-2.527334793042187160e-11
-1.911095577390516100e-11
-1.364974494421435224e-11
-9.817647680836946422e-12
-7.175620819415568122e-12
-5.312624795686997466e-12
-4.002166998460164904e-12
-3.067267833234752707e-12
-2.388479671587718567e-12
-1.878428006948479674e-12
-1.482103864251800036e-12
-1.165093289579554593e-12
-9.062280114016264571e-13
-6.933558756639385864e-13
-5.192602539958549769e-13
-3.792280871217087048e-13
-2.695678138111619299e-13
