# bin_20_20
-1.333429743719940908e-11
-1.514199289293465199e-11
-1.692797034159850061e-11
-1.856095718592215672e-11
-1.986481943121523059e-11
-2.061810144368724190e-11
-2.063818927246632167e-11
-1.964169949774322341e-11
-1.764388194403146219e-11
-1.497824247379646232e-11
-1.226471531290925002e-11
-1.020128893787210106e-11
-8.836876243803548088e-12
-7.257756708382616903e-12
-5.099898608848469060e-12
-3.835857203309734791e-12
-2.953181823033304975e-12
-1.998264649691461094e-12
-1.439145968400561708e-12
-1.013998834688410530e-12
-6.938291358675247198e-13
-4.739519366584598699e-13
-3.251113343353415545e-13
-2.248493990575400037e-13
-1.573394863075065315e-13
-1.121080530634151068e-13
-8.145651185272562412e-14
-6.043248242164127774e-14
-4.566821798750409138e-14
-3.497206136088588083e-14
-2.694628743475729428e-14
