# bin_20_19
-3.237807219221950770e-11
-3.672186167674287577e-11
-4.098848338894746044e-11
-4.485588438295290923e-11
-4.789150549669332813e-11
-4.955393889038077013e-11
-4.942246189079325209e-11
-4.680202621222516327e-11
-4.184685592623294799e-11
-3.535844656565015812e-11
-2.892985863948546622e-11
-2.415777267934229260e-11
-2.093703119386533412e-11
-1.699747913185419696e-11
-1.184532889912725634e-11
-9.063757332248194972e-12
-6.839099993661870536e-12
-4.704097218792972931e-12
-3.321195400183234031e-12
-2.360501128884817933e-12
-1.620246109608168163e-12
-1.108174459381223001e-12
-7.636331665518459388e-13
-5.306788464158370678e-13
-3.736533507461002956e-13
-2.680431759117597817e-13
-1.961147100925883466e-13
-1.464333202130632486e-13
-1.112158633126943640e-13
-8.543117105388463269e-14
-6.588657311081348982e-14
