# bin_16_16
-1.853272185919412430e-11
-2.088082569086787266e-11
-2.312057790820640475e-11
-2.505395551379820528e-11
-2.642317340296020873e-11
-2.693572743292010664e-11
-2.633970077828143416e-11
-2.433752124308493709e-11
-2.126420120819586191e-11
-1.762460685776969594e-11
-1.443697236100839522e-11
-1.230060497036005148e-11
-1.057177164700280035e-11
-8.018135578303637261e-12
-5.570602771202270524e-12
-4.526405413265025818e-12
-3.068604739557488160e-12
-2.309243255854719572e-12
-1.562929842156614261e-12
-1.092315642813898365e-12
-7.647951352271338112e-13
-5.354186328330522100e-13
-3.767139251419076316e-13
-2.679840647840222829e-13
-1.943053530083732391e-13
-1.436601872037351439e-13
-1.081894694062441103e-13
-8.274732106212289446e-14
-6.387849125011241597e-14
-4.941640640346701460e-14
-3.802715000024517033e-14
