# bin_16_17
-4.597932356534230977e-12
-5.189011994409550987e-12
-5.756886967346912038e-12
-6.253349934841511558e-12
-6.614927404069484337e-12
-6.766722193042031465e-12
-6.649870977847523189e-12
-6.180477276461467368e-12
-5.430386324969283797e-12
-4.518407054252440859e-12
-3.696912864740149979e-12
-3.135141789749064231e-12
-2.705896539330555978e-12
-2.086654212563323955e-12
-1.441898928133230238e-12
-1.162649720716297918e-12
-8.060650416311443311e-13
-5.971740004020459828e-13
-4.025752537090266441e-13
-2.842745814426895411e-13
-1.981146199140989062e-13
-1.379709469859974833e-13
-9.663415669601100197e-14
-6.835195269930472856e-14
-4.922902802237798996e-14
-3.615703414958675658e-14
-2.706617422456520058e-14
-2.060619147431219711e-14
-1.586458568469006452e-14
-1.226548767360699320e-14
-9.451553313243612746e-15
