# bin_6_16
-5.753642496226533375e-37
-6.410677221313318706e-37
-7.002567644385172473e-37
-7.461421053768975799e-37
-7.702711417840055054e-37
-7.662466266897859626e-37
-7.233001658076884747e-37
-6.448333090561840840e-37
-5.433465512067320386e-37
-4.443013842998649050e-37
-3.716952392950925845e-37
-3.220188187210916416e-37
-2.597033417526686922e-37
-1.806186369421916769e-37
-1.396385451577151732e-37
-1.045794927545778191e-37
-7.315891838616086000e-38
-5.172327699849062577e-38
-3.739071633159609673e-38
-2.626637437989828217e-38
-1.850823866747915648e-38
-1.323334410593516949e-38
-9.600849179970002173e-39
-7.091027635403163507e-39
-5.338378299089139084e-39
-4.083562786064220768e-39
-3.160263583944856357e-39
-2.458103654234234465e-39
-1.907696796545160972e-39
-1.467121541705264965e-39
-1.111668472133509215e-39
