# bin_7_2
-1.923194517933459357e-09
-1.925684722360831627e-09
-1.838930474614249619e-09
-1.660576498440627222e-09
-1.419642289631078209e-09
-1.167736711343956083e-09
-9.674694685483675976e-10
-8.294119524297006028e-10
-6.860847481712514591e-10
-5.013494045499369918e-10
-3.709541926427882365e-10
-2.902293649206148086e-10
-2.052080958295435319e-10
-1.536173953726069551e-10
-1.119744825292641006e-10
-8.279208872838913562e-11
-6.218081099169489506e-11
-4.752311649030758908e-11
-3.699031930423285752e-11
-2.923040614469341892e-11
-2.333335112356977561e-11
-1.867520765700181712e-11
-1.487575997669658662e-11
-1.171124875750516589e-11
-9.055788964881539352e-12
-6.843050864438442534e-12
-5.035875821687838932e-12
-3.603726194816883718e-12
-2.509444389526262483e-12
-1.704305301279136214e-12
-1.132558815278780279e-12
