# bin_5_7
-3.576632830584638914e-13
-3.843500093184905268e-13
-4.013865273876194095e-13
-4.048435564109978549e-13
-3.899549061932880189e-13
-3.546584887719864459e-13
-3.050543309250612753e-13
-2.508510703045597410e-13
-2.066678907546688772e-13
-1.776157317364395677e-13
-1.495713248933474398e-13
-1.092925139081939921e-13
-7.890267943452493352e-14
-6.353915591928895271e-14
-4.312886804054623589e-14
-3.281059780755533181e-14
-2.333829271404569952e-14
-1.676181683188340113e-14
-1.224753647417010183e-14
-9.056309359603886067e-15
-6.811730415135742329e-15
-5.212312494972406465e-15
-4.053949392792709250e-15
-3.185857411308256131e-15
-2.513061609724690268e-15
-1.976070715413518570e-15
-1.538150727386204077e-15
-1.178185064052249711e-15
-8.836474979733943726e-16
-6.464413549085735466e-16
-4.603179168379206126e-16
