# bin_11_7
-5.102335778914826304e-10
-5.536768578555935778e-10
-5.853424335192801753e-10
-5.987457712707219927e-10
-5.885503182396882894e-10
-5.476113567163504213e-10
-4.817008222812306783e-10
-4.014895338690208391e-10
-3.284914802743739958e-10
-2.777715935496921190e-10
-2.392943686106926050e-10
-1.860009671674943804e-10
-1.296601429406043282e-10
-1.036037093450667791e-10
-7.385308126691412020e-11
-5.450101558025183576e-11
-3.819025653853413985e-11
-2.777783791086019553e-11
-2.007851114998478611e-11
-1.464422402287955025e-11
-1.085296359184193110e-11
-8.179399735101092934e-12
-6.276220134781647993e-12
-4.884564424273594128e-12
-3.832751971860995917e-12
-3.012361321169437915e-12
-2.354615938995696023e-12
-1.818496644288997084e-12
-1.379975651572755552e-12
-1.024394252949621728e-12
-7.414715560855785265e-13
