# bin_5_10
-4.419002499677219028e-20
-4.819775732839493140e-20
-5.127830456051722625e-20
-5.285318615968163328e-20
-5.248415307269273333e-20
-4.944491862198071937e-20
-4.400409636413971426e-20
-3.702487062826081943e-20
-3.026874719460414304e-20
-2.534227031015387377e-20
-2.193599781124812913e-20
-1.762554286370992332e-20
-1.228247677237982113e-20
-9.544507184060098593e-21
-7.136192092679863814e-21
-5.056420440053924185e-21
-3.603857097188458900e-21
-2.634025339434816599e-21
-1.886245453044518148e-21
-1.362000207948773993e-21
-1.000782984874998100e-21
-7.480485422392903337e-22
-5.693213780066784093e-22
-4.402907124045915322e-22
-3.441025456173709876e-22
-2.700809835364930841e-22
-2.113905213127304108e-22
-1.638618327516912808e-22
-1.250617009282066803e-22
-9.352881695060076968e-23
-6.828461879383815055e-23
