# bin_2_17
-7.115653033772031891e-73
-7.919202363826619052e-73
-8.638298623164880865e-73
-9.188319091352475430e-73
-9.464702364676345072e-73
-9.389637774436876735e-73
-8.832033806173949860e-73
-7.847892706575047098e-73
-6.592398425809002036e-73
-5.389311131967762562e-73
-4.521631292400901831e-73
-3.916274631277667482e-73
-3.129290281590267418e-73
-2.169049353616263855e-73
-1.696253727158764254e-73
-1.251045216847989327e-73
-8.875321238217803442e-74
-6.201470486718333348e-74
-4.493793926030537056e-74
-3.165549239778787601e-74
-2.236650126878412113e-74
-1.604115383276187619e-74
-1.167188250757234427e-74
-8.649346700998275287e-75
-6.531193004158412965e-75
-5.008283820902279806e-75
-3.882252421137969918e-75
-3.021599453904529875e-75
-2.344237329290350850e-75
-1.800695353939685628e-75
-1.361864682031478129e-75
