# bin_15_12
-1.777246394813298623e-10
-1.981453634618165393e-10
-2.166089608197437511e-10
-2.310290799059598408e-10
-2.388065158970261522e-10
-2.379123891433577010e-10
-2.250530823054615632e-10
-2.010410602115278695e-10
-1.697573555752440116e-10
-1.388745865759403265e-10
-1.159854338299166790e-10
-1.004436343475804485e-10
-8.139963308066919898e-11
-5.685657314254972532e-11
-4.360784693436663991e-11
-3.293808768562596228e-11
-2.288308170013080888e-11
-1.632311936655204971e-11
-1.174176472299899168e-11
-8.236179435763250928e-12
-5.801131364033793511e-12
-4.139681983761871376e-12
-2.997643601468772467e-12
-2.209282917249861432e-12
-1.659916103824378513e-12
-1.267602661621470468e-12
-9.797965024424639397e-13
-7.616334870913297127e-13
-5.910930170728640293e-13
-4.548405691321757534e-13
-3.449979774055599028e-13
