# bin_8_1
-2.973432494853677734e-09
-2.859339628012679944e-09
-2.603313298662493199e-09
-2.244751951876201893e-09
-1.855958813976890972e-09
-1.532971094171831681e-09
-1.306317818702050326e-09
-1.091041617528368787e-09
-8.166324934467986737e-10
-5.965018060202748985e-10
-4.670050703211924569e-10
-3.356190673731152065e-10
-2.501904366132102982e-10
-1.830845379452548850e-10
-1.364025362520176397e-10
-1.029806456766051712e-10
-7.916705145014228681e-11
-6.199828715783283892e-11
-4.927861094871797782e-11
-3.953680869968913144e-11
-3.177831900673467642e-11
-2.539624176046833036e-11
-2.004010941808008527e-11
-1.551897955858227262e-11
-1.173678802486723204e-11
-8.641209587551024539e-12
-6.186907115069527004e-12
-4.311356045132524409e-12
-2.931174455230790567e-12
-1.950392821338402369e-12
-1.274416875041711985e-12
