# bin_10_20
-1.531297646718978051e-31
-1.726386879716822612e-31
-1.912980362108416698e-31
-2.074831949864305689e-31
-2.190701519009443678e-31
-2.236062313150981585e-31
-2.190682369912518580e-31
-2.028508963515955052e-31
-1.776064212740626502e-31
-1.473977187947496556e-31
-1.206727660633182729e-31
-1.026489482968242063e-31
-8.839308858649545600e-32
-6.744175396005999192e-32
-4.672429760728376219e-32
-3.790314021509799533e-32
-2.586692509724518016e-32
-1.939073684390199324e-32
-1.308568506548854220e-32
-9.173375877556777004e-33
-6.415106734582448135e-33
-4.485406252343108379e-33
-3.150671486756552029e-33
-2.236517780020343378e-33
-1.617700607727557166e-33
-1.193223016919713530e-33
-8.967115309399740943e-34
-6.847662055882020639e-34
-5.281671020382753527e-34
-4.085511530263657900e-34
-3.145804363464586839e-34
