# bin_17_17
-1.694343551972836522e-11
-1.913429967681924237e-11
-2.124530730840601914e-11
-2.310016646477742380e-11
-2.446575862700249497e-11
-2.506363000094398464e-11
-2.468024553273475045e-11
-2.299422979339627319e-11
-2.024980787680864748e-11
-1.687929285575501348e-11
-1.380633475123783955e-11
-1.168454840673333966e-11
-1.009685636434112651e-11
-7.841183161862952713e-12
-5.412835777195931246e-12
-4.343461356487672182e-12
-3.044480931512168090e-12
-2.235544605883249218e-12
-1.509007589534549338e-12
-1.070147009080843416e-12
-7.440896690115219795e-13
-5.167115714509510139e-13
-3.612047104702293969e-13
-2.549007948314035556e-13
-1.830651565176211023e-13
-1.340691235848448304e-13
-1.000924651485470875e-13
-7.604088657722636345e-14
-5.846479419820086624e-14
-4.518087792761968580e-14
-3.483000408575338426e-14
