# bin_5_4
-3.506212417469470520e-10
-3.662546344417725839e-10
-3.696191437525504538e-10
-3.565255601136761533e-10
-3.249552336554755622e-10
-2.801704245046478598e-10
-2.308382380339239744e-10
-1.900896571870640153e-10
-1.628542690311965877e-10
-1.372698313456048688e-10
-1.014050733396411426e-10
-7.314064973178375829e-11
-5.860927159924982276e-11
-4.055642963957663782e-11
-3.070400854282497410e-11
-2.198807368496952984e-11
-1.604078720962157662e-11
-1.187059783390309385e-11
-8.912416027481891846e-12
-6.811949143877223831e-12
-5.294012738531216688e-12
-4.172192511101189574e-12
-3.311961321985676212e-12
-2.629291992142883124e-12
-2.072845213070272027e-12
-1.611972582755116842e-12
-1.229513359709330105e-12
-9.156282012735485343e-13
-6.637438157125187163e-13
-4.679602811115014888e-13
-3.212471743199120875e-13
