# bin_13_10
-2.403337987587461192e-10
-2.657075570163901293e-10
-2.874857577152044045e-10
-3.027078842941187758e-10
-3.080939939187218900e-10
-3.006479357460230216e-10
-2.772377731661809382e-10
-2.417572904741260461e-10
-2.002021848427083805e-10
-1.640737715053496012e-10
-1.398568295921439564e-10
-1.198599484230149526e-10
-9.063843541994879639e-11
-6.338250623505156937e-11
-5.142663274580153507e-11
-3.514679747748679876e-11
-2.653508737721152056e-11
-1.829736963715815934e-11
-1.301876004355960303e-11
-9.311207436013594405e-12
-6.697235889245618770e-12
-4.874916341585319735e-12
-3.603812030263257873e-12
-2.716435143600232153e-12
-2.081729644491549095e-12
-1.614384353942257497e-12
-1.259546493415509865e-12
-9.814859207433519550e-13
-7.586491812968100574e-13
-5.781655182362997231e-13
-4.323698552028044121e-13
