# bin_4_5
-1.126837992245069847e-11
-1.186623235122166797e-11
-1.208596526412751394e-11
-1.181323094969420316e-11
-1.092117774020915022e-11
-9.548997307449119935e-12
-7.925008751255970019e-12
-6.489650244895970950e-12
-5.510509002755111167e-12
-4.726401452121840817e-12
-3.618494489003736431e-12
-2.539144242715352806e-12
-2.046740891484987361e-12
-1.440125998210446400e-12
-1.082707746769786857e-12
-7.650356556549827485e-13
-5.605151637344335290e-13
-4.125011763803436936e-13
-3.073654634461930789e-13
-2.330207705185451078e-13
-1.796959434419619968e-13
-1.407670827872834588e-13
-1.113527588677643086e-13
-8.832738562201183642e-14
-6.976205278807278318e-14
-5.448505340299287270e-14
-4.182521010251397138e-14
-3.139940407117306678e-14
-2.296930695332391814e-14
-1.634283490443039476e-14
-1.131464402633562242e-14
