# bin_11_13
-5.657016733114943106e-13
-6.304783472544610385e-13
-6.889270416030231182e-13
-7.343871514460198890e-13
-7.585604991766962279e-13
-7.550960120282607787e-13
-7.134252817961725786e-13
-6.365757440831895689e-13
-5.368563388922253491e-13
-4.390593010303321108e-13
-3.670383045431753098e-13
-3.179567621614700632e-13
-2.569896321865364116e-13
-1.790094511612918292e-13
-1.379352998603554426e-13
-1.036944668201900192e-13
-7.230568125651874550e-14
-5.131236507778477258e-14
-3.702799986934559551e-14
-2.599431972762695964e-14
-1.831044476974405893e-14
-1.308072846133227340e-14
-9.482537688010718489e-15
-6.997340723356245889e-15
-5.263466421267826646e-15
-4.023456439247194728e-15
-3.112215267992016075e-15
-2.420173347851674022e-15
-1.878317459835007951e-15
-1.444914356600388988e-15
-1.095345560314208772e-15
