# bin_8_5
-6.375230702878582465e-10
-6.775708963659150985e-10
-6.978573818170323099e-10
-6.923127061488467662e-10
-6.519484183758289032e-10
-5.801423051595999033e-10
-4.885138604906028184e-10
-3.997362397563099112e-10
-3.345477543715975325e-10
-2.887893483131931242e-10
-2.319400463084674021e-10
-1.632490546498479414e-10
-1.262101199352979981e-10
-9.484243611264510971e-11
-6.758331338646881866e-11
-4.899969044935815253e-11
-3.585997437272437608e-11
-2.605572212989787210e-11
-1.918372304767555858e-11
-1.437350499483580496e-11
-1.096491426029866520e-11
-8.506531302033482220e-12
-6.684722893205930100e-12
-5.285727566288469174e-12
-4.176382762689264418e-12
-3.274428243301909446e-12
-2.530987769033046450e-12
-1.918257514798560565e-12
-1.419485130045872475e-12
-1.022621302488615971e-12
-7.167493483763212775e-13
