# bin_2_8
-6.039393571370159287e-26
-6.443260443751429086e-26
-6.667104083719551778e-26
-6.653477201571890137e-26
-6.312255489365046139e-26
-5.655635076836473362e-26
-4.790823467285249084e-26
-3.920521723707132257e-26
-3.262250129618695166e-26
-2.820248889086855539e-26
-2.306915265321086037e-26
-1.629476146950380230e-26
-1.235882136131050213e-26
-9.544153485523156341e-27
-6.642199333351087747e-27
-4.891121371508373297e-27
-3.571101871275301350e-27
-2.581112649190063622e-27
-1.891343473651462030e-27
-1.410285567819447082e-27
-1.071292588966569267e-27
-8.278600633607466364e-28
-6.487869888738634881e-28
-5.122992034312798926e-28
-4.047956336192729262e-28
-3.178285307294045890e-28
-2.463161964082858684e-28
-1.873722878274549320e-28
-1.392699872464848438e-28
-1.008143539182464530e-28
-7.099332960765147237e-29
