# bin_17_19
-7.295075150275544322e-13
-8.260914282580223792e-13
-9.202851527219405334e-13
-1.004724062517566185e-12
-1.069537621938818363e-12
-1.102495105226100045e-12
-1.094528737355666940e-12
-1.030204053874874374e-12
-9.159046570921985319e-13
-7.696868281354795177e-13
-6.293643469519419750e-13
-5.281662958759943682e-13
-4.576909285771686814e-13
-3.658183101696907350e-13
-2.530491417487970848e-13
-1.976508477851776706e-13
-1.452166276157219347e-13
-1.022617826531446619e-13
-7.052563668514987343e-14
-5.044356203260763496e-14
-3.477207158195698319e-14
-2.387126324992687092e-14
-1.654435837377021948e-14
-1.156445922513359943e-14
-8.204383712812551357e-15
-5.933077337948998178e-15
-4.376103583557957925e-15
-3.291060328935271494e-15
-2.513001220743563120e-15
-1.936171572624386184e-15
-1.493915590676293640e-15
