# bin_9_14
-2.248240147814563389e-18
-2.503778007082587408e-18
-2.733343432395235060e-18
-2.910319112661091022e-18
-3.001668657411795593e-18
-2.982581181849025393e-18
-2.811237714929142905e-18
-2.502792754244016163e-18
-2.106164515020133124e-18
-1.722040816954971759e-18
-1.442369009525466197e-18
-1.249474661327777540e-18
-1.003809639260264705e-18
-6.971104712500431846e-19
-5.415496481083441139e-19
-4.030067691531869835e-19
-2.835688539818586664e-19
-1.994854334682040494e-19
-1.443668907367439127e-19
-1.015312206123858574e-19
-7.162170782650545716e-20
-5.127508808567610817e-20
-3.724559901549062555e-20
-2.754723068977223383e-20
-2.076476431365022439e-20
-1.590029914018280575e-20
-1.231372026518812035e-20
-9.580403003498533458e-21
-7.434191663965120567e-21
-5.714446026776937999e-21
-4.326553293468922647e-21
