# bin_19_2
-3.005301455668975622e-09
-3.012309828936020098e-09
-2.880656719772508505e-09
-2.605014566513964946e-09
-2.230114983703951126e-09
-1.835301246812067267e-09
-1.519337022968277874e-09
-1.301920056915817636e-09
-1.079579538658527210e-09
-7.910570253647710773e-10
-5.834386493105113420e-10
-4.574755855262439150e-10
-3.233238291426018872e-10
-2.421772914092616743e-10
-1.763298646242766454e-10
-1.303444681804569016e-10
-9.783203585489823770e-11
-7.471153065292124932e-11
-5.810938930003735222e-11
-4.589041141474656332e-11
-3.661790579833847023e-11
-2.930392365428433017e-11
-2.334511666834231556e-11
-1.838578249189792975e-11
-1.422523913492182746e-11
-1.075748664949873837e-11
-7.923317226255298098e-12
-5.675006842967999347e-12
-3.955044870715532457e-12
-2.688056836931190090e-12
-1.787384344512195727e-12
