# bin_5_16
3.103686999161518264e-07
3.303903395669715565e-07
3.409556515856665356e-07
3.390821511385364310e-07
3.203502902812781216e-07
2.859498593690158932e-07
2.414793261267306403e-07
1.976662731759462949e-07
1.650244461175049756e-07
1.424601579605567037e-07
1.152916832788007085e-07
8.144291994724845340e-08
6.237692231063113370e-08
4.741113697213191541e-08
3.348706605552846434e-08
2.445260310082647407e-08
1.784971444403592868e-08
1.294548783954279290e-08
9.518352266136743831e-09
7.118938000586303147e-09
5.421434727694693273e-09
4.199130435053452958e-09
3.296040777164234903e-09
2.604654912207824309e-09
2.057914679529904307e-09
1.614317020699857691e-09
1.249064179774139818e-09
9.480478873994528852e-10
7.027953964495597356e-10
5.073088399476804965e-10
3.562824042168113294e-10
