# bin_10_9
1.692709202978315280e-09
1.865220824961489522e-09
2.009852190260855209e-09
2.105420193344671071e-09
2.130451864904977787e-09
2.061130993110016669e-09
1.882539699404185012e-09
1.626056240694167145e-09
1.339326717210500511e-09
1.101237850909874015e-09
9.451342550704411027e-10
8.014109278356651078e-10
5.900420010558115534e-10
4.200963069662248160e-10
3.408847101765468721e-10
2.285906350705695381e-10
1.741978420050097790e-10
1.217125861961322706e-10
8.600871114519954417e-11
6.174748597613169330e-11
4.463559019448771460e-11
3.272038803106883488e-11
2.438634467278408971e-11
1.852579438496875026e-11
1.428829607801371399e-11
1.113009986830378385e-11
8.701411246711795600e-12
6.777556862232105217e-12
5.225010102558109586e-12
3.964200794802792777e-12
2.946795742607837342e-12
