# bin_17_14
1.445452873099583187e-11
1.628697110208847822e-11
1.803534462529230496e-11
1.954530911051373330e-11
2.061586633133459091e-11
2.101835276356008444e-11
2.055719437219446961e-11
1.899826106278780037e-11
1.660246781688726296e-11
1.376181749965324026e-11
1.127175026166414253e-11
9.602622662679405351e-12
8.255446932089797513e-12
6.264402869618618893e-12
4.349967370246411520e-12
3.535498388573089038e-12
2.396951749970179897e-12
1.804363175411899607e-12
1.220627747813497022e-12
8.531442154851856232e-13
5.974833715220941983e-13
4.184151820584156119e-13
2.944299456913330769e-13
2.094736808705758978e-13
1.519020172478103900e-13
1.123249194917097242e-13
8.460224359063073104e-14
6.471454579544146151e-14
4.996246406946299613e-14
3.865358823940480972e-14
2.974601542468750041e-14
