# bin_18_1
2.494966215258644908e-86
2.783786304795832432e-86
3.046055510719648652e-86
3.252641808243122819e-86
3.367063381092712195e-86
3.360530055927285131e-86
3.186272335699238071e-86
2.852390274196896764e-86
2.413244042056116343e-86
1.974462823798181997e-86
1.645936432511334442e-86
1.425733629071472359e-86
1.162316695463620826e-86
8.134202137515754735e-87
6.194194804285159064e-87
4.724412627216457840e-87
3.253147324190264673e-87
2.338226731506130015e-87
1.679830913229199352e-87
1.176476585032577346e-87
8.273753408856243140e-88
5.894172970961749099e-88
4.261642132152854312e-88
3.135295987993634800e-88
2.351884764921668242e-88
1.793693475792838248e-88
1.385269696763948287e-88
1.076525414236839125e-88
8.357016728218590450e-89
6.435480564538812782e-89
4.886829906370177480e-89
