# bin_15_9
2.609950815437024112e-18
2.913519524325111933e-18
3.189941212466972031e-18
3.408858576603991669e-18
3.532198863628244127e-18
3.529371059774277422e-18
3.351602037499752028e-18
3.004784442542889805e-18
2.545925586422864472e-18
2.083551168190079488e-18
1.734742265567206117e-18
1.502413438638302676e-18
1.229259801634726158e-18
8.624775411235311696e-19
6.532443552163319647e-19
5.013110270457088361e-19
3.434253810252527395e-19
2.482792026538748553e-19
1.778793608530234200e-19
1.244420760521165033e-19
8.746892960904391482e-20
6.222584359364002385e-20
4.492955458225542974e-20
3.300371796038381354e-20
2.472144493085526496e-20
1.883116062868242789e-20
1.453067615527575286e-20
1.128745291433042609e-20
8.762770712681520206e-21
6.751028305801099776e-21
5.130505626139072325e-21
