# bin_14_11
7.557501850070161633e-12
8.442752716980830207e-12
9.252126054888222032e-12
9.898236065883501705e-12
1.027131608185883145e-11
1.028041563315015144e-11
9.785731124618003701e-12
8.792704819950796891e-12
7.467137665119979370e-12
6.114039035389914276e-12
5.081414216764544453e-12
4.398784809020807980e-12
3.617684388112836727e-12
2.549743808021938380e-12
1.915331113153532778e-12
1.482967900654300562e-12
1.008867439823599471e-12
7.356394048763812133e-13
5.245471668320524047e-13
3.663862433722926104e-13
2.574145741150754015e-13
1.827568543944622536e-13
1.316809917007909388e-13
9.649832940876766203e-14
7.211977128997361557e-14
5.483047989887640679e-14
4.224925656432825690e-14
3.279577244912160534e-14
2.546000072094473609e-14
1.962744146929589650e-14
1.493343677873484276e-14
