# bin_5_20
3.501711074159983783e-07
3.727942546058436154e-07
3.847592006242416517e-07
3.826986437775694229e-07
3.616244882151985202e-07
3.228492115957174834e-07
2.726856992329515875e-07
2.232162715758855335e-07
1.863293791484618193e-07
1.608511930455970285e-07
1.302310003261317688e-07
9.201731579322712532e-08
7.043726177702930499e-08
5.357165353623678278e-08
3.781965429599562311e-08
2.762759368118564014e-08
2.016382052261429585e-08
1.462211899027118807e-08
1.075019088727909371e-08
8.039305562488239203e-09
6.121637457326704693e-09
4.740952139562042474e-09
3.721041918889069220e-09
2.940377163669118734e-09
2.323148897827903376e-09
1.822431770956856795e-09
1.410178611476784982e-09
1.070431715014647179e-09
7.936092339726945326e-10
5.729349358769878114e-10
4.024234525251246458e-10
