# bin_8_3
7.395045154520638453e-19
7.929502754531296840e-19
8.258077007902297842e-19
8.303096070564158183e-19
7.960679302508457186e-19
7.205422280497601528e-19
6.167141275026348360e-19
5.060848315377368490e-19
4.180307204581061477e-19
3.602560606229365758e-19
3.010319417788747029e-19
2.171996041284343301e-19
1.590928079115017630e-19
1.269800299312580630e-19
8.637163132564341726e-20
6.534793194666440873e-20
4.687897930648838692e-20
3.369886677764751755e-20
2.464233350267144899e-20
1.826294614412084489e-20
1.378280277137285491e-20
1.058326041586190706e-20
8.254226266365458835e-21
6.498760998039647321e-21
5.130550858402622038e-21
4.033199415266769009e-21
3.135419345205471758e-21
2.396480872129119673e-21
1.792156964584651297e-21
1.306476332979185026e-21
9.267914460152636818e-22
