# bin_5_1
1.340562936916881709e-16
1.381286128877507153e-16
1.371720953617482026e-16
1.293533443281293470e-16
1.152685129550597075e-16
9.716502999410096391e-17
7.947656624082169081e-17
6.639856102071222043e-17
5.734497346886281975e-17
4.630359486293200499e-17
3.262078769604016918e-17
2.514803743881441202e-17
1.908509985576776922e-17
1.358199418819632640e-17
9.937064025339586547e-18
7.342807411515272751e-18
5.392873713075933329e-18
4.022716953056997927e-18
3.059728365325942374e-18
2.370357738731595687e-18
1.864888999902403084e-18
1.482297798050132053e-18
1.181616741709997530e-18
9.378245371338459260e-19
7.359795048060929506e-19
5.675207826396495309e-19
4.277903041211459709e-19
3.140878320849714116e-19
2.242005882625031589e-19
1.557041121876984203e-19
1.054440217686804540e-19
