# bin_12_1
1.332107255647307310e-51
1.452885674149281195e-51
1.545699671089064181e-51
1.593106815853552546e-51
1.581910306849237112e-51
1.490205518754307695e-51
1.326140333851621061e-51
1.115728884095956763e-51
9.121139945430888094e-52
7.636914895408460442e-52
6.610551821902718300e-52
5.310796870246391821e-52
3.700381411885814370e-52
2.876370054767571778e-52
2.150164521803460349e-52
1.523999473533979860e-52
1.085988732607346366e-52
7.940446037399441412e-53
5.687848469867284017e-53
4.108270011875575831e-53
3.019917786126346631e-53
2.258190329155584255e-53
1.719326192229682817e-53
1.330099487799271073e-53
1.039775284505915412e-53
8.162220372158928390e-54
6.388771714155615599e-54
4.952055886605115746e-54
3.778948135240667167e-54
2.825517833910455323e-54
2.062306593964090475e-54
