# bin_5_5
2.059050410922866679e-08
2.179387132350404939e-08
2.233219762206837590e-08
2.201066610269535029e-08
2.055336321316473706e-08
1.814354090213819681e-08
1.516796889845077235e-08
1.240585417678484050e-08
1.045152259427171130e-08
9.011481947191249696e-09
7.087052745460465362e-09
4.955671906990863486e-09
3.922305400878959694e-09
2.856852555012911898e-09
2.089018483173649792e-09
1.488222995334086110e-09
1.094523215193008960e-09
8.001602993158091866e-10
5.921776231747163605e-10
4.462841722335649798e-10
3.422926651462439766e-10
2.668693203282178742e-10
2.104510605795569607e-10
1.667163027817240054e-10
1.317438957997363447e-10
1.031298548551393463e-10
7.947039493363158993e-11
5.996729569999338285e-11
4.413486863793450908e-11
3.160517730512952721e-11
2.201852587206378179e-11
