# bin_20_4
4.200647381721688438e-67
4.716249530232932157e-67
5.200118467296760857e-67
5.605684749542876064e-67
5.873564115207076631e-67
5.943818971350028652e-67
5.748933449865261524e-67
5.248005397669785993e-67
4.530187227394746508e-67
3.729946331532056364e-67
3.068497233150833369e-67
2.637057814730509264e-67
2.234828990453788174e-67
1.638100141630457722e-67
1.165585933665838641e-67
9.456325567701167480e-68
6.263227304410047618e-68
4.754465163593388201e-68
3.283507759549610394e-68
2.275035796736259410e-68
1.598189615242303547e-68
1.123971043591772643e-68
7.986027546764285873e-69
5.754068192313001496e-69
4.229836216865490942e-69
3.168667728457500094e-69
2.413505565053976595e-69
1.860771599320121175e-69
1.442143211552157985e-69
1.115365567366569314e-69
8.548602961240629057e-70
