# bin_6_12
1.895622399304199598e-07
2.040073646645768940e-07
2.134493225339304454e-07
2.157468801383636733e-07
2.084793053707394305e-07
1.902935775934807522e-07
1.642765306357268390e-07
1.353696538717141762e-07
1.113855415780501885e-07
9.547431671980042599e-08
8.072353262577847695e-08
5.961002263321907015e-08
4.273313303065485254e-08
3.440664753540259249e-08
2.352841676900731046e-08
1.783440053869736826e-08
1.262752867074276827e-08
9.092356072010986384e-09
6.635623128298940262e-09
4.898729337722612598e-09
3.676794463046103455e-09
2.807191999257243424e-09
2.179122544763568912e-09
1.710177304343812997e-09
1.348067898413028178e-09
1.060002573068920859e-09
8.256376018498043735e-10
6.332047814334334213e-10
4.757426800635512518e-10
3.487988855829890596e-10
2.489853529671795255e-10
