# bin_5_15
2.976861986776595375e-07
3.168789031831408121e-07
3.269982409429739585e-07
3.251843438199811325e-07
3.071988239953209572e-07
2.741923789858115061e-07
2.315358369497998319e-07
1.895251114130556204e-07
1.582359169210527226e-07
1.366001029876478727e-07
1.105314719791645021e-07
7.807353187460991230e-08
5.980860403516448933e-08
4.544817180186366726e-08
3.210654537866369162e-08
2.344093533846842695e-08
1.711235585110693615e-08
1.241125199760443732e-08
9.125843543013692815e-09
6.825675313982072224e-09
5.198324585562304092e-09
4.026486264222164049e-09
3.160619899665736066e-09
2.497681547297017446e-09
1.973401375057371855e-09
1.548004064243618441e-09
1.197727241034149130e-09
9.090519334002276449e-10
6.738587940110899605e-10
4.863979715197517973e-10
3.415801831538959517e-10
