# bin_12_16
6.027256121268495254e-08
6.722294158267012982e-08
7.352046427115826345e-08
7.845952379813233821e-08
8.115956943064926370e-08
8.092614315026958277e-08
7.664203103975660207e-08
6.854023523844466737e-08
5.793739682282070742e-08
4.740495022168588375e-08
3.955498016242952554e-08
3.425206810967860026e-08
2.783623241379301491e-08
1.947645654518592558e-08
1.487937203372778313e-08
1.129248334756360785e-08
7.814354595924163717e-09
5.597406990697623078e-09
4.020551779431450440e-09
2.818350148370480600e-09
1.984502833872154782e-09
1.415144140025166321e-09
1.024063446090202354e-09
7.541522958696581091e-10
5.662176157754899510e-10
4.321390867639372480e-10
3.338869301174850263e-10
2.595008014948031307e-10
2.014105778650578034e-10
1.550296307425065402e-10
1.176460157898722166e-10
