# bin_14_20
6.698737531295191305e-08
7.520056803270827731e-08
8.290336740234759079e-08
8.935270395424255664e-08
9.360092914124683292e-08
9.469564584049604895e-08
9.155918605749431267e-08
8.356002396148771096e-08
7.211186107000117461e-08
5.937672485150543435e-08
4.886416660251171425e-08
4.199257454233323357e-08
3.555452202705025152e-08
2.605395136408329234e-08
1.857386204977934258e-08
1.502523399418637847e-08
9.983902069252408374e-09
7.556269156164451580e-09
5.220928162195678304e-09
3.621433497915970407e-09
2.543426345792589085e-09
1.789321072045813066e-09
1.271647261326549386e-09
9.164814683233525195e-10
6.738419201366258286e-10
5.048666988080099045e-10
3.845751531979030828e-10
2.964934231513123176e-10
2.297623512289550730e-10
1.776655357424469252e-10
1.361371882164153799e-10
