# bin_2_20
6.636982957706259727e-07
6.663287949584816557e-07
6.386094060294191895e-07
5.787954876486424872e-07
4.965498134033200245e-07
4.089483531409450386e-07
3.381243471154711368e-07
2.895314171044577219e-07
2.409968667975849250e-07
1.773285846364592718e-07
1.301556336732315900e-07
1.024010026327563216e-07
7.233370552225356209e-08
5.422881210233447249e-08
3.942657905118056400e-08
2.913986769761296261e-08
2.185485168741042046e-08
1.667413378167446924e-08
1.295740757237882044e-08
1.022532829795277199e-08
8.155689720451356460e-09
6.526063224895402078e-09
5.200220908193083694e-09
4.097693226185275305e-09
3.172937979426872716e-09
2.401846667485245813e-09
1.771014666847128291e-09
1.269907609170279648e-09
8.859593454556068288e-10
6.027010632087533966e-10
4.010661744808551530e-10
