# bin_17_6
1.561660450225964387e-38
1.744470480981738614e-38
1.911549376433758165e-38
2.044829781180912458e-38
2.121616480395663095e-38
2.123178786754100664e-38
2.020542298321239445e-38
1.815077848924972606e-38
1.541033846209524083e-38
1.261664057892594943e-38
1.048733481421622776e-38
9.079799270606012319e-39
7.464413037971934271e-39
5.257069400662388994e-39
3.952538754477432104e-39
3.057985166826496418e-39
2.081188046607327783e-39
1.516407604202115036e-39
1.082020220823690453e-39
7.558733488336774794e-40
5.310124579360745507e-40
3.770667810674886698e-40
2.717493482665892568e-40
1.991958526037894085e-40
1.489108755049225222e-40
1.132382670067821796e-40
8.727076367515637636e-41
6.775099324938206536e-41
5.259828886935507179e-41
4.054718896155782729e-41
3.084706332751655777e-41
