# bin_2_15
6.107816301754091983e-07
6.131085588884636837e-07
5.874801038275165870e-07
5.323402585201278841e-07
4.566011584911340725e-07
3.760170024594952886e-07
3.109312676227256882e-07
2.662679272894383701e-07
2.215562127663813588e-07
1.629535887221436622e-07
1.196598281142946411e-07
9.411699690423401559e-08
6.648257622476210928e-08
4.983981475014091646e-08
3.624133488482403754e-08
2.678639389065516586e-08
2.009169249541556828e-08
1.533074610698474310e-08
1.191480771107070017e-08
9.403451123819471173e-09
7.500618466925556713e-09
6.002012106457901080e-09
4.782551931590176463e-09
3.768372268576305808e-09
2.917685341427527214e-09
2.208378670400993016e-09
1.628152786721530675e-09
1.167314585798453279e-09
8.142836687995570477e-10
5.538807059771262184e-10
3.685448137757561970e-10
