# bin_20_11
4.837624182850963193e-25
5.459230514536157894e-25
6.056283596729276269e-25
6.578034902032838390e-25
6.957680990289261777e-25
7.116410885351147410e-25
6.992345585528700488e-25
6.497316898388101336e-25
5.707615000422794092e-25
4.748081427895371561e-25
3.884791712462028471e-25
3.295160199745892093e-25
2.844008821950327656e-25
2.191594820297593499e-25
1.514216837410007625e-25
1.221945430232983150e-25
8.459954127421842460e-26
6.276592104095910158e-26
4.228566194426187072e-26
2.984963569756165368e-26
2.081264135051303799e-26
1.450399831260761562e-26
1.016328574255494210e-26
7.192607174456218375e-27
5.183620244236362991e-27
3.809659158813539962e-27
2.853528803690342204e-27
2.173537600790172422e-27
1.673949695534444425e-27
1.294383748391791927e-27
9.973950375221490440e-28
