# bin_19_20
1.037244594797679981e-08
1.176526790709511441e-08
1.313403338667794463e-08
1.437567046875900292e-08
1.535173852086666504e-08
1.588887240023787718e-08
1.585174568977154638e-08
1.501772175764543752e-08
1.343308852982334219e-08
1.135475853183250124e-08
9.290839956472770729e-09
7.755569596370033900e-09
6.721447779812192181e-09
5.462432420073467444e-09
3.809152116240249625e-09
2.910377051187733261e-09
2.200035416858487615e-09
1.510985506113038004e-09
1.068690033748818815e-09
7.591326926079914211e-10
5.209902811904028401e-10
3.563396389735218831e-10
2.455105706300289572e-10
1.705954484775375393e-10
1.200950570904486203e-10
8.613442743237442167e-11
6.300788211033217036e-11
4.703741634754837523e-11
3.571986945634615009e-11
2.743641095799274451e-11
2.115957086954073698e-11
