# bin_3_12
4.277191505909772248e-07
4.402672184182572238e-07
4.364914978865364368e-07
4.110590947055057841e-07
3.659262989009138375e-07
3.085107872953619741e-07
2.527176567005476216e-07
2.113575128022655974e-07
1.819376494159061688e-07
1.462684935554288170e-07
1.039296574813896339e-07
7.984816750919022824e-08
6.037557439082633617e-08
4.317070069827428829e-08
3.168837108359404692e-08
2.326999260489229377e-08
1.711102667232663992e-08
1.278614892310059087e-08
9.729626335109717593e-09
7.538205159882653796e-09
5.930163596434739097e-09
4.712278930860780044e-09
3.754796904572523881e-09
2.978436522778179261e-09
2.335868631880795318e-09
1.799994289752563383e-09
1.355988365651744336e-09
9.951316186685723969e-10
7.102061346995938711e-10
4.932354138678572218e-10
3.340756579694914714e-10
