# bin_11_17
9.161406259022456391e-08
1.018007905631776801e-07
1.108326751981414902e-07
1.176104713767547825e-07
1.208015341202082448e-07
1.193896363144619764e-07
1.117765585220033439e-07
9.889211976666559228e-08
8.277248352271992692e-08
6.768153550123006984e-08
5.700029064791466614e-08
4.929501250577468488e-08
3.888765697327199816e-08
2.694906162433587374e-08
2.131812583804867676e-08
1.541329183814923979e-08
1.113174519418290845e-08
7.718971806188088973e-09
5.574418668974538341e-09
3.943173488298675779e-09
2.800439480848616232e-09
2.016302219852553112e-09
1.473049256750641208e-09
1.096517975872344911e-09
8.313175359606460593e-10
6.394951184328312523e-10
4.966884904745797418e-10
3.868031171217215991e-10
2.998766974046433679e-10
2.299223939795865444e-10
1.734154437353551314e-10
