# bin_10_13
6.134717416225693909e-08
6.784328072891868013e-08
7.342956538199262897e-08
7.735136478475189759e-08
7.876692236313632699e-08
7.691905003518677911e-08
7.098824765297637169e-08
6.195319023576307110e-08
5.132987334959368446e-08
4.205722837457798429e-08
3.582729307311450549e-08
3.072807205262229777e-08
2.329041181355914230e-08
1.626801134135680629e-08
1.319262755644956757e-08
9.037265003754174324e-09
6.813477546330677647e-09
4.695272025334779313e-09
3.343986523638182239e-09
2.391046020229601332e-09
1.719275552472133599e-09
1.251050460856255720e-09
9.244849316461947153e-10
6.965671764006567977e-10
5.336371400299868565e-10
4.137423433592832878e-10
3.227713792797639749e-10
2.515256395795012620e-10
1.944507696598581653e-10
1.482297744050153646e-10
1.108890845599191566e-10
