# bin_18_6
9.876966856150803952e-43
1.105767743179944794e-42
1.214970862100637300e-42
1.304084387368222040e-42
1.358946900547423161e-42
1.366730667154751243e-42
1.309911538531487797e-42
1.184728996936393940e-42
1.012977128249179513e-42
8.309048941841606237e-43
6.872377150015707680e-43
5.936738265240171787e-43
4.951514833348518998e-43
3.540810104299268513e-43
2.597661946090120856e-43
2.059739439290593381e-43
1.377412416318142941e-43
1.027115825919922790e-43
7.222545340939618075e-44
5.023401174632741936e-44
3.527308980497311367e-44
2.491078002888792284e-44
1.784053154834875502e-44
1.298259013964005908e-44
9.637877874509241100e-45
7.284681328490043749e-45
5.588510704568471884e-45
4.327755483942591513e-45
3.358818281931894275e-45
2.593750261460198465e-45
1.979969148789276685e-45
