# bin_7_1
1.068725744647520296e-24
1.125776293107789555e-24
1.146978162492250277e-24
1.121647895553061066e-24
1.037359648804957025e-24
9.073752928943688401e-25
7.530392256983536286e-25
6.163783064500124311e-25
5.233073683053767839e-25
4.493492687622038902e-25
3.442731975851744046e-25
2.410138721171069163e-25
1.947663908182205030e-25
1.367989728686450516e-25
1.030823624499931501e-25
7.267463232831274782e-26
5.326867442976750954e-26
3.922091813123308209e-26
2.923451932801727174e-26
2.216758446837518415e-26
1.709702116086365541e-26
1.339549775674985401e-26
1.059824963055495916e-26
8.408163870068682432e-27
6.641891843682232564e-27
5.188087222680088345e-27
3.983023824563855159e-27
2.990341395383197977e-27
2.187497911503419124e-27
1.556322276228685665e-27
1.077371727829927454e-27
