# bin_11_19
1.111513916827189344e-07
1.235201173277468634e-07
1.344918198370196044e-07
1.427334578051959271e-07
1.466276178003063166e-07
1.449415092498721196e-07
1.357317712355724396e-07
1.201131490267998010e-07
1.005542039510593765e-07
8.222116743251027193e-08
6.923163863887132274e-08
5.987650325366513677e-08
4.726620243754283571e-08
3.275838043184945467e-08
2.589651603872105383e-08
1.874311250220484226e-08
1.352409644559449662e-08
9.382801987635158744e-09
6.776343991222196145e-09
4.792409873438427304e-09
3.402815795321066458e-09
2.449531851359872197e-09
1.789203492212027804e-09
1.331568358223182666e-09
1.009323736506585591e-09
7.763083454668429017e-10
6.028916898478760616e-10
4.694961812203375149e-10
3.639979246689894551e-10
2.791099637167090819e-10
2.105420182733826682e-10
