# bin_14_16
2.713261262327030563e-08
3.044434094103127750e-08
3.354277238032555370e-08
3.612554808349847990e-08
3.780793953841635450e-08
3.821021527430581158e-08
3.688680810088185202e-08
3.360844147380839035e-08
2.895502190102796273e-08
2.382273752941158625e-08
1.962052141045825006e-08
1.687921150850910246e-08
1.425663838369155562e-08
1.039890294176298907e-08
7.447214076082812951e-09
6.010657135222700348e-09
3.991605676397897907e-09
3.017513227137657679e-09
2.091390492675125328e-09
1.450565161784194702e-09
1.018836298056756936e-09
7.171404333381521090e-10
5.103559073292240149e-10
3.684601823359987502e-10
2.713961863119541299e-10
2.036779386219290302e-10
1.553627765307074684e-10
1.198877973695344346e-10
9.293924031849294928e-11
7.185397436152504721e-11
5.502359061985679307e-11
