# bin_2_9
4.899212982729801164e-07
4.915548794775183126e-07
4.707020644824566482e-07
4.262376841924297391e-07
3.653594357411884505e-07
3.008026259512780199e-07
2.488229582200448236e-07
2.131347019018973720e-07
1.771542479711020935e-07
1.301214594803976494e-07
9.568767222439557558e-08
7.519653614958669937e-08
5.311874404398409675e-08
3.981545516693051921e-08
2.896631732040222750e-08
2.141111890707568192e-08
1.606468124964643031e-08
1.226248245194076753e-08
9.533535858063864151e-09
7.526304337181052278e-09
6.004452206989458379e-09
4.805092538601682341e-09
3.828606498656212212e-09
3.016211487558476425e-09
2.334694738227056593e-09
1.766502632078859749e-09
1.301859846016187580e-09
9.329947006837249020e-10
6.505782257817976522e-10
4.423762376403724637e-10
2.942668435970035729e-10
