# bin_12_14
3.378724803424336132e-08
3.766801649649623217e-08
4.117608252201302881e-08
4.391467865800490220e-08
4.538947078198780618e-08
4.521557344947620596e-08
4.276597362042504026e-08
3.819806901956648869e-08
3.224941008281790340e-08
2.638122844294983771e-08
2.203512864132629387e-08
1.908345951061706378e-08
1.546113942488388250e-08
1.079552866586126500e-08
8.284494797468271955e-09
6.254677217747920316e-09
4.347109830621798865e-09
3.099492624259361944e-09
2.230804982401610181e-09
1.565231124277580290e-09
1.102727982739763919e-09
7.872415690575467303e-10
5.703334847837995434e-10
4.205546518289866460e-10
3.161315510463571096e-10
2.415156632196197038e-10
1.867372208254459282e-10
1.451830005976078615e-10
1.126785283788441668e-10
8.669753184475300304e-11
6.574792661106969708e-11
