# bin_5_7
1.064483662227374834e-07
1.131428931993680424e-07
1.165391094235252687e-07
1.156258677060025172e-07
1.088966982015079225e-07
9.691166291834968627e-08
8.160880158756153559e-08
6.677403136440453855e-08
5.587873832455122474e-08
4.824190618578087380e-08
3.875861572615927066e-08
2.727272547608232962e-08
2.108401448767742595e-08
1.585190837076732385e-08
1.129172140459485760e-08
8.187789993067880200e-09
5.994791707602501887e-09
4.356262597712135483e-09
3.207731132947322189e-09
2.403925399266803413e-09
1.834287898421240636e-09
1.423347451616224337e-09
1.118721426480116952e-09
8.847120554950044122e-10
6.990877322805899218e-10
5.481211622485692750e-10
4.236593303910856444e-10
3.210673297656199301e-10
2.375536213595878324e-10
1.711076682858138968e-10
1.199051026762744143e-10
