# bin_15_14
6.478336303586876557e-11
7.284809662881893923e-11
8.047280147565458766e-11
8.695009200015893083e-11
9.137071512373559169e-11
9.276356821988416468e-11
9.016345463014566615e-11
8.274013952236811062e-11
7.180310166221043854e-11
5.927446581345568762e-11
4.865169501964703631e-11
4.166428374045891834e-11
3.556254909126517877e-11
2.645436212551693941e-11
1.857694440243964231e-11
1.514415722312294016e-11
1.007641153079863580e-11
7.657951276964057998e-12
5.237124518043676399e-12
3.631261276775650972e-12
2.550056834626976291e-12
1.791099518055221233e-12
1.266980010161230754e-12
9.076032882217648339e-13
6.631673875489573358e-13
4.939844526982907498e-13
3.744616030577005150e-13
2.877679164224183704e-13
2.227066234810705289e-13
1.723101258246065746e-13
1.323293155964300695e-13
