# bin_19_1
1.619892319826510779e-91
1.812719909278116747e-91
1.990641361832376591e-91
2.135183869663780418e-91
2.223059456472671137e-91
2.233559510087567454e-91
2.137631383531428006e-91
1.930651224912072695e-91
1.648371377984282141e-91
1.351503257680552710e-91
1.118901717651324660e-91
9.671169628629300956e-92
8.043631602345955417e-92
5.732901133828356283e-92
4.226712478504855757e-92
3.335651228287019342e-92
2.237475273562235154e-92
1.661195261742597056e-92
1.171474737426085095e-92
8.153533586647978770e-93
5.724259660276079112e-93
4.045850662495424289e-93
2.900510367630526403e-93
2.113300703443971745e-93
1.570709585047449964e-93
1.188444478755420826e-93
9.124615658059312425e-94
7.069301555188307017e-94
5.486965886248629013e-94
4.235953144465598178e-94
3.231707205664646463e-94
