# bin_10_1
4.654720817380926345e-40
5.022580583766346349e-40
5.272409848774442636e-40
5.348869983394615998e-40
5.196497848901403106e-40
4.768705738760701112e-40
4.139040755895700339e-40
3.417710828692951137e-40
2.803731027151098539e-40
2.396576533455134366e-40
2.044482884999954094e-40
1.529006014668994022e-40
1.078877649112936400e-40
8.782121510927079366e-41
5.980327819599605178e-41
4.567831816984299762e-41
3.203081975393825701e-41
2.303229284317911591e-41
1.679867714002074792e-41
1.237446887667430022e-41
9.254783786081996509e-42
7.039604558143011893e-42
5.448292488230056399e-42
4.267343488262133824e-42
3.360936058780526150e-42
2.643673582812515349e-42
2.062159499662902722e-42
1.585351253989724792e-42
1.194932814348557705e-42
8.794145596199376090e-43
6.302881552316852317e-43
