# bin_14_11
1.353567445874689332e-12
1.513310652403877245e-12
1.659988044996351318e-12
1.778047912555705736e-12
1.847921466995118060e-12
1.852863633691644226e-12
1.768129980143529254e-12
1.592471863616298658e-12
1.355696153236441453e-12
1.110657155631675635e-12
9.213764316597831930e-13
7.971468084100373376e-13
6.591082643692820871e-13
4.668008851096853166e-13
3.476384818821070517e-13
2.716233026182236842e-13
1.834869432500894401e-13
1.349559713073193193e-13
9.574354252249747414e-14
6.675630981906926669e-14
4.687372632829501559e-14
3.320262418219992871e-14
2.386425167747690738e-14
1.743913515364259885e-14
1.299867013063829362e-14
9.859741097449323331e-15
7.584420070801695946e-15
5.882116972211041405e-15
4.566145436774807948e-15
3.522614111879402644e-15
2.683760421074600497e-15
