# bin_2_2
5.958535734413337150e-10
5.988719158019495062e-10
5.745469388783331247e-10
5.209122350520997045e-10
4.468524422261991699e-10
3.674426017768467971e-10
3.033412414890308796e-10
2.603597744843953690e-10
2.176828314809515824e-10
1.592797661563062188e-10
1.164566636629053835e-10
9.266523792969305271e-11
6.453104955880341418e-11
4.886358634119694088e-11
3.546529509391753694e-11
2.613380479756064793e-11
1.959966830367302569e-11
1.495127231046991105e-11
1.161754475851064696e-11
9.168153395093580832e-12
7.314359077297237492e-12
5.855016147630971715e-12
4.667711257835193323e-12
3.680074241511451268e-12
2.851083075738451924e-12
2.159194865805897385e-12
1.592536771505687941e-12
1.141985654734540677e-12
7.966102627434443691e-13
5.417836835856509311e-13
3.604276548208773396e-13
