# bin_8_1
1.769519842430495227e-29
1.882187180240514666e-29
1.940193911211505212e-29
1.927308161540248586e-29
1.817230934787514279e-29
1.618794167706903296e-29
1.363598376569495025e-29
1.114952379318607124e-29
9.321473785737431394e-30
8.061299441700426309e-30
6.499438874039342924e-30
4.553962263621781595e-30
3.522501179527151400e-30
2.658432733638106415e-30
1.886144285558550271e-30
1.364732890767716569e-30
1.003375180655487532e-30
7.282860811517828293e-31
5.352391957036784272e-31
4.007740568847567942e-31
3.056025060338843965e-31
2.370095987044652596e-31
1.862268960206888367e-31
1.472645616413405077e-31
1.163904077538958531e-31
9.129644267066733138e-32
7.061020381267778320e-32
5.355274428290044032e-32
3.965618886653981584e-32
2.858608882234542156e-32
2.004472065397511111e-32
