# bin_15_8
1.042347671836506135e-21
1.162330503175480884e-21
1.270924445103107372e-21
1.355903841500281750e-21
1.401988578869023264e-21
1.397361178097729789e-21
1.322443313201543541e-21
1.181816717241093993e-21
9.981393157754039838e-22
8.164316341625695682e-22
6.815948225253615388e-22
5.904929778823870534e-22
4.792797591628580690e-22
3.344412484797867619e-22
2.563149534138013036e-22
1.940342236306188262e-22
1.344510665090215148e-22
9.595551208724543233e-23
6.914071395554553399e-23
4.847809309385211408e-23
3.411002270560021350e-23
2.433305392880696822e-23
1.761579420158122903e-23
1.297894145764336227e-23
9.749081875755338192e-24
7.443651298918070325e-24
5.753275049934163252e-24
4.472545879987891349e-24
3.471676886669512937e-24
2.672093941376078129e-24
2.027409240651106717e-24
