# bin_9_1
1.257380075914169512e-34
1.347668790066582707e-34
1.402735567552067054e-34
1.409492070758602338e-34
1.350130340279233420e-34
1.220928385388578500e-34
1.044018128683002703e-34
8.564618660840908028e-35
7.078609724112611581e-35
6.102908903595568387e-35
5.091085145974225014e-35
3.665041856023773768e-35
2.692677468676734759e-35
2.143939383207255592e-35
1.460044943325911223e-35
1.102558095603581905e-35
7.921074660074506695e-36
5.695049582566688633e-36
4.164101274389170864e-36
3.086783218428418977e-36
2.330323124792168863e-36
1.789987434439493513e-36
1.396428030700881841e-36
1.099604693295220581e-36
8.681262011145477884e-37
6.823830672600383404e-37
5.303785192729753911e-37
4.052612782489583327e-37
3.029533197789741977e-37
2.207579437173552128e-37
1.565324132246353731e-37
