# bin_13_7
1.451885168671484538e-19
1.608539036009917334e-19
1.744865101456359506e-19
1.843155858816674253e-19
1.882768596209651817e-19
1.847023402629712635e-19
1.713424599017155364e-19
1.502876305236204819e-19
1.248962260659189274e-19
1.021874086371049151e-19
8.671889517993876641e-20
7.474064738905630370e-20
5.744867829970626260e-20
3.982672656020637766e-20
3.220585793634898496e-20
2.236242664319024696e-20
1.672262250596160831e-20
1.144870120438553260e-20
8.198959613442327821e-21
5.845910569984281742e-21
4.189961851286339659e-21
3.037170271450339748e-21
2.234371226937297960e-21
1.676080605248535996e-21
1.279275738976947793e-21
9.892043949859328074e-22
7.706801464909586824e-22
6.006105011653969748e-22
4.649423165509913299e-22
3.552707694114803807e-22
2.666361936895590337e-22
