# bin_12_9
8.568980527882277327e-13
9.507772609086371298e-13
1.033257254886624610e-12
1.093966128916705468e-12
1.120518988978176174e-12
1.103386069358448249e-12
1.028255541705468378e-12
9.057854077659872922e-13
7.552580318333259397e-13
6.175899808819977116e-13
5.221415859310313823e-13
4.510588470462142086e-13
3.512322829038680803e-13
2.429964308357812145e-13
1.947461232345774465e-13
1.378566414527982058e-13
1.014630798259949216e-13
6.961753378361850807e-14
5.017526843548420717e-14
3.563025442141801563e-14
2.541601660953834577e-14
1.836201181426209480e-14
1.345987489458412342e-14
1.005751335643598618e-14
7.650632505102640051e-15
5.900778438075805643e-15
4.590532831670445657e-15
3.576601142570993507e-15
2.771073362811897525e-15
2.121256341671828527e-15
1.596139567904473458e-15
