# bin_11_8
6.553030689473355866e-13
7.236954574441516762e-13
7.819543196198516860e-13
8.219652979952186257e-13
8.349580420295702379e-13
8.124632224161253558e-13
7.466990949340138493e-13
6.490156165353168975e-13
5.362814720262033597e-13
4.398352589347823052e-13
3.759107253646674250e-13
3.213028846746107381e-13
2.406248828147679613e-13
1.689122129810201161e-13
1.375804063280704338e-13
9.293705428090956272e-14
7.073907127780532593e-14
4.890719457647198704e-14
3.464249797626910398e-14
2.483332942071076690e-14
1.790625238335397998e-14
1.306550562039310948e-14
9.685233346243618699e-15
7.320668221959720031e-15
5.623227561910796350e-15
4.368208953403518513e-15
3.411085335216328171e-15
2.658112024796630620e-15
2.053074156394310951e-15
1.562444937374422122e-15
1.166166155931176419e-15
