# bin_13_8
5.094239650435817260e-08
4.657344998818909903e-08
4.144376779958716987e-08
3.588113731183548673e-08
3.026813488991531352e-08
2.497344329365849135e-08
2.025798932276342155e-08
1.621886822296591418e-08
1.280566989548998430e-08
9.916284944529940566e-09
7.515305997042496515e-09
5.636191615166524290e-09
4.242472808506330229e-09
3.191357380217323448e-09
2.401688180504836150e-09
1.825781501802540436e-09
1.397494272293862307e-09
1.078931164939345570e-09
8.380527294909694683e-10
6.527864651780558453e-10
5.078978416864267449e-10
3.930815810623491033e-10
3.014261870240896860e-10
2.282129283847755374e-10
1.701084203158439892e-10
1.245642991929753054e-10
8.947478207589239635e-11
6.299709785661942783e-11
4.347441172756785875e-11
2.942569936656708607e-11
1.955926695733380591e-11
