# bin_11_5
3.852975752523439069e-08
3.435570093371543080e-08
2.980188197259201218e-08
2.518092370427129214e-08
2.080230207884807384e-08
1.689193836281798682e-08
1.354038864090866944e-08
1.070990567957433583e-08
8.311116638353889967e-09
6.310698851155322520e-09
4.741307168832578542e-09
3.578916560269700856e-09
2.702015652529525759e-09
2.042295650302081943e-09
1.560707146044495518e-09
1.201805925493256022e-09
9.338488393419425006e-10
7.301552284858156334e-10
5.723932436012638531e-10
4.479889354881745791e-10
3.485228487903098557e-10
2.684165134211548590e-10
2.039064810404197165e-10
1.523483031368828352e-10
1.117069601582029944e-10
8.026621334502499759e-11
5.648263067557241141e-11
3.893041674347994731e-11
2.630561199963505277e-11
1.745343116744205655e-11
1.139391209685992573e-11
