# bin_11_3
2.932512221364068024e-08
2.552272326562468897e-08
2.162786640278196451e-08
1.790833441674337108e-08
1.456880194291181177e-08
1.169996698917465749e-08
9.276453390198808475e-09
7.219221237028032246e-09
5.494486203399035420e-09
4.134172067884383760e-09
3.126168044505598333e-09
2.366714319363853649e-09
1.794066416854548491e-09
1.375805852047221919e-09
1.063917428725459754e-09
8.306412071622827218e-10
6.527603192350302006e-10
5.143851290592487690e-10
4.046376635697761322e-10
3.162991808447164805e-10
2.446468947455729444e-10
1.865407473110089836e-10
1.397992231115058031e-10
1.027462513344106084e-10
7.394951266057435577e-11
5.209100165249682471e-11
3.592324215839260958e-11
2.428009219911874957e-11
1.611234582352350130e-11
1.052098153749130607e-11
6.775977359010190896e-12
