# bin_8_3
2.752659448367362890e-08
2.388227091369279089e-08
2.018477922037322441e-08
1.668014940500713182e-08
1.354900629553445201e-08
1.086476361972421676e-08
8.598032394989246602e-09
6.678103529904523231e-09
5.078004376632198771e-09
3.823024827292647478e-09
2.892766364619578777e-09
2.191407396597760214e-09
1.663947273953041829e-09
1.277910983734768243e-09
9.897609994719936689e-10
7.736550713016715271e-10
6.084009912758757954e-10
4.794792045181058311e-10
3.769910219720877115e-10
2.943792444779603370e-10
2.273478391597193434e-10
1.730262216275510718e-10
1.293967839216434991e-10
9.488700373787462964e-11
6.813766334107789441e-11
4.789160695773634965e-11
3.296008424882471557e-11
2.223710607133689821e-11
1.473383117746106539e-11
9.608560434663115684e-12
6.181995096695814635e-12
