# bin_18_10
6.112744300205934319e-08
5.676081053639482396e-08
5.133237794489552457e-08
4.516096517482991837e-08
3.866295174185491515e-08
3.228962136034426830e-08
2.643206240378863089e-08
2.131579663838482509e-08
1.697249550769890960e-08
1.329626510691757800e-08
1.018831263773934984e-08
7.658302174644975512e-09
5.737314142669810366e-09
4.313287295908655574e-09
3.227983257207635016e-09
2.431079966621530420e-09
1.844294483645952146e-09
1.410848482202649823e-09
1.087001077000146711e-09
8.418635062663164554e-10
6.531228249674722450e-10
5.055529935086862892e-10
3.888959803587914020e-10
2.961796851583478544e-10
2.225991643815684592e-10
1.646713035529550605e-10
1.196728310555493121e-10
8.533229492312296251e-11
5.966569383898384750e-11
4.091473662064846197e-11
2.753608390994654694e-11
