# bin_16_2
2.518842175611163544e-08
2.160855355069298306e-08
1.807477667572211139e-08
1.481618727110535559e-08
1.197013451936393634e-08
9.557344457657484494e-09
7.511027553500623295e-09
5.771835114406804432e-09
4.355248787241855600e-09
3.286374159253240800e-09
2.492692858617454381e-09
1.887420580739723821e-09
1.443390970344488977e-09
1.114342310350959347e-09
8.691849375856747288e-10
6.833970009211600272e-10
5.398281277510768908e-10
4.264839015305004017e-10
3.353860628667107787e-10
2.613481235226407995e-10
2.009850067083519507e-10
1.520273347963870465e-10
1.128174557412748966e-10
8.199008590287628200e-11
5.830303407828853664e-11
4.056757117710446345e-11
2.764511779169781638e-11
1.848084235732513384e-11
1.214575192321177034e-11
7.866083694488202003e-12
5.032190290224600411e-12
