# bin_17_5
4.185241065830137538e-08
3.749904606886143463e-08
3.267254459829430848e-08
2.770841382464946799e-08
2.295434662435565443e-08
1.867905423185617009e-08
1.500414461154295438e-08
1.189944787993218480e-08
9.260512397461527710e-09
7.041120393266975948e-09
5.285799448520125822e-09
3.986571715772497466e-09
3.007444104156016551e-09
2.267716977621053261e-09
1.729386231508778594e-09
1.328572842876841040e-09
1.030445054726690519e-09
8.046896916897059330e-10
6.305507306542594404e-10
4.937119706836825932e-10
3.845607658778846226e-10
2.967382952075046211e-10
2.259778078654689535e-10
1.693233700017538395e-10
1.245409118502945007e-10
8.977560201738044117e-11
6.337412044029845301e-11
4.381051418085635359e-11
2.968276830298387935e-11
1.974007033855818383e-11
1.291177843467095511e-11
