# bin_4_4
2.551384283423694158e-08
2.208556494394315144e-08
1.863812429010157244e-08
1.538778328625866453e-08
1.248892378675643876e-08
1.000150955113531944e-08
7.901391805788505602e-09
6.132165467884830739e-09
4.668421718527769992e-09
3.519655002813940109e-09
2.662798151380154343e-09
2.020054923695126913e-09
1.536134036876989269e-09
1.180732756582764075e-09
9.152424020242059557e-10
7.156492504046871273e-10
5.626491872811816375e-10
4.430986237264310868e-10
3.479850404347897415e-10
2.713289447191262090e-10
2.091963372975498014e-10
1.589354242738251307e-10
1.186584274060861338e-10
8.687914057104515300e-11
6.230669575243190760e-11
4.374953409838778947e-11
3.008853171077604232e-11
2.029122262964095413e-11
1.344168926715128811e-11
8.765303820885193282e-12
5.639554415086407437e-12
