# bin_16_4
3.649968157348315748e-08
3.230690817047289458e-08
2.781109767444695131e-08
2.333110359978229156e-08
1.916441200114698623e-08
1.550158464260726805e-08
1.238995419991943830e-08
9.756938251758151171e-09
7.517250456477131916e-09
5.673485765469470155e-09
4.266737420040229698e-09
3.227913588235422686e-09
2.434054334966352632e-09
1.848955935982443013e-09
1.417642882418308104e-09
1.097296798946091186e-09
8.563018672388972611e-10
6.719208865046304756e-10
5.279775150485312703e-10
4.135788853098654030e-10
3.215346266762761874e-10
2.470881815046866990e-10
1.870364003327385428e-10
1.390808377825219952e-10
1.013944291883991369e-10
7.238555660487398934e-11
5.058634594191417593e-11
3.462352920411725993e-11
2.323895714734262668e-11
1.532466208183362564e-11
9.951101095508707457e-12
