# bin_20_5
4.286716284365903106e-08
3.845903642189701814e-08
3.354925629179349365e-08
2.848031906874415509e-08
2.361158921250592333e-08
1.922484613829526680e-08
1.545118113048820351e-08
1.226273843474181537e-08
9.550461299477965615e-09
7.264193759888970975e-09
5.452089357175492517e-09
4.111071078055969434e-09
3.100723064674430733e-09
2.336561480821773768e-09
1.780901451630311951e-09
1.367287936740030816e-09
1.059945906221079370e-09
8.274528021011418792e-10
6.483122503933901436e-10
5.076759607094060610e-10
3.955668828414004228e-10
3.053878740074308919e-10
2.327184731339234777e-10
1.745076176380139589e-10
1.284604470402746690e-10
9.267980315503106229e-11
6.547880559837400692e-11
4.530091284975438220e-11
3.071416341379298711e-11
2.043841770743126496e-11
1.337533993082728930e-11
