# bin_19_4
3.738436901574976465e-08
3.313014534676946800e-08
2.855001678802582902e-08
2.397108022573040501e-08
1.970232403593267358e-08
1.594482718401231534e-08
1.275169201791793816e-08
1.004907029026543623e-08
7.746880261856451738e-09
5.847140676681422379e-09
4.396065199195830125e-09
3.325290467663316540e-09
2.506456205686172785e-09
1.902830664173950246e-09
1.458147722782884306e-09
1.128061848875822774e-09
8.799712145151195945e-10
6.903626519826394311e-10
5.424824471861287638e-10
4.250414628573930651e-10
3.305865434842343938e-10
2.541912671723029796e-10
1.925462653457938651e-10
1.432874932993602025e-10
1.045445933523096681e-10
7.469366793843772954e-11
5.223873214401666530e-11
3.577907033970212435e-11
2.402898234153730802e-11
1.585366854031581065e-11
1.029886941758839728e-11
