# bin_14_14
6.541791299336894891e-08
6.118337038054563674e-08
5.577068769299837102e-08
4.947893318146866721e-08
4.271822495489621820e-08
3.595274617486124621e-08
2.961284681589321272e-08
2.398844477039255788e-08
1.917320667500140784e-08
1.509965748367953252e-08
1.165688935355733660e-08
8.813508982849893330e-09
6.597604399090468803e-09
4.948877939797180588e-09
3.706269837225797498e-09
2.776210915386407821e-09
2.097474483262135118e-09
1.594666256115331254e-09
1.222092948790156925e-09
9.419962309193812776e-10
7.282150964130452005e-10
5.625500577020407092e-10
4.325825119311416826e-10
3.298841229479075620e-10
2.486404975440938190e-10
1.847190081780712859e-10
1.349780693394562848e-10
9.686994557336539650e-11
6.822396067699876969e-11
4.714507475568277795e-11
3.198000207177816164e-11
