# bin_10_5
3.768022773501605620e-08
3.355201600690511854e-08
2.906791582293717137e-08
2.453469918163651536e-08
2.025207077955644063e-08
1.643501139137801350e-08
1.316613778077803101e-08
1.040576533497297822e-08
8.068376540308675785e-09
6.123945743836071783e-09
4.602092187810069326e-09
3.474687896404096028e-09
2.623924163025988493e-09
1.984660268836029299e-09
1.517579538756628078e-09
1.169394360179258740e-09
9.091512738372202206e-10
7.110983776625792629e-10
5.575236318608587929e-10
4.362985439203804229e-10
3.393087319358854963e-10
2.611752449547995796e-10
1.982633183481379713e-10
1.480081437242284553e-10
1.084255943556089877e-10
7.783486657647251716e-11
5.472062430084025515e-11
3.768268018029224303e-11
2.544214526374782970e-11
1.686878632355716957e-11
1.100582603725125684e-11
