# bin_20_7
5.193182844663131075e-08
4.744560431923262231e-08
4.217072568619630224e-08
3.645086953026609827e-08
3.069007076042746270e-08
2.527849173676925953e-08
2.048349330868027016e-08
1.639366405656475419e-08
1.293574423965902261e-08
9.994660800399882832e-09
7.550796573197702657e-09
5.659504318036580482e-09
4.265213806974332772e-09
3.203377243885871039e-09
2.413369814824865199e-09
1.835813089259130312e-09
1.407428990125025265e-09
1.088071633955093964e-09
8.464572960185772165e-10
6.602717884169507886e-10
5.143095140820507555e-10
3.983612251078338343e-10
3.055867056648240634e-10
2.313423623139642913e-10
1.723460796450965719e-10
1.260747675224699734e-10
9.042817322860257133e-11
6.355128014950765334e-11
4.376298725499483636e-11
2.955229195530808645e-11
1.959717564161240658e-11
