# bin_18_4
3.711732779260863437e-08
3.288165328535846630e-08
2.832697629045827992e-08
2.377790545375075788e-08
1.953995725334823062e-08
1.581103613258678191e-08
1.264250293377105288e-08
9.960891504051959929e-09
7.677567550601659367e-09
5.794723736055356538e-09
4.357028187533605286e-09
3.295897687560260159e-09
2.484602010760002733e-09
1.886568796238871442e-09
1.445921492622625480e-09
1.118775530575378024e-09
8.728267044582090839e-10
6.847960678097190246e-10
5.381041829198209432e-10
4.215815240784797241e-10
3.278542557593355088e-10
2.520472285684102383e-10
1.908831356002708289e-10
1.420177330548063454e-10
1.035937311782358019e-10
7.399697602725707674e-11
5.173996798259665767e-11
3.543027650593608270e-11
2.379051764993075528e-11
1.569399096959483394e-11
1.019389757910548906e-11
