# bin_17_8
5.698525887953756395e-23
6.381110087502974165e-23
7.013139462432566134e-23
7.529985773031570118e-23
7.850042370482434112e-23
7.898752840804707158e-23
7.575566033813568397e-23
6.856229741747115736e-23
5.866381320126286535e-23
4.813082002096935157e-23
3.979146538173106217e-23
3.436402701550747347e-23
2.869851954922928772e-23
2.055570929773764611e-23
1.504440190388492428e-23
1.195420719866156182e-23
7.982413297861100633e-24
5.962939532763305545e-24
4.186279431251192878e-24
2.909529798981514730e-24
2.042162022776360441e-24
1.440818657187237054e-24
1.030627917066119501e-24
7.489469049561853086e-25
5.552363600469420842e-25
4.191560021643263294e-25
3.212520188041067655e-25
2.486334003424127099e-25
1.929323403599800529e-25
1.490161080389759541e-25
1.138120176249938156e-25
