# bin_19_2
8.945073100681916973e-76
1.001372518348748631e-75
1.100177313810480412e-75
1.180753345685790890e-75
1.230269837187521453e-75
1.237136551402226701e-75
1.185458747027917510e-75
1.071958407421030044e-75
9.163681059377721656e-76
7.516222128458651128e-76
6.217581871182264468e-76
5.371515119728761325e-76
4.478231947627928748e-76
3.200871158040077434e-76
2.349885484394331458e-76
1.861866894169604766e-76
1.245551150529876630e-76
9.280392297212243934e-77
6.527179113090016110e-77
4.538827943315981177e-77
3.185725810059654098e-77
2.249017150919700527e-77
1.610009426780883371e-77
1.171075583547807045e-77
8.689757632671517974e-78
6.565336459061078047e-78
5.035006596152837797e-78
3.898257588713995341e-78
3.025166952564927929e-78
2.336111494529864224e-78
1.783477104320844262e-78
