# bin_19_18
6.068403253109468889e-06
6.883630656794739538e-06
7.684923819419050921e-06
8.412027521784661127e-06
8.983967478630112741e-06
9.299246566674379240e-06
9.278828442648806530e-06
8.791922271647243764e-06
7.865276570887843235e-06
6.648899135953132214e-06
5.440183791799577279e-06
4.540683302988954363e-06
3.935634799725704565e-06
3.200053869563053211e-06
2.230936831203472544e-06
1.703959202613135317e-06
1.288991809919357598e-06
8.844210318787016121e-07
6.256555125548064522e-07
4.445787172747934023e-07
3.049981514733976691e-07
2.084576171213432797e-07
1.435395841240307697e-07
9.967443228354449261e-08
7.011173026120917109e-08
5.024207475433186613e-08
3.672105110222662774e-08
2.739318526955922772e-08
2.079096482749802074e-08
1.596504358334660271e-08
1.231248345514762842e-08
