# bin_18_5
2.232927577985879007e-44
2.498371491945750510e-44
2.743109146383820512e-44
2.941647022244594532e-44
3.061857736435997542e-44
3.075339994384655721e-44
2.941898529884859263e-44
2.655834905048180306e-44
2.266451919065544131e-44
1.857988607881653599e-44
1.538695054985824297e-44
1.330241297495427048e-44
1.105390747444552720e-44
7.869376637520134520e-45
5.811280609212135147e-45
4.579211559432497782e-45
3.074293643819609415e-45
2.279250917873616338e-45
1.608682368751156663e-45
1.119743212749871050e-45
7.859296439127556774e-46
5.554954815877458448e-46
3.982667414569401015e-46
2.902077913871609752e-46
2.157180666077910677e-46
1.632316959177150629e-46
1.253330343802159839e-46
9.710324940295853680e-47
7.536613932942456426e-47
5.817850345922786841e-47
4.438078140946756482e-47
