# bin_17_17
8.544180279718951833e-06
9.664831921330387161e-06
1.075242481168000405e-05
1.171969648674363898e-05
1.245016064643262505e-05
1.280109721446611163e-05
1.266729595044792263e-05
1.187352060154419367e-05
1.051532109934966147e-05
8.805930710968349725e-06
7.199630504964102401e-06
6.062615369587875955e-06
5.250357447470598868e-06
4.148409193544143870e-06
2.862180650740739417e-06
2.264188531836462260e-06
1.631715790168711894e-06
1.169628837643277996e-06
7.962977504630728007e-07
5.692461688996245493e-07
3.936191883383762880e-07
2.713201079934374451e-07
1.887040645876144833e-07
1.323882951507934826e-07
9.437722905184767635e-08
6.859508167529109043e-08
5.084435991670674793e-08
3.840006517225364978e-08
2.940998801187794248e-08
2.269297696557663998e-08
1.750807392799096714e-08
