# bin_3_2
9.926488402917389009e-06
1.011372231236480680e-05
9.893398374875688324e-06
9.159636352013956652e-06
8.021263429960591240e-06
6.667862063628095536e-06
5.460305198024107041e-06
4.626820991284966365e-06
3.967308461792585878e-06
3.057227063851240743e-06
2.152383569878092729e-06
1.723510440208451910e-06
1.230805649670596395e-06
9.198796690072253161e-07
6.580016340973235436e-07
4.866620600020084737e-07
3.615611228992865256e-07
2.726091115062980707e-07
2.094254003751634450e-07
1.636355870531137115e-07
1.296396356864361764e-07
1.034469416299760007e-07
8.252615318567252684e-08
6.534817258381674336e-08
5.101755113393898377e-08
3.904090739186527979e-08
2.914920728843776541e-08
2.117587183871926171e-08
1.495632133090265033e-08
1.028580565754065325e-08
6.907308255530060631e-09
