# bin_18_11
6.265676497759313491e-15
7.051571708709193219e-15
7.797440025156434218e-15
8.435470635710685251e-15
8.878064296183586155e-15
9.028964128440440071e-15
8.798707158945455736e-15
8.097480604408799119e-15
7.047291909590547100e-15
5.826771355395018518e-15
4.777779248595199104e-15
4.083270578456865480e-15
3.496808319599231863e-15
2.622226051804853339e-15
1.831281046478586704e-15
1.492998490703894550e-15
9.990790876977203164e-16
7.576313801902317315e-16
5.154822345685582038e-16
3.581001940443166631e-16
2.512727917527475423e-16
1.763068163422894099e-16
1.244009514586798269e-16
8.882286241013684490e-17
6.467224847828132378e-17
4.801079615646178675e-17
3.628785244983751696e-17
2.782868711817717439e-17
2.151443039438214498e-17
1.664639027640027021e-17
1.279668261883019720e-17
