# bin_18_13
3.294550379702772395e-10
3.715750107700387945e-10
4.119305304806048881e-10
4.470422800141658422e-10
4.723486748925803807e-10
4.825343323224771176e-10
4.733060529108520647e-10
4.388912369450179050e-10
3.847941533162482442e-10
3.196510297814538312e-10
2.616256548820140962e-10
2.222935572476109269e-10
1.916089339230802064e-10
1.467856773313038234e-10
1.015703358145724776e-10
8.222822538489950759e-11
5.643632543127434780e-11
4.213417094250933644e-11
2.840430903276521172e-11
1.996472877805208481e-11
1.394233192958338064e-11
9.733165891279655462e-12
6.827674542654392134e-12
4.838622789942177077e-12
3.493102729612002139e-12
2.571611171031072772e-12
1.929233780607816445e-12
1.471292222233965543e-12
1.133935844793489289e-12
8.769664419437426005e-13
6.755106976184833185e-13
