# bin_8_5
1.561426755159976579e-08
1.690592715811963972e-08
1.782292724018016273e-08
1.817004092982839896e-08
1.777875927765651919e-08
1.644878640673752703e-08
1.439113118608625143e-08
1.194327379856983060e-08
9.776728336716548802e-09
8.305578299925199351e-09
7.137067511312226417e-09
5.459935518198976722e-09
3.810193070504531244e-09
3.082594858553645272e-09
2.147489699872057806e-09
1.615289938153793519e-09
1.125039274147996577e-09
8.152528815193999461e-10
5.917911744085773834e-10
4.335645779563182911e-10
3.224992688157718162e-10
2.439166245622640651e-10
1.878124177761390336e-10
1.465533087893587586e-10
1.151822050216187108e-10
9.057276206957919733e-11
7.075085356029152068e-11
5.455226565732817648e-11
4.129332440444166273e-11
3.055342186627749591e-11
2.203109272827053032e-11
