# bin_18_1
3.964667381355057633e-81
4.425056476214159641e-81
4.843880503927434001e-81
5.174963609421174149e-81
5.360422229920760321e-81
5.354037266991791034e-81
5.081629781701378117e-81
4.553516046444488443e-81
3.856206058477159699e-81
3.155604631793487398e-81
2.628447738539440609e-81
2.276579072789391429e-81
1.860364780457395574e-81
1.304087074935568869e-81
9.895300684724372791e-82
7.577418937470954032e-82
5.199452312822561534e-82
3.750847481195217314e-82
2.689323689078944807e-82
1.881566039231539619e-82
1.322267480307064420e-82
9.406952203014974818e-83
6.791947897114917040e-83
4.989132014651409547e-83
3.737090315597418689e-83
2.846652591191416918e-83
2.196557098975696944e-83
1.706267999068522247e-83
1.324596260957155332e-83
1.020464734578912566e-83
7.754810312376763924e-84
