# bin_15_6
1.647594016157083621e-25
1.832063196139890998e-25
1.996296149135940214e-25
2.120589846695973609e-25
2.180776466598262938e-25
2.158933250829525844e-25
2.025277787036226746e-25
1.795096453137064262e-25
1.504512017764581324e-25
1.229837565996831631e-25
1.034110356884822374e-25
8.953004652654015178e-26
7.101825618067106269e-26
4.914064793273840494e-26
3.874518977550872897e-26
2.823602534203390559e-26
2.025315806067036584e-26
1.404183506931859889e-26
1.017790290187379348e-26
7.185007351204675417e-27
5.088972557452868010e-27
3.657734387691905393e-27
2.667052962007240991e-27
1.981172869428043040e-27
1.499262386633120469e-27
1.151703076848503424e-27
8.938035061263788704e-28
6.959696195932826340e-28
5.398234182187221277e-28
4.143082680230373190e-28
3.129252211361967885e-28
