# bin_15_13
1.446706637817460796e-06
1.624734596585173148e-06
1.792033386622705735e-06
1.932606449419473931e-06
2.026027746523574590e-06
2.051468932799363339e-06
1.985971371555517385e-06
1.814626725908772566e-06
1.567917873168867440e-06
1.291531664732878449e-06
1.062028336461325312e-06
9.121554167413707532e-07
7.740867740603034676e-07
5.688831582219171960e-07
4.037127428266712286e-07
3.279527428154629332e-07
2.172479952144624384e-07
1.650103161649404243e-07
1.137386429723196107e-07
7.877793633661287699e-08
5.532241865359023446e-08
3.888146410522945561e-08
2.759041397767300280e-08
1.984770690156640975e-08
1.456634660784327281e-08
1.089540063113376595e-08
8.288327948437865097e-09
6.384756303769199674e-09
4.946529772730299747e-09
3.826108553465419914e-09
2.934025236094770667e-09
