# bin_19_14
5.793845984638771475e-10
6.549233879125182730e-10
7.280104810345431285e-10
7.926828444165586537e-10
8.410085437557504823e-10
8.633589513544977901e-10
8.525684254386167571e-10
7.970851542900681150e-10
7.042183360644237678e-10
5.885269611289587815e-10
4.812152611424768373e-10
4.060878372519441722e-10
3.514334851909608066e-10
2.756368480224057189e-10
1.900929760235980139e-10
1.514120429497039231e-10
1.078021261417140734e-10
7.812438081060811923e-11
5.289738977307304653e-11
3.771930412867726837e-11
2.613998347814612072e-11
1.807416020360628080e-11
1.259773898103875432e-11
8.859478780044402062e-12
6.335432881397657438e-12
4.619529473570290111e-12
3.434674912975320228e-12
2.600709523959263265e-12
1.995326816201606098e-12
1.540788778081818731e-12
1.188483018411958513e-12
