# bin_17_7
8.855841030261685061e-28
9.905668084480127572e-28
1.087207768838628313e-27
1.165371617320314035e-27
1.212293643612969141e-27
1.216828578071315920e-27
1.162928851091537548e-27
1.048888761258234943e-27
8.942550275941075567e-28
7.328898112879224919e-28
6.073364739522774405e-28
5.252378123888247594e-28
4.356366472334335450e-28
3.094730150271121203e-28
2.292868889577636557e-28
1.800991298795216266e-28
1.211759024322866604e-28
8.957238366207924243e-29
6.334465162615168641e-29
4.411723389189378266e-29
3.096610512820784026e-29
2.190238976404530877e-29
1.571649880461754243e-29
1.146367081407440967e-29
8.529410864758773854e-30
6.459589656910516730e-30
4.963043990161325169e-30
3.846584764513693449e-30
2.985705816493289153e-30
2.304307438382982086e-30
1.757030598007720504e-30
