# bin_18_17
5.928011543846620317e-06
6.712238188717071744e-06
7.476729109047053057e-06
8.161586074575148938e-06
8.686538316594919778e-06
8.952171558410871097e-06
8.885026203705840103e-06
8.359770742064020390e-06
7.429667884888793534e-06
6.241470855961509584e-06
5.103365113058541939e-06
4.284091832659437388e-06
3.712458309558416098e-06
2.964338216861128708e-06
2.049505343186799598e-06
1.602967046708418167e-06
1.175698895458444448e-06
8.291807998399820902e-07
5.708889170220112505e-07
4.084876345862996034e-07
2.816201193255076790e-07
1.933485111558606460e-07
1.340254556310300366e-07
9.369375625207102961e-08
6.648318736875096669e-08
4.808742477225116308e-08
3.547552810224022640e-08
2.668467116764313773e-08
2.037913773382328878e-08
1.570289321128802834e-08
1.211651023001494959e-08
