# bin_15_12
1.359327037130320289e-07
1.524573591991358100e-07
1.678839610467448504e-07
1.806914234886735160e-07
1.889486053541186969e-07
1.907808214674811417e-07
1.839085089458025455e-07
1.673030531101039133e-07
1.439093542214053155e-07
1.183076119475449818e-07
9.750781757670440700e-08
8.397620281945546219e-08
7.077473021491218724e-08
5.138365385851572026e-08
3.695619315208736848e-08
2.977611201657565463e-08
1.974824269967170739e-08
1.491928268163866686e-08
1.036886525946922381e-08
7.189063162336254183e-09
5.047404004517431224e-09
3.552020066856068890e-09
2.529619740361480283e-09
1.828233986900685966e-09
1.348095081864777083e-09
1.012758062778281268e-09
7.731954877264977542e-10
5.970030136127361140e-10
4.629325541453645191e-10
3.578821866937530366e-10
2.739544155335900090e-10
