# bin_20_9
2.143864978147120644e-28
2.415810363467973969e-28
2.675355068014545757e-28
2.899624317762147288e-28
3.058815752989508309e-28
3.118939736703950049e-28
3.051115411225658880e-28
2.820328864114386006e-28
2.465193141870318206e-28
2.043604856357239833e-28
1.673706281007882655e-28
1.425685854572976324e-28
1.226019736260776390e-28
9.308177106353584769e-29
6.460460089154600338e-29
5.251380097852373848e-29
3.560630207939338620e-29
2.680358604886457759e-29
1.811935110321710091e-29
1.266097675691369368e-29
8.864230274016610601e-30
6.205140841678562343e-30
4.363322442550609784e-30
3.101607317857186044e-30
2.247078902684519419e-30
1.660107008773031565e-30
1.249379933195879458e-30
9.551152003913650307e-31
7.371411386808815063e-31
5.702523777589630877e-31
4.389190354797506794e-31
