# bin_14_5
5.238434628460967601e-27
5.800139789775261823e-27
6.287039257724298737e-27
6.635058125662885600e-27
6.770375973221058181e-27
6.631703395864002226e-27
6.140882185657245130e-27
5.376966086480498308e-27
4.463043825349259688e-27
3.652770167344389548e-27
3.104348673646684870e-27
2.672289694501301985e-27
2.043554179561911286e-27
1.418870338453864010e-27
1.150404388870165540e-27
7.932953518479499883e-28
5.962897327309953900e-28
4.085511453772136547e-28
2.917704062644937840e-28
2.083392990844817574e-28
1.495656351361275041e-28
1.085547229263734558e-28
7.997618403407971784e-29
6.008323047934513231e-29
4.591761883127344043e-29
3.553973653447338125e-29
2.770287738146845501e-29
2.159046806597702155e-29
1.670707863860374752e-29
1.275661867972632952e-29
9.564050082026798150e-30
