# bin_16_5
1.904527080333297118e-35
2.120596963272878641e-35
2.314491496801896924e-35
2.463631986047186249e-35
2.540022057622154802e-35
2.522729481568339442e-35
2.376377057437806724e-35
2.114454925316890116e-35
1.778406246196056227e-35
1.453969095823702064e-35
1.218429381557612206e-35
1.055473157541620555e-35
8.466492188632289334e-36
5.875402367890332491e-36
4.573650418416483841e-36
3.394813031080996710e-36
2.394264378475869923e-36
1.680620273204556859e-36
1.217090359357640682e-36
8.563594729636819391e-37
6.043242213147451809e-37
4.328809292570772365e-37
3.146000333652159172e-37
2.328163086905893796e-37
1.755868881634825912e-37
1.345114672319487593e-37
1.042010717695132248e-37
8.108139006313142792e-38
6.291481273718025478e-38
4.835149370005467835e-38
3.659671836910104764e-38
