# bin_20_6
4.341523299591253678e-46
4.881329835896098830e-46
5.391364133987503545e-46
5.824152479010233791e-46
6.118721998050248416e-46
6.210257950337274224e-46
6.033632425644276504e-46
5.534296318069690197e-46
4.800498256784101555e-46
3.961882870454306304e-46
3.252408702835010109e-46
2.786211460888922548e-46
2.376857053697302276e-46
1.765774995124388223e-46
1.241142198633474697e-46
1.011721834273592494e-46
6.725841592153772347e-47
5.112967275880365987e-47
3.499574670357978638e-47
2.425793249657360962e-47
1.703637138694004515e-47
1.196710384361760108e-47
8.468178948154882415e-48
6.068992742397577487e-48
4.436676583941085782e-48
3.306366248966565568e-48
2.507373442790660409e-48
1.927413574676170656e-48
1.491839970343099747e-48
1.154224553370394646e-48
8.862715305658033674e-49
