# bin_6_4
5.871297710541886751e-07
6.257164590862114238e-07
6.465746474239867037e-07
6.441899183002743117e-07
6.098169842546436824e-07
5.452614156954350117e-07
4.609785257961569048e-07
3.771280996048233753e-07
3.143269029295195780e-07
2.717679300246062140e-07
2.211772252422530820e-07
1.558000709418947557e-07
1.189731384476604731e-07
9.114244225821222198e-08
6.385659005157515687e-08
4.673796124903037533e-08
3.420753599779817953e-08
2.476143766420104061e-08
1.816280718641718480e-08
1.356339231751190300e-08
1.031709367245018301e-08
7.982879585351187961e-09
6.261901134711335728e-09
4.947124083712577411e-09
3.909330124449300600e-09
3.068381474210482742e-09
2.376261711218591921e-09
1.805703578450862046e-09
1.340371424226956946e-09
9.688333790624137458e-10
6.812333713455289519e-10
