# bin_9_4
1.190989169830888712e-13
1.290435315448895272e-13
1.361643576073944367e-13
1.389543259359203312e-13
1.361614768011501810e-13
1.261803026507057963e-13
1.105712576547343914e-13
9.184674851235517386e-14
7.514896995138054253e-14
6.376700698022461249e-14
5.488497207955783689e-14
4.216697913013604190e-14
2.935360117219274552e-14
2.373339392876436276e-14
1.659374626282593265e-14
1.245833266777326827e-14
8.660590363250931010e-15
6.284245495043320621e-15
4.560016403641449139e-15
3.339395888421579397e-15
2.482156598686755156e-15
1.875840868042417967e-15
1.443357998628446409e-15
1.125726720255361228e-15
8.845409045505869352e-16
6.955724291146786984e-16
5.435025353842000048e-16
4.192790038423383513e-16
3.175922398658536514e-16
2.351863830853925187e-16
1.697385372005663126e-16
