# bin_4_1
2.727644653609242270e-09
2.782838949846801967e-09
2.727277490635305628e-09
2.530631053489270647e-09
2.220862866675286376e-09
1.849112151579753360e-09
1.513824437691832095e-09
1.280526137858751056e-09
1.099284320397236288e-09
8.521691663408258250e-10
5.995670564018439124e-10
4.781225263779751371e-10
3.440749387244343645e-10
2.555972300415008842e-10
1.831990045034445499e-10
1.356052125239224863e-10
1.006116130240498589e-10
7.576018944851258366e-11
5.814158054103317016e-11
4.539111608532102645e-11
3.593705737287409983e-11
2.866662808724600093e-11
2.286902957861595916e-11
1.811442226419037505e-11
1.415058444949518619e-11
1.083790867371308817e-11
8.100378846565304168e-12
5.891396441540373882e-12
4.165757146965560002e-12
2.867875719717511971e-12
1.927605994597323765e-12
