# bin_11_11
9.544025348434484343e-06
1.060940382592964176e-05
1.155619968719042383e-05
1.227008111440029628e-05
1.261128223978834067e-05
1.247579020455218976e-05
1.169274934081220012e-05
1.035501667203535461e-05
8.672501128747628804e-06
7.089373681704309562e-06
5.965578210002710133e-06
5.163511071065585568e-06
4.085531759651512972e-06
2.826551585776065768e-06
2.233952591212848571e-06
1.621502213537516244e-06
1.167358730499256721e-06
8.079591029034123221e-07
5.852876915053514604e-07
4.135305744259191774e-07
2.931988703052134817e-07
2.109022222626615581e-07
1.539016744785716623e-07
1.144230495511346768e-07
8.665647122135034872e-08
6.660678815050753149e-08
5.170909906527315810e-08
4.026608016367317272e-08
3.122551010172481931e-08
2.395469482889735328e-08
1.808165669929368451e-08
