# bin_9_2
4.040325932879310130e-23
4.346101203128992103e-23
4.544463505954755121e-23
4.590119934119996100e-23
4.430308109257064050e-23
4.037266320680969869e-23
3.479569584223215768e-23
2.863182160117999829e-23
2.355884542528823281e-23
2.023005435452880572e-23
1.709825627600985100e-23
1.254926803703017592e-23
9.003215974512612899e-24
7.287586437979232058e-24
4.932304063178197352e-24
3.767394289683350625e-24
2.670491092286573739e-24
1.916437054428374063e-24
1.399986645125455201e-24
1.034200146067457200e-24
7.768858661258321689e-25
5.937048372539206658e-25
4.612968234365446621e-25
3.622833564084856513e-25
2.857071106105805415e-25
2.246978579125617987e-25
1.750008532837557158e-25
1.341665567568363978e-25
1.007433198070483800e-25
7.380012736537746798e-26
5.262647013673332304e-26
