# bin_20_7
2.248121822059878190e-44
2.530028105757849693e-44
2.797385228274141743e-44
3.025743417383103713e-44
3.183553641962798763e-44
3.236475570232097075e-44
3.151742438833221225e-44
2.898202472153409384e-44
2.520277017000965073e-44
2.083096562998353561e-44
1.709162997059094211e-44
1.462275850525545697e-44
1.251082177623353027e-44
9.355259502522021791e-45
6.547871880520208069e-45
5.340851989950956859e-45
3.565923215734209454e-45
2.707951861459980346e-45
1.846564473402063072e-45
1.282017131092128328e-45
9.002389475279857877e-46
6.321814289884348569e-46
4.466719225410925772e-46
3.194565322335898749e-46
2.330055859529613384e-46
1.732647738771231539e-46
1.311468232479255540e-46
1.006803650548126598e-46
7.788173836575154441e-47
6.026642305448267487e-47
4.631513953420351259e-47
