# bin_13_11
1.618441771319091685e-11
1.806653145911275941e-11
1.977887854446369854e-11
2.113243687694104169e-11
2.189015618238292171e-11
2.186340036662326970e-11
2.074785259093097006e-11
1.858927196836744728e-11
1.574050780869579868e-11
1.288342017957882693e-11
1.073783651124473506e-11
9.303252253192315815e-12
7.596635411888405766e-12
5.322739255880112306e-12
4.046021311579527420e-12
3.093709570978072478e-12
2.126549379271812416e-12
1.532063416842315713e-12
1.099661547959826740e-12
7.698927879586202111e-13
5.413406547108727171e-13
3.854350472918348493e-13
2.785170593977815229e-13
2.047647516251735670e-13
1.534997946401560065e-13
1.170040106344269854e-13
9.032897592650906163e-14
7.018808357094822792e-14
5.449399720051529943e-14
4.198000328572795136e-14
3.189643373293118468e-14
