# bin_18_13
3.704382695407779521e-15
4.179030351066652281e-15
4.634035292184440175e-15
5.030206607475479408e-15
5.316131727424059467e-15
5.431899551224543905e-15
5.328936717132614431e-15
4.942193985146419703e-15
4.333684660705900935e-15
3.600704426509222954e-15
2.947980490796307497e-15
2.505759517506657596e-15
2.160242023908134273e-15
1.654669630270801742e-15
1.145422078436420694e-15
9.277204333288363692e-16
6.365553205702575774e-16
4.755677471327578023e-16
3.207423845642069333e-16
2.254660850364197933e-16
1.575410716598690240e-16
1.100482503802049639e-16
7.724720986596407157e-17
5.478269677261929699e-17
3.957841189135206642e-17
2.915849609604985160e-17
2.188879705695909781e-17
1.670143918870459484e-17
1.287628208104033034e-17
9.960031979981206944e-18
7.672270998600467442e-18
