# bin_15_14
6.713935214903719034e-11
7.551936225917788546e-11
8.344803297587496918e-11
9.019120027782952941e-11
9.480436885337212294e-11
9.627772874434464859e-11
9.360641134908449035e-11
8.592456866687669270e-11
7.458802071566576266e-11
6.159115670942364501e-11
5.056747995699285615e-11
4.331677365468322107e-11
3.698282731393509648e-11
2.751815781601061904e-11
1.932912111019155275e-11
1.576103063197003255e-11
1.048962862159438475e-11
7.973775020592296953e-12
5.454492946969077961e-12
3.782906976545928625e-12
2.657190844245690196e-12
1.866788128667696716e-12
1.320817505887927935e-12
9.463670111649921133e-13
6.916162454990970211e-13
5.152535998743616540e-13
3.906329064818684940e-13
3.002261405756860381e-13
2.323698845917907224e-13
1.798041842789238286e-13
1.381002413623465713e-13
