# bin_4_3
1.676403424043183670e-10
1.745761189636165853e-10
1.755542470149192426e-10
1.684214634175528339e-10
1.526071272914671500e-10
1.307885942298452106e-10
1.074470588138063647e-10
8.874024213782760548e-11
7.635151920802017331e-11
6.384979271204986739e-11
4.638885334289430498e-11
3.394774381854501399e-11
2.709042860601155339e-11
1.863675527602728233e-11
1.412815968215126929e-11
1.019989510946092530e-11
7.429725757401971244e-12
5.510511040723539312e-12
4.151006501409779205e-12
3.184774439395094721e-12
2.484077489580702772e-12
1.963155071045669011e-12
1.560987896278244010e-12
1.239854799594766881e-12
9.768232914754483521e-13
7.583263973466263371e-13
5.768601181913511692e-13
4.281209197482019941e-13
3.091283158987734613e-13
2.170756826984154678e-13
1.484647964480521938e-13
