# bin_13_13
1.154166539442786143e-10
1.292564027168519139e-10
1.420697220716322268e-10
1.525436457437426729e-10
1.590195260705131486e-10
1.599907644044189249e-10
1.534036652855636830e-10
1.388023357493409124e-10
1.187307966954695813e-10
9.742367936846663023e-11
8.059551242116635546e-11
6.963593248287938318e-11
5.810765318792267447e-11
4.157925390686890699e-11
3.049720603750691592e-11
2.419523259933564025e-11
1.618121239831469831e-11
1.207122140007826948e-11
8.487328256239394426e-12
5.903342454430586123e-12
4.145530759428800810e-12
2.927582962518159629e-12
2.096376721942626685e-12
1.525220449651135865e-12
1.132021249542206393e-12
8.554470583544460010e-13
6.561654782520854513e-13
5.081086736162313287e-13
3.943738114876752672e-13
3.046006364663424535e-13
2.325905904485706241e-13
