# bin_13_6
2.839064002070503883e-23
3.140332861759588446e-23
3.399522653376077769e-23
3.581624854535291170e-23
3.647424268882498302e-23
3.561984983763507810e-23
3.286691122392197449e-23
2.867978521269876404e-23
2.375405886911232574e-23
1.946412267685350104e-23
1.659560194261893326e-23
1.424481493244321989e-23
1.077969402754982944e-23
7.519853392857792904e-24
6.122602052147238725e-24
4.169857399715978622e-24
3.161974518080089245e-24
2.174880073207431243e-24
1.545446960577364155e-24
1.106582675336776271e-24
7.967656919175800104e-25
5.799747432740763735e-25
4.286940891531098485e-25
3.231288271284088615e-25
2.476366389731990636e-25
1.920640412627235704e-25
1.498806935567773478e-25
1.168282484913115110e-25
9.033828138573700201e-26
6.887727819874264895e-26
5.153380449320574721e-26
