# bin_16_15
6.464152834698388721e-11
7.289601467143712224e-11
8.079562043769104040e-11
8.765338294867906238e-11
9.257057019607859152e-11
9.450928989228624252e-11
9.261010419886175360e-11
8.577054791365027774e-11
7.511072220409394598e-11
6.234950339702062547e-11
5.106054032157259998e-11
4.344929627139899616e-11
3.742158187304846247e-11
2.855136096054722789e-11
1.978858901827095280e-11
1.605773082505313843e-11
1.095813389793300864e-11
8.217955836381822936e-12
5.548161466025203144e-12
3.889909040897771373e-12
2.721164783533886689e-12
1.903259582597062891e-12
1.337392677778073313e-12
9.497245889331567906e-13
6.872131593918098441e-13
5.070730488308287958e-13
3.811863263140515919e-13
2.911622359075896980e-13
2.246176880359160099e-13
1.737698042662607106e-13
1.338128456348443067e-13
