# bin_12_8
1.420140964036474781e-14
1.572946594687626496e-14
1.705580703189164220e-14
1.800643174125771475e-14
1.838065687727694814e-14
1.801149450988150788e-14
1.668588419114686858e-14
1.461648212925335186e-14
1.213732490201513382e-14
9.936648890149095161e-15
8.445816080488657088e-15
7.272209528468948756e-15
5.565408007880681208e-15
3.865559593053408130e-15
3.133033219270957789e-15
2.163262670323491233e-15
1.624832669050978174e-15
1.113942621193610875e-15
7.959983881155335818e-16
5.683710172230929784e-16
4.080037364461952698e-16
2.961533382195410655e-16
2.182020929715314186e-16
1.639319530428225863e-16
1.252856173952787255e-16
9.697370392593726849e-17
7.559563359028546641e-17
5.892330510751899318e-17
4.560397845014173270e-17
3.482885321954978696e-17
2.611961791890116824e-17
