# bin_12_1
2.001363701121286160e-51
2.184641192474855206e-51
2.326452201871609575e-51
2.400548151156233514e-51
2.386887506461409416e-51
2.252279436827078390e-51
2.007476156245887361e-51
1.691501127736483909e-51
1.383366793025879464e-51
1.157301743105574976e-51
1.002093500925288490e-51
8.080704738291755624e-52
5.639613423960952890e-52
4.365413870482801536e-52
3.282294199093717216e-52
2.315024678996404676e-52
1.656852761396964786e-52
1.210077636168423180e-52
8.658604059152605951e-53
6.247781172434592173e-53
4.587029989231942747e-53
3.426065905695896110e-53
2.605446564832502625e-53
2.013719296631493453e-53
1.573208761894453970e-53
1.234686083427801404e-53
9.666021400852612776e-54
7.496574069184884531e-54
5.725859378880372275e-54
4.286289889243430395e-54
3.132886024994961146e-54
