# bin_15_3
3.139186610428808174e-50
3.478106003694092887e-50
3.772913513331749718e-50
3.985206915811174177e-50
4.070374383385188662e-50
3.991938155990271420e-50
3.701707830858386004e-50
3.245627935154501279e-50
2.696775406314547570e-50
2.207329435141123202e-50
1.874744052389313851e-50
1.615475216196800422e-50
1.239622528172963923e-50
8.600822317530752921e-51
6.963822581119646960e-51
4.823774413618350932e-51
3.615218951747767275e-51
2.476320259335923100e-51
1.771929582814781793e-51
1.264408353120641349e-51
9.070186940086459367e-52
6.579328221735120221e-52
4.843879332893885766e-52
3.636306838113481624e-52
2.777236010830578389e-52
2.148607998125786653e-52
1.674529415616624344e-52
1.305218121147424606e-52
1.010405110837039839e-52
7.719872140278667008e-53
5.792713303593011216e-53
