# bin_7_3
4.997167075468410459e-16
5.330401022238917423e-16
5.513914216219480280e-16
5.500349039650190187e-16
5.214802592877861002e-16
4.669554903174608231e-16
3.953214139678117675e-16
3.235537929430972138e-16
2.694926612907892176e-16
2.330571771744706802e-16
1.902706735526534633e-16
1.342612301848788340e-16
1.021602072721166642e-16
7.863185063913819424e-17
5.490085940905685242e-17
4.032333834013478522e-17
2.948281059376556361e-17
2.132869486567604119e-17
1.563892997013928670e-17
1.167183878816453336e-17
8.873634465031957370e-18
6.862601027555508724e-18
5.381468853811878445e-18
4.251171403979689036e-18
3.359876350854959013e-18
2.638159184650509360e-18
2.044326000645923002e-18
1.554701719857334198e-18
1.155129861182786525e-18
8.357799004753077848e-19
5.882689890011625741e-19
