# bin_5_5
3.010011778090194958e-10
3.206847150295221139e-10
3.312248010706623111e-10
3.297932744587898030e-10
3.119138657699996464e-10
2.786655580183791393e-10
2.354179258212985416e-10
1.926327252824680145e-10
1.607480941971486881e-10
1.390074404248854984e-10
1.128288662195199998e-10
7.941474815621516652e-11
6.087141290032907923e-11
4.643179985454048328e-11
3.266775366007117206e-11
2.384069833791636733e-11
1.746634581355265578e-11
1.265651494442430122e-11
9.292461566853886017e-12
6.946081187042865685e-12
5.288209086946422319e-12
4.095144867741008118e-12
3.214326318221673717e-12
2.540487296664536219e-12
2.007937661821549015e-12
1.575964574886900719e-12
1.220221899736135757e-12
9.268837641088438102e-13
6.876700480279196969e-13
4.967598988607803835e-13
3.490869530698935729e-13
