# bin_20_1
6.818051739806424734e-97
7.650483845229158379e-97
8.428911357480309776e-97
9.077041299823704314e-97
9.497864834432412128e-97
9.596463711331318510e-97
9.258753366709267580e-97
8.430115877284833034e-97
7.257772344763620068e-97
5.969738471979490307e-97
4.919939034789062794e-97
4.236879734529188075e-97
3.575251874660147980e-97
2.600472426214781068e-97
1.867318988196569613e-97
1.506919135718005817e-97
9.992631558532221316e-98
7.558953966840437461e-98
5.249457842666663947e-98
3.640290154402295816e-98
2.557009057293457035e-98
1.799863441131178510e-98
1.281815503827696967e-98
9.263129050850522945e-99
6.829552643812271214e-99
5.130074266383076033e-99
3.916197540105709532e-99
3.023721371233892813e-99
2.344849550217570896e-99
1.813079135241858383e-99
1.388287761324265067e-99
