# bin_5_3
1.049796358095208702e-11
1.103409171273075680e-11
1.121330394973324733e-11
1.092380560074919215e-11
1.005921661440205182e-11
8.761822503968084908e-12
7.253425139136022031e-12
5.946642748041984494e-12
5.067258600855871782e-12
4.333525117228961693e-12
3.279950783223505338e-12
2.311774650925575334e-12
1.873152097307394579e-12
1.301280412661889223e-12
9.879875711515374820e-13
6.986682420429971770e-13
5.104099428776455628e-13
3.766647056240110514e-13
2.815036504862962699e-13
2.139816575990161251e-13
1.654286959813032548e-13
1.298674647698107682e-13
1.028756957095985578e-13
8.165509952485340164e-14
6.448288074618896305e-14
5.031723056641294106e-14
3.856649190967423408e-14
2.889262961446255020e-14
2.108304608410305885e-14
1.496162408330362758e-14
1.033251184710471245e-14
