# bin_17_16
6.243754044402891919e-11
7.057191024661361070e-11
7.843452723890111212e-11
8.537924124684099717e-11
9.054761664935307280e-11
9.290253016775760203e-11
9.166420897748715828e-11
8.560366782973202286e-11
7.555360384783345695e-11
6.309050493089473323e-11
5.160586268902036920e-11
4.361227058023023216e-11
3.773464169554543472e-11
2.948481607412013199e-11
2.034096849527185284e-11
1.626153565107530259e-11
1.150534798165758708e-11
8.388690770341820346e-12
5.669247960610323598e-12
4.036440989833751036e-12
2.802035300330878866e-12
1.941724408325733258e-12
1.355639509010433965e-12
9.551593754043711441e-13
6.845783260938458297e-13
5.003049318737989102e-13
3.727778499780817572e-13
2.827588051888969777e-13
2.171962818750059351e-13
1.678089394561761626e-13
1.294274498709712618e-13
