# bin_12_7
5.423888831411866397e-17
5.994410338970241931e-17
6.482456463223260488e-17
6.820878009182803236e-17
6.936059380919232452e-17
6.758984662124895684e-17
6.221412337048615642e-17
5.415794613957294082e-17
4.479213102216000509e-17
3.672882357108153665e-17
3.137263842565771077e-17
2.686384884976478350e-17
2.019157450259360577e-17
1.413889015147899984e-17
1.152584821136771181e-17
7.799884608984015492e-18
5.936170154518887139e-18
4.096752776715442457e-18
2.903723032008550983e-18
2.081516207800569022e-18
1.500627108021297992e-18
1.094189728966421146e-18
8.103941211936600590e-19
6.120313421438255194e-19
4.698049323909765257e-19
3.647959202679615575e-19
2.848334102895981266e-19
2.220067437484345121e-19
1.715625872662555426e-19
1.306646217410343847e-19
9.762012922428942001e-20
