# bin_11_6
2.051890584103389611e-17
2.255425884486503357e-17
2.422719080086643940e-17
2.527689737159263803e-17
2.546044183719297127e-17
2.446111040265380804e-17
2.218072789148706064e-17
1.901741222511416633e-17
1.561659294642380222e-17
1.289492104644364769e-17
1.111975512972105335e-17
9.319823159853619656e-18
6.726129065562305017e-18
4.898690751584148512e-18
3.922231340516351947e-18
2.636719043917492401e-18
1.992398300545085734e-18
1.411645928164750505e-18
9.988182238908254305e-19
7.173955281122599580e-19
5.200896571981993719e-19
3.833439664981054721e-19
2.874954579249873440e-19
2.196257110550281641e-19
1.701343134557867605e-19
1.329096080026071998e-19
1.040177104835192461e-19
8.096430017221348370e-20
6.227944547775057257e-20
4.708717991716625339e-20
3.484331011546995053e-20
