# bin_19_12
2.356416407514716660e-19
2.659212652660299725e-19
2.949888151098997856e-19
3.203607558799398034e-19
3.387715527690778969e-19
3.463880429969200934e-19
3.401546011355290891e-19
3.158361496375615839e-19
2.772562173460346794e-19
2.305439404012475149e-19
1.887119815657633319e-19
1.602518739620209462e-19
1.382624331397166681e-19
1.062554951026863073e-19
7.348433030113459711e-20
5.941670572617515520e-20
4.096219860173126141e-20
3.049918327214447431e-20
2.055593954471938786e-20
1.448260342788049291e-20
1.010911662720236185e-20
7.053493137179337904e-21
4.946695383684819454e-21
3.504218843351384581e-21
2.528318775216934821e-21
1.860232487653815923e-21
1.394770855563790594e-21
1.063246520836611201e-21
8.192813178378944797e-22
6.336454989326887184e-22
4.882288910086508664e-22
