# bin_17_7
1.164175508009858991e-32
1.302509446224981699e-32
1.429929058928203651e-32
1.533084448400539891e-32
1.595149608008531255e-32
1.601436171360901526e-32
1.530743520544327178e-32
1.380857547094872401e-32
1.177465486281285113e-32
9.652306424765420661e-33
8.001657367313876109e-33
6.922134375845597178e-33
5.741257170472120551e-33
4.078498124742216809e-33
3.023910450429810027e-33
2.374740516920298484e-33
1.598829810208448675e-33
1.181707284082138603e-33
8.362216084717471852e-34
5.826939640117938109e-34
4.091919844424137161e-34
2.896024203091005683e-34
2.079494183656191010e-34
1.517853096061635120e-34
1.130091095732128315e-34
8.563553598296383228e-35
6.582645612385332027e-35
5.103519565514448031e-35
3.962087256600620204e-35
3.058086991527429625e-35
2.331757687978754477e-35
