# bin_1_5
4.950075143063747471e-07
4.766997698671941672e-07
4.346616670367653735e-07
3.753072435193657640e-07
3.104731358718777903e-07
2.562651127962217781e-07
2.182783266457701721e-07
1.827083047562071279e-07
1.371033321454191393e-07
9.991331833923314000e-08
7.831758562642644907e-08
5.630611172986833282e-08
4.196135234576574515e-08
3.069310744480313949e-08
2.285884943013040922e-08
1.724559244171403684e-08
1.324762655787721266e-08
1.036748606565882153e-08
8.236063214867450245e-09
6.605885461228873854e-09
5.309363485549512697e-09
4.243961771629432193e-09
3.350354286924087118e-09
2.596117534340385299e-09
1.964898112714809836e-09
1.447845932281107894e-09
1.037471318492752871e-09
7.235050694840878415e-10
4.922120318887610962e-10
3.276938695300215727e-10
2.142143953402684094e-10
