# bin_2_8
4.557592255777116158e-07
4.572024345878307335e-07
4.377063838128832540e-07
3.962653037537571454e-07
3.395908524741878431e-07
2.795632293108443200e-07
2.312846509892789194e-07
1.981324505791866055e-07
1.646218863483001465e-07
1.208539755630401577e-07
8.891574235316876350e-08
6.985156656318119159e-08
4.933779301460571172e-08
3.697608855576408631e-08
2.690076790696612231e-08
1.988060761134433059e-08
1.491417428765395023e-08
1.138263256898162081e-08
8.848215449078807904e-09
6.984375834675176083e-09
5.571521340516145794e-09
4.458297524035478700e-09
3.552129843374919984e-09
2.798369207025582720e-09
2.166117793810297312e-09
1.639030015564135564e-09
1.207999319694690568e-09
8.657948718984225677e-10
6.037663920899306732e-10
4.105741271434463739e-10
2.731289250541325970e-10
