# bin_19_18
1.336947829460392730e-09
1.515081622827500289e-09
1.689394323709153871e-09
1.846488938914495983e-09
1.968380198239615150e-09
2.032653142130740676e-09
2.022416158457146431e-09
1.909037346156890997e-09
1.701803710171242765e-09
1.433720433559785766e-09
1.172598125551729971e-09
9.817394349811512722e-10
8.509012403278473184e-10
6.852913489504464945e-10
4.754277518519632868e-10
3.678357552996776664e-10
2.737600136697498093e-10
1.905469204970972746e-10
1.328095498774426878e-10
9.480838308132428502e-11
6.521832049874124297e-11
4.467483767751113392e-11
3.087931866256507400e-11
2.152576375229031559e-11
1.521716645469806059e-11
1.096311262394529587e-11
8.056011856382156424e-12
6.038704922862872787e-12
4.599988731800925256e-12
3.539568037377774078e-12
2.730784006842053203e-12
