# bin_2_4
2.347243610038512112e-07
2.349004476155057283e-07
2.241395875285273879e-07
2.022235755985234249e-07
1.727280935200146788e-07
1.420118972953849113e-07
1.177006005447995160e-07
1.009599656627216658e-07
8.341742873571621074e-08
6.081271236529044036e-08
4.507842856692217494e-08
3.525190711700857919e-08
2.490316159373182379e-08
1.864843253999529089e-08
1.360220386302903062e-08
1.005675494462728735e-08
7.556182321559086411e-09
5.777922309548613735e-09
4.499556299048239142e-09
3.557136867344851457e-09
2.840335656184701635e-09
2.273598609590933853e-09
1.810976599100777578e-09
1.425459301859224851e-09
1.101878490345580363e-09
8.322620850718048206e-10
6.121407167072519786e-10
4.378001514989297219e-10
3.046891851810315254e-10
2.068258865139749435e-10
1.373816412612914974e-10
