# bin_3_20
5.278256010736154874e-07
5.434712179767536637e-07
5.390126017931095782e-07
5.078523508976355287e-07
4.523036419605405167e-07
3.814944252323783220e-07
3.125180770596844373e-07
2.612824972954132484e-07
2.249251784181210272e-07
1.810250747492853172e-07
1.286790468277500223e-07
9.874286553141277401e-08
7.476546469088306910e-08
5.340036728451277814e-08
3.922115491210069518e-08
2.878722668365891077e-08
2.115834131700902828e-08
1.580313737775210070e-08
1.201904905046105712e-08
9.307283564894790276e-09
7.318705889510063346e-09
5.813957175156487662e-09
4.631991879600677677e-09
3.674335950700698805e-09
2.882133876444454889e-09
2.221626345189122918e-09
1.674324553359552354e-09
1.229365080737737437e-09
8.778346614198425284e-10
6.099585905631630239e-10
4.133172263754961207e-10
