# bin_2_5
3.099497368934164066e-07
3.105558230629821256e-07
2.968204859589546856e-07
2.682578926400409890e-07
2.295115660729651499e-07
1.888197418753245420e-07
1.563527284370285449e-07
1.340279584713599325e-07
1.110509054514436056e-07
8.124293890866358898e-08
5.999517135442713325e-08
4.702572596925548900e-08
3.321735595645813229e-08
2.488498230329582188e-08
1.812735965423111531e-08
1.339958407696522751e-08
1.005997984685044177e-08
7.685140400694807642e-09
5.979379846738008744e-09
4.723423530497323338e-09
3.769766317461808332e-09
3.017062597321678433e-09
2.403500186070960789e-09
1.892665705401996993e-09
1.464039811580705986e-09
1.106802067482606357e-09
8.149056902927298744e-10
5.834399191859518710e-10
4.064584395075016673e-10
2.761555905044054898e-10
1.835718351269305793e-10
