# bin_11_12
2.176815517072088006e-08
2.416074832870918376e-08
2.626708961327586998e-08
2.782421840226350862e-08
2.851746909669548840e-08
2.810407184040786668e-08
2.621804611792774355e-08
2.311815694328853297e-08
1.929420040275156497e-08
1.577798932131387579e-08
1.332734417964918445e-08
1.151413290218597440e-08
8.993511818516088168e-09
6.226630240676572393e-09
4.972618686226977241e-09
3.539084767216289596e-09
2.591459839397547169e-09
1.783928473955314924e-09
1.286183358025819394e-09
9.123801789122732961e-10
6.500108866555975757e-10
4.691853452296341836e-10
3.436312607100178302e-10
2.565166449984201418e-10
1.949589345341009926e-10
1.502634112750678407e-10
1.168455678894767436e-10
9.102285515165372931e-11
7.053073076094501267e-11
5.401073838003972714e-11
4.066307560696804985e-11
