# bin_14_9
6.250908115559508458e-16
6.962860232203127839e-16
7.603232421469503359e-16
8.098127607200395308e-16
8.355707445640632869e-16
8.306745932077881001e-16
7.834683085735192898e-16
6.979353485574358054e-16
5.876694953530872725e-16
4.805158192506598720e-16
4.022617760921883054e-16
3.484785932028662920e-16
2.804388310919055108e-16
1.948866633085055207e-16
1.510720982194312596e-16
1.127415665804418009e-16
7.912540405965320325e-17
5.578795606254657094e-17
4.035196262598202615e-17
2.836460791271767459e-17
1.999931971080498558e-17
1.430962026541531377e-17
1.038869420444250557e-17
7.678834941522708084e-18
5.784956145837921508e-18
4.427704167942210033e-18
3.427902858125851179e-18
2.666672242698396966e-18
2.069400905902118053e-18
1.591035406546122465e-18
1.205031015130184053e-18
