# bin_16_5
1.456375268325301868e-40
1.621096465879652948e-40
1.768642816555012219e-40
1.881712181632225264e-40
1.938898033274542055e-40
1.924256355495266065e-40
1.810868227203663267e-40
1.609817901477902949e-40
1.352838063451232846e-40
1.105970830443088512e-40
9.275399127174442455e-41
8.034153160073164294e-41
6.428104392323939749e-41
4.457068679810957322e-41
3.480343900552358781e-41
2.572386839068866468e-41
1.821315964752007982e-41
1.274437550547794573e-41
9.234153788706344483e-42
6.502224770917974418e-42
4.592179569797246961e-42
3.292145031677424429e-42
2.394489386423318343e-42
1.773616259533973398e-42
1.338729043964913726e-42
1.026235855877839828e-42
7.953343177864942663e-43
6.189705950925469551e-43
4.802406458672264422e-43
3.689537939196113993e-43
2.791128918916473342e-43
