# bin_20_12
1.255723951820820316e-21
1.418255533267259745e-21
1.574935229802288237e-21
1.712715820266878420e-21
1.814327607520704499e-21
1.859079716967591644e-21
1.831238815656663240e-21
1.706773542667621407e-21
1.503593443495456466e-21
1.253591415510906163e-21
1.025264436856928686e-21
8.674473583897473507e-22
7.498322641577406770e-22
5.828907709799761678e-22
4.021607395321009919e-22
3.226468013598149912e-22
2.264338282457004726e-22
1.661631852413505421e-22
1.120563942309399732e-22
7.954411867634581326e-23
5.529029274744920150e-23
3.838319404876192806e-23
2.682477196418124037e-23
1.892350297876290846e-23
1.358506303640305863e-23
9.945147091252154450e-24
7.422105206941268109e-24
5.637117638879749629e-24
4.333538113794113175e-24
3.348885359777211942e-24
2.581969411022625715e-24
