# bin_5_6
6.109580181141286863e-08
6.484855274577208078e-08
6.668028612672800461e-08
6.601511252605772155e-08
6.199679840420091066e-08
5.502424632296086721e-08
4.621900390369383597e-08
3.780676773967985669e-08
3.170771896927605850e-08
2.737141239023828921e-08
2.184063527048134321e-08
1.532090959734374403e-08
1.194393923424776031e-08
8.886919779026616877e-09
6.382887498400319238e-09
4.597706134302938296e-09
3.373719989760212299e-09
2.455775750588071093e-09
1.810488400134419669e-09
1.358950895347568578e-09
1.038458525620662456e-09
8.069237842379540166e-10
6.348404195405086777e-10
5.023006237189079607e-10
3.969190590242435432e-10
3.110610056188608507e-10
2.402150507603963222e-10
1.818162074015480945e-10
1.343149686610127951e-10
9.657939146608490196e-11
6.756087760641854656e-11
