# bin_10_7
2.360153044681277471e-12
2.589168915616520230e-12
2.774629012012927639e-12
2.886323898071015209e-12
2.897645394286675270e-12
2.771072407758444829e-12
2.501448357824003607e-12
2.134805311162814061e-12
1.750227404095376280e-12
1.448948139577082765e-12
1.251238786378289103e-12
1.039732825286338655e-12
7.429542897138937079e-13
5.488950277432954982e-13
4.336412976946573781e-13
2.939485417951885324e-13
2.195734813266670893e-13
1.568172882136039853e-13
1.111858587562189944e-13
7.987103678706262520e-14
5.804600954721176480e-14
4.291414435406345764e-14
3.229056631135744138e-14
2.473737511097094711e-14
1.920296663500583080e-14
1.501888248258835474e-14
1.175516388564898560e-14
9.141495120557925062e-15
7.019157892290780121e-15
5.293502824616305959e-15
3.904784833733273423e-15
