# bin_5_12
2.488647218676931851e-07
2.648678472710042614e-07
2.732722937908973384e-07
2.716901306365261633e-07
2.565801525184353107e-07
2.289416150747285745e-07
1.932686633869124247e-07
1.581950074985239083e-07
1.321113453677687008e-07
1.140496587272962861e-07
9.221488211103764599e-08
6.510689249712241310e-08
4.992271586574472718e-08
3.789157025099984522e-08
2.678897933480614640e-08
1.954210996060538027e-08
1.426848580089654645e-08
1.034854664175250055e-08
7.608392844308621541e-09
5.690294569773637984e-09
4.333294049708673692e-09
3.356239157122408597e-09
2.634335526858477186e-09
2.081664004198985158e-09
1.644629191225357697e-09
1.290052733689343062e-09
9.981157021165973375e-10
7.575384630863374419e-10
5.615434906056160902e-10
4.053310290670865485e-10
2.846535206801784267e-10
