# bin_20_7
1.031248459645585239e-44
1.160026424009636327e-44
1.281972484667775277e-44
1.385866609900784218e-44
1.457258444251600427e-44
1.480526336694052454e-44
1.440577552157214608e-44
1.323528041725597423e-44
1.149933249036925826e-44
9.498810493469187200e-45
7.793085433055869985e-45
6.668341263776915383e-45
5.699873879467175085e-45
4.254061658348217188e-45
2.980021411645893196e-45
2.430100158604827449e-45
1.620146720399738544e-45
1.230600185932669672e-45
8.398045980324313771e-46
5.826625606816824251e-46
4.090983133892489791e-46
2.872587234268887183e-46
2.030091507118690004e-46
1.452458026736974844e-46
1.059876176698749409e-46
7.884904362700024705e-47
5.970595036947650093e-47
4.584800788483200223e-47
3.546903737152981393e-47
2.744358402383269182e-47
2.108418766629034594e-47
