# bin_19_11
2.678608039481506450e-22
3.018316046289667617e-22
3.342501038086417413e-22
3.622575361848621367e-22
3.821299318302515145e-22
3.896230247080203806e-22
3.811243137261135187e-22
3.522690152863599001e-22
3.078878871244103972e-22
2.552225634142051916e-22
2.090303954945752927e-22
1.780641088441894788e-22
1.531144227316273415e-22
1.162238734538742821e-22
8.067661822069028161e-23
6.558087412083303357e-23
4.445945696174056230e-23
3.347277137420396731e-23
2.263285299741545566e-23
1.581565646620520334e-23
1.107508869317408836e-23
7.754736246385074555e-24
5.454807542808030561e-24
3.879047437012913016e-24
2.811554340025673608e-24
2.078027786644531951e-24
1.564499870088605564e-24
1.196360838637292477e-24
9.234874062088115656e-25
7.144414287931851414e-25
5.498602919630872125e-25
