# bin_8_12
1.026308224266482097e-07
1.122398831369728677e-07
1.198155633430833056e-07
1.240284931969834599e-07
1.237962774017902154e-07
1.174551372461671860e-07
1.052368079485469799e-07
8.914704385108011827e-08
7.297575691392904791e-08
6.076643225708007969e-08
5.254471972042741382e-08
4.291471223816625413e-08
3.026639671941903787e-08
2.294888517679163377e-08
1.762885368900132011e-08
1.221801685139494104e-08
8.914387239088503187e-09
6.442171737084509485e-09
4.590898487611877079e-09
3.306253835054709783e-09
2.416372792779410632e-09
1.796720743623855478e-09
1.360069833782954718e-09
1.047156465141690663e-09
8.158101392527940024e-10
6.392718487837353163e-10
5.003679313852657044e-10
3.884626796592653497e-10
2.973314669706602100e-10
2.232497054116798380e-10
1.637957466638909260e-10
