# bin_16_17
1.298461813763956750e-08
1.464002156198903518e-08
1.622392177078501485e-08
1.759868585432339603e-08
1.858427920276203135e-08
1.897285226423485581e-08
1.859249566314531143e-08
1.722226905575436220e-08
1.508378729563200127e-08
1.252254915770020124e-08
1.025231647504744473e-08
8.717818910135908147e-09
7.506734244339999597e-09
5.734235008588215841e-09
3.973891583680715728e-09
3.219101443344957906e-09
2.202894545436333132e-09
1.647192777807551120e-09
1.112585447428315512e-09
7.809462388346292592e-10
5.457410645046826028e-10
3.812486266707108406e-10
2.677182375706076599e-10
1.899798257711634199e-10
1.373543270402303099e-10
1.012675455279273862e-10
7.607019821201121190e-11
5.806924656354817073e-11
4.477782706950130999e-11
3.463223743691535819e-11
2.666643732522732370e-11
