# bin_17_18
1.196864278961656866e-08
1.352473287404281387e-08
1.502825797729108654e-08
1.635556953096249969e-08
1.734255946369357588e-08
1.779122350377162966e-08
1.755221413046015945e-08
1.639126593476129055e-08
1.446631388545570093e-08
1.207996193492118226e-08
9.878873935715546055e-09
8.344423143646626088e-09
7.217098292298001481e-09
5.642459326865009143e-09
3.893744242610137512e-09
3.107737765073374367e-09
2.201857983546418777e-09
1.601993828754095254e-09
1.084580785397953981e-09
7.716969098699828415e-10
5.354323319121298523e-10
3.707762536747504705e-10
2.587004047958865053e-10
1.821649059911813201e-10
1.304678651182668119e-10
9.528126749056326927e-11
7.094659620185502125e-11
5.378277873135318133e-11
4.129336642889915586e-11
3.189375865096577459e-11
2.459459584963547615e-11
