# bin_1_12
-5.586560036464787797e-54
-6.092934056540773800e-54
-6.481976146939793720e-54
-6.680534660178815447e-54
-6.633279492967006447e-54
-6.248367105846417503e-54
-5.560142869268443033e-54
-4.677705943217687629e-54
-3.824047954246070197e-54
-3.201969416579413498e-54
-2.771651298454246156e-54
-2.226329443619511218e-54
-1.551080829134852077e-54
-1.205898540837085449e-54
-9.011513334699999113e-55
-6.388046718793567148e-55
-4.550487399714879270e-55
-3.326812370040545911e-55
-2.382569270586973121e-55
-1.720450606546310772e-55
-1.264303891722609662e-55
-9.451035406766454881e-56
-7.193607116411565629e-56
-5.563659226091106006e-56
-4.348415745691213784e-56
-3.413093296740745674e-56
-2.671396608141696831e-56
-2.070705544020074424e-56
-1.580311364597912702e-56
-1.181770431170807671e-56
-8.627252370620065137e-57
