# bin_11_4
-1.376480707133369032e-09
-1.443910807767020271e-09
-1.464263900361378738e-09
-1.422258470254591320e-09
-1.306236220751321062e-09
-1.134752793807331885e-09
-9.388441258125710605e-10
-7.709505696943338776e-10
-6.572479211302577472e-10
-5.589218556126585184e-10
-4.211327689596111614e-10
-2.996638611002020761e-10
-2.404056463450709365e-10
-1.682325719829550471e-10
-1.265927390851382208e-10
-9.019012819784624514e-11
-6.593539157226024889e-11
-4.862660965149254759e-11
-3.634743236552865042e-11
-2.765558324571956272e-11
-2.140179972593229656e-11
-1.681045748079332219e-11
-1.331819272983326012e-11
-1.056749585638730530e-11
-8.338703954376939232e-12
-6.499378681389356472e-12
-4.974337612141898066e-12
-3.720588765605279332e-12
-2.710500864852921619e-12
-1.920688718633335056e-12
-1.324806981070836194e-12
