# bin_20_3
-2.417567128442435235e-09
-2.489026618266794684e-09
-2.468353966230215519e-09
-2.325351257424469214e-09
-2.070740801771991760e-09
-1.746362329092614915e-09
-1.430591961014979939e-09
-1.196168484391101173e-09
-1.029711508349920737e-09
-8.284879613903463816e-10
-5.888442113778872137e-10
-4.520042902201052885e-10
-3.421111703296539229e-10
-2.444180045705496683e-10
-1.794825218754049949e-10
-1.317480472281008968e-10
-9.684028854599424733e-11
-7.233438604596965381e-11
-5.501793353339259673e-11
-4.260767375197321197e-11
-3.350622402640979655e-11
-2.661825225736672037e-11
-2.120710930393939162e-11
-1.682240230862120633e-11
-1.319498078646004013e-11
-1.017050184350011106e-11
-7.664443623349504549e-12
-5.627129764164761102e-12
-4.017746390355023835e-12
-2.791487917579022509e-12
-1.891422876009614000e-12
