# bin_2_17
-1.215004960532077516e-72
-1.352454512198293570e-72
-1.475587969159819753e-72
-1.569973103881871746e-72
-1.617753136565440156e-72
-1.605616914497689006e-72
-1.511108574263024464e-72
-1.343426437900039454e-72
-1.129045495327621893e-72
-9.230262888376358087e-73
-7.740665542853143070e-73
-6.704761492631919628e-73
-5.365391425628158793e-73
-3.720644230081988632e-73
-2.904537312424565977e-73
-2.147440776496174233e-73
-1.520035304834279775e-73
-1.063946850907301021e-73
-7.707987487434885751e-74
-5.427298048587610176e-74
-3.832891467223370793e-74
-2.747628175132318922e-74
-1.998324364825195166e-74
-1.480074057506086687e-74
-1.117093881840422655e-74
-8.562920949765306494e-75
-6.636039282549341285e-75
-5.164427509293316897e-75
-4.006935301941860693e-75
-3.078465124718314375e-75
-2.328933837648726944e-75
