# bin_16_2
-2.885001988543428659e-09
-2.895874718595371410e-09
-2.774667405384804229e-09
-2.514096565194078631e-09
-2.156282115510510577e-09
-1.775692310988774945e-09
-1.468391046842004805e-09
-1.257513004377265120e-09
-1.046255747404802671e-09
-7.693948781001552388e-10
-5.650371311223122239e-10
-4.443810479638254324e-10
-3.138660879056460291e-10
-2.352716345016654529e-10
-1.710575273222074012e-10
-1.264042879291195569e-10
-9.479086397179409526e-11
-7.231161711261385805e-11
-5.618606663749471379e-11
-4.433418080684269660e-11
-3.535743951058311653e-11
-2.829041608988896859e-11
-2.254180876096096963e-11
-1.776220612639634377e-11
-1.375374028573835135e-11
-1.041157483984023229e-11
-7.677388205983085456e-12
-5.505377950712845250e-12
-3.841081057860144252e-12
-2.613149551785902098e-12
-1.738995641048417084e-12
