# bin_13_2
-2.685726371982092407e-09
-2.695471906205777980e-09
-2.582159387721057107e-09
-2.339207077776935612e-09
-2.005904504821089498e-09
-1.651735326375985258e-09
-1.366026893421862237e-09
-1.169935491572898167e-09
-9.730820605450766506e-10
-7.153033135755700489e-10
-5.255344472899059007e-10
-4.132069844885066369e-10
-2.918506505944515178e-10
-2.187589524350309232e-10
-1.590748249335473467e-10
-1.175524437728966962e-10
-8.816059379648827847e-11
-6.726093133098671585e-11
-5.226705483127834556e-11
-4.124540842938642362e-11
-3.289590554187585933e-11
-2.632139285980342839e-11
-2.097255731405404671e-11
-1.652487471589892627e-11
-1.279463814539909445e-11
-9.684548275528518511e-12
-7.140458165067666970e-12
-5.119735504663116785e-12
-3.571615400434401343e-12
-2.429584164170989467e-12
-1.616700641077130575e-12
