# bin_1_17
-4.133618704863186989e-83
-4.598545027438662313e-83
-5.013608140159646481e-83
-5.329519946970424014e-83
-5.485583048518261348e-83
-5.436723630010500693e-83
-5.107435539435974908e-83
-4.532998080266286495e-83
-3.803774566617947526e-83
-3.109457087605365366e-83
-2.611521299207063050e-83
-2.261484584053762007e-83
-1.800906497995937633e-83
-1.247234426395605743e-83
-9.791357452974697179e-84
-7.181430367791730304e-84
-5.120954053539754097e-84
-3.565041482376616650e-84
-2.583917355479426006e-84
-1.822043161142736455e-84
-1.288856279369893885e-84
-9.253357057515068667e-85
-6.739795553665668698e-85
-5.000263086459877600e-85
-3.779679576990935915e-85
-2.900785542473328417e-85
-2.249815597274134248e-85
-1.751393862566535592e-85
-1.358582729756019398e-85
-1.043118226643070877e-85
-7.883764705528738792e-86
