# bin_5_4
-3.528847925290110573e-10
-3.689314591038803736e-10
-3.726823426880367043e-10
-3.599818781810551978e-10
-3.285863047821284129e-10
-2.837151961157856623e-10
-2.339173878096036730e-10
-1.924935739236290320e-10
-1.647775905060864599e-10
-1.391798061364247357e-10
-1.031865602418431698e-10
-7.417706466089255305e-11
-5.952669261167275655e-11
-4.122166842935925181e-11
-3.121282748660631269e-11
-2.231541374519530593e-11
-1.628274004259161309e-11
-1.204335777333223750e-11
-9.035011135312724172e-12
-6.899774272833206683e-12
-5.357970896136312619e-12
-4.220055495682606646e-12
-3.348831737835728470e-12
-2.658412598495085901e-12
-2.096261788116416788e-12
-1.630952874438940795e-12
-1.244848919946360320e-12
-9.278423624789482567e-13
-6.732413568948432699e-13
-4.751101918608847685e-13
-3.264429541856570446e-13
