# bin_2_8
-6.981800556148818640e-26
-7.453088325926053750e-26
-7.717822817380694446e-26
-7.708923091217529412e-26
-7.322523235364270885e-26
-6.568402721602962889e-26
-5.570460805815480166e-26
-4.559590501091299925e-26
-3.790559399461263575e-26
-3.276328536467918558e-26
-2.687189757866544408e-26
-1.901929864778144209e-26
-1.436733533685810598e-26
-1.114304792562492812e-26
-7.728696438572016853e-27
-5.711291982219788793e-27
-4.162348838311237557e-27
-3.006134782722630851e-27
-2.201882482145038057e-27
-1.640513051502224236e-27
-1.245218966130642304e-27
-9.615587627155958983e-28
-7.531567908808020083e-28
-5.945240674811702663e-28
-4.697309859070374850e-28
-3.688756397167888062e-28
-2.859883655066504094e-28
-2.176770820301656855e-28
-1.619137962668570324e-28
-1.173037271399276999e-28
-8.267613497137057104e-29
