# bin_10_1
-3.267569958152921766e-09
-3.151263466722578150e-09
-2.877846967194621801e-09
-2.488563831287154904e-09
-2.060230528407413566e-09
-1.699526461770760397e-09
-1.446557462314781889e-09
-1.213145765020098574e-09
-9.132911770415279902e-10
-6.641821781137258357e-10
-5.207787470155107908e-10
-3.749735206096733814e-10
-2.791596709456672290e-10
-2.041556146345579429e-10
-1.519971606911214288e-10
-1.145833818531255204e-10
-8.794772348149092744e-11
-6.877457724846151796e-11
-5.460220832839057302e-11
-4.377830361646925589e-11
-3.518266765841700402e-11
-2.812758508928292127e-11
-2.221433648586385091e-11
-1.722428324565850908e-11
-1.304672332778426638e-11
-9.622045754116451142e-12
-6.900985567604078312e-12
-4.816601971492730598e-12
-3.279236083197437243e-12
-2.184535741271941839e-12
-1.428763311400243339e-12
