# bin_17_8
-7.225406830703592916e-10
-7.904155908158541800e-10
-8.440648661915017036e-10
-8.741388564434226308e-10
-8.729706607034569118e-10
-8.288682803886981074e-10
-7.431719611030080961e-10
-6.299935797662508943e-10
-5.157927810189325675e-10
-4.292633462930295384e-10
-3.711320381623586899e-10
-3.036091575129308692e-10
-2.144044002417285780e-10
-1.621661105864495581e-10
-1.248992956852564688e-10
-8.638924616895501607e-11
-6.316550740913183933e-11
-4.559664028496716089e-11
-3.247851406224009589e-11
-2.338452633633441227e-11
-1.708168123431107887e-11
-1.269433800897091941e-11
-9.603779455255291875e-12
-7.390702701702694690e-12
-5.755916617295383346e-12
-4.509532737110095449e-12
-3.529656830285560837e-12
-2.740685559997613424e-12
-2.098355160769717884e-12
-1.576188567574863877e-12
-1.157021161143715122e-12
