# bin_14_2
-2.759886686793770200e-09
-2.770051708651927968e-09
-2.653801149433331682e-09
-2.404292115152155520e-09
-2.061867461548130857e-09
-1.697865860341137571e-09
-1.404121664483818597e-09
-1.202527420827355631e-09
-1.000313614779979166e-09
-7.354334663875548848e-10
-5.402353529977961707e-10
-4.248083985854185418e-10
-3.000436859548807100e-10
-2.249041398984021929e-10
-1.635341822867427799e-10
-1.208466536136949398e-10
-9.062804582766128576e-11
-6.914054170415422293e-11
-5.372551322632036968e-11
-4.239489359097924258e-11
-3.381196421879559900e-11
-2.705416390020247440e-11
-2.155655348119215719e-11
-1.698534700693294968e-11
-1.315156755308035080e-11
-9.955110873407088921e-12
-7.340276435178855939e-12
-5.263252169001488003e-12
-3.671896927139778896e-12
-2.497897944461932617e-12
-1.662212673700870612e-12
