# bin_1_20
-1.022390989170790496e-99
-1.146598047123504973e-99
-1.262510913474765185e-99
-1.358681902584534791e-99
-1.420581828178241780e-99
-1.434142698317832540e-99
-1.382171525558040244e-99
-1.257079426463781481e-99
-1.081045607498309069e-99
-8.886315371679920065e-100
-7.324884283684820662e-100
-6.309251732281744026e-100
-5.315417114818772017e-100
-3.856590767784814931e-100
-2.775867499922716320e-100
-2.235494127399829467e-100
-1.482919315957850807e-100
-1.120003739767730197e-100
-7.788209777152212677e-101
-5.401155670784733521e-101
-3.792848633449317096e-101
-2.670025216625894963e-101
-1.902447779978177926e-101
-1.375773710922468986e-101
-1.015069430352512836e-101
-7.629934528250434620e-102
-5.827735135039824956e-102
-4.501074449084674684e-102
-3.490695638171155025e-102
-2.698462611347751642e-102
-2.065258077481392139e-102
