# bin_3_1
-1.522138036486804121e-09
-1.461618125416875854e-09
-1.328565012808667157e-09
-1.143715640000966015e-09
-9.446949385260239690e-10
-7.806804833685488099e-10
-6.659235809276815429e-10
-5.552456658677112674e-10
-4.139165057535288604e-10
-3.029274741093033717e-10
-2.372938183687535329e-10
-1.700872260182490444e-10
-1.270153551755660138e-10
-9.294525639506378804e-11
-6.926608186344602310e-11
-5.233964930590886599e-11
-4.027310104283854038e-11
-3.156616984569414817e-11
-2.510731890864219024e-11
-2.015294773764215105e-11
-1.620065722112943468e-11
-1.294523663665073104e-11
-1.021084850981755122e-11
-7.902065395813567676e-12
-5.971151071446648852e-12
-4.391992968451353111e-12
-3.141392814445391692e-12
-2.186983912027626025e-12
-1.485594416666739831e-12
-9.877871842038486016e-13
-6.450472445303428101e-13
