# bin_18_11
-3.932074137354091672e-10
-4.369285201954865431e-10
-4.756929411811488825e-10
-5.047827104894157441e-10
-5.184783465318853710e-10
-5.124176387731058704e-10
-4.797418562809484581e-10
-4.244421282708897315e-10
-3.552579515152930764e-10
-2.904898079825202671e-10
-2.446480584264449321e-10
-2.115769615596052407e-10
-1.669057553628008292e-10
-1.156642393832740614e-10
-9.149502222281181537e-11
-6.614745706052437692e-11
-4.776955878056279767e-11
-3.311998986949783291e-11
-2.391396745221155691e-11
-1.691205768644540976e-11
-1.200737399698959596e-11
-8.642195120505651551e-12
-6.311230556272243884e-12
-4.696104714529449310e-12
-3.558997810527265551e-12
-2.736936853555772832e-12
-2.125291816022781243e-12
-1.654913999743008504e-12
-1.282986006382775096e-12
-9.837650053383168119e-13
-7.420950177346512377e-13
