# bin_11_18
-3.404841016702881353e-22
-3.830592239664457807e-22
-4.234030457561481326e-22
-4.578169750437006026e-22
-4.815332207355341111e-22
-4.893720038512369892e-22
-4.763870694312931639e-22
-4.379043897332930034e-22
-3.806635748588193144e-22
-3.145296960497186651e-22
-2.580044712405465721e-22
-2.206863488629531304e-22
-1.887435248802098790e-22
-1.410711831283820607e-22
-9.872956678779346581e-23
-8.050564931620783141e-23
-5.373386711131972965e-23
-4.079512586010964046e-23
-2.781527745409536479e-23
-1.930659646103290501e-23
-1.355378684120621864e-23
-9.515725189025850566e-24
-6.722241703170964654e-24
-4.807041161009292205e-24
-3.505793894755746195e-24
-2.606725276947770719e-24
-1.972945442288856458e-24
-1.514521093238265310e-24
-1.171476629610870874e-24
-9.064192763083717933e-25
-6.964926821437537392e-25
