# bin_4_12
-9.192748207612558146e-32
-1.008609883452819510e-31
-1.081032766100751855e-31
-1.124786452524481435e-31
-1.129475955352982523e-31
-1.080467572267160866e-31
-9.755734440669401867e-32
-8.327724393951819088e-32
-6.827224655747947984e-32
-5.650426989899748720e-32
-4.880023155374406534e-32
-4.058274074583028651e-32
-2.899955998180420579e-32
-2.140631743269198069e-32
-1.693638330360684046e-32
-1.146274746559454002e-32
-8.575764487368014152e-33
-6.122082968802145707e-33
-4.339512338195316509e-33
-3.116853512859758143e-33
-2.264416763405170503e-33
-1.673814554348543901e-33
-1.259261199464188691e-33
-9.645883119554741646e-34
-7.487309759887850095e-34
-5.855838575342731331e-34
-4.583528532822235753e-34
-3.564756609874641222e-34
-2.737519087918177402e-34
-2.064851139654549088e-34
-1.523440827155152836e-34
