# bin_8_6
-3.735625127584202448e-10
-4.015851815159722437e-10
-4.195852686570911636e-10
-4.234269860880721528e-10
-4.082126683037322363e-10
-3.716802458854684716e-10
-3.200634137244816451e-10
-2.634226611639082275e-10
-2.169926965921566259e-10
-1.862824424745770432e-10
-1.569670895971848478e-10
-1.151540818481708842e-10
-8.303037719275570190e-11
-6.670509271820960167e-11
-4.552307087580820505e-11
-3.450369046903056936e-11
-2.450821444948216512e-11
-1.763233272055263417e-11
-1.287587595831236942e-11
-9.515929809751247035e-12
-7.152095389729772729e-12
-5.468357065149459761e-12
-4.249954537244384908e-12
-3.338053620476483223e-12
-2.632236244888411107e-12
-2.069575685942249762e-12
-1.611154709522126924e-12
-1.234531942996508238e-12
-9.264098353768812114e-13
-6.782176817766729100e-13
-4.833639213242102118e-13
