# bin_13_13
-2.547719201574167353e-11
-2.846568637229637145e-11
-3.120026209282814273e-11
-3.338669544779717047e-11
-3.465535626020773120e-11
-3.469768318292457591e-11
-3.304440720857423207e-11
-2.970557611355180549e-11
-2.524040049799155383e-11
-2.067006808185855784e-11
-1.717322823222481732e-11
-1.486310951973221840e-11
-1.223567895821220512e-11
-8.634602375059851183e-12
-6.474313447356223405e-12
-5.021164343784784668e-12
-3.411946904163080515e-12
-2.491862711412586870e-12
-1.774426628711744003e-12
-1.238826298186252186e-12
-8.702345612625696378e-13
-6.174526527651931712e-13
-4.445595039997915029e-13
-3.255105858022348949e-13
-2.430819744768385945e-13
-1.846791152640301453e-13
-1.422282073164042500e-13
-1.103707972803768317e-13
-8.567766110367565217e-14
-6.606048965078162546e-14
-5.027899543832931169e-14
