# bin_2_18
-4.415766512915159855e-78
-4.929082185567657799e-78
-5.396340735582082310e-78
-5.766156625286078991e-78
-5.974095672299124249e-78
-5.968499943448248431e-78
-5.666804290116908944e-78
-5.079518071793501253e-78
-4.303052125919060676e-78
-3.521454449466950682e-78
-2.932377763871159845e-78
-2.539725848649937482e-78
-2.077084594724695684e-78
-1.456828984899475828e-78
-1.104120761340336459e-78
-8.466697529554232374e-79
-5.803278421310744927e-79
-4.192149914832869459e-79
-3.004167945311488021e-79
-2.101589278015851985e-79
-1.476935381123065944e-79
-1.050597157537348631e-79
-7.584727806047085155e-80
-5.570770712676460924e-80
-4.172268704818040472e-80
-3.177815207915087900e-80
-2.451901962930336776e-80
-1.904546324223033352e-80
-1.478523605709210264e-80
-1.139092873975942596e-80
-8.656876637183848367e-81
