# bin_15_9
-4.790570369866767183e-10
-5.271993535193534455e-10
-5.671748893073746702e-10
-5.929493121073054059e-10
-5.986436622604811081e-10
-5.772602049966408333e-10
-5.255168466879078122e-10
-4.524063466936569005e-10
-3.721753846288558136e-10
-3.066132490860128216e-10
-2.635914139171720981e-10
-2.222269406046326922e-10
-1.623050512214212823e-10
-1.167809111290212009e-10
-9.399384891386491584e-11
-6.328137104585556824e-11
-4.791756703996804771e-11
-3.367979294143925450e-11
-2.383068552499065620e-11
-1.710605596056906036e-11
-1.238050477784912016e-11
-9.095260726567687980e-12
-6.795439664192461393e-12
-5.173533451762458587e-12
-3.996805230933963373e-12
-3.116557576465590788e-12
-2.437123310651847799e-12
-1.897389751770979266e-12
-1.461133615250727654e-12
-1.106763602367977452e-12
-8.210335961456040535e-13
