# bin_3_14
-8.603181571544183878e-48
-9.493187891406214252e-48
-1.024690494330010064e-47
-1.075739355092441971e-47
-1.091161036568094951e-47
-1.059473971640939648e-47
-9.713585490015915920e-48
-8.422482166853212694e-48
-6.949883003934490828e-48
-5.704482834746475665e-48
-4.884036491755512026e-48
-4.163662580296215747e-48
-3.096951435658695953e-48
-2.183391891330856905e-48
-1.779336201887038263e-48
-1.195311531891924116e-48
-9.123476803769408598e-49
-6.331436125866805005e-49
-4.475148604683565746e-49
-3.210971137863574628e-49
-2.317764433243843219e-49
-1.694060643085040875e-49
-1.258277035444297239e-49
-9.529040418225818922e-50
-7.331065828876505535e-50
-5.701158490623389046e-50
-4.454234580825576758e-50
-3.470658678921764674e-50
-2.678962645832305274e-50
-2.036545138351791119e-50
-1.517797437508977848e-50
