# bin_13_7
-6.775006076609765381e-10
-7.356379883672271502e-10
-7.783071197414236153e-10
-7.968576447916301334e-10
-7.842656477492195095e-10
-7.308192284980316528e-10
-6.437841627612745165e-10
-5.371876882888615430e-10
-4.394520447386661695e-10
-3.711517927673090791e-10
-3.199693564928532836e-10
-2.497315042410595225e-10
-1.740259690796780288e-10
-1.386297780509997995e-10
-9.937787980567466026e-11
-7.300026298134839218e-11
-5.122932882783795642e-11
-3.728768070132691090e-11
-2.692281400735279388e-11
-1.961338127489030659e-11
-1.452052877655393736e-11
-1.093235285000335960e-11
-8.380343669671100459e-12
-6.517218333438113670e-12
-5.111453899006136662e-12
-4.016776265076702382e-12
-3.140279659974447783e-12
-2.426395661228310137e-12
-1.842590825635309647e-12
-1.369062326777346941e-12
-9.920031221518693252e-13
