# bin_10_4
-1.269490033674918468e-09
-1.331534533899529346e-09
-1.350134125069299994e-09
-1.311168383614236184e-09
-1.203969246713667777e-09
-1.045707187272452161e-09
-8.650722678151974939e-10
-7.104164520383323845e-10
-6.057225967547001288e-10
-5.149986034584174791e-10
-3.878376002768063107e-10
-2.760543206362966455e-10
-2.214747287856708810e-10
-1.549282915320185080e-10
-1.166083880365233054e-10
-8.308367463149422384e-11
-6.073653054667330315e-11
-4.479684119673981168e-11
-3.348870359732034854e-11
-2.548348871344485449e-11
-1.972307415709385233e-11
-1.549325156508278961e-11
-1.227528948325623590e-11
-9.740149777085946066e-12
-7.685690697802001924e-12
-5.990066984839511308e-12
-4.584134551607723241e-12
-3.428351735872415739e-12
-2.497282512516919109e-12
-1.769367614564192058e-12
-1.220280896386582099e-12
