# bin_5_12
-1.203568665191115997e-26
-1.323387030752791341e-26
-1.422220710684564523e-26
-1.484852608792304576e-26
-1.496843811299330699e-26
-1.439996360506898206e-26
-1.307500669855147048e-26
-1.122587273645315268e-26
-9.221623135080851721e-27
-7.604999787788542362e-27
-6.550735780894271262e-27
-5.504724683575293038e-27
-3.988353811990498452e-27
-2.888431730738015461e-27
-2.321652238919043031e-27
-1.557254744136235326e-27
-1.180181696308227031e-27
-8.334114317581912676e-28
-5.891469491219422969e-28
-4.230343758503776332e-28
-3.063770080614759585e-28
-2.254982657546932079e-28
-1.688514935184951343e-28
-1.288130192109228650e-28
-9.967744070141731069e-29
-7.781161101179466776e-29
-6.087739627135847179e-29
-4.738801318137019475e-29
-3.646605633696785071e-29
-2.758880991554637528e-29
-2.043330051669750789e-29
