# bin_1_14
-1.037849175168299507e-65
-1.142327865150865961e-65
-1.229182895304024911e-65
-1.285358014086079196e-65
-1.298063575696867609e-65
-1.252083837186760165e-65
-1.139969524118296667e-65
-9.814794191880310923e-66
-8.071659505568706756e-66
-6.646624185798480151e-66
-5.716351828974967329e-66
-4.825194654473655636e-66
-3.521183629492498930e-66
-2.528436584180638333e-66
-2.044022980839578239e-66
-1.368388962622982766e-66
-1.041248690599938253e-66
-7.316064234381381888e-67
-5.167676590848607404e-67
-3.710273005619628237e-67
-2.684055448765837806e-67
-1.971513999842283518e-67
-1.472859360723188203e-67
-1.121324202804019023e-67
-8.663216584224879928e-68
-6.755982946246267399e-68
-5.283969835068635051e-68
-4.114526353077759063e-68
-3.169128930863801504e-68
-2.400997484009408778e-68
-1.781480980247459253e-68
