# bin_2_13
-1.105772843283767740e-50
-1.213623427960898318e-50
-1.301289149751008047e-50
-1.354652884447659377e-50
-1.361097576837498561e-50
-1.303135649913138306e-50
-1.177593107532307316e-50
-1.006077232621722646e-50
-8.250194885319714655e-51
-6.824310067017509480e-51
-5.891865346693913718e-51
-4.907708548692443739e-51
-3.513746583653288573e-51
-2.586216203473962047e-51
-2.051514758874832467e-51
-1.386137654160868764e-51
-1.039348377507911959e-51
-7.407653934388327718e-52
-5.248318201201778157e-52
-3.769339487671917785e-52
-2.737003174280970413e-52
-2.021840393699300725e-52
-1.520038772470758674e-52
-1.163652101906986413e-52
-9.028455239010302949e-53
-7.059314366359012884e-53
-5.525226064793656147e-53
-4.297754917504631022e-53
-3.301452668280250454e-53
-2.491346564784839808e-53
-1.839164040160355483e-53
