# bin_13_12
-7.339272628209044590e-11
-8.177882254247765319e-11
-8.933634196781066080e-11
-9.520001595803848564e-11
-9.829439607630259887e-11
-9.779460202672987588e-11
-9.233952666043538519e-11
-8.234528414289679193e-11
-6.941285969010689622e-11
-5.676959557873333573e-11
-4.748165687380901629e-11
-4.112475786723237029e-11
-3.318127145433352579e-11
-2.311221610398565145e-11
-1.783865022550804264e-11
-1.337383189332799840e-11
-9.350155004361160496e-12
-6.625863686257007961e-12
-4.779255555252658514e-12
-3.356838879017954922e-12
-2.366290752285376073e-12
-1.691281895919779284e-12
-1.226630475558819540e-12
-9.056506028453294756e-13
-6.815733564631464418e-13
-5.212051931301883869e-13
-4.032575363210740419e-13
-3.136073259535846389e-13
-2.433680157387888993e-13
-1.871670944880641070e-13
-1.418351434980232898e-13
