# bin_6_12
-1.828819460329929575e-22
-2.015184879810806338e-22
-2.171418847070939854e-22
-2.274637167786578108e-22
-2.301641334823210809e-22
-2.226643457964955125e-22
-2.033491798323426691e-22
-1.756255609141796134e-22
-1.446366094771504648e-22
-1.189184293234264523e-22
-1.020800032236007278e-22
-8.656731979805221385e-23
-6.370035293076331452e-23
-4.534175261709954143e-23
-3.682899849247604185e-23
-2.465633198116366251e-23
-1.881168972885984743e-23
-1.314413235338294006e-23
-9.282107353636298379e-24
-6.663462894470703253e-24
-4.815663139735571362e-24
-3.529527738826451258e-24
-2.630125652018148505e-24
-1.997811623691742178e-24
-1.540708738658519882e-24
-1.200110950607329709e-24
-9.382414528665497922e-25
-7.308321841068687830e-25
-5.634630743373714842e-25
-4.275422708955867272e-25
-3.178541920916968666e-25
