# bin_12_15
-3.465553470941856380e-14
-3.883727638105861635e-14
-4.272520860784908019e-14
-4.592887629245227672e-14
-4.795397035941697345e-14
-4.833495416806904863e-14
-4.647492608019996002e-14
-4.216944948955810046e-14
-3.617668847649280649e-14
-2.971023076112619346e-14
-2.452406886783991302e-14
-2.115050387138947685e-14
-1.774522332477106728e-14
-1.279595855170375184e-14
-9.283004480205710819e-15
-7.429750849004044498e-15
-4.943008684319063223e-15
-3.714767168043927019e-15
-2.595021461916215560e-15
-1.801574060440530956e-15
-1.264948904322206149e-15
-8.914948702404656372e-16
-6.364814904720317534e-16
-4.614254910271533113e-16
-3.412857079231675251e-16
-2.571041974716817279e-16
-1.967252560960763854e-16
-1.521059930478862109e-16
-1.179996375068420723e-16
-9.118078497540719098e-17
-6.971229793831905768e-17
