# bin_10_17
1.147355707784115833e-07
1.269168630163506511e-07
1.374119632853201743e-07
1.448131891306950779e-07
1.475380454528667064e-07
1.441929474832092867e-07
1.331998981969018370e-07
1.163494855041733373e-07
9.644337633730657149e-08
7.897586936860921041e-08
6.720068814533554147e-08
5.768623038164133363e-08
4.386565551149000016e-08
3.058658877608818956e-08
2.476956813966940744e-08
1.703084557210498078e-08
1.280147968903037144e-08
8.814214469611019727e-09
6.284448398079218844e-09
4.489069960076385493e-09
3.224093677973130842e-09
2.343384372726596632e-09
1.729504470706531907e-09
1.301483891368504869e-09
9.960033982721474189e-10
7.716163191494433817e-10
6.016923699140068496e-10
4.688445848036719487e-10
3.625496299267616458e-10
2.765203573663894786e-10
2.070221569916674195e-10
