# bin_5_9
1.777564952490811978e-07
1.890810225996364059e-07
1.949491442894367436e-07
1.936655540791234705e-07
1.827081707957403164e-07
1.628611980564202246e-07
1.373469851283556579e-07
1.123745009534428094e-07
9.387644197247567921e-08
8.103377663336944642e-08
6.539672705430112716e-08
4.611514576503345737e-08
3.543245357252325860e-08
2.682241478145904446e-08
1.899702567261388417e-08
1.383444662279885966e-08
1.010781144680083981e-08
7.333935931641791671e-09
5.393816437488911844e-09
4.035964998104283323e-09
3.074946859389716574e-09
2.382657250997619185e-09
1.870735120103411504e-09
1.478475474463095729e-09
1.168043911346815139e-09
9.160392010617872591e-10
7.084990830975839993e-10
5.374782354650095952e-10
3.981953618122579992e-10
2.872465728152314993e-10
2.016007460260812226e-10
