# bin_8_7
1.918531363819302838e-09
2.087102236032138689e-09
2.213383632706654803e-09
2.272436763056334863e-09
2.245278418056623852e-09
2.101959487575959675e-09
1.859612452359689146e-09
1.556458072102884304e-09
1.271988955018759078e-09
1.069934945756152940e-09
9.248400168603261452e-10
7.312550759647087959e-10
5.079940598373233645e-10
4.013218418975753756e-10
2.927101865099588709e-10
2.119656622060078413e-10
1.490278207958064111e-10
1.089591158709621101e-10
7.838809785268598384e-11
5.687400212849462060e-11
4.197278163460465636e-11
3.150115083071086363e-11
2.407368010510879239e-11
1.867800420259223397e-11
1.462821570061566753e-11
1.149059509954528647e-11
8.988602612006834134e-12
6.955462799233321441e-12
5.293764354487752434e-12
3.944613789591376996e-12
2.867616560845984397e-12
