# bin_12_19
9.123965119630867978e-08
1.017671101240356693e-07
1.113103947861093700e-07
1.188034634190759767e-07
1.229158498871809277e-07
1.225940049445210202e-07
1.161506860613449895e-07
1.039071315133537582e-07
8.786011186441309676e-08
7.187300340703649016e-08
5.992577192996179384e-08
5.188143021370884574e-08
4.222314683328960659e-08
2.956479116937153346e-08
2.252954274479354282e-08
1.714235956159836610e-08
1.183218943923495538e-08
8.493991868054525179e-09
6.093719275506912927e-09
4.268398654572250192e-09
3.003891414718801865e-09
2.140228212473543259e-09
1.547416802798679815e-09
1.138463060058704387e-09
8.539982664310942931e-10
6.512841187908932439e-10
5.029294145949678274e-10
3.907681937682296949e-10
3.032816837931599995e-10
2.334869619537512241e-10
1.772517399501159730e-10
