# bin_17_4
1.934484312882500691e-52
2.156455352038865812e-52
2.357015296350922477e-52
2.513453781030673129e-52
2.597429533135506471e-52
2.587191893219904935e-52
2.446477614409713369e-52
2.184549387700174115e-52
1.843505657049729678e-52
1.507315444116082135e-52
1.258628665430128480e-52
1.090269718733067366e-52
8.836081747256459974e-53
6.159312003393032807e-53
4.728264934281931573e-53
3.571184631292353605e-53
2.478741426484869774e-53
1.765417393899955555e-53
1.272974497715920385e-53
8.928241129772720262e-54
6.283706046493250471e-54
4.484826776974027373e-54
3.248457662074538809e-54
2.394792531875582457e-54
1.799842051665592471e-54
1.374860246367956461e-54
1.062975608743614638e-54
8.264522230637317891e-55
6.414677993428262521e-55
4.936134316008887841e-55
3.743834567559243645e-55
