# bin_4_20
4.277581613637870053e-07
4.488375873725330008e-07
4.553159720724779920e-07
4.424958001282392097e-07
4.066409148929760942e-07
3.534546822816670642e-07
2.924859124027446196e-07
2.400435742360566129e-07
2.044821186250508859e-07
1.740306200692636871e-07
1.314009507572128891e-07
9.334886349448706503e-08
7.486894758309218685e-08
5.246913578569667588e-08
3.943769606634700008e-08
2.808482598812051890e-08
2.053616751287377734e-08
1.513842989192699451e-08
1.130969489154809387e-08
8.600667997291539794e-09
6.652449334144700367e-09
5.223115994081769650e-09
4.136898405815920908e-09
3.282042838305199369e-09
2.589867437579633589e-09
2.018924068305316231e-09
1.545636543851937483e-09
1.156520394780842897e-09
8.429339118285435927e-10
5.976006464016889426e-10
4.123887685670191494e-10
