# bin_7_4
7.721466467075488159e-13
8.263159878283140265e-13
8.584130425892714420e-13
8.606338777611491346e-13
8.218971603029020071e-13
7.410956868654931753e-13
6.318482113100677276e-13
5.178488633126950659e-13
4.287194270202975029e-13
3.698143750838695383e-13
3.067328439803514459e-13
2.196762517792844152e-13
1.627717176561777420e-13
1.284530578156495327e-13
8.803618377319342922e-14
6.598324244379379308e-14
4.761260758142908706e-14
3.428387320512874142e-14
2.508292355288926726e-14
1.862574384204301850e-14
1.408583775274669509e-14
1.083781063484692467e-14
8.465552733851408240e-15
6.671021920952197443e-15
5.267571387409717106e-15
4.138831671250408373e-15
3.213916849576696592e-15
2.452390182856268878e-15
1.830137022535181558e-15
1.330998797616542319e-15
9.418867913156631972e-16
