# bin_1_5
4.961116575922175266e-07
4.776745506702329278e-07
4.354573532355188771e-07
3.759044690524554629e-07
3.108784813124875378e-07
2.565227503874418101e-07
2.184538647133297642e-07
1.828502795957172981e-07
1.372029197995036374e-07
9.995172602044957824e-08
7.834420020475306342e-08
5.632287524953974837e-08
4.196967080716770420e-08
3.069872588982766977e-08
2.286301194690712271e-08
1.724881840845562500e-08
1.325022287519458334e-08
1.036953465455691742e-08
8.237547598481475494e-09
6.606843823249877198e-09
5.309859557255172166e-09
4.244073851432827568e-09
3.350182514402556644e-09
2.595767612332519796e-09
1.964465874958759534e-09
1.447404417269484065e-09
1.037071457896851011e-09
7.231716790194971531e-10
4.919520493501236637e-10
3.275016052852406415e-10
2.140782952369193168e-10
