# bin_12_8
4.377660338230804293e-14
4.842899399825510885e-14
5.243977317749392928e-14
5.527204889871642341e-14
5.631768644561464502e-14
5.505288779428433700e-14
5.085944742969515634e-14
4.443074653035806342e-14
3.681937795833463212e-14
3.014039522446107124e-14
2.565060289662887412e-14
2.204028186660320412e-14
1.675584903817848436e-14
1.165835913425500660e-14
9.470292136367408254e-15
6.486788734833163089e-15
4.896379931393134779e-15
3.361494326451414658e-15
2.393835214472089882e-15
1.711535010722423149e-15
1.230416738651505962e-15
8.943473277340281263e-16
6.600101868990500182e-16
4.966924843988634735e-16
3.801392479449347454e-16
2.945308333237732004e-16
2.297023801413184956e-16
1.790137040254888626e-16
1.384491808820515695e-16
1.056109437851820940e-16
7.907720921988363473e-17
