# bin_5_10
2.053380135023458360e-07
2.184607049915263107e-07
2.252934347376095953e-07
2.238749764118870060e-07
2.112898354287893249e-07
1.884076747522528827e-07
1.589466504755033074e-07
1.300537136339339886e-07
1.086140167604853847e-07
9.375406735054892475e-08
7.572986904975699678e-08
5.342759112704898543e-08
4.100385395846547561e-08
3.108130395125910683e-08
2.199069090633078438e-08
1.602829698263005586e-08
1.170634781951327247e-08
8.491765096578243753e-09
6.244236849961308385e-09
4.671156559000934779e-09
3.558039519573988523e-09
2.756364319589723787e-09
2.163795396426725022e-09
1.709929389331046507e-09
1.350879117690936488e-09
1.059492035840053503e-09
8.195559722177081853e-10
6.218443897133374657e-10
4.608069640475257800e-10
3.325005530981824013e-10
2.334246130305050774e-10
