# bin_14_16
2.713283340083571579e-08
3.044088420993717933e-08
3.353433045654326136e-08
3.611092653962159032e-08
3.778635161151216830e-08
3.818151431406689426e-08
3.685232800794142031e-08
3.356965764542253773e-08
2.891474856004010942e-08
2.378254031957561895e-08
1.958122667704616772e-08
1.684189031496156908e-08
1.422503482116076188e-08
1.037536970751923454e-08
7.426304817341105525e-09
5.994130199370924927e-09
3.979425434460105636e-09
3.008197276001605679e-09
2.083990473764885449e-09
1.445044200262156388e-09
1.014753109409540524e-09
7.140784837081013081e-10
5.080055685698351204e-10
3.666252619342592747e-10
2.699484563272604864e-10
2.025269772080323864e-10
1.544439676961045979e-10
1.191570537781100909e-10
9.236388857149342440e-11
7.140831361080859897e-11
5.468555089366545196e-11
