# bin_20_19
1.325179326646404327e-09
1.504106932638248375e-09
1.680503220230727774e-09
1.841283201610173507e-09
1.968891818219615381e-09
2.041292331419743364e-09
2.040708546150366394e-09
1.938855451259640832e-09
1.738781338699269902e-09
1.473549253360438105e-09
1.205862915439333273e-09
1.003849404971735382e-09
8.696836867781063234e-10
7.119025583594132156e-10
4.987238314744670310e-10
3.768954325806137997e-10
2.885382347431025835e-10
1.960135197040597666e-10
1.403577245779141796e-10
9.917414577145398479e-11
6.790997542209926094e-11
4.639002512827771772e-11
3.186038479067099520e-11
2.206547648286404303e-11
1.546808377097034019e-11
1.104358336076633445e-11
8.041052220512803292e-12
5.977441861535975410e-12
4.524258287916042536e-12
3.468119609318787105e-12
2.673172001709703114e-12
