# bin_17_7
7.016425713164586935e-33
7.845194169150323268e-33
8.606650108036011980e-33
9.220361310462310167e-33
9.585154307965257837e-33
9.613747353021930927e-33
9.178624067969300886e-33
8.270148085522309863e-33
7.043401327765261988e-33
5.769386963115504206e-33
4.782256782395733488e-33
4.136163375185449395e-33
3.424944594218383239e-33
2.428488581989716951e-33
1.803405942785941410e-33
1.412842554903350940e-33
9.521256941465273770e-34
7.021074650694068746e-34
4.972771520161215798e-34
3.465189453621075518e-34
2.432624600188869337e-34
1.721972059672246570e-34
1.236774495800816556e-34
9.030567290396558451e-35
6.726045395778569961e-35
5.098483209264900589e-35
3.919931428345214604e-35
3.039235673939767337e-35
2.359119677964705520e-35
1.820217531233106334e-35
1.387173867751168278e-35
