# bin_18_12
5.438764484538928357e-17
6.124403167952336052e-17
6.776810214683604337e-17
7.337587428739163418e-17
7.730999922278716146e-17
7.872108808492124530e-17
7.686064196730981692e-17
7.088874017277155443e-17
6.182589466475642317e-17
5.117490894465993816e-17
4.191988031367459110e-17
3.575368847136402685e-17
3.068939586686301271e-17
2.316895352957063372e-17
1.611516009594395328e-17
1.311952772991799424e-17
8.838926435421735653e-18
6.677539350545073836e-18
4.525982008023702210e-18
3.153273423064929901e-18
2.210570542439838250e-18
1.549555751163944481e-18
1.091565723187567889e-18
7.776903517839210020e-19
5.648785426631663032e-19
4.183819669619433506e-19
3.155798130963632582e-19
2.416551191349239234e-19
1.866766852079558576e-19
1.444297327366016740e-19
1.110966504384708356e-19
