# bin_15_18
3.490961849635655932e-08
3.928125775405525107e-08
4.342704316499588326e-08
4.696917674182993164e-08
4.941986904450953965e-08
5.024578100104344375e-08
4.894680039536113544e-08
4.503224180283951598e-08
3.917831215236664437e-08
3.238698829365997031e-08
2.655383327087485040e-08
2.268674912557167092e-08
1.941570484348216353e-08
1.455925600553059947e-08
1.017719873735396062e-08
8.280368138662521331e-09
5.555813498169131199e-09
4.201821718629024321e-09
2.860678112982430043e-09
1.990365325712586508e-09
1.395828126885545332e-09
9.789700591221622677e-10
6.909315035566370348e-10
4.935034253451098408e-10
3.594348242917802185e-10
2.669136890154771850e-10
2.017843801091416691e-10
1.547615188131823913e-10
1.196430355761067533e-10
9.255780060246170729e-11
7.113527281274522238e-11
