# bin_8_18
1.842787929009032816e-07
2.015777665532461655e-07
2.152481721862529214e-07
2.229086619416314022e-07
2.226057787960559803e-07
2.113642554752271579e-07
1.895070442546488403e-07
1.606390232349949619e-07
1.314846504067784045e-07
1.093763150522531753e-07
9.454696547578653098e-08
7.738387905997679935e-08
5.465816530775918598e-08
4.129186117686442549e-08
3.183375712711151231e-08
2.199491739870126644e-08
1.609468826043350393e-08
1.161202575725822445e-08
8.268927286572381532e-09
5.952656149420654290e-09
4.347189536367788902e-09
3.229864705962123985e-09
2.442898625116137696e-09
1.879562156381709938e-09
1.463564455090307809e-09
1.146503400616474518e-09
8.973195108106637266e-10
6.967327420754895630e-10
5.334563100917202045e-10
4.007364711716752767e-10
2.941979525266116992e-10
