# bin_3_6
2.348926266697167949e-07
2.414408839041847453e-07
2.389491078890063370e-07
2.245220702145674939e-07
1.994296538151033173e-07
1.677974417953353388e-07
1.373836394934440415e-07
1.150386451733754265e-07
9.899879749616696936e-08
7.921966967931725495e-08
5.616405473790644667e-08
4.335888941371522282e-08
3.258762650131860739e-08
2.339469474711906544e-08
1.711811843212853161e-08
1.258668595442952948e-08
9.262898369574883254e-09
6.926574892264179520e-09
5.275497299658092957e-09
4.090663926578462468e-09
3.220257516783938238e-09
2.559899185873205572e-09
2.039889237449595790e-09
1.617707637671606127e-09
1.268014291897935031e-09
9.763429986100258469e-10
7.347783273620952032e-10
5.386379323611302880e-10
3.839760819830557239e-10
2.663820028856137052e-10
1.802529856607373804e-10
