# bin_18_10
4.952602478134244205e-23
5.565681561043519296e-23
6.143671533185843013e-23
6.632234396679101042e-23
6.961764449397314185e-23
7.059276605198249533e-23
6.849373380568745085e-23
6.273365905335426175e-23
5.433484322578115895e-23
4.480093657388142267e-23
3.678490769385277411e-23
3.153177652500554253e-23
2.685551339214511857e-23
1.988119717800137436e-23
1.400692812102838482e-23
1.140961449848939176e-23
7.571751496152854748e-24
5.756341925021615174e-24
3.947652613206461654e-24
2.734823426104239901e-24
1.920861266490773288e-24
1.349577314694342048e-24
9.558670154059913130e-25
6.858897562893983037e-25
5.020721515624436235e-25
3.746325282306922737e-25
2.844050412055699912e-25
2.187817861152066555e-25
1.693945744119091304e-25
1.310473071057497666e-25
1.005782563096153670e-25
