# bin_6_8
8.595532034900850471e-08
9.239452064856318204e-08
9.652699071039467920e-08
9.740154291097308930e-08
9.389600031930163849e-08
8.548513185857917057e-08
7.360542680322730147e-08
6.056518177416383586e-08
4.987127913159308980e-08
4.280122820031902424e-08
3.607239041016199229e-08
2.647083221385705076e-08
1.907070456994669628e-08
1.532463737197066413e-08
1.045642431239010750e-08
7.925784263594444548e-09
5.627346924673964138e-09
4.048329857155488844e-09
2.956087413282014976e-09
2.184472062049564217e-09
1.641621160506298601e-09
1.254972841080598659e-09
9.752334923912347954e-10
7.659023311587393662e-10
6.039053782287491916e-10
4.747876159372960290e-10
3.696067820220132867e-10
2.832043484906336673e-10
2.125230310998288399e-10
1.555920670100112249e-10
1.108956882898008843e-10
