# bin_11_3
6.420720461162890742e-31
6.997581591254291993e-31
7.437756337686832056e-31
7.657247959579486495e-31
7.593009242476401635e-31
7.140347422137142390e-31
6.343595434532903502e-31
5.328546909618752536e-31
4.354338481905161472e-31
3.649342175104603502e-31
3.158126612559101751e-31
2.527138266989760541e-31
1.757893819760806662e-31
1.372490750824009762e-31
1.019583128519037196e-31
7.263876180590943652e-32
5.152684843286834272e-32
3.770198154441698808e-32
2.702724604698213240e-32
1.953474342519667557e-32
1.437015791939744013e-32
1.075235915841090979e-32
8.192006977535990940e-33
6.340689792587149353e-33
4.958166107816058071e-33
3.892368127741193237e-33
3.046045200598376924e-33
2.360047664254214476e-33
1.799863042653109643e-33
1.344725568420485892e-33
9.806347632914805590e-34
