# bin_19_4
3.239880725217181570e-62
3.629206354199230792e-62
3.990387984011839577e-62
4.286839277095336905e-62
4.472331406117735090e-62
4.503885094466149797e-62
4.325250543382934363e-62
3.919494441702607949e-62
3.357980990063168108e-62
2.755707271097178623e-62
2.275364210722604912e-62
1.963185323567082619e-62
1.644092070566557443e-62
1.182004935870692433e-62
8.601528394602052706e-63
6.866454680008512708e-63
4.572008832828767416e-63
3.429096624006922856e-63
2.399531074773895571e-63
1.666448937224671040e-63
1.169894871205445246e-63
8.248266430065265605e-64
5.893470196693650500e-64
4.276852289724797299e-64
3.166507530717958272e-64
2.387653737191288555e-64
1.828257864848339179e-64
1.414198370118709220e-64
1.097205832403239679e-64
8.476481146252271456e-65
6.477510057388370471e-65
