# bin_6_5
2.289444089842336611e-09
2.444279697350746950e-09
2.531623258724711285e-09
2.529259917585846981e-09
2.403628316546862841e-09
2.157104294747813031e-09
1.830424207488112536e-09
1.498353641735098792e-09
1.244721327055011560e-09
1.075102763045762799e-09
8.827545276861950809e-10
6.263589267777894607e-10
4.715734259073700985e-10
3.664497177937239195e-10
2.539079516914917839e-10
1.880260123084511211e-10
1.367011355366503469e-10
9.869734846341458673e-11
7.230383076751396753e-11
5.384830993470109622e-11
4.085113076816764069e-11
3.152771038862755561e-11
2.468352236402646445e-11
1.947824009273251278e-11
1.538671907824787132e-11
1.208250512076054870e-11
9.368428891671301042e-12
7.132316340810831147e-12
5.307076207634679415e-12
3.846691457703985883e-12
2.712626628117371093e-12
