# bin_8_1
1.641559431463543680e-29
1.744188464534866257e-29
1.795555024228929556e-29
1.780734146319845885e-29
1.675532773052190217e-29
1.489602900067581061e-29
1.252377095673397112e-29
1.023548398151702945e-29
8.567794003785918306e-30
7.407690310428059764e-30
5.944858499129743487e-30
4.156712952302507152e-30
3.232469424938856562e-30
2.422334038627441235e-30
1.728640969058284052e-30
1.244601592699438541e-30
9.163453054176511691e-31
6.659290504997127238e-31
4.899081734596926461e-31
3.672703434430606769e-31
2.803513617567225402e-31
2.176371506998486378e-31
1.711205603502719219e-31
1.353629008870883263e-31
1.069796516151217976e-31
8.388125519042356836e-32
6.482898681955123057e-32
4.911971800521963970e-32
3.633010420041380939e-32
2.615418901614402949e-32
1.831543904196096071e-32
