# bin_13_3
2.107686812929739813e-40
2.316792070006347659e-40
2.488902248534553091e-40
2.597372993076526695e-40
2.617077344721566048e-40
2.516085128805915592e-40
2.283024795001708385e-40
1.958755186139012814e-40
1.608260889780262510e-40
1.326251925655778407e-40
1.142456458203054334e-40
9.592846532132973495e-41
6.941648101927426449e-41
5.031980914787269570e-41
4.040827104096008711e-41
2.710748754944917967e-41
2.052942729458028154e-41
1.450549916209832506e-41
1.025492750205014047e-41
7.363504767270488464e-42
5.333958912628750105e-42
3.927107226433508040e-42
2.941621816708571703e-42
2.244811636683676678e-42
1.737487745985072665e-42
1.356522680286854993e-42
1.061312761450638775e-42
8.260552966601675298e-43
6.355332186039028774e-43
4.806790610176586780e-43
3.558812703318622505e-43
