# bin_20_13
1.010834505501457363e-18
1.142475928766758564e-18
1.269780907503616406e-18
1.382345202220825448e-18
1.466339620438298919e-18
1.504988323500300850e-18
1.485843655092175348e-18
1.388784029536365336e-18
1.226628380954928107e-18
1.024784422847310356e-18
8.376588297260775406e-19
7.067167829099270539e-19
6.115416066615316494e-19
4.795792335442648868e-19
3.306241961760955031e-19
2.633069085746993495e-19
1.874655180367982268e-19
1.358217477666116190e-19
9.196070392509211620e-20
6.558275411679801651e-20
4.544674382332640038e-20
3.142543009431791053e-20
2.190688385929508740e-20
1.540978777401786289e-20
1.102250302699497569e-20
8.039545340480466823e-21
5.979180300250033084e-21
4.528412753410734440e-21
3.474802348373006154e-21
2.683352608703167168e-21
2.069678310088600822e-21
