# bin_1_17
8.133002143792222014e-07
7.847010987169693886e-07
7.169518260827154448e-07
6.202245732417081535e-07
5.134957602430092104e-07
4.233588424020263299e-07
3.601546992478511094e-07
3.022814662666910780e-07
2.278768187357790321e-07
1.655178978026999414e-07
1.297884118524497817e-07
9.350988407956754634e-08
6.957691271995581025e-08
5.087858765960442744e-08
3.787449500945567479e-08
2.854217990762811520e-08
2.189969707500486699e-08
1.711973957615264117e-08
1.358803676499463378e-08
1.089228391333536117e-08
8.752821053038450178e-09
6.997694714005297188e-09
5.527148036539311072e-09
4.286391810877762003e-09
3.247617953459943234e-09
2.395855820186707514e-09
1.718852794016195071e-09
1.200033887422856350e-09
8.172131135111131897e-10
5.445194063838466268e-10
3.561958189095774931e-10
