# bin_1_14
7.755536196408747945e-07
7.481638219372333147e-07
6.834529610161037272e-07
5.911495946164002281e-07
4.893835697211959673e-07
4.035047423993728876e-07
3.432917856198042513e-07
2.880687225033611155e-07
2.170862975494105913e-07
1.577152862026190540e-07
1.236663646548255417e-07
8.908449578982871063e-08
6.629155116337676846e-08
4.847711116439911287e-08
3.608807424349600123e-08
2.719822901693806156e-08
2.087037831263479418e-08
1.631644071688475330e-08
1.295130914206920048e-08
1.038230098801850712e-08
8.343096136995126669e-09
6.670003837606451224e-09
5.268081242272299070e-09
4.085201402748456010e-09
3.094918208860162888e-09
2.282986671587335655e-09
1.637718350692560791e-09
1.143285562589731644e-09
7.785058732610674788e-10
5.186935055406090543e-10
3.392833214376273361e-10
