# bin_1_19
8.327973334219486748e-07
8.035735752036784820e-07
7.342548842593570768e-07
6.352425778109746953e-07
5.259503527230918316e-07
4.336140165440750826e-07
3.688648450283364100e-07
3.096227295982729650e-07
2.334504137934638096e-07
1.695481563468137366e-07
1.329506137949971817e-07
9.579571637427231580e-08
7.127389034403830497e-08
5.211901485098860058e-08
3.879722935418220474e-08
2.923636662413478334e-08
2.243136781445792491e-08
1.753466494942386151e-08
1.391692361739942517e-08
1.115570373029087323e-08
8.964454925796851120e-09
7.166955814584783769e-09
5.660962968212152149e-09
4.390312045784007803e-09
3.326491466908827178e-09
2.454155766758490635e-09
1.760760916069522890e-09
1.229345925405129947e-09
8.372064466559469623e-10
5.578591811053029730e-10
3.649315806070808355e-10
