# bin_18_8
1.837340099344181521e-31
2.060636030765536969e-31
2.269087576845055658e-31
2.442158711776054094e-31
2.553788073526429252e-31
2.578605120371250957e-31
2.485984304645715056e-31
2.261673037073109397e-31
1.945538025535290037e-31
1.599107850434854399e-31
1.317304398702798887e-31
1.134090146112891546e-31
9.563122705251858428e-32
6.947744206470843089e-32
4.989349821012098110e-32
4.023910048760446255e-32
2.666830739150321407e-32
2.016415994985760569e-32
1.400233231822983950e-32
9.706960378556828455e-33
6.816273772961288252e-33
4.796850211080611514e-33
3.415895046634032173e-33
2.468507969337658025e-33
1.820077312462098943e-33
1.367256504005692115e-33
1.043782613399508486e-33
8.059038624701332169e-34
6.249094954280924451e-34
4.831026543905694044e-34
3.698125817045144114e-34
