# bin_3_5
1.755360143036193459e-07
1.802618525473052787e-07
1.781903158061761151e-07
1.671748678481786457e-07
1.482705753990702672e-07
1.245865905232384012e-07
1.019904848218366263e-07
8.549821981561894636e-08
7.356735102343987887e-08
5.866072721676172063e-08
4.152724010925538078e-08
3.218568804584987453e-08
2.407690420053371384e-08
1.734372129917065068e-08
1.266021985282642021e-08
9.319664304771560528e-09
6.864320955271440089e-09
5.136767834841185260e-09
3.915798598810799274e-09
3.038864351272564567e-09
2.393953010250483067e-09
1.903880575029822366e-09
1.517371458253079532e-09
1.203181600078807636e-09
9.427232994047846591e-10
7.254197730563163227e-10
5.454888551866439086e-10
3.994979724494825608e-10
2.845071059060284098e-10
1.971905895429111970e-10
1.333227141059381723e-10
