# bin_20_15
2.847317240640591098e-14
3.223247613142979403e-14
3.589373533145072173e-14
3.916888733604122483e-14
4.167234308144044272e-14
4.292741752339386673e-14
4.258298235338003660e-14
4.003988691270187587e-14
3.556217359566571609e-14
2.985593861034131408e-14
2.440377612953526530e-14
2.048741145192787535e-14
1.775058632217889244e-14
1.415673319899866198e-14
9.782557967877283101e-15
7.658343488723846184e-15
5.607296249964380668e-15
3.959844166126686751e-15
2.723363817769435289e-15
1.948598269802819944e-15
1.343731281640861262e-15
9.229997955381138218e-16
6.401170439531248557e-16
4.477695453689335410e-16
3.179757640286038946e-16
2.301884219689088987e-16
1.699591416134509841e-16
1.279350010921397150e-16
9.775423108900948907e-17
7.534218957444443162e-17
5.813362455259351495e-17
