# bin_9_11
5.063920529611600515e-08
5.568327348758566267e-08
5.984685384566348286e-08
6.249062346449318382e-08
6.300474562727426139e-08
6.063667390695559887e-08
5.508819011802110182e-08
4.732436316699040218e-08
3.888777457992291188e-08
3.205692926690839417e-08
2.758339179231517651e-08
2.318961633078959103e-08
1.685296294466176944e-08
1.218168376808266658e-08
9.778157454622076488e-09
6.580692585961220460e-09
4.975651547460079017e-09
3.507555585405268365e-09
2.481410745376328638e-09
1.781614832143692760e-09
1.290435623890578118e-09
9.492213398912988815e-10
7.102310589851953897e-10
5.414282917973272898e-10
4.187088977075177933e-10
3.267031691121197638e-10
2.555275099505570035e-10
1.988870168776840285e-10
1.530594689438541689e-10
1.158259244166833947e-10
8.581759458459357519e-11
