# bin_16
0.000000000000000000e+00
0.000000000000000000e+00
0.000000000000000000e+00
0.000000000000000000e+00
0.000000000000000000e+00
0.000000000000000000e+00
0.000000000000000000e+00
0.000000000000000000e+00
0.000000000000000000e+00
0.000000000000000000e+00
0.000000000000000000e+00
1.182550567268017730e-284
6.606011609032443863e-248
9.772370986272696349e-216
1.563263892934250214e-187
8.903860201854933274e-163
4.977131478108828961e-141
6.493584420770243379e-122
4.157850594454364834e-105
2.477859104052706956e-90
2.389464722276965239e-77
6.022937756562753250e-66
6.022273912277961574e-56
3.437286994553907060e-47
1.539840197377205763e-39
7.159624725088273907e-33
4.417985944777763135e-27
4.494295795813965792e-22
9.130889423997278713e-18
4.392195855149327558e-14
5.820102830271340351e-11
2.432166329019413570e-08
3.618750492029433931e-06
2.138726119032405759e-04
5.545338125855473962e-03
6.906431545527277893e-02
4.488110783102734480e-01
1.639559461119231010e+00
3.593409883275959782e+00
4.988354086050696523e+00
4.580188079821466474e+00
2.878430218319653289e+00
1.273638849309243204e+00
4.068701516229540349e-01
9.608872237728663390e-02
1.716626738904667229e-02
2.372307053513589108e-03
2.591280148334564742e-04
2.283648215443124149e-05
1.655544593684404049e-06
1.005409861382705606e-07
5.202215672316567072e-09
2.329676271198462485e-10
9.161571222948136898e-12
3.206482331033055241e-13
1.011186506981459172e-14
2.906087300955064380e-16
7.691225224807540511e-18
1.892601252023671527e-19
4.368452962561877829e-21
9.534917428396264866e-23
1.982691205448146578e-24
3.954627593637823505e-26
7.613574246620197688e-28
1.422985220700393133e-29
2.595562891894544997e-31
4.642837001783972471e-33
8.180566304312173292e-35
1.425603080268673054e-36
2.466318735153460144e-38
4.250299674760282902e-40
0.000000000000000000e+00
0.000000000000000000e+00
0.000000000000000000e+00
0.000000000000000000e+00
0.000000000000000000e+00
0.000000000000000000e+00
0.000000000000000000e+00
0.000000000000000000e+00
0.000000000000000000e+00
0.000000000000000000e+00
0.000000000000000000e+00
