# bin_8_11
-1.268254180043944213e-14
-1.399096784682278522e-14
-1.509701484568834136e-14
-1.584283381242931729e-14
-1.606295898004467515e-14
-1.558627444292039929e-14
-1.428075054179830377e-14
-1.237446017471768353e-14
-1.020836555040758300e-14
-8.382194404218940762e-15
-7.179212266324634470e-15
-6.113529641990957752e-15
-4.539867109509176146e-15
-3.207572270812070140e-15
-2.609871046022964209e-15
-1.754741062088094501e-15
-1.337639483467046512e-15
-9.294201573089641134e-16
-6.572503671636705470e-16
-4.715205463264077049e-16
-3.403915575347851281e-16
-2.489082817798281221e-16
-1.849804258331936285e-16
-1.401549814232450813e-16
-1.078676372176649410e-16
-8.390575676557254714e-17
-6.555919607755518716e-17
-5.107804656971637916e-17
-3.941755748145274347e-17
-2.995494763492344266e-17
-2.231511028941853126e-17
