# bin_15_3
-2.122181218483170231e-09
-2.184603138225597923e-09
-2.166073321336467910e-09
-2.040115150916654968e-09
-1.816334112792944092e-09
-1.531506473005770663e-09
-1.254559209860563461e-09
-1.049154876730290557e-09
-9.031376088336764208e-10
-7.262707600905520714e-10
-5.160838724473042257e-10
-3.963791715527950309e-10
-2.998055362172374600e-10
-2.142984133751591662e-10
-1.573105795247690955e-10
-1.154921189794960750e-10
-8.490175593586474955e-11
-6.342383634380417043e-11
-4.824681641754590851e-11
-3.736847653074283180e-11
-2.938925281009004262e-11
-2.334914980459302295e-11
-1.860301019975566348e-11
-1.475644591576920908e-11
-1.157383251793913784e-11
-8.920114520093498055e-12
-6.721341581673088362e-12
-4.934029085611463467e-12
-3.522366140021878461e-12
-2.446967589424924656e-12
-1.657787122793308614e-12
