# bin_12_14
-5.888708089761001838e-13
-6.586715005750742150e-13
-7.229224468727772673e-13
-7.748834218545968332e-13
-8.060651864462833410e-13
-8.090587278605732800e-13
-7.732078378830125509e-13
-6.973920539999279714e-13
-5.945901598692450457e-13
-4.873256643567580683e-13
-4.038580282697270525e-13
-3.492238646909972309e-13
-2.896142214849869953e-13
-2.058004041947092432e-13
-1.524710409919907911e-13
-1.197387214211869227e-13
-8.060157917483305086e-14
-5.956587436570731095e-14
-4.212643912127388731e-14
-2.934557314671522690e-14
-2.060426929093266548e-14
-1.457857764734081138e-14
-1.046437765648527706e-14
-7.635186652386441437e-15
-5.682626078202823121e-15
-4.304783708606854121e-15
-3.308100645167891823e-15
-2.564199606985199438e-15
-1.990352917314384141e-15
-1.536015561626386906e-15
-1.171060008635340192e-15
