# bin_7_8
-7.888591127553642116e-12
-8.582672299819000054e-12
-9.103038285762485489e-12
-9.347050216015596729e-12
-9.236339044064525184e-12
-8.647756293368220988e-12
-7.651837007357727648e-12
-6.405697866678833693e-12
-5.236600276853690628e-12
-4.406328017042377849e-12
-3.809040504275861760e-12
-3.010944366360846310e-12
-2.092249738879832527e-12
-1.653852244893778689e-12
-1.205556117518352651e-12
-8.737192141950346276e-13
-6.141283247945280853e-13
-4.490166546863200930e-13
-3.231115536543439553e-13
-2.344756419754946139e-13
-1.730682675743908589e-13
-1.299061319265779145e-13
-9.928944103861831825e-14
-7.704399865001550924e-14
-6.034490904122111686e-14
-4.740517412810749703e-14
-3.708514193504656902e-14
-2.869793344560423182e-14
-2.184224048214471600e-14
-1.627556551973431592e-14
-1.183160172210584890e-14
