# bin_9_5
-7.662766277092470044e-10
-8.151666993435837640e-10
-8.405371352391247128e-10
-8.350608424856950371e-10
-7.878562216459534733e-10
-7.023386770377874265e-10
-5.923866744039569497e-10
-4.848209792679081508e-10
-4.051762917611340677e-10
-3.497890429997833673e-10
-2.821887705512720225e-10
-1.989989854725381564e-10
-1.530254177630338396e-10
-1.157592485644354167e-10
-8.205395306345605348e-11
-5.972895900018255833e-11
-4.365004939952351352e-11
-3.167723328061832764e-11
-2.330011714489134006e-11
-1.743679889667308316e-11
-1.328649430782356867e-11
-1.029652634303117849e-11
-8.085129366488668486e-12
-6.390370625279783260e-12
-5.048935844254251721e-12
-3.959796133412970813e-12
-3.062711790506346945e-12
-2.323406108663806798e-12
-1.721265330622156108e-12
-1.241614796659298559e-12
-8.713662898243167646e-13
