# bin_19_17
-6.639075171087091806e-11
-7.504434629451997862e-11
-8.341646715452769492e-11
-9.082343806383722134e-11
-9.635651997577728063e-11
-9.891481813691683496e-11
-9.767169133640418094e-11
-9.131143089463715678e-11
-8.067054478533505269e-11
-6.742195211730457712e-11
-5.513453206499008155e-11
-4.652813164792356231e-11
-4.025536748922209807e-11
-3.157132431655470737e-11
-2.178992129484699402e-11
-1.734160103949323601e-11
-1.234999599056887662e-11
-8.944544289536247476e-12
-6.068780237441295675e-12
-4.322704164312497447e-12
-2.996377671894083891e-12
-2.072276497350505490e-12
-1.444548113482317630e-12
-1.016135250394619713e-12
-7.268063472368696282e-13
-5.300730884737185533e-13
-3.941857292904011712e-13
-2.985038029073064642e-13
-2.290212434017885454e-13
-1.768351875248400364e-13
-1.363793564886617788e-13
