# bin_18_14
-1.697401186784049969e-10
-1.905193227836372964e-10
-2.099910274427781707e-10
-2.262693725406718574e-10
-2.369511595444093823e-10
-2.396361346388776670e-10
-2.315739671172110054e-10
-2.112218263531221395e-10
-1.821777032054499087e-10
-1.499643537695951843e-10
-1.234474870619958696e-10
-1.061264974080138424e-10
-8.978056306368619380e-11
-6.568537275518508556e-11
-4.689980408423198033e-11
-3.790903220516673019e-11
-2.518323516784381624e-11
-1.905126051784790042e-11
-1.317597183937125531e-11
-9.137849273452708853e-12
-6.416830940346533232e-12
-4.514177706422466497e-12
-3.208860829265122359e-12
-2.313381437644473077e-12
-1.701478001744514413e-12
-1.275204302087252867e-12
-9.716251666140090351e-13
-7.492174412459712604e-13
-5.806328922860923400e-13
-4.489620922615451690e-13
-3.439749344653575856e-13
