# bin_18_17
-3.883821859444213881e-11
-4.388647500837383748e-11
-4.876358965212049449e-11
-5.306819349414898144e-11
-5.626767208380815953e-11
-5.771968950563392121e-11
-5.693940766424249744e-11
-5.316768854731896625e-11
-4.691919342983204026e-11
-3.917627459760556625e-11
-3.203822782167565204e-11
-2.706421495401652721e-11
-2.340693374006822540e-11
-1.829445691026137887e-11
-1.262476679808014238e-11
-1.007875801064837298e-11
-7.137436453025038172e-12
-5.195101737117347925e-12
-3.516680728093552831e-12
-2.501821854211409743e-12
-1.736022389792370391e-12
-1.202311132642662363e-12
-8.389559563234494175e-13
-5.908123730223901237e-13
-4.231968877141793201e-13
-3.091019010542632506e-13
-2.301854809885079512e-13
-1.745148050112553842e-13
-1.339977324885266032e-13
-1.034984865127622094e-13
-7.981091088175858204e-14
