# bin_16_7
-8.338585854980630832e-10
-9.055508485700862753e-10
-9.582570360137095135e-10
-9.813198657858612835e-10
-9.661095243399637827e-10
-9.006100508376106059e-10
-7.936378972390313960e-10
-6.624191475560246853e-10
-5.418835796586467748e-10
-4.575253045967456707e-10
-3.944942424216057953e-10
-3.082104882207759904e-10
-2.147710930918443736e-10
-1.709473982645642827e-10
-1.227204914864827507e-10
-9.003986217166053176e-11
-6.321664012161434409e-11
-4.601859298536001006e-11
-3.321750455918141235e-11
-2.419209516969862321e-11
-1.790562302863346387e-11
-1.347752374133960019e-11
-1.032880988615691054e-11
-8.030965219892991067e-12
-6.297930477798130955e-12
-4.948957817623526318e-12
-3.869210895600572405e-12
-2.989954532076161771e-12
-2.270951103797004945e-12
-1.687721311058300279e-12
-1.223222828575753686e-12
