# bin_19_6
-1.185512721862549653e-09
-1.276134020833607120e-09
-1.335569523169223095e-09
-1.350375550522148737e-09
-1.305492580184067872e-09
-1.192205034333597936e-09
-1.029718577893817338e-09
-8.487350140227714409e-10
-6.982135382237847955e-10
-5.982961242525963017e-10
-5.061970411369508772e-10
-3.742761180071325915e-10
-2.680022461238868107e-10
-2.158655258698456274e-10
-1.476649487976104797e-10
-1.119189531048336489e-10
-7.918298656415333015e-11
-5.701404587192987617e-11
-4.159448809687308090e-11
-3.069219869796212311e-11
-2.302354792322614065e-11
-1.756834000370198730e-11
-1.363118743786534719e-11
-1.069415413807188391e-11
-8.428297688078866709e-12
-6.627221591964396169e-12
-5.162737645615917841e-12
-3.960618640150670952e-12
-2.976961994383745163e-12
-2.183750747497420278e-12
-1.559744513652317277e-12
