# bin_7_7
-5.902518560006397879e-11
-6.385678652832919374e-11
-6.725330479312534893e-11
-6.848569043002920987e-11
-6.690095219987685031e-11
-6.178339071952481131e-11
-5.395881945804296364e-11
-4.473379253004171876e-11
-3.663952809984834605e-11
-3.116711243920940252e-11
-2.673324385950761507e-11
-2.035232871922237490e-11
-1.424512265027845099e-11
-1.153054272493332171e-11
-8.000712605763079642e-12
-6.033026224495758730e-12
-4.211036589466420207e-12
-3.046864417585963544e-12
-2.214162004884762709e-12
-1.624353720475364428e-12
-1.209924307890837771e-12
-9.164458114561921786e-13
-7.065727851376134497e-13
-5.518796428690454416e-13
-4.339791546877692491e-13
-3.412850604052002176e-13
-2.664995506325106106e-13
-2.053316023222970835e-13
-1.552593070050957553e-13
-1.147238006645907126e-13
-8.259891509345466885e-14
