# bin_9_9
-4.194220753486703025e-11
-4.603345755612074458e-11
-4.935938370575617638e-11
-5.138455324838603921e-11
-5.162955820401866692e-11
-4.943547311904528446e-11
-4.468078679424836406e-11
-3.818119209862217963e-11
-3.131741919902797675e-11
-2.590621033299467469e-11
-2.235767775670882536e-11
-1.862088674426067757e-11
-1.334836940918962608e-11
-9.819984052661465174e-12
-7.784472757826855477e-12
-5.267186339127602056e-12
-3.945717864542582220e-12
-2.810745684404474314e-12
-1.991778375018164947e-12
-1.430770355733118519e-12
-1.039102740679103137e-12
-7.674934650498392426e-13
-5.768985397286655547e-13
-4.415578299677081372e-13
-3.425360229525922746e-13
-2.677908080891604864e-13
-2.095759749582639070e-13
-1.630092102465561232e-13
-1.252201422918575654e-13
-9.449732973759418170e-14
-6.976549585160197821e-14
