# bin_20_9
-6.693081207678154503e-10
-7.366920333319446282e-10
-7.927158482225503180e-10
-8.289556682740653641e-10
-8.371630577779994338e-10
-8.076107320331671503e-10
-7.355534540703645834e-10
-6.335149251387379745e-10
-5.212725888763389947e-10
-4.293474838778266554e-10
-3.690052252433147930e-10
-3.113140439669406577e-10
-2.276442658766361404e-10
-1.635885791513221088e-10
-1.317586500009547492e-10
-8.870898034634329071e-11
-6.719633797752570033e-11
-4.719275407019855416e-11
-3.339253414908671310e-11
-2.396804819980413269e-11
-1.734331609451291985e-11
-1.273691785077334984e-11
-9.512666903142755935e-12
-7.239744565539038766e-12
-5.591546099771675643e-12
-4.359313081817370667e-12
-3.408737608501549181e-12
-2.653955938879913573e-12
-2.044045407932579002e-12
-1.548652472912568612e-12
-1.149180016021672954e-12
