# bin_16_1
-3.664472457816823099e-09
-3.535731966893657666e-09
-3.230624070698337607e-09
-2.794993934797201303e-09
-2.314497254129015308e-09
-1.908908135466848167e-09
-1.624386547796211710e-09
-1.363141218284687522e-09
-1.027305438011856298e-09
-7.465895408633004071e-10
-5.854525762684043075e-10
-4.217471903168274525e-10
-3.138771944599708161e-10
-2.295306461493737284e-10
-1.708713003159864073e-10
-1.287787515101350046e-10
-9.881651997155656290e-11
-7.725442824048624703e-11
-6.132231703233697275e-11
-4.916019400138717245e-11
-3.950660642382674384e-11
-3.158625404090971012e-11
-2.494933952515404393e-11
-1.934894994823229831e-11
-1.465991159848337242e-11
-1.081492933933785665e-11
-7.758819750663878387e-12
-5.416826656434096902e-12
-3.688776039774646209e-12
-2.457861428198755295e-12
-1.607795660741106850e-12
