# bin_13_7
-6.595020594401871390e-10
-7.160939991164104142e-10
-7.576282599256188877e-10
-7.756843736153418431e-10
-7.634248952454847949e-10
-7.113964035452263474e-10
-6.266724975248291475e-10
-5.229080614385630883e-10
-4.277705799527187296e-10
-3.612868200770094293e-10
-3.114643011007746363e-10
-2.430912773481772944e-10
-1.693988310597781279e-10
-1.349446760032077154e-10
-9.673501174505089883e-11
-7.105959324884883681e-11
-4.986726042125026341e-11
-3.629623583611725660e-11
-2.620702371995942880e-11
-1.909197302161112142e-11
-1.413454232396462170e-11
-1.064177113191321573e-11
-8.157611738415810719e-12
-6.344014726872595590e-12
-4.975615367257370467e-12
-3.910030387055687964e-12
-3.056825513032555929e-12
-2.361910896011636893e-12
-1.793618713321979481e-12
-1.332672941326507519e-12
-9.656336673438823143e-13
