# bin_17_19
-7.217419348445958643e-13
-8.173729200168581561e-13
-9.106759045409281007e-13
-9.943715521898039789e-13
-1.058701052921552166e-12
-1.091562237374914706e-12
-1.083970506716944631e-12
-1.020625176182758119e-12
-9.076872667514020712e-13
-7.630115124639630788e-13
-6.239186690517986136e-13
-5.234454769848582189e-13
-4.536161529961819581e-13
-3.629063498725877596e-13
-2.511095515484950517e-13
-1.959145843366849285e-13
-1.441717808440893356e-13
-1.013772079570775390e-13
-7.000054796997132872e-14
-5.006199947784125044e-14
-3.450003070278901035e-14
-2.367720805794909494e-14
-1.640456039861297190e-14
-1.146293677709310026e-14
-8.128833439626928121e-15
-5.875762115345776927e-15
-4.331882134108662224e-15
-3.256530819903577468e-15
-2.485933918472992708e-15
-1.915039128803184226e-15
-1.477606429621002048e-15
