# bin_15_13
-1.079045205883988330e-10
-1.207050495687915106e-10
-1.324933796679402458e-10
-1.420353398145276564e-10
-1.477759565893206633e-10
-1.483526630543850600e-10
-1.418239290091260197e-10
-1.279647355323509951e-10
-1.091455023820195822e-10
-8.947659035754546594e-11
-7.414088373872512433e-11
-6.408728468572064748e-11
-5.317150481278195522e-11
-3.783806201893620104e-11
-2.799595673109772175e-11
-2.199926825739606826e-11
-1.481143456685553793e-11
-1.094945913740483059e-11
-7.736909296738127959e-12
-5.388951735425274077e-12
-3.784369786381907719e-12
-2.677471618663470997e-12
-1.921240546803479990e-12
-1.401212513551414090e-12
-1.042439149531530888e-12
-7.893759138575586614e-13
-6.064122860475518719e-13
-4.699394132480649865e-13
-3.647296853141021495e-13
-2.814742818633940150e-13
-2.146200112009407981e-13
