# bin_2_20
-9.222665644596189252e-89
-1.034579305624281523e-88
-1.139530100648235862e-88
-1.226815622240005444e-88
-1.283345712332898728e-88
-1.296322447055736145e-88
-1.250384799035082719e-88
-1.138189037769793996e-88
-9.796584740655945910e-89
-8.055794068728619219e-89
-6.637131321680758791e-89
-5.714012051546151664e-89
-4.820787589921569472e-89
-3.505800526841139764e-89
-2.516404840409536177e-89
-2.030520643679799980e-89
-1.346009554471016188e-89
-1.018077244110727629e-89
-7.067988067698081592e-90
-4.900081731342864872e-90
-3.441150411684611813e-90
-2.421628758341197583e-90
-1.724218573926425201e-90
-1.245746732987100648e-90
-9.182958341074148438e-91
-6.896770398843914979e-91
-5.264183217488212725e-91
-4.064082762965030147e-91
-3.151336660842067959e-91
-2.436432637649500480e-91
-1.865385458329522470e-91
