# bin_1_15
-1.403433582869214188e-71
-1.550766792019006696e-71
-1.676751689580902983e-71
-1.764056709966349580e-71
-1.793647178663688952e-71
-1.747820179188644903e-71
-1.608832228893126448e-71
-1.400523398553845610e-71
-1.158199049000814836e-71
-9.493535013219390708e-72
-8.105073433299435004e-72
-6.940557423234255998e-72
-5.219794199783803309e-72
-3.652410211665209794e-72
-2.976301284123810758e-72
-2.015248227935200620e-72
-1.532727831445759622e-72
-1.057073882565615219e-72
-7.493099061654408042e-73
-5.369604164856798365e-73
-3.869817514028078788e-73
-2.820615695302665708e-73
-2.088204057573951692e-73
-1.576474999570265423e-73
-1.209739352100154827e-73
-9.391011294228799711e-74
-7.331137870693191324e-74
-5.713351502321171483e-74
-4.414803806289058075e-74
-3.362209323590825655e-74
-2.511865003737907919e-74
