# bin_8_4
-9.726509965985026834e-10
-1.019797309046059899e-09
-1.033583985413869201e-09
-1.003120070094196068e-09
-9.204594083967484058e-10
-7.989119602905821686e-10
-6.606392045430599294e-10
-5.426537167073493688e-10
-4.629021688866596388e-10
-3.932818162591301202e-10
-2.956328175442569858e-10
-2.106477208808412856e-10
-1.690263211433370869e-10
-1.180857776538095415e-10
-8.895130879295476689e-11
-6.339650902612098390e-11
-4.633507719218280728e-11
-3.418662986064822334e-11
-2.556752993473323733e-11
-1.946398326839687839e-11
-1.507017798672936894e-11
-1.184195671484553957e-11
-9.384161627120865242e-12
-7.446539259040255163e-12
-5.875423241824128527e-12
-4.578267274442524778e-12
-3.502621079595705308e-12
-2.618482642247229394e-12
-1.906492036200258790e-12
-1.350153357960181756e-12
-9.307512562763782621e-13
