# bin_15_6
-1.001760432606250808e-09
-1.078218417981595985e-09
-1.128281282860854266e-09
-1.140611122054003487e-09
-1.102449180438230280e-09
-1.006537062340224496e-09
-8.691439405347210159e-10
-7.162975879174265156e-10
-5.893266602366136505e-10
-5.050670289085247371e-10
-4.271788485775322554e-10
-3.156512988891886076e-10
-2.261493822927050533e-10
-1.821174685740866604e-10
-1.245549584758884107e-10
-9.440396798570357386e-11
-6.681217419429699806e-11
-4.810351766277992799e-11
-3.509655320983731749e-11
-2.590073481366469413e-11
-1.943230209914764077e-11
-1.483040305657190194e-11
-1.150839799332278501e-11
-9.029591204955558255e-12
-7.116738230985176405e-12
-5.595898548990814194e-12
-4.359077969722612010e-12
-3.343763338266245300e-12
-2.512975133322798170e-12
-1.843095805140305598e-12
-1.316199597370942291e-12
