# bin_8_7
-1.682187856155612176e-10
-1.823166311092319114e-10
-1.924466605861292762e-10
-1.964898610944592458e-10
-1.926578973390878331e-10
-1.787044385420153990e-10
-1.567336859486429468e-10
-1.303305419627368512e-10
-1.066647606911527556e-10
-9.042037032063045976e-11
-7.778473350878691740e-11
-5.994790840716500439e-11
-4.181526019362923728e-11
-3.362992875382708394e-11
-2.368950546203365704e-11
-1.765570728173509331e-11
-1.233022415516159684e-11
-8.955204253844119625e-12
-6.488187958391160121e-12
-4.743865820785751537e-12
-3.523301302823626747e-12
-2.660907873414515903e-12
-2.045910088411589147e-12
-1.594722592898197413e-12
-1.252523803347634241e-12
-9.847221751616858520e-13
-7.694332779129017408e-13
-5.936847575036420691e-13
-4.498693558694883481e-13
-3.333239649168971000e-13
-2.407371738643790922e-13
