# bin_2_4
-2.930515140939155098e-13
-3.010040712426615764e-13
-2.976896524492936751e-13
-2.792963189376367402e-13
-2.476994432561711313e-13
-2.079625169685213948e-13
-1.701120058771322245e-13
-1.426744989908952486e-13
-1.230586617026734112e-13
-9.812115534087616528e-14
-6.900466815046754515e-14
-5.383776156081258976e-14
-4.015594129914640008e-14
-2.898915919960871674e-14
-2.103133791070690483e-14
-1.555686370032437827e-14
-1.146097438168736454e-14
-8.573279534074493037e-15
-6.537957145149344744e-15
-5.076205561851815195e-15
-4.001128383758599462e-15
-3.183625265522726539e-15
-2.538401388271872920e-15
-2.013486628798651736e-15
-1.577988659681188446e-15
-1.214373543850428701e-15
-9.130935833943700243e-16
-6.685419927397898018e-16
-4.758912319237093044e-16
-3.296540451832332127e-16
-2.227545812169383308e-16
