# bin_8_19
-1.560492730875309334e-37
-1.753556080500121447e-37
-1.935500283973904387e-37
-2.089167457870638407e-37
-2.192585705636011382e-37
-2.222856749966689434e-37
-2.155911480115672213e-37
-1.973809914507465690e-37
-1.708885814418930794e-37
-1.409005014734556589e-37
-1.157569871717898784e-37
-9.929105030979816476e-38
-8.449844234477381919e-38
-6.244543838186043050e-38
-4.408287279593162640e-38
-3.589265360011490745e-38
-2.380578180838896978e-38
-1.809972400366575334e-38
-1.243098848398129862e-38
-8.611809209246756017e-39
-6.048876588168663223e-39
-4.250535839719000014e-39
-3.012216498481580113e-39
-2.163024771062203842e-39
-1.584515765861313666e-39
-1.183136596152379800e-39
-8.987165336985036946e-40
-6.916307787682156906e-40
-5.356121476121048998e-40
-4.143574009797638094e-40
-3.179560678026467591e-40
