# bin_18_11
-3.820802141993115156e-10
-4.245637587319705117e-10
-4.622307493336218473e-10
-4.904967112198119587e-10
-5.038040386466288752e-10
-4.979139504337237871e-10
-4.661619644933919279e-10
-4.124266986154993920e-10
-3.452004039090722825e-10
-2.822658979038616526e-10
-2.377223989252519043e-10
-2.055873664285409262e-10
-1.621797497012494532e-10
-1.123890916579106608e-10
-8.890478574346263293e-11
-6.427417775481431818e-11
-4.641714045927383378e-11
-3.218217505231456048e-11
-2.323680689790507831e-11
-1.643319859879643918e-11
-1.166741446398765850e-11
-8.397527810625958116e-12
-6.132566057257197748e-12
-4.563172211590461903e-12
-3.458259703463896845e-12
-2.659471183182820039e-12
-2.065139877098344918e-12
-1.608075531570000349e-12
-1.246673679697397018e-12
-9.559207163886277962e-13
-7.210899994455825075e-13
