# bin_8_12
-1.684364013805893790e-16
-1.863573318991485579e-16
-2.018148366872293729e-16
-2.127413172763196156e-16
-2.167950954843874547e-16
-2.119503520355453066e-16
-1.958319422079754660e-16
-1.711053547048128166e-16
-1.418269818615398934e-16
-1.161387930472963579e-16
-9.886955031843406995e-17
-8.495237208005235904e-17
-6.456879046953874048e-17
-4.494958791906847913e-17
-3.652190978216814151e-17
-2.500824503323858368e-17
-1.888592799477517776e-17
-1.296870263382009341e-17
-9.234892660053914864e-18
-6.603520075864589755e-18
-4.747931640652048978e-18
-3.451475998069671477e-18
-2.547436658710332254e-18
-1.917305612743740390e-18
-1.467534709827305851e-18
-1.137135988673277674e-18
-8.869009971697559753e-19
-6.912182293193341900e-19
-5.346030122622505569e-19
-4.078076637637085184e-19
-3.053489941197575151e-19
