# bin_12_2
-2.539708327864098390e-09
-2.548745862414917068e-09
-2.441367967770164747e-09
-2.211444834413608869e-09
-1.896167181054547674e-09
-1.561316311761301868e-09
-1.291314902103309647e-09
-1.105988781747902290e-09
-9.197485372211897814e-10
-6.759655528618739221e-10
-4.967380784171936316e-10
-3.905147190376132669e-10
-2.758245642875809286e-10
-2.067415542871011109e-10
-1.503470932671979997e-10
-1.111042361306852040e-10
-8.332830974129672209e-11
-6.357763442697842428e-11
-4.940738200588685196e-11
-3.899044563621130272e-11
-3.109828902011222672e-11
-2.488328717355951734e-11
-1.982653406770741200e-11
-1.562150512623912843e-11
-1.209471472533840792e-11
-9.154293321984580592e-12
-6.749106913457834296e-12
-4.838843947738083770e-12
-3.375469248539731703e-12
-2.296040899665133310e-12
-1.527773502414068924e-12
