# bin_15_7
-7.821350205496436236e-10
-8.493477121059946042e-10
-8.987397028039641721e-10
-9.203172703975853134e-10
-9.059823147177412443e-10
-8.444790625196878029e-10
-7.441069412652943884e-10
-6.210326241415169956e-10
-5.080315004557984530e-10
-4.289757718673269670e-10
-3.698630771289185690e-10
-2.888926133823421108e-10
-2.013112297453867246e-10
-1.602670462629727564e-10
-1.150117948858409404e-10
-8.440928927412530828e-11
-5.925649313149731132e-11
-4.313441677863355729e-11
-3.113781731506777861e-11
-2.267912348078725767e-11
-1.678691680809216727e-11
-1.263628634849707057e-11
-9.684715238352016259e-12
-7.530524581182437080e-12
-5.905660388769025036e-12
-4.640755821927244271e-12
-3.628213508674273465e-12
-2.803642865135250810e-12
-2.129348533632279528e-12
-1.582394787106887485e-12
-1.146807970405748688e-12
