# bin_17_12
-2.620386909755821011e-10
-2.922687739803036849e-10
-3.196661469119445802e-10
-3.411641763172971979e-10
-3.529352925375768941e-10
-3.519563347490759013e-10
-3.333713666729232495e-10
-2.981709707445612900e-10
-2.520796545177155344e-10
-2.062601495382732781e-10
-1.720871413322321763e-10
-1.490141704762653945e-10
-1.211408325498086745e-10
-8.477892836768565179e-11
-6.473608300832427542e-11
-4.915549229728324192e-11
-3.399787030318377353e-11
-2.436202035190060117e-11
-1.749259166647102799e-11
-1.225847881944320079e-11
-8.629067062337180347e-12
-6.150800299612000771e-12
-4.448947006270976005e-12
-3.274716228934588230e-12
-2.457502962771773334e-12
-1.874823391709673012e-12
-1.448138684422124329e-12
-1.125333356865844580e-12
-8.734036307776650980e-13
-6.723416877329088023e-13
-5.103147663907227672e-13
