# bin_5_14
-1.988292892063330925e-34
-2.200634979344545263e-34
-2.384226945525185184e-34
-2.514703708379212941e-34
-2.564225234180493608e-34
-2.509222330885739205e-34
-2.320818303764943081e-34
-2.029845166949763951e-34
-1.683558128117200419e-34
-1.378238922055601951e-34
-1.172382757294226520e-34
-1.008329213645915623e-34
-7.685838635487465634e-35
-5.342686492379403557e-35
-4.337978789238086612e-35
-2.979142621533776620e-35
-2.245825863844184063e-35
-1.540084073544539116e-35
-1.098013683268346617e-35
-7.847143756225571551e-36
-5.638723318372420920e-36
-4.096030590270453420e-36
-3.020578236863861839e-36
-2.271475961515038720e-36
-1.737381430453437321e-36
-1.345537646138865537e-36
-1.049174154628267594e-36
-8.176992264058443801e-37
-6.325878733758192448e-37
-4.827735691730896505e-37
-3.617051782706978528e-37
