# bin_6_10
-5.004592506961158356e-17
-5.475510446976148014e-17
-5.848158169872088510e-17
-6.057598960823182717e-17
-6.051292912697181337e-17
-5.746671795675536923e-17
-5.152822596177750997e-17
-4.367413136739196122e-17
-3.574292316045572315e-17
-2.973793867871547663e-17
-2.573101197562990800e-17
-2.107336192827807686e-17
-1.484596515449320630e-17
-1.123475064111898376e-17
-8.667488414912558092e-18
-5.978647225447983483e-18
-4.373194373016453372e-18
-3.163834194733910582e-18
-2.252739148297921310e-18
-1.620328714728452153e-18
-1.183285694402407590e-18
-8.794052028013689507e-19
-6.653613998006966112e-19
-5.120971711563431538e-19
-3.988829200663528190e-19
-3.125649934129841610e-19
-2.446943369939761364e-19
-1.900331904079469380e-19
-1.455197268329953949e-19
-1.093239319856516553e-19
-8.025879380506513542e-20
