# bin_8_8
-4.936633446439311904e-11
-5.382918544660350247e-11
-5.725105208873213205e-11
-5.898782359282275277e-11
-5.854503622256805078e-11
-5.512334206377072314e-11
-4.903272664021703154e-11
-4.124326777474582426e-11
-3.372283476397031548e-11
-2.824701929151723145e-11
-2.443936636671123851e-11
-1.960404911355348050e-11
-1.367494183148123488e-11
-1.063312009094606986e-11
-7.932449486955769580e-12
-5.632671609309183696e-12
-4.015818119980502320e-12
-2.930161484857612890e-12
-2.099320717914410050e-12
-1.517149970046237090e-12
-1.115135621662585258e-12
-8.337859072626970534e-13
-6.347762407765189481e-13
-4.910254985856867565e-13
-3.838021754837594801e-13
-3.012422060031398491e-13
-2.357538289113905904e-13
-1.827091984606796139e-13
-1.394059121742932888e-13
-1.042195385955549621e-13
-7.606073532554448671e-14
