# bin_11_13
-5.565601964161384339e-13
-6.204068947234074072e-13
-6.780785093605481918e-13
-7.230311164658514460e-13
-7.471045797101785878e-13
-7.440225972835307710e-13
-7.033795535539888937e-13
-6.279593644369714573e-13
-5.298740697120801885e-13
-4.333785805835839449e-13
-3.621165225524351606e-13
-3.136917512039225062e-13
-2.539143217069198645e-13
-1.770037260373356140e-13
-1.361175807593350266e-13
-1.025800582443862612e-13
-7.137390398671893392e-14
-5.075937264422441544e-14
-3.660150860037380931e-14
-2.568365200370482803e-14
-1.808570210283103486e-14
-1.291341597260642231e-14
-9.356588244124006619e-15
-6.900497762249462530e-15
-5.187923209719355941e-15
-3.964002943960698619e-15
-3.065317602537544571e-15
-2.383399000786608134e-15
-1.849847206997763405e-15
-1.423280000189207821e-15
-1.079276324712166476e-15
