# bin_2_19
-1.812295017008780833e-83
-2.028178053781130763e-83
-2.227451688964273840e-83
-2.389461796678768191e-83
-2.488166501753452916e-83
-2.500336183139559520e-83
-2.393521698615440106e-83
-2.162260453241801227e-83
-1.846557371371810761e-83
-1.514098707156027101e-83
-1.253309139267297643e-83
-1.083199467431857300e-83
-9.013363415413572389e-84
-6.427442574355960218e-84
-4.734907532018806154e-84
-3.739694728568758921e-84
-2.507126507929089179e-84
-1.862780652474647226e-84
-1.312989473117467619e-84
-9.137225345550344460e-85
-6.414865154984375075e-85
-4.533201632520666760e-85
-3.249242402359619452e-85
-2.366827775007748439e-85
-1.758746333804061595e-85
-1.330456216550333128e-85
-1.021343266465094810e-85
-7.912238117890812197e-86
-6.141187194572941857e-86
-4.741306988155004877e-86
-3.617675768551460591e-86
