# bin_2_8
-3.119080448499972062e-22
-3.329777252990076756e-22
-3.448339412342863750e-22
-3.444519872053804756e-22
-3.272530592624237908e-22
-2.936320653901876093e-22
-2.491228012645805049e-22
-2.039812806175471134e-22
-1.695672689851584606e-22
-1.464826663377120351e-22
-1.201407336361066955e-22
-8.521201419054194123e-23
-6.428146484482306243e-23
-4.985053428658042054e-23
-3.461203293587708736e-23
-2.558715167144926004e-23
-1.861611233099843356e-23
-1.344651892374847459e-23
-9.853226346521792341e-24
-7.340817529778587714e-24
-5.570681869843976277e-24
-4.300576193556274286e-24
-3.367741863425740912e-24
-2.657946288481367865e-24
-2.099776842510362015e-24
-1.648839853343681704e-24
-1.278351421457493168e-24
-9.730739269691561621e-25
-7.238982673154548052e-25
-5.245668854232713268e-25
-3.698210901307390782e-25
