# bin_13_18
-8.128384993466379701e-16
-9.161350835077595815e-16
-1.014812729418176545e-15
-1.100219574684318214e-15
-1.161066768059952740e-15
-1.184435210707814370e-15
-1.159418338585464636e-15
-1.072580993214036448e-15
-9.382299973338748305e-16
-7.782523400476581908e-16
-6.373282974802843497e-16
-5.424987479394588978e-16
-4.666898155485454057e-16
-3.551814069429062098e-16
-2.464487948250544267e-16
-1.999725798766572363e-16
-1.361678144809179142e-16
-1.021669027383985305e-16
-6.907724023801751271e-17
-4.837459979264804807e-17
-3.383987396386278892e-17
-2.366709680812763551e-17
-1.663613203184246615e-17
-1.182039036966668300e-17
-8.558716062056914502e-18
-6.319328205202949258e-18
-4.753232924883515531e-18
-3.632096878215338404e-18
-2.802387492453896546e-18
-2.167703781024061804e-18
-1.668594834937888943e-18
