# bin_9_2
-2.220217503356400355e-09
-2.225813655962760102e-09
-2.129596095017945108e-09
-1.927384534536683375e-09
-1.651738650613571052e-09
-1.360844383221540196e-09
-1.126674031958595112e-09
-9.639701550959032162e-10
-7.991505547002192689e-10
-5.883042850879244252e-10
-4.334931467008539649e-10
-3.389270912310448774e-10
-2.407405682639309532e-10
-1.797600029210731562e-10
-1.309070087212398903e-10
-9.682185191190012498e-11
-7.263123710696512466e-11
-5.543217352510528103e-11
-4.308773554833207732e-11
-3.400828464271918616e-11
-2.712352988572208834e-11
-2.169893482655091344e-11
-1.728388882728333747e-11
-1.361242355782675256e-11
-1.053418956381858983e-11
-7.969310702093289287e-12
-5.873007061064639037e-12
-4.209414098159424059e-12
-2.935814765052474303e-12
-1.996772641563199310e-12
-1.328577772006290896e-12
