# bin_12_15
-1.550892950809145414e-13
-1.737531936601076137e-13
-1.910800197854772675e-13
-2.053182994999579154e-13
-2.142520486755003115e-13
-2.158178556006419971e-13
-2.073277648059623088e-13
-1.879615801809713631e-13
-1.611095962790706692e-13
-1.322807040572868187e-13
-1.092562410456413412e-13
-9.425494491895048867e-14
-7.894099059485352901e-14
-5.681876938303732454e-14
-4.134491609210125451e-14
-3.298863198675319545e-14
-2.199671093892443220e-14
-1.648337456132067408e-14
-1.153468309553361958e-14
-8.012592612141922059e-15
-5.626028753385922607e-15
-3.967755238720709474e-15
-2.834963629243806967e-15
-2.057102663524957658e-15
-1.522834077351024596e-15
-1.148099975243382979e-15
-8.789978483311390948e-16
-6.798537114241528930e-16
-5.274348655943866601e-16
-4.074700367733033908e-16
-3.113958448891623805e-16
