# bin_5_3
-7.882937528071177801e-10
-8.087946434880864810e-10
-7.984484352934308719e-10
-7.480694779360807077e-10
-6.626843633039435331e-10
-5.565663364580300952e-10
-4.560353946445115519e-10
-3.827992941122908330e-10
-3.288478933395774929e-10
-2.612338464566206515e-10
-1.854921942267861801e-10
-1.438332373868877628e-10
-1.072529832442652727e-10
-7.747974882304537852e-11
-5.657290850592003497e-11
-4.160879723029946688e-11
-3.067552699370507853e-11
-2.297692640102136516e-11
-1.752945855024460866e-11
-1.361273854881209552e-11
-1.072905796413047150e-11
-8.534687396496587962e-12
-6.801953124649796344e-12
-5.392162970895060491e-12
-4.222914457280130440e-12
-3.247441574002845328e-12
-2.440159128779475334e-12
-1.785739115761168769e-12
-1.270866906704841948e-12
-8.803274429370735963e-13
-5.949321409869996555e-13
