# bin_11_7
-5.058960433795197217e-10
-5.489672680041772283e-10
-5.803635291017217228e-10
-5.936880115777757472e-10
-5.835805321067154363e-10
-5.430781438515267814e-10
-4.777871270944618169e-10
-3.983916136993413231e-10
-3.260515379883572491e-10
-2.756377462660127242e-10
-2.372979036810840586e-10
-1.845657608156525556e-10
-1.289149037880790003e-10
-1.027145297511495541e-10
-7.342020736907032138e-11
-5.402783698328884331e-11
-3.798099755877839934e-11
-2.760098339938711343e-11
-1.994119192367725426e-11
-1.453977674382204429e-11
-1.077268068489521359e-11
-8.117391137175323793e-12
-6.227149269663722727e-12
-4.845323988717819562e-12
-3.801258738621645581e-12
-2.987177004456371821e-12
-2.334720524690153684e-12
-1.803066056035903863e-12
-1.368293305153632389e-12
-1.015800216316054670e-12
-7.353610381139124096e-13
