# bin_10_6
-6.192359496437693704e-10
-6.659135084955473226e-10
-6.960645784275071204e-10
-7.027903028135748263e-10
-6.780837386312071778e-10
-6.180544588509386638e-10
-5.328015910480872713e-10
-4.389023216754161764e-10
-3.615097047765832777e-10
-3.100018028886108274e-10
-2.613312973153755168e-10
-1.924664590899439880e-10
-1.386357078317157424e-10
-1.110993667250781346e-10
-7.622706418679770278e-11
-5.755212602033711138e-11
-4.085289077539391130e-11
-2.943569662094462784e-11
-2.148132492055111693e-11
-1.586532032009667192e-11
-1.191554736936762881e-11
-9.103434472087804705e-12
-7.070041799847458143e-12
-5.550043114253680885e-12
-4.375033520782543920e-12
-3.439443599752647745e-12
-2.677887823901889837e-12
-2.052547462990031733e-12
-1.541032942954393444e-12
-1.128949640809669531e-12
-8.052628860960753740e-13
