# bin_8_16
-4.369506611816056595e-23
-4.881283865849493173e-23
-5.349174520483433562e-23
-5.722652654594841560e-23
-5.938260956565618446e-23
-5.943383698469448602e-23
-5.657342113157578219e-23
-5.083313084050115189e-23
-4.317100065575065676e-23
-3.535014343246213124e-23
-2.938090551945663272e-23
-2.543131944625620049e-23
-2.091298100726260498e-23
-1.474374698461130750e-23
-1.107437202927302833e-23
-8.572694065473813884e-24
-5.833757131048653639e-24
-4.252758180833465274e-24
-3.031514293719579666e-24
-2.117175773954919018e-24
-1.487361068463576865e-24
-1.055776391145563285e-24
-7.604888078238177411e-25
-5.571202838740979287e-25
-4.162423967234336439e-25
-3.163674938732199469e-25
-2.437210560794032285e-25
-1.891605171398750463e-25
-1.468408269356825260e-25
-1.132043402364664642e-25
-8.613913764180995671e-26
