# bin_11_15
-8.265865760175939967e-15
-9.249727651721711167e-15
-1.015750324770272906e-14
-1.089492486726003981e-14
-1.134311985463313199e-14
-1.139645047723086072e-14
-1.090709831380291342e-14
-9.851685347014727678e-15
-8.411976439222020367e-15
-6.897933281103180810e-15
-5.711138910228955979e-15
-4.935217547399478415e-15
-4.104065261504425306e-15
-2.927031953657046941e-15
-2.157525946846635535e-15
-1.701982318032063878e-15
-1.142610578744705301e-15
-8.477504584575719605e-16
-5.977440751017263570e-16
-4.160574204671917494e-16
-2.921344007050696013e-16
-2.065099782815338726e-16
-1.480400025142473309e-16
-1.078487045389538591e-16
-8.014841763834173055e-17
-6.063471232861820641e-17
-4.654789899157667336e-17
-3.605879387291189598e-17
-2.798505269217330498e-17
-2.160317317123742506e-17
-1.648106076232688030e-17
