# bin_3_16
-5.115685391773922200e-45
-5.682632066001349555e-45
-6.184278980892762959e-45
-6.559101886457244393e-45
-6.732605925862035622e-45
-6.648480679561480441e-45
-6.217689467081456995e-45
-5.495278886262462031e-45
-4.594822587496045138e-45
-3.756644121544781663e-45
-3.166756617320783794e-45
-2.738788506074299471e-45
-2.153977029750474559e-45
-1.490585102341572886e-45
-1.184000884750843440e-45
-8.514178282924158351e-46
-6.180036600821195455e-46
-4.265331892933455416e-46
-3.082732737669356171e-46
-2.182197286549832439e-46
-1.550837119622495939e-46
-1.117330599173425212e-46
-8.167251845584922412e-47
-6.083625777627904705e-47
-4.614975989224156872e-47
-3.551778964345279255e-47
-2.759492682266196287e-47
-2.149224785475795199e-47
-1.666074013269162986e-47
-1.277064543745601521e-47
-9.627985102216607846e-48
