# bin_7_19
-1.811577159579991130e-34
-2.034076818998821224e-34
-2.242948337729876744e-34
-2.418125924982558760e-34
-2.534006976220163530e-34
-2.564680220843772364e-34
-2.481170527388784705e-34
-2.265633944781570738e-34
-1.956318430421475229e-34
-1.611077252055366128e-34
-1.325320068724148286e-34
-1.138685800469463643e-34
-9.651964785696141380e-35
-7.081601852186949368e-35
-5.037409780342493189e-35
-4.084021206801447310e-35
-2.708807657354387117e-35
-2.054239698607786905e-35
-1.417751242937778731e-35
-9.826233085561093835e-36
-6.901022616318072968e-36
-4.852488164177735640e-36
-3.446142121138405556e-36
-2.481529722694100592e-36
-1.823023930331184370e-36
-1.364845828812218818e-36
-1.039035926875544248e-36
-8.007787724119413900e-37
-6.204976511751946849e-37
-4.798862276025634203e-37
-3.678548969406846034e-37
