# bin_17_19
-1.553198651352123761e-12
-1.758513820754604894e-12
-1.958592687431200196e-12
-2.137721821276305660e-12
-2.274863041124842364e-12
-2.344014607050297100e-12
-2.325835262723689958e-12
-2.187724874989482002e-12
-1.943836428066668200e-12
-1.632705132124515936e-12
-1.335084624609654808e-12
-1.120999707294788690e-12
-9.712381945786198753e-13
-7.748528924651708382e-13
-5.359968220771038124e-13
-4.193409519487033300e-13
-3.071804003281156378e-13
-2.169161852962411731e-13
-1.494083576730849305e-13
-1.067772131104110711e-13
-7.364339373887369621e-14
-5.059927353930502781e-14
-3.508658220948040599e-14
-2.453971869228995016e-14
-1.742303333066210794e-14
-1.260972413508767653e-14
-9.307844876724043782e-15
-7.004520695045017479e-15
-5.350870521625391905e-15
-4.123380358200714273e-15
-3.181274040956692427e-15
