# bin_2_7
-2.507391302786211546e-19
-2.655858466617810147e-19
-2.723760158652668625e-19
-2.687685886499236217e-19
-2.513168871128093704e-19
-2.221363978511567351e-19
-1.858783604261517923e-19
-1.519971551765097426e-19
-1.279203550961697845e-19
-1.103876598098254390e-19
-8.711884988022569589e-20
-6.086538202329766275e-20
-4.807943640020473027e-20
-3.516346553326733218e-20
-2.562710954594189309e-20
-1.826167870537965800e-20
-1.343898874432788667e-20
-9.814186400703374679e-21
-7.254621901140973274e-21
-5.461495880823932837e-21
-4.184598862633039813e-21
-3.259625606660476724e-21
-2.568949628650226901e-21
-2.034493296534615883e-21
-1.607776922069351521e-21
-1.259024587047497346e-21
-9.708004075258177215e-22
-7.331888363156304833e-22
-5.401739961040075230e-22
-3.872473148060549600e-22
-2.700724779470606923e-22
