# bin_14_4
-1.590803725409215219e-09
-1.668386370090625521e-09
-1.691565970435814808e-09
-1.642597815558478829e-09
-1.508582819920320716e-09
-1.310544950035241855e-09
-1.084853279594033779e-09
-8.913432881374319547e-10
-7.595141438194729081e-10
-6.449668360860796256e-10
-4.864802484271977869e-10
-3.471010289242219986e-10
-2.771663803271212801e-10
-1.949695596156438636e-10
-1.460185960784189911e-10
-1.043121360149077123e-10
-7.628553285039885657e-11
-5.623199091428872265e-11
-4.202253455566669618e-11
-3.196931548478868124e-11
-2.473753747886287306e-11
-1.942706643957311283e-11
-1.538837307627417152e-11
-1.220785794918400579e-11
-9.631413070489324960e-12
-7.505838330536110719e-12
-5.743999628288757374e-12
-4.296069760865875371e-12
-3.129885057108842767e-12
-2.218179392343387445e-12
-1.530330508927064325e-12
