# bin_3_19
-7.007468773943477949e-56
-7.846542557945474239e-56
-8.623324547182304458e-56
-9.258318801497809845e-56
-9.651116471733292574e-56
-9.710170702056275363e-56
-9.312075492918248843e-56
-8.427644647104935321e-56
-7.210761711357208492e-56
-5.916652298051907999e-56
-4.892083959687091574e-56
-4.224051126755461159e-56
-3.526525405722626306e-56
-2.526956878808487277e-56
-1.849743722205364161e-56
-1.468610870712146432e-56
-9.818626539267230525e-57
-7.327164304615216048e-57
-5.145334337774552501e-57
-3.577341035661737838e-57
-2.511721982620117973e-57
-1.773142381586313549e-57
-1.268867295691927148e-57
-9.224484549358593087e-58
-6.841327154823857267e-58
-5.166389846992776055e-58
-3.960635004120532799e-58
-3.065737786935188083e-58
-2.378948871446889617e-58
-1.837268559958715571e-58
-1.402982372988159776e-58
