# bin_20_9
-6.756144689770789497e-10
-7.434651320612355864e-10
-7.997822522299241417e-10
-8.360523348311094499e-10
-8.439962158163098818e-10
-8.137767151665842527e-10
-7.408676644509874959e-10
-6.378325357269684882e-10
-5.248562803910551749e-10
-4.325049909093380045e-10
-3.716890718884715146e-10
-3.131635867040877846e-10
-2.289241658169548151e-10
-1.648619720720802481e-10
-1.323691360703300457e-10
-8.942350183722059293e-11
-6.751675463710523867e-11
-4.746266130306856055e-11
-3.361853079389011542e-11
-2.412708685617685666e-11
-1.746303074571531124e-11
-1.282871297047872637e-11
-9.584204500810061516e-12
-7.295814817011341825e-12
-5.635637533049383995e-12
-4.393853078315385193e-12
-3.435495772436895687e-12
-2.674348557931134315e-12
-2.059256730873824050e-12
-1.559716794635779482e-12
-1.157002657204806479e-12
