# bin_1_19
-2.651854869047586463e-70
-2.966951347573219945e-70
-3.257395671064685274e-70
-3.492899178773140160e-70
-3.635285451920433537e-70
-3.650880760603605644e-70
-3.492053031071378202e-70
-3.152327435912870327e-70
-2.690036744777680316e-70
-2.205458505504441310e-70
-1.826731732779378555e-70
-1.578922095899370075e-70
-1.311496458335012584e-70
-9.340647494268092931e-71
-6.899228869392639776e-71
-5.432020765451704835e-71
-3.651349194167868469e-71
-2.704362907284944565e-71
-1.909161651385209875e-71
-1.329337452271564824e-71
-9.334110851932524738e-72
-6.601095478146854070e-72
-4.734676714068488100e-72
-3.451477190236041478e-72
-2.566582671858506738e-72
-1.942767925584935931e-72
-1.492055824849943677e-72
-1.156121341904204567e-72
-8.973103311052981595e-73
-6.925959934383729729e-73
-5.282365844495357367e-73
