# bin_14_18
-1.843742092637616269e-14
-2.079931438311727611e-14
-2.306458250614589552e-14
-2.503901370891336847e-14
-2.646761945658692628e-14
-2.705228389329414701e-14
-2.655350911620171403e-14
-2.464448217725692283e-14
-2.162454318611684280e-14
-1.797616437669198339e-14
-1.471185541430861315e-14
-1.249035739331315838e-14
-1.076966071047101053e-14
-8.272333340378494131e-15
-5.723304240912736284e-15
-4.623620116553971534e-15
-3.188133894058229933e-15
-2.370955330721094822e-15
-1.599916381027077999e-15
-1.126806452196592569e-15
-7.862035076665386890e-16
-5.482422925188992256e-16
-3.843999266386792700e-16
-2.722651963874038534e-16
-1.964074865361869820e-16
-1.444850972479327133e-16
-1.083154350103743950e-16
-8.255584967514930994e-17
-6.360124220994872448e-17
-4.917985378380481639e-17
-3.788455868643741928e-17
