# bin_7_10
-6.400325747822486642e-14
-7.018758408689935988e-14
-7.518033479211804671e-14
-7.816094962373552243e-14
-7.841352847130088317e-14
-7.491951243480649677e-14
-6.757363987810908512e-14
-5.762207195024558739e-14
-4.723643144167263245e-14
-3.913299235255855878e-14
-3.379493272776932282e-14
-2.802455690192450518e-14
-2.000130709742659503e-14
-1.482084594925285185e-14
-1.166752868577920202e-14
-7.933481086329902230e-15
-5.907295110090918249e-15
-4.224426218984727126e-15
-2.997223267481302835e-15
-2.153775600026771244e-15
-1.566394048646752760e-15
-1.158795586254672642e-15
-8.725028670914675289e-16
-6.687744987302142810e-16
-5.193501105592322996e-16
-4.062668564384876310e-16
-3.179743438765158107e-16
-2.472222715827206124e-16
-1.897539755950982530e-16
-1.430299239385819748e-16
-1.054419244909977852e-16
