# bin_17_17
-1.987429285201939643e-11
-2.243870391334539306e-11
-2.490712994016385345e-11
-2.707218652922498774e-11
-2.866014326283892692e-11
-2.934592711186636339e-11
-2.887655405675506151e-11
-2.688163163686584385e-11
-2.365478023562820744e-11
-1.970717195405991215e-11
-1.612224513361656707e-11
-1.365350157219335239e-11
-1.179097265319656648e-11
-9.136082956786542821e-12
-6.312096798735770659e-12
-5.069675883176203256e-12
-3.542703934102222440e-12
-2.606663414363252272e-12
-1.761187645246183475e-12
-1.246838485277444557e-12
-8.675410871069913436e-13
-6.028966968771668027e-13
-4.217062694347028357e-13
-2.978297868762484473e-13
-2.140938528246316076e-13
-1.569384662266176972e-13
-1.172653531597540384e-13
-8.914487493016267302e-14
-6.856549155940479727e-14
-5.299023228300371017e-14
-4.084139709809942297e-14
