# bin_10_10
-4.248651773383333140e-11
-4.686045585437498094e-11
-5.055273297211166071e-11
-5.303398157123987470e-11
-5.375319204498868243e-11
-5.213358045781822917e-11
-4.774923450886635256e-11
-4.135939435342012124e-11
-3.412060527976687592e-11
-2.802842798926727946e-11
-2.400645108004064839e-11
-2.041945964330927743e-11
-1.515527275632873855e-11
-1.073193153991640982e-11
-8.706464353582245521e-12
-5.872630379004810691e-12
-4.462453406035334495e-12
-3.104116954596237718e-12
-2.197869434432087964e-12
-1.576127530170901954e-12
-1.137756435863375048e-12
-8.321857427824541258e-13
-6.186362005271567972e-13
-4.688215498221540496e-13
-3.608681417295997872e-13
-2.807169209181960653e-13
-2.193239986044165601e-13
-1.708541722159574306e-13
-1.318225478021465495e-13
-1.001511517484886029e-13
-7.458600371800396183e-14
