# bin_19_6
-1.193732869026336182e-09
-1.284638223915793148e-09
-1.344022490498001405e-09
-1.358423198858303125e-09
-1.312641189234826971e-09
-1.198359818083675028e-09
-1.034721829823361168e-09
-8.530402953332317301e-10
-7.021250251542095241e-10
-6.015049965454198438e-10
-5.081750499398883410e-10
-3.758133972085122076e-10
-2.697368403423156962e-10
-2.164417545524364453e-10
-1.486981443974367636e-10
-1.122513898989002677e-10
-7.953472227074047412e-11
-5.732929681060973383e-11
-4.181298217430044659e-11
-3.085357457140196627e-11
-2.314809959333327692e-11
-1.766612149290479278e-11
-1.370775269403713161e-11
-1.075405001720764947e-11
-8.474768735647606086e-12
-6.662741201105440685e-12
-5.189367963595037048e-12
-3.980102308142649314e-12
-2.990852941609072203e-12
-2.193422456158026404e-12
-1.566367455430120897e-12
