# bin_17_9
-5.646628105799627957e-10
-6.213078309721753950e-10
-6.682876941602384299e-10
-6.984835093547276469e-10
-7.049929942456501235e-10
-6.795709249124024485e-10
-6.185151525375831743e-10
-5.323471355456647704e-10
-4.380007379645799573e-10
-3.609823803652169207e-10
-3.102727810996844932e-10
-2.613074311832980769e-10
-1.908796884451885202e-10
-1.375660517883247577e-10
-1.104077458199002796e-10
-7.458539406862356420e-11
-5.630206319156404774e-11
-3.959712089309447625e-11
-2.804666732738373152e-11
-2.012946186816030485e-11
-1.457160156034191276e-11
-1.070678652820215981e-11
-8.000770241595357260e-12
-6.091720033011179035e-12
-4.706307154956967807e-12
-3.669685423268962678e-12
-2.869385799913929346e-12
-2.233596150117434498e-12
-1.719723030785646128e-12
-1.302368238461425832e-12
-9.659274558060451885e-13
