# bin_16_7
-8.401458375917693360e-10
-9.121347278399168965e-10
-9.649091362582249506e-10
-9.878093013696914718e-10
-9.719835453418184923e-10
-9.056567167536227958e-10
-7.977267490626575340e-10
-6.657983324591163731e-10
-5.448479805589037431e-10
-4.601493824210002168e-10
-3.963634509696567633e-10
-3.093169035616013524e-10
-2.160267856150685765e-10
-1.716737028209241978e-10
-1.232708043678024505e-10
-9.037581703536361060e-11
-6.362789470240168710e-11
-4.625054666161051947e-11
-3.338549498349214817e-11
-2.432063183136335362e-11
-1.800369249175289118e-11
-1.355450664896467830e-11
-1.038954735811318735e-11
-8.078932297939055576e-12
-6.335566544121591561e-12
-4.978075055100581146e-12
-3.891303129490078512e-12
-3.006314882354059664e-12
-2.282730712944794479e-12
-1.695946029971869224e-12
-1.228816771554553404e-12
