# bin_4_3
-4.690219309119430658e-10
-4.800123316827638344e-10
-4.723278496441845358e-10
-4.407002226156899941e-10
-3.888334336303421299e-10
-3.254497210957819170e-10
-2.666296169058209051e-10
-2.244884999946928400e-10
-1.926696394818693842e-10
-1.515613277823870132e-10
-1.073419111914280752e-10
-8.402491242625196275e-11
-6.188984826951858699e-11
-4.511323556533898685e-11
-3.275684091928225914e-11
-2.415230317543577656e-11
-1.784689653783486662e-11
-1.339585229936775959e-11
-1.024440285925625312e-11
-7.972973249764352038e-12
-6.295571693129097523e-12
-5.013547820100705495e-12
-3.997085115757202479e-12
-3.167357664017896023e-12
-2.477763399286724419e-12
-1.902096636886808973e-12
-1.426046650028560806e-12
-1.040925886782707320e-12
-7.388457907159019397e-13
-5.105198308097325466e-13
-3.442567344691670935e-13
