# bin_8_10
-1.271146511993108221e-12
-1.397091308830691838e-12
-1.500632790366837187e-12
-1.565657986973323304e-12
-1.577081773433810852e-12
-1.515606692118939733e-12
-1.374893791903749412e-12
-1.179355029464381100e-12
-9.686846792771226862e-13
-7.995081532399063501e-13
-6.887460049567484349e-13
-5.774574643372802163e-13
-4.177925911482286041e-13
-3.036722664325830386e-13
-2.429854726159165586e-13
-1.636583802978908619e-13
-1.234931444628238866e-13
-8.735694680802334674e-14
-6.181885959336793804e-14
-4.439407363071875416e-14
-3.217990121835711544e-14
-2.370233263134231373e-14
-1.776135899947368121e-14
-1.355803343807828446e-14
-1.049598550958150890e-14
-8.195315278579566088e-15
-6.411602895453110430e-15
-4.989694511426071197e-15
-3.838029679839192900e-15
-2.902036653685196387e-15
-2.147871959401583108e-15
