# bin_6_12
-1.063571938152273466e-19
-1.171847725786157942e-19
-1.262558197995059192e-19
-1.322387272088568824e-19
-1.337878868209250348e-19
-1.294020219032109890e-19
-1.181620293379512667e-19
-1.020386958931274570e-19
-8.404081857082852933e-20
-6.911364589363562592e-20
-5.932312464537572265e-20
-5.027670433093630467e-20
-3.699566080753482671e-20
-2.636698254203876355e-20
-2.137273154293325259e-20
-1.434391531912580970e-20
-1.091963440668395163e-20
-7.632388017750492455e-21
-5.394682529059319168e-21
-3.871889663588439051e-21
-2.798450920193201659e-21
-2.051286283785449716e-21
-1.528742932399292348e-21
-1.161282670620126233e-21
-8.956025337178140425e-22
-6.976066016304115159e-22
-5.453564057944347243e-22
-4.247633529504895073e-22
-3.274525665024306800e-22
-2.484331367073618173e-22
-1.846722845745405861e-22
