# bin_14_1
-3.550118908018064544e-09
-3.422725379297493211e-09
-3.126256012092702561e-09
-2.704722203709479898e-09
-2.242034508657839063e-09
-1.851019100423584102e-09
-1.573104026203907322e-09
-1.316448960928239809e-09
-9.945481594485986287e-10
-7.251773930729482934e-10
-5.652649138205645706e-10
-4.095591879024755111e-10
-3.036328019773862953e-10
-2.225850272415607875e-10
-1.656577725096855384e-10
-1.248386686889054942e-10
-9.579508050458704777e-11
-7.488305479176403086e-11
-5.942897730626729823e-11
-4.762847302994858322e-11
-3.826337083486429888e-11
-3.058203776711732777e-11
-2.414837992392591213e-11
-1.872287273840429797e-11
-1.418326071241513755e-11
-1.046311063029947173e-11
-7.507324398757516639e-12
-5.242421014993655480e-12
-3.570981586252096571e-12
-2.380032806357698786e-12
-1.557282985028561552e-12
