# bin_9_4
-1.121897166764609418e-09
-1.175922038271620170e-09
-1.191445070165217970e-09
-1.155841229487781135e-09
-1.060403836830218170e-09
-9.202332927060269823e-10
-7.612872151938736261e-10
-6.257066130541819132e-10
-5.335365530785575179e-10
-4.525638030084119005e-10
-3.404305125096964076e-10
-2.432664193203154667e-10
-1.942969049117269628e-10
-1.364215527916323932e-10
-1.022916800703537696e-10
-7.309558702883325780e-11
-5.344658390157954912e-11
-3.941780061841194978e-11
-2.947593028875169204e-11
-2.243874838669751421e-11
-1.737331975663807513e-11
-1.365033165125344540e-11
-1.081571943738146029e-11
-8.581056321702699034e-12
-6.769269263417872274e-12
-5.273741449835066862e-12
-4.033949389677441731e-12
-3.015270841031413379e-12
-2.195248698479974459e-12
-1.554690224691151682e-12
-1.071866422724337996e-12
