# bin_14_11
-2.048415741189275350e-10
-2.274543073357739480e-10
-2.474159054721111811e-10
-2.622591199748738107e-10
-2.690269329714912791e-10
-2.654136310124130342e-10
-2.479634187392707373e-10
-2.189461314008807020e-10
-1.829800257594457965e-10
-1.496565988960833528e-10
-1.262523041145116163e-10
-1.090707847024592033e-10
-8.554752211078474749e-11
-5.933110952921817860e-11
-4.712322576829090579e-11
-3.379006554686713853e-11
-2.456750596051541911e-11
-1.700869381784867068e-11
-1.225467009070810972e-11
-8.680946848714218704e-12
-6.175471673029049024e-12
-4.451616478697424590e-12
-3.256344778687532161e-12
-2.427389418691588131e-12
-1.842536611910585756e-12
-1.418665481303948159e-12
-1.102400832366031540e-12
-8.585291627107862585e-13
-6.653207942703684890e-13
-5.097234641499851575e-13
-3.840444337366536368e-13
