# bin_2_9
-2.064909277890296437e-25
-2.219634806691813503e-25
-2.318892230841443811e-25
-2.339859807741321542e-25
-2.255206729538489106e-25
-2.052416360901354905e-25
-1.766521462432404872e-25
-1.453083456121205873e-25
-1.196779090911874015e-25
-1.028166010468265922e-25
-8.666273663766673249e-26
-6.342998721536465801e-26
-4.572708545783881200e-26
-3.684198557924673804e-26
-2.502286568664202754e-26
-1.903586564679792442e-26
-1.352691202384765669e-26
-9.718088421492081002e-27
-7.099090815002917111e-27
-5.247491843211170857e-27
-3.945267261411239855e-27
-3.017623998374056615e-27
-2.346163151263194821e-27
-1.843323187347645783e-27
-1.453884021522974198e-27
-1.143246029582160836e-27
-8.900252940092290087e-28
-6.819174415223158421e-28
-5.116270678801643352e-28
-3.744490432887321971e-28
-2.667643679956274012e-28
