# bin_16_15
-5.150370083828518911e-11
-5.790151241039054758e-11
-6.394318777792028705e-11
-6.906533044530654930e-11
-7.254421816052893260e-11
-7.361447888278696815e-11
-7.149894714625517885e-11
-6.556882546123730518e-11
-5.686286971329083137e-11
-4.693345605954915027e-11
-3.854226897660945974e-11
-3.301643348435486635e-11
-2.814009587574099274e-11
-2.090018291068319833e-11
-1.472132679275972890e-11
-1.196468681214674921e-11
-7.982606211679408848e-12
-6.048564267471145318e-12
-4.142606893332126651e-12
-2.876525414002894115e-12
-2.018949333302011152e-12
-1.417877746238234329e-12
-1.003493789235698730e-12
-7.193641177228454765e-13
-5.259725164731115209e-13
-3.920239477069968152e-13
-2.973087390076936819e-13
-2.285339948371400125e-13
-1.768674662982107751e-13
-1.368156800055030300e-13
-1.050304034942492055e-13
