# bin_16_12
-2.233180238778902093e-10
-2.489869936355867647e-10
-2.722015649297526619e-10
-2.903417950681177400e-10
-3.001483789272781257e-10
-2.990500237427313505e-10
-2.829445035613292380e-10
-2.528131444719498982e-10
-2.135440002648266315e-10
-1.747289848682169737e-10
-1.459112610007947794e-10
-1.263181440462088918e-10
-1.023920574806832357e-10
-7.162386274435650462e-11
-5.486047446434828070e-11
-4.146364746389332100e-11
-2.880216322630964418e-11
-2.057723253991534215e-11
-1.477568553515608424e-11
-1.036341984245390612e-11
-7.302295426320039176e-12
-5.209833371236168023e-12
-3.771569861970399809e-12
-2.778845426941338577e-12
-2.087232362056157758e-12
-1.593486628962578209e-12
-1.231395429136351356e-12
-9.570457842242125436e-13
-7.426787676492674853e-13
-5.714756342133379987e-13
-4.334908463658672410e-13
