# bin_17_7
-8.871024047704926683e-10
-9.631537533282506174e-10
-1.018931444275302559e-09
-1.043176842736680834e-09
-1.026547773018441746e-09
-9.565930486552487998e-10
-8.426730204275875027e-10
-7.033646016426505780e-10
-5.755853029383940267e-10
-4.860702452294286895e-10
-4.187095542003976691e-10
-3.268424056733063470e-10
-2.282645907004955967e-10
-1.813613389066781669e-10
-1.302740042095374547e-10
-9.548211521690471126e-11
-6.723086734152512907e-11
-4.887050662687235483e-11
-3.527420038523874176e-11
-2.569468236303671287e-11
-1.901953147239464712e-11
-1.431833236597311671e-11
-1.097429602560093977e-11
-8.533201157136500622e-12
-6.691595125188946848e-12
-5.257763481832438746e-12
-4.109977379664676575e-12
-3.175351557822589176e-12
-2.411194146035989270e-12
-1.791495356971697046e-12
-1.298139218126575534e-12
