# bin_6_5
-2.726372268598929590e-10
-2.890940621819217926e-10
-2.969147877176265015e-10
-2.934842609477150524e-10
-2.751148191548735595e-10
-2.437581542178353268e-10
-2.045067978979457387e-10
-1.673389568794291712e-10
-1.405375509658549941e-10
-1.211755765648855636e-10
-9.624003299079383677e-11
-6.759956374960489174e-11
-5.283206925882262182e-11
-3.909195305703685030e-11
-2.820445761037082034e-11
-2.029880049433453920e-11
-1.487922284081206561e-11
-1.084327664235767782e-11
-8.004351786527479694e-12
-6.014510452742178697e-12
-4.600532413796380808e-12
-3.577814522165585120e-12
-2.816352731416869524e-12
-2.228843450234769443e-12
-1.761016314111519686e-12
-1.379468491823585530e-12
-1.064515456205478250e-12
-8.049571190000467309e-13
-5.940021676077969945e-13
-4.266368522277123859e-13
-2.981319118516348497e-13
