# bin_12_17
-5.317646031318868014e-16
-5.978280612671932703e-16
-6.602195319005526770e-16
-7.131208411471575703e-16
-7.490604978520646745e-16
-7.601275952010987167e-16
-7.383036073007039831e-16
-6.770407854473016948e-16
-5.871263377231670796e-16
-4.845412326613211239e-16
-3.978608205324572682e-16
-3.408621049075410612e-16
-2.906047429625859767e-16
-2.157730121977270676e-16
-1.518681278922434418e-16
-1.236132920857086673e-16
-8.229984419703261456e-17
-6.247059055193088311e-17
-4.278146387409984777e-17
-2.967835571365267178e-17
-2.083727479449654874e-17
-1.463577559385540642e-17
-1.035870451502755866e-17
-7.425989555794128984e-18
-5.430076349023660762e-18
-4.047607096059941012e-18
-3.070025265613835916e-18
-2.360133251118705111e-18
-1.826765965416167869e-18
-1.413231235150922854e-18
-1.084984428547450811e-18
