# bin_17_3
-2.241047329650727667e-09
-2.306275357893895209e-09
-2.285567684416024057e-09
-2.151985010549841461e-09
-1.915599444418162596e-09
-1.615688381474530766e-09
-1.324428433129909144e-09
-1.107845363740360250e-09
-9.522679002532543863e-10
-7.649859491406139514e-10
-5.455978198638534804e-10
-4.181529128659788205e-10
-3.161335612963001848e-10
-2.262350741028816989e-10
-1.662420091780532140e-10
-1.218422585868172431e-10
-8.961138852283157901e-11
-6.696202917954199049e-11
-5.094124327155175081e-11
-3.945313557914065442e-11
-3.102464915853099497e-11
-2.464407225407149456e-11
-1.963075437176813531e-11
-1.556831248732695906e-11
-1.220796878758552256e-11
-9.407071339695690540e-12
-7.087335616350795819e-12
-5.202465325883518026e-12
-3.714253617664763391e-12
-2.580653778595203281e-12
-1.748697116103533134e-12
