# bin_20_13
6.879628648744552295e-19
7.778508933030310478e-19
8.649159219709354046e-19
9.420974128614603327e-19
9.999904712209155950e-19
1.027137479655214178e-18
1.015052918203967154e-18
9.498684212305750113e-19
8.399157133632637286e-19
7.024363696370037405e-19
5.743228962854111619e-19
4.842848584293766275e-19
4.192271727551132970e-19
3.296790229471721877e-19
2.273717431279054499e-19
1.806903901570132524e-19
1.292104536847017038e-19
9.328820675711214596e-20
6.327738750670977717e-20
4.518042540510821468e-20
3.129392644226464431e-20
2.162151828880041539e-20
1.506607206600059976e-20
1.059232065590802531e-20
7.571096121498335189e-21
5.517907486840179610e-21
4.100734414985936605e-21
3.103846463559639852e-21
2.380744668588251273e-21
1.838238875858964382e-21
1.418017711196019943e-21
