# bin_15_14
6.765687263370316362e-11
7.607926488177053822e-11
8.404209073923074318e-11
9.080658071583447430e-11
9.542314968388915589e-11
9.687762872624081568e-11
9.416202834552624924e-11
8.640931796428709346e-11
7.498708633432137070e-11
6.190273067476254212e-11
5.080881093142840303e-11
4.351148482932047446e-11
3.713915585340010922e-11
2.762724837268602495e-11
1.940080719530270586e-11
1.581596766770408563e-11
1.052389929452729069e-11
7.998406433511271682e-12
5.470485113381876369e-12
3.793564261505809158e-12
2.664469532605403073e-12
1.871850847584075266e-12
1.324437030027741349e-12
9.490376113675737857e-13
6.936506579774694237e-13
5.168384000091402168e-13
3.918797920460595606e-13
3.012043729285324665e-13
2.331249624847392723e-13
1.803708867083966359e-13
1.385092483104042621e-13
