# bin_17_8
7.413676594715910427e-28
8.301360314102261782e-28
9.123120361470615876e-28
9.794847489468804039e-28
1.021034971587271136e-27
1.027276389987817275e-27
9.851139796564577441e-28
8.914552245329313783e-28
7.626492655980493953e-28
6.256849600271067624e-28
5.173146841550468110e-28
4.467771990916863207e-28
3.730263834866460129e-28
2.671047365931936444e-28
1.955824092345409725e-28
1.553533254369767240e-28
1.037755147414707846e-28
7.750492828118823124e-29
5.443928093873030394e-29
3.785165659812453703e-29
2.657889298133188775e-29
1.876396175037936428e-29
1.343190712683677645e-29
9.768863339068444189e-30
7.248103119436525937e-30
5.475716714566920932e-30
4.199151228889167962e-30
3.251121855149534480e-30
2.523113390400763507e-30
1.948627735408710681e-30
1.487880813998896162e-30
