# bin_13_5
6.923250961831216508e-28
7.641369773273156446e-28
8.250593946379710747e-28
8.664965405831847254e-28
8.792971065759884481e-28
8.543141600755137751e-28
7.838133230280700736e-28
6.801111199192582829e-28
5.614066279894272729e-28
4.606765502863829619e-28
3.942247737804686796e-28
3.363699827158258939e-28
2.506869651984332176e-28
1.764686703453533912e-28
1.438542832197320991e-28
9.674362933368180002e-29
7.382421251411107955e-29
5.117711229035040114e-29
3.619024123159470039e-29
2.596738298605288857e-29
1.874354849503079998e-29
1.369618331261058509e-29
1.016955100397230068e-29
7.699039231218144566e-30
5.921668475144406559e-30
4.604320232019023392e-30
3.597054801764728039e-30
2.802879414884122007e-30
2.163810284946585325e-30
1.645282144112126414e-30
1.226539529857082648e-30
