# bin_10_10
1.513524899335685327e-10
1.674994448457045005e-10
1.814509400442208985e-10
1.913513589301113611e-10
1.950866588209721486e-10
1.908535120622372020e-10
1.764749376711226882e-10
1.543072982783364912e-10
1.279646689544265008e-10
1.047677607443753644e-10
8.913583459369367325e-11
7.663777927515734991e-11
5.837476543768657392e-11
4.060098164202775309e-11
3.296433269099888422e-11
2.263008608330405558e-11
1.706268928656093419e-11
1.170884369362526045e-11
8.347767437203730216e-12
5.967280624738593510e-12
4.289148360531358225e-12
3.117112324498075006e-12
2.299887889008991301e-12
1.730386651306873217e-12
1.324086645956668616e-12
1.025779645760540122e-12
7.999816304193610442e-13
6.234994924091919556e-13
4.822979216990151908e-13
3.679946336011882683e-13
2.756233268919299727e-13
