# bin_6_5
1.262664613591726138e-10
1.352906138212928093e-10
1.407618836905652415e-10
1.413743646538392389e-10
1.353357042448929431e-10
1.223164405852302937e-10
1.045348353201558157e-10
8.574847233482656699e-11
7.090313269945010358e-11
6.113270486706062819e-11
5.092844940121795439e-11
3.663530800538003580e-11
2.696751482462651909e-11
2.142282380602758471e-11
1.462000114907764451e-11
1.101805469523219979e-11
7.924527995938192627e-12
5.701203321249216036e-12
4.170131404304014723e-12
3.093370130716875684e-12
2.336796837268592680e-12
1.796033305196449035e-12
1.401793612782678971e-12
1.104153642933393990e-12
8.718089924373589027e-13
6.852193351421298465e-13
5.324464421336314117e-13
4.066751533206094528e-13
3.038487242903238507e-13
2.212746602059412339e-13
1.567998548675871656e-13
