# bin_20_12
1.149602931366506211e-21
1.298681730304131607e-21
1.442529443047902210e-21
1.569231468483360383e-21
1.662995448381645751e-21
1.704830149251232672e-21
1.680396006539190819e-21
1.567435687115302104e-21
1.381867966412486030e-21
1.152794089211121468e-21
9.427445072013613603e-22
7.970910513562002444e-22
6.892529941829949266e-22
5.370357114397402688e-22
3.704376432746239398e-22
2.966925919562094388e-22
2.089923924044533394e-22
1.528996148905396044e-22
1.031912514369562819e-22
7.336018824066375794e-23
5.096143520436748158e-23
3.535091594802458199e-23
2.469692689061608646e-23
1.741526234716584771e-23
1.249529582918613232e-23
9.142188546926319205e-24
6.819221887050830231e-24
5.177031700260309348e-24
3.978818166978653578e-24
3.074554703498163906e-24
2.370741044914369761e-24
