# bin_11_1
1.143647610629736973e-45
1.241401579531433891e-45
1.312881963405700126e-45
1.343361357059605449e-45
1.321281674345792261e-45
1.229910306265862600e-45
1.082338265765929034e-45
9.018999010434478805e-46
7.374522119588017535e-46
6.235009571186208348e-46
5.380133363649743193e-46
4.185303015332906151e-46
2.906039306658949092e-46
2.331365164052710808e-46
1.658183754568519107e-46
1.228093976450789686e-46
8.549940797013706329e-47
6.235253326283598592e-47
4.510094079678384829e-47
3.291223422734320845e-47
2.440124350557312808e-47
1.839378091161888070e-47
1.411815376084146554e-47
1.099108576372664573e-47
8.627023083134186702e-48
6.782488418488423389e-48
5.302978963623141832e-48
4.096486070670923655e-48
3.109176859348039233e-48
2.308271923565946473e-48
1.670743510365553542e-48
