# bin_20_18
2.122200481772688381e-11
2.409290365647957892e-11
2.692576570171643150e-11
2.951131006934355584e-11
3.156851330422452633e-11
3.274418203393313812e-11
3.275160297105565590e-11
3.113689893191761546e-11
2.794170304703243313e-11
2.369499618230447386e-11
1.939752501846619485e-11
1.614698104518817499e-11
1.399102094415591206e-11
1.146480192469571596e-11
8.038012858125951350e-12
6.068505015233335845e-12
4.653246934301903705e-12
3.158010253520025428e-12
2.264971062203855203e-12
1.599827870516032669e-12
1.095493096974162800e-12
7.484109286303419930e-13
5.139615195612155132e-13
3.559350191906350816e-13
2.494863503045106527e-13
1.780959977478989566e-13
1.296529814656874581e-13
9.636452233821559248e-14
7.292916983944982570e-14
5.590246432474306566e-14
4.309038051157894474e-14
