# bin_17_4
3.939418961809435346e-52
4.393180256018570715e-52
4.804029836095044154e-52
5.125786706516083500e-52
5.300718020300235074e-52
5.284070477934331913e-52
5.001861192933201163e-52
4.470878698125131115e-52
3.776776414182144093e-52
3.089312278539698739e-52
2.578631732811102057e-52
2.233933740763428294e-52
1.814153102252802255e-52
1.266356048815756783e-52
9.698054704525956733e-53
7.348412817602707263e-53
5.088350365895880240e-53
3.634883584531648487e-53
2.618527400799877594e-53
1.836052786222744204e-53
1.292083016257117421e-53
9.218285753921500769e-54
6.674553440719378729e-54
4.918386089351133923e-54
3.694956275363725947e-54
2.821540760338083866e-54
2.181007134552122635e-54
1.695608238251462904e-54
1.316210407519783068e-54
1.013075077291845974e-54
7.686430249662082639e-55
