# bin_7_2
1.146626657384327492e-19
1.215927620104774028e-19
1.248680436718872104e-19
1.234447646171020562e-19
1.156791129133139963e-19
1.024528168136917203e-19
8.585062345174464592e-20
7.017411327470956600e-20
5.895753589700079575e-20
5.094686358041105063e-20
4.043860176954308248e-20
2.820368412571296819e-20
2.221198781839246336e-20
1.636406037803274920e-20
1.185834346888693387e-20
8.452213645549991105e-21
6.235489833329108491e-21
4.547858638821290073e-21
3.356898378844243104e-21
2.524854492044065873e-21
1.932935861742048971e-21
1.504589037834114705e-21
1.185273827227443972e-21
9.385764834008411930e-22
7.418713333898370571e-22
5.812440288905656931e-22
4.485234468527646773e-22
3.390698288627408004e-22
2.500809859044286094e-22
1.794778199927954781e-22
1.252977524586122349e-22
