# bin_13_12
7.384754260813788574e-11
8.254665953243368971e-11
9.052582460925127512e-11
9.693522231898052665e-11
1.007059502799174882e-10
1.009309240727571113e-10
9.625479883038005127e-11
8.663984542268796679e-11
7.371137435005762805e-11
6.037777213546081192e-11
5.010997402621934408e-11
4.336230261137396992e-11
3.580762900702241281e-11
2.532552712263389528e-11
1.890215090843547955e-11
1.473696522495816683e-11
9.971287933232762260e-12
7.319287537707806307e-12
5.200026201452653793e-12
3.627639835644526032e-12
2.547765659452499489e-12
1.805991117230539797e-12
1.299123947339800156e-12
9.502386940670616521e-13
7.089167674964921205e-13
5.381460596966986699e-13
4.142008833847424742e-13
3.213384265574904404e-13
2.494598361848664189e-13
1.924102315351527369e-13
1.465306497450975888e-13
