# bin_15_13
1.787229576504899469e-11
2.007076269828306298e-11
2.213631359566966938e-11
2.387124985036288026e-11
2.502318494127042013e-11
2.533515222718886734e-11
2.452299797070627594e-11
2.240404403174122051e-11
1.935529372776819359e-11
1.594228712071312665e-11
1.311014441975523290e-11
1.126099476304462612e-11
9.554535879314804135e-12
7.019062321623448246e-12
4.983146135216392646e-12
4.047398038287025980e-12
2.681273337024513170e-12
2.036580225707251056e-12
1.404419088778365092e-12
9.730048209284481481e-13
6.835324513400458373e-13
4.806210571492022043e-13
3.412656656307858123e-13
2.456760438013490717e-13
1.804380208800126237e-13
1.350591348123449021e-13
1.028010046158164499e-13
7.922159241768760523e-14
6.138685405266784005e-14
4.748055204172945923e-14
3.640202449719131418e-14
