# bin_14_5
7.899705076052411796e-32
8.746368823896553071e-32
9.480055225758265819e-32
1.000411640738308656e-31
1.020730729822298203e-31
9.997071452508409803e-32
9.255898089877568513e-32
8.103400780768803363e-32
6.725436265015999235e-32
5.504542099480200142e-32
4.678575619847451512e-32
4.027006576423311233e-32
3.078375133096363330e-32
2.137682704727760599e-32
1.733545702377622905e-32
1.194906935177489102e-32
8.985467279392168519e-33
6.157849119821947046e-33
4.397513291671938797e-33
3.141052877394789012e-33
2.255800532464851780e-33
1.637925202055630521e-33
1.207258912730230492e-33
9.073719947530527186e-34
6.937126754366521632e-34
5.370856157275445477e-34
4.187284700968374812e-34
3.263586135726554064e-34
2.525283237164369001e-34
1.927880301896001679e-34
1.445062352384546731e-34
