# bin_17_1
-3.734832035085859365e-09
-3.605838660760281405e-09
-3.295453218108411339e-09
-2.851036469212559524e-09
-2.358814276509584107e-09
-1.943719042080297045e-09
-1.655770071312532211e-09
-1.392855832755330266e-09
-1.047445156049320755e-09
-7.588290362268543259e-10
-5.985246350970253763e-10
-4.286324426360181890e-10
-3.203658995830407288e-10
-2.336865920755733858e-10
-1.739870478893903265e-10
-1.311522284303411540e-10
-1.006413847552879400e-10
-7.869193703162393100e-11
-6.247402712171330373e-11
-5.009629880627160850e-11
-4.026975268372133403e-11
-3.220518198845568183e-11
-2.544469320276019157e-11
-1.973703578614208737e-11
-1.495561474890263772e-11
-1.103291717086397515e-11
-7.914171356820091997e-12
-5.524094319860012577e-12
-3.760875004906927045e-12
-2.505272977772076091e-12
-1.638433791722931190e-12
