# bin_10_15
-1.339438797176194312e-20
-1.497415254912929665e-20
-1.642416399522223498e-20
-1.759044629432643532e-20
-1.827929892965092428e-20
-1.832547298762836948e-20
-1.748312146467381651e-20
-1.574175615660250800e-20
-1.339698675874877165e-20
-1.097356656766111477e-20
-9.104384114441801533e-21
-7.879128399370971008e-21
-6.512453358770373315e-21
-4.607320115985497514e-21
-3.434740093311916728e-21
-2.682032346741124151e-21
-1.811836475012423878e-21
-1.332060352201695042e-21
-9.457105313719416079e-22
-6.594758693850751295e-22
-4.629924896714467301e-22
-3.279963133209146524e-22
-2.358144179690738140e-22
-1.723861005127348429e-22
-1.285372606179500371e-22
-9.752952967987070125e-23
-7.504315771796205754e-23
-5.821079510691585998e-23
-4.519174208579205801e-23
-3.486360807839546509e-23
-2.655901567069430485e-23
