# bin_5_2
-1.412044802152384230e-09
-1.415986576072734691e-09
-1.354587289778819450e-09
-1.225043299285089673e-09
-1.048515032012815810e-09
-8.621842310293142293e-10
-7.133233009822394348e-10
-6.120275658254087030e-10
-5.084213100911735344e-10
-3.713546604503556322e-10
-2.736534011119630045e-10
-2.155194455953422615e-10
-1.514498857758407263e-10
-1.138510891479489185e-10
-8.287052554301759573e-11
-6.119475596185631388e-11
-4.593419900860606194e-11
-3.508283768477780541e-11
-2.729105233848810345e-11
-2.155633724140288070e-11
-1.720485866566939653e-11
-1.377170732513552248e-11
-1.097383201214646617e-11
-8.644384007360625740e-12
-6.689241436484910753e-12
-5.058920967226162029e-12
-3.725931257850607992e-12
-2.668230189835363048e-12
-1.859108065828925604e-12
-1.263201022664409391e-12
-8.397242877027245113e-13
