# bin_2_9
-8.626863068077697235e-39
-9.272728855948295547e-39
-9.686666835279213349e-39
-9.773485034240097170e-39
-9.417737474379753203e-39
-8.566844041043376344e-39
-7.369933414922206409e-39
-6.058616312612255718e-39
-4.988747653052893707e-39
-4.289236382507327235e-39
-3.616948741213440911e-39
-2.641120759925738812e-39
-1.902673410586212729e-39
-1.538821929406519667e-39
-1.039034353379956153e-39
-7.940779558876889099e-40
-5.646260012702336389e-40
-4.049395355704208071e-40
-2.959321376795849250e-40
-2.187521511542426411e-40
-1.645257558140853218e-40
-1.258954125780905429e-40
-9.792473246973489329e-41
-7.696456928648001936e-41
-6.072023486788711561e-41
-4.775412581445063709e-41
-3.717835261045308488e-41
-2.848331576552662543e-41
-2.136662776120333822e-41
-1.563316271807492645e-41
-1.113282496439260893e-41
