# bin_14_1
-3.561833826979513798e-09
-3.438380491925017805e-09
-3.141983293167719087e-09
-2.717907949825493784e-09
-2.248520327895493319e-09
-1.852931981997728717e-09
-1.578540739345854816e-09
-1.327665776170285126e-09
-9.981263538992258241e-10
-7.232467952469944263e-10
-5.704375490093055205e-10
-4.084644066286368199e-10
-3.053177955536801016e-10
-2.227175705768136049e-10
-1.658229187085422785e-10
-1.250063633826087643e-10
-9.593216110483260449e-11
-7.501474119405557456e-11
-5.955781453884665129e-11
-4.775940874440181735e-11
-3.839156508552420171e-11
-3.070266548916903146e-11
-2.425670099226294433e-11
-1.881449657717063128e-11
-1.425558391255160101e-11
-1.051569219157344088e-11
-7.542568654089999656e-12
-5.264336036108083531e-12
-3.583801098046840343e-12
-2.387189921290530764e-12
-1.561140568581158700e-12
