# bin_20_9
-6.744947447259434383e-10
-7.425262926968837676e-10
-7.991593524691883694e-10
-8.359135061152236807e-10
-8.444387738906771320e-10
-8.149481747829798612e-10
-7.424557757803130097e-10
-6.396527824233290391e-10
-5.262951106559756960e-10
-4.333253722615616782e-10
-3.724466169100718149e-10
-3.145321774122822315e-10
-2.300519448910790555e-10
-1.650349301688859441e-10
-1.332647363977491327e-10
-8.946922984111849265e-11
-6.795565356141466308e-11
-4.769309915812247369e-11
-3.371595096694358445e-11
-2.420386722120711512e-11
-1.750997916460383695e-11
-1.285637958199241576e-11
-9.599692962230188423e-12
-7.304810777878125559e-12
-5.641248239823912850e-12
-4.397964630272589192e-12
-3.439165696704396640e-12
-2.677985752307825379e-12
-2.062927465975928575e-12
-1.563303504542280190e-12
-1.160341559317235765e-12
