# bin_4_14
-1.387365149920457733e-54
-1.533156657374207109e-54
-1.657902368827995236e-54
-1.744477378653968770e-54
-1.773989905240685271e-54
-1.729072891329697903e-54
-1.591868345421428000e-54
-1.386035299912209304e-54
-1.146201659127229025e-54
-9.393297733054983961e-55
-8.019207815740395322e-55
-6.870967472303815080e-55
-5.169259522259094425e-55
-3.612722993412758352e-55
-2.947845834116192298e-55
-1.992894609814366132e-55
-1.518242635643180062e-55
-1.046182863718982648e-55
-7.409582102229952260e-56
-5.312153319598698159e-56
-3.829891188654203471e-56
-2.791266871808539512e-56
-2.066184801818280141e-56
-1.559713313809861926e-56
-1.196809483752271754e-56
-9.290493040226800186e-57
-7.252892461162840161e-57
-5.652773190614373361e-57
-4.368441123566047301e-57
-3.327312279704017587e-57
-2.486143540235938512e-57
