# bin_11_3
-1.822695456580229135e-09
-1.876571911551362652e-09
-1.861205495379210321e-09
-1.753149220534763508e-09
-1.560834500005647228e-09
-1.315556007283095256e-09
-1.077031643308066721e-09
-9.006097749837993428e-10
-7.762001658293065479e-10
-6.245365827358516533e-10
-4.423136244906215722e-10
-3.404986336165902445e-10
-2.575158668636644324e-10
-1.839627145866720916e-10
-1.348397878969976641e-10
-9.918512176820925548e-11
-7.289465242564096115e-11
-5.443980443174894163e-11
-4.141364315212071037e-11
-3.208035108364319460e-11
-2.523502691889096987e-11
-2.005257543403975038e-11
-1.597945933342769076e-11
-1.267747370623087914e-11
-9.944608800636828588e-12
-7.665146216848743888e-12
-5.775847379282352372e-12
-4.239693698114891530e-12
-3.026197205483427303e-12
-2.101815035816876464e-12
-1.423598923203284847e-12
