# bin_2_11
-6.849826274958661803e-54
-7.447998107382337347e-54
-7.893533504544268318e-54
-8.096995528428185522e-54
-7.991349235856267831e-54
-7.469642172540595335e-54
-6.598998181349750666e-54
-5.515372978079816822e-54
-4.507552649252662654e-54
-3.798242540838087038e-54
-3.284151618266757533e-54
-2.584094428968692574e-54
-1.791018982831982688e-54
-1.425440636387676113e-54
-1.030570369895240480e-54
-7.528937262291529142e-55
-5.251480891427826516e-55
-3.847319499461341624e-55
-2.772495159523143568e-55
-2.014722164148955180e-55
-1.489146006329493385e-55
-1.119071439330905851e-55
-8.563748060695819855e-56
-6.651596030753227141e-56
-5.213389932140155721e-56
-4.096797814640711189e-56
-3.204746667964782838e-56
-2.478977154517085600e-56
-1.885450337723614885e-56
-1.403576045487840367e-56
-1.019122454134522676e-56
