# bin_8_18
-2.636410186395318300e-44
-2.957079269129824663e-44
-3.256531981304910275e-44
-3.505276246151776801e-44
-3.665872601725216635e-44
-3.701911972630554012e-44
-3.569126372365298595e-44
-3.247241066187366301e-44
-2.793518777898780149e-44
-2.296464113543978629e-44
-1.892426465292444062e-44
-1.629863649480421141e-44
-1.374223587005695320e-44
-9.977305598197597265e-45
-7.171096175097888109e-45
-5.785370067418322577e-45
-3.831777468754458027e-45
-2.898978200060774613e-45
-2.014538909401358048e-45
-1.396540298596145592e-45
-9.807080432626997744e-46
-6.901009365297400933e-46
-4.915537546070607764e-46
-3.553438527760721792e-46
-2.620906800341565083e-46
-1.969473438226850849e-46
-1.503960749562448231e-46
-1.161475121391239400e-46
-9.007694330042167459e-47
-6.964220742614696398e-47
-5.331146102198830714e-47
