# bin_17_11
-3.467999331082358212e-10
-3.854157455631505239e-10
-4.196821622551036247e-10
-4.454398860501995371e-10
-4.576265126901631623e-10
-4.524328087328082751e-10
-4.237327362120453423e-10
-3.750095355249676706e-10
-3.139272463757250234e-10
-2.566529084981290814e-10
-2.160932457570161604e-10
-1.869627874674660073e-10
-1.476351001591048906e-10
-1.022040718511119147e-10
-8.086544285466550427e-11
-5.852530615789737458e-11
-4.223655050898333987e-11
-2.923854581318531839e-11
-2.114665836261768800e-11
-1.495060176648741641e-11
-1.060954289627555841e-11
-7.635030040811486370e-12
-5.574433731185373324e-12
-4.146885669277400783e-12
-3.142158596661966368e-12
-2.416073828548686829e-12
-1.876066670494721011e-12
-1.460925401584055605e-12
-1.132740446724125602e-12
-8.687218629659107148e-13
-6.554633366334619926e-13
