# bin_3_10
-1.155006895548467795e-36
-1.252775504031945720e-36
-1.323647819020451584e-36
-1.352798448984937026e-36
-1.328484887543711555e-36
-1.234186162025148425e-36
-1.084096850037462744e-36
-9.019400306836051742e-37
-7.375434459741279792e-37
-6.246140029837214861e-37
-5.386654053163048991e-37
-4.166696868513721146e-37
-2.892394239047475658e-37
-2.332633796439114717e-37
-1.644049039606674127e-37
-1.227373966451739545e-37
-8.514552375556703261e-38
-6.198654483627641060e-38
-4.490416640554144948e-38
-3.282412011229770242e-38
-2.436029862772920098e-38
-1.837964834212000074e-38
-1.412066304459132794e-38
-1.100083083204332141e-38
-8.638332769185901775e-39
-6.792098029165592215e-39
-5.309306391504895179e-39
-4.099290666108662793e-39
-3.108940674514948937e-39
-2.305849018263895911e-39
-1.667097199018697379e-39
