# bin_6_2
-1.680860812918261576e-09
-1.686346635727221290e-09
-1.614281515787137998e-09
-1.460884780605921812e-09
-1.251195900110592101e-09
-1.029109469879465818e-09
-8.511162953852075590e-10
-7.300523887726606059e-10
-6.071408368107367542e-10
-4.440943072685245400e-10
-3.267336106051777136e-10
-2.575824505332038376e-10
-1.809853891942789354e-10
-1.360949430862528712e-10
-9.899843956363450177e-11
-7.309927993366888701e-11
-5.485453593773778364e-11
-4.188058131406493121e-11
-3.256755083767606566e-11
-2.571639939625554907e-11
-2.052123401785543556e-11
-1.642521357770523168e-11
-1.308896680251133476e-11
-1.031227999582088378e-11
-7.982061954868045887e-12
-6.038779144576493133e-12
-4.449390112302657194e-12
-3.187644792834042548e-12
-2.221885432177077136e-12
-1.510220228243873317e-12
-1.004225268540068940e-12
