# bin_18_10
-4.846393397393352781e-10
-5.362519739751750159e-10
-5.807979514419892909e-10
-6.123309149967799266e-10
-6.241191851706805513e-10
-6.103208025990992618e-10
-5.641115130384939535e-10
-4.930459730656795249e-10
-4.088289369549238512e-10
-3.347987270943833421e-10
-2.849081748268147863e-10
-2.447793611065174366e-10
-1.862724933218595482e-10
-1.297325422984493576e-10
-1.052288528860716630e-10
-7.226905295482664795e-11
-5.442742169071508595e-11
-3.740865364359244555e-11
-2.666840085723976202e-11
-1.905625058743117846e-11
-1.369101800458533155e-11
-9.949634919253024057e-12
-7.341433578307963321e-12
-5.523549961562429756e-12
-4.226503446157825003e-12
-3.274140714742928533e-12
-2.553220182680820717e-12
-1.989751277407406994e-12
-1.538955315260189681e-12
-1.174079957219892246e-12
-8.792589046401848604e-13
