# bin_4_8
-5.438602051679694064e-20
-5.857180078772484163e-20
-6.133726370016221041e-20
-6.205835621797809273e-20
-6.004584305285041238e-20
-5.485531078973919132e-20
-4.739774286530742477e-20
-3.904028032907406851e-20
-3.207788189642987570e-20
-2.750743155111610206e-20
-2.334585085461315393e-20
-1.724214251553609556e-20
-1.227327830603809924e-20
-9.989573391768149813e-21
-6.745563107592203883e-21
-5.172178197643728708e-21
-3.651041246211120293e-21
-2.617934167792548574e-21
-1.912260282859490972e-21
-1.411288257234833100e-21
-1.058529128752921116e-21
-8.076376663967333543e-22
-6.267206791537686814e-22
-4.917905638111142139e-22
-3.877086055271802611e-22
-3.049728606306885568e-22
-2.376773002348759040e-22
-1.824139125326336413e-22
-1.371655469096831776e-22
-1.006502823547429420e-22
-7.190132511971427906e-23
