# bin_15_16
-2.771427736164068517e-12
-3.121763983330304608e-12
-3.455550831461535718e-12
-3.743085388946244643e-12
-3.945774467002697695e-12
-4.020047541521575850e-12
-3.927980044509532158e-12
-3.625843642657507376e-12
-3.165017484247098450e-12
-2.621432085389120362e-12
-2.147611018143404341e-12
-1.831347472421779432e-12
-1.573090035590025563e-12
-1.189634234686414893e-12
-8.269743446297566066e-13
-6.732081254656387118e-13
-4.542141395514738610e-13
-3.430295720890157257e-13
-2.322822496489647551e-13
-1.619419017078583899e-13
-1.135134513100063984e-13
-7.956467743995138825e-14
-5.602477957710058125e-14
-3.989268357134702946e-14
-2.895780072133435071e-14
-2.143427542263520259e-14
-1.615866027803981526e-14
-1.236863064208179985e-14
-9.552882196934602811e-15
-7.391178107624780712e-15
-5.686646487845630393e-15
