# bin_5_8
-2.439595797816536068e-16
-2.638095607866406282e-16
-2.776829551472279391e-16
-2.825718854015298855e-16
-2.757645432415835234e-16
-2.543380552810315617e-16
-2.218542162750218554e-16
-1.837157948988973660e-16
-1.504691640525482832e-16
-1.281514804089192898e-16
-1.099018391959604718e-16
-8.332780969442864184e-17
-5.829274063453632369e-17
-4.739885101868624340e-17
-3.263054138657385620e-17
-2.477495717216973121e-17
-1.726349993158052275e-17
-1.246336741191902606e-17
-9.070806014795223084e-18
-6.664776731631889539e-18
-4.968940053704597638e-18
-3.767017095377870473e-18
-2.906962014668095928e-18
-2.272112561164469042e-18
-1.787516749305559574e-18
-1.405964996958240379e-18
-1.097758641315898034e-18
-8.454947347933440434e-19
-6.389374758453532521e-19
-4.717484087534721069e-19
-3.393243071223222780e-19
