# bin_9_4
-1.121916688360776313e-09
-1.177094346625085789e-09
-1.193893917700719954e-09
-1.159925896090521377e-09
-1.065328050509547683e-09
-9.254934944995533860e-10
-7.653847780233018876e-10
-6.282096053478083991e-10
-5.357688680566466153e-10
-4.561816429668395897e-10
-3.434340497036365107e-10
-2.437884984410758034e-10
-1.963901537038958411e-10
-1.367833222838304933e-10
-1.033841921954267309e-10
-7.347855804029947278e-11
-5.368969739069108774e-11
-3.961515382973851491e-11
-2.961935691791087450e-11
-2.253870237313264162e-11
-1.744320227031644312e-11
-1.370303908116293906e-11
-1.085792813077131556e-11
-8.616668595473877186e-12
-6.800324140834579329e-12
-5.301005526984219779e-12
-4.057564102493654170e-12
-3.035026401698869222e-12
-2.211003396055380145e-12
-1.566575318571461970e-12
-1.080374480809233228e-12
