# bin_19_20
-2.445347870999879625e-12
-2.776496789451063294e-12
-3.103446075908856847e-12
-3.402106317774307778e-12
-3.640133336821533848e-12
-3.776862538402883769e-12
-3.779072887618540093e-12
-3.594529913408587203e-12
-3.227124604887071427e-12
-2.737909451427959790e-12
-2.241504923384742554e-12
-1.865146367420798413e-12
-1.616062033515247076e-12
-1.325765239926461415e-12
-9.302394133259779560e-13
-7.011246820336433884e-13
-5.386590002219590310e-13
-3.649720648328007261e-13
-2.622760536924220832e-13
-1.850718361014548438e-13
-1.266747062281228247e-13
-8.651626242714515593e-14
-5.937328398540203975e-14
-4.108715749454600080e-14
-2.877242813029223506e-14
-2.051815868107245713e-14
-1.492138334782393635e-14
-1.107954677187714160e-14
-8.378632495822713073e-15
-6.419415752731882575e-15
-4.947415047393528173e-15
