# bin_16_19
-9.032273672153607300e-15
-1.022390348276163844e-14
-1.138386005302296424e-14
-1.242058247563706900e-14
-1.321147214127223355e-14
-1.360510175561441597e-14
-1.349019395563590559e-14
-1.267704217288166807e-14
-1.125352551007203610e-14
-9.443678787440240112e-15
-7.721016056746093227e-15
-6.488075011775207240e-15
-5.621764863040340114e-15
-4.473824261569879560e-15
-3.089698413718661104e-15
-2.426423569251021773e-15
-1.769583198222785786e-15
-1.254653930138155249e-15
-8.600087777566484695e-16
-6.157473563288065926e-16
-4.249507565544927606e-16
-2.921175512774820393e-16
-2.027664768551036783e-16
-1.419504884451088395e-16
-1.009080746890322375e-16
-7.312597810044135627e-17
-5.404779462709718015e-17
-4.072023808112268061e-17
-3.113418663041835209e-17
-2.400435311752787012e-17
-1.852217877708939019e-17
