# bin_19_17
-6.640364485346264301e-11
-7.507974721335923533e-11
-8.348352765243837786e-11
-9.093341373118978131e-11
-9.652173008635430535e-11
-9.914327620911196700e-11
-9.797717616918354034e-11
-9.168696805966690593e-11
-8.107561741792889697e-11
-6.780813556684381515e-11
-5.544326420247523638e-11
-4.675080416758798659e-11
-4.046746057117404616e-11
-3.182548793424070639e-11
-2.195488826255504282e-11
-1.744097650536636478e-11
-1.247400769955199442e-11
-9.002873745754775943e-12
-6.110538108612031859e-12
-4.360731842153133677e-12
-3.019982389648524080e-12
-2.086099139777102285e-12
-1.453119568697018562e-12
-1.021245660675255963e-12
-7.296397713349405015e-13
-5.315271142797099933e-13
-3.948392936115957381e-13
-2.987391017812304381e-13
-2.290760507667745276e-13
-1.768459240988069367e-13
-1.364125102758279154e-13
