# bin_17_10
-4.451829583302480557e-10
-4.925807790780795271e-10
-5.334819312566042076e-10
-5.624234888330807419e-10
-5.732245446164051164e-10
-5.605141506234689204e-10
-5.180357826991460916e-10
-4.527408560609707673e-10
-3.753895079338559846e-10
-3.074197412958098512e-10
-2.616249012417731339e-10
-2.247617950460420782e-10
-1.710021885047299972e-10
-1.191073910883683147e-10
-9.661890198804633315e-11
-6.633871977546675822e-11
-4.997029964242298019e-11
-3.434696334774016479e-11
-2.448333725990477192e-11
-1.749579830392658644e-11
-1.257064640739112201e-11
-9.135936684654743506e-12
-6.741461212237004757e-12
-5.072467063047464737e-12
-3.881553987704410178e-12
-3.007037863565423226e-12
-2.344977995306578443e-12
-1.827467107533767178e-12
-1.413413369333899502e-12
-1.078267776928600009e-12
-8.074693848505258985e-13
