# bin_13_3
-1.997280651893494336e-09
-2.056541354487825844e-09
-2.039981741920999708e-09
-1.921889122036333459e-09
-1.711356566498407770e-09
-1.442647460760095059e-09
-1.181099896652033780e-09
-9.875005851350731888e-10
-8.510979000034984985e-10
-6.850823403193999297e-10
-4.852784038625542087e-10
-3.733957318624536316e-10
-2.825575254672655819e-10
-2.017641138512406074e-10
-1.479345729479744204e-10
-1.088026053543694733e-10
-7.995455188676618287e-11
-5.970723637630579979e-11
-4.541602821691160228e-11
-3.517738359058979641e-11
-2.766895906810128213e-11
-2.198553919256237319e-11
-1.751947617282527128e-11
-1.389946089223719343e-11
-1.090366769797700542e-11
-8.404980542483147152e-12
-6.333926053112659233e-12
-4.649849446228129218e-12
-3.319330415481701754e-12
-2.305653242798174447e-12
-1.561808295255997225e-12
