# bin_16_3
-2.190681998381463496e-09
-2.255907235851073835e-09
-2.238025819631462050e-09
-2.108815164218926468e-09
-1.878101315794416116e-09
-1.583436329559778048e-09
-1.296384215001713591e-09
-1.083756147519124458e-09
-9.340678192362755859e-10
-7.521534740232307058e-10
-5.328737500848903383e-10
-4.098383494536648808e-10
-3.102980699930980449e-10
-2.214840767405550741e-10
-1.624406600563586616e-10
-1.194566222348936210e-10
-8.777533888339441428e-11
-6.554237108615709627e-11
-4.984977449850325881e-11
-3.860820210669388380e-11
-3.036521094436054488e-11
-2.412683029207649575e-11
-1.922547006782054496e-11
-1.525314912221708027e-11
-1.196609023141590130e-11
-9.224551313568269691e-12
-6.952152241162620545e-12
-5.104210144052631378e-12
-3.644056341132973242e-12
-2.531460302161673731e-12
-1.714913306304865440e-12
