# bin_8_12
-2.165335300290095019e-18
-2.396101471340481036e-18
-2.595353874942796470e-18
-2.736532427316346798e-18
-2.789367095761782696e-18
-2.728116182159771284e-18
-2.521609560626304533e-18
-2.204098315647585288e-18
-1.827134542263851811e-18
-1.495865556741944428e-18
-1.273194162309306389e-18
-1.094756537251730640e-18
-8.327948612592662935e-19
-5.790040452926867572e-19
-4.708650377297148499e-19
-3.222448826112599808e-19
-2.436348929818261805e-19
-1.670279592539466727e-19
-1.189083453300285150e-19
-8.504974938843668705e-20
-6.116990736315775592e-20
-4.445648270062298912e-20
-3.280139144360464301e-20
-2.468097058163679319e-20
-1.888718200351228312e-20
-1.463302549729388901e-20
-1.141256642951886178e-20
-8.895109297819532849e-21
-6.880667453597999867e-21
-5.249821243276731451e-21
-3.931853366415577098e-21
