# bin_11_14
-2.494910100660415150e-15
-2.787731225712134535e-15
-3.055754314939872644e-15
-3.270177991229419395e-15
-3.394799154813853692e-15
-3.399419377939980898e-15
-3.237877608732776312e-15
-2.910962109779269114e-15
-2.473483824432751239e-15
-2.025390848996932403e-15
-1.682460370771719610e-15
-1.456480561426014639e-15
-1.199642719618043418e-15
-8.461375058927289731e-16
-6.343034406245499985e-16
-4.923328524022859041e-16
-3.341628452518083661e-16
-2.442297412706783851e-16
-1.739665335786739340e-16
-1.214398543618422032e-16
-8.527845026931842977e-17
-6.049566624611733829e-17
-4.355432856334448159e-17
-3.188961839942565299e-17
-2.381373567917380972e-17
-1.809230200350515495e-17
-1.393408164421239495e-17
-1.081376416079022810e-17
-8.395181673918757458e-18
-6.473650234765457048e-18
-4.927649154748776710e-18
