# bin_18_13
-2.314683876197317113e-10
-2.590969867736228594e-10
-2.846292165991214280e-10
-3.054318002808722829e-10
-3.181817785624644754e-10
-3.198904374058940952e-10
-3.064441833228528015e-10
-2.770428940166620903e-10
-2.367778311949686195e-10
-1.942115431572528631e-10
-1.606927489138388965e-10
-1.388172520198251754e-10
-1.156570534830486134e-10
-8.265470879362620929e-11
-6.072927167074419487e-11
-4.805843971411761508e-11
-3.219261402677498095e-11
-2.395488401712573788e-11
-1.685879479734885650e-11
-1.172786516811840078e-11
-8.234194461034165905e-12
-5.816731833463911793e-12
-4.166366519951214032e-12
-3.032296448704687147e-12
-2.251358428563150475e-12
-1.701818273153764302e-12
-1.305626959198023661e-12
-1.011065382788468508e-12
-7.846418524765797986e-13
-6.058434760145018399e-13
-4.624067683715099382e-13
