# bin_17_20
-1.108448135962464220e-14
-1.256981549380455193e-14
-1.402770415278676749e-14
-1.534780691092625934e-14
-1.638181605560205937e-14
-1.694402795583651098e-14
-1.689194450127892151e-14
-1.598617496604304755e-14
-1.428517670076294420e-14
-1.206219480591606118e-14
-9.867613273497506749e-15
-8.244164653352492584e-15
-7.146219834266691882e-15
-5.793878178814460113e-15
-4.031172415374512450e-15
-3.092140500856334643e-15
-2.327449873893305465e-15
-1.603638771109086946e-15
-1.128764669530581585e-15
-8.039149060309718681e-16
-5.520171393107111563e-16
-3.774770275039556593e-16
-2.602784126568816073e-16
-1.809974696250283001e-16
-1.275452247396147337e-16
-9.157781716622304056e-17
-6.706559607440098224e-17
-5.012002144616715437e-17
-3.809338523033025804e-17
-2.927584819198410854e-17
-2.258311159786670425e-17
