# bin_12_9
-2.817303987764871618e-10
-3.100256769935341554e-10
-3.335105516473307469e-10
-3.486360754444852308e-10
-3.519495584251429437e-10
-3.393113743987642512e-10
-3.087988573086183096e-10
-2.657520343393508055e-10
-2.185504882438856553e-10
-1.800406994525770886e-10
-1.548461612169192630e-10
-1.305547542656826793e-10
-9.521557832722264837e-11
-6.851245896666576726e-11
-5.523113106529738524e-11
-3.708026967257341811e-11
-2.813758577254696908e-11
-1.978586357911875311e-11
-1.398773386538312189e-11
-1.004253621791154802e-11
-7.268237228413832297e-12
-5.340725152787634642e-12
-3.991410818266647149e-12
-3.039675489989437665e-12
-2.348919939867823099e-12
-1.831990203113663999e-12
-1.432805838378014709e-12
-1.115559520313742003e-12
-8.590515866024490238e-13
-6.506496593163592000e-13
-4.826017440870886006e-13
