# bin_3_17
-9.061072979434020621e-90
-1.009377580755643933e-89
-1.102299927289787810e-89
-1.174164473613967630e-89
-1.211638376324907858e-89
-1.204738270647161895e-89
-1.136449542000783150e-89
-1.012518528587780573e-89
-8.525910476844585723e-90
-6.970817202274776379e-90
-5.834910117913919786e-90
-5.055607974168231434e-90
-4.070884526086543638e-90
-2.827285588308480441e-90
-2.191520074631081653e-90
-1.636766553183079016e-90
-1.147622015828794009e-90
-8.088723824860454505e-91
-5.857601320021358856e-91
-4.116861459309310615e-91
-2.901219314148872032e-91
-2.075747301217532229e-91
-1.506879292953283728e-91
-1.113709008717744392e-91
-8.389656512281251463e-92
-6.421012814984994012e-92
-4.971100428320376824e-92
-3.867323221151868214e-92
-3.001347838553653150e-92
-2.307769145606680574e-92
-1.748064598696665543e-92
