# bin_10_1
-3.208088784494385125e-09
-3.095963618766737114e-09
-2.828169400478120300e-09
-2.445687936621824967e-09
-2.022992225166831728e-09
-1.667291405279943864e-09
-1.420622897279391897e-09
-1.194365711244951903e-09
-8.972796599645553753e-10
-6.504885282523027765e-10
-5.130053096499695941e-10
-3.672249685715022628e-10
-2.745475563414734006e-10
-2.002882065038908468e-10
-1.491289754346540366e-10
-1.124393507069883497e-10
-8.630278133212065252e-11
-6.749564351728781163e-11
-5.359476907259534730e-11
-4.298095697300082454e-11
-3.455106402048924427e-11
-2.763033324887846196e-11
-2.182750509417258827e-11
-1.692809649892822892e-11
-1.282416689249133150e-11
-9.458074922669534868e-12
-6.782718521168160491e-12
-4.733184403798892342e-12
-3.221721783891542870e-12
-2.145734613965244456e-12
-1.403091984895693905e-12
