# bin_7_12
-3.024211786663139510e-17
-3.341191563000116593e-17
-3.611956764158442215e-17
-3.799135092449065359e-17
-3.861764116160770917e-17
-3.761602192883555045e-17
-3.460645134673528978e-17
-3.011046332070174796e-17
-2.489002834814067504e-17
-2.040216443484767927e-17
-1.742680386519875667e-17
-1.492063467391072507e-17
-1.120300998778717839e-17
-7.838672739240510745e-18
-6.398022876080720537e-18
-4.317626629583708981e-18
-3.292452701757489022e-18
-2.271206447358194565e-18
-1.607458622245512550e-18
-1.152758101886825539e-18
-8.313513939402606871e-19
-6.061921327451112772e-19
-4.489794841045651106e-19
-3.391124740414671182e-19
-2.603294505054867988e-19
-2.021516865311164895e-19
-1.578393246943995884e-19
-1.230138280140173047e-19
-9.504702075835150367e-20
-7.237157021473411098e-20
-5.405249966751883753e-20
