# bin_11_16
-2.579882137192393585e-15
-2.894158389383651113e-15
-3.187888563987143304e-15
-3.432254532712721551e-15
-3.590647037098082686e-15
-3.627246527323528026e-15
-3.499010344635623936e-15
-3.185204393109826326e-15
-2.741696717132786983e-15
-2.254401387751652798e-15
-1.857201104834022169e-15
-1.598991404588577009e-15
-1.349414514947307588e-15
-9.812159763578715341e-16
-7.039621781642518517e-16
-5.686397968486133360e-16
-3.764647093222538980e-16
-2.850707907676404200e-16
-1.978991252239023473e-16
-1.371587550826147368e-16
-9.632117381010525093e-17
-6.776499386021886059e-17
-4.824586144640900506e-17
-3.485591815380629995e-17
-2.569319594511473461e-17
-1.929642884510430600e-17
-1.472880683653894181e-17
-1.137145807878345735e-17
-8.818090301496983029e-18
-6.818146898611464303e-18
-5.220523644066145904e-18
