# bin_1_3
-6.950382674255844504e-10
-6.993110084708502301e-10
-6.718019198700956981e-10
-6.097214405858245544e-10
-5.235337407795288711e-10
-4.303920043494825612e-10
-3.548862827225804844e-10
-3.047281263391628773e-10
-2.556474203141470933e-10
-1.870752738604340682e-10
-1.361621087433658909e-10
-1.091165158930602411e-10
-7.543292489355430821e-11
-5.746999681288408874e-11
-4.163872497960433544e-11
-3.063018262296478001e-11
-2.296843282460029579e-11
-1.751169222125678129e-11
-1.360125406200801651e-11
-1.073029777445931747e-11
-8.559894500691751965e-12
-6.852714512352484342e-12
-5.464594335309192279e-12
-4.310199292421100971e-12
-3.341063968601844573e-12
-2.531793734811988344e-12
-1.868434401882157862e-12
-1.340500936856277717e-12
-9.354587249776390680e-13
-6.364028063353236991e-13
-4.234654224507410765e-13
