# bin_4_19
-1.239726422119897903e-86
-1.389242318253474648e-86
-1.528212604291121566e-86
-1.642662004606461257e-86
-1.714909583168217414e-86
-1.728330599527994044e-86
-1.661463492545766537e-86
-1.507126655897138717e-86
-1.292580177048179628e-86
-1.061310640528071435e-86
-8.761101560912942308e-87
-7.558284587753301745e-87
-6.339909598244479495e-87
-4.566313485557177049e-87
-3.315504829085728592e-87
-2.653913343064412040e-87
-1.764136076045914511e-87
-1.326527221309232512e-87
-9.270695233327558071e-88
-6.435915124552444286e-88
-4.518613262301439767e-88
-3.184030549799748547e-88
-2.273702999512226239e-88
-1.648882401949933014e-88
-1.219976453613381889e-88
-9.193525832755878068e-89
-7.036504818644017467e-89
-5.441727380453342173e-89
-4.222088148822768399e-89
-3.262615842430473759e-89
-2.494305954044839192e-89
