# bin_10_11
-2.022559603500123327e-08
-2.243782787597294617e-08
-2.437942195179766279e-08
-2.580530616739469766e-08
-2.642295113735190674e-08
-2.600818381655254188e-08
-2.422386569385923374e-08
-2.132773790783570158e-08
-1.777405772973373279e-08
-1.453338589664763791e-08
-1.229325787465016417e-08
-1.062021710861981741e-08
-8.255746251699466346e-09
-5.708307647281719261e-09
-4.584974680356234328e-09
-3.235463019291058366e-09
-2.389063849512946963e-09
-1.635135222915007647e-09
-1.178430601222635003e-09
-8.372948612386859573e-10
-5.977377594878541172e-10
-4.320512605067457330e-10
-3.168486761131118643e-10
-2.368829908791421286e-10
-1.802803764141334608e-10
-1.391002444224428466e-10
-1.082413650778841199e-10
-8.434228140508386008e-11
-6.534361843548003718e-11
-5.001159741092917715e-11
-3.762045948550746482e-11
