# bin_17_7
-3.292741744902084195e-41
-3.683011551644532185e-41
-4.042229482735921472e-41
-4.332705461204966840e-41
-4.506985629654525036e-41
-4.523647049871656079e-41
-4.322896990954570802e-41
-3.898483496494545986e-41
-3.323282057685079523e-41
-2.723280941088680387e-41
-2.256746602940395055e-41
-1.952062797454800542e-41
-1.618957177327208956e-41
-1.149384656190561975e-41
-8.519701927977436413e-42
-6.691718520267902137e-42
-4.501374704702420597e-42
-3.328089646916798896e-42
-2.354487648061068572e-42
-1.640161479817164873e-42
-1.151398630360922500e-42
-8.146053277017243994e-43
-5.847991249813499203e-43
-4.267792037087810066e-43
-3.177056148147687860e-43
-2.407231578604951486e-43
-1.850249559622329283e-43
-1.434408081756593234e-43
-1.113524905411903658e-43
-8.593914840733378036e-44
-6.552048870908905221e-44
