# bin_9_2
-6.228161998906834286e-34
-6.699591446693873521e-34
-7.005476414648181924e-34
-7.075973142648241754e-34
-6.829533585548641200e-34
-6.222951708841486313e-34
-5.362740570244745128e-34
-4.411845094694938466e-34
-3.629611747655602955e-34
-3.117537584452524011e-34
-2.635766037819366005e-34
-1.933208313043672870e-34
-1.386012692852665861e-34
-1.123956194781216650e-34
-7.587257529949089978e-35
-5.807525656847683709e-35
-4.116999384401746493e-35
-2.951954276660540162e-35
-2.156939911157353579e-35
-1.593398590725222014e-35
-1.197048432469414483e-35
-9.148903925372378123e-36
-7.109367735269102938e-36
-5.583989555075045344e-36
-4.404076863578498449e-36
-3.463859919678622251e-36
-2.697842817722484409e-36
-2.068352986030967045e-36
-1.553057814920988180e-36
-1.137636678238922298e-36
-8.111641333015115768e-37
