# bin_8_2
-3.042341588107536170e-27
-3.250494536473599521e-27
-3.369589214946669514e-27
-3.370100286587770321e-27
-3.206651331799445844e-27
-2.880935774405475758e-27
-2.446903264127583281e-27
-2.003223227869873777e-27
-1.663150642549270643e-27
-1.437514638381217626e-27
-1.183728310366573355e-27
-8.394307100460216038e-28
-6.307700766133466676e-28
-4.923604606033422178e-28
-3.395880176705803434e-28
-2.522655947914829423e-28
-1.834891089536047948e-28
-1.323606789072319080e-28
-9.686777320673531862e-29
-7.208291330378142317e-29
-5.465753337352733462e-29
-4.216583499089922798e-29
-3.300401601426827936e-29
-2.604249465233029473e-29
-2.057494153261706218e-29
-1.616180469112171336e-29
-1.253732105450448633e-29
-9.550491206350812136e-30
-7.111114344947275320e-30
-5.157669340507955339e-30
-3.639233319673135809e-30
