# bin_12_8
-9.745064236689441256e-14
-1.078983646766125656e-13
-1.169536153230985528e-13
-1.234242820517627223e-13
-1.259346611437337510e-13
-1.233492942323430513e-13
-1.142073950124111128e-13
-9.999184847955192091e-14
-8.298158355928555932e-14
-6.791173660904147641e-14
-5.772507667414446244e-14
-4.970094478421361148e-14
-3.798936548739766451e-14
-2.636455301030009519e-14
-2.139735842741053228e-14
-1.473165129871632455e-14
-1.109214607921855292e-14
-7.592137442474087904e-15
-5.418692974013530184e-15
-3.870935757277566586e-15
-2.780412753724820200e-15
-2.018239139161016836e-15
-1.487028313879738761e-15
-1.117291577821251544e-15
-8.539735477536538880e-16
-6.610353110760136165e-16
-5.153127459566582112e-16
-4.016334863282922694e-16
-3.107963618939451414e-16
-2.373036678163139558e-16
-1.779067805607843099e-16
