# bin_14_1
-1.031031707880916038e-88
-1.135396284406388763e-88
-1.222484930412648964e-88
-1.279359093421319467e-88
-1.293152399514793764e-88
-1.248951971744622481e-88
-1.138567585716762262e-88
-9.815495872230486245e-89
-8.075995404354078070e-89
-6.644924682400231654e-89
-5.711125684016256692e-89
-4.831929808296182970e-89
-3.537300257394901888e-89
-2.528663064980097726e-89
-2.051808438282574728e-89
-1.370590473596754196e-89
-1.045995620870074925e-89
-7.332532531550304177e-90
-5.175244152735916171e-90
-3.715884802881413258e-90
-2.686495002857947151e-90
-1.971453104163774455e-90
-1.471253981403234179e-90
-1.119072503603666094e-90
-8.639715698251601568e-91
-6.734740932521396951e-91
-5.266783195033496020e-91
-4.101956174391200820e-91
-3.160920822286976220e-91
-2.396415686864145261e-91
-1.779620201100726951e-91
