# bin_9_7
-1.390284039218623362e-09
-1.522062116730426921e-09
-1.626919754881621817e-09
-1.686859979599266994e-09
-1.687101201964158630e-09
-1.604694296184291825e-09
-1.440940202425784954e-09
-1.223018725505997122e-09
-1.001087313606844665e-09
-8.318570259144576204e-10
-7.197701545434708049e-10
-5.916681995044793463e-10
-4.176364183966950439e-10
-3.144466429835077162e-10
-2.440738216403744008e-10
-1.674554380612978567e-10
-1.231591815438547641e-10
-8.890712952378016989e-11
-6.323522041547729875e-11
-4.545023949036204181e-11
-3.314974065575993047e-11
-2.460980831046608562e-11
-1.859925912117106208e-11
-1.430201156998748306e-11
-1.113312899036597732e-11
-8.721330151560489598e-12
-6.827979477486732570e-12
-5.304717905747448036e-12
-4.064807401899472084e-12
-3.056452404941836422e-12
-2.246248845765045480e-12
