# bin_16_10
-7.864352788478587186e-19
-8.810953618754122199e-19
-9.689821587475004053e-19
-1.041214680764921438e-18
-1.086565185637680448e-18
-1.094560208178778780e-18
-1.051497458277355895e-18
-9.531671026901166249e-19
-8.169005175931057163e-19
-6.705622055727147344e-19
-5.537783531362018933e-19
-4.779258551844582435e-19
-4.003911705913737145e-19
-2.878608249048539046e-19
-2.095085629574940719e-19
-1.673739896155056070e-19
-1.113733431247198124e-19
-8.361176453833219097e-20
-5.851203248861649272e-20
-4.063478498197653765e-20
-2.852819676294293932e-20
-2.010980122449736233e-20
-1.436880587909841320e-20
-1.042780868372125088e-20
-7.720836214939152785e-21
-5.822014864063185880e-21
-4.458296548684070014e-21
-3.448903933680477861e-21
-2.676135304933995858e-21
-2.067715454909994067e-21
-1.580305612620530190e-21
