# bin_8_14
-3.011622335515166325e-20
-3.350712793636664523e-20
-3.653623200939812553e-20
-3.884456371859647852e-20
-3.998901879609510963e-20
-3.964323115587029644e-20
-3.725258748757921907e-20
-3.307083931992817627e-20
-2.775477286355694474e-20
-2.268650545588848042e-20
-1.904940362804382308e-20
-1.649980355624985335e-20
-1.315074695301294190e-20
-9.101886581150416373e-21
-7.144180330307006105e-21
-5.246211118367092938e-21
-3.736685183418519926e-21
-2.599820950079948677e-21
-1.886969694172379010e-21
-1.330223681845335019e-21
-9.404193937087550888e-22
-6.751000428573788506e-22
-4.916321720897928835e-22
-3.646690165127305723e-22
-2.756047075491417504e-22
-2.114925024792099974e-22
-1.640229127970155195e-22
-1.276883544336357972e-22
-9.905836974553460456e-23
-7.606731867309294664e-23
-5.750078975408684867e-23
