# bin_8_3
-2.867936401095900178e-20
-3.077818946508967451e-20
-3.208834156680077399e-20
-3.230312628260829508e-20
-3.102437098006460116e-20
-2.812594160322049943e-20
-2.411246625771210792e-20
-1.979456128169326937e-20
-1.633075461409274899e-20
-1.406785053563527212e-20
-1.179561637938611989e-20
-8.536898160310359043e-21
-6.218269239796065815e-21
-4.991239104557211196e-21
-3.380010239898016376e-21
-2.569961609674937173e-21
-1.837884202259509677e-21
-1.319460687248260870e-21
-9.644260258755432352e-22
-7.138198098925501684e-22
-5.379895216686854839e-22
-4.125700075500503696e-22
-3.214582557946094211e-22
-2.529344183361382806e-22
-1.996395728310864706e-22
-1.569703198387201846e-22
-1.220986003563720331e-22
-9.340695511144856176e-23
-6.993376231099357171e-23
-5.105025861399347174e-23
-3.626477065217776180e-23
