# bin_12_20
-2.641422329866242476e-24
-2.983954499888792071e-24
-3.314455936043567397e-24
-3.605552677423344962e-24
-3.820952211642519822e-24
-3.916974384857696765e-24
-3.860773409960470940e-24
-3.601098669037441320e-24
-3.174643530909185181e-24
-2.648158046620200186e-24
-2.165527154077542252e-24
-1.831034684930230798e-24
-1.583522590748793976e-24
-1.233583212741079372e-24
-8.505767337803615270e-25
-6.816747587314952727e-25
-4.799283821476782555e-25
-3.513717404833629197e-25
-2.368187658106072681e-25
-1.684156224258732750e-25
-1.169720373607068121e-25
-8.113120921549201115e-26
-5.666806380386034981e-26
-3.994777123164783617e-26
-2.865336789289934095e-26
-2.095771011937202485e-26
-1.562810628622151379e-26
-1.186205515561892404e-26
-9.115447408350333130e-27
-7.043545200461353835e-27
-5.431445773422942688e-27
