# bin_6_18
-2.272267564043295224e-56
-2.544523666864497476e-56
-2.796653620030461135e-56
-3.002893578861145559e-56
-3.130719657416250532e-56
-3.150359499796004038e-56
-3.021682871343103754e-56
-2.734842600050110379e-56
-2.340083669212183688e-56
-1.919801226549090844e-56
-1.587014856846094351e-56
-1.370695291977730260e-56
-1.144984650264881268e-56
-8.199297548695934712e-57
-6.000287215808677631e-57
-4.770648777341375343e-57
-3.183391649048853289e-57
-2.380056838906829433e-57
-1.670838010032405881e-57
-1.161363373516787274e-57
-8.152981966784021607e-58
-5.752769663948181138e-58
-4.116175602441445754e-58
-2.992242455385354231e-58
-2.219116262250411053e-58
-1.675813563730126267e-58
-1.284759417017322787e-58
-9.945558543043728858e-59
-7.718461436142086493e-59
-5.961795760693704014e-59
-4.553185036494031689e-59
