# bin_14_10
-3.793772170279634000e-13
-4.234851933815128457e-13
-4.636386896082500110e-13
-4.954230750460240196e-13
-5.132991245814779562e-13
-5.128394914414507640e-13
-4.869228480700487294e-13
-4.364603298608555071e-13
-3.697245825953430100e-13
-3.025483734826453392e-13
-2.519263939529643499e-13
-2.182238149157178274e-13
-1.785061473897032769e-13
-1.251458333174973683e-13
-9.485456301200164135e-14
-7.275284919521634492e-14
-4.984302020662456779e-14
-3.600692839272164766e-14
-2.581579549227259976e-14
-1.805899217735327623e-14
-1.268812938697505750e-14
-9.025232118350511312e-15
-6.515955266812116390e-15
-4.785939577536750959e-15
-3.584614496853778619e-15
-2.730359790514159122e-15
-2.106777697222617090e-15
-1.636559711520856344e-15
-1.270548413024086642e-15
-9.789050110426773712e-16
-7.439707862941781771e-16
