# bin_13_11
-2.217819418908044664e-09
-2.475319478928691762e-09
-2.709547795048094986e-09
-2.894667862586402566e-09
-2.998275099696338068e-09
-2.994605607316163645e-09
-2.841989050610626933e-09
-2.546383420497456891e-09
-2.156118493226379401e-09
-1.764234829361330154e-09
-1.469564595874707243e-09
-1.273030990605315224e-09
-1.040255944403059852e-09
-7.287483966150127359e-10
-5.532165648082082275e-10
-4.235653238897947588e-10
-2.906096887099187323e-10
-2.095867128201570078e-10
-1.503863715811164194e-10
-1.052321860421490041e-10
-7.394548717540823683e-11
-5.261848533602314982e-11
-3.800330730682177549e-11
-2.792515460798399437e-11
-2.092394641497167572e-11
-1.594287291207438404e-11
-1.230463590357918105e-11
-9.559385238252348031e-12
-7.421331622896281765e-12
-5.717065819484599597e-12
-4.344001287769364020e-12
