# bin_18_1
-2.286329428046979692e-124
-2.551833527703769271e-124
-2.793368562824584348e-124
-2.984303698750758634e-124
-3.091234957417807993e-124
-3.087589779944237068e-124
-2.930404617158665326e-124
-2.625744359714368957e-124
-2.223428415964488533e-124
-1.819320043743372421e-124
-1.515376303861685678e-124
-1.312720554807273979e-124
-1.072843024060912535e-124
-7.516245409624370971e-125
-5.704766490167197970e-125
-4.368857131535513099e-125
-2.996855078526109710e-125
-2.161749614649743812e-125
-1.551075900043897364e-125
-1.085329112602828707e-125
-7.626335470154409177e-126
-5.426659953187987889e-126
-3.919284262360787836e-126
-2.879856386098886785e-126
-2.157796507154323771e-126
-1.644099157097119705e-126
-1.268903244219548202e-126
-9.858086591695472494e-127
-7.653351625993402762e-127
-5.895950013981353930e-127
-4.480061239462544084e-127
