# bin_1_9
-1.926047062998824453e-44
-2.064509737546809897e-44
-2.149085852433257385e-44
-2.159699026600052637e-44
-2.068945540452956022e-44
-1.870924748455225125e-44
-1.599779469885079324e-44
-1.312099636217802653e-44
-1.084227204577100359e-44
-9.351168158618862335e-45
-7.804669630330142624e-45
-5.613468432817856831e-45
-4.123514408988705147e-45
-3.288041647197503395e-45
-2.234479925652549569e-45
-1.690363020785043045e-45
-1.214395911627522286e-45
-8.727748106597100462e-46
-6.380667030793697350e-46
-4.728392023166451305e-46
-3.569566599081501809e-46
-2.741999143614106653e-46
-2.139244291360413539e-46
-1.684638306307865033e-46
-1.330099852945624951e-46
-1.045590518757545615e-46
-8.127342499823197805e-47
-6.210457654628984827e-47
-4.642827409460800772e-47
-3.383192176226939389e-47
-2.398830845828369127e-47
