# bin_14_20
-1.086032250543855778e-16
-1.228999946796556522e-16
-1.368007901090714143e-16
-1.492017589240681664e-16
-1.586260739249509022e-16
-1.632539472246712437e-16
-1.617520198838834678e-16
-1.518538241773436467e-16
-1.346781891250841882e-16
-1.129244449250131821e-16
-9.232068140570857262e-17
-7.764038371234156306e-17
-6.726628523640137145e-17
-5.338569133131406511e-17
-3.684154191750306537e-17
-2.902426055670432231e-17
-2.107049152825911076e-17
-1.500339647226035724e-17
-1.024936577430382583e-17
-7.339398903875654848e-18
-5.068962010404471960e-18
-3.487854271573716553e-18
-2.423207980300111227e-18
-1.697997727799752451e-18
-1.208528674031320471e-18
-8.769150365120977855e-19
-6.489429757355984108e-19
-4.894484183998902366e-19
-3.745147932175193904e-19
-2.888625723752441054e-19
-2.228909633920161551e-19
