# bin_17_13
-2.067038277166197262e-12
-2.328096870227461861e-12
-2.576713192868277428e-12
-2.790706787805725726e-12
-2.941281148514925671e-12
-2.996000859306877909e-12
-2.926485895636453480e-12
-2.700375951108319770e-12
-2.356320415104372137e-12
-1.951137094276382767e-12
-1.598574340407171704e-12
-1.363579388224672600e-12
-1.170985998605689087e-12
-8.845911278800901323e-13
-6.151076079246228312e-13
-5.010307936146259055e-13
-3.374960033806397955e-13
-2.551618603178865480e-13
-1.728545912993461858e-13
-1.204092623168192956e-13
-8.443058019807261971e-14
-5.920005429119748221e-14
-4.169719354566916978e-14
-2.970134578905808874e-14
-2.156901119019673519e-14
-1.597172616668658895e-14
-1.204506410069862329e-14
-9.222466720871901090e-15
-7.124110041472732809e-15
-5.512201281658905538e-15
-4.240634413712361707e-15
