# bin_13_15
-2.744694555164418364e-09
-3.082694433205805380e-09
-3.400454373649690854e-09
-3.667641165366901422e-09
-3.845515399245975608e-09
-3.894470483565181282e-09
-3.771052436482929606e-09
-3.446460720364854075e-09
-2.978564923529405653e-09
-2.453639308386936847e-09
-2.017242716027083440e-09
-1.732395828884719172e-09
-1.470928965393512614e-09
-1.081580940153125557e-09
-7.666752044964611694e-10
-6.236090344541486038e-10
-4.126503247826898479e-10
-3.138009635856926886e-10
-2.162446194910637114e-10
-1.497299671115606826e-10
-1.051778873184482448e-10
-7.392838792192090681e-11
-5.246443107226821528e-11
-3.774407406009693638e-11
-2.770335699658383564e-11
-2.072384893268792181e-11
-1.576658681554763988e-11
-1.214666820019675484e-11
-9.411322198425814292e-12
-7.280109718472151531e-12
-5.582980879607279898e-12
