# bin_11_2
-5.892305090639382686e-49
-6.410671201655666351e-49
-6.799187738032986995e-49
-6.980749159030723785e-49
-6.897911224193956600e-49
-6.457214020789532728e-49
-5.712487407675792464e-49
-4.780149254742239178e-49
-3.906522419775350640e-49
-3.287759766054507164e-49
-2.843886195083004377e-49
-2.246939384288742200e-49
-1.557815271835439459e-49
-1.234901747948894793e-49
-8.985833507183783803e-50
-6.526321701893214188e-50
-4.565747356233688738e-50
-3.347214568009272490e-50
-2.409120586832367630e-50
-1.748170645695468264e-50
-1.290791370588617502e-50
-9.690701798812596986e-51
-7.408558628001949090e-51
-5.749948873945984683e-51
-4.504497974473074033e-51
-3.539116422038802256e-51
-2.768903418748110870e-51
-2.142755622278588231e-51
-1.630829458001089902e-51
-1.215102923304485228e-51
-8.831908990775022554e-52
