# bin_18_13
-1.406321118595197267e-14
-1.586058822753637906e-14
-1.758235203279019496e-14
-1.907992993335651244e-14
-2.015856165409754986e-14
-2.059118623079239176e-14
-2.019491919829246456e-14
-1.872313761894001195e-14
-1.641283557700981987e-14
-1.363154731562417918e-14
-1.115677001316324629e-14
-9.481355672004025297e-15
-8.173204142652756611e-15
-6.257299670375812737e-15
-4.328869828639374785e-15
-3.507471854069604667e-15
-2.403708711961237978e-15
-1.797430904844819953e-15
-1.210814954299824950e-15
-8.506029432608203707e-16
-5.943444623600356589e-16
-4.152194632825320896e-16
-2.913847771272489649e-16
-2.065872735048960042e-16
-1.492181193061898379e-16
-1.099124115604312541e-16
-8.249740235431182081e-17
-6.294023760900355478e-17
-4.852148419462693088e-17
-3.753001896956426542e-17
-2.890763001690715596e-17
