# bin_17_1
-1.236351436957453270e-115
-1.375931510863988494e-115
-1.500819740625499268e-115
-1.596306109547000553e-115
-1.644196828199959478e-115
-1.631052860623461520e-115
-1.533994405130337554e-115
-1.362881352290097625e-115
-1.144636171033605208e-115
-9.356618144244452056e-116
-7.851108571887623858e-116
-6.800893365331327363e-116
-5.432917102565890917e-116
-3.762847032491655059e-116
-2.945411619368482626e-116
-2.171121654563288119e-116
-1.540943250221515139e-116
-1.075113532179044133e-116
-7.800383792551231349e-117
-5.495163459199843085e-117
-3.881971904144667543e-117
-2.784711380624643460e-117
-2.026520377811960019e-117
-1.501982786804699639e-117
-1.134338192028702695e-117
-8.699623221448959880e-118
-6.744436730685170414e-118
-5.249668008333268335e-118
-4.072964626855932116e-118
-3.128560190785315024e-118
-2.366013263450360380e-118
