# bin_4_17
-1.644231384300497357e-71
-1.833697711820246766e-71
-2.005284221108749305e-71
-2.139718592173324680e-71
-2.212883007960904732e-71
-2.206155886513852305e-71
-2.088506629878675689e-71
-1.866934451176879658e-71
-1.577107966482901921e-71
-1.289968534624952102e-71
-1.076652032882228488e-71
-9.328569518238021400e-72
-7.578491699698915403e-72
-5.287719632207224332e-72
-4.049108181020783945e-72
-3.069504824786141050e-72
-2.123764999759882217e-72
-1.516991396340651655e-72
-1.093429440616978021e-72
-7.664724771824734925e-73
-5.390603653925531024e-73
-3.844540136674405370e-73
-2.782669415847362549e-73
-2.049703845101065894e-73
-1.539294991396383371e-73
-1.175092935570777766e-73
-9.081579745446983472e-74
-7.059889199878724426e-74
-5.480407257948740334e-74
-4.218751036418685655e-74
-3.201490467923750593e-74
