# bin_10_20
-2.761822188601951796e-35
-3.114652617323810503e-35
-3.452568664039572923e-35
-3.746376322282759132e-35
-3.957818984113109134e-35
-4.042340033432656005e-35
-3.963970466141712089e-35
-3.674435215587868605e-35
-3.220500216790878596e-35
-2.674431449964617486e-35
-2.188957909444004817e-35
-1.860513028854024331e-35
-1.603643641027343149e-35
-1.227106338097814198e-35
-8.490312518999879526e-36
-6.881258246409483732e-36
-4.712180794416130907e-36
-3.525643063301749882e-36
-2.375184049726862111e-36
-1.667934955161576926e-36
-1.165653960152014270e-36
-8.145107535572992150e-37
-5.716712807597585409e-37
-4.053754270319679066e-37
-2.928628948962753616e-37
-2.157636672536003573e-37
-1.619769550145166069e-37
-1.235960640748304123e-37
-9.529033167945657805e-38
-7.370627825091247109e-38
-5.677051725569753086e-38
