# bin_19_11
2.591853108950820626e-22
2.921222821531898551e-22
3.235855598492984139e-22
3.508161919983430795e-22
3.702144855470347368e-22
3.776531309830602090e-22
3.696694873706153974e-22
3.419552932053513984e-22
2.991062158202686447e-22
2.480683785255154851e-22
2.031344581308376593e-22
1.729344377999200363e-22
1.488020520147548841e-22
1.132048488666185553e-22
7.850896077912316588e-23
6.376536522184452700e-23
4.334811066721006509e-23
3.257696791863281925e-23
2.200417283072020512e-23
1.539482294775462567e-23
1.077267645980768628e-23
7.536994085695239193e-24
5.296933632473489912e-24
3.762606559844683947e-24
2.723762449980527038e-24
2.010676038090382853e-24
1.512136069055459392e-24
1.155367299198063101e-24
8.914243200924362809e-25
6.895733692475839819e-25
5.308598227761338667e-25
