# bin_18_3
1.160441654134672719e-65
1.296457474701295798e-65
1.420859798405629122e-65
1.520237581773048607e-65
1.577739852098529540e-65
1.579380727927676267e-65
1.503673827840573526e-65
1.351316257951294389e-65
1.147774596498103449e-65
9.397924662647719126e-66
7.809424383289609693e-66
6.760696768607531890e-66
5.562949007894299534e-66
3.921116928227161535e-66
2.943669751494946194e-66
2.280895240718426306e-66
1.550270377570239594e-66
1.131106047343085800e-66
8.062189606187788295e-67
5.628764034209257891e-67
3.952509309871082110e-67
2.804321689059962788e-67
2.019209291552390721e-67
1.478627681271312161e-67
1.104308060539949166e-67
8.390719479081477714e-68
6.462659308898895736e-68
5.015508607927564170e-68
3.893606873962231819e-68
3.002173273605601245e-68
2.284949020281095529e-68
