# bin_19_6
1.094858055129826406e-46
1.228536734504235067e-46
1.353630516868331723e-46
1.457938112955502358e-46
1.525940138343805466e-46
1.542305209977777003e-46
1.488992297676768839e-46
1.356641713066183435e-46
1.168790397033049421e-46
9.614855248129929062e-47
7.917629717033093513e-47
6.812710814015488942e-47
5.756490839366366799e-47
4.196754896357082389e-47
3.003415209035554247e-47
2.428427672517556181e-47
1.608604176167792782e-47
1.218434195333308685e-47
8.443398953100824041e-48
5.850726553751750734e-48
4.108165353723221239e-48
2.889305466129757200e-48
2.055008547742007157e-48
1.482783748060141897e-48
1.091578715618182771e-48
8.188207774787490721e-49
6.243713477058881221e-49
4.817226879107162430e-49
3.734432484152269031e-49
2.887674919637867717e-49
2.211928581073697188e-49
