# bin_5_1
7.549541652890428119e-17
7.793450522784613433e-17
7.757596922538957736e-17
7.337730252433113394e-17
6.557614179671233651e-17
5.542521135549673644e-17
4.535047855132967652e-17
3.780099286006378810e-17
3.264868884722505424e-17
2.655194144769853606e-17
1.876493306745814481e-17
1.433739891010359696e-17
1.099740066923376943e-17
7.756235891611739344e-18
5.712724382172333253e-18
4.209778647139255317e-18
3.084242917153795307e-18
2.295755631835203992e-18
1.742040321136007495e-18
1.346666526159934852e-18
1.057538606079501654e-18
8.395653327961269398e-19
6.689165871392022263e-19
5.310033897672576440e-19
4.170741363363682468e-19
3.220750572470644476e-19
2.432482582178760725e-19
1.789996810849676192e-19
1.280743707105690996e-19
8.914493274738843226e-20
6.048806208432288093e-20
