# bin_15_8
1.082076481621816688e-21
1.206633270420697198e-21
1.319367437205501797e-21
1.407587370422279648e-21
1.455430549601644870e-21
1.450628885326302026e-21
1.372857524428709153e-21
1.226872313056038740e-21
1.036194530269702126e-21
8.475606463704087465e-22
7.075837929824267089e-22
6.130089354903537871e-22
4.975546996415230621e-22
3.471904667626799827e-22
2.660823538942980955e-22
2.014242502174018753e-22
1.395654680431262086e-22
9.960008814752758555e-23
7.176188688134906809e-23
5.031099919732992483e-23
3.539539172619198942e-23
2.524648557101929099e-23
1.827428840838040638e-23
1.346203069836621547e-23
1.011055692528866230e-23
7.718817164451340922e-24
5.965580134412480244e-24
4.637534243015862274e-24
3.599881270486171400e-24
2.770997351482983787e-24
2.102692441951061617e-24
