# bin_13_5
6.881906403645463561e-28
7.595754455631777086e-28
8.201365532128869699e-28
8.613295561953247068e-28
8.740577116828969542e-28
8.492283344567694743e-28
7.791523511299926620e-28
6.760718364701512446e-28
5.580765211592785126e-28
4.579471738634759604e-28
3.918924454877631932e-28
3.343829536292439938e-28
2.492028425646538435e-28
1.754154144941533322e-28
1.429925006247460229e-28
9.614982706607791209e-29
7.336375948664190874e-29
5.084547482501331005e-29
3.594484760788373351e-29
2.578224392641941098e-29
1.860189038208683940e-29
1.358596316638741572e-29
1.008245500396345729e-29
7.629397868854351027e-30
5.865729029498538949e-30
4.559519843296377118e-30
3.561536373849633946e-30
2.775185036246593700e-30
2.142684864145912347e-30
1.629586633740588816e-30
1.215224247104638292e-30
