# bin_3_3
4.685074519519043802e-10
4.826776796173149571e-10
4.792099548896575687e-10
4.518249844287263979e-10
4.025846143184967007e-10
3.394087676513435079e-10
2.777036213048099272e-10
2.320377713316754827e-10
2.002796912634305179e-10
1.615936085619936133e-10
1.140581112937912826e-10
8.784430541158211943e-11
6.662628728808392619e-11
4.744854304253226415e-11
3.474470579111088781e-11
2.561730621223986286e-11
1.880897044000867545e-11
1.403017991956089191e-11
1.066558402838311517e-11
8.257716375849651819e-12
6.493360974049602462e-12
5.159024193586289891e-12
4.111310584953573874e-12
3.262557324014000160e-12
2.560340082784032518e-12
1.974570335369038480e-12
1.488824973545787156e-12
1.093552561070064412e-12
7.809828054568508970e-13
5.426637462469898519e-13
3.676769601692783386e-13
