# bin_15_10
5.985688180287242572e-16
6.694350225987014840e-16
7.346225289754065828e-16
7.872730542706579731e-16
8.187511657457669420e-16
8.215615645646298324e-16
7.848290381397604264e-16
7.075755622101793688e-16
6.030030925949784310e-16
4.941409807945567767e-16
4.096151945558524915e-16
3.542863875459882181e-16
2.935852827814422654e-16
2.083769131118794282e-16
1.546140288025889944e-16
1.212594384590280878e-16
8.167964456849247378e-17
6.028823613277091748e-17
4.267350896294737630e-17
2.972885491417720382e-17
2.086779746631458516e-17
1.476517623481321988e-17
1.059928064439728301e-17
7.734699336997044458e-18
5.757455169712784150e-18
4.361988204430438633e-18
3.352394332808344775e-18
2.598678932666142008e-18
2.017135417921960472e-18
1.556623806609221337e-18
1.186676830428245797e-18
