# bin_19_9
5.480528777497411119e-30
6.165299314426019775e-30
6.813927853122507837e-30
7.366824936604940149e-30
7.747216026422054495e-30
7.871927431345750634e-30
7.661004130086910265e-30
7.040026892462708885e-30
6.117954412947648775e-30
5.054202169094103561e-30
4.146296295518487453e-30
3.547367642527813428e-30
3.032940596957616322e-30
2.264936455466825676e-30
1.585920842554864339e-30
1.293302062801317271e-30
8.625216810344061125e-31
6.550370697683928944e-31
4.468069848912646335e-31
3.099928296012443728e-31
2.176086067506613658e-31
1.527596033455868770e-31
1.079110368032400712e-31
7.716644817793721097e-32
5.627844901220252618e-32
4.184614729394693914e-32
3.167243076992995816e-32
2.431336324749237701e-32
1.880626964960791932e-32
1.455098188297454342e-32
1.118070511450543387e-32
