# bin_5_4
1.432834126522785457e-10
1.516250938376354536e-10
1.553204971193028985e-10
1.530324393384468215e-10
1.428166761299110915e-10
1.260020996824104420e-10
1.052587748325218827e-10
8.606751268865530374e-11
7.255145938166397135e-11
6.258908811498521765e-11
4.914143052615906306e-11
3.428605645448253232e-11
2.723781898568411013e-11
1.975982854338241070e-11
1.450030413379254084e-11
1.028563820513515497e-11
7.573000274719881727e-12
5.537873049651024549e-12
4.098311853008818981e-12
3.088645254233044536e-12
2.368716274785282309e-12
1.846725992240292447e-12
1.456283737827570659e-12
1.153640875654713879e-12
9.116504509714191365e-13
7.136589451829917661e-13
5.499505620415173900e-13
4.149958204867464838e-13
3.054322142727971482e-13
2.187152487288128114e-13
1.523623298351908930e-13
