# bin_8_3
5.372775434361745473e-19
5.766110533244279073e-19
6.011723152801894241e-19
6.052144113939518540e-19
5.813178178876301394e-19
5.271228280402769198e-19
4.520077210612514410e-19
3.711667912885112520e-19
3.062420661040193615e-19
2.637017808201463395e-19
2.210832285641196540e-19
1.601992602245945217e-19
1.166499986636762435e-19
9.353059237651689802e-20
6.345177763367740428e-20
4.816998296193238977e-20
3.443351766068405851e-20
2.472581968898212955e-20
1.806878705456040462e-20
1.337195743855358565e-20
1.007405256959306837e-20
7.722068251805898850e-21
6.014371278754719966e-21
4.730892030082343212e-21
3.733344957480339017e-21
2.935188977299135264e-21
2.283213605665780384e-21
1.746943097379125794e-21
1.308261581420635418e-21
9.553378984897593655e-22
6.789328678543033284e-22
