# bin_13_4
-9.443671417439455650e-25
-1.040521855600764406e-24
-1.121085645533069169e-24
-1.174235953184221521e-24
-1.188019638503703222e-24
-1.149109192901768918e-24
-1.049318300922406353e-24
-9.061579240181470755e-25
-7.463202723561871779e-25
-6.137405130530453676e-25
-5.268034432147413171e-25
-4.465092661384482344e-25
-3.285634542985185475e-25
-2.341243804852916152e-25
-1.898326455744085158e-25
-1.273592890398995438e-25
-9.698416070116587464e-26
-6.778426000463893444e-26
-4.790463706253972164e-26
-3.438280888401180171e-26
-2.484989332201087389e-26
-1.821454851203293871e-26
-1.357410252516742768e-26
-1.031104016232213889e-26
-7.951895756377113156e-27
-6.193849994950350442e-27
-4.842053605700887947e-27
-3.771368804250483703e-27
-2.907409953950882364e-27
-2.205848356569690529e-27
-1.639751194582560069e-27
