# bin_4_19
-1.539228990568954294e-44
-1.724859797553599575e-44
-1.897395679837951593e-44
-2.039486976995024150e-44
-2.129169457488138115e-44
-2.145805236969730060e-44
-2.062876628773930138e-44
-1.871501590721028749e-44
-1.605302466864585771e-44
-1.318354901915338125e-44
-1.088377466427513381e-44
-9.386568498497080848e-45
-7.872206478336041607e-45
-5.675574689468804030e-45
-4.119979220181209704e-45
-3.294482105146091228e-45
-2.193778723704741440e-45
-1.647120397406305252e-45
-1.150985899579673897e-45
-7.992336661330783719e-46
-5.611831759239205396e-46
-3.955957979731530087e-46
-2.824815485949473939e-46
-2.048242117919885223e-46
-1.515194360772074371e-46
-1.141615588975537948e-46
-8.736024009096788362e-47
-6.754901188246811597e-47
-5.240205388765229878e-47
-4.048969606897614017e-47
-3.095338649021042440e-47
