# bin_16_6
-3.128400042534724979e-25
-3.487485056266904074e-25
-3.811951488106970690e-25
-4.065034888785679877e-25
-4.200894248364003068e-25
-4.184137317936671511e-25
-3.956387080866241515e-25
-3.532861555190376719e-25
-2.981694842123910749e-25
-2.438844212778363864e-25
-2.037494930243434451e-25
-1.764899421544506836e-25
-1.429187917620775914e-25
-9.968251554305115210e-26
-7.659519284090278686e-26
-5.776821180573981867e-26
-4.017220608585434705e-26
-2.859415279882741723e-26
-2.060614281069841116e-26
-1.445767338092688287e-26
-1.018103696884304387e-26
-7.268133896991365999e-27
-5.265251410976093058e-27
-3.882336777472397282e-27
-2.918250625894437731e-27
-2.229416762662502121e-27
-1.723769609659078261e-27
-1.340206825909358262e-27
-1.040178400670685124e-27
-8.003560862536346414e-28
-6.069690282647540515e-28
