# bin_13_19
-8.196433295807890388e-13
-9.255849808022972054e-13
-1.027645209912366222e-12
-1.117291252440586394e-12
-1.183243617544115245e-12
-1.212040856384438097e-12
-1.193339591294048669e-12
-1.111635575184592308e-12
-9.788112693723916873e-13
-8.157962692713282428e-13
-6.672932932979789755e-13
-5.648204143551343240e-13
-4.880301506854222092e-13
-3.788246762603408975e-13
-2.615327682412672931e-13
-2.099231182191914873e-13
-1.470333254020636034e-13
-1.080285677708406785e-13
-7.292183927433140036e-14
-5.169398354924250663e-14
-3.594983884008001400e-14
-2.496962433166785673e-14
-1.745699534488522973e-14
-1.232118451086928009e-14
-8.850490917036044281e-15
-6.482936070018650550e-15
-4.840829188822782438e-15
-3.678111571905656651e-15
-2.828190051824005272e-15
-2.185643408932696764e-15
-1.684859376692221069e-15
