# bin_5_9
-8.621008689264123697e-12
-9.375920599778147415e-12
-9.939648136770884815e-12
-1.020040944214941282e-11
-1.007182676816368754e-11
-9.421416568296086552e-12
-8.329360005668666277e-12
-6.968507820245355456e-12
-5.697424541066021226e-12
-4.797582564879300724e-12
-4.145250155189244486e-12
-3.268562261745207841e-12
-2.272541828559374101e-12
-1.799208438770457404e-12
-1.306928557310851401e-12
-9.499570671207696846e-13
-6.675494479620598208e-13
-4.874571968701210505e-13
-3.510288055955097862e-13
-2.549595657045728743e-13
-1.882925556332157195e-13
-1.414133742318221490e-13
-1.081446774865848468e-13
-8.395060135710166547e-14
-6.577118016815550509e-14
-5.167116626821978915e-14
-4.041732464759137430e-14
-3.126743012162773964e-14
-2.378764376072918855e-14
-1.771546396568063334e-14
-1.287032372265845787e-14
