# bin_13_12
-1.974655871902145297e-08
-2.207106864594042167e-08
-2.420238794076733196e-08
-2.591315226061311593e-08
-2.691744446769518562e-08
-2.697310218475211213e-08
-2.571832987705068456e-08
-2.314578480121401178e-08
-1.968933044804223763e-08
-1.612853578509776154e-08
-1.338843041655543802e-08
-1.158414264809964983e-08
-9.560510122888691116e-09
-6.762403631275868579e-09
-5.049882005245355911e-09
-3.933255639204551005e-09
-2.664022960750520431e-09
-1.953405127086297029e-09
-1.387872644606313915e-09
-9.682150999697877262e-10
-6.799979206540798011e-10
-4.820208942235909188e-10
-3.466910761776713592e-10
-2.535477737405008149e-10
-1.891276620814846880e-10
-1.435473586023746335e-10
-1.104709903045104097e-10
-8.569438556844759804e-11
-6.652064567402083022e-11
-5.130557766947256170e-11
-3.907150026238695113e-11
