# bin_18_1
-2.495575349204608207e-61
-2.785321187422674210e-61
-3.048887299775481775e-61
-3.257208512109225598e-61
-3.373878305635817631e-61
-3.369711709494976271e-61
-3.198255805274794725e-61
-2.865930322368679604e-61
-2.427248661226092072e-61
-1.986455009950658500e-61
-1.654669551982632227e-61
-1.432874966749427281e-61
-1.170663111115761322e-61
-8.211733615377788206e-62
-6.229634472238161695e-62
-4.769422140827069656e-62
-3.274734789730681849e-62
-2.362702109192178272e-62
-1.692941799214990569e-62
-1.184650774929554429e-62
-8.329203672117954005e-63
-5.926873662559102087e-63
-4.279939534537541101e-63
-3.144404259779983818e-63
-2.355627828742565454e-63
-1.794526284029885288e-63
-1.384757493184952397e-63
-1.075643480835411311e-63
-8.349709033995059135e-64
-6.431836568733190429e-64
-4.887035511726732259e-64
