# bin_4_1
-8.811702871883569970e-11
-8.991513512912916295e-11
-8.813053021272648332e-11
-8.181213917690207387e-11
-7.182682329044784488e-11
-5.985412981824884976e-11
-4.902510975626958351e-11
-4.144463411737804768e-11
-3.553911439555577842e-11
-2.759430598119853313e-11
-1.947570414932045202e-11
-1.545346153805310024e-11
-1.117790696321339828e-11
-8.262329504756541875e-12
-5.950219148744935152e-12
-4.399794603185317449e-12
-3.261757273721573854e-12
-2.454734894924185889e-12
-1.883073465482095112e-12
-1.469631572579492590e-12
-1.163134637822909585e-12
-9.275782857347596088e-13
-7.398561730551278881e-13
-5.859922543187743961e-13
-4.577784500094957225e-13
-3.506604300011661793e-13
-2.621565027424037904e-13
-1.907366378784115081e-13
-1.349288883615858286e-13
-9.293414818226940372e-14
-6.249191951468133775e-14
