# bin_4_2
-4.672802163432521961e-09
-4.818331877753732261e-09
-4.788738067168350281e-09
-4.521717636455110254e-09
-4.034709905957406457e-09
-3.406506623446234500e-09
-2.788202619830204259e-09
-2.327148754385285390e-09
-2.007841032382649711e-09
-1.625374434262300632e-09
-1.150463108277825034e-09
-8.816152462982721885e-10
-6.720934294026924452e-10
-4.768830781256765410e-10
-3.504888093726566277e-10
-2.579785164759059773e-10
-1.892946554840559149e-10
-1.411391093229051380e-10
-1.072275438341093466e-10
-8.297091158710731259e-11
-6.520824584627734532e-11
-5.179091851220198028e-11
-4.126773086308127693e-11
-3.275091909541803398e-11
-2.570903415012556094e-11
-1.983631790349082501e-11
-1.496579692400635954e-11
-1.100045740721559006e-11
-7.862305606954078868e-12
-5.467225680275815550e-12
-3.706779093734206591e-12
