# bin_18_14
-2.413378928160835856e-10
-2.724489634028867209e-10
-3.023805015156339873e-10
-3.286113151226276966e-10
-3.478151586511470693e-10
-3.560446154729608077e-10
-3.502318911199297906e-10
-3.258917152167008347e-10
-2.866546895331492852e-10
-2.387212653841865467e-10
-1.952923744581995288e-10
-1.654540856488186627e-10
-1.428808993439876434e-10
-1.105577137409183106e-10
-7.636243364713705951e-11
-6.142632870000857403e-11
-4.281386114805320432e-11
-3.158057706698232598e-11
-2.130601228941393369e-11
-1.507518100360824076e-11
-1.049452742403602706e-11
-7.298422081072516550e-12
-5.107007104804371634e-12
-3.608315766137482007e-12
-2.595253040919317073e-12
-1.903489645216909897e-12
-1.423068833664975251e-12
-1.082308753164396947e-12
-8.327215719128423100e-13
-6.436636103807060900e-13
-4.960900825856627381e-13
