# bin_17_20
-2.407693357787750183e-09
-2.731159671925359950e-09
-3.049120490685526991e-09
-3.337664553917768539e-09
-3.564670996510757545e-09
-3.689896753460982459e-09
-3.681893011659520307e-09
-3.488926182381318369e-09
-3.121409999045474393e-09
-2.638960360861724198e-09
-2.159323481294874463e-09
-1.802199921216736045e-09
-1.561922163644662444e-09
-1.270059865293636063e-09
-8.858306011221720534e-10
-6.763509280460156069e-10
-5.117378146742469889e-10
-3.511522494813070042e-10
-2.485360367381923298e-10
-1.765087013337654767e-10
-1.211031649299861005e-10
-8.280121309116395988e-11
-5.702341417515073877e-11
-3.960360011411766423e-11
-2.786285439186842793e-11
-1.997049595274937414e-11
-1.459879425343014702e-11
-1.089196680386988236e-11
-8.267514548587711061e-12
-6.348582025564015961e-12
-4.895862821032021182e-12
