# bin_18_15
-1.920494148232396852e-09
-2.170208395709228049e-09
-2.411495438877882505e-09
-2.624517810091641185e-09
-2.782942441284246312e-09
-2.854979531001550466e-09
-2.816701205659728955e-09
-2.630459277521641702e-09
-2.321595092902194791e-09
-1.938616628199110505e-09
-1.585340471629383940e-09
-1.339075741219821472e-09
-1.158249546239015173e-09
-9.055769020702463722e-10
-6.248195004106877968e-10
-4.987726745708961797e-10
-3.533702858744200378e-10
-2.571424090235875121e-10
-1.740155665981505828e-10
-1.238391699089211409e-10
-8.592247033113795409e-11
-5.950018785756096547e-11
-4.151480444222307418e-11
-2.923220225776662038e-11
-2.093601555645006335e-11
-1.528947652375215645e-11
-1.138448973344347189e-11
-8.630310549942829342e-12
-6.626265437780545482e-12
-5.118036553471028270e-12
-3.946835110679835690e-12
