# bin_18_13
-1.510663326476939716e-11
-1.703682838105469600e-11
-1.888566690336933774e-11
-2.049348149008522425e-11
-2.165105695392909043e-11
-2.211531744882444393e-11
-2.168825722560239704e-11
-2.010748644088396271e-11
-1.762560918752992269e-11
-1.464096990504267225e-11
-1.198438834101425809e-11
-1.018368001969735353e-11
-8.774999734319652427e-12
-6.719507274500035916e-12
-4.652394130580596306e-12
-3.765078087172864259e-12
-2.584449771726647831e-12
-1.928546544457706046e-12
-1.301641971608512661e-12
-9.149104834402301328e-13
-6.389716379313885116e-13
-4.460749890943188259e-13
-3.130280447698879081e-13
-2.219420279030988758e-13
-1.603029812876414010e-13
-1.180705747363152018e-13
-8.861338229695022650e-14
-6.759867661429613057e-14
-5.210593483559383136e-14
-4.029704147789810721e-14
-3.103511629367373784e-14
