# bin_19_18
-1.777581620914328802e-08
-2.016195998337179957e-08
-2.250641429953453013e-08
-2.463249231943555635e-08
-2.630284106196356330e-08
-2.722021604983220982e-08
-2.715332785604330989e-08
-2.572012727010129924e-08
-2.300240570595613226e-08
-1.944004201174418546e-08
-1.590589972238004289e-08
-1.327947346419054037e-08
-1.150924720394827707e-08
-9.349775854822318906e-09
-6.517255245843066726e-09
-4.982840053371139169e-09
-3.763943144451676014e-09
-2.586350189701573176e-09
-1.827635832195749636e-09
-1.298793768184978857e-09
-8.913351277605830925e-10
-6.095131318680397435e-10
-4.199139818968000020e-10
-2.917467771500467322e-10
-2.053568222866770348e-10
-1.472657617704365667e-10
-1.077118465892208755e-10
-8.040179387599236861e-11
-6.105182443267756813e-11
-4.689195682426874673e-11
-3.616395444147253786e-11
