# bin_16_1
-1.829375452685223157e-53
-2.029401133195599152e-53
-2.204927180883126883e-53
-2.333791930829016505e-53
-2.389650264344897881e-53
-2.351981231812905575e-53
-2.190640435185186187e-53
-1.928737724683824681e-53
-1.607700063388138801e-53
-1.314834014215613458e-53
-1.112086335637212364e-53
-9.602455037082984501e-54
-7.466328250590326644e-54
-5.169396611769097061e-54
-4.144624478385670011e-54
-2.928737087512262873e-54
-2.158038836768390944e-54
-1.482064083528512192e-54
-1.066925217078260842e-54
-7.579387271054081838e-55
-5.409063754578991459e-55
-3.909110077905871525e-55
-2.866653070183442800e-55
-2.142919066217659470e-55
-1.630669168242881916e-55
-1.258023083912017767e-55
-9.788045299653644115e-56
-7.626000366869241614e-56
-5.907636814167007314e-56
-4.521202878763691416e-56
-3.400882010743234501e-56
