# bin_6_4
-4.837242775525512591e-09
-5.154581752737906966e-09
-5.325845674331480936e-09
-5.305194119888367540e-09
-5.021476487748389341e-09
-4.489629371890516968e-09
-3.795988871532840918e-09
-3.106244892760948441e-09
-2.589380943511199365e-09
-2.237713045933184985e-09
-1.820028771679361592e-09
-1.283912772001295766e-09
-9.799096982974088593e-10
-7.501025058324347781e-10
-5.261442272645107457e-10
-3.852458589415705027e-10
-2.815744783042183176e-10
-2.038639187893602679e-10
-1.496051453285275205e-10
-1.117292953999020553e-10
-8.498556840271383381e-11
-6.575466479790243515e-11
-5.157573958085175179e-11
-4.074351745082448520e-11
-3.219360763967913910e-11
-2.526598775125126514e-11
-1.956512205337777276e-11
-1.486621507117105811e-11
-1.103454370151912413e-11
-7.975786441711004286e-12
-5.608361991117203951e-12
