# bin_9_18
-6.113840784074049331e-20
-6.866403934941413690e-20
-7.573702985720283983e-20
-8.168170605565457143e-20
-8.563498405729432575e-20
-8.671564098949740594e-20
-8.395618783524414075e-20
-7.672464084522646813e-20
-6.630391018598314164e-20
-5.462358680074347342e-20
-4.491757716989590842e-20
-3.857233742469997865e-20
-3.273424792682663986e-20
-2.407058097633950218e-20
-1.708402334189778700e-20
-1.386661953425079211e-20
-9.199184760501257622e-21
-6.980558608871015199e-21
-4.810509801898946990e-21
-3.333985806458553125e-21
-2.341482711327661703e-21
-1.646066380061646325e-21
-1.168241413428940775e-21
-8.405235618050223692e-22
-6.169417717917288040e-22
-4.615119233076387816e-22
-3.511043526667955545e-22
-2.704730519005229298e-22
-2.095425030303586911e-22
-1.620711073251019168e-22
-1.242736048838301109e-22
