# bin_15_3
-1.904757748046268742e-36
-2.109889639113179313e-36
-2.288196655365275748e-36
-2.416430052009271986e-36
-2.467649249760652532e-36
-2.419712292494313168e-36
-2.243644768450674403e-36
-1.967030437952610897e-36
-1.634398789923818470e-36
-1.337510803378037687e-36
-1.135384835576353112e-36
-9.778968479844953955e-37
-7.508053125999976516e-37
-5.211280220935875897e-37
-4.211937120049181804e-37
-2.923381711832772751e-37
-2.185277174498679900e-37
-1.498908733380038018e-37
-1.072804819605207660e-37
-7.649566586186293711e-38
-5.482622486173948066e-38
-3.975262193148563393e-38
-2.925584345219754383e-38
-2.195315404099978295e-38
-1.676034475593114236e-38
-1.296229326862299298e-38
-1.009940577171399603e-38
-7.870278382195235385e-39
-6.091557004490409584e-39
-4.653575312948480088e-39
-3.491540934234045214e-39
