# bin_16_19
-2.158502202457388391e-09
-2.444095315570660927e-09
-2.722532832372151440e-09
-2.972004535072464860e-09
-3.163292255264662597e-09
-3.260230576216832930e-09
-3.235964428708351835e-09
-3.044985437219646406e-09
-2.706491337081790345e-09
-2.273967652250818244e-09
-1.859424003131329648e-09
-1.560769934876808196e-09
-1.352404296050311763e-09
-1.080113931698162959e-09
-7.471765092216186623e-10
-5.839876423374296032e-10
-4.285382231586278728e-10
-3.021302784337793941e-10
-2.082606499215048383e-10
-1.489003658518056194e-10
-1.026629081534322803e-10
-7.050493506676194213e-11
-4.887453118984346289e-11
-3.417114065334314830e-11
-2.425019367933119825e-11
-1.754243786525292786e-11
-1.294294792979416345e-11
-9.736311385259376670e-12
-7.435781857846325406e-12
-5.729379232445016006e-12
-4.420523968862661251e-12
