# bin_2_18
-6.523120950216199788e-54
-7.283754443534997961e-54
-7.977388149816971238e-54
-8.528315382944033610e-54
-8.841573978250011419e-54
-8.839802075229638205e-54
-8.401969959863557525e-54
-7.538997033233197578e-54
-6.393615205709885321e-54
-5.233839210562783011e-54
-4.354897300321215818e-54
-3.770440338710890434e-54
-3.090446934794979289e-54
-2.173031218363955245e-54
-1.640496611203271942e-54
-1.262882706778534463e-54
-8.632165627836396068e-55
-6.259955042875555171e-55
-4.474425226130228236e-55
-3.127980388927237022e-55
-2.198289345159728223e-55
-1.562361286245212618e-55
-1.126840497229660787e-55
-8.267193454232629478e-56
-6.185275890358253991e-56
-4.706747990858226946e-56
-3.629098865695602906e-56
-2.817901479562477880e-56
-2.187466134959887982e-56
-1.685706460084952382e-56
-1.281746468255144824e-56
