# bin_19_12
-1.389986704643610602e-14
-1.568173324982788428e-14
-1.739128399823672679e-14
-1.888224029832506023e-14
-1.996243603573662109e-14
-2.040671743900233005e-14
-2.003518758501661667e-14
-1.859980692363322922e-14
-1.632484600863180924e-14
-1.357280616629340654e-14
-1.110737884156793329e-14
-9.428231025969773119e-15
-8.131290815104305843e-15
-6.250346245020781134e-15
-4.322945671512213773e-15
-3.491547702121495590e-15
-2.409587209539807620e-15
-1.791071847042083398e-15
-1.208155647227253203e-15
-8.512495506600186791e-16
-5.938421873729471496e-16
-4.140334343547014923e-16
-2.902402168150165641e-16
-2.055186100956697606e-16
-1.482126628308257665e-16
-1.089984062567383756e-16
-8.169023920307388771e-17
-6.225008918683103315e-17
-4.795226229756293439e-17
-3.707870663890732483e-17
-2.856490476369961891e-17
