# bin_12_6
-2.776338591282341842e-15
-3.061125913923039254e-15
-3.300939138815301421e-15
-3.461135105299260464e-15
-3.505969411864362861e-15
-3.397223428267032911e-15
-3.108129949303091768e-15
-2.689268965379360648e-15
-2.216987940777888772e-15
-1.821603731166847529e-15
-1.561626181363690824e-15
-1.327087280283657156e-15
-9.816454925928381896e-16
-6.961602320521661425e-16
-5.655147793995360594e-16
-3.799371176061850592e-16
-2.894442983591028463e-16
-2.016375424533653117e-16
-1.425623271706618560e-16
-1.022918437493423562e-16
-7.387895895534109225e-17
-5.407866396358550969e-17
-4.023772496164013298e-17
-3.052064896049015418e-17
-2.351027178417995936e-17
-1.829831862651237065e-17
-1.430041856245546680e-17
-1.114011912657356243e-17
-8.593074886495877262e-18
-6.525565834024545116e-18
-4.856746855705281710e-18
