# bin_6_2
-1.271417264653727176e-12
-1.337593182526603003e-12
-1.360892914772374331e-12
-1.328091128732604947e-12
-1.225674502359717015e-12
-1.069865142127049614e-12
-8.870604710502189670e-13
-7.268077343850017109e-13
-6.179099852091122190e-13
-5.290328771120521752e-13
-4.031821917833214055e-13
-2.837593044117018047e-13
-2.287785757323196428e-13
-1.604130198308627003e-13
-1.208419670547521708e-13
-8.555695327298097738e-14
-6.259465632429771031e-14
-4.610163936771277704e-14
-3.438456089296987060e-14
-2.609218156754687216e-14
-2.013981716513968879e-14
-1.578844388760219961e-14
-1.249487674372507042e-14
-9.912450733038808408e-15
-7.827462473629467713e-15
-6.110340072177559607e-15
-4.687070442414522360e-15
-3.515379784707482469e-15
-2.568792573551749598e-15
-1.825719911257165056e-15
-1.262718910270831070e-15
