# bin_1_19
-3.717175609418430797e-65
-4.159772205028129284e-65
-4.568218979007755292e-65
-4.900136557557176736e-65
-5.102080248036135370e-65
-5.126484480980634839e-65
-4.906905998889647661e-65
-4.432548940339946735e-65
-3.785174513126911345e-65
-3.103954179916655225e-65
-2.569702371769595974e-65
-2.220545249424755128e-65
-1.847020354233101907e-65
-1.317538896996846652e-65
-9.708178206735509446e-66
-7.661393728529789069e-66
-5.141798900990272090e-66
-3.816388672065839231e-66
-2.690388018399332283e-66
-1.872525599886446193e-66
-1.314772991099346481e-66
-9.293418746479906850e-67
-6.661641897815795160e-67
-4.852664064358433434e-67
-3.605999428674261254e-67
-2.727866413641897988e-67
-2.094025174902942237e-67
-1.622128379454178354e-67
-1.258939466750684287e-67
-9.718788510266562347e-68
-7.414885020167115588e-68
