# bin_4_12
-9.144006962571863974e-22
-1.003814055538024283e-21
-1.076629802581463219e-21
-1.121186412317980286e-21
-1.126978236326821716e-21
-1.079682225177783014e-21
-9.763580426358213473e-22
-8.347783725983818750e-22
-6.848110231549559773e-22
-5.662709712005820539e-22
-4.886255554093643624e-22
-4.074087995706459327e-22
-2.923701273074131623e-22
-2.147023045018384455e-22
-1.704917886599975096e-22
-1.152213115225638181e-22
-8.643809408763111294e-23
-6.151691183913350871e-23
-4.358006368213807211e-23
-3.130172014015967536e-23
-2.272497055047742186e-23
-1.677806901246496536e-23
-1.260599715125360288e-23
-9.645018462565919496e-24
-7.479993075259909797e-24
-5.846847211219044666e-24
-4.575697519045948468e-24
-3.559361108475102997e-24
-2.734800355730567118e-24
-2.064435242154582968e-24
-1.524700712393267519e-24
