# bin_2_15
-1.513258210418484823e-42
-1.674413015733971483e-42
-1.813500813065179056e-42
-1.911954436307925157e-42
-1.948741014779021633e-42
-1.905644539963359048e-42
-1.761312673345846651e-42
-1.539393289794481279e-42
-1.276384856256940772e-42
-1.045228787996219267e-42
-8.895132940792092037e-43
-7.642863807356542961e-43
-5.815325544420630690e-43
-4.049418391698812064e-43
-3.285770329247286498e-43
-2.255326386612339360e-43
-1.699461991376569706e-43
-1.167762090424654415e-43
-8.322784113387154738e-44
-5.947941045755350795e-44
-4.273871219337992172e-44
-3.105945453140232662e-44
-2.291730599774968338e-44
-1.724261530386649201e-44
-1.319376680583726519e-44
-1.022087915970459262e-44
-7.970448979008663773e-45
-6.211494020826928317e-45
-4.804241045733180294e-45
-3.665188341632966443e-45
-2.744820032028327723e-45
