# bin_4_4
-7.422719024675939303e-08
-7.793061652321085673e-08
-7.910241329654758990e-08
-7.693573694199695101e-08
-7.073772776834711705e-08
-6.151908195941060750e-08
-5.089685644419112132e-08
-4.175017847314306575e-08
-3.558701262834705642e-08
-3.035391195210028031e-08
-2.290764738510242670e-08
-1.621242085220458771e-08
-1.308628817559002063e-08
-9.108980945433141220e-09
-6.893543306980135864e-09
-4.890232914263735466e-09
-3.572922661586367768e-09
-2.635923752300747958e-09
-1.970076930795337941e-09
-1.498252170505822206e-09
-1.158873759881669280e-09
-9.100186195417814192e-10
-7.209204905104967271e-10
-5.721039990575929756e-10
-4.515927628317704499e-10
-3.521563071329729244e-10
-2.696918724696598357e-10
-2.018533086786975337e-10
-1.471487418984040887e-10
-1.043282240593164228e-10
-7.199077780412428848e-11
