# bin_10_13
-9.234558326529735392e-10
-1.028736501204057776e-09
-1.123488750685500114e-09
-1.196806471262090794e-09
-1.235145213720603577e-09
-1.228195958163850897e-09
-1.158826791002065608e-09
-1.032683255603607671e-09
-8.698944483352543016e-10
-7.113703375093035064e-10
-5.953410631804720259e-10
-5.156613272463232742e-10
-4.153019856290340514e-10
-2.889475834938617501e-10
-2.236061310138358752e-10
-1.671192807970085906e-10
-1.171573550005834635e-10
-8.278160994823474919e-11
-5.978119239443303835e-11
-4.201188065770269019e-11
-2.962529785620599703e-11
-2.118860928161868820e-11
-1.537720262134004512e-11
-1.136155687809961996e-11
-8.556153692754403678e-12
-6.546589958860486746e-12
-5.067070408303882361e-12
-3.941275546958622687e-12
-3.058434719439636413e-12
-2.351624391839406597e-12
-1.781388102108888146e-12
