# bin_3_17
-1.317523192958756128e-43
-1.468133336814107304e-43
-1.603896243102703461e-43
-1.709281605163586087e-43
-1.764968768545469580e-43
-1.756181964526832616e-43
-1.658405505975509570e-43
-1.479057886382135484e-43
-1.246838667624223470e-43
-1.019697283337874151e-43
-8.527907138910792618e-44
-7.386854320585527045e-44
-5.962133660802219554e-44
-4.151889572627135944e-44
-3.204179872091729115e-44
-2.403380737630172231e-44
-1.679457188328598511e-44
-1.189995544642679656e-44
-8.587736733212640087e-45
-6.031243812070326778e-45
-4.250562614701813368e-45
-3.037903723589347965e-45
-2.203166771582370808e-45
-1.626538970995093775e-45
-1.224030215774643660e-45
-9.359927337479168139e-46
-7.241727464203293521e-46
-5.631886419626001421e-46
-4.370683419196649966e-46
-3.361563005708625656e-46
-2.547573811904241052e-46
