# bin_13_17
-1.868717848866029340e-10
-2.104586562279436951e-10
-2.329146302629765082e-10
-2.522333115640579456e-10
-2.658103208397008327e-10
-2.707262962503965535e-10
-2.643920731602165147e-10
-2.439304948883027382e-10
-2.128163558879548817e-10
-1.762308683039052317e-10
-1.444131177264413408e-10
-1.231826827997315467e-10
-1.057258136553206308e-10
-7.985202110296276173e-11
-5.558754620811169254e-11
-4.521951314887377910e-11
-3.051364157978843156e-11
-2.302549134393795865e-11
-1.561509360939025278e-11
-1.089031021032414178e-11
-7.631339177295069562e-12
-5.347337310646333662e-12
-3.766681691529983984e-12
-2.683521778364249851e-12
-1.949003564136331184e-12
-1.443371413214229005e-12
-1.088582290764463946e-12
-8.334873620397259988e-13
-6.438074589317482285e-13
-4.980829735807872146e-13
-3.831285103245945100e-13
