# bin_15_16
-1.841271625018842236e-08
-2.075654866681900159e-08
-2.299742674516101023e-08
-2.493978795718150074e-08
-2.632813265677115095e-08
-2.686855136608847995e-08
-2.631602518985440839e-08
-2.436099518947609939e-08
-2.132312729520991384e-08
-1.769445258698132678e-08
-1.448805948757294425e-08
-1.232615903048626431e-08
-1.060972946891676960e-08
-8.089461918660705432e-09
-5.608487883619524814e-09
-4.548215696925305671e-09
-3.103600637653348027e-09
-2.325621195623442437e-09
-1.571154569823395685e-09
-1.101349836552068468e-09
-7.701284665922378866e-10
-5.383847174080099992e-10
-3.782519500943533522e-10
-2.685833066126790832e-10
-1.943277200137961495e-10
-1.433777680249477456e-10
-1.077749137966465898e-10
-8.231435007289402661e-11
-6.349353761614415380e-11
-4.911176149142077794e-11
-3.781066158204168643e-11
