# bin_7_19
-1.664262577268346067e-29
-1.869052457519449784e-29
-2.061491398095868687e-29
-2.223180523680941389e-29
-2.330621690180984639e-29
-2.359854385847944800e-29
-2.284499830937125082e-29
-2.087475871853346799e-29
-1.803736690945529489e-29
-1.485900824033518655e-29
-1.221942388887302889e-29
-1.049406154467771076e-29
-8.904178886745169760e-30
-6.545371889005536426e-30
-4.647105378469743596e-30
-3.771278316342979806e-30
-2.501810641000522674e-30
-1.898261023008678913e-30
-1.308436141952521074e-30
-9.068337636238792699e-31
-6.368760697597845865e-31
-4.477391984968394426e-31
-3.177990321895971635e-31
-2.286782509477922257e-31
-1.678709785273125871e-31
-1.255934495451251014e-31
-9.555735628995600225e-32
-7.361747216018298831e-32
-5.703492243615872305e-32
-4.411324508315948638e-32
-3.382377497847859212e-32
