# bin_4_15
-4.166246978973606936e-31
-4.620502343543507349e-31
-5.018419319423568242e-31
-5.309452429338964098e-31
-5.433760367851848610e-31
-5.344384067759980837e-31
-4.973530571864397836e-31
-4.375406779329105827e-31
-3.644790423815118130e-31
-2.981082635384468979e-31
-2.523170826389144722e-31
-2.177841415209389218e-31
-1.689280146677147150e-31
-1.169850422384548011e-31
-9.396737286970249634e-32
-6.615842299623576047e-32
-4.889982255428108153e-32
-3.355605193140240629e-32
-2.413334046613450027e-32
-1.715709782698504789e-32
-1.225505608084328556e-32
-8.862359126995558406e-33
-6.503412153653051256e-33
-4.865115011571358401e-33
-3.704527471446069991e-33
-2.859366873843412368e-33
-2.225373152276503423e-33
-1.733925944835320663e-33
-1.343020708796760334e-33
-1.027493804294948458e-33
-7.725196844541731307e-34
