# bin_10_16
-1.112505146569738393e-13
-1.246486465768316617e-13
-1.370920246655147540e-13
-1.473250828298760719e-13
-1.537590740630627482e-13
-1.549098235690219116e-13
-1.488518109876450500e-13
-1.349777701303199039e-13
-1.157213853396285581e-13
-9.501878415348503110e-14
-7.846645945749639129e-14
-6.768921095187120165e-14
-5.671959811980499364e-14
-4.084189545230187454e-14
-2.969576700678424234e-14
-2.371474045508200050e-14
-1.580188157126410860e-14
-1.185144238364798502e-14
-8.289507299730320571e-15
-5.757399069930208100e-15
-4.042467742041505764e-15
-2.850364564259320353e-15
-2.036170731557463841e-15
-1.477140024228702070e-15
-1.093253815484126569e-15
-8.240682964076463664e-16
-6.308237279562060343e-16
-4.878689663937097161e-16
-3.784916414506307607e-16
-2.924236635189409229e-16
-2.235026053293409550e-16
