# bin_17_19
-8.246065047397196705e-09
-9.345141296816328080e-09
-1.042085514588666619e-08
-1.139060231593163410e-08
-1.214349502331858600e-08
-1.254132348710215833e-08
-1.247968181683279565e-08
-1.178208206346559848e-08
-1.050478074265270968e-08
-8.851461833067072016e-09
-7.239566391657612768e-09
-6.060352265283656489e-09
-5.252577312636210428e-09
-4.231987563849158702e-09
-2.936952139237910536e-09
-2.270857065200762327e-09
-1.691292333027910035e-09
-1.176521530239676594e-09
-8.206583723430180515e-10
-5.856134878574723908e-10
-4.027952887875708767e-10
-2.759099010626525673e-10
-1.906767054365855254e-10
-1.328964550707361466e-10
-9.392774379379849968e-11
-6.765376633456469822e-11
-4.970210493821062979e-11
-3.724808534264873807e-11
-2.836893870070832443e-11
-2.182683246457707355e-11
-1.683886335068774082e-11
