# bin_4_8
-4.812693967874977241e-12
-5.189091321100744923e-12
-5.442009380210598283e-12
-5.515131861176731156e-12
-5.349744040310544132e-12
-4.901953504024421623e-12
-4.248183050081992181e-12
-3.506067364207027665e-12
-2.878876055637691964e-12
-2.462658835430903891e-12
-2.095164712924412342e-12
-1.561423227248672389e-12
-1.107344661123873243e-12
-8.978351141939980853e-13
-6.128159103179566858e-13
-4.665097835317567911e-13
-3.281908677323906719e-13
-2.361833489419593314e-13
-1.722269772755184150e-13
-1.269006566281160464e-13
-9.499366505164184885e-14
-7.232703163605750422e-14
-5.601957920253630532e-14
-4.389839044609458207e-14
-3.458055923038728469e-14
-2.719711045532677518e-14
-2.120581896122745860e-14
-1.629177108017612963e-14
-1.226902155443001136e-14
-9.020297837225378052e-15
-6.458167209772977162e-15
