# bin_17_15
-7.664128657786206920e-09
-8.650381514926812187e-09
-9.598406852544868278e-09
-1.042795467705550991e-08
-1.103328814051698834e-08
-1.128939508964219947e-08
-1.109836946485456138e-08
-1.031946674814796777e-08
-9.070753884407094482e-09
-7.549918390578773709e-09
-6.176997619749970822e-09
-5.236436563765197670e-09
-4.520334806040790125e-09
-3.490316501267043126e-09
-2.411574036729663262e-09
-1.942646297215855400e-09
-1.349586031773418970e-09
-9.981162880563326439e-10
-6.731712174780310736e-10
-4.756828240696148813e-10
-3.313731358237522289e-10
-2.306510545678865038e-10
-1.614897276227738209e-10
-1.141788367132638839e-10
-8.219256522708572894e-11
-6.033624962703459056e-11
-4.514418885663222900e-11
-3.435607689548509169e-11
-2.644391724439668408e-11
-2.044287364898659934e-11
-1.575388666061951284e-11
