# bin_1_17
-5.869266431416224467e-78
-6.531716765555302577e-78
-7.124357319010386519e-78
-7.577364634809391519e-78
-7.804506324720892099e-78
-7.741609722744442415e-78
-7.280689458878854361e-78
-6.468435536203820624e-78
-5.432898113139964810e-78
-4.441401552061774279e-78
-3.726826469211369441e-78
-3.227786174250207731e-78
-2.578017660191048240e-78
-1.786787415105877827e-78
-1.397981247931166780e-78
-1.030323271907020540e-78
-7.314260120132674171e-79
-5.108508159011896086e-79
-3.701745571454709837e-79
-2.607957885304224241e-79
-1.842969053410081966e-79
-1.321943158994457818e-79
-9.619992449120011050e-80
-7.129872255047191499e-80
-5.384548299772491822e-80
-4.129453866625893026e-80
-3.201236819533025647e-80
-2.491618338724376925e-80
-1.933027036655596513e-80
-1.484744521926896340e-80
-1.122813070559950905e-80
