# bin_11_6
-5.132375359224488233e-15
-5.639972761187604370e-15
-6.056726560234805176e-15
-6.317549021092786583e-15
-6.361846415790972371e-15
-6.110756957829381059e-15
-5.539840065998445958e-15
-4.748722341541980055e-15
-3.898522588785120697e-15
-3.218072239901423388e-15
-2.774238976980698860e-15
-2.324857232225972382e-15
-1.677686837453206181e-15
-1.221305198362578573e-15
-9.778175473028396282e-16
-6.571075400116888395e-16
-4.964965747892785945e-16
-3.516507967851800600e-16
-2.487470278312967230e-16
-1.786206467192539227e-16
-1.294620093478026107e-16
-9.539883898780418482e-17
-7.152862364318298456e-17
-5.463077250878898525e-17
-4.231179201995010521e-17
-3.304833041840482993e-17
-2.586007395502849463e-17
-2.012551312268047821e-17
-1.547846975720477165e-17
-1.170077291264053057e-17
-8.656888842856060113e-18
