# bin_10_6
-1.097836486354658872e-12
-1.202315995361971632e-12
-1.285709311839331277e-12
-1.333837265036085810e-12
-1.334888166727676015e-12
-1.270906909625548299e-12
-1.142309986671093536e-12
-9.705520622173569876e-13
-7.947131365177249886e-13
-6.599464481874854168e-13
-5.707508130091642315e-13
-4.700296262759366498e-13
-3.326429155813527438e-13
-2.495613496184053071e-13
-1.943040203324433765e-13
-1.330618941224560423e-13
-9.813148226409444253e-14
-7.068158208890350135e-14
-5.024466898595859243e-14
-3.611501712913978919e-14
-2.632448614029828273e-14
-1.952762683116007945e-14
-1.474609189150760334e-14
-1.133106980923884288e-14
-8.815752960689928264e-15
-6.903753332997398896e-15
-5.404562532157055681e-15
-4.199480318493919476e-15
-3.219035363007879289e-15
-2.421749495022531494e-15
-1.780984169842982403e-15
