# bin_16_17
-1.910975206941328205e-08
-2.159347592083820299e-08
-2.399278686009488330e-08
-2.611021035683345841e-08
-2.768359896202227477e-08
-2.839642478788126608e-08
-2.801128404486422471e-08
-2.615344153314808128e-08
-2.307775665744884341e-08
-1.926640322691907574e-08
-1.575470762967772554e-08
-1.330991641138635245e-08
-1.151339209566736974e-08
-8.995639133650866086e-09
-6.204154016772761089e-09
-4.957911295509152388e-09
-3.508003481925794832e-09
-2.556390115381760701e-09
-1.727318842313985640e-09
-1.229618587168967389e-09
-8.532750717967115994e-10
-5.910539611669110333e-10
-4.124900415266616629e-10
-2.905126651951302980e-10
-2.081260219530702703e-10
-1.520405481153300758e-10
-1.132433978404437470e-10
-8.587046189027803792e-11
-6.594408331505583315e-11
-5.094060841879163355e-11
-3.928482806965339697e-11
