# bin_1_12
-4.882401527989154562e-49
-5.328102075099832993e-49
-5.672493442407447603e-49
-5.851691155720216394e-49
-5.816991172286939488e-49
-5.487716858160087847e-49
-4.890146316421367532e-49
-4.119511837687571294e-49
-3.368153746635792842e-49
-2.816827675013670096e-49
-2.438437771689386032e-49
-1.966143550847207749e-49
-1.371929973267626252e-49
-1.061492210062348699e-49
-7.981559456326645334e-50
-5.626792841233197632e-50
-4.026985411987819276e-50
-2.940314980649216800e-50
-2.103361848870363761e-50
-1.517344116334948371e-50
-1.113741016718039247e-50
-8.316696668153376304e-51
-6.323327066782711722e-51
-4.886296193242778767e-51
-3.816730468527951577e-51
-2.994955528307188714e-51
-2.344292019492321807e-51
-1.817839114022344111e-51
-1.388225400232767234e-51
-1.039029600947614248e-51
-7.593153908243247670e-52
