# bin_1_2
-5.600272306589117900e-08
-5.537385165156284189e-08
-5.197487677027896480e-08
-4.612811970753376378e-08
-3.877894672829236347e-08
-3.174431800392496376e-08
-2.659773881928813181e-08
-2.290013348575844243e-08
-1.830319490041091299e-08
-1.296060193057113452e-08
-1.004977674128384218e-08
-7.550662785611076740e-09
-5.451750449930741466e-09
-4.001001788959942440e-09
-2.968259274897008177e-09
-2.206962796639446889e-09
-1.670119712076826113e-09
-1.288712444103408411e-09
-1.012140860950065620e-09
-8.057474407474802145e-10
-6.460281835135993201e-10
-5.176692982800268256e-10
-4.115423257907179993e-10
-3.224104805771274746e-10
-2.474504700161805663e-10
-1.852149499906923575e-10
-1.348534043592447262e-10
-9.545324861962476817e-11
-6.579351059375111936e-11
-4.428499271605388038e-11
-2.920824462637692513e-11
