# bin_3_14
-9.302306486647351912e-43
-1.026901191782103570e-42
-1.109015146754773790e-42
-1.165032540679785291e-42
-1.182606140605183445e-42
-1.149534036871067424e-42
-1.055205096358181852e-42
-9.160609967957651453e-43
-7.563850333357084673e-43
-6.205615475421442706e-43
-5.308598193545312548e-43
-4.532200592152222815e-43
-3.382436551886002585e-43
-2.378597178579424000e-43
-1.939069889787951871e-43
-1.305150883432778553e-43
-9.955290313273044034e-44
-6.894812343892721885e-44
-4.876555121622507834e-44
-3.497937081598355581e-44
-2.523837641071319980e-44
-1.843097257170674673e-44
-1.367591672139432064e-44
-1.034698616608589746e-44
-7.954140561962101971e-45
-6.182377352980867249e-45
-4.829057649103398805e-45
-3.762963252896977969e-45
-2.905566564198807726e-45
-2.210048181606977072e-45
-1.648337844328477749e-45
