# bin_8_8
-4.645636991294809603e-08
-5.084263484240724394e-08
-5.432264216282162411e-08
-5.629451945105239412e-08
-5.626666623875449662e-08
-5.347500591613378161e-08
-4.798367640825693422e-08
-4.069997752477759796e-08
-3.331425156449129081e-08
-2.770143128785306566e-08
-2.396520646371065463e-08
-1.965979033892175918e-08
-1.386989559026030490e-08
-1.046842303578156584e-08
-8.098773876559260826e-09
-5.574215005406612820e-09
-4.087847178394690123e-09
-2.953128390919936697e-09
-2.101676517383844374e-09
-1.511429382279920648e-09
-1.103128927114831128e-09
-8.193763004292227551e-10
-6.195866160873676315e-10
-4.766382259918792755e-10
-3.711355284296591435e-10
-2.907689620316329664e-10
-2.276301942825871170e-10
-1.768090626240755083e-10
-1.354341670436437545e-10
-1.017898620223799298e-10
-7.476670091040401541e-11
