# bin_7_8
-2.478570430203711864e-08
-2.703456700904695492e-08
-2.876379977881304682e-08
-2.964915461254985784e-08
-2.944412874248190695e-08
-2.774218992972807432e-08
-2.469217778935536089e-08
-2.077868656927163620e-08
-1.698786476814225662e-08
-1.422163866419035754e-08
-1.230934195866761723e-08
-9.892719632242376566e-09
-6.896692268061869992e-09
-5.356342572129993185e-09
-4.006558308605454950e-09
-2.838024177321555775e-09
-2.024134384583561825e-09
-1.478610145735149583e-09
-1.058779785816753496e-09
-7.645625908085466663e-10
-5.617372196036879342e-10
-4.198443929235062311e-10
-3.195077219120350614e-10
-2.470780849139583151e-10
-1.930905116099470798e-10
-1.515494205296650565e-10
-1.186160507049740160e-10
-9.194822758719074724e-11
-7.017889785057677001e-11
-5.248706305167392321e-11
-3.832325233642154757e-11
