# bin_8_12
-3.680597178657044120e-12
-4.075543431485064274e-12
-4.418051115988209311e-12
-4.663116303804827164e-12
-4.758855866204666319e-12
-4.662222532903391011e-12
-4.318172221785219134e-12
-3.781821508366502344e-12
-3.139635441584051531e-12
-2.569614946878690932e-12
-2.183361593616581189e-12
-1.879582437454934558e-12
-1.438382537809849848e-12
-9.987231231103468821e-13
-8.092005198408543503e-13
-5.587459912989732982e-13
-4.195002003304748551e-13
-2.875168115639225526e-13
-2.054316543187924815e-13
-1.466459021739028132e-13
-1.052413988040886365e-13
-7.637207571752625121e-14
-5.625700480189398677e-14
-4.225608634571856843e-14
-3.228836531665689403e-14
-2.498778506714124284e-14
-1.947632839879037428e-14
-1.517880410505674878e-14
-1.174606487140778275e-14
-8.969415423783009045e-15
-6.725485478350687859e-15
