# bin_13_13
-3.220600446765881344e-08
-3.605814500436844760e-08
-3.962209956387648103e-08
-4.253214221158716814e-08
-4.432662807230695200e-08
-4.458646068942716862e-08
-4.274126764078765195e-08
-3.866449553620303399e-08
-3.306619350511825637e-08
-2.712517414770757957e-08
-2.243253468588282812e-08
-1.937631402057867713e-08
-1.616647336865394701e-08
-1.156686624756592823e-08
-8.479756029426080567e-09
-6.727424393711729220e-09
-4.497311432108143425e-09
-3.354882456869409755e-09
-2.357906524749523410e-09
-1.639541504621348862e-09
-1.151042858621477980e-09
-8.126191955476295105e-10
-5.817154727691226719e-10
-4.230956895049559245e-10
-3.139330963314766029e-10
-2.371743064553230265e-10
-1.818853367175762352e-10
-1.408213841885033550e-10
-1.092852071267871913e-10
-8.439819601439144955e-11
-6.443847662650973504e-11
