# bin_16_1
-2.895298087352324151e-72
-3.211853093188929555e-72
-3.489617359189495863e-72
-3.693506730266946102e-72
-3.781724051580743453e-72
-3.722017358803417652e-72
-3.466388318289750332e-72
-3.051722931253045167e-72
-2.543279126520922675e-72
-2.079740365931185707e-72
-1.759243348417688251e-72
-1.519473232592011177e-72
-1.181015098079847789e-72
-8.170145734490342692e-73
-6.559112085406730288e-73
-4.629224966042100701e-73
-3.416472648962522827e-73
-2.341261616597474685e-73
-1.686404895845042997e-73
-1.198247556027361426e-73
-8.553817967688437774e-74
-6.182783802001261093e-74
-4.534401784833113077e-74
-3.390090759002092465e-74
-2.580062549420193537e-74
-1.990706721483973781e-74
-1.549036501774355920e-74
-1.206969381861835088e-74
-9.350441514443962581e-75
-7.156086175038500519e-75
-5.382739123569246505e-75
