# bin_14_2
-4.122851661409238591e-51
-4.545321602984907777e-51
-4.900818699014860246e-51
-5.137878373397097605e-51
-5.203514792496183227e-51
-5.040705176340964948e-51
-4.609979535156807943e-51
-3.987208466827200038e-51
-3.285918033938641322e-51
-2.699888849547872635e-51
-2.315461323683262292e-51
-1.967526113207916320e-51
-1.453439942031136293e-51
-1.030701882734914361e-51
-8.385390881314616454e-52
-5.617965407610398922e-52
-4.288758822819557852e-52
-2.989118950797303880e-52
-2.111114782187154692e-52
-1.515315325164150786e-52
-1.094622936719285989e-52
-8.014580016013680615e-53
-5.965135124756721881e-53
-4.526077354245500802e-53
-3.487444154845224870e-53
-2.714901928795323022e-53
-2.122012976017736104e-53
-1.653120160865016737e-53
-1.275089368685352685e-53
-9.681756562784207813e-54
-7.204381636319349713e-54
