# bin_6_5
-2.927146927801649424e-08
-3.136458416688917082e-08
-3.263446668170424167e-08
-3.277816861909403663e-08
-3.138040580208467454e-08
-2.836371498349603969e-08
-2.424221513266861523e-08
-1.988610660648916020e-08
-1.644262879448509540e-08
-1.417653283734393080e-08
-1.181181294998393045e-08
-8.497995159065186818e-09
-6.253817047342456989e-09
-4.968852593521666056e-09
-3.390272108740548250e-09
-2.555206979644235510e-09
-1.837317423659644214e-09
-1.321557141079151421e-09
-9.664337929779338226e-10
-7.166906851652452347e-10
-5.412408632537955788e-10
-4.158718562584263900e-10
-3.245097163996972554e-10
-2.555656290853480881e-10
-2.017711113264321139e-10
-1.585871979473774221e-10
-1.232392566891030132e-10
-9.414266604680765486e-11
-7.035406213963713505e-11
-5.124808705442076006e-11
-3.632581199251184878e-11
