# bin_20_2
-1.806583077103877511e-83
-2.027123120583358611e-83
-2.233480547191029618e-83
-2.405519534317932506e-83
-2.517629919732903264e-83
-2.544526976648180291e-83
-2.456432135957674483e-83
-2.237971451455613951e-83
-1.927979292104917563e-83
-1.585994320154785481e-83
-1.306078234539039507e-83
-1.123830258725504716e-83
-9.494889097047718530e-84
-6.921503999138570560e-84
-4.954503470625908319e-84
-4.005098004852391812e-84
-2.653686205269273491e-84
-2.009706425995845003e-84
-1.392952167309366881e-84
-9.654378531536926348e-85
-6.780261024824368634e-85
-4.770041273286256232e-85
-3.393854526670841411e-85
-2.449785584330768657e-85
-1.804167628629099145e-85
-1.353845425508702912e-85
-1.032645496743517571e-85
-7.968742517401128752e-86
-6.178068854392517442e-86
-4.777105658231023944e-86
-3.658775244272858642e-86
