# bin_11_1
-2.735557165089554290e-43
-2.969458301893361395e-43
-3.140543234304708914e-43
-3.213577603075166482e-43
-3.160927107907657289e-43
-2.942528269719940810e-43
-2.589623976085300332e-43
-2.158007014412972582e-43
-1.764515376612782164e-43
-1.491783179812613773e-43
-1.287284872958134667e-43
-1.001582807146242181e-43
-6.954286882370181115e-44
-5.578323514219629277e-44
-3.968623072060263959e-44
-2.938622078616165900e-44
-2.045961368930888975e-44
-1.492159060116264516e-44
-1.079253533142210945e-44
-7.875343080899370832e-45
-5.838552914809878987e-45
-4.400943087447796797e-45
-3.377804825985048617e-45
-2.629562453517464856e-45
-2.063932255796294793e-45
-1.622635922540929696e-45
-1.268689853042690590e-45
-9.800670742397907647e-46
-7.438801268910516135e-46
-5.522828264012784762e-46
-3.997643840638947416e-46
