# bin_14_17
-7.210724385667250086e-10
-8.130408696453069850e-10
-9.010530901734221567e-10
-9.774702570168397674e-10
-1.032296347086518630e-09
-1.053956422204558470e-09
-1.032962852294244155e-09
-9.569346975066571613e-10
-8.382130684408028749e-10
-6.958626193007931222e-10
-5.696463315666012716e-10
-4.843773082523161000e-10
-4.172318293475525028e-10
-3.187627972197551333e-10
-2.207635593651005020e-10
-1.789603989469044649e-10
-1.223749441553920277e-10
-9.161090757205238598e-11
-6.181292901616546981e-11
-4.337939280976296216e-11
-3.032780655478430505e-11
-2.119938730255293166e-11
-1.488976224764119093e-11
-1.056828701397163982e-11
-7.642812074808219519e-12
-5.636383959290153629e-12
-4.235065538396574822e-12
-3.233666635568439940e-12
-2.493988338315488819e-12
-1.929158174623532643e-12
-1.485520250065381052e-12
