# bin_2_5
-1.962214246920478156e-11
-2.045115386371201787e-11
-2.058630546478860798e-11
-1.978165186831740140e-11
-1.795443264898099566e-11
-1.541391801972036857e-11
-1.267026801402271425e-11
-1.045075221413575869e-11
-8.979411940900317670e-12
-7.530712335041490037e-12
-5.497487070978098179e-12
-4.000574792318159980e-12
-3.201542821601837558e-12
-2.201833170132542053e-12
-1.671316308407673243e-12
-1.202984807361470368e-12
-8.762055829695553493e-13
-6.496239740424553242e-13
-4.890047217274863287e-13
-3.747924695577160923e-13
-2.920398835863890256e-13
-2.306239403494485216e-13
-1.832942288400108893e-13
-1.455618651250762305e-13
-1.146950247335880779e-13
-8.907386012424375472e-14
-6.779987901515766741e-14
-5.035752248728163800e-14
-3.639345179568036830e-14
-2.557872636470956476e-14
-1.750804212340135841e-14
