# bin_18_16
-6.165900953883981351e-09
-6.974872150618038944e-09
-7.760101412901278497e-09
-8.458643157203528248e-09
-8.986454612779796059e-09
-9.240518630389327189e-09
-9.144920215396606758e-09
-8.573028595988793676e-09
-7.593316546916535098e-09
-6.359619173222722375e-09
-5.199518698903945001e-09
-4.377855433965991198e-09
-3.791433328528022332e-09
-2.996862951204441186e-09
-2.067779178998778659e-09
-1.635165146682761472e-09
-1.179221189227169615e-09
-8.448437908078397638e-10
-5.754547932853942507e-10
-4.114933489721247177e-10
-2.845837851189691694e-10
-1.962044954030591292e-10
-1.365088217493477121e-10
-9.581174634849997084e-11
-6.833452097125558084e-11
-4.969102629342596880e-11
-3.684913530064724535e-11
-2.784079628938319031e-11
-2.132847765617106208e-11
-1.645935810498384555e-11
-1.269863165728352777e-11
