# bin_1_1
-1.878628602933652170e-07
-1.815699629901350064e-07
-1.660219674312398676e-07
-1.436684454837076798e-07
-1.187243981910876280e-07
-9.768651222010722530e-08
-8.332779821971748636e-08
-7.037835267397815017e-08
-5.278655172338782292e-08
-3.802639006832508327e-08
-3.029931837642951602e-08
-2.146957548536882439e-08
-1.618610441298113760e-08
-1.175727104475297520e-08
-8.749942608375391142e-09
-6.600639217558229324e-09
-5.067185962886941762e-09
-3.963672298889623902e-09
-3.148034989941871158e-09
-2.525573199516447774e-09
-2.031126397797464824e-09
-1.625062739773000315e-09
-1.284393437596774349e-09
-9.965212571216563306e-10
-7.551707969624413500e-10
-5.570283183463830831e-10
-3.994503259141554498e-10
-2.787014579468297409e-10
-1.896577866365097128e-10
-1.262839311244108108e-10
-8.255666707427951901e-11
