# bin_20_9
-7.307860537731303015e-31
-8.234684410166478779e-31
-9.119165798112010398e-31
-9.883313624835945497e-31
-1.042553099070064979e-30
-1.063000493975326777e-30
-1.039821572842335124e-30
-9.611013738638604773e-31
-8.400210865202897197e-31
-6.963305715958921323e-31
-5.702977903622710078e-31
-4.858094507714031517e-31
-4.177469546233889861e-31
-3.171027206866435774e-31
-2.201101336074703572e-31
-1.789324070946943239e-31
-1.213045527843741618e-31
-9.133733900168477196e-32
-6.176211767697239399e-32
-4.316351545521190188e-32
-3.023197318658663387e-32
-2.117389052201013842e-32
-1.489846569752716481e-32
-1.059833500284301633e-32
-7.684607410545621566e-33
-5.681833164679579367e-33
-4.279151221246924524e-33
-3.273083886780778878e-33
-2.526952389586000566e-33
-1.955056079839519357e-33
-1.504628972759591156e-33
