# bin_19_8
-2.385359856448338595e-32
-2.681042785095681366e-32
-2.959976939998046538e-32
-3.195989429413588930e-32
-3.355527230185148980e-32
-3.403351632485363417e-32
-3.303061622613599077e-32
-3.026233344289083513e-32
-2.621950610539975804e-32
-2.162620381845991600e-32
-1.776152977036494552e-32
-1.522757630694304488e-32
-1.297138841629358347e-32
-9.605470333698384928e-33
-6.769105231562636509e-33
-5.514700205724994073e-33
-3.660489015210187207e-33
-2.783462890695883638e-33
-1.909346618219284712e-33
-1.323117372546900952e-33
-9.294876921616768673e-34
-6.532100150496537896e-34
-4.627706379163528576e-34
-3.321607984680838985e-34
-2.432091474082152420e-34
-1.815212144171622944e-34
-1.378327551192721836e-34
-1.060463106690094260e-34
-8.211595774100643760e-35
-6.352931370463222218e-35
-4.875799812016732017e-35
