# bin_9_19
-1.599475192783157929e-27
-1.799354861732711712e-27
-1.988700268809339257e-27
-2.150123588944240206e-27
-2.261220422744572005e-27
-2.297703559444149895e-27
-2.236261716395958249e-27
-2.055122791688642489e-27
-1.786059321907477883e-27
-1.475555181512533430e-27
-1.210461682995436421e-27
-1.035556804071124188e-27
-8.854454722782482213e-28
-6.613569197400826118e-28
-4.630397561246503055e-28
-3.776114527820551723e-28
-2.518929281751976001e-28
-1.913063677153003008e-28
-1.305037073649657738e-28
-9.057261081131401153e-29
-6.360133654685464646e-29
-4.466688664600091994e-29
-3.156896081942437513e-29
-2.258760118966986688e-29
-1.648319930397926654e-29
-1.226319245284556124e-29
-9.286291353954879515e-30
-7.131181612320614548e-30
-5.517028587662718851e-30
-4.268844754495153785e-30
-3.279733578963308404e-30
