# bin_19_5
-2.183754396286102404e-51
-2.448653881441596818e-51
-2.695660729260376256e-51
-2.900288729578727438e-51
-3.031481300966979627e-51
-3.059349752755461123e-51
-2.946943108737415259e-51
-2.678783063569052151e-51
-2.302383276263205430e-51
-1.892133543439717272e-51
-1.560118483540652921e-51
-1.344236613570457864e-51
-1.131493914092859952e-51
-8.197260656125896866e-52
-5.910509255083281285e-52
-4.754491138164061429e-52
-3.155077235794249497e-52
-2.381118230880739110e-52
-1.657647616842328871e-52
-1.149950960675589849e-52
-8.076364959598398305e-53
-5.687718179311395976e-53
-4.055466606600202250e-53
-2.935260599080338509e-53
-2.167536097179140529e-53
-1.630534597217588557e-53
-1.246183192524284852e-53
-9.628782514189193766e-54
-7.468426021590958776e-54
-5.772814136207221052e-54
-4.416791651059473530e-54
