# bin_9_6
-9.361959992045385070e-11
-1.021598882283887669e-10
-1.087556612051391929e-10
-1.121839530523478356e-10
-1.115053219498694028e-10
-1.051837828213013273e-10
-9.372312121706196297e-11
-7.895472130877424502e-11
-6.455982280002964507e-11
-5.399522885203491406e-11
-4.673295588710570190e-11
-3.766626789020570819e-11
-2.630316538936717874e-11
-2.034651991660853014e-11
-1.529260819148044962e-11
-1.078874037675695075e-11
-7.727307228755318527e-12
-5.635756977120357220e-12
-4.032758939749940623e-12
-2.911095900126962976e-12
-2.137305326043955283e-12
-1.596465490587432433e-12
-1.214168186231686177e-12
-9.384539048124496979e-13
-7.331469146908228864e-13
-5.753292705999421993e-13
-4.503253633237598687e-13
-3.491609425721186761e-13
-2.665982618673976238e-13
-1.994932163899819261e-13
-1.457501854369759510e-13
