# bin_14_9
-7.825724164200390595e-14
-8.721784942181451137e-14
-9.530282812027852200e-14
-1.015906119593374416e-13
-1.049323390355075910e-13
-1.044522252868531716e-13
-9.868376767092411645e-14
-8.804965191400436732e-14
-7.425044322946742090e-14
-6.072128817289952984e-14
-5.076232029024340463e-14
-4.397761886988265565e-14
-3.554470804545514715e-14
-2.474883922799358690e-14
-1.907729269970763940e-14
-1.434060893545594930e-14
-1.000017764565495843e-14
-7.093560205759510546e-15
-5.123059344146888924e-15
-3.597287270944895446e-15
-2.534203149081241181e-15
-1.811128082742509507e-15
-1.313501218917889048e-15
-9.696960257351622414e-16
-7.297305555195963754e-16
-5.580244849302665938e-16
-4.317647244979938935e-16
-3.358140664425796679e-16
-2.606428963244831149e-16
-2.004922453616602535e-16
-1.519660621292971534e-16
