# bin_4_5
-3.289439374109115451e-08
-3.481051312795005749e-08
-3.566022037798579946e-08
-3.513664533927485974e-08
-3.279308396035146129e-08
-2.893378847718688806e-08
-2.417157112518690875e-08
-1.976423243362795789e-08
-1.665929884794535677e-08
-1.437181224334135005e-08
-1.128611088881589928e-08
-7.874982878208039804e-09
-6.255234895708234633e-09
-4.539706032364144775e-09
-3.331114220588890422e-09
-2.363806584396832631e-09
-1.740932885542416277e-09
-1.273545503924559475e-09
-9.429086340862239409e-10
-7.109594269082314505e-10
-5.455096004442256514e-10
-4.254779387850104272e-10
-3.356314745464393575e-10
-2.659359272028616985e-10
-2.101685234459213489e-10
-1.645160338144666351e-10
-1.267557737310461403e-10
-9.562400500108663758e-11
-7.035249489605711159e-11
-5.035731394051911096e-11
-3.506548513135056795e-11
