# bin_8_15
-2.932461361305978250e-19
-3.270077324614214074e-19
-3.575681012256228938e-19
-3.814882944955624338e-19
-3.944698669947017148e-19
-3.931862749955706822e-19
-3.721296841662033518e-19
-3.325774352054343094e-19
-2.809045140354537208e-19
-2.297680063556055007e-19
-1.918099149993124792e-19
-1.661713166484512929e-19
-1.348960751274950942e-19
-9.414078775831000565e-20
-7.213401710271752815e-20
-5.462313911497170286e-20
-3.784371428219663096e-20
-2.701796086322332209e-20
-1.946835067644607841e-20
-1.365227985935614066e-20
-9.608120519919138248e-21
-6.855796961106248852e-21
-4.964634522152286268e-21
-3.658915331513993789e-21
-2.749153334382008642e-21
-2.099549209990354589e-21
-1.623050151689738278e-21
-1.261875123566157615e-21
-9.795197523316584215e-22
-7.538924317920771664e-22
-5.719505576032290674e-22
