# bin_6_1
-4.330320773840365968e-18
-4.521474641273740986e-18
-4.560750947060250766e-18
-4.395167565975602190e-18
-4.000203254118459492e-18
-3.443769896225367689e-18
-2.833038021325379504e-18
-2.332469721430796658e-18
-2.002201913142236040e-18
-1.688128303231236079e-18
-1.239154103236467176e-18
-8.942326284265884483e-19
-7.210083051815009183e-19
-4.935334080813005584e-19
-3.767975232591297410e-19
-2.699814089151134458e-19
-1.964124175882412948e-19
-1.455256756111970116e-19
-1.093674583147769364e-19
-8.368512259703057108e-20
-6.511042886479895941e-20
-5.136472732518912846e-20
-4.080301308277113993e-20
-3.240497781254083394e-20
-2.554814983080499420e-20
-1.986185528199566586e-20
-1.513994460820426609e-20
-1.126418046904641213e-20
-8.155439488440265731e-21
-5.741920585567378448e-21
-3.936239321757159709e-21
