# bin_2_10
-3.446946553148292652e-30
-3.730012404148527351e-30
-3.929595523811192270e-30
-4.002782383646989442e-30
-3.912033990468032895e-30
-3.614173566142315022e-30
-3.157749394358611871e-30
-2.617747382731598678e-30
-2.143208458966559542e-30
-1.822938578412758083e-30
-1.565421610039104303e-30
-1.192537029470092112e-30
-8.327649249336296160e-31
-6.758098304581767875e-31
-4.678063184105708696e-31
-3.538476554690667885e-31
-2.463795735253505269e-31
-1.782056272258472290e-31
-1.296052695720803699e-31
-9.515357664780548160e-32
-7.088923655278282576e-32
-5.370001679658412571e-32
-4.140963305079136191e-32
-3.234965119976539719e-32
-2.544338040876822855e-32
-2.001248783418637620e-32
-1.562970027706917072e-32
-1.204398535378862398e-32
-9.107888932995474280e-33
-6.730387115244016154e-33
-4.845705636256337539e-33
