# bin_17_19
-6.534657341897846381e-09
-7.406166549993213410e-09
-8.259396452514018128e-09
-9.028947653416204651e-09
-9.626982494518083987e-09
-9.943899126493940392e-09
-9.897065770996007352e-09
-9.346065107246440335e-09
-8.334694034103255333e-09
-7.024083754476030592e-09
-5.744845912645101757e-09
-4.808179600850101904e-09
-4.167636808960561068e-09
-3.360290179359742105e-09
-2.331750385409804193e-09
-1.801847248039528274e-09
-1.343544827568314513e-09
-9.335452245232708684e-10
-6.515401618898971774e-10
-4.651966253144830734e-10
-3.199558769685519024e-10
-2.191192820753907153e-10
-1.514395853342422908e-10
-1.055609778770887199e-10
-7.461394803819136106e-11
-5.374795975750856578e-11
-3.949041139854272985e-11
-2.959848680906560750e-11
-2.254539579271802578e-11
-1.734811565482438200e-11
-1.338492226820353712e-11
