# bin_14_2
-4.135206599767694464e-51
-4.558936786076885109e-51
-4.915491041923340294e-51
-5.153250340316365116e-51
-5.219070326492048187e-51
-5.055758642165516327e-51
-4.623729911504877914e-51
-3.999085010193799826e-51
-3.295692380850010885e-51
-2.707909562629394687e-51
-2.322328369408325912e-51
-1.973351087832161949e-51
-1.457756030238595721e-51
-1.033790363260238494e-51
-8.410623982011407194e-52
-5.635348323602318804e-52
-4.302265014424695920e-52
-2.998924902844349257e-52
-2.118396319647626891e-52
-1.520839872673330685e-52
-1.098877636857412345e-52
-8.047916044106948032e-53
-5.991647667741374558e-53
-4.547386732958928468e-53
-3.504624418875020714e-53
-2.728691342480864485e-53
-2.132954275602996029e-53
-1.661647954014666957e-53
-1.281585400182867542e-53
-9.729909641320651019e-54
-7.238986113329737216e-54
