# bin_5_17
-2.664474315400088228e-42
-2.974166714067280438e-42
-3.256049278837912028e-42
-3.479112281041458412e-42
-3.604469941191255332e-42
-3.600976712254237118e-42
-3.418785683736730028e-42
-3.064329485612681843e-42
-2.595770447382768682e-42
-2.124237249022417241e-42
-1.768935946078974694e-42
-1.532103050495115358e-42
-1.252899150144014354e-42
-8.786556203561795185e-43
-6.660552777642170454e-43
-5.106816884474886107e-43
-3.500926958972987936e-43
-2.528766170830934010e-43
-1.812641892334411280e-43
-1.268310747813248941e-43
-8.915226912333673846e-44
-6.343702495900078362e-44
-4.581429791020344675e-44
-3.366210184406467071e-44
-2.522061968621401359e-44
-1.921533515689711747e-44
-1.482936274129139932e-44
-1.152039458298228568e-44
-8.943671296302337159e-45
-6.889980606076099611e-45
-5.235497656761236664e-45
