# bin_12_10
-4.081329943888030689e-09
-4.537508089737382098e-09
-4.943226969963500703e-09
-5.249631295993876403e-09
-5.396912733562028408e-09
-5.340624963928515523e-09
-5.007404469093491272e-09
-4.436142540970966202e-09
-3.716514827070107896e-09
-3.038033175242916767e-09
-2.555591707987949985e-09
-2.212208693926663912e-09
-1.752314556192707636e-09
-1.212453026919820253e-09
-9.572538669944521184e-10
-6.960962735863207847e-10
-5.003638339170475312e-10
-3.466475499158249448e-10
-2.512222673394406821e-10
-1.774814286178073324e-10
-1.258224759125889483e-10
-9.051192580304377871e-11
-6.605631632933778167e-11
-4.911537130423317525e-11
-3.719986399420268253e-11
-2.859533480486512602e-11
-2.220130418901156626e-11
-1.728965151105874725e-11
-1.340883162114885432e-11
-1.028740345658584194e-11
-7.765782854404183912e-12
