# bin_6_20
-1.509347453793083587e-48
-1.696978879368700910e-48
-1.874245120925988504e-48
-2.024638264584474169e-48
-2.126958909280773537e-48
-2.158687645300160044e-48
-2.097160342372028099e-48
-1.923469489740789869e-48
-1.668318611814372193e-48
-1.376822129639870947e-48
-1.130293329751841400e-48
-9.683198591457439583e-49
-8.259824282780981708e-49
-6.135115825886390254e-49
-4.312974576183341895e-49
-3.515689123126908430e-49
-2.337075457306271375e-49
-1.776765436757863507e-49
-1.216383409105315637e-49
-8.432539398618448847e-50
-5.923296366994252788e-50
-4.161810484037007050e-50
-2.945974326184586967e-50
-2.112160351822583010e-50
-1.544709898896790174e-50
-1.151624933425402353e-50
-8.736239894223661025e-51
-6.717142244144277078e-51
-5.199798399740209673e-51
-4.023085113283846515e-51
-3.088840770067334706e-51
