# bin_18_7
-5.388598610466554335e-34
-6.039665153989003658e-34
-6.645423232993014985e-34
-7.145230263571330645e-34
-7.462292032103734510e-34
-7.523883030990263201e-34
-7.237486011735663563e-34
-6.569713531691003245e-34
-5.638483988265510882e-34
-4.631168347299635374e-34
-3.821640892793681234e-34
-3.295403877056109818e-34
-2.767165229729951425e-34
-1.997225861762888849e-34
-1.446831182150297064e-34
-1.159713560870527799e-34
-7.707955270449502784e-35
-5.801006741407279897e-35
-4.049370389659113214e-35
-2.810910534866772891e-35
-1.974013135703294928e-35
-1.391080950755527663e-35
-9.930629914803981334e-36
-7.198387613217744991e-36
-5.323532743975973426e-36
-4.010036693035909083e-36
-3.068099207884625439e-36
-2.372180395870402223e-36
-1.840331622684641450e-36
-1.422175024520268891e-36
-1.087447531935914631e-36
