# bin_7_10
-1.292488423032632664e-10
-1.419607422773021629e-10
-1.523562745040679797e-10
-1.587915493282771057e-10
-1.597613080130712938e-10
-1.532604870232135307e-10
-1.387721084998749164e-10
-1.188054289751215535e-10
-9.749966319770210398e-11
-8.055006234116847808e-11
-6.947091689781570320e-11
-5.807477865949097047e-11
-4.179785223555112546e-11
-3.055545183547668479e-11
-2.436731892909276830e-11
-1.642127336809962933e-11
-1.236490646596094917e-11
-8.779917317524183239e-12
-6.216014876005743252e-12
-4.465020653509624612e-12
-3.239681842190738129e-12
-2.390180424146115411e-12
-1.794411870549425494e-12
-1.372019709578577487e-12
-1.063527793881036791e-12
-8.311020451189764732e-13
-6.504066714379670697e-13
-5.060533911851652446e-13
-3.889869109277593480e-13
-2.938098949165030108e-13
-2.171519105343357653e-13
