# bin_14_18
4.855831871565858636e-08
5.450492843712297356e-08
6.007846433459744898e-08
6.473963321574077546e-08
6.780107211453818657e-08
6.857525133609902153e-08
6.627663608415328737e-08
6.045995315604012002e-08
5.215353129786706797e-08
4.293426741042280830e-08
3.534036453924806193e-08
3.037935426612035867e-08
2.570544224342913901e-08
1.881337049723885963e-08
1.342765234536925803e-08
1.085568619947586921e-08
7.211156794830327510e-09
5.455673930998695656e-09
3.771842151701443454e-09
2.615449644907753718e-09
1.836288806888073069e-09
1.291446646623529068e-09
9.176525320514726773e-10
6.612645411440023772e-10
4.861285483984426852e-10
3.641794840529219451e-10
2.773824737817447210e-10
2.138372756695458555e-10
1.657030368752531461e-10
1.281293673639535024e-10
9.818057462339176884e-11
