# bin_16_10
7.840922904276466120e-18
8.781623796680224590e-18
9.653429136724317735e-18
1.036753871404236299e-17
1.081176432877184653e-17
1.088292840999357460e-17
1.044335775646628634e-17
9.456900155470801958e-18
8.096189291677490271e-18
6.643886803630688285e-18
5.490852252608581593e-18
4.740594245195326469e-18
3.963037548128649394e-18
2.842625632046595760e-18
2.076484310152400154e-18
1.652645537931879261e-18
1.102564691245097324e-18
8.247595175230014407e-19
5.783806536553411459e-19
4.018696799961963465e-19
2.820777710376634372e-19
1.989559117196834505e-19
1.422481403203534852e-19
1.033113558624684465e-19
7.654792438109283661e-20
5.775843131744382683e-20
4.425026057925430625e-20
3.423965889263664226e-20
2.656746626951033635e-20
2.052228065737925130e-20
1.567791409314426031e-20
