# bin_13_3
2.095360832916121668e-40
2.303568468240075664e-40
2.475083632201970085e-40
2.583391614228851188e-40
2.603468512612414354e-40
2.503477731085940648e-40
2.272102949724059716e-40
1.949864148880724872e-40
1.601450225799928489e-40
1.321057910001584768e-40
1.138212546921406579e-40
9.557221422064229762e-41
6.916202032021318660e-41
5.016056419028608443e-41
4.027486614815827005e-41
2.702379679386253210e-41
2.046294066229082051e-41
1.446123813433927424e-41
1.022276086763749975e-41
7.339036325108706849e-42
5.315026656815888206e-42
3.912278303629644970e-42
2.929849902203814353e-42
2.235348671631476699e-42
1.729874751625747660e-42
1.350454763798426651e-42
1.056551102051998686e-42
8.224010549628082986e-43
6.328035772288485188e-43
4.787031687999336198e-43
3.544996635687565926e-43
