# bin_2_16
6.198591079443692980e-07
6.222505923233804307e-07
5.962787579129374382e-07
5.403501803474403772e-07
4.635024875994188627e-07
3.817127839773479919e-07
3.156360018823731059e-07
2.702978732022659012e-07
2.249349289858069598e-07
1.654498741618864279e-07
1.214703283153898464e-07
9.554617398880736944e-08
6.747813196582274288e-08
5.057910587720583201e-08
3.676588684877887723e-08
2.716338291596693277e-08
2.036460853563616831e-08
1.553066253674315951e-08
1.206383330337233214e-08
9.516702258601120293e-09
7.588398682034278549e-09
6.071086190322872329e-09
4.837391145047741985e-09
3.811988774995396542e-09
2.952171533885752627e-09
2.235278649261740210e-09
1.648704252010084885e-09
1.182599313413901006e-09
8.253170998716001714e-10
5.616117478636717824e-10
3.738173662472199344e-10
