# bin_12_13
1.923084871847993125e-08
2.142900910594302546e-08
2.341039754300577038e-08
2.494834850282124147e-08
2.576107892068522140e-08
2.563229609788572727e-08
2.420524665481857264e-08
2.158771657008751137e-08
1.819918656358002474e-08
1.488446857719437735e-08
1.244815205169394813e-08
1.078161504853750736e-08
8.701511723646315002e-09
6.061716621778000190e-09
4.676833137663564871e-09
3.507840414320875664e-09
2.451354997373373329e-09
1.737684144241916988e-09
1.253181304614655566e-09
8.800564770555417254e-10
6.202588095031509248e-10
4.432288942660604455e-10
3.213886222111687226e-10
2.372341576268288927e-10
1.785007206467629627e-10
1.364793180123018145e-10
1.055844174252962263e-10
8.210993839777700833e-11
6.372316978938360381e-11
4.901350996568870736e-11
3.714881506436336610e-11
