# bin_1_1
6.216386496060650929e-08
5.875092356110961043e-08
5.252912012292325957e-08
4.452269230404936729e-08
3.656204370372747019e-08
3.047346057800705642e-08
2.612369127098088819e-08
2.120744289631697152e-08
1.533429351472852598e-08
1.158589022930847989e-08
8.902507572668444364e-09
6.378249176218990963e-09
4.759347831052862947e-09
3.513960550532532159e-09
2.627181107978482048e-09
2.000505017170179862e-09
1.552456178634447413e-09
1.226104249292564375e-09
9.809288335739211064e-10
7.898707632279283669e-10
6.351433590188117129e-10
5.062640595448576807e-10
3.973470583558275840e-10
3.053305209106530724e-10
2.287329283162975602e-10
1.666662685576321992e-10
1.180943613983588156e-10
8.150771714505108860e-11
5.495069919207592441e-11
3.630720380170917810e-11
2.358798616549772814e-11
