# bin_3_13
4.432720240082440738e-07
4.563078378377105851e-07
4.524342092196974274e-07
4.261208980277548164e-07
3.793763887975759373e-07
3.198824203140984716e-07
2.620379618931267310e-07
2.191392609316199383e-07
1.886424897509777729e-07
1.516949868035537518e-07
1.077881537628340983e-07
8.278860928709030194e-08
6.261279133290787938e-08
4.475234517415226039e-08
3.284715027212674257e-08
2.411205378380457625e-08
1.772206230722385082e-08
1.323581428002932775e-08
1.006608749373058179e-08
7.794608976427634653e-09
6.128992650036624212e-09
4.868630833226461556e-09
3.878660804185276409e-09
3.076608897509611723e-09
2.413171047612756933e-09
1.860064561372732005e-09
1.401790788877124837e-09
1.029235038775485957e-09
7.349190918921534838e-10
5.106489321105142956e-10
3.460209947742008863e-10
