# bin_7_15
1.881844983440048749e-07
2.043689683944754046e-07
2.162705743277513865e-07
2.214837769317141211e-07
2.180616170693128097e-07
2.032898769644204271e-07
1.791539765357819653e-07
1.495398473868839152e-07
1.223290229316993796e-07
1.032812992147824054e-07
8.905576753836638764e-08
6.958774336936324355e-08
4.848876524371723277e-08
3.858986959636439057e-08
2.770690502401139621e-08
2.032360246731170276e-08
1.426786903176031964e-08
1.038502844486292383e-08
7.494360224325947298e-09
5.456492622254057792e-09
4.037309525235502294e-09
3.037882831872790106e-09
2.327446894906909285e-09
1.809217354954047003e-09
1.418559155761907139e-09
1.114622673047950791e-09
8.714415796884648065e-10
6.734669496717134300e-10
5.115942404951321742e-10
3.802871674536733710e-10
2.756961388402297699e-10
