# bin_11_6
3.615639583126338124e-17
3.970662399815614095e-17
4.260647434830083984e-17
4.439583790047187154e-17
4.465528303959091718e-17
4.282071209046084555e-17
3.875539281652631911e-17
3.316386164421485982e-17
2.721027314576119140e-17
2.248500809278958149e-17
1.939919290614557225e-17
1.620631419549386007e-17
1.164693663481762978e-17
8.526821277583349684e-18
6.794370669302560676e-18
4.578012092461890716e-18
3.445377141527700594e-18
2.447816751016747042e-18
1.732622675262826724e-18
1.244007095878486005e-18
9.022607928012734205e-19
6.655314654825676349e-19
4.995669294240399349e-19
3.819182820825636720e-19
2.960121516396487539e-19
2.313044451343858414e-19
1.810085105120516778e-19
1.408342922077374518e-19
1.082572211790316414e-19
8.177297342710176608e-20
6.044200592426516127e-20
