# bin_10_1
3.654165272874318775e-40
3.940208939400342059e-40
4.132584837418658708e-40
4.188400349488122852e-40
4.063126141745872940e-40
3.722686840823132635e-40
3.225984874186828394e-40
2.661505127702060793e-40
2.184700939669196719e-40
1.869523087904814253e-40
1.591841109075944085e-40
1.185290391145028190e-40
8.390479722933240701e-41
6.827278276152210813e-41
4.636899636072537497e-41
3.545080402820604213e-41
2.491365914921880221e-41
1.789589114421220817e-41
1.305646597481795884e-41
9.622181147754222219e-42
7.201831157822493127e-42
5.482567234077086169e-42
4.246225064437447810e-42
3.327446626900407947e-42
2.621294205538003114e-42
2.061809113846134928e-42
1.607816246534555232e-42
1.235428777597212937e-42
9.305362527086269267e-43
6.842513948664818236e-43
4.899580236225335222e-43
