# bin_1_13
7.559074561214995509e-07
7.292991328921898357e-07
6.663159609139421538e-07
5.764268529647093252e-07
4.773163875993159499e-07
3.936875142110029565e-07
3.350251700499656317e-07
2.811196877643153044e-07
2.118233715407935315e-07
1.539538252867378883e-07
1.207229331052831615e-07
8.695310164508028834e-08
6.471172426846246909e-08
4.731588612516627206e-08
3.521826647184542424e-08
2.653799421672535767e-08
2.035963648104309155e-08
1.591407719562920830e-08
1.263002535318748945e-08
1.012383635536903263e-08
8.135210321024278161e-09
6.504108559370393531e-09
5.137623245088466313e-09
3.984697703498099034e-09
3.019406253814730403e-09
2.227809155875688182e-09
1.598519668004799992e-09
1.116176143487948021e-09
7.602017184629539045e-10
5.065875206620115872e-10
3.314135826515626293e-10
