# bin_14_13
1.463147116839779269e-09
1.638463204255554669e-09
1.800825254241889105e-09
1.933644245517724221e-09
2.015965866783064018e-09
2.028627779574237617e-09
1.945882183261212192e-09
1.761407913493629387e-09
1.507376111340935522e-09
1.236882964808951106e-09
1.022530738492485225e-09
8.828868960646972134e-10
7.374415004981277012e-10
5.285748459120372866e-10
3.866361404612531673e-10
3.072511692078810296e-10
2.052322969731163713e-10
1.532914865545632727e-10
1.075866387083573306e-10
7.477401390797432908e-11
5.248757391335358023e-11
3.703455914544059054e-11
2.648849647907558275e-11
1.924598534257927771e-11
1.426594320250137673e-11
1.076801112418308818e-11
8.251835490778443849e-12
6.385935098812142941e-12
4.955060207527649532e-12
3.827153548115100483e-12
2.923130514210937651e-12
