# bin_3_6
2.336063409459621306e-07
2.401611847314310104e-07
2.377261552187819403e-07
2.234185599441909470e-07
1.984959611142942818e-07
1.670564720342189949e-07
1.368197792830748600e-07
1.145995427440064374e-07
9.863319649446070093e-08
7.892579181281384620e-08
5.596634537576414466e-08
4.322049398496923280e-08
3.247695089199906523e-08
2.332117416094710603e-08
1.706094498637978834e-08
1.254392697854565923e-08
9.230141520855599937e-09
6.900631962518552407e-09
5.254538532609190075e-09
4.073532333647059103e-09
3.206244188476684177e-09
2.548500422251131348e-09
2.030757357260600687e-09
1.610554398793530548e-09
1.262567552091614438e-09
9.723339837367661233e-10
7.319378935108804981e-10
5.367023344388723922e-10
3.827042337996551322e-10
2.655708695975143787e-10
1.797470291558944750e-10
