# bin_10_7
2.353091564086148830e-12
2.581425655123719637e-12
2.766335682137165985e-12
2.877702677727506169e-12
2.888997870190723748e-12
2.762811474457231851e-12
2.494000640825447856e-12
2.128457981261444260e-12
1.745030307298385856e-12
1.444651173774242713e-12
1.247534706738520154e-12
1.036658786179192949e-12
7.407467513560642564e-13
5.472510048031123645e-13
4.323340152269379926e-13
2.930376750411797532e-13
2.188781600069996074e-13
1.563025541020348112e-13
1.108028880199412576e-13
7.958035527462865173e-14
5.782141616892811063e-14
4.273743190339517016e-14
3.214957064594167725e-14
2.462393341690857908e-14
1.911162560852206209e-14
1.494583505161905103e-14
1.169753559859540038e-14
9.096919830902068308e-15
6.985517943801730083e-15
5.268842318097394717e-15
3.887292306509189996e-15
