# bin_18_13
9.728891036384059631e-15
1.096751863498267881e-14
1.215181364643288051e-14
1.317846541742733583e-14
1.391248085719480653e-14
1.419832087612963361e-14
1.390697012627090030e-14
1.287406510908005394e-14
1.126901381349469461e-14
9.350843119400818074e-15
7.655958723718263631e-15
6.513768566918230069e-15
5.607790398706356747e-15
4.275491389841728595e-15
2.963097970346353659e-15
2.404143754215361638e-15
1.639305281372907950e-15
1.229384678639006104e-15
8.299051915166545970e-16
5.814884846780695968e-16
4.066410517305258394e-16
2.843046498870906896e-16
1.996936542544107574e-16
1.417491101237250907e-16
1.025271383859510549e-16
7.562306391254937452e-17
5.683023952310743666e-17
4.339727769885196824e-17
3.347216980350409980e-17
2.589106390896512329e-17
1.993543800300820955e-17
