# bin_13_5
5.144697118050966247e-28
5.676311363992790723e-28
6.126174269770046909e-28
6.430303084750006405e-28
6.521280166679651502e-28
6.330131858551364878e-28
5.801906726098262738e-28
5.029206564288790661e-28
4.149247749300095524e-28
3.406136039221181159e-28
2.916876010132060076e-28
2.485712414985056567e-28
1.847309745176381110e-28
1.303217149469517374e-28
1.061889139825365357e-28
7.129916693120499829e-29
5.442300407079837865e-29
3.778241901705818836e-29
2.669710165771828012e-29
1.915275767335537262e-29
1.382290601324969942e-29
1.010251305986597951e-29
7.503379059615933442e-30
5.682132678022594617e-30
4.371299201679847688e-30
3.399302017676730741e-30
2.655729749837034833e-30
2.069223324778087886e-30
1.597157226436031661e-30
1.214121490594189860e-30
9.048383326482238153e-31
