# bin_2_19
6.511209333679817306e-07
6.536920330139799498e-07
6.264852507215277792e-07
5.677956538249855229e-07
4.871042383297663196e-07
4.011689269404503648e-07
3.317021189016524300e-07
2.840426495915889019e-07
2.364213481152717493e-07
1.739429442380805730e-07
1.276710419625447580e-07
1.004401371191552336e-07
7.093411248221466679e-08
5.317109836118576577e-08
3.864639339912387389e-08
2.855229775274791844e-08
2.140467184556244820e-08
1.632270742524059188e-08
1.267822967271218993e-08
1.000081467305492094e-08
7.974129594219925671e-09
6.379606711043185680e-09
5.083268369151545069e-09
4.005872634951910816e-09
3.102480435039109716e-09
2.349241545534169874e-09
1.732891204760689919e-09
1.243082408355340358e-09
8.675908745479224990e-10
5.904165404184315953e-10
3.930117179607945259e-10
