# bin_1_5
4.935341894224314788e-07
4.752837055167932221e-07
4.333735176276230597e-07
3.741977904816922111e-07
3.095574374098211627e-07
2.555111797369995871e-07
2.176391687924124857e-07
1.821763188251098734e-07
1.367024875322786492e-07
9.961804906480795139e-08
7.808611437212026652e-08
5.613504372837109239e-08
4.183099366914626784e-08
3.059330292903760662e-08
2.278056806942829488e-08
1.718287153579414276e-08
1.319635359500674547e-08
1.032500797617434198e-08
8.200713214670836975e-09
6.576606453902051870e-09
5.285427919166308086e-09
4.224789797840098023e-09
3.335405855834703412e-09
2.584832417729417428e-09
1.956675697658077754e-09
1.442066533354233116e-09
1.033539052270702430e-09
7.209015883191932033e-10
4.905250091170872276e-10
3.266186092696723799e-10
2.135375640699631263e-10
