# bin_10_13
6.098078870708708403e-08
6.743824653915104628e-08
7.299137952538430205e-08
7.689003669276379662e-08
7.829748193043915733e-08
7.646102006655356770e-08
7.056597215173182001e-08
6.158509222947389925e-08
5.102526061605656400e-08
4.180792775662633430e-08
3.561520165783295095e-08
3.054642897813360173e-08
2.315252269002587998e-08
1.617098481874431118e-08
1.311363386436390275e-08
8.982015174453867319e-09
6.771124513917163951e-09
4.664978035290790162e-09
3.321498251149858411e-09
2.374160449507519139e-09
1.706421524587168484e-09
1.241099826421663874e-09
9.166588122127422491e-10
6.903321173018325539e-10
5.286396930747869955e-10
4.097426124644397939e-10
3.195978181465223089e-10
2.490459851946034264e-10
1.925533309025285396e-10
1.468142373438320889e-10
1.098633273906408365e-10
