# bin_12_18
8.140231868819521675e-08
9.080265511863231289e-08
9.932708766586190189e-08
1.060237039408887290e-07
1.097038836307092293e-07
1.094258623930145316e-07
1.036814856299420155e-07
9.276237626395260008e-08
7.844708453506604211e-08
6.419151538164523714e-08
5.354290963411322233e-08
4.636265920441174483e-08
3.771919131342032209e-08
2.641038657064787025e-08
2.014414485651079710e-08
1.531524094553604211e-08
1.058076860482102659e-08
7.590044005382166064e-09
5.446817968540868567e-09
3.815744989683796145e-09
2.685291066314297791e-09
1.913253253344139829e-09
1.383256918016248392e-09
1.017665639606623173e-09
7.633562988932959277e-10
5.821424178420809384e-10
4.495379240585123749e-10
3.492919676446557088e-10
2.711050587443398039e-10
2.087302296197894587e-10
1.584720310746119620e-10
