# bin_20_15
2.830104862782496108e-14
3.204128911290513945e-14
3.568551301912299550e-14
3.894739989242656788e-14
4.144341669173842841e-14
4.269914348042587132e-14
4.236420193694637588e-14
3.984226581894456999e-14
3.539493877370557653e-14
2.972350781217171798e-14
2.430325016787306199e-14
2.040901496021122755e-14
1.768462170760861816e-14
1.410377487552840814e-14
9.748641336633552986e-15
7.634802251089719558e-15
5.588444952815519949e-15
3.948735238188948532e-15
2.715049839899317919e-15
1.942562805600341335e-15
1.339695440576455856e-15
9.201942086626826639e-16
6.381089668445995864e-16
4.462693469667908405e-16
3.168347817255039460e-16
2.292971880301424462e-16
1.692533782261771030e-16
1.273731953313434006e-16
9.730820414424198932e-17
7.499215288360934557e-17
5.786404100168310835e-17
