# bin_17_4
1.922992366943856344e-52
2.143922221838784396e-52
2.343657793581209085e-52
2.499611009413273522e-52
2.583574925046106390e-52
2.573856827883483911e-52
2.434352992294297760e-52
2.174230571327475332e-52
1.835276077894818129e-52
1.501059165476883276e-52
1.253782892404710164e-52
1.086217856355136326e-52
8.802990725438352340e-53
6.137489271006403578e-53
4.713639632702124228e-53
3.559095407757896997e-53
2.471642588252484942e-53
1.759843760031991887e-53
1.269048516564343786e-53
8.901158317455191299e-54
6.264319478660943514e-54
4.470669838094554384e-54
3.237761787297489124e-54
2.386598914561139875e-54
1.793445342315166715e-54
1.369832474878731229e-54
1.059037390401712018e-54
8.233971471256982113e-55
6.391408670969948561e-55
4.918820708449191458e-55
3.731309291657286009e-55
