# bin_5_13
2.660212886500362277e-07
2.831472527796536222e-07
2.921569728718134962e-07
2.904965660144782261e-07
2.743795516326505081e-07
2.448570979996769545e-07
2.067308903864560804e-07
1.692180904981611024e-07
1.413031823049022181e-07
1.219854887746962675e-07
9.866288272270585845e-08
6.966915396683387188e-08
5.339812963767601331e-08
4.054699864893781351e-08
2.865313410215372680e-08
2.090606261493389777e-08
1.526027352190357238e-08
1.106472460205750428e-08
8.132482341591218088e-09
6.080133754647267905e-09
4.628537023472161536e-09
3.583751653181945301e-09
2.812203402926572985e-09
2.221854558174511423e-09
1.755273896572578663e-09
1.376887525029582487e-09
1.065429974996748460e-09
8.087926850169197970e-10
5.996997418174149506e-10
4.330104006230059781e-10
3.041923320013852050e-10
