# bin_14_4
3.505224024796605392e-38
3.873619628873839543e-38
4.188866687732129130e-38
4.407699512622359541e-38
4.482462338188481908e-38
4.369138047851426989e-38
4.022921258869687349e-38
3.503097634419795302e-38
2.897465109923241959e-38
2.374762693747681799e-38
2.027023830120983615e-38
1.736379008446655292e-38
1.306946462432627256e-38
9.139638072739502539e-39
7.447640099045977920e-39
5.045339865985883015e-39
3.836111014624571249e-39
2.644012792723645892e-39
1.874307355503766193e-39
1.342750797510572719e-39
9.673614197105670041e-40
7.047400713992732397e-40
5.214585898412570205e-40
3.934659191017562404e-40
3.018017227774759957e-40
2.342102392773667311e-40
1.828079630142499446e-40
1.424663264177418065e-40
1.101008808242894007e-40
8.387124205531602907e-41
6.268102500003081906e-41
