# bin_5_9
1.767517387319592822e-07
1.880425580282607743e-07
1.939125616957902578e-07
1.926709557668370730e-07
1.818065126895301466e-07
1.620954127566227240e-07
1.367372394550238317e-07
1.119107397123686134e-07
9.351679810357640443e-08
8.073415391700304285e-08
6.515357214545086800e-08
4.595194502671370438e-08
3.532056355613258283e-08
2.673132013495246458e-08
1.893874685172893446e-08
1.378873021945258175e-08
1.007424844510518887e-08
7.308849317512285653e-09
5.374347742104408710e-09
4.020508473835640030e-09
3.062465038391246519e-09
2.372525061542734641e-09
1.862508228292745318e-09
1.471863866058627686e-09
1.162826122295015183e-09
9.120183673660201466e-10
7.054916301902890053e-10
5.353052286032274029e-10
3.966835657830906227e-10
2.862351724371687438e-10
2.009468682557934452e-10
