# bin_19_13
1.260440758585963118e-16
1.423009495734515356e-16
1.579449277665179722e-16
1.716594815332721931e-16
1.817071232441805865e-16
1.860252678927863202e-16
1.830068940558714551e-16
1.703085166919966909e-16
1.498352123734780845e-16
1.248052270342543493e-16
1.021292879514590811e-16
8.655252694286886886e-17
7.475237989098444917e-17
5.782428226922972597e-17
3.994412566422909597e-17
3.215762755863835170e-17
2.239183113296451781e-17
1.654073459129860370e-17
1.114876619046552130e-17
7.888355751729751620e-18
5.493147692710313992e-18
3.822074933914049474e-18
2.675152174035497858e-18
1.890566119865151787e-18
1.360184933943448369e-18
9.979268607525398432e-19
7.462757499508606891e-19
5.677216959870764484e-19
4.368890433575476953e-19
3.377445079331425537e-19
2.603253354685100264e-19
