# bin_9_20
1.688120956428832801e-07
1.858394198183637790e-07
2.000133591737867136e-07
2.092095841221251624e-07
2.113464085630161989e-07
2.039615676052095948e-07
1.858518874972214451e-07
1.601509189119906958e-07
1.318368970402357208e-07
1.086086686364625584e-07
9.334312108497828230e-08
7.877406097162452605e-08
5.764565141414677061e-08
4.141943019124462740e-08
3.336576233591353965e-08
2.247238768411346081e-08
1.702461829893173363e-08
1.195484276939478026e-08
8.459508302397552975e-09
6.072287200111422328e-09
4.393846985683113658e-09
3.226529550460235729e-09
2.409498480897440769e-09
1.833588183476488360e-09
1.416043296917105736e-09
1.103941558490397798e-09
8.632273178739620673e-10
6.721232072047340755e-10
5.177098641868333597e-10
3.922868664606424950e-10
2.911394630462299313e-10
