# bin_19_14
1.694438576836221982e-14
1.914668443708079472e-14
2.127412257639169637e-14
2.315150347963290690e-14
2.454631299736422771e-14
2.517825549342941487e-14
2.483536474272286667e-14
2.318699211299173027e-14
2.046130217475583986e-14
1.708447496084998225e-14
1.397563255918461108e-14
1.181205073777930980e-14
1.021641313031684452e-14
7.976760041303312466e-15
5.504640418529085390e-15
4.401586936106042507e-15
3.110590729881802004e-15
2.269687616658469261e-15
1.533682180091679351e-15
1.091284552951296698e-15
7.575544388306876941e-16
5.250095353445780036e-16
3.665208145811635606e-16
2.582398483589601298e-16
1.850906639218597033e-16
1.352741498131240475e-16
1.007979940872004526e-16
7.645950624422248540e-17
5.873037738726515847e-17
4.537268114940354139e-17
3.498999616738865883e-17
