# bin_2_9
4.873240218251054614e-07
4.890667448956708155e-07
4.684518242026577562e-07
4.243576439216307643e-07
3.638940369042835741e-07
2.997134167831675419e-07
2.479793050098688813e-07
2.124260851306457163e-07
1.765968402352797114e-07
1.297628928135794081e-07
9.543262941064862289e-08
7.499925857541284557e-08
5.298605170047909678e-08
3.971452973970035407e-08
2.889053916121779161e-08
2.135184596863814399e-08
1.601706603074252972e-08
1.222337288915346460e-08
9.501027565896467357e-09
7.499311420133685151e-09
5.982242071782858906e-09
4.787144984649981265e-09
3.814460074454945984e-09
3.005400822937321163e-09
2.326727536665679298e-09
1.760862212788376192e-09
1.298028333646608069e-09
9.304882784242037165e-10
6.489890523621524369e-10
4.413909642722796571e-10
2.936647966874750285e-10
