# bin_20_7
1.028318350553589449e-44
1.156836110161377384e-44
1.278585946501836055e-44
1.382384036612752431e-44
1.453820558754361169e-44
1.477334141553328252e-44
1.437770669412665034e-44
1.321339194204688826e-44
1.148420059481117601e-44
9.490042654615061959e-45
7.788205870498901709e-45
6.664933163272647694e-45
5.697074500645540199e-45
4.253272040794096665e-45
2.980631932874277208e-45
2.430359339503970985e-45
1.620944108499557833e-45
1.231148511292407990e-45
8.403779823181769009e-46
5.830398089148205419e-46
4.094226706566111299e-46
2.875057787910548866e-46
2.031913092798551148e-46
1.453792019417350942e-46
1.060848664254519837e-46
7.892028372715182460e-47
5.975891042208254480e-47
4.588798083327545309e-47
3.549970099655624688e-47
2.746737072060181390e-47
2.110271750037522116e-47
