# bin_2_7
4.156708296143354790e-07
4.169852871835400556e-07
3.991830935320309779e-07
3.613981713820996094e-07
3.097310637961837060e-07
2.550469205780096667e-07
2.110869463509641367e-07
1.808626772988270986e-07
1.502159221095847104e-07
1.102484614076692551e-07
8.118257063157023335e-08
6.375194325953853727e-08
4.504069434639034639e-08
3.375492332934340890e-08
2.456575369818041340e-08
1.815687723327645592e-08
1.362394823949813246e-08
1.040042114337294978e-08
8.086558330563388627e-09
6.384495931410862303e-09
5.093793722847212818e-09
4.076425888708406947e-09
3.247998120423575465e-09
2.558713885423988778e-09
1.980448210905522277e-09
1.498343969305559875e-09
1.104129606824242812e-09
7.912083182525569291e-10
5.516583330628339563e-10
3.750816592265428172e-10
2.494850929946895139e-10
