# bin_3_14
4.594979846136631390e-07
4.731296891216207879e-07
4.692536209689497865e-07
4.421270041242971487e-07
3.938055637466530867e-07
3.322024275009506238e-07
2.722270856223231105e-07
2.276831822269410243e-07
1.960031084481498655e-07
1.576834923448507846e-07
1.121027100958338651e-07
8.608326303290550128e-08
6.513675133475977510e-08
4.655560343604520194e-08
3.418327390168478367e-08
2.509557047881841808e-08
1.844815854813583027e-08
1.378093197605514384e-08
1.048281575501948114e-08
8.118966102494461296e-09
6.385241240023914525e-09
5.072984512304276228e-09
4.041954558543839658e-09
3.206388400918447208e-09
2.515044975525244351e-09
1.938557074911949386e-09
1.460852613390479763e-09
1.072493417498064045e-09
7.657164923213418683e-10
5.319839714897226714e-10
3.604381588768889275e-10
