# bin_8_14
1.355903608709336171e-07
1.483342519609243296e-07
1.584101434984848084e-07
1.640627602794285536e-07
1.638544053849740850e-07
1.555840906263481819e-07
1.395205315415204867e-07
1.182930938301540348e-07
9.688165085342213780e-08
8.065814469714234062e-08
6.974004551963376785e-08
5.703571797193084825e-08
4.028024689148232436e-08
3.048946189095159295e-08
2.346818528491830701e-08
1.624459630544494904e-08
1.187186576218932003e-08
8.573286946699870027e-09
6.108004464775482024e-09
4.398262736001446425e-09
3.213384186017496934e-09
2.388462798137966298e-09
1.807298663853284379e-09
1.391037867506668367e-09
1.083476216119369610e-09
8.489305306483307919e-10
6.644931369034802678e-10
5.159623198629448993e-10
3.950232664249607906e-10
2.967031245440260267e-10
2.177767455586781457e-10
