# bin_14_18
4.856454067591321784e-08
5.451701193249794754e-08
6.009844254411940875e-08
6.476966528882943981e-08
6.784310284012198576e-08
6.863179844558030269e-08
6.634543091713134348e-08
6.054152615626041464e-08
5.224165398824426242e-08
4.302351203741464165e-08
3.542362410897516215e-08
3.045346330782651684e-08
2.576959627123476822e-08
1.886654801292343411e-08
1.347036513172503316e-08
1.088920641159537519e-08
7.236872278329127293e-09
5.475244804563501348e-09
3.786283604138834786e-09
2.626076630065085233e-09
1.844288827646116953e-09
1.297486432716368956e-09
9.222350587687421017e-10
6.648006164891392073e-10
4.888922425609464251e-10
3.663611498630588734e-10
2.791131668770243045e-10
2.152077768467395645e-10
1.667790609843799468e-10
1.289617403786837329e-10
9.881171753648318090e-11
