# bin_4_15
3.730051828810818940e-07
3.914689369617839441e-07
3.972189269276815228e-07
3.861182317478189800e-07
3.549412444973285527e-07
3.086351482267738725e-07
2.555378423617662142e-07
2.098606527720130760e-07
1.788566789361197910e-07
1.522014557613336579e-07
1.148924456340518797e-07
8.170747732913974653e-08
6.553712972087754546e-08
4.592545381472237729e-08
3.453456974825937926e-08
2.460165668604171325e-08
1.798945605884092336e-08
1.326392855199103705e-08
9.911484996919750753e-09
7.538932594222044720e-09
5.832477497537963633e-09
4.580228499945309661e-09
3.628323590990903442e-09
2.878969798759839100e-09
2.272048065424222669e-09
1.771290082677234920e-09
1.356091771852544439e-09
1.014680519874170832e-09
7.395164717607920088e-10
5.242476091740953418e-10
3.617436531402849640e-10
