# bin_11_10
1.603137277514481481e-09
1.775457975992852031e-09
1.925054055677624761e-09
2.032332583154634488e-09
2.074714938814571855e-09
2.033323606029089193e-09
1.884215388116524916e-09
1.651081482895351994e-09
1.371523252841095782e-09
1.122888862810664725e-09
9.540298774766900348e-10
8.212825638345825796e-10
6.291100426755662364e-10
4.370884273040202979e-10
3.537976878400561682e-10
2.447546375518040856e-10
1.835008281293892452e-10
1.258621235179417350e-10
8.998616023949926128e-11
6.422209890535532776e-11
4.607753402751009063e-11
3.343658636822614782e-11
2.462922046737338810e-11
1.849831157771567219e-11
1.413390375369620359e-11
1.093773469461770779e-11
8.525203592447143601e-12
6.644330212528965805e-12
5.142085898581117880e-12
3.926985482352037249e-12
2.944950838045849909e-12
