# bin_13_16
4.240522774157083816e-08
4.745385652460495537e-08
5.211251202493859033e-08
5.589747925029236427e-08
5.819839930698558591e-08
5.847467219155861249e-08
5.596536433095200055e-08
5.055893769570622914e-08
4.317881055948784505e-08
3.542175576960748779e-08
2.934009552148292839e-08
2.535313111773180017e-08
2.107488562081868188e-08
1.503592389968876866e-08
1.109183869353059647e-08
8.740976200610124459e-09
5.876405145398731827e-09
4.355464181732391013e-09
3.072222525413652700e-09
2.139105955956143800e-09
1.502256407148655979e-09
1.062328514932667388e-09
7.617073533340982132e-10
5.550314070461597151e-10
4.125501709698854185e-10
3.121522027166620132e-10
2.396552030241181886e-10
1.856579642424598427e-10
1.440857154177687623e-10
1.112205853065531608e-10
8.484224617799241928e-11
