# bin_20_10
5.152709997410423883e-29
5.810480716554007168e-29
6.440229216128643036e-29
6.987396030708224630e-29
7.380559654724234218e-29
7.537022667051586989e-29
7.388616224158553531e-29
6.846880975229546296e-29
5.999649833766678193e-29
4.982702166837893595e-29
4.080166703009311435e-29
3.469902137203070075e-29
2.989074217439536011e-29
2.284361677069134474e-29
1.582593440592063766e-29
1.282886628297728933e-29
8.774096819316551855e-30
6.568926651228480195e-30
4.432679153552603784e-30
3.110169754149808028e-30
2.174451583549006656e-30
1.519866805411802874e-30
1.067302837249386679e-30
7.573381749885830308e-31
5.475303485363948764e-31
4.036649865947607460e-31
3.032218837875868693e-31
2.314756938067990911e-31
1.785068929022114562e-31
1.380774974491282196e-31
1.063332832780410921e-31
