# bin_20_18
2.415406344382296559e-10
2.740538069478804678e-10
3.060442587085398288e-10
3.351183916560544022e-10
3.580582967671754842e-10
3.708264597787501750e-10
3.702507554956641915e-10
3.511231468531300617e-10
3.144056962176861750e-10
2.660346111538463565e-10
2.177753649112899486e-10
1.817173845185964478e-10
1.574948496288532732e-10
1.282604614456743993e-10
8.955718410963289166e-11
6.825938333209407279e-11
5.177187642844079920e-11
3.546052187660825673e-11
2.515463197082192784e-11
1.785620364883371196e-11
1.224815467815533855e-11
8.372652662149534111e-12
5.763603586975712338e-12
4.001276924147425925e-12
2.813457154312918886e-12
2.015231196952534926e-12
1.472197870422501955e-12
1.097730016032122220e-12
8.328540199933109529e-13
6.393885639794446788e-13
4.930702373917851203e-13
