# bin_14_8
7.679160551047933318e-19
8.541405939784917651e-19
9.310345929713352642e-19
9.894278580137487288e-19
1.018052630852572938e-18
1.008516705804138828e-18
9.468735359335428953e-19
8.400060009848917006e-19
7.046334804771450428e-19
5.762016987624326259e-19
4.843588568288641175e-19
4.193858548098570326e-19
3.332599880678950774e-19
2.307942963908917231e-19
1.816488376064074095e-19
1.327501160141639470e-19
9.500547560073537436e-20
6.599657779128328285e-20
4.783962615645077658e-20
3.375882621622205711e-20
2.390074691629983641e-20
1.717203176142899977e-20
1.251656668114331442e-20
9.293539987745774906e-21
7.029968079158962093e-21
5.398376599737121485e-21
4.188496815617284953e-21
3.261052406988265172e-21
2.529457509537333850e-21
1.941591974749980074e-21
1.466810482161304969e-21
