# bin_19_15
8.925297128644530013e-13
1.009384104167898787e-12
1.122685232965017645e-12
1.223292253082820573e-12
1.299017139640250889e-12
1.334985378794044730e-12
1.320138133313358618e-12
1.236384332864783889e-12
1.094228145340178403e-12
9.158926133618859905e-13
7.491070436366649831e-13
6.314867336935855359e-13
5.467268051892914250e-13
4.307230415539017092e-13
2.972687293212347628e-13
2.358376205400529965e-13
1.691324567464354804e-13
1.218138498860625743e-13
8.276955188583555967e-14
5.911843971793953467e-14
4.092412336480255349e-14
2.825330723876100922e-14
1.967350713958121523e-14
1.382105273955031253e-14
9.869238309278086286e-15
7.185395045512326180e-15
5.334647357862442243e-15
4.034414542733692536e-15
3.092727036104206285e-15
2.387342648760258715e-15
1.841686764387675068e-15
