# bin_1_17
8.097850937590793634e-07
7.816679348568252907e-07
7.145853031533952877e-07
6.185697934059968707e-07
5.124713827247442789e-07
4.227490721233435802e-07
3.597385756460801340e-07
3.019819658765861279e-07
2.277471728859009298e-07
1.655129972320560283e-07
1.297931786072607766e-07
9.353793365151174510e-08
6.960667710786844358e-08
5.090547765943400393e-08
3.789559667079508432e-08
2.855850067660160404e-08
2.191236725330195616e-08
1.712994400928197948e-08
1.359682386100991973e-08
1.090019712605469868e-08
8.760117937089205258e-09
7.004442391291176778e-09
5.533275528045691800e-09
4.291782380488143365e-09
3.252177898715444742e-09
2.399555579058523801e-09
1.721728719902217423e-09
1.202181895333005485e-09
8.187584613048632909e-10
5.455946735372656236e-10
3.569223429941596482e-10
