# bin_15_19
4.418747823825103591e-08
4.973754677672894061e-08
5.500847795405718983e-08
5.952275284286722934e-08
6.266272391067991387e-08
6.375083577945104374e-08
6.215062848461850454e-08
5.723385081834750814e-08
4.984370818250468913e-08
4.124240510833876283e-08
3.383109204958463693e-08
2.890536749479525992e-08
2.474957359274535769e-08
1.858737606823504891e-08
1.299582879938113099e-08
1.057110791630790927e-08
7.104286076233776352e-09
5.370243749298701607e-09
3.655946342322232028e-09
2.545269512463876909e-09
1.784920820971732294e-09
1.251754684387731901e-09
8.832701431737036140e-10
6.306915688594200762e-10
4.591758608402616200e-10
3.408435834661742712e-10
2.575837683734224751e-10
1.975077268211012913e-10
1.526716975973431206e-10
1.181130763296474344e-10
9.079111292092925612e-11
