# bin_14_16
2.697377576187578343e-08
3.026901474401042340e-08
3.335337752093718589e-08
3.592639061079422623e-08
3.760549748058741073e-08
3.801354013871844456e-08
3.670496942236940920e-08
3.345342743798438099e-08
2.883145043502993083e-08
2.373040751831395472e-08
1.954993332800439479e-08
1.681990086365431344e-08
1.420749850871681558e-08
1.036643704730283319e-08
7.426302758513885842e-09
5.993057259211693751e-09
3.981397231886098137e-09
3.009551322573043214e-09
2.085912356140641670e-09
1.446713652215795576e-09
1.016059172084446266e-09
7.150915127153432635e-10
5.087844867846489932e-10
3.672342775580518055e-10
2.704194712256511424e-10
2.028923196522520604e-10
1.547311544563485636e-10
1.193841443114571982e-10
9.254429959263491141e-11
7.155123994396036776e-11
5.479786171125743447e-11
