# bin_18_3
5.331249647963872161e-66
5.955179861004906695e-66
6.525308834804338000e-66
6.979914178585582429e-66
7.241429144279105868e-66
7.246169169029920987e-66
6.894769367794320485e-66
6.193498760952484380e-66
5.258250269706283434e-66
4.306316756814519599e-66
3.581480913277156112e-66
3.101082785282304171e-66
2.547475474580253430e-66
1.793580070924703044e-66
1.350509111429587869e-66
1.043304702102666570e-66
7.110488938924146801e-67
5.173214288421435816e-67
3.694300775733935147e-67
2.581335037398701394e-67
1.813338653411932120e-67
1.287859113606598709e-67
9.282641285742565134e-68
6.805292440773126489e-68
5.087976766779386166e-68
3.869503277539468532e-68
2.982388421198914752e-68
2.315410756160077783e-68
1.797571838603637134e-68
1.385681800060309884e-68
1.054129639149363131e-68
