# bin_2_12
5.593303553548888952e-07
5.615034538898486339e-07
5.380619427542275629e-07
4.876274085467301218e-07
4.183239483276763674e-07
3.446000483633208240e-07
2.850534850778346688e-07
2.441450511766791281e-07
2.031077744129437509e-07
1.493734988476059950e-07
1.097529183856655198e-07
8.630200512065824762e-08
6.097056692753074766e-08
4.570350743811148179e-08
3.323663891458970656e-08
2.456256080597031365e-08
1.842197809246161100e-08
1.405530890633416035e-08
1.092246790979524325e-08
8.619621202709347821e-09
6.875069082778959958e-09
5.501366816171610323e-09
4.383713800926994351e-09
3.454289227607640385e-09
2.674713475327556110e-09
2.024674256748722092e-09
1.492882673456983637e-09
1.070454666555503586e-09
7.467994560168485753e-10
5.080270673792270482e-10
3.380622348904834045e-10
