# bin_7_11
1.207554482892294142e-07
1.311128573499993887e-07
1.387104822929376668e-07
1.420088231403431200e-07
1.397478564018330080e-07
1.302069181525412796e-07
1.146959910046982574e-07
9.571096151820536700e-08
7.832514671847791822e-08
6.618385767602459500e-08
5.704862007594668943e-08
4.448689369056718380e-08
3.101430043192145450e-08
2.472769022192516195e-08
1.770264221575879142e-08
1.302179215770773164e-08
9.135297254144581875e-09
6.648837983684268718e-09
4.802480963678544025e-09
3.499981219942963623e-09
2.592061616433512789e-09
1.952204066726750854e-09
1.496982078007291811e-09
1.164478461949347129e-09
9.134709666898218456e-10
7.179118209536865098e-10
5.612620396611534986e-10
4.336383817999064294e-10
3.292541205948675843e-10
2.445864750650218694e-10
1.771764738217178879e-10
