# bin_8_8
1.202101338830481745e-08
1.310996408350662382e-08
1.394619688875648913e-08
1.437287341098687270e-08
1.426923553400672431e-08
1.344029543359973381e-08
1.196080265006874317e-08
1.006539987529118160e-08
8.233030567044538584e-09
6.896861456291435806e-09
5.967338451674598317e-09
4.788992561851231712e-09
3.342421236220779146e-09
2.598079751145639472e-09
1.939422631138973771e-09
1.376777277231507303e-09
9.820407453726994205e-10
7.165727143032309611e-10
5.133785487159308211e-10
3.710076355217126401e-10
2.726875237838725527e-10
2.038832676993828398e-10
1.552150838597604069e-10
1.200627503421295991e-10
9.384532246712684933e-11
7.366029710682443495e-11
5.765013376606814878e-11
4.468233564759685002e-11
3.409555266361099240e-11
2.549241837722181198e-11
1.860669309783697271e-11
