# bin_10_8
1.136821255826236506e-10
1.250307080389390638e-10
1.344092488704484496e-10
1.403807117712139222e-10
1.415776250139425004e-10
1.362842483011354541e-10
1.238412499086605131e-10
1.064140856560262778e-10
8.747426221687948087e-11
7.214740923892163449e-11
6.212448559104059258e-11
5.223501361434271976e-11
3.791890899796721037e-11
2.743565951487340167e-11
2.205232944673648782e-11
1.481018682801469418e-11
1.121982479887929476e-11
7.917292553999941248e-12
5.597979113958168197e-12
4.019941500043490386e-12
2.911539294518359234e-12
2.142281197350607870e-12
1.603516742806980332e-12
1.222850638203011381e-12
9.459897961974393914e-13
7.383321508998358626e-13
5.776070468762404793e-13
4.496410858150584491e-13
3.460616234230605585e-13
2.618802654636935633e-13
1.940194957073865296e-13
