# bin_7_14
1.743069747487877517e-07
1.893136064077504083e-07
2.003577849187988829e-07
2.052129971532449510e-07
2.020667027608848887e-07
1.884095734546572335e-07
1.660813459090414475e-07
1.386687681412391057e-07
1.134738192681897483e-07
9.582774582016676052e-08
8.262603239126741316e-08
6.456052507462715192e-08
4.500686297353333055e-08
3.582612695976859863e-08
2.572009573649317418e-08
1.887516366460902738e-08
1.325396224866406143e-08
9.648815351757152424e-09
6.965546450077991042e-09
5.073519276444556632e-09
3.755477701519261572e-09
2.827017105954971592e-09
2.166746441021806337e-09
1.684845743245516416e-09
1.321359881943759625e-09
1.038396365690685359e-09
8.118811332313789545e-10
6.274076354088707430e-10
4.765424784041695322e-10
3.541569585184963598e-10
2.566815333727812074e-10
