# bin_13_20
8.191765941672489716e-08
9.169904774269651856e-08
1.007397389757149370e-07
1.081077257822357202e-07
1.126259385351191845e-07
1.132388535950104387e-07
1.084879387977697478e-07
9.810465093338870229e-08
8.387010798868791861e-08
6.882622216559211717e-08
5.697213211386580326e-08
4.920908593976271105e-08
4.098371522880923840e-08
2.931128925550955950e-08
2.154850249964655746e-08
1.703294330102773669e-08
1.143031792280063226e-08
8.494401569362866733e-09
5.979539465012887274e-09
4.161216009104849996e-09
2.922283626642490234e-09
2.065207390717529448e-09
1.479471984375078191e-09
1.076894430389574230e-09
7.996169691242253402e-10
6.044658225639295163e-10
4.637468176687417069e-10
3.591089807624799608e-10
2.786703520412204022e-10
2.151512919807437759e-10
1.641987770953276775e-10
