# bin_13_15
2.997673632798108292e-08
3.353741373421011788e-08
3.681875568553933794e-08
3.947812005656549192e-08
4.108345089752917626e-08
4.125582565111688952e-08
3.945412750477979673e-08
3.561488598900931242e-08
3.039150294371469589e-08
2.492514919631111305e-08
2.065649291663801979e-08
1.785543383514135158e-08
1.481957878443547455e-08
1.055284281983701675e-08
7.806148206341346714e-09
6.136460355013352921e-09
4.131739528909809265e-09
3.055650041497744980e-09
2.158868244942254056e-09
1.503817058888582569e-09
1.056125377537858285e-09
7.472298101049842071e-10
5.361554519868720473e-10
3.910087524222189688e-10
2.908711954119286534e-10
2.202442301928284727e-10
1.691875539039892589e-10
1.311099640762154446e-10
1.017593646054995177e-10
7.853556707984965844e-11
5.988730659023628525e-11
