# bin_9_2
6.298046333391442163e-28
6.770411010860338661e-28
7.073690045837193658e-28
7.138447539932780794e-28
6.880298636292673825e-28
6.261435068327134996e-28
5.389170876110058554e-28
4.432968408911812561e-28
3.651671779063873256e-28
3.139005069178365009e-28
2.646379083151208695e-28
1.934531294987320447e-28
1.394831353981172697e-28
1.125960754247240163e-28
7.624913059528880488e-29
5.815225364239974258e-29
4.134547618680376927e-29
2.967664513357910347e-29
2.168587404597006624e-29
1.603182018977467446e-29
1.205680651564036882e-29
9.225032363928377787e-30
7.174693938065713068e-30
5.638529907274776029e-30
4.448216894314614404e-30
3.498285788970414801e-30
2.723591598116483834e-30
2.086710638842426312e-30
1.565451638065528186e-30
1.145502843912263232e-30
8.158580680432565978e-31
