# bin_9_10
2.873085745712150829e-08
3.157847113942377497e-08
3.391990824160582411e-08
3.539074459790310745e-08
3.565100915055105930e-08
3.426159179727923580e-08
3.108414159776714282e-08
2.666670927602954808e-08
2.190997461428513538e-08
1.809060353676212393e-08
1.558692306179778789e-08
1.306439862952915182e-08
9.450593044552267765e-09
6.875695489858786741e-09
5.498096181567690285e-09
3.705618157214915906e-09
2.794900881864193917e-09
1.978029791416597400e-09
1.400000076122102707e-09
1.005463489610842123e-09
7.289571350565485381e-10
5.370100777467516715e-10
4.024859767384981409e-10
3.072843695875560885e-10
2.379150094835697330e-10
1.857816082447731619e-10
1.453524401785664069e-10
1.131175614841116931e-10
8.700577106613056978e-11
6.578268019147857342e-11
4.868237549545077627e-11
