# bin_17_12
5.332966316178459813e-15
5.997260362186165381e-15
6.625498429379046134e-15
7.159456807356815402e-15
7.524273388160043144e-15
7.640155332882076434e-15
7.426995330513464279e-15
6.817023244114150118e-15
5.917453311335290002e-15
4.886697200782478250e-15
4.012276189569639778e-15
3.436572478029858638e-15
2.933009990277380364e-15
2.182030664654489926e-15
1.533226730265105646e-15
1.249609576678047842e-15
8.318006006350263407e-16
6.320666516941986470e-16
4.324153633973883757e-16
2.998329205059327858e-16
2.105828141577270960e-16
1.479179702748309956e-16
1.046434954045940352e-16
7.496934193113134454e-17
5.478315646509361702e-17
4.080991852834581979e-17
3.093725376749835091e-17
2.377550566837000110e-17
1.840032331436706902e-17
1.423641685309467854e-17
1.093296196275561059e-17
