# bin_11_18
1.012499941339802320e-07
1.125252820906785437e-07
1.225309740157785153e-07
1.300528293081731600e-07
1.336179591377111022e-07
1.320988235841903026e-07
1.237261128710875596e-07
1.095178236304133186e-07
9.171150169315396465e-08
7.501666804915132616e-08
6.318192486013350805e-08
5.464413464616258363e-08
4.313309430782602373e-08
2.990577339387119433e-08
2.364705743291142052e-08
1.711036649841130869e-08
1.235098264027415708e-08
8.567775065788501852e-09
6.187247699769837617e-09
4.375413141172349659e-09
3.106350493481968441e-09
2.235653565584941481e-09
1.632593663130578779e-09
1.214713101103256476e-09
9.205277830887036365e-10
7.078733800430625253e-10
5.496723247740720993e-10
4.280265417858514711e-10
3.318505271234400565e-10
2.544780056641869363e-10
1.919846481045165325e-10
