# bin_17_2
3.161289177510195408e-70
3.519361014493425011e-70
3.840357278715023414e-70
4.086742405734287212e-70
4.212050924723664983e-70
4.181543617245550944e-70
3.936706125308800041e-70
3.501335841285871434e-70
2.943866180892926875e-70
2.407558655156632462e-70
2.019295324903561251e-70
1.749102596871676432e-70
1.400207053615318817e-70
9.714841523780075526e-71
7.582372849264100120e-71
5.608655413526068046e-71
3.969452342709577827e-71
2.779521280165076598e-71
2.013833509950611534e-71
1.417942230578049473e-71
1.001385674176681194e-71
7.178157983677841353e-72
5.220476874953045248e-72
3.866390247860869954e-72
2.918016334777842321e-72
2.236663949331165708e-72
1.733315629094351291e-72
1.348938717393247452e-72
1.046636668308551718e-72
8.041590251868790338e-73
6.084112161493803060e-73
