# bin_3_18
5.083918752617812899e-07
5.235449099673615028e-07
5.193449978638121522e-07
4.894309709405805703e-07
4.360327472555283795e-07
3.678940961868591503e-07
3.014814719088055904e-07
2.521106432916959675e-07
2.170357527881010922e-07
1.746916570219146350e-07
1.242203996427481629e-07
9.533565682650537876e-08
7.218511249405281490e-08
5.156899696841699263e-08
3.787697753064498373e-08
2.780277218101681810e-08
2.043589190770963642e-08
1.526419102750226469e-08
1.160963010188362156e-08
8.990620038444375904e-09
7.070044320654094239e-09
5.616693212993701879e-09
4.475057328615656117e-09
3.550021166207127652e-09
2.784742158014488750e-09
2.146628237849705200e-09
1.617840169592986608e-09
1.187906969697898784e-09
8.482357578985247946e-10
5.893926960743352307e-10
3.993812460225565208e-10
