# bin_15_9
2.594591701691019661e-18
2.896670418472009990e-18
3.171876288848627870e-18
3.390039653145162513e-18
3.513297220322570312e-18
3.511218037761494180e-18
3.335181986635227266e-18
2.991122440687074267e-18
2.535265301575880366e-18
2.075615135354186962e-18
1.728527727837915660e-18
1.497066373626246842e-18
1.225074361654049208e-18
8.598965400371006816e-19
6.513408723695181116e-19
4.998805049980963733e-19
3.425011131448944482e-19
2.476108169040690266e-19
1.774073254779317812e-19
1.241049290972799345e-19
8.721947080020208944e-20
6.203709363019605414e-20
4.478302359393163845e-20
3.288776584046193713e-20
2.462835211067326001e-20
1.875619528519158868e-20
1.447067347397951448e-20
1.124007133563862353e-20
8.726132782187892356e-21
6.723422898145169330e-21
5.110317140566825754e-21
