# bin_1_19
8.291996100553246998e-07
8.004689720126796567e-07
7.318325077125235835e-07
6.335487788011888436e-07
5.249020075301261808e-07
4.329903425420620015e-07
3.684395476069751612e-07
3.093166535468308668e-07
2.333180137279931531e-07
1.695435269834421246e-07
1.329558501931578182e-07
9.582467416788709978e-08
7.130458683003986090e-08
5.214671315969463030e-08
3.881896627778112066e-08
2.925318147839165408e-08
2.244442332363274526e-08
1.754517924216956852e-08
1.392597386446489830e-08
1.116384934776459968e-08
8.971961417649670330e-09
7.173893340718177561e-09
5.667259909422560458e-09
4.395849680942009510e-09
3.331174549238664607e-09
2.457954651331368713e-09
1.763713447983511889e-09
1.231550900011078874e-09
8.387926523315926793e-10
5.589628187961342101e-10
3.656772491304367983e-10
