# bin_14_13
1.463318431003360058e-09
1.638813424847531697e-09
1.801415482256379445e-09
1.934539314595388088e-09
2.017220725872506814e-09
2.030307355773853206e-09
1.947928300609738600e-09
1.763842609175725713e-09
1.509980879220765239e-09
1.239496355628582723e-09
1.024950018642895173e-09
8.850195530267396519e-10
7.392987488266268637e-10
5.301030389983524759e-10
3.878523134679404098e-10
3.082030600433093820e-10
2.059607800893297062e-10
1.538474157080064572e-10
1.079998239425123211e-10
7.508509812873502030e-11
5.272103334938215777e-11
3.721287291802026616e-11
2.662534280384731651e-11
1.935292867393085094e-11
1.435046504311322654e-11
1.083534529443412904e-11
8.305590304826245591e-12
6.428642249724242345e-12
4.988604932200358012e-12
3.853050276946186125e-12
2.942691062890469298e-12
