# bin_17_7
6.975127713903101078e-33
7.800774785004019027e-33
8.560137839616149132e-33
9.173245583133293656e-33
9.539355602577148118e-33
9.571518409114014989e-33
9.142185096790648530e-33
8.242030838276660749e-33
7.023668338418038768e-33
5.757204865297762311e-33
4.774794391485239645e-33
4.130547116092811400e-33
3.420675687319391236e-33
2.426718213779987276e-33
1.803347121786338564e-33
1.412512139211836963e-33
9.526620130284497313e-34
7.023990090052326388e-34
4.976995099162248012e-34
3.469147553066452844e-34
2.435832250473446014e-34
1.724603452353627049e-34
1.238885347916073595e-34
9.047722021603974009e-35
6.739847896423489629e-35
5.109621945324151645e-35
3.928976593692152257e-35
3.046561673416118565e-35
2.365021301773809698e-35
1.824912784555405393e-35
1.390847473578915250e-35
