# bin_20_1
2.817131969961744684e-97
3.159745735578756182e-97
3.479656277403154626e-97
3.745338437313325503e-97
3.916751609162499704e-97
3.955141686718593304e-97
3.812905053112449356e-97
3.469177203244609882e-97
2.984616932190996220e-97
2.454418822002746307e-97
2.023620949592242341e-97
1.743095270651686697e-97
1.468805163266574816e-97
1.066247911989082005e-97
7.675244631553567942e-98
6.181403072102936882e-98
4.101996574184171493e-98
3.098393956371792557e-98
2.154423821974232913e-98
1.494251254406949105e-98
1.049388844329791585e-98
7.387638422016819943e-99
5.263567405852755124e-99
3.806158389276507428e-99
2.808004237807650658e-99
2.110494452069682270e-99
1.611873076706219743e-99
1.244875462075797967e-99
9.654171808305569911e-100
7.463241847763827661e-100
5.712240195350621532e-100
