# bin_9_7
1.037147740299708597e-10
1.133676851970245667e-10
1.209411913875960979e-10
1.250854180345108888e-10
1.247304680032789736e-10
1.181632592413098165e-10
1.057239451913951379e-10
8.942317194981344860e-11
7.318383351805848286e-11
6.102773237252013380e-11
5.281429842051424996e-11
4.299016300560243166e-11
3.018958999149635430e-11
2.304748444134186903e-11
1.760151268020561331e-11
1.224969298629943033e-11
8.886974392166988312e-12
6.451068915252296141e-12
4.602313418213030697e-12
3.314723571374545206e-12
2.425657703253639684e-12
1.806258137464800350e-12
1.369386642961655442e-12
1.055700551211470983e-12
8.232733590063431154e-13
6.455068179914260264e-13
5.053315042023452813e-13
3.922214599981313044e-13
3.000267055331072431e-13
2.250669512034480546e-13
1.649311718970892211e-13
