# bin_20_12
1.252164643192782060e-21
1.414357733059048997e-21
1.570768918445414282e-21
1.708393331844591083e-21
1.810012336358387176e-21
1.855000685643262816e-21
1.827584979702850782e-21
1.703815372870178129e-21
1.501501598376749176e-21
1.252314786656291794e-21
1.024558978795750269e-21
8.669988271980627061e-22
7.494521515833903162e-22
5.827157419026693497e-22
4.022289803860684948e-22
3.226871705767714480e-22
2.265077031738052740e-22
1.662332494244942411e-22
1.121368724213219824e-22
7.960792634242791951e-23
5.533899609797790687e-23
3.842130333377948225e-23
2.685405209019330297e-23
1.894620787515814860e-23
1.360268633471843483e-23
9.958882676715310278e-24
7.432908781933865792e-24
5.645667841183808458e-24
4.340320270074508121e-24
3.354247357151878075e-24
2.586166127843235829e-24
