# bin_9_11
5.035143969067418865e-08
5.538113918495604248e-08
5.953973294038243308e-08
6.219081299569233531e-08
6.272735800438481637e-08
6.039516916380277508e-08
5.489943614491995962e-08
4.719055481441163615e-08
3.880472406127887693e-08
3.200683723974608573e-08
2.754753377398044474e-08
2.316180850076025778e-08
1.684007529083086480e-08
1.218162506493364573e-08
9.776673791917516368e-09
6.583905628170138798e-09
4.977871982317314253e-09
3.510487008859172415e-09
2.483941237149361228e-09
1.783612415973819377e-09
1.292006066978762141e-09
9.504454485428373487e-10
7.112081195339846079e-10
5.422066769302582267e-10
4.193365993558961946e-10
3.272172701198015726e-10
2.559510203877901549e-10
1.992354743593821490e-10
1.533431282655166596e-10
1.160524862314604024e-10
8.599360453550030584e-11
