# bin_10_9
1.682866955483978395e-09
1.854593592281562622e-09
1.998680521513394562e-09
2.094066709911711304e-09
2.119423696839374362e-09
2.050934725181451917e-09
1.873839956566612789e-09
1.619124849279210927e-09
1.334152575470531334e-09
1.097289294836129632e-09
9.418262791939294675e-10
7.986633268590936336e-10
5.882238014431031565e-10
4.189206358145153117e-10
3.398947909155455656e-10
2.280015403911575799e-10
1.737333439251469485e-10
1.213880000901487177e-10
8.577071202937995822e-11
6.157133897804299902e-11
4.450099934313453495e-11
3.261433001519633176e-11
2.430159605882407349e-11
1.845728986782841228e-11
1.423292661604893247e-11
1.108575745155125845e-11
8.666476472967903223e-12
6.750659279627480406e-12
5.204869381119980033e-12
3.949592955694646594e-12
2.936568497215075758e-12
