# bin_12_2
6.232265884629199445e-43
6.810780970027240926e-43
7.263705203069133453e-43
7.509719149769091016e-43
7.485259329813344853e-43
7.086592239992660578e-43
6.336611412013864590e-43
5.355836011459587446e-43
4.382239250257355018e-43
3.656066857033030750e-43
3.164923525955129347e-43
2.572884298306264847e-43
1.803474675283921224e-43
1.380470955250896485e-43
1.051847487540901041e-43
7.332417737174567453e-44
5.304865434394338255e-44
3.859162405749885940e-44
2.754429065196685117e-44
1.983754392612876183e-44
1.452568607595513033e-44
1.082306769230328504e-44
8.210409553891724134e-45
6.332972499133647811e-45
4.940635526054799437e-45
3.874753034392706583e-45
3.033528428547963133e-45
2.354294430719300424e-45
1.800462131934271273e-45
1.350133605704361104e-45
9.889172319050394911e-46
