# bin_6_3
4.940000319747877628e-13
5.222059240824246859e-13
5.342750639257602891e-13
5.254817355976081753e-13
4.893890746273818609e-13
4.309637184205128578e-13
3.595558710952019576e-13
2.941835434537246856e-13
2.484782450201446793e-13
2.140863289958724504e-13
1.670916091560570129e-13
1.167575143099159898e-13
9.312297999993278117e-14
6.703526233903699821e-14
4.951057896163650630e-14
3.509645859602117828e-14
2.580701980599223423e-14
1.890758991624669138e-14
1.402032118903313459e-14
1.058436696451625571e-14
8.130470176793501031e-15
6.347821136929702539e-15
5.010655467754759948e-15
3.971281394825147264e-15
3.138172607227096918e-15
2.455339702239486803e-15
1.890283290379702637e-15
1.424507873767234182e-15
1.046722634585818734e-15
7.482428917382666191e-16
5.203659536394635792e-16
