# bin_11_1
6.506108032135063616e-41
7.063649836427542063e-41
7.472101319381257241e-41
7.647634336840163339e-41
7.524022502514073341e-41
7.005967856212153840e-41
6.166734599494067552e-41
5.141617647039109166e-41
4.205203322795385212e-41
3.556021418958851353e-41
3.068906073364609608e-41
2.388173408534436647e-41
1.658637553824098784e-41
1.330615753073084976e-41
9.466627534161078438e-42
7.010580888534131625e-42
4.880351977913163736e-42
3.558831375280031265e-42
2.573610909547128786e-42
1.877477977510737506e-42
1.391457374587826272e-42
1.048475540339292697e-42
8.044742495312836096e-43
6.261145894245712002e-43
4.913584627523278678e-43
3.862815477629599636e-43
3.020384117662829000e-43
2.333601289746820755e-43
1.771624875101791184e-43
1.315698941167620852e-43
9.526782286371574404e-44
