# bin_13_12
5.521334531455491101e-06
6.172791345946261854e-06
6.770797837910434345e-06
7.251810193359496654e-06
7.535811694011750236e-06
7.554823712252145304e-06
7.207083883869037252e-06
6.490108579540311107e-06
5.521003377439998914e-06
4.525705720856022644e-06
3.757018530832471044e-06
3.251448794739409451e-06
2.685784150104530720e-06
1.900281484817437831e-06
1.418369288347031965e-06
1.106111881549504251e-06
7.484623358897631850e-07
5.495098853103738971e-07
3.903511317260016514e-07
2.722895520651566606e-07
1.912097531403775596e-07
1.355024101943454857e-07
9.744135746576187474e-08
7.124791379801323736e-08
5.313503823696136256e-08
4.032265162830656850e-08
3.102865321068282063e-08
2.406945501290076983e-08
1.868568238343789269e-08
1.441415276209540462e-08
1.097949917442054853e-08
