# bin_10_4
7.273173318959386271e-17
7.918869075607812644e-17
8.406389764255647668e-17
8.640598613414419291e-17
8.549629929834416432e-17
8.017368102391094302e-17
7.104608235832959770e-17
5.954983068173644884e-17
4.868973201794437041e-17
4.093705305072199110e-17
3.541517402751150221e-17
2.809889719256734482e-17
1.951810757767226429e-17
1.539438985488102209e-17
1.127766035580178526e-17
8.141540946790138817e-18
5.726932755145272577e-18
4.193428100185105170e-18
3.014948812248570799e-18
2.185350987598952863e-18
1.611737340519745056e-18
1.208779695506160950e-18
9.231475704064099515e-19
7.158850184478374471e-19
5.605217839668244684e-19
4.403048637288674826e-19
3.445327876941616492e-19
2.667438332592402459e-19
2.031641379132925735e-19
1.515189421604911122e-19
1.102562396666976002e-19
