# bin_14_1
2.758306637722100809e-58
3.037920319702263038e-58
3.271429999818332552e-58
3.424180833040965337e-58
3.461764381633602925e-58
3.344058937179924151e-58
3.049498222151095442e-58
2.628282863246963409e-58
2.164696262202706188e-58
1.781840439460612010e-58
1.531473207422978959e-58
1.295520493722739710e-58
9.489032319708454511e-59
6.789964606801477960e-59
5.501510771661632043e-59
3.682790358431816132e-59
2.806322545748483767e-59
1.967478493498586458e-59
1.389579889107323913e-59
9.976292651583491645e-60
7.213720763326725452e-60
5.293635139625003645e-60
3.950356093807063531e-60
3.004527065506689078e-60
2.319457666925709191e-60
1.807941060498562263e-60
1.413823400763590141e-60
1.101134648635662170e-60
8.485455208486019917e-61
6.433500635396068430e-61
4.777980386074130099e-61
