# bin_8_5
1.561775583434654697e-08
1.691220109373739151e-08
1.783243059812921400e-08
1.818321815358271179e-08
1.779449669349104305e-08
1.646643353533324574e-08
1.440604488806452443e-08
1.196306385905040707e-08
9.795392520839060663e-09
8.323451492694609973e-09
7.152850280045059188e-09
5.471962479305117908e-09
3.820258459790206280e-09
3.091273731492607387e-09
2.153552616281662219e-09
1.620456059375222864e-09
1.128922409037545422e-09
8.181965829965374488e-10
5.940973557570267531e-10
4.353946778428626777e-10
3.239631266955406536e-10
2.451025166913331449e-10
1.887822851737420116e-10
1.473465023980738171e-10
1.158270467293686020e-10
9.109060121074078870e-11
7.115890457078798487e-11
5.486613980074679687e-11
4.152777507467512498e-11
3.072273501638487148e-11
2.214914592734226496e-11
