# bin_18_15
2.612124913164429107e-07
2.952374185501863263e-07
3.281405927703459217e-07
3.572264641197563911e-07
3.789119797053188576e-07
3.888623240967686593e-07
3.838137946297325661e-07
3.586115334734952907e-07
3.166395347302596737e-07
2.645609274681035557e-07
2.163894091229588704e-07
1.827825330489544310e-07
1.581519025144629976e-07
1.237506502997126112e-07
8.537485033848308123e-08
6.816048377186372435e-08
4.833534954897203002e-08
3.516665956660426743e-08
2.378151846572410489e-08
1.693953516143308003e-08
1.175267948972140060e-08
8.137582336478136285e-09
5.677709478197869566e-09
3.997434114723276804e-09
2.862560723235612495e-09
2.090193233095370559e-09
1.556136690018111434e-09
1.179574551576634262e-09
9.056592333627461701e-10
6.995712003917044148e-10
5.395637105531169914e-10
