# bin_4_3
8.453702437575520243e-06
8.803065958927608665e-06
8.852333048782423349e-06
8.492750212288446534e-06
7.696136280256521590e-06
6.593168115546795655e-06
5.419372865451560336e-06
4.475715527433776033e-06
3.850299810228671956e-06
3.219899027475310677e-06
2.339597285731686764e-06
1.711919251391616077e-06
1.366069579599274127e-06
9.396967918325037745e-07
7.123239548144657067e-07
5.141647577361607191e-07
3.744658427461358604e-07
2.776800718790148749e-07
2.091293260783348353e-07
1.604174296563970859e-07
1.251002901386026696e-07
9.885064727867397813e-08
7.858990823009053260e-08
6.241518572045926824e-08
4.916945845167809120e-08
3.816812976125319225e-08
2.903255112169184556e-08
2.154543869973128003e-08
1.555619081459139494e-08
1.092322454344213449e-08
7.470246862165443036e-09
