# bin_20_4
8.176697981825840829e-62
9.183722287535098938e-62
1.013038036136718524e-61
1.092620223431737427e-61
1.145559631781018706e-61
1.160103262165979470e-61
1.123131853508674168e-61
1.026349604630639980e-61
8.864158614087470190e-62
7.307691185519670783e-62
6.011279098107345786e-62
5.164370578378703597e-62
4.382254839533244401e-62
3.219582597966523922e-62
2.286743316474266012e-62
1.857312738807146679e-62
1.230536643366955539e-62
9.347068218379052709e-63
6.446850273094112420e-63
4.466429658116011008e-63
3.137116260312874263e-63
2.205391864458640657e-63
1.565579701193679889e-63
1.126751491242230917e-63
8.273112465760525372e-64
6.190730814243936367e-64
4.711036998733135316e-64
3.629932738137490964e-64
2.812603602419068500e-64
2.175545193015296712e-64
1.668146106941729939e-64
