# bin_18_7
1.501712506306724136e-31
1.683396136912238208e-31
1.852540200112311692e-31
1.992241270280380117e-31
2.081070500055691432e-31
2.098758343495160779e-31
2.019333153325362363e-31
1.833638434786097917e-31
1.573221257736158618e-31
1.293331091727544338e-31
1.067598717602589062e-31
9.207218882243078872e-32
7.732516807793344143e-32
5.582107840064772111e-32
4.045128408376073003e-32
3.242465460040709292e-32
2.155437795414504174e-32
1.622145701999126843e-32
1.132465524933667969e-32
7.860476793521205813e-33
5.519241404400161416e-33
3.888385244586168722e-33
2.775015797627615435e-33
2.010823054735805461e-33
1.486558829627761372e-33
1.119391003016861315e-33
8.562225856230491159e-34
6.619001078850725042e-34
5.134747416377609638e-34
3.968279056781746615e-34
3.034769460530823839e-34
