# bin_12
0.000000000000000000e+00
0.000000000000000000e+00
0.000000000000000000e+00
0.000000000000000000e+00
0.000000000000000000e+00
0.000000000000000000e+00
0.000000000000000000e+00
5.792396153828431681e-276
4.817343335800360319e-235
5.978195590016122374e-200
8.460478688815088670e-170
7.338960088928420144e-144
1.580569665383439523e-121
2.723214146058387970e-102
1.003830027167194714e-85
1.817447683221645040e-71
3.271603289703360726e-59
1.067984814471389413e-48
1.057301775369858285e-39
4.937064266630661206e-32
1.591165145527943522e-25
4.920159886417181582e-20
1.942962251150864748e-15
1.257316452351165197e-11
1.658594343631327744e-08
5.405969978740386986e-06
5.164234157261702977e-04
1.685451151364966704e-02
2.160423418351123948e-01
1.235390709265761222e+00
3.531341776042929759e+00
5.546221850484337246e+00
5.133346574219046943e+00
2.936940594079465061e+00
1.075366473883442753e+00
2.598461995495741084e-01
4.274295998560077858e-02
4.942043420014741867e-03
4.147436332659510403e-04
2.606281036371787667e-05
1.263194676313307739e-06
4.854110286869693698e-08
1.517071582712271484e-09
3.947401969465730917e-11
8.735689633620472947e-13
1.676515252120039013e-14
2.839998020606734183e-16
4.315168360932760201e-18
5.967175242845816707e-20
7.609628602487059959e-22
9.056851187204794455e-24
1.016992471387649561e-25
1.088051843989034151e-27
1.119013255655449843e-29
1.115249588407878668e-31
1.084991053769192969e-33
1.037200410224120660e-35
9.801072372875275469e-38
9.204551358446337816e-40
8.633121921532463711e-42
8.122361572688731326e-44
7.696129160357406031e-46
7.370459535222796629e-48
7.157329651726237954e-50
7.068105218115956226e-52
7.116780914417359077e-54
7.323336969407139849e-56
7.717719311238978139e-58
8.345186887303902064e-60
9.274153571411098375e-62
1.060832512580353571e-63
0.000000000000000000e+00
0.000000000000000000e+00
0.000000000000000000e+00
0.000000000000000000e+00
0.000000000000000000e+00
0.000000000000000000e+00
0.000000000000000000e+00
0.000000000000000000e+00
0.000000000000000000e+00
0.000000000000000000e+00
0.000000000000000000e+00
