# bin_17_4
3.601868671030910319e-08
3.183009142786940939e-08
2.735586059487339808e-08
2.291527956219354815e-08
1.880150550546973651e-08
1.519653979107534247e-08
1.213828737566478465e-08
9.548257272460685624e-09
7.344690898091440873e-09
5.537768289672651988e-09
4.166935605233989802e-09
3.153310310823399650e-09
2.378044412266820836e-09
1.808911904905749406e-09
1.388369455044065758e-09
1.076218919600804889e-09
8.410300215567940583e-10
6.607658217746988149e-10
5.197501178581310985e-10
4.074477906350206139e-10
3.169236284194751050e-10
2.436017442673140030e-10
1.844010246923790215e-10
1.370996522537398013e-10
9.992128999842689375e-11
7.130778410870753084e-11
4.981395025493248884e-11
3.408318285465644585e-11
2.287073298397969979e-11
1.508026102183252428e-11
9.792883138624841197e-12
