# bin_8_8
4.279603055041444777e-08
3.858569438729269997e-08
3.385928698404827301e-08
2.893009804214445164e-08
2.412905514238224633e-08
1.973436510047396338e-08
1.590152631590035882e-08
1.264791689659697745e-08
9.899991035418348262e-09
7.591710573648965301e-09
5.723972824084594480e-09
4.303514195249374207e-09
3.248157196534773341e-09
2.448460517612108120e-09
1.857822185891329725e-09
1.422282284786201024e-09
1.098009986153240374e-09
8.538162595242933322e-10
6.668968626875356747e-10
5.211815723165876693e-10
4.058080339165887175e-10
3.135206268938529787e-10
2.394395582590601135e-10
1.801918541302622809e-10
1.332943201312667118e-10
9.675099821021033276e-11
6.883578788901394919e-11
4.799062050831684872e-11
3.279891844654958417e-11
2.199868579395439443e-11
1.450360590523869869e-11
