# bin_13_11
5.758269381326149047e-08
5.324135825539214819e-08
4.794333208622049734e-08
4.200735663887192822e-08
3.583441605623585613e-08
2.984322461346421081e-08
2.437898665347660637e-08
1.962557690455260586e-08
1.559264427017429588e-08
1.218147009250186846e-08
9.314325911853596992e-09
7.001851591876682993e-09
5.251106532583285597e-09
3.948766398333246258e-09
2.960890115287578329e-09
2.234997268968922545e-09
1.699919541306137912e-09
1.303645603375578480e-09
1.006719159964606591e-09
7.810600281713665216e-10
6.066183911487734252e-10
4.697466549177118089e-10
3.612528042906741717e-10
2.748911596391822313e-10
2.063267439149042413e-10
1.523792392822944366e-10
1.105316198026885856e-10
7.865965015212205073e-11
5.489459158779491610e-11
3.757670770736523276e-11
2.525128179226870798e-11
