# bin_11_8
4.772222392762568080e-08
4.340115754754070511e-08
3.841589576845705012e-08
3.309079577845539214e-08
2.779050143164217344e-08
2.284978412967460995e-08
1.848720616955703196e-08
1.476544138516090949e-08
1.162106451548516949e-08
8.964571512209027285e-09
6.777794094040440053e-09
5.086737416668236266e-09
3.833609771428371314e-09
2.885419719749252339e-09
2.178321090572268443e-09
1.660704739727860355e-09
1.275686951931063093e-09
9.879738886860841990e-10
7.694431140359555335e-10
6.004639967296964143e-10
4.676291149263265946e-10
3.619206637538361658e-10
2.772910057305016148e-10
2.096026291231517523e-10
1.558907344885239917e-10
1.138482118345448151e-10
8.153472790959434582e-11
5.722886972096993579e-11
3.937287627467671053e-11
2.657324583876868676e-11
1.761851968451126090e-11
