# bin_19_16
7.409682243237692252e-08
7.003350208309056754e-08
6.455282386935707189e-08
5.792743910873681978e-08
5.057055748474671628e-08
4.298826616559109608e-08
3.569432435745332268e-08
2.909194466356764448e-08
2.337495866349295039e-08
1.852714754102188184e-08
1.442036487030955126e-08
1.097623548733410370e-08
8.221890659513452024e-09
6.150477430481435630e-09
4.603874979638458793e-09
3.432899857640529136e-09
2.577705386197740364e-09
1.947211075441817711e-09
1.482870067602644645e-09
1.136674078529928559e-09
8.753129797634313993e-10
6.749271891971627531e-10
5.191469493897933815e-10
3.968584205084119901e-10
3.004380443421517642e-10
2.245663941021936465e-10
1.653369376823525095e-10
1.196907618587030656e-10
8.509904445353272502e-11
5.939421502605528262e-11
4.069688969157122676e-11
