# bin_20_7
5.097951524749374107e-08
4.648792444959159679e-08
4.123676614696800388e-08
3.557181479930188903e-08
2.989515976688986458e-08
2.458838855854559843e-08
1.990434627175788697e-08
1.591680896972698111e-08
1.254388666237665596e-08
9.674278251428780464e-09
7.299059532188265774e-09
5.473031411916586935e-09
4.126946169474654492e-09
3.099321705657580929e-09
2.338728852228530753e-09
1.781082702479473729e-09
1.367936526852485108e-09
1.059298557490227158e-09
8.253453310266179205e-10
6.446412504222821593e-10
5.026266803882637387e-10
3.895586101178169977e-10
2.989206808568685562e-10
2.262948917097557466e-10
1.685420387869632147e-10
1.232347499061413791e-10
8.833734227162051504e-11
6.203911161656915539e-11
4.269177749714529494e-11
2.881049184221758734e-11
1.909541076390958418e-11
