# bin_15_13
6.419893693178434828e-08
5.992499020682393146e-08
5.450484515388337819e-08
4.824361133966417254e-08
4.155394333288199059e-08
3.489699542267636895e-08
2.869280859532304085e-08
2.321302111615795343e-08
1.853337533055252484e-08
1.457477905624001366e-08
1.122904345524848807e-08
8.475893057835584902e-09
6.344994401342649567e-09
4.762921037912943915e-09
3.567116693408525847e-09
2.675888435486507629e-09
2.024938901952750811e-09
1.542657820733216549e-09
1.184588530977158805e-09
9.148815728362859077e-10
7.084593166598094510e-10
5.480207089895671332e-10
4.217998474628158784e-10
3.218207804406809280e-10
2.425880016195337886e-10
1.801768733960958139e-10
1.315847139166846563e-10
9.435752507915104889e-11
6.638764950268104087e-11
4.582442301834317321e-11
3.104765877588213188e-11
