# bin_19_15
7.239313577275001578e-08
6.827729268421784608e-08
6.278872005536211053e-08
5.620735160123435322e-08
4.894875582297551262e-08
4.151408965295484465e-08
3.440382252590263105e-08
2.799914559497790348e-08
2.247095966810201826e-08
1.778751564293339486e-08
1.381955619660848486e-08
1.049933795290764369e-08
7.859883915399702482e-09
5.883724459174041589e-09
4.404679820332645470e-09
3.286504757862570138e-09
2.471753390113675580e-09
1.869766528709717665e-09
1.426242864065993635e-09
1.094957391779438654e-09
8.442180904011486596e-10
6.514870831683184787e-10
5.013024329537666193e-10
3.831786739049268191e-10
2.899212819219418307e-10
2.164978042219183680e-10
1.591870438870026254e-10
1.150531109824642739e-10
8.165091022560609884e-11
5.687323381660728472e-11
3.888777692799586356e-11
