# bin_20_12
6.694393203762929171e-08
6.266243590636441419e-08
5.715320326933381662e-08
5.071998378643468630e-08
4.378583829333858767e-08
3.683538926658906198e-08
3.032406568116494875e-08
2.455734134012368013e-08
1.963105013130631124e-08
1.546353387946135091e-08
1.192974947219593788e-08
9.004402679627765823e-09
6.735109943634411644e-09
5.055734599095910297e-09
3.782939318582270372e-09
2.833775534637937021e-09
2.141928601082922352e-09
1.629692409241388284e-09
1.250027762204517421e-09
9.647506614435933783e-10
7.468832994385814826e-10
5.778577539395140634e-10
4.450505723093807723e-10
3.399104909311138701e-10
2.565667847726085386e-10
1.908569672591079819e-10
1.396210217824333141e-10
1.002948580440654976e-10
7.068553638077734248e-11
4.886898211985165499e-11
3.315763826563912606e-11
