# bin_13_12
5.954755877121086873e-08
5.522454968129635141e-08
4.988828943409108366e-08
4.385362838979874296e-08
3.752528154902300682e-08
3.133485484205430807e-08
2.565025700365766422e-08
2.068155368410530880e-08
1.645782911305277870e-08
1.288553477023000896e-08
9.877144710494115684e-09
7.434130375422909702e-09
5.571309590015801941e-09
4.187425853503013739e-09
3.138466750586401589e-09
2.364051684449641045e-09
1.795170663450076821e-09
1.373742687484587229e-09
1.058920649785085345e-09
8.203871965969545931e-10
6.365885514853844841e-10
4.928097766136136958e-10
3.791108826041843276e-10
2.887428912547153524e-10
2.170336868603849033e-10
1.605874361978953662e-10
1.167464116857972609e-10
8.329076568611037420e-11
5.828219118375612719e-11
4.000497521974913130e-11
2.695555936670559458e-11
