# bin_15_1
1.844707423168625203e-08
1.548714131333242302e-08
1.273241498788033435e-08
1.030948385009306220e-08
8.248930837081826315e-09
6.502433880452802564e-09
5.016672102657761970e-09
3.796781956794671650e-09
2.866780452611895202e-09
2.177683192841493839e-09
1.653435478233949288e-09
1.266212706986233188e-09
9.802402322132314432e-10
7.667129032893219902e-10
6.048798568804385365e-10
4.796240741994982375e-10
3.804742911843579899e-10
3.004848800292343257e-10
2.351678398707966834e-10
1.816345976890602507e-10
1.379742790964000788e-10
1.028101644276334898e-10
7.501267981889971717e-11
5.354343372422497126e-11
3.739114355499509389e-11
2.556977162173045083e-11
1.715132592021042620e-11
1.130870352664373034e-11
7.346784663964651500e-12
4.713856620997651811e-12
2.993708631079772845e-12
