# bin_8_7
4.053266186006477168e-08
3.637594975834137266e-08
3.177143423820004426e-08
2.702694630860554257e-08
2.245750500249492499e-08
1.831466096060283666e-08
1.472479950314596651e-08
1.168475046007098924e-08
9.117255206058845003e-09
6.968026890540787088e-09
5.246574880862603209e-09
3.949356289789531249e-09
2.982952657297143697e-09
2.250753457557870025e-09
1.712843052231911955e-09
1.314319284214260191e-09
1.017460066587342535e-09
7.929432020574492744e-10
6.203001257438961982e-10
4.851053401794428920e-10
3.776447161619640409e-10
2.914526449043259195e-10
2.221730960839988961e-10
1.667748841179783520e-10
1.229893629445407265e-10
8.895930690944651200e-11
6.305442190192329965e-11
4.379025977015867699e-11
2.981450306257977404e-11
1.992544232933323824e-11
1.309434839077379842e-11
