# bin_16_13
6.542849615466515353e-08
6.116778541739288515e-08
5.572578041729004844e-08
4.940499234381901337e-08
4.262013395465720485e-08
3.584012353793026770e-08
2.949870860619255670e-08
2.388376927942614368e-08
1.908341124133478259e-08
1.502245523795524524e-08
1.158737915890329637e-08
8.752184731263738459e-09
6.550308996296010936e-09
4.915597940974834201e-09
3.680837754784593800e-09
2.758651524066531489e-09
2.085891342610959098e-09
1.587466421351519314e-09
1.217916399912796716e-09
9.399324750840953613e-10
7.275054506903303016e-10
5.626467730307962785e-10
4.331053690593818225e-10
3.305790272024123863e-10
2.493533173126657856e-10
1.853628442316149212e-10
1.355131197532607059e-10
9.728784113801637298e-11
6.853433245025401538e-11
4.736611953034225738e-11
3.213212401960742592e-11
