# bin_9_8
9.081915123779198619e-11
9.978888364333592813e-11
1.071444450702855026e-10
1.117326523850126548e-10
1.124887505740053064e-10
1.080058307253713460e-10
9.788384652607170820e-11
8.387384620657648081e-11
6.885232149861379963e-11
5.684940477903876024e-11
4.901338966921910616e-11
4.104381302865257867e-11
2.959771065466572020e-11
2.157276574756948966e-11
1.724834288992351686e-11
1.160297477271221201e-11
8.755826977278635133e-12
6.205293580129916625e-12
4.390238416532227983e-12
3.152403344307983294e-12
2.285252053653927531e-12
1.684359943915499203e-12
1.263020410684693015e-12
9.648657302660240983e-13
7.473945287233219895e-13
5.838100959241820066e-13
4.568455048839990135e-13
3.555354301587620260e-13
2.734278107870504936e-13
2.066790284267850660e-13
1.528979741724493949e-13
