# bin_10_3
1.729768750467633152e-26
1.878807626834122962e-26
1.988525042080612009e-26
2.036573925363079409e-26
2.005552055409997823e-26
1.869650751008297281e-26
1.647683600074956964e-26
1.374521653434613329e-26
1.123740463407915384e-26
9.489627425342663031e-27
8.193963667989846572e-27
6.400770351373999100e-27
4.442483489498914970e-27
3.552393136221591567e-27
2.541764771416662540e-27
1.872684540111617047e-27
1.305296314671023469e-27
9.529631212462264246e-28
6.882603729557481274e-28
5.014033369763614204e-28
3.712476826850329537e-28
2.794462701551319407e-28
2.142143454202343248e-28
1.666079975426064433e-28
1.306911067355498052e-28
1.027293946795604703e-28
8.034041977433809493e-29
6.210077500627067349e-29
4.717886945452678366e-29
3.506957438613048213e-29
2.542059988927956615e-29
