# bin_15_11
5.507535964842232681e-14
6.172752447053247956e-14
6.791450522636989808e-14
7.301615847574062904e-14
7.624698008680900981e-14
7.686767596978426099e-14
7.392522093746664504e-14
6.709423372438444725e-14
5.757198566062206429e-14
4.728524202520559964e-14
3.902488152879653640e-14
3.365292772109201419e-14
2.824811516329518685e-14
2.038056302338481305e-14
1.477317890193118058e-14
1.183281772828461178e-14
7.868489075248587779e-15
5.917339649050185527e-15
4.131647338710151362e-15
2.867954880309896019e-15
2.013688537062506080e-15
1.418942548081529202e-15
1.012911868858659461e-15
7.340465914004515406e-16
5.428417170336068431e-16
4.088668154080963409e-16
3.128004717003380983e-16
2.418423100386867046e-16
1.876210544814112838e-16
1.449951806145845900e-16
1.108765087107184016e-16
