# bin_7_3
4.869458803963845662e-16
5.196934627776706941e-16
5.379837218781070645e-16
5.371633132284768875e-16
5.099674479001009305e-16
4.572512776639361939e-16
3.875971904392822144e-16
3.172427873437189088e-16
2.638328257857447309e-16
2.280491964920158448e-16
1.868235490867788446e-16
1.321535479431130706e-16
9.998114749880946348e-17
7.738796270890145693e-17
5.376781518668433555e-17
3.967172732791935144e-17
2.892574855482125258e-17
2.089728695013191358e-17
1.530894930402585217e-17
1.140933115014217827e-17
8.662513916545572099e-18
6.690566789810564416e-18
5.241726241355836590e-18
4.138191386735967113e-18
3.269724444389670339e-18
2.567654618885645265e-18
1.990549911482942971e-18
1.514899935443227822e-18
1.126645486125088356e-18
8.160959900977363989e-19
5.750946646048305515e-19
