# bin_12_2
9.138620874421180797e-43
9.998566411963402199e-43
1.067890685457345262e-42
1.106101028560136760e-42
1.104917600615423611e-42
1.049202422935728571e-42
9.407404346080152818e-43
7.972580946843358165e-43
6.524477822609772459e-43
5.428577695544765363e-43
4.697445085912931814e-43
3.846813787569400627e-43
2.709030062432473892e-43
2.050734158683114851e-43
1.581826354950870997e-43
1.091047823476552518e-43
7.978661638600286088e-44
5.773529904579594295e-44
4.110624032174613665e-44
2.956130912962144072e-44
2.158565765233382487e-44
1.604126591348225503e-44
1.213559644066398526e-44
9.340361959439817135e-45
7.275262820333850829e-45
5.700952892090070300e-45
4.463253461775725907e-45
3.466462123213223907e-45
2.654711213477988086e-45
1.994611202061709104e-45
1.464501750456380873e-45
