# bin_18_4
5.286732397627307231e-57
5.914600965209649460e-57
6.493068616667562993e-57
6.961710283946459221e-57
7.244361821103596254e-57
7.274289127886280560e-57
6.955595388073872107e-57
6.276996523630452867e-57
5.354368508749878681e-57
4.388930775177934167e-57
3.635693181380958732e-57
3.143536237731282017e-57
2.610075819845174151e-57
1.856495174053248872e-57
1.372886255142739311e-57
1.080327005158104130e-57
7.260456892282884723e-58
5.376127613397029711e-58
3.798029638447463270e-58
2.644762255631776418e-58
1.856750465258465579e-58
1.313107535057298462e-58
9.421253869637758513e-59
6.869680566803029717e-59
5.110653271705453134e-59
3.869825859320668352e-59
2.972925698991486452e-59
2.304123337458273356e-59
1.788580462405082142e-59
1.380604133581878296e-59
1.052947610693249310e-59
