# bin_14_10
3.622182853498798624e-14
4.046355449336689714e-14
4.434033598071439532e-14
4.743316586784765214e-14
4.921553670735624431e-14
4.925341179183113967e-14
4.687352068142153085e-14
4.211091724964733544e-14
3.575456550421494134e-14
2.927414992930632012e-14
2.433311137326674129e-14
2.106574117472535926e-14
1.731884320988664761e-14
1.220043354444955917e-14
9.170767253888982720e-15
7.095726731722747210e-15
4.829006511826669537e-15
3.518668096331871327e-15
2.509797243466662641e-15
1.752954146488390866e-15
1.231308445798065698e-15
8.740927090154230741e-16
6.297544197303100718e-16
4.614202543857648602e-16
3.448474579155865552e-16
2.621610891639281905e-16
2.020012467154644447e-16
1.568063859422240077e-16
1.217386361450581849e-16
9.385777948213643573e-17
7.141916725971253629e-17
