# bin_19_11
2.508637644629784143e-22
2.829342892627986558e-22
3.136564353524073838e-22
3.403794212587188923e-22
3.596298187890546267e-22
3.673684775177129419e-22
3.603016148381015561e-22
3.340629276205102933e-22
2.928570165608959389e-22
2.432569844437541689e-22
1.990985321750000754e-22
1.691831740441329471e-22
1.458206323900246622e-22
1.116729660456277133e-22
7.727889576921289090e-23
6.257566057870295664e-23
4.292823540452424398e-23
3.206346326204617200e-23
2.161700196248506286e-23
1.519274197211714918e-23
1.061276796269165702e-23
7.411451505223039500e-24
5.201498985650153457e-24
3.687201606283665661e-24
2.663327422641547375e-24
1.961800956754179972e-24
1.472404353962853115e-24
1.123318204357300567e-24
8.659665787770255248e-25
6.697947291714243283e-25
5.159177202194514099e-25
