# bin_6_5
1.220749793211868744e-10
1.309066664235316130e-10
1.363405014542344617e-10
1.370964675382315156e-10
1.314574868570201067e-10
1.190130273672729294e-10
1.018836499563493575e-10
8.362379143265481812e-11
6.907354128932967956e-11
5.951131540626451008e-11
4.973162929155719953e-11
3.591434790728156868e-11
2.629347953910652338e-11
2.097631722602111654e-11
1.428075011842502624e-11
1.079653291463169200e-11
7.740864765946291430e-12
5.564346050861042870e-12
4.067910825725646871e-12
3.014002318519292750e-12
2.273727483414327167e-12
1.744992221253262284e-12
1.360545091729919011e-12
1.070928285841968951e-12
8.453555281020400714e-13
6.645629627378308256e-13
5.167145813736234609e-13
3.950492208685869314e-13
2.955467245657216617e-13
2.155607265455997547e-13
1.530017858332355351e-13
