# bin_18_9
8.198464846208238571e-27
9.213365797757595405e-27
1.016995375172377678e-26
1.097811336367464284e-26
1.152242590689832634e-26
1.168278985176816446e-26
1.133197214956018930e-26
1.037623991708366404e-26
8.984605216229015835e-27
7.408498128167032719e-27
6.086082440105119926e-27
5.219900765228372072e-27
4.443023123748757748e-27
3.284629004133950010e-27
2.318066035345673766e-27
1.887502844008484389e-27
1.252107944708202775e-27
9.519578616296160745e-28
6.536443722604999726e-28
4.528420052991923141e-28
3.180622149058482251e-28
2.234916470998081470e-28
1.583775707075190401e-28
1.136902401911153986e-28
8.327566583836489178e-29
6.217261590020028806e-29
4.722021646992275928e-29
3.633718887972949440e-29
2.813996600329159471e-29
2.177046872629340254e-29
1.670716672029118725e-29
