# bin_15_1
6.368866320436090929e-69
7.045677603145590361e-69
7.628883234302797121e-69
8.040260154911831236e-69
8.191632732406847206e-69
8.005497918700108774e-69
7.393487502372589047e-69
6.457277204418081975e-69
5.350776032541777221e-69
4.381912812113593000e-69
3.731670248135987315e-69
3.205448158763639772e-69
2.433298016881832017e-69
1.694556655756686869e-69
1.377709151220793313e-69
9.417919922650596078e-70
7.121077324209118664e-70
4.890664677253639168e-70
3.480287114757696842e-70
2.489342797987492733e-70
1.790430380540851356e-70
1.302003787746280972e-70
9.611365806939522688e-71
7.236681686785842661e-71
5.540889278001256286e-71
4.294398831529395748e-71
3.349935828327071059e-71
2.611023711780781062e-71
2.019411992935791442e-71
1.540346401447133511e-71
1.153203802333139299e-71
