# bin_17_17
8.685031856805230630e-11
9.830066035694234664e-11
1.094411270791481017e-10
1.193902232512662120e-10
1.269684232962783139e-10
1.307216716862362777e-10
1.295760665018677682e-10
1.217173987119554692e-10
1.080150539015191658e-10
9.061600307295347132e-11
7.408749797066373217e-11
6.227599444687148340e-11
5.395396312873860862e-11
4.289076848962548880e-11
2.962251008567859718e-11
2.328436296018128395e-11
1.695180260143582763e-11
1.203856573258792771e-11
8.246864614834253300e-12
5.901267113574676753e-12
4.074181291968239685e-12
2.802296281681501875e-12
1.945952754519007417e-12
1.362805009933162103e-12
9.693358614005962088e-13
7.029314776554365261e-13
5.198409796565875016e-13
3.918527500177846493e-13
2.997173616639825816e-13
2.311246642624627797e-13
1.783414464389074453e-13
