# bin_12_3
2.087741526395324450e-35
2.288690564188395862e-35
2.450411058221692924e-35
2.546066618535747234e-35
2.552661413258912468e-35
2.436324575626071229e-35
2.195065670843041336e-35
1.869494001596643756e-35
1.531679128295259983e-35
1.269643377705494332e-35
1.097374418810479827e-35
9.084797047954139158e-36
6.459918866896122816e-36
4.805624148901974206e-36
3.774097911963778450e-36
2.567382464226630423e-36
1.908175611950993344e-36
1.368028758121397587e-36
9.708690082883581422e-37
6.974138598859724480e-37
5.073582196642854846e-37
3.756202726447832500e-37
2.830372710367856265e-37
2.171238067871977460e-37
1.687124980139911661e-37
1.320302824141952318e-37
1.033559766796491919e-37
8.035517121988878906e-38
6.166131562387460769e-38
4.645933081521444107e-38
3.423083144644405584e-38
