# bin_15_12
1.654771834308548048e-12
1.857141956593646712e-12
2.046649169982828383e-12
2.204877342708916532e-12
2.308381880741197066e-12
2.333947255361982836e-12
2.254294872049164095e-12
2.055014839204688492e-12
1.771360153589195569e-12
1.457555137952627659e-12
1.199955066680685165e-12
1.032134959827841299e-12
8.727872116099702876e-13
6.372578542488233377e-13
4.553825073363858739e-13
3.684585553040238031e-13
2.441371402825476031e-13
1.849906712887575124e-13
1.280785504847709969e-13
8.875978415888981994e-14
6.233659617737457621e-14
4.384851127736727495e-14
3.118545293656226309e-14
2.249288331458074859e-14
1.655583304177411357e-14
1.241640529604906214e-14
9.466009613055607193e-15
7.302643779407054263e-15
5.661136648818254944e-15
4.377851703360495018e-15
3.353925100615930116e-15
