# bin_15_13
1.719037681570960929e-11
1.931833598850454821e-11
2.132399118114283202e-11
2.301839071513799008e-11
2.415952166438284259e-11
2.449558893170664633e-11
2.375979197276443535e-11
2.175582548385556220e-11
1.883791084364845867e-11
1.553342089946328658e-11
1.276086970504989175e-11
1.094464917717737621e-11
9.315434754811520131e-12
6.886752773113293414e-12
4.860609911471155516e-12
3.957205824025104106e-12
2.625579415546316638e-12
1.995868420019783787e-12
1.370433767753430935e-12
9.495076209364626214e-13
6.668924358994117673e-13
4.686055998672455331e-13
3.320805094230072483e-13
2.383841187573845405e-13
1.746123616430118814e-13
1.303641126824418058e-13
9.901193604951960508e-14
7.619207466388398854e-14
5.900371069979851106e-14
4.564776682767976404e-14
3.503077912721918346e-14
