# bin_13_7
1.458930653633653399e-19
1.617557469165993624e-19
1.756237928408441393e-19
1.857243962958874195e-19
1.899670966173875826e-19
1.866971239154204904e-19
1.735708006922705863e-19
1.525593377432868364e-19
1.269791191682188260e-19
1.038562771451925368e-19
8.797872510034679957e-20
7.592210237543721966e-20
5.871993674427079878e-20
4.065242020980445428e-20
3.274799781802563728e-20
2.294249582287702183e-20
1.703587519370738137e-20
1.166398611703103963e-20
8.381107531318020176e-21
5.964342520798735422e-21
4.265584548667493255e-21
3.087418618738692093e-21
2.267206669151379480e-21
1.697710313522990258e-21
1.293854956003983694e-21
9.993375024721444660e-22
7.781166550299360130e-22
6.064043166825385373e-22
4.696742962947922939e-22
3.592390925875179029e-22
2.699791494473294480e-22
