# bin_19_12
2.284810800010086800e-19
2.579372833077103436e-19
2.862732057603737610e-19
3.111012979403867379e-19
3.292721463809395331e-19
3.370491868139810397e-19
3.315208291929374411e-19
3.084459907261537611e-19
2.712886754094072872e-19
2.258897772907398751e-19
1.847827387006118836e-19
1.565690432862000087e-19
1.352263913816083741e-19
1.045940976630578297e-19
7.221527895931941554e-20
5.813773620988155612e-20
4.048095168483440380e-20
2.989749519861702090e-20
2.014414406920094816e-20
1.425422299907188316e-20
9.924925462548685237e-21
6.904867063178343789e-21
4.832915357815838075e-21
3.414697706425004665e-21
2.456681936395408489e-21
1.802407881066649100e-21
1.347830332667052786e-21
1.025344313745650326e-21
7.890659218968153828e-22
6.100167512435447872e-22
4.702048190972272022e-22
