# bin_14_6
1.061015097592743360e-26
1.177489713008452907e-26
1.279926306437046153e-26
1.355493859742376829e-26
1.388835653413407179e-26
1.368160329955300145e-26
1.275622401730829284e-26
1.124231401962880541e-26
9.377002513107602453e-27
7.666932862991530064e-27
6.479453583856853319e-27
5.599228759040212215e-27
4.365967590781664989e-27
3.019201543960267340e-27
2.418078490366469214e-27
1.714895589900255884e-27
1.260469913622959529e-27
8.645021040959258790e-28
6.236414253912660407e-28
4.426680881615829701e-28
3.156241536522694689e-28
2.279671779554741380e-28
1.670288250282346525e-28
1.247651197272885069e-28
9.488333785186561303e-29
7.316607309411616813e-29
5.691595271677323742e-29
4.434803667781735064e-29
3.436666032106136527e-29
2.631566456819907092e-29
1.980896198319604888e-29
