# bin_20_11
5.532621138072404412e-25
6.248812444653593639e-25
6.939169508273432931e-25
7.546189683449309581e-25
7.993786346660535216e-25
8.190911798930982949e-25
8.067873233849077954e-25
7.519147668234375830e-25
6.623906622570128789e-25
5.522349185874070466e-25
4.516463305699227110e-25
3.821390259853010961e-25
3.303194911388286677e-25
2.567525412458614860e-25
1.771458460096355047e-25
1.421306600673099680e-25
9.973182196796281907e-26
7.319639420725461030e-26
4.936093528973567000e-26
3.503812752097482185e-26
2.435624702629821974e-26
1.690997135803137200e-26
1.181992966166186604e-26
8.338126325847700276e-27
5.986930601966697386e-27
4.383701054013696228e-27
3.272003123442401094e-27
2.485436601934723644e-27
1.910905556227291293e-27
1.476834617386897843e-27
1.138687772166191355e-27
