# bin_20_3
2.952757929719654621e-76
3.313637890623873292e-76
3.651523658119300635e-76
3.933541342530962817e-76
4.117857420405360817e-76
4.162975156103823879e-76
4.020469542112113084e-76
3.664439606591778567e-76
3.158205438680901320e-76
2.598478400618245330e-76
2.139388354027669913e-76
1.840393841650735341e-76
1.555934218388181293e-76
1.135535424222672522e-76
8.117636126821587876e-77
6.567717519145964108e-77
4.350721376608991151e-77
3.296849737415874809e-77
2.283279140812273504e-77
1.582305799263355934e-77
1.111277204293479119e-77
7.816956692685543687e-78
5.559745807867448468e-78
4.011366736505559792e-78
2.952856808808591328e-78
2.214885906884472597e-78
1.688818703481125160e-78
1.302940009614627377e-78
1.010067524342403620e-78
7.810609630947396664e-79
5.983141585047118130e-79
