# bin_16_11
2.781720116961393528e-15
3.119217526680245212e-15
3.433949746395290788e-15
3.694732068281232629e-15
3.862006266978761830e-15
3.897672996987017104e-15
3.754718285361261923e-15
3.413315815659434448e-15
2.933937406077450460e-15
2.411267694804842373e-15
1.988110251434392322e-15
1.712904626869179135e-15
1.441947204542681952e-15
1.044896421327989680e-15
7.532372826141828677e-16
6.059262515036820393e-16
4.021191239555944323e-16
3.034473405683310094e-16
2.111977559679934874e-16
1.464926512071716379e-16
1.028668611988520893e-16
7.242751139635767679e-17
5.162534550647656419e-17
3.735101852293200978e-17
2.757110489566256833e-17
2.073305595623345711e-17
1.584127413267458617e-17
1.223761580562100769e-17
9.491165075162051663e-18
7.336506208183755926e-18
5.613841638966985733e-18
