# bin_2_6
3.690534140741172182e-07
3.699988198917559777e-07
3.539283765916643509e-07
3.201454971727134478e-07
2.741320238986000616e-07
2.256024591728436984e-07
1.867262552990283052e-07
1.600126086355964232e-07
1.327658121070444162e-07
9.729919718424692751e-08
7.171806921277232669e-08
5.627814004885386374e-08
3.975174304209430652e-08
2.978608992689870918e-08
2.168364382632517495e-08
1.602665487763320434e-08
1.202761873224123326e-08
9.183912297200369053e-09
7.142257422453501438e-09
5.639896764200502948e-09
4.500104769334089571e-09
3.601264849080181700e-09
2.869095370449076562e-09
2.259791154007944492e-09
1.748625967709439304e-09
1.322539770773379415e-09
9.742455118232746877e-10
6.978919935478947240e-10
4.864368526025917135e-10
3.306418873786090631e-10
2.198736255651304710e-10
