# bin_6_7
4.912116714092824051e-08
5.274922710692518519e-08
5.503855004411985134e-08
5.545633543192824664e-08
5.334216894155919316e-08
4.845186301521465266e-08
4.162174835971357078e-08
3.421767829579247379e-08
2.821929304195236416e-08
2.426003263060471717e-08
2.037040759924688910e-08
1.485044252191142653e-08
1.077351387067256942e-08
8.630291869267976012e-09
5.884127218435409016e-09
4.455734401120205244e-09
3.176393143498849456e-09
2.284315942395129521e-09
1.669189904858299611e-09
1.235102412868220224e-09
9.297411617386896359e-10
7.120078684344142057e-10
5.540996994501000347e-10
4.355981513112429380e-10
3.436349506963203371e-10
2.701550616443621550e-10
2.101947800374441333e-10
1.609010385233055778e-10
1.205806829771324615e-10
8.813296259597127620e-11
6.270111401408581054e-11
