# bin_1_16
8.002393742350626311e-07
7.722068632229605719e-07
7.056517894171554682e-07
6.105656694277416921e-07
5.056302520528818778e-07
4.170071135999481519e-07
3.548329762913700205e-07
2.978067617256771020e-07
2.244904168885824750e-07
1.631235815298842912e-07
1.279180822802683004e-07
9.216036575669970239e-08
6.858300545848269947e-08
5.015255210919511538e-08
3.733458288757603591e-08
2.813594972343670033e-08
2.158841429924265249e-08
1.687680065410316623e-08
1.339571167276127535e-08
1.073862517424976898e-08
8.629816589917137795e-09
6.899780129422054169e-09
5.450161062951097419e-09
4.226955393814743975e-09
3.202777712130341538e-09
2.362910262822776982e-09
1.695304846779354525e-09
1.183651391605070494e-09
8.060922798575599925e-10
5.371303988419707258e-10
3.513738307950385435e-10
