# bin_7_19
2.320065206447961285e-07
2.519884499473202259e-07
2.667010011915397232e-07
2.731762667695491485e-07
2.690170711061809522e-07
2.508641762968993603e-07
2.211387983627089983e-07
1.846239536058961809e-07
1.510252880477604324e-07
1.274794889442748670e-07
1.099332034575676127e-07
8.596769212723901328e-08
5.990323341681231566e-08
4.764503266215710535e-08
3.424776723609352501e-08
2.510063337190000938e-08
1.763033887925720889e-08
1.283554447918882597e-08
9.262718557523131978e-09
6.744214925526325240e-09
4.990503625017037440e-09
3.755476611720414840e-09
2.877448462447786655e-09
2.236917529749793295e-09
1.754013986483839900e-09
1.378267139279707786e-09
1.077602191413463603e-09
8.328083344591550581e-10
6.326406975057461695e-10
4.702615389633333354e-10
3.409168161845356916e-10
