# bin_19_12
3.288817039982920750e-19
3.709322798422524571e-19
4.112230489341578497e-19
4.462812126737711993e-19
4.715533390190665878e-19
4.817318946424289698e-19
4.725335541390001742e-19
4.381902881360918188e-19
3.841927379338667734e-19
3.191574586706627442e-19
2.612185874260805472e-19
2.219411346246167382e-19
1.913116113906379647e-19
1.465726471772057575e-19
1.014187051842072349e-19
8.210450994452615851e-20
5.635952010893031340e-20
4.207635815422450729e-20
2.836569520030915960e-20
1.994101847633605255e-20
1.392753167392745691e-20
9.724511676415175433e-21
6.823030068099835197e-21
4.836500826476975255e-21
3.492472041189893280e-21
2.571805084527716682e-21
1.929817023191996108e-21
1.471991871935550240e-21
1.134592121799041055e-21
8.774983852444791377e-22
6.758909887434478910e-22
