# bin_1_8
6.377623592278342824e-07
6.149064097899577384e-07
5.614018893744617328e-07
4.853359976369121986e-07
4.017467826695976311e-07
3.314430454700379482e-07
2.821440005188271240e-07
2.365390651325618695e-07
1.779736744268773528e-07
1.294763259494557760e-07
1.015153986094502448e-07
7.307490124960236766e-08
5.441211744092244353e-08
3.979415661429235003e-08
2.962905094025575847e-08
2.233893801277757388e-08
1.714855587939136012e-08
1.341184791527208915e-08
1.064919544827891197e-08
8.538739504891679036e-09
6.862316647547125455e-09
5.486069819011180730e-09
4.332419530618996201e-09
3.358849232242351727e-09
2.543845927061904430e-09
1.875815258135561183e-09
1.345135560343453084e-09
9.387123584449059548e-10
6.390116787446940566e-10
4.256459034027735677e-10
2.783629264549486694e-10
