# bin_10_13
6.116385564389622974e-08
6.764062753656277476e-08
7.321032962136164578e-08
7.712055655194099877e-08
7.853206392333496714e-08
7.668991181871365987e-08
7.077701102485884134e-08
6.176907204584942877e-08
5.117752606341997514e-08
4.193255839631154262e-08
3.572124410457185977e-08
3.063726929107749370e-08
2.322150223652435307e-08
1.621950958443272706e-08
1.315313160616456449e-08
9.009630099367797924e-09
6.792261590700538975e-09
4.680058480156821366e-09
3.332667302697442800e-09
2.382513381069319165e-09
1.712750540660143308e-09
1.245975131392996441e-09
9.204737312806462943e-10
6.933566493011366480e-10
5.310531007642244102e-10
4.116665477472209294e-10
3.211190925175561989e-10
2.502310472638428677e-10
1.934577509774820215e-10
1.474873718035380204e-10
1.103500636381801207e-10
