# bin_8_16
1.623532692018903239e-07
1.776084911784778812e-07
1.896687866200663336e-07
1.964334502427549979e-07
1.961790164505988477e-07
1.862785093104306291e-07
1.670281366103326032e-07
1.415986709173845560e-07
1.159318361305837436e-07
9.647907557783280779e-08
8.341314154185218014e-08
6.824573608018658054e-08
4.819841193535325913e-08
3.644850422692442631e-08
2.807808021061087184e-08
1.941766884516655213e-08
1.419998964191460459e-08
1.024961333964102111e-08
7.300539531824847570e-09
5.256276679069107550e-09
3.839396236667621423e-09
2.853151007800067632e-09
2.158432602828350505e-09
1.660989242024640143e-09
1.293554484201871798e-09
1.013435562898486194e-09
7.932264190726747360e-10
6.159269241310302373e-10
4.715837337846711204e-10
3.542432624290190782e-10
2.600467361995881603e-10
