# bin_17_10
2.545385105999497722e-20
2.855908044106328083e-20
3.146356536594541716e-20
3.388341901418500186e-20
3.545768709408809779e-20
3.583096385440309638e-20
3.458239186832438306e-20
3.149913893950690819e-20
2.712926992274419365e-20
2.231456110635435029e-20
1.837851743704078843e-20
1.581646709290466300e-20
1.335780738721455604e-20
9.730757319697217274e-21
6.970482882751639115e-21
5.632444704560211845e-21
3.731968538293256197e-21
2.825589552535136314e-21
1.959357468810417450e-21
1.358063079171861508e-21
9.537472920191384186e-22
6.710166431069676168e-22
4.775149571369001152e-22
3.447701955759151206e-22
2.539729371054375046e-22
1.906250234046063141e-22
1.454268289567116493e-22
1.122370290441747397e-22
8.701996237635377661e-23
6.728491795727105954e-23
5.152840970160675192e-23
