# bin_3_13
4.445988826063712646e-07
4.576721622465309533e-07
4.537849578156234430e-07
4.273907594395565955e-07
3.805045743613584644e-07
3.208317256481253704e-07
2.628142507166130811e-07
2.197870026987437514e-07
1.891977532770518528e-07
1.521409047936731619e-07
1.081087968601667026e-07
8.303631724808663455e-08
6.280263734000493114e-08
4.489216845433661762e-08
3.295336976348671195e-08
2.419353623222924879e-08
1.778553634556171099e-08
1.328635452465051777e-08
1.010708013008602448e-08
7.828273116521142771e-09
6.156758880761503837e-09
4.891438320864502358e-09
3.897170847752000157e-09
3.091345212756440884e-09
2.424606705859592516e-09
1.868666997998213193e-09
1.408036789595015060e-09
1.033607745719491102e-09
7.378777159222269687e-10
5.125947616080009494e-10
3.472731624874349778e-10
