# bin_1_11
7.202195432396484474e-07
6.947364874438632649e-07
6.346088048468941319e-07
5.488901366867194192e-07
4.544677108610370195e-07
3.748668652406612552e-07
3.190337022077293255e-07
2.676324612360978364e-07
2.015809527985196066e-07
1.465523304656327851e-07
1.149147781403982081e-07
8.276078740161196734e-08
6.160385259025941518e-08
4.505104924192174506e-08
3.353961352868992784e-08
2.528092527750953573e-08
1.940178692655081074e-08
1.517031367244131513e-08
1.204305419667478666e-08
9.655182889038187470e-09
7.759323997414796793e-09
6.203528706537889957e-09
4.899674077416301228e-09
3.799413671984847823e-09
2.878254239136305081e-09
2.123016295006496794e-09
1.522846707067329360e-09
1.063019082899452666e-09
7.238051973719777374e-10
4.822243611297970913e-10
3.154160106462369654e-10
