# bin_12_2
6.249319726112007690e-43
6.828555580340543726e-43
7.281566591222894728e-43
7.526823056953900447e-43
7.500677809708386410e-43
7.099327422439417680e-43
6.345682175810074196e-43
5.361497212963284426e-43
4.385248510593521352e-43
3.657847444683430920e-43
3.166415582643036931e-43
2.573596899006824379e-43
1.803148217256565584e-43
1.380192586453703514e-43
1.051454237686855871e-43
7.328478281397238605e-44
5.301095208497481992e-44
3.855960192548690326e-44
2.751849960931873750e-44
1.981698918791881469e-44
1.450932675525266826e-44
1.080985693238396077e-44
8.199658094706535114e-45
6.324184700585622368e-45
4.933419116092458026e-45
3.868833846726316386e-45
3.028712796216181212e-45
2.350431985806233717e-45
1.797428785864611357e-45
1.347814531382392639e-45
9.871992707737119135e-46
