# bin_19_9
3.520867988546387822e-30
3.960089348680411665e-30
4.375792205048315647e-30
4.729623134540653238e-30
4.972219663458449928e-30
5.050427252025718447e-30
4.912415480109209209e-30
4.511515167872014530e-30
3.918252807585360393e-30
3.235914424369197885e-30
2.655198342082889138e-30
2.272612243063867523e-30
1.941670539060332912e-30
1.447564769101984190e-30
1.014809800200866077e-30
8.275160453822262135e-31
5.512861157118346872e-31
4.188479687528192463e-31
2.860340588778155157e-31
1.984010147888827560e-31
1.393122967274471349e-31
9.783190450547813468e-32
6.916034029404297244e-32
4.950192534759156650e-32
3.613799411591164183e-32
2.689597683479193447e-32
2.037351149182281593e-32
1.564876560093632916e-32
1.210777192939889464e-32
9.368126890190249902e-33
7.196373757940438710e-33
