# bin_9_17
1.414232226452895183e-07
1.556578674320473103e-07
1.674907535824730370e-07
1.751417413704083625e-07
1.768689194160466136e-07
1.706155129418204874e-07
1.553832547790677158e-07
1.338196602557134770e-07
1.101071319664614627e-07
9.069266015466283059e-08
7.794927448416737450e-08
6.575663656186118789e-08
4.807574160885097501e-08
3.455352065817975728e-08
2.782817815017497763e-08
1.873540515383678921e-08
1.419146499721828638e-08
9.967870512770840221e-09
7.052980939418936462e-09
5.062449911501094832e-09
3.663296529780045236e-09
2.690442253622580790e-09
2.009480268567037529e-09
1.529413322090571094e-09
1.181270871660405790e-09
9.209713843543632416e-10
7.201542940645527611e-10
5.606904305997173251e-10
4.318289072987373306e-10
3.271614560039126142e-10
2.427611616114673555e-10
