# bin_8_18
1.837564128970955658e-07
2.010350888296016195e-07
2.147025671306698979e-07
2.223817137518947131e-07
2.221193182479458078e-07
2.109432171620229020e-07
1.891727233368119547e-07
1.603961248340754894e-07
1.313263048606733128e-07
1.092776635238681356e-07
9.447567198431483553e-08
7.732379146139488139e-08
5.462483374152695098e-08
4.128645660589634843e-08
3.182284251971400783e-08
2.199785836580110170e-08
1.609422795329162372e-08
1.161411273299718109e-08
8.271612484049931310e-09
5.955119951039211397e-09
4.349375048375032847e-09
3.231751259257946157e-09
2.444547403784554581e-09
1.880972743631708121e-09
1.464767028442971570e-09
1.147527198372000197e-09
8.981801383525331159e-10
6.974448571757558501e-10
5.340317235788610016e-10
4.011883302577314797e-10
2.945408705595841136e-10
