# bin_14_15
1.558254820407913817e-08
1.747725851376119466e-08
1.924626762442866018e-08
2.071527353229396164e-08
2.166288424184293092e-08
2.187396528214616183e-08
2.108830234534591748e-08
1.918739639313409551e-08
1.650726513106692550e-08
1.357282347330914992e-08
1.118666075952547088e-08
9.631976575313963236e-09
8.117858969760999902e-09
5.898421027086577057e-09
4.241554074154678237e-09
3.415024471582607772e-09
2.268117185920663595e-09
1.711869982128224168e-09
1.189508604944111387e-09
8.250815451956403793e-10
5.794037150712474342e-10
4.079289905068170822e-10
2.905657640830985857e-10
2.100300998277130936e-10
1.548893574369291085e-10
1.163716778551929158e-10
8.884883395929762907e-11
6.860237427729671451e-11
5.319390853521081384e-11
4.111991704609832946e-11
3.147392193462454728e-11
