# bin_5_7
1.061308187370931537e-07
1.128056505809413969e-07
1.161921073336253173e-07
1.152820471353602702e-07
1.085734245311128107e-07
9.662451806602615723e-08
8.136745641220063265e-08
6.657687334724842640e-08
5.571405808246339924e-08
4.810019516221644427e-08
3.864481718707278921e-08
2.719166258494487400e-08
2.102089058176474877e-08
1.580368717202664095e-08
1.125625987721333320e-08
8.161039080582628606e-09
5.974308426124234958e-09
4.340434105798339780e-09
3.195244763725842262e-09
2.393888157642590225e-09
1.826106718723616560e-09
1.416634081777208378e-09
1.113219416351197450e-09
8.802432850392226350e-10
6.955163192304045363e-10
5.453298661837516388e-10
4.215378409803127008e-10
3.195070994988260753e-10
2.364467299149467636e-10
1.703505289850361219e-10
1.194035059700499522e-10
