# bin_6_9
1.178641088311742377e-07
1.267786609264491259e-07
1.325577721181426020e-07
1.338827081970560293e-07
1.292290830813025190e-07
1.178163969116423521e-07
1.015872203889221118e-07
8.366241563293444602e-08
6.887594461346891542e-08
5.908123458200374952e-08
4.987306947374695491e-08
3.671281665257066679e-08
2.638998367095316550e-08
2.122687668663695758e-08
1.449983324783126619e-08
1.099091354195051225e-08
7.793129917010410869e-09
5.608597377620725149e-09
4.093980264279850151e-09
3.023605248727348920e-09
2.270608720618459333e-09
1.734559855877621394e-09
1.347108205073451861e-09
1.057540200002757936e-09
8.337315425327190982e-10
6.555401713027818835e-10
5.104858290830083522e-10
3.913588343500400024e-10
2.938905647953738588e-10
2.153418503463245715e-10
1.536192822073243105e-10
