# bin_8_4
-2.638680856818725860e-13
-2.844130152184595817e-13
-2.981615173723882270e-13
-3.020343657796159016e-13
-2.928049237314013400e-13
-2.680773412854546299e-13
-2.321345109269767423e-13
-1.914172860514996193e-13
-1.571122859142215663e-13
-1.344556103290730210e-13
-1.143959084327090148e-13
-8.507049230313735698e-14
-6.027569188214106546e-14
-4.901067497743730566e-14
-3.328658213582895419e-14
-2.543622105223437317e-14
-1.789081880239146113e-14
-1.285282103619810565e-14
-9.378932567378362645e-15
-6.914011647800476929e-15
-5.177476224105438596e-15
-3.943505530183812553e-15
-3.055518538130713489e-15
-2.395057679485585318e-15
-1.886994236450312046e-15
-1.484145600793156125e-15
-1.157090250779086907e-15
-8.887699487072321557e-16
-6.691048790826713953e-16
-4.917288833270061847e-16
-3.518829695777727202e-16
