# bin_14_4
-1.494413184332087273e-35
-1.651863603468767925e-35
-1.786843792399276333e-35
-1.880954514808454113e-35
-1.913745759032519491e-35
-1.866803323284899807e-35
-1.720365405674023869e-35
-1.499311837136913760e-35
-1.240532745987932511e-35
-1.016095538731817894e-35
-8.663910375346835434e-36
-7.429198642097165050e-36
-5.608850132264249843e-36
-3.914072621795415422e-36
-3.187356696483358946e-36
-2.165617063272246194e-36
-1.643554935796185485e-36
-1.131053437004013398e-36
-8.027753049057753315e-37
-5.748985887167206955e-37
-4.140093694467927285e-37
-3.014512638259383315e-37
-2.229060031408575737e-37
-1.680843742045754503e-37
-1.288577816812433676e-37
-9.995987082783149735e-38
-7.800592646814690853e-38
-6.079152221708915005e-38
-4.698895847089602910e-38
-3.580601396384697044e-38
-2.677134977904305451e-38
