# bin_8_19
-2.385416284942708408e-32
-2.680784616135784833e-32
-2.959287217015575347e-32
-3.194759615374987856e-32
-3.353680772901361071e-32
-3.400863848360908424e-32
-3.300047371915225774e-32
-3.022820027407853825e-32
-2.618381212543841999e-32
-2.159044010090921052e-32
-1.772652540032466143e-32
-1.519409186578908680e-32
-1.294259451947189143e-32
-9.584015509909552910e-33
-6.750426216412406431e-33
-5.499403789505363543e-33
-3.649680996930211381e-33
-2.774818236231104918e-33
-1.902606227671684125e-33
-1.318058956575692973e-33
-9.257767553450901609e-34
-6.504343134732020061e-34
-4.606512080120899967e-34
-3.305122955881859915e-34
-2.419116968092150441e-34
-1.804914272734190949e-34
-1.370110127996816733e-34
-1.053921033480560313e-34
-8.159971971588040265e-35
-6.312815049258120599e-35
-4.845253949764280450e-35
