# bin_19_5
-2.183772217801883421e-51
-2.448374515207522735e-51
-2.694979308894520703e-51
-2.899110495111997715e-51
-3.029745353116474390e-51
-3.057047729346826862e-51
-2.944182850329462816e-51
-2.675682946547810234e-51
-2.299170703089743074e-51
-1.888929894822304916e-51
-1.556986613531855614e-51
-1.341270501377119630e-51
-1.129000085903326600e-51
-8.178707547606442050e-52
-5.893847716127953125e-52
-4.741516208317625266e-52
-3.145321679366309534e-52
-2.373793873803755703e-52
-1.651746103283803700e-52
-1.145543142208145364e-52
-8.043450020654907750e-53
-5.662844503577428025e-53
-4.036181906657663878e-53
-2.920064435475686084e-53
-2.155445840135211276e-53
-1.620851979821530509e-53
-1.238409328574750497e-53
-9.566711648692911295e-54
-7.419446064541134415e-54
-5.734847455473212964e-54
-4.388007061535194895e-54
