# bin_3_16
-6.216237272436550006e-53
-6.906048484975366226e-53
-7.516984188488002325e-53
-7.974417977198938734e-53
-8.187587594907011226e-53
-8.088996745556673997e-53
-7.568920994293806861e-53
-6.692501003770787356e-53
-5.596991970900559322e-53
-4.573849493935178275e-53
-3.852255022616415738e-53
-3.332975693780281347e-53
-2.626741138673960299e-53
-1.815714274661016243e-53
-1.440441462450387530e-53
-1.039076165320559929e-53
-7.521165146751578864e-54
-5.188168376227334327e-54
-3.756784703591201214e-54
-2.657208952108700233e-54
-1.886676709703104136e-54
-1.358701160268658773e-54
-9.926871178708665502e-55
-7.390498418933898267e-55
-5.603959777008207704e-55
-4.311582459584359961e-55
-3.349285067900505614e-55
-2.608615223599207853e-55
-2.022515166179992389e-55
-1.550718457924914645e-55
-1.169552189294426460e-55
