# bin_5_20
-5.478912010842324691e-56
-6.155433316321988107e-56
-6.792391923444163680e-56
-7.329511448980790306e-56
-7.689690280136009772e-56
-7.792899567521951574e-56
-7.554555916685046181e-56
-6.912746284626685390e-56
-5.981580643677005969e-56
-4.929680899036837994e-56
-4.049260403360673415e-56
-3.473215082353302202e-56
-2.954409854883042478e-56
-2.181365379490974309e-56
-1.540384085242952282e-56
-1.253798022334211755e-56
-8.312593627021981673e-57
-6.318925604251727885e-57
-4.340960579317123799e-57
-3.006744861675744855e-57
-2.111916207617461631e-57
-1.484072501296485569e-57
-1.051907365315655606e-57
-7.555479157362912493e-58
-5.536322631052018699e-58
-4.135063930525118039e-58
-3.141746660624641226e-58
-2.418180831140098855e-58
-1.872780093556106632e-58
-1.448735250729717195e-58
-1.111523156226679245e-58
