# bin_11_8
-1.742393265712370719e-10
-1.924035361431663024e-10
-2.078681792425152846e-10
-2.184777900251444377e-10
-2.219019810984025985e-10
-2.159002953829503937e-10
-1.983981109727451319e-10
-1.724173092482591597e-10
-1.424335159573714087e-10
-1.167775082411834218e-10
-9.977560185623360334e-11
-8.528640350952677339e-11
-6.388602364863381643e-11
-4.481788466860906803e-11
-3.650189753962663328e-11
-2.466047195293967524e-11
-1.876526726193407407e-11
-1.296901389742780850e-11
-9.186039803700593802e-12
-6.584589134214300296e-12
-4.747391421453407834e-12
-3.463576618612055452e-12
-2.567116845552074828e-12
-1.940123614503639129e-12
-1.490103453660437036e-12
-1.157424878276060243e-12
-9.037536256202080817e-13
-7.042202394254944479e-13
-5.439087654158864249e-13
-4.139234415450623166e-13
-3.089425519990182171e-13
