# bin_13_17
-3.504807381815893190e-11
-3.946986743395165554e-11
-4.367897352327508209e-11
-4.729944368631007641e-11
-4.984341783995992694e-11
-5.076244783985750919e-11
-4.957594985619980081e-11
-4.573820631524538816e-11
-3.990287111907078374e-11
-3.303504051439997980e-11
-2.705864029006551083e-11
-2.307289591229537299e-11
-1.981002149496021481e-11
-1.496874609048865179e-11
-1.040765742564497977e-11
-8.470362303726716830e-12
-5.712843009051992777e-12
-4.313031103263123391e-12
-2.922111073094652235e-12
-2.036905080387836917e-12
-1.427647738652930625e-12
-1.000531374905450151e-12
-7.046386859885657944e-13
-5.018647081343676546e-13
-3.644014090536472972e-13
-2.698029562918822906e-13
-2.034455523623826308e-13
-1.557524070496521876e-13
-1.203020351316955907e-13
-9.307459046606531636e-14
-7.159968095725569780e-14
