# bin_9_12
-2.335462109021195639e-10
-2.591052445381252606e-10
-2.815499217418101701e-10
-2.980557073772972782e-10
-3.052502434205900869e-10
-3.005485129291166442e-10
-2.800485181478631510e-10
-2.466546103989640806e-10
-2.056199748439273052e-10
-1.680850108828118560e-10
-1.420590246703646722e-10
-1.227143045455582215e-10
-9.557968706971774311e-11
-6.610065181194815027e-11
-5.295122478498575238e-11
-3.750368384386293882e-11
-2.758190460617709811e-11
-1.892697861475154504e-11
-1.364361592076497587e-11
-9.686675198864936276e-12
-6.908732012865703231e-12
-4.991023567137108587e-12
-3.658481266382378162e-12
-2.733624796836462048e-12
-2.079418716216106986e-12
-1.603804111211023842e-12
-1.247676809018892351e-12
-9.720918833191628445e-13
-7.531502016572853279e-13
-5.765317097970325016e-13
-4.338078964303539125e-13
