# bin_8_15
-2.932377624356796922e-19
-3.269566941849024335e-19
-3.574610725674336420e-19
-3.813139444587625921e-19
-3.942221660352125795e-19
-3.928699224474195715e-19
-3.717580679705923344e-19
-3.321695772053656110e-19
-2.804887874888161098e-19
-2.293571205925946839e-19
-1.914100389100250617e-19
-1.658031880120034200e-19
-1.346012119423027321e-19
-9.391446110558341106e-20
-7.192546913207733758e-20
-5.447816612074403886e-20
-3.771908651806356988e-20
-2.693267002622512160e-20
-1.940144283553082672e-20
-1.360074615421649351e-20
-9.568812113551333597e-21
-6.825275305932578613e-21
-4.940790520528192830e-21
-3.639967046953090307e-21
-2.733990584641757710e-21
-2.087368892230847142e-21
-1.613280714541366065e-21
-1.254112550297135559e-21
-9.734435657766976566e-22
-7.492323737328795256e-22
-5.684614863432313628e-22
