# bin_1_20
-1.940553151691168374e-94
-2.176625117012918625e-94
-2.397121645401497502e-94
-2.580373888902713408e-94
-2.698869319944463324e-94
-2.725717636666998965e-94
-2.628719867219843843e-94
-2.392397132427307839e-94
-2.058753414860703258e-94
-1.692448966806949512e-94
-1.393937273464053438e-94
-1.199784846525859583e-94
-1.012274237646318465e-94
-7.361933501848964712e-95
-5.280969106787258134e-95
-4.261761037285634795e-95
-2.824390616881847165e-95
-2.136361730431833828e-95
-1.482513249843330271e-95
-1.027652323998073650e-95
-7.216379675692199768e-96
-5.077939929502219639e-96
-3.614984441062964821e-96
-2.611365722018553217e-96
-1.924653464680763032e-96
-1.445291352884193343e-96
-1.103025788799168114e-96
-8.514794274576648534e-97
-6.601985641045923368e-97
-5.104041092839923917e-97
-3.907668449912844756e-97
