# bin_2_16
-4.869910259585649458e-62
-5.405596198686545642e-62
-5.877487498091911342e-62
-6.226837475856715226e-62
-6.382957970134483876e-62
-6.292502519720738800e-62
-5.872202023848660826e-62
-5.179326774163992975e-62
-4.322454733238582368e-62
-3.532792805621735541e-62
-2.982041959032345445e-62
-2.577836379469647344e-62
-2.016367918750961363e-62
-1.393660520161906205e-62
-1.113058212366185351e-62
-7.933982545750471759e-63
-5.804247304794802194e-63
-3.986313987891563824e-63
-2.879607952467699641e-63
-2.041664580578854015e-63
-1.453856611305683081e-63
-1.049153679842350318e-63
-7.681414634711380172e-64
-5.732237291282432638e-64
-4.355566442007306620e-64
-3.356497067777226708e-64
-2.609912689926928779e-64
-2.033265049761540845e-64
-1.575766122030346963e-64
-1.206963636358986930e-64
-9.089479314218779641e-65
