# bin_2_2
-1.367050174874177387e-07
-1.373788798790281477e-07
-1.317821919385779783e-07
-1.194612138384645127e-07
-1.024586237875883075e-07
-8.422786732845301190e-08
-6.951039884279732545e-08
-5.964826896431323358e-08
-4.987605633731385851e-08
-3.649730751703318035e-08
-2.666874743545096027e-08
-2.122415239283456873e-08
-1.477716691911586354e-08
-1.118994591016413951e-08
-8.119874807868974836e-09
-5.983174079878454191e-09
-4.487064713535432498e-09
-3.422694991058025209e-09
-2.659366165781568082e-09
-2.098526753749713516e-09
-1.674095491338114990e-09
-1.339998858319306735e-09
-1.068204149107710938e-09
-8.421388032679146109e-10
-6.524058185432823279e-10
-4.940661842716801831e-10
-3.643935625061732162e-10
-2.612959279890699393e-10
-1.822671566090806865e-10
-1.239594206720112027e-10
-8.246375729509386219e-11
