# bin_15_17
-5.804073794504195227e-09
-6.550702188648985517e-09
-7.268287157572670439e-09
-7.896122744695044514e-09
-8.354218407995385559e-09
-8.547802174237236143e-09
-8.403452232330661382e-09
-7.813869424170767822e-09
-6.868309821585089666e-09
-5.715711941722480233e-09
-4.674419538703162875e-09
-3.960932926244491156e-09
-3.420051083256210384e-09
-2.642306983964854455e-09
-1.823991695149614668e-09
-1.469160977597894533e-09
-1.021303210322512767e-09
-7.550146545410462989e-10
-5.086157165192571811e-10
-3.596477466968489216e-10
-2.504617990770533135e-10
-1.742976962179063566e-10
-1.220091144210879937e-10
-8.624139046575163588e-11
-6.206448231278614051e-11
-4.554952384969424223e-11
-3.407357410304238011e-11
-2.592745604823417095e-11
-1.995525795480270996e-11
-1.542708479187085272e-11
-1.188966979020032550e-11
