# bin_8_20
-4.993720373160952729e-36
-5.621919479882821798e-36
-6.219039191837897586e-36
-6.731316321148981774e-36
-7.089139886847368039e-36
-7.214970839543350622e-36
-7.039350336183353130e-36
-6.486988014952030241e-36
-5.653013888039545257e-36
-4.676773540904730037e-36
-3.831802493289999699e-36
-3.270246330613979294e-36
-2.804891928561882527e-36
-2.112558718684596696e-36
-1.471022383091073570e-36
-1.198379243368475320e-36
-8.052365814565551870e-37
-6.092732291200892025e-37
-4.134485252350674042e-37
-2.877040078994989630e-37
-2.017901291370255025e-37
-1.415208775243315102e-37
-9.975898740569812052e-38
-7.113458529128360344e-38
-5.171864528210874224e-38
-3.834173759133846002e-38
-2.894469485650789901e-38
-2.217799922499813968e-38
-1.713810621577618997e-38
-1.326012860386528132e-38
-1.019747591090456761e-38
