# bin_20_7
-6.579599103075973261e-42
-7.401756795910871282e-42
-8.180605495277919885e-42
-8.844725377793887044e-42
-9.302086288892506243e-42
-9.452604146036763861e-42
-9.201310017922375192e-42
-8.457397146035692731e-42
-7.351201658395916970e-42
-6.072720366095175268e-42
-4.979501885703523396e-42
-4.257814958826080721e-42
-3.642043356104555456e-42
-2.723217576366224395e-42
-1.904335880975993126e-42
-1.552822015931605352e-42
-1.036593531651717960e-42
-7.868140851367942866e-43
-5.361873588898098626e-43
-3.721310874834556217e-43
-2.612461127564491200e-43
-1.834016590067551066e-43
-1.295410621785674250e-43
-9.261473423499693586e-44
-6.753083462949561392e-44
-5.020371905784319148e-44
-3.799182036733996695e-44
-2.916109758345106633e-44
-2.255463667475731033e-44
-1.745121648398715280e-44
-1.340988207161423763e-44
