# bin_5_4
-3.288328163111055514e-08
-3.479322307965472778e-08
-3.563633044966493153e-08
-3.510697713928680649e-08
-3.275889099517384190e-08
-2.889712801501513308e-08
-2.413454672909924795e-08
-1.972787303009948345e-08
-1.662420466883680214e-08
-1.434050869976109342e-08
-1.126180739585201349e-08
-7.855190316695498468e-09
-6.237590316547762482e-09
-4.527449894466982352e-09
-3.320420514567355087e-09
-2.355993519517663348e-09
-1.734863439987284543e-09
-1.268677576584002131e-09
-9.389818886298430828e-10
-7.077572175639678480e-10
-5.428736391355046394e-10
-4.232934051614209496e-10
-3.338267161703989122e-10
-2.644583592050855516e-10
-2.089779124935854651e-10
-1.635780839095122550e-10
-1.260372524475924462e-10
-9.509152233866488522e-11
-6.997179186766832315e-11
-5.009441998096381198e-11
-3.488936062759949610e-11
