# bin_14_19
-1.905154369350622096e-12
-2.153255034790575577e-12
-2.393179135802793822e-12
-2.605316487751852305e-12
-2.763602375728406256e-12
-2.836421331410638541e-12
-2.800308132623267786e-12
-2.617349784056572953e-12
-2.311718897153093475e-12
-1.931305922877279103e-12
-1.578655032873343386e-12
-1.331895502705984490e-12
-1.152514438158323323e-12
-9.037853424526819837e-13
-6.230849777051078463e-13
-4.962253767389519062e-13
-3.532773620595888544e-13
-2.559638457334437018e-13
-1.733100512474714900e-13
-1.235925121237979826e-13
-8.564688364894402212e-14
-5.922394712099310172e-14
-4.128577466322329856e-14
-2.904168144081293254e-14
-2.077359373010112971e-14
-1.515197553188728952e-14
-1.126899576308111860e-14
-8.534811698309224193e-15
-6.549083421027669305e-15
-5.057414577112169787e-15
-3.900785640643229316e-15
