# bin_20_16
-9.287355851591043849e-11
-1.052635966173672470e-10
-1.173971862054880727e-10
-1.283460330120991246e-10
-1.368641523184814920e-10
-1.413964599704930162e-10
-1.407670643577735613e-10
-1.329814621828459930e-10
-1.186284378254712479e-10
-1.000012510481006645e-10
-8.176856855805359360e-11
-6.838354915022367731e-11
-5.926621161934435844e-11
-4.785741353235424529e-11
-3.322661324527437470e-11
-2.561204235389149758e-11
-1.915106894953347145e-11
-1.326870786481753217e-11
-9.283944997547306267e-12
-6.622249401069328080e-12
-4.551322598897389977e-12
-3.114969904767371800e-12
-2.150817714029494727e-12
-1.497838084098709773e-12
-1.057494267342985176e-12
-7.608473571151469333e-13
-5.583548899822380880e-13
-4.180507703862888235e-13
-3.181795606198218636e-13
-2.447187451422064875e-13
-1.887933610628631172e-13
