# bin_13_4
-4.272119805945127470e-31
-4.706168296496557928e-31
-5.069385660125196652e-31
-5.308328298714310120e-31
-5.369076684717395754e-31
-5.191275848011858281e-31
-4.738066036705219429e-31
-4.089511850948396874e-31
-3.366267140504118135e-31
-2.767300294469129286e-31
-2.375556695329394008e-31
-2.013456916870410286e-31
-1.479954179853597224e-31
-1.053901560688652679e-31
-8.557868345069709416e-32
-5.726357751060737204e-32
-4.368558980453091265e-32
-3.053608615712612574e-32
-2.155996685702096689e-32
-1.547811003591665236e-32
-1.118695565472517752e-32
-8.201086230828148319e-33
-6.112884345628074539e-33
-4.644445506881030218e-33
-3.582493365194714107e-33
-2.790840392242904665e-33
-2.181895908106926244e-33
-1.699417546628707111e-33
-1.310006100882357006e-33
-9.937605170513007745e-34
-7.385871457056165501e-34
