# bin_19_20
-1.899740357805600107e-08
-2.158148930125588048e-08
-2.413978216400263812e-08
-2.648592899963070051e-08
-2.837036567266614856e-08
-2.947915115678176582e-08
-2.954641773769431725e-08
-2.817283012476556651e-08
-2.535031342717149279e-08
-2.155784298789115427e-08
-1.765374691963541239e-08
-1.465574270086879248e-08
-1.268910477297596041e-08
-1.046939440442582917e-08
-7.383772258682840779e-09
-5.511480119028389717e-09
-4.278089932143067345e-09
-2.875513618652569234e-09
-2.088233418450204195e-09
-1.464918317886200438e-09
-1.000991296346610284e-09
-6.835760941597871642e-10
-4.680055113788695242e-10
-3.229956103251835770e-10
-2.254093876256317896e-10
-1.601372164487009416e-10
-1.159992281732664278e-10
-8.581244771764986275e-11
-6.469792890395632422e-11
-4.947082561685587599e-11
-3.809667719450393816e-11
