# bin_5_11
-1.857158440572530985e-18
-2.035357494794438538e-18
-2.178513361675045981e-18
-2.262771845295818235e-18
-2.267743118713422053e-18
-2.163419034210626354e-18
-1.948143543401334356e-18
-1.658352259696601383e-18
-1.358149411283119893e-18
-1.125666620748877142e-18
-9.728786763265557889e-19
-8.049709205798943192e-19
-5.719755406005084924e-19
-4.256949913974198386e-19
-3.340924896817636088e-19
-2.273203053028717200e-19
-1.688588154956406944e-19
-1.211031257814443807e-19
-8.595691521394068507e-20
-6.175118022183499263e-20
-4.493471819075207068e-20
-3.327543952380257485e-20
-2.508254414619347599e-20
-1.924474268029061185e-20
-1.495613083083459697e-20
-1.170493969965430275e-20
-9.162206706639303459e-21
-7.122001483516081068e-21
-5.463681593727572366e-21
-4.115248038675605454e-21
-3.030850469408919091e-21
