# bin_15_13
-5.099743201456406354e-09
-5.726486142687110191e-09
-6.315106437547627843e-09
-6.809223035254850377e-09
-7.136899524180790398e-09
-7.224879559078900969e-09
-6.992451376956585937e-09
-6.387302995826692019e-09
-5.517201265654505919e-09
-4.543136659727794815e-09
-3.734743266810533582e-09
-3.207120810184799257e-09
-2.721358006610877068e-09
-1.999523817036047045e-09
-1.418517361577670213e-09
-1.152279290446339852e-09
-7.631854097954426321e-10
-5.796570006275737801e-10
-3.994979198988691615e-10
-2.767022562898551454e-10
-1.943478552625356127e-10
-1.366181700631654819e-10
-9.696882465265810032e-11
-6.977659385023466105e-11
-5.122581551587471248e-11
-3.832801787528692068e-11
-2.916408186725593282e-11
-2.246965443274669286e-11
-1.740913150412422299e-11
-1.346520353067062606e-11
-1.032423627175387985e-11
