# bin_6_8
-2.966368757476227513e-09
-3.223714491356341048e-09
-3.414413145352595920e-09
-3.500000643505038743e-09
-3.451098363210454157e-09
-3.222417286516470969e-09
-2.843938507827148096e-09
-2.375184220975891807e-09
-1.941050566710318305e-09
-1.636229488949966019e-09
-1.413574839819041794e-09
-1.109775670090529348e-09
-7.700301383517590640e-10
-6.128886440687950172e-10
-4.420229958021914274e-10
-3.233510594246278400e-10
-2.259640086200651606e-10
-1.651919415815564152e-10
-1.191005756319634646e-10
-8.660928077838691801e-11
-6.404052122846525885e-11
-4.814875674230325025e-11
-3.686225080309644362e-11
-2.864050402690134582e-11
-2.245121060684144117e-11
-1.764199139127021939e-11
-1.379762120864297295e-11
-1.066903851247469253e-11
-8.110683904017830057e-12
-6.034307107851910894e-12
-4.378730267902237834e-12
