# bin_7_18
-5.388627195330963072e-34
-6.038956218518082997e-34
-6.643719139960501597e-34
-7.142299211321200592e-34
-7.457987817983017125e-34
-7.518192283909563444e-34
-7.230674549445474683e-34
-6.562074808702392029e-34
-5.630580536073676474e-34
-4.623293037652171540e-34
-3.813944144988256950e-34
-3.288128943566142093e-34
-2.761073444701706304e-34
-1.992690594261819234e-34
-1.442738350577665942e-34
-1.156555572450434680e-34
-7.683920478028718659e-35
-5.783158198539344897e-35
-4.034963641422234390e-35
-2.800143108246044321e-35
-1.965950803250160454e-35
-1.384975676690957598e-35
-9.883211136621150952e-36
-7.160964676852281235e-36
-5.293722940424962896e-36
-3.986141734456859308e-36
-3.048905730271087475e-36
-2.356854875990076425e-36
-1.828242630448252458e-36
-1.412810547089068770e-36
-1.080354078433929475e-36
