# bin_18_2
-6.983009423778903759e-73
-7.796207270965849816e-73
-8.537313368774365183e-73
-9.125311286912293405e-73
-9.458599719586639838e-73
-9.454851399041874987e-73
-8.984135391077333606e-73
-8.058715708457705060e-73
-6.831609760113108964e-73
-5.590000872278794199e-73
-4.649873482050966515e-73
-4.026076769489916352e-73
-3.300166723034497447e-73
-2.318332687484466682e-73
-1.750110105272056226e-73
-1.347527455133666513e-73
-9.202445376331591142e-74
-6.673668445824534795e-74
-4.772479304680823406e-74
-3.335865681768418676e-74
-2.343519516618234399e-74
-1.665435750294184551e-74
-1.201226503039159505e-74
-8.813307650715013792e-75
-6.594320979523067286e-75
-5.018385050716642829e-75
-3.869633701772838188e-75
-3.004811638681914627e-75
-2.332598609901664898e-75
-1.797520420511228089e-75
-1.366698697401108051e-75
