# bin_9_11
-3.752322102356273990e-09
-4.153063627365227883e-09
-4.499621065699270683e-09
-4.746076088885697105e-09
-4.839853279803205173e-09
-4.736827334732320515e-09
-4.382086005620548414e-09
-3.833339267732078150e-09
-3.179405630699825877e-09
-2.601819540204452614e-09
-2.211884419015568485e-09
-1.902761526318971564e-09
-1.452125858527327128e-09
-1.008707430579285390e-09
-8.182597762711558020e-10
-5.629885007371003071e-10
-4.237070776456379546e-10
-2.904679831449626383e-10
-2.072372101348146249e-10
-1.480391539900064461e-10
-1.063261956814286391e-10
-7.721032187650978233e-11
-5.691651133480747717e-11
-4.278471650074031885e-11
-3.271410358094251456e-11
-2.532951590085481660e-11
-1.974748467765882916e-11
-1.538992609143879113e-11
-1.190647576103378839e-11
-9.087837991321222866e-12
-6.810147652134160588e-12
