# bin_3_4
-3.786052685638473871e-08
-3.941047944795535014e-08
-3.961453667144490196e-08
-3.798942183301615549e-08
-3.440709010424400127e-08
-2.947432175000341683e-08
-2.420071807457887093e-08
-1.997493073705931398e-08
-1.717817460431315076e-08
-1.436371837417904599e-08
-1.043400049503288910e-08
-7.628761040453104011e-09
-6.088169195946656833e-09
-4.186048242620544630e-09
-3.173287008149505594e-09
-2.289830039334978131e-09
-1.667523849342587697e-09
-1.236540388180126792e-09
-9.312748126680693635e-10
-7.143440524060634523e-10
-5.570486276181171433e-10
-4.401345612391326927e-10
-3.498896879703017802e-10
-2.778428975025588081e-10
-2.188459213926329002e-10
-1.698524119668320317e-10
-1.291759113292098818e-10
-9.584672899148486313e-11
-6.919194463509019100e-11
-4.857771829690688064e-11
-3.321712408409590184e-11
