# bin_18_15
-8.613093270534784435e-10
-9.732596779372239608e-10
-1.081415644991769048e-09
-1.176889575922195257e-09
-1.247883251009178378e-09
-1.280132780606796103e-09
-1.263000117854818543e-09
-1.179518329782577108e-09
-1.040996462622886503e-09
-8.691391126718709525e-10
-7.104747523444781059e-10
-5.998306583053357739e-10
-5.189019383228331935e-10
-4.059628115697669306e-10
-2.798848731572636645e-10
-2.233453451914089774e-10
-1.583994274252696595e-10
-1.151533699047749078e-10
-7.786743792288418031e-11
-5.546953584142625878e-11
-3.846790711853109559e-11
-2.662706658866124001e-11
-1.857448766671946346e-11
-1.307583597124917480e-11
-9.362285486278057442e-12
-6.835540168048688235e-12
-5.088617304303175539e-12
-3.856968733773518575e-12
-2.961121849306310572e-12
-2.287148310829980745e-12
-1.763905139397040511e-12
