# bin_10_4
-3.033442187735223826e-19
-3.301694658528231144e-19
-3.503721958023871850e-19
-3.599913268480525295e-19
-3.560585575762842480e-19
-3.337403554265928274e-19
-2.955970599821981568e-19
-2.476195420260744320e-19
-2.023290617758759707e-19
-1.700232298509393613e-19
-1.470595739220212603e-19
-1.166639830772611766e-19
-8.099065560851690372e-20
-6.384448116664188474e-20
-4.678113113947886391e-20
-3.374514621740865389e-20
-2.373974682030340769e-20
-1.738232376554295952e-20
-1.249398870521997992e-20
-9.054914579409662387e-21
-6.677610650032110863e-21
-5.007986870403796765e-21
-3.824425980509085910e-21
-2.965639398151284470e-21
-2.321877171803705694e-21
-1.823722333193078658e-21
-1.426872717558938191e-21
-1.104560016645364936e-21
-8.411594583399153540e-22
-6.272406765930795693e-22
-4.563614750785997660e-22
