# bin_13_5
-1.757529335042062475e-25
-1.939611832459237874e-25
-2.093995413493626956e-25
-2.198879673751607513e-25
-2.231051646013399465e-25
-2.167402171614088851e-25
-1.988248612463162027e-25
-1.724909034047761840e-25
-1.423488178178239774e-25
-1.167683684558623414e-25
-9.989709845395047214e-26
-8.524135911525412525e-26
-6.353897888217736873e-26
-4.469845690352002902e-26
-3.643623652790484449e-26
-2.450274510043104060e-26
-1.869340958568618449e-26
-1.295238718893862695e-26
-9.157321339418659609e-27
-6.569300007992935833e-27
-4.740460639076544723e-27
-3.462739581174433821e-27
-2.570142678744326991e-27
-1.945099504625756999e-27
-1.495629016820470316e-27
-1.162651748659831940e-27
-9.081812096562708789e-28
-7.076327482659786268e-28
-5.463030240560263888e-28
-4.154264898014056530e-28
-3.097426007754758621e-28
