# bin_15_6
-6.269991001802830323e-28
-6.970927713775257154e-28
-7.594504635434322139e-28
-8.065777382144228375e-28
-8.292888443840243436e-28
-8.207908501888144563e-28
-7.697686488164987526e-28
-6.820792465750154152e-28
-5.714804113482876837e-28
-4.669983125883009736e-28
-3.925843108137519235e-28
-3.398487081992677010e-28
-2.695376756154290047e-28
-1.864460102417748333e-28
-1.469804189273521284e-28
-1.071123620427700966e-28
-7.681148108409024210e-29
-5.325678192296481119e-29
-3.860451176410541883e-29
-2.725177368626391241e-29
-1.930345735993499966e-29
-1.387627664139836030e-29
-1.011987055452047589e-29
-7.518769316581540149e-30
-5.690862870354012893e-30
-4.372163023542276859e-30
-3.393298394107794759e-30
-2.642177475863190748e-30
-2.049190703460119573e-30
-1.572483102664599731e-30
-1.187443558984891486e-30
