# bin_16_15
6.358327230261984302e-11
7.168170712957112353e-11
7.942646651986667114e-11
8.614273629829967091e-11
9.094845182319494379e-11
9.282593562634470455e-11
9.093390890272355112e-11
8.419355135015022902e-11
7.370841628673335761e-11
6.116778171769687275e-11
5.007863442969788098e-11
4.260209714078616841e-11
3.668210839998700924e-11
2.797968576024981254e-11
1.938715660750423140e-11
1.572828224763160640e-11
1.073039559124705939e-11
8.045300293336706586e-12
5.430101177322015055e-12
3.806113620927135429e-12
2.661814928153771448e-12
1.861221800467539455e-12
1.307474636400016729e-12
9.282105948084247280e-13
6.714629788113732587e-13
4.953295499529116061e-13
3.722791730765321258e-13
2.843087516264467699e-13
2.192988996753832131e-13
1.696340328322675020e-13
1.306127245994620916e-13
