# bin_13_5
6.789127885801193200e-28
7.493337252952362164e-28
8.090762698976845827e-28
8.497111371659173919e-28
8.622644394428261264e-28
8.377659554177162612e-28
7.686314668450149948e-28
6.669387953129534179e-28
5.505347103063789529e-28
4.517572924772024978e-28
3.865943797081377278e-28
3.298599223504380713e-28
2.458319511994485628e-28
1.730476934248133904e-28
1.410638679933618309e-28
9.485968641656074022e-29
7.238305453725773860e-29
5.017216374997841177e-29
3.547422329714879339e-29
2.544917351238772400e-29
1.836556677204639170e-29
1.341671802479649436e-29
9.959488860004227233e-30
7.538209097079616649e-30
5.796815522900294032e-30
4.506611971120887788e-30
3.520473830590634238e-30
2.743201609068550323e-30
2.117866360921142982e-30
1.610529321878743253e-30
1.200821094809440745e-30
