# bin_17_2
6.415775243692729865e-70
7.143849409910378083e-70
7.797308750187781995e-70
8.300109190377626927e-70
8.557953313334419806e-70
8.500258515350631889e-70
8.007865042813349411e-70
7.125865579487483492e-70
5.993884108897786947e-70
4.900482711896537817e-70
4.106303819759016018e-70
3.557088802945387180e-70
2.853974788643829814e-70
1.980850348038322318e-70
1.541441625939871211e-70
1.144593169035190563e-70
8.069682982577135220e-71
5.666654914194624340e-71
4.103010692999642239e-71
2.886731846334121115e-71
2.037057892922831151e-71
1.459028608588225437e-71
1.060277228410392542e-71
7.845759497637874415e-72
5.916675150674031762e-72
4.532261898090953296e-72
3.510805644804157097e-72
2.731781427647206216e-72
2.119722242594072188e-72
1.629098331790028487e-72
1.233102726834880332e-72
