# bin_20_16
2.847798764289655172e-13
3.228024644627033559e-13
3.600500869978016215e-13
3.936761210683868998e-13
4.198568116574892507e-13
4.338173638130186683e-13
4.319414016285567904e-13
4.081044504039638222e-13
3.641178293251130286e-13
3.070046651961128824e-13
2.511073302507454249e-13
2.100773907829528822e-13
1.820919372620406933e-13
1.470095365043443781e-13
1.020810145006222497e-13
7.874165584746760268e-14
5.884413440510642161e-14
4.080519131395820237e-14
2.853630588842245962e-14
2.035955302028300180e-14
1.399604478286644843e-14
9.580500003893729248e-15
6.616387427178838441e-15
4.608244476863106538e-15
3.253993899514705330e-15
2.341491577941893278e-15
1.718527726865676114e-15
1.286826591006072050e-15
9.794796864770201169e-16
7.533722336399576950e-16
5.812123910950388213e-16
