# bin_15_8
1.065407009435954685e-21
1.188043401156381661e-21
1.299038612925495880e-21
1.385896464582331579e-21
1.432998793257938230e-21
1.428266873003280119e-21
1.351689291492760518e-21
1.207950415491477852e-21
1.020209425960014616e-21
8.344837424332793562e-22
6.966666705947643106e-22
6.035503938647759715e-22
4.898755149478061757e-22
3.418339787497781441e-22
2.619825519297772814e-22
1.983230279501118062e-22
1.374238766484912068e-22
9.807641234266327958e-23
7.066914294809448950e-23
4.954982604701098539e-23
3.486414628491367869e-23
2.487106824990409765e-23
1.800531846917673858e-23
1.326596095830680306e-23
9.964693828159037418e-24
7.608287834814477550e-24
5.880530803822567159e-24
4.571475820332921196e-24
3.548468120319777962e-24
2.731197412552025989e-24
2.072248791987266118e-24
