# bin_20_19
5.611275661882362793e-11
6.375147616008276327e-11
7.131624719841763981e-11
7.825673431198608130e-11
8.383525444186662747e-11
8.712317300036558309e-11
8.733379053680493393e-11
8.328444831149983448e-11
7.495330089371541717e-11
6.375206285871808915e-11
5.222208011518585709e-11
4.336913598287584917e-11
3.755627536570805091e-11
3.098174322917801159e-11
2.185077108798969943e-11
1.632244219035003598e-11
1.266384330954665480e-11
8.517947787955345161e-12
6.182986934086573711e-12
4.339228951916831611e-12
2.965598725874477609e-12
2.025412877962003712e-12
1.386909126105540716e-12
9.573453874000861525e-13
6.682429499598489990e-13
4.748294393053827618e-13
3.440174750155760156e-13
2.545375716026631584e-13
1.919347575106174629e-13
1.467767017865967240e-13
1.130367817076279686e-13
