# bin_11_11
1.346729417231483785e-10
1.496989043480978658e-10
1.630484744593553206e-10
1.731078785394346051e-10
1.779053165927636693e-10
1.759729913199550268e-10
1.649033480650588806e-10
1.460168269302666975e-10
1.222765958516563139e-10
9.995561560313114886e-11
8.412122369745096035e-11
7.280871885671710130e-11
5.758460139877382431e-11
3.983740844122729391e-11
3.149861435407600770e-11
2.284775853442494592e-11
1.645874417249265743e-11
1.138752199695937280e-11
8.248697643307288164e-12
5.828804209906464825e-12
4.133335211974810891e-12
2.973526737931968304e-12
2.170131885408214562e-12
1.613671790236408535e-12
1.222236191922076122e-12
9.395376721353730937e-13
7.294388289740510174e-13
5.680277209173456323e-13
4.404848813741816484e-13
3.379002846571407518e-13
2.550355508642527309e-13
