# bin_8_2
1.569014920532788084e-23
1.676382206432488032e-23
1.737850470907225788e-23
1.738113054183130473e-23
1.653964800294884802e-23
1.486176174068549288e-23
1.262554257644563697e-23
1.033834918114344806e-23
8.583309854064087210e-24
7.416211435212745159e-24
6.106215173521876918e-24
4.335661771487524893e-24
3.255673565045077856e-24
2.540611758397080841e-24
1.753853050809196255e-24
1.302751080946954422e-24
9.466929221951311381e-25
6.829668664098459144e-25
4.999805951865399158e-25
3.720678740374290712e-25
2.820894030585903725e-25
2.175887879886586058e-25
1.702895971242803352e-25
1.343567435461615718e-25
1.061409104303281348e-25
8.337107236856805038e-26
6.467359910085755815e-26
4.926740434769473873e-26
3.668594834539172312e-26
2.661119976483649744e-26
1.877962012532921757e-26
