# bin_1_1
8.545970939545869220e-10
8.259261062246978480e-10
7.551583163441837429e-10
6.534461751962543631e-10
5.399790458643567109e-10
4.443088360604397756e-10
3.790197524974445122e-10
3.200993133781858605e-10
2.400464703067661392e-10
1.729345898068971588e-10
1.377917082323025860e-10
9.761814376364671997e-11
7.359237980655442264e-11
5.344755176802280888e-11
3.976777823900584293e-11
2.999239530563427716e-11
2.301875524005605356e-11
1.800135388901085918e-11
1.429398699026559885e-11
1.146580421884469773e-11
9.220198498887575942e-12
7.376686891337948774e-12
5.830497714889940610e-12
4.524143476088080298e-12
3.428926560590685035e-12
2.529689967675416129e-12
1.814403248631669673e-12
1.266157080845131300e-12
8.617630503910523600e-13
5.738840655380869643e-13
3.752125617124669949e-13
