# bin_18_14
1.608393334594034722e-13
1.815827594952383531e-13
2.015436506635578646e-13
2.190429218633360810e-13
2.318640630365359884e-13
2.373712880197456026e-13
2.335293867397983134e-13
2.173317354056220698e-13
1.911928059465258616e-13
1.592290483288544916e-13
1.302514777626796147e-13
1.103397558117867175e-13
9.530915681857517535e-14
7.377260435657499524e-14
5.093136911616254835e-14
4.098106652723077141e-14
2.856839808882032604e-14
2.107818034697813381e-14
1.420489746330804620e-14
1.005593354232110039e-14
6.999774561461071088e-15
4.867992435151080274e-15
3.406060263449143561e-15
2.406178200795796089e-15
1.730380125212195403e-15
1.268977209365089514e-15
9.485941391949691637e-16
7.214013753887772749e-16
5.550344708190913884e-16
4.290390844457720972e-16
3.307010888141512345e-16
