# bin_20_10
7.524329151872196187e-29
8.485484951766163411e-29
9.405988676725254324e-29
1.020629008827902919e-28
1.078216239906438014e-28
1.101239246559934933e-28
1.079865780372992414e-28
1.000996143510779432e-28
8.773238427365471783e-29
7.286172333884634403e-29
5.963850569214604946e-29
5.068723178987334448e-29
4.368148224931683826e-29
3.342928811134845944e-29
2.313736642976662774e-29
1.874263982455060521e-29
1.284448263713826805e-29
9.600962090417543267e-30
6.473457700113641222e-30
4.547242214104223212e-30
3.177129826512060533e-30
2.219266053517564351e-30
1.557576482784508851e-30
1.104496352628033632e-30
7.979179603756153291e-31
5.878344140169815472e-31
4.412740790279500614e-31
3.366926418333747007e-31
2.595673105268454814e-31
2.007607399413978852e-31
1.546231294701238814e-31
