# bin_10_6
4.397204644027503806e-15
4.815543060731849525e-15
5.149369084620948056e-15
5.341882162568961377e-15
5.345808156670100897e-15
5.089205930227754064e-15
4.573930084709123850e-15
3.885911788963817536e-15
3.181829510441749055e-15
2.642400169899000238e-15
2.285306276371541114e-15
1.881719636207552186e-15
1.331512459289693042e-15
9.992058376094255386e-16
7.777620835658831780e-16
5.327261625288926040e-16
3.927878652799592002e-16
2.829533624166266505e-16
2.011494217897819747e-16
1.445850348141504895e-16
1.053946466537942433e-16
7.818657158420878203e-17
5.904522676271068117e-17
4.537324909126865273e-17
3.530236042929074189e-17
2.764636546631308343e-17
2.164282966145860544e-17
1.681677328128915333e-17
1.289021828671777131e-17
9.697192068438689752e-18
7.131071289036876954e-18
