# bin_12_11
7.607974672952204672e-11
8.473873684747385086e-11
9.252386169715328104e-11
9.853525745347091818e-11
1.016550586646655537e-10
1.010418727064103067e-10
9.527805570414920740e-11
8.485818940187583882e-11
7.143712268348970518e-11
5.841024273588222545e-11
4.890685873833297285e-11
4.236763529774056253e-11
3.407546047534494498e-11
2.367428684686497446e-11
1.836569687266322305e-11
1.369247721585824973e-11
9.618338160736631616e-12
6.776110182818557994e-12
4.902220297587266279e-12
3.446514864301455186e-12
2.430455702426540049e-12
1.739349267784128943e-12
1.262995704811535455e-12
9.337487249375824027e-13
7.035908645640909112e-13
5.386029771873663901e-13
4.170287534118138998e-13
3.244340601410358727e-13
2.517639052811723945e-13
1.935514262685243661e-13
1.465760237214567751e-13
