# bin_8_5
2.734684165628411007e-13
2.960689037934797643e-13
3.120995835444337382e-13
3.181443495558570047e-13
3.112462995987620148e-13
2.879122502748391579e-13
2.518530281733223761e-13
2.089896836260707750e-13
1.710838087419257867e-13
1.453585953114176278e-13
1.248909897611505601e-13
9.549821293683854212e-14
6.665711463113359992e-14
5.393968115014671303e-14
3.755931612041682445e-14
2.826444701855371360e-14
1.969046650714907137e-14
1.426832638764346296e-14
1.036065738381266050e-14
7.593374394844431665e-15
5.650378582508650631e-15
4.275256489780866092e-15
3.293067496274376533e-15
2.570352767849434163e-15
2.020503794784282142e-15
1.588915303347374120e-15
1.241129227167146507e-15
9.568374145327157338e-16
7.241153637364927953e-16
5.356209449121083146e-16
3.860825977739750210e-16
