# bin_14_8
5.297196088622608214e-19
5.893757649288501172e-19
6.426745661289741855e-19
6.833048350380502639e-19
7.034851001811752020e-19
6.974378830675061243e-19
6.554553514975722270e-19
5.819497835242832677e-19
4.884906044277761956e-19
3.993260217430092112e-19
3.352709961797896510e-19
2.903547550281452927e-19
2.314706056833007881e-19
1.603364443335471247e-19
1.257275818731096837e-19
9.237574708722999612e-20
6.576516903646901820e-20
4.583010842509568755e-20
3.321969592991378230e-20
2.341710044065112710e-20
1.655805040113492600e-20
1.188403704823831271e-20
8.653141032135800189e-21
6.417459146181550632e-21
4.849365222152383469e-21
3.720775844761334552e-21
2.885315506928538291e-21
2.245983566382797143e-21
1.742331526437579904e-21
1.337950624813627490e-21
1.011425020132964434e-21
