# bin_20_5
1.866778128067555276e-58
2.097494378859281108e-58
2.314803741444449046e-58
2.498157742177869058e-58
2.621257703139602540e-58
2.656812116238119666e-58
2.575863041811609266e-58
2.357379963614753969e-58
2.040176207258849547e-58
1.681838703229635816e-58
1.381953003845583229e-58
1.185682036118909452e-58
1.008498818922041976e-58
7.444848509261286555e-59
5.260862054080446528e-59
4.281763968465631103e-59
2.839039143957306939e-59
2.158277269152312057e-59
1.483378912578530467e-59
1.027600211933301385e-59
7.217842819745774470e-60
5.072350594591680465e-60
3.595730848354669785e-60
2.583099587451434903e-60
1.893050311347990953e-60
1.414084173673540512e-60
1.074510569390136279e-60
8.271083598565144708e-61
6.405939458941408851e-61
4.955591353145704401e-61
3.802120171299572170e-61
