# bin_14_13
6.893847622078323836e-11
7.730229385263630053e-11
8.510181305846802261e-11
9.156415976370403423e-11
9.570896717648117094e-11
9.659216869858587096e-11
9.304824595970920849e-11
8.458630891758764409e-11
7.270546061962321558e-11
5.975250969659833448e-11
4.926655684976103795e-11
4.244751892635010199e-11
3.573252543237129926e-11
2.589169425865283058e-11
1.866506921413602765e-11
1.501527108431403260e-11
9.963981709487662965e-12
7.519411812056869897e-12
5.233626934036427193e-12
3.630120761168925355e-12
2.549058432490559831e-12
1.794746491487655165e-12
1.279280535194187074e-12
9.255734397709422074e-13
6.832327212032604418e-13
5.137876202747632817e-13
3.925687431968476982e-13
3.032679547763184273e-13
2.352078203912330826e-13
1.818118782043283156e-13
1.391208031511450477e-13
