# bin_13_8
1.288284290374084071e-16
1.430012572705454602e-16
1.554849804814952113e-16
1.647234991747144319e-16
1.688464773105872151e-16
1.664341701213374206e-16
1.552925978359551822e-16
1.369543537363421473e-16
1.142960316613976212e-16
9.344786722195835336e-17
7.892568696009211614e-17
6.822361669948202736e-17
5.330732513733915360e-17
3.685961832307821290e-17
2.947188864603233587e-17
2.096904752333266343e-17
1.536962840292726154e-17
1.055040029074414729e-17
7.617265632258562187e-18
5.403199546747771023e-18
3.849386621585854189e-18
2.778551035479132487e-18
2.034787339332563160e-18
1.518846230069778509e-18
1.154316929341338984e-18
8.896839814944015718e-19
6.918580334910126413e-19
5.390065254597261161e-19
4.177077173334559798e-19
3.199120761616138768e-19
2.408857245023058751e-19
