# bin_15_7
1.267672230093140712e-25
1.411540853517795408e-25
1.540671003877291537e-25
1.640037693685761475e-25
1.691005909054250811e-25
1.679637111808344029e-25
1.582369989424003381e-25
1.408107392630585784e-25
1.184430117390999463e-25
9.683591990092857039e-26
8.114145320887418514e-26
7.029012085678434051e-26
5.639974883831659463e-26
3.914276151168892401e-26
3.045966603616177743e-26
2.261966652799177162e-26
1.594595054646648502e-26
1.119696049545504204e-26
8.108292503637873831e-27
5.704592720530523102e-27
4.025305150397214988e-27
2.883074205837792475e-27
2.095108781259746977e-27
1.550301032625018130e-27
1.169105469517818648e-27
8.955451513283639204e-28
6.937101794372261463e-28
5.397818809776152684e-28
4.188459627948216979e-28
3.219046023727416595e-28
2.436602132451553089e-28
