# bin_12_7
5.357354244324923946e-17
5.919150564093525552e-17
6.399196548220192399e-17
6.731298072159697579e-17
6.842961719138804103e-17
6.666312865280396589e-17
6.134324393615103012e-17
5.338446719052868452e-17
4.413975290887531774e-17
3.618379085313812867e-17
3.089881992402825467e-17
2.645124309180702711e-17
1.987622812309287037e-17
1.391450372955845718e-17
1.134048090288413581e-17
7.672460880314778786e-18
5.838036307397747189e-18
4.028094559623911191e-18
2.854439905690491373e-18
2.045779544106234262e-18
1.474588538150956258e-18
1.075021219534838266e-18
7.960767643415467545e-19
6.011399009628298822e-19
4.613902620378588609e-19
3.582213635485786814e-19
2.796664442102565082e-19
2.179496542484339603e-19
1.684002986538259515e-19
1.282322688630997790e-19
9.578318341249266495e-20
