# bin_19_12
2.317396615029014923e-19
2.614415995065525314e-19
2.899346043749821195e-19
3.147794643279281174e-19
3.327717307773727128e-19
3.401534341039325540e-19
3.339342719141456252e-19
3.099699924363590257e-19
2.720279089249487319e-19
2.261312750080003219e-19
1.850476728634036995e-19
1.570971324771756460e-19
1.355044903860794827e-19
1.041081669495873469e-19
7.197980066812006012e-20
5.818650544336580895e-20
4.010318057042715311e-20
2.985258046296066142e-20
2.011445882018840116e-20
1.416770569447332391e-20
9.886517832446772403e-21
6.896139112612506291e-21
4.834857692011214716e-21
3.423928672135877666e-21
2.469651986803589669e-21
1.816569826940526112e-21
1.361706917553979990e-21
1.037835273472232369e-21
7.995718428873520633e-22
6.183194687974329486e-22
4.763632560011035158e-22
