# bin_5_1
1.568069462297822891e-08
1.309484947406798620e-08
1.072225716926658998e-08
8.652180626636509417e-09
6.896319177362590546e-09
5.411967299049510171e-09
4.161151978782261076e-09
3.148412947677869926e-09
2.381222912156087326e-09
1.811010757249968786e-09
1.378643965119118444e-09
1.059491708846207325e-09
8.228015376886813102e-10
6.453071329605498809e-10
5.099289443661331207e-10
4.044635059981933983e-10
3.205176404912103789e-10
2.525539839437848012e-10
1.969959161482510699e-10
1.515214618752716468e-10
1.145594555221514853e-10
8.493692202236543853e-11
6.165928727256003685e-11
4.379716129061093085e-11
3.044655833607990186e-11
2.073659198172528426e-11
1.386091766839380619e-11
9.112538456992530694e-12
5.905985862557022547e-12
3.782274156543356266e-12
2.398572075862386209e-12
