# bin_16_10
5.865645514673520541e-08
5.426110204555483287e-08
4.887797621141405850e-08
4.283108399371869002e-08
3.653161157151841235e-08
3.041316001926095397e-08
2.483570704224906779e-08
1.999044744864610736e-08
1.588499217943964878e-08
1.241003601851946203e-08
9.482021636636958009e-09
7.119810965449490050e-09
5.339044473169919536e-09
4.015051558170129688e-09
3.007729673768744774e-09
2.270937127143765872e-09
1.726645268489305623e-09
1.324414204025122976e-09
1.022986536958253291e-09
7.939308257621413881e-10
6.168610645120134480e-10
4.778880656803962283e-10
3.676767375998299572e-10
2.798915328968301327e-10
2.101494903980692918e-10
1.552388541354864677e-10
1.126185964322699300e-10
8.014284940193479242e-11
5.592013816796353543e-11
3.826679265700139471e-11
2.570389537518997014e-11
