# bin_20_8
5.495336609339337631e-08
5.045688815903995551e-08
4.508133820358914702e-08
3.916806702004827253e-08
3.313141914399180782e-08
2.738875656800545109e-08
2.225029915042483264e-08
1.784420561000719485e-08
1.412136237980074665e-08
1.095775871025111575e-08
8.307102326330522810e-09
6.222782650416409243e-09
4.682196853961859352e-09
3.518554562113691372e-09
2.642564058615217675e-09
2.005899177506651336e-09
1.532845595649672883e-09
1.182076902135746593e-09
9.177528067232035846e-10
7.150842481748538813e-10
5.569720203909630842e-10
4.318430665846153563e-10
3.319564290767006164e-10
2.520656512777749449e-10
1.885070725581279626e-10
1.385218430796480203e-10
9.985830204966528780e-11
7.055767318196852330e-11
4.885727533280069741e-11
3.317307959223625808e-11
2.211265244341424291e-11
