# bin_9_3
2.759378568179496072e-08
2.391878416923248243e-08
2.019599184175824290e-08
1.667482672675578700e-08
1.353595325157584729e-08
1.084981768295583859e-08
8.582119830226807962e-09
6.659513224403500711e-09
5.058244504822223798e-09
3.807031591200537768e-09
2.881631859106701723e-09
2.182413656950995597e-09
1.657921807621041790e-09
1.274067769485492334e-09
9.876271494490019162e-10
7.726832599119267802e-10
6.082179392114928931e-10
4.797695876363744361e-10
3.775258359285233113e-10
2.950024330294183340e-10
2.279598717017786523e-10
1.735731262082231864e-10
1.298541809078886301e-10
9.525037387194370738e-11
6.841480260089984280e-11
4.809639042247399099e-11
3.310803604612902546e-11
2.234250167203857176e-11
1.480831010117630131e-11
9.660890439599521210e-12
6.218548630699850788e-12
