# bin_3_3
2.016833552957187738e-08
1.716736572545872657e-08
1.427582887083782358e-08
1.165019276924505790e-08
9.371834250000384225e-09
7.442731946322944573e-09
5.817256405001635172e-09
4.459558380574702006e-09
3.371046488268916258e-09
2.548330168579689695e-09
1.936218386325778101e-09
1.473118108176324451e-09
1.131150252909506728e-09
8.771615955847975337e-10
6.864144422796927483e-10
5.407370337445311797e-10
4.272570043966945047e-10
3.370851704129285743e-10
2.643349949162924510e-10
2.051620324100698021e-10
1.570233059093108643e-10
1.181561283516518457e-10
8.721749961506059502e-11
6.306322451769787507e-11
4.463759178700384840e-11
3.093632004939445737e-11
2.101412625942310835e-11
1.401332269851485118e-11
9.193167358078366001e-12
5.946673787059327516e-12
3.801513429214605161e-12
