# bin_11_7
4.488569896499838415e-08
4.057804171868045421e-08
3.569511592993060921e-08
3.056116372134540140e-08
2.552757778225649256e-08
2.089967563012274256e-08
1.685569692503039586e-08
1.342362642701615389e-08
1.052373816840593715e-08
8.077788673928529451e-09
6.087449270353964604e-09
4.573026542650266178e-09
3.450924993944157230e-09
2.597699649424773356e-09
1.968607457614043995e-09
1.504990622102381127e-09
1.160574138877698190e-09
9.016703717491629927e-10
7.039736773462763348e-10
5.501869056150087909e-10
4.286137219164413134e-10
3.314483186693046639e-10
2.534512816374464705e-10
1.910242100734381453e-10
1.415423910798795656e-10
1.029151821943639493e-10
7.334610446940089038e-11
5.121693241029550200e-11
3.505408402721099472e-11
2.354003405182745738e-11
1.553534045562789998e-11
