# bin_19_15
7.254093547191011618e-08
6.840758539265056944e-08
6.289946651026812821e-08
5.629767394463216368e-08
4.901907263975623622e-08
4.156617054627304548e-08
3.444054321029936192e-08
2.802396552609582176e-08
2.248727373412628017e-08
1.779804963473234534e-08
1.382616382725576840e-08
1.050313619523466400e-08
7.861695822880409823e-09
5.884398182157841069e-09
4.404845169629810552e-09
3.286373695881437575e-09
2.471492608203979915e-09
1.869470356853436908e-09
1.425947381327457105e-09
1.094680888468706316e-09
8.439663725173111883e-10
6.512610241684471164e-10
5.011018747231119756e-10
3.830035459418572039e-10
2.897713199485105506e-10
2.163723593909143612e-10
1.590849474332215261e-10
1.149724604436194859e-10
8.158913901136185569e-11
5.682734485007401615e-11
3.885469043078621497e-11
