# bin_7_4
3.000857922320612107e-08
2.624547122416828760e-08
2.235175710695024372e-08
1.858828515479305653e-08
1.516857808887319774e-08
1.220393408944392482e-08
9.695710516937030896e-09
7.577237828188874645e-09
5.799176273318388838e-09
4.371489702608258127e-09
3.297449369880133990e-09
2.498159286253303950e-09
1.891333163124126278e-09
1.445938749795441841e-09
1.115176055382591478e-09
8.682271106002474975e-10
6.806364134709837212e-10
5.355126784680803144e-10
4.210369543303896500e-10
3.293155964636377033e-10
2.551570570503304005e-10
1.951065830455609116e-10
1.467793603979806083e-10
1.083842749145633812e-10
7.843002862239541545e-11
5.557341447743577805e-11
3.855947318329172076e-11
2.621951474285706957e-11
1.749846340474702725e-11
1.148493641842275019e-11
7.430083004866030405e-12
