# bin_5_4
2.701793799569430411e-08
2.347058832767645908e-08
1.986866680061297104e-08
1.644386016619173868e-08
1.337018694075844288e-08
1.072401252983267043e-08
8.488794229846760687e-09
6.603971688460206781e-09
5.036471785771863396e-09
3.796322355478276475e-09
2.868925240041018056e-09
2.175388655652633692e-09
1.651635970426992011e-09
1.267242634093186826e-09
9.807105258130624795e-10
7.658760704217776516e-10
6.017232730705066911e-10
4.738989723774919772e-10
3.724866327737100992e-10
2.908940435049639895e-10
2.247883973214866971e-10
1.712671542004353415e-10
1.282885087545231826e-10
9.427348542023852806e-11
6.787123277341026122e-11
4.784452164128033770e-11
3.303220068372970808e-11
2.235822199683307639e-11
1.486096053399615343e-11
9.720084205483247721e-12
6.270396131228506640e-12
