# bin_17_17
7.333515442517139470e-08
6.923755345872299519e-08
6.374579458662209189e-08
5.713640269143256338e-08
4.982344073057440404e-08
4.230976635674782228e-08
3.510118551089873556e-08
2.858930063166529637e-08
2.295745447385168196e-08
1.818374007057358318e-08
1.414171082568773059e-08
1.075749756114323517e-08
8.057298802622665375e-09
6.027997616282785172e-09
4.511965202283718081e-09
3.365686881261637733e-09
2.528309013352327135e-09
1.910932761982077391e-09
1.455960278801590460e-09
1.116544712750353456e-09
8.600781759516606747e-10
6.632702774716469074e-10
5.101552101490574164e-10
3.898939415237534488e-10
2.950485392474368064e-10
2.204199616487998340e-10
1.621795203561859460e-10
1.173201963951512341e-10
8.334944177574328654e-11
5.812747725726493976e-11
3.979828898622951911e-11
