# bin_14_8
5.102272028470995170e-08
4.661479580683809229e-08
4.144593648995233037e-08
3.584865773777614479e-08
3.021041560367824454e-08
2.490350036449147764e-08
2.018783603598007943e-08
1.615541719321339539e-08
1.274895904123105326e-08
9.863063838366161334e-09
7.466700121411725980e-09
5.598143786831986342e-09
4.215413568122627578e-09
3.170179322947760039e-09
2.387033777907601210e-09
1.815850821670926575e-09
1.391230665701613694e-09
1.075162986633112607e-09
8.360452208118209327e-10
6.519236572769617766e-10
5.077297531158156453e-10
3.932963017036040994e-10
3.018140974097127897e-10
2.286467787629768904e-10
1.705151653439402934e-10
1.249088130474598411e-10
8.974710963236729205e-11
6.320164931828073455e-11
4.362234262062788961e-11
2.952995206198069353e-11
1.963169580623943068e-11
