# bin_17_9
5.656239470401855486e-08
5.212600142963183646e-08
4.676258522664854330e-08
4.080352860494706738e-08
3.465931868840396034e-08
2.875281727693785953e-08
2.341783573132881113e-08
1.881328673040993684e-08
1.491937543038891834e-08
1.161888683569829951e-08
8.844386823997085818e-09
6.631284156468101945e-09
4.980343299493366770e-09
3.745418961864906812e-09
2.808129239371396321e-09
2.126370965029847186e-09
1.620377325454320388e-09
1.246295038114668191e-09
9.651112252131333909e-10
7.504789796441566024e-10
5.838193959614106740e-10
4.524801518773491305e-10
3.479843666752356216e-10
2.645793260861925472e-10
1.982700381952834486e-10
1.460901547796457559e-10
1.056569534448697459e-10
7.492903451451114066e-11
5.208841758622413623e-11
3.550917812198541628e-11
2.376254947297056695e-11
