# bin_14_11
5.900332446108548152e-08
5.464563765422276983e-08
4.929184417696836243e-08
4.326073731028978605e-08
3.695880238831181567e-08
3.081636139071304691e-08
2.519551999764355627e-08
2.029640375526395314e-08
1.613842698589292015e-08
1.262200010278970185e-08
9.661493347787188187e-09
7.264322649791368518e-09
5.444800202912757830e-09
4.093377880079228031e-09
3.067518421405113678e-09
2.312844929905791870e-09
1.757377547228767755e-09
1.346212810244991204e-09
1.038596943462938000e-09
8.052304780238329337e-10
6.251482932382102557e-10
4.840702156751278490e-10
3.723714872267672365e-10
2.835161929444430215e-10
2.129786194877382418e-10
1.574565983900037736e-10
1.143524059160288804e-10
8.148545830590099001e-11
5.694407451642409343e-11
3.903242928892725361e-11
2.626346884957622737e-11
