# bin_9_4
3.202204043127010733e-08
2.811371554847763758e-08
2.402359195051282754e-08
2.003214468412308055e-08
1.637948396749500416e-08
1.320042561225230090e-08
1.050838248031015173e-08
8.232585187247217656e-09
6.312753887349975018e-09
4.758804820899462253e-09
3.586021790517275226e-09
2.715510050260095238e-09
2.052746852936672118e-09
1.566272923028894890e-09
1.205724252313575328e-09
9.371479932233002895e-10
7.337738880150815819e-10
5.770004049555779380e-10
4.537277975257845686e-10
3.551859758957480949e-10
2.756050107493985904e-10
2.111582152150547661e-10
1.592297270769671201e-10
1.178855302147365370e-10
8.553972256253331706e-11
6.077771984364749479e-11
4.228139377569980368e-11
2.881967999721696359e-11
1.927458916573687819e-11
1.267344246269461966e-11
8.211072314787155798e-12
