# bin_7_6
3.623735678460591411e-08
3.221284946856654975e-08
2.787132364977976151e-08
2.350484733310034723e-08
1.939184835659883301e-08
1.572895230937583526e-08
1.258975468889347748e-08
9.939189408189597295e-09
7.703146189897955695e-09
5.851914363324231976e-09
4.401586447584014710e-09
3.322084448727263039e-09
2.511142061600037948e-09
1.901262057532160599e-09
1.454672027971360484e-09
1.121748564417942467e-09
8.726226803456175438e-10
6.827373181207292096e-10
5.353489618754912491e-10
4.189247146962316208e-10
3.257432914257122997e-10
2.506804955941822278e-10
1.902637456808758925e-10
1.420262106066082454e-10
1.040530366104996817e-10
7.471888135150234453e-11
5.255888499443186598e-11
3.622283562056858976e-11
2.448122375976649838e-11
1.625055766718312549e-11
1.061566936107412175e-11
