# bin_20_14
7.156030595533982901e-08
6.738557747019475819e-08
6.186064079471829148e-08
5.527206029096963409e-08
4.803980099705864977e-08
4.066539735145266873e-08
3.364452271278746407e-08
2.734590526191403049e-08
2.192505659037729970e-08
1.733711444436842461e-08
1.344911296012865848e-08
1.020045983697478612e-08
7.630887207901231939e-09
5.715266810116554618e-09
4.278006390397318053e-09
3.193187799625154766e-09
2.404379759802267944e-09
1.820631943147608663e-09
1.390416876998597482e-09
1.068707349085826981e-09
8.247550447429316071e-10
6.368801507039323796e-10
4.902139038838926748e-10
3.746846774325865841e-10
2.833816021399802487e-10
2.114627055861738025e-10
1.553289720284917154e-10
1.121245556314100408e-10
7.945735433773593163e-11
5.525697318992901384e-11
3.771887137991392984e-11
