# bin_20_7
5.107457449654946978e-08
4.656761582024075600e-08
4.130074132760257926e-08
3.562075367617911845e-08
2.993068729757632082e-08
2.461293690430818643e-08
1.992067091548325553e-08
1.592744026550869664e-08
1.255074864522159711e-08
9.678506577013544195e-09
7.301341371494087164e-09
5.474020828319443061e-09
4.127315483115197237e-09
3.099393677244994568e-09
2.338609228199583634e-09
1.780912956254370633e-09
1.367742287747528814e-09
1.059107477112134037e-09
8.251667909162292168e-10
6.444773454608189000e-10
5.024780788706309060e-10
3.894256954223551339e-10
2.988038079109006209e-10
2.261941311096902333e-10
1.684572949466817745e-10
1.231655402581606751e-10
8.828259929892156557e-11
6.199723565368917827e-11
4.266078187165469195e-11
2.878825130950897124e-11
1.907990610977773468e-11
