# bin_17_5
4.105189403650255587e-08
3.670143736495306818e-08
3.190604866964940852e-08
2.700110595812070462e-08
2.232893366283869063e-08
1.814632219876989240e-08
1.456166269225492096e-08
1.153428393804981560e-08
8.959978706331151392e-09
6.800886994333492219e-09
5.104644179704390746e-09
3.852572722922747344e-09
2.905818004191460633e-09
2.193695402752901917e-09
1.674999006637435165e-09
1.288897666491796873e-09
1.001208168072507474e-09
7.830120325633477397e-10
6.143119619758432803e-10
4.814221594050834152e-10
3.751865329245256701e-10
2.895569567944987133e-10
2.204834167967449980e-10
1.651464584871299233e-10
1.214010989113242318e-10
8.745232326629795997e-11
6.168820355328618264e-11
4.261404238282484445e-11
2.885373930102105692e-11
1.917941014511840558e-11
1.254131856516171302e-11
