# bin_11_2
-3.586889202619448611e-35
-3.901285629113478916e-35
-4.136512171048584939e-35
-4.245877323451550655e-35
-4.194232156036050528e-35
-3.925357966386926783e-35
-3.471879120042859815e-35
-2.904948071475624111e-35
-2.373737725507381518e-35
-1.997094892901666585e-35
-1.726494034466098610e-35
-1.363956131595573179e-35
-9.464561718082334075e-36
-7.490999118471836501e-36
-5.453094405460429494e-36
-3.956051779948079588e-36
-2.773659012136804290e-36
-2.029859452496192444e-36
-1.460594416125995517e-36
-1.059722271642040770e-36
-7.821632517645368435e-37
-5.870412702262261205e-37
-4.486599279628281901e-37
-3.481188198964519795e-37
-2.726453449840262357e-37
-2.141614947371135656e-37
-1.675160077442883281e-37
-1.296070677756660747e-37
-9.862308492271592620e-38
-7.346941830817065429e-38
-5.339361751176135983e-38
