# bin_8_19
-2.389372858540896693e-32
-2.684774092405507732e-32
-2.963233853590709095e-32
-3.198573857461009314e-32
-3.357262782490618824e-32
-3.404122901343781798e-32
-3.302855223758917191e-32
-3.025175465329759744e-32
-2.620289708266043146e-32
-2.160638751780051227e-32
-1.774032236709246707e-32
-1.520531248657047500e-32
-1.294906737879306242e-32
-9.586383525588956775e-33
-6.753764275597263455e-33
-5.500861456828617901e-33
-3.650111566841371544e-33
-2.774796892731081225e-33
-1.902681239634363971e-33
-1.317941176444995948e-33
-9.254230606236972752e-34
-6.500126580585132041e-34
-4.602394585637824161e-34
-3.301410111991417075e-34
-2.415839565317001857e-34
-1.802072503704430857e-34
-1.367700745244963730e-34
-1.051906446885065668e-34
-8.143364947617052489e-35
-6.299290982195089978e-35
-4.834378821214036470e-35
