# bin_2_7
-2.625933551300644642e-17
-2.783921890132787022e-17
-2.858191602814753271e-17
-2.824936613098853650e-17
-2.646630215324783389e-17
-2.343496974093164276e-17
-1.963289254360558801e-17
-1.604351516726267673e-17
-1.347498969400421505e-17
-1.164149685796732962e-17
-9.239450245441239896e-18
-6.442220702866054501e-18
-5.071657116735560433e-18
-3.736173317486410035e-18
-2.706069221999103468e-18
-1.928275610468677661e-18
-1.422044360983175971e-18
-1.036668439147087587e-18
-7.647935947564345242e-19
-5.749284471632547944e-19
-4.399180947157457669e-19
-3.422700250434100920e-19
-2.695244795761947865e-19
-2.133600265517233140e-19
-1.686056039091369763e-19
-1.320795778447014629e-19
-1.019124833056686097e-19
-7.704193095321962845e-20
-5.682524091534236941e-20
-4.078612434753301717e-20
-2.847668317773426926e-20
