# bin_3_11
-2.085928528158532348e-28
-2.274234906068923569e-28
-2.418605117609287890e-28
-2.491787354426737483e-28
-2.473223125477531434e-28
-2.328761028734465679e-28
-2.071432832863394873e-28
-1.741999329820726282e-28
-1.423676333595570253e-28
-1.191874919323133131e-28
-1.031426995801687827e-28
-8.280444968216972149e-29
-5.766585874243622264e-29
-4.484051118961052631e-29
-3.348504645168718520e-29
-2.374129652494592307e-29
-1.690179424252050803e-29
-1.235597510602673112e-29
-8.848040839384483055e-30
-6.388400812600772678e-30
-4.694261228725470520e-30
-3.508859905859680086e-30
-2.670610838619446785e-30
-2.065374088696354854e-30
-1.614112713941527033e-30
-1.266777841213398624e-30
-9.913362360950571351e-31
-7.682653913449815589e-31
-5.861757513320374046e-31
-4.382254271589397880e-31
-3.198229794397882148e-31
