# bin_5_1
-1.694676310830703539e-14
-1.748969089520784853e-14
-1.740477192767199362e-14
-1.645876794029457426e-14
-1.470535512960434808e-14
-1.242601126346934470e-14
-1.016453381465987594e-14
-8.469818746640140695e-15
-7.313431683265633183e-15
-5.946961740839825644e-15
-4.202325670828810184e-15
-3.209722416081869069e-15
-2.462040626944179604e-15
-1.736069053579368596e-15
-1.278769099106827657e-15
-9.423053383569255729e-16
-6.904168649383001887e-16
-5.139824762330483353e-16
-3.900770420133345104e-16
-3.015927672010837219e-16
-2.368691820426128665e-16
-1.880567508861568265e-16
-1.498274749162135273e-16
-1.189218848777056534e-16
-9.338642105129660325e-17
-7.209385404973695805e-17
-5.442925508519662891e-17
-4.003654582133681024e-17
-2.863389371225697253e-17
-1.992198991622893865e-17
-1.351253764217412885e-17
