# bin_15_16
-1.935945087516479014e-08
-2.181929200853607260e-08
-2.417024065832677276e-08
-2.620715722700866941e-08
-2.766209691483515930e-08
-2.822605853861826152e-08
-2.764433277406584908e-08
-2.558961758758609693e-08
-2.239787549265687763e-08
-1.858265461573460723e-08
-1.520926943578627241e-08
-1.293429126770813655e-08
-1.113455612812678042e-08
-8.492483523254791087e-09
-5.882461357531690396e-09
-4.770713747725230068e-09
-3.254779490919202601e-09
-2.439298975035566003e-09
-1.645829676785713362e-09
-1.153460894522327207e-09
-8.064129024246280932e-10
-5.636790717614732094e-10
-3.958433662083273933e-10
-2.809239526020544176e-10
-2.031514669870129716e-10
-1.498167525869377830e-10
-1.125696219318162585e-10
-8.595120020794035151e-11
-6.628721290330149905e-11
-5.126914381130178604e-11
-3.947204959968586623e-11
