# bin_18_7
-5.397408513037693931e-34
-6.047785033231490512e-34
-6.652422142182252718e-34
-7.150673365780326058e-34
-7.465804693177993129e-34
-7.525242300959069410e-34
-7.236706032795696831e-34
-6.567125642169492973e-34
-5.634654942830147844e-34
-4.626729265895063985e-34
-3.816923713104561976e-34
-3.290463644825198870e-34
-2.762309756871724524e-34
-1.993180907055361031e-34
-1.443501299764884360e-34
-1.156765549353263462e-34
-7.685737630477650503e-35
-5.782625384347788288e-35
-4.035027308635933019e-35
-2.799743285481453669e-35
-1.965240240962606334e-35
-1.384160321307206906e-35
-9.875562124398500868e-36
-7.154209611113000741e-36
-5.287833852170298554e-36
-3.981092227965520502e-36
-3.044662242099871434e-36
-2.353319975924256409e-36
-1.825325011121302731e-36
-1.410417641137655079e-36
-1.078407411688153933e-36
