# bin_19_5
-2.187340508862607220e-51
-2.451963702287219688e-51
-2.698519313597513935e-51
-2.902519056434961497e-51
-3.032930056304232823e-51
-3.059924255403130825e-51
-2.946646301915507191e-51
-2.677746493797332734e-51
-2.300835962833454315e-51
-1.890332665275216832e-51
-1.558202953902375857e-51
-1.342229628873851466e-51
-1.129515253053392624e-51
-8.180712588220509151e-52
-5.896940105816696946e-52
-4.742432436570446608e-52
-3.146003521235184522e-52
-2.373591874221019675e-52
-1.651785212536673985e-52
-1.145387148153839637e-52
-8.040495378402883820e-53
-5.659419964887885887e-53
-4.032952539493338396e-53
-2.917201503725329249e-53
-2.152943632629068157e-53
-1.618701886884377264e-53
-1.236599581551618436e-53
-9.551629335096865894e-54
-7.407005878894795503e-54
-5.724664124588592617e-54
-4.379746358634084628e-54
