# bin_5_16
-7.175390072759177153e-38
-7.986948558293246472e-38
-8.714455744014177728e-38
-9.272982988078778844e-38
-9.557327366262503262e-38
-9.489011804813845528e-38
-8.935336114564398936e-38
-7.947707978883079171e-38
-6.682291111411929968e-38
-5.461663069544379098e-38
-4.575875781636115524e-38
-3.962834180967612888e-38
-3.177426089660375358e-38
-2.204266828218906211e-38
-1.715852468135361272e-38
-1.272925432773267353e-38
-8.977727614756761827e-39
-6.298774721469167308e-39
-4.560682693031852262e-39
-3.208322135207594542e-39
-2.263629098951742322e-39
-1.621155065138153936e-39
-1.177984788295518528e-39
-8.716277354802570944e-40
-6.572860818968333212e-40
-5.034674690381459466e-40
-3.899732638870851107e-40
-3.034096240556911259e-40
-2.353948527435773367e-40
-1.808742875518720928e-40
-1.368732774205643147e-40
