# bin_18_13
-1.114153492987129298e-12
-1.256204006111476055e-12
-1.392195826566928960e-12
-1.510375594405942869e-12
-1.595349599924808388e-12
-1.629204707746426734e-12
-1.597484061479480558e-12
-1.480791678281762695e-12
-1.297808548107408407e-12
-1.077734201470126832e-12
-8.818553892347938401e-13
-7.491142340434972182e-13
-6.455059957457067688e-13
-4.942739275943286181e-13
-3.419492169719005780e-13
-2.767971456267352921e-13
-1.898783205205636763e-13
-1.417608806428146676e-13
-9.555261976151414813e-14
-6.714272440747859717e-14
-4.688648702813156648e-14
-3.273129396402875396e-14
-2.296101737113781096e-14
-1.627330045859326409e-14
-1.174962086995929404e-14
-8.651415908795955703e-15
-6.491321311723351547e-15
-4.951010056969134033e-15
-3.815893445134448659e-15
-2.950944501310879514e-15
-2.272661235956141926e-15
