# bin_7_12
-1.396155913702937522e-14
-1.542152021673754240e-14
-1.666785112128735971e-14
-1.752840931644812982e-14
-1.781474149862954051e-14
-1.735090667752865100e-14
-1.596277550489413195e-14
-1.388874136352037925e-14
-1.148078779074438861e-14
-9.408601162555565854e-15
-8.031808627055045865e-15
-6.874434993610030095e-15
-5.165343564147601658e-15
-3.614677690053242017e-15
-2.945285982274157913e-15
-1.992494188555146224e-15
-1.515657038803216755e-15
-1.045416211212315550e-15
-7.407088352983759609e-16
-5.307465578680637873e-16
-3.824770670795657734e-16
-2.787780546416568485e-16
-2.063992411329570524e-16
-1.558296443195330202e-16
-1.195843496540737875e-16
-9.283170080154942358e-17
-7.246505406820723635e-17
-5.646612293746237523e-17
-4.362288556947722567e-17
-3.321259502322324780e-17
-2.480416929791990660e-17
