# bin_16_16
-2.871904095717978835e-08
-3.240574349484861206e-08
-3.594719336475690094e-08
-3.904314001928062641e-08
-4.129820840403217846e-08
-4.224472918547131879e-08
-4.151895607964654967e-08
-3.859411395740357795e-08
-3.391474120716011493e-08
-2.821863707525490642e-08
-2.307930435319606836e-08
-1.956011705962743889e-08
-1.688369277455133733e-08
-1.303208918850884082e-08
-8.998338867540998732e-09
-7.250891362578612961e-09
-5.033402651800833846e-09
-3.724676453507334006e-09
-2.508586856343520885e-09
-1.772474169391291794e-09
-1.234510186031919816e-09
-8.592089662908273548e-10
-6.014187785884987145e-10
-4.250991367729123716e-10
-3.059368634785323959e-10
-2.245367924858711743e-10
-1.679733320749045652e-10
-1.278185397945561384e-10
-9.837509249503256842e-11
-7.604676304538831534e-11
-5.860124996935447790e-11
