# bin_7_7
-5.225109371704640663e-08
-5.675575819303248017e-08
-6.007882943259925417e-08
-6.154562350658778363e-08
-6.063545433676627659e-08
-5.656366800551065360e-08
-4.987703997180631319e-08
-4.162931160737963738e-08
-3.402493861395609093e-08
-2.870217573058204775e-08
-2.478194514726175892e-08
-1.940456324425362720e-08
-1.346941687057889151e-08
-1.073968380181153945e-08
-7.715620258480828002e-09
-5.661596040054071257e-09
-3.953482050702930342e-09
-2.886810046825708769e-09
-2.082725090492883581e-09
-1.515597794233783238e-09
-1.121154008190150406e-09
-8.433017001078884411e-10
-6.459089950566640081e-10
-5.020030045148258659e-10
-3.935802810017777147e-10
-3.092641099471469662e-10
-2.418184918897599145e-10
-1.869126189158922466e-10
-1.420141560448271963e-10
-1.055863037783592745e-10
-7.655950330896069183e-11
