# bin_12_17
-6.220993683106077412e-13
-6.996540079125820826e-13
-7.730749869247025564e-13
-8.356111484241588019e-13
-8.785694097442795211e-13
-8.925300281168933379e-13
-8.684761093396511826e-13
-7.979706912672780549e-13
-6.933618657112243424e-13
-5.726930450670203675e-13
-4.696664577177460993e-13
-4.016650392157027027e-13
-3.433738254216968345e-13
-2.564721542871560931e-13
-1.795013247729417492e-13
-1.463272812106710699e-13
-9.761720180279122690e-14
-7.409855112999975547e-14
-5.052225188687325095e-14
-3.505548664018805439e-14
-2.460336321192824990e-14
-1.726871244957228442e-14
-1.219698538649360898e-14
-8.720749443517457077e-15
-6.359350888474071761e-15
-4.728039612575022131e-15
-3.578214881478868987e-15
-2.746571402737866927e-15
-2.124248625990075662e-15
-1.643399293109117144e-15
-1.262568978066806136e-15
