# bin_9_5
-5.576549262275919358e-13
-6.062231118739571535e-13
-6.423654923076668572e-13
-6.588436008900778490e-13
-6.501604741956966061e-13
-6.077146965779900854e-13
-5.368770124852980788e-13
-4.487763806123316592e-13
-3.667407427294498498e-13
-3.088662477810556766e-13
-2.668964635934097139e-13
-2.101219671794595934e-13
-1.458170762769474554e-13
-1.157539523353410922e-13
-8.382587069765575443e-14
-6.109485005357394769e-14
-4.275797483005837491e-14
-3.126351701494346961e-14
-2.251920390727051726e-14
-1.635848746144611472e-14
-1.208443198331183003e-14
-9.077390173706506094e-15
-6.943433041596513608e-15
-5.390960551857225721e-15
-4.223911079795289256e-15
-3.318322329292522546e-15
-2.595222100617774340e-15
-2.007169136832212669e-15
-1.526442318370871266e-15
-1.136264615218420207e-15
-8.250482532970796377e-16
