# bin_8_17
-2.064741878186084986e-25
-2.311341089266986127e-25
-2.539466162335191440e-25
-2.725733484935372959e-25
-2.840643610358768215e-25
-2.857304757821995073e-25
-2.739416898734843596e-25
-2.478416257683240159e-25
-2.119844667478063396e-25
-1.738693613757239746e-25
-1.437092215195878780e-25
-1.240775592408907285e-25
-1.035816161584723874e-25
-7.416085819982470294e-26
-5.427599555944847493e-26
-4.311009091086133902e-26
-2.878420232540130869e-26
-2.149502315645592550e-26
-1.509057818612571002e-26
-1.048766812918405403e-26
-7.360888932694523942e-27
-5.193691250830812314e-27
-3.715579966241357855e-27
-2.700594428603773427e-27
-2.002531012440524935e-27
-1.512043557579726161e-27
-1.159039142994152917e-27
-8.970910306842638066e-28
-6.960798274564469527e-28
-5.375441748718828899e-28
-4.104393657101541210e-28
