# bin_11_15
-1.598116989223551347e-11
-1.789406257986808964e-11
-1.966583771401201268e-11
-2.111585557284677770e-11
-2.201605471627240603e-11
-2.215664489538732060e-11
-2.125862403899489677e-11
-1.924792632511559107e-11
-1.647624533546970329e-11
-1.351775980743022400e-11
-1.116765803885382584e-11
-9.638182896422777966e-12
-8.057301734320517454e-12
-5.780427305069105263e-12
-4.219191139578742612e-12
-3.358636646095662676e-12
-2.239876391905956004e-12
-1.675741154715124719e-12
-1.174636222493485601e-12
-8.160159003164204612e-13
-5.727491499890215524e-13
-4.039431954623770795e-13
-2.887828635750275256e-13
-2.097191491341555631e-13
-1.553816554653121182e-13
-1.172365426540804146e-13
-8.981349695059992031e-14
-6.949055822343936372e-14
-5.391422108758484522e-14
-4.164074262985421238e-14
-3.180545460531269116e-14
