# bin_15_15
-2.970834615412178216e-08
-3.344083206010907853e-08
-3.698821427097327995e-08
-4.003111967985129280e-08
-4.215604261685310430e-08
-4.290229581188078285e-08
-4.185724547296411721e-08
-3.857412172226699991e-08
-3.361682623212285438e-08
-2.781355259552709671e-08
-2.278878913704999243e-08
-1.944683471986541138e-08
-1.667714588645871545e-08
-1.256132962736242490e-08
-8.747746498965457027e-09
-7.124288389164460807e-09
-4.788086654406910513e-09
-3.621742187282827887e-09
-2.457264447252163932e-09
-1.710095762054932796e-09
-1.198981820165690037e-09
-8.406011958144745197e-10
-5.923453719727565665e-10
-4.222362690085455177e-10
-3.068785080592614123e-10
-2.274259514153004558e-10
-1.716350777759733857e-10
-1.314783200036399121e-10
-1.015823615449832799e-10
-7.858730630964076033e-11
-6.043182855097761335e-11
