# bin_4_5
-3.292399572846687600e-08
-3.483184572868652035e-08
-3.567186574910958254e-08
-3.513813027765476815e-08
-3.278523751400639788e-08
-2.891882138527354976e-08
-2.415239976027725359e-08
-1.974318220594056170e-08
-1.663722769958116220e-08
-1.434937973542972580e-08
-1.126576766093171886e-08
-7.858449444957485603e-09
-6.240738773040208250e-09
-4.527894756105908582e-09
-3.321506563349118663e-09
-2.356122243589526257e-09
-1.734705192040568934e-09
-1.268484104846155711e-09
-9.387544057923391115e-10
-7.075161381671626908e-10
-5.426334043484366418e-10
-4.230683976830049879e-10
-3.336180894574690931e-10
-2.642672513434217173e-10
-2.088045251798522652e-10
-1.634221697344141111e-10
-1.258996898723953850e-10
-9.497343820692831965e-11
-6.987383874548023460e-11
-5.001642298013319162e-11
-3.482954239959574618e-11
