# bin_3_5
-2.394431970618335974e-09
-2.515344674395287093e-09
-2.554819350420024399e-09
-2.487567145454328458e-09
-2.289517388190412051e-09
-1.993220758890012895e-09
-1.649211604529427651e-09
-1.351320777916024122e-09
-1.150833342073505465e-09
-9.837734488715822001e-10
-7.443669411172005801e-10
-5.243410516345309084e-10
-4.246819758659332845e-10
-2.949405628005149134e-10
-2.238360406358882340e-10
-1.582218315187121936e-10
-1.155569639655296050e-10
-8.525037055728278114e-11
-6.369393431432658873e-11
-4.840295682612411155e-11
-3.741017339844692303e-11
-2.936046682852069050e-11
-2.325161069413108541e-11
-1.844973251398250175e-11
-1.456478214923036548e-11
-1.136097601395533305e-11
-8.704398960525245788e-12
-6.518413260496337684e-12
-4.754619900101556749e-12
-3.372816745872589173e-12
-2.328392399111757574e-12
