# bin_8_14
-1.437818904338161785e-16
-1.599314373576267585e-16
-1.743484071153643687e-16
-1.853230615425488822e-16
-1.907487654037115430e-16
-1.890643279980879779e-16
-1.776444546229931920e-16
-1.576875331919546482e-16
-1.323335582890033667e-16
-1.081484181043780602e-16
-9.077046200562205087e-17
-7.859031748483693782e-17
-6.264793494532467379e-17
-4.338571098701370804e-17
-3.400547516688273996e-17
-2.498648052847361060e-17
-1.777924785814584237e-17
-1.238928578348797708e-17
-8.978115163412720259e-18
-6.326895730925507372e-18
-4.472299676369015219e-18
-3.208900078278668708e-18
-2.335837242246549861e-18
-1.731863791510403929e-18
-1.308369781452088095e-18
-1.003663939993563403e-18
-7.781646225581505572e-19
-6.056465777225950314e-19
-4.697686694841145072e-19
-3.606906861374236368e-19
-2.726266488631423384e-19
