# bin_11_20
-1.731658109995221559e-22
-1.953992582894428191e-22
-2.167585287719207570e-22
-2.354336451292965225e-22
-2.490408379286413489e-22
-2.547589907611514095e-22
-2.503968562859053822e-22
-2.327731791848026883e-22
-2.045636724739565664e-22
-1.702133778892269055e-22
-1.392109986989986450e-22
-1.179775494652809158e-22
-1.018403214448545678e-22
-7.862228848904114663e-23
-5.428240663234175303e-23
-4.373839947762779923e-23
-3.036925731254178136e-23
-2.246993679672441778e-23
-1.513193734150842208e-23
-1.069307384378968525e-23
-7.447296914421697722e-24
-5.183046275611614640e-24
-3.627816514749090710e-24
-2.564098826508111330e-24
-1.845223347984123412e-24
-1.354184778658517161e-24
-1.012994514277667605e-24
-7.708036424712836769e-25
-5.932353910902156416e-25
-4.585895867539218095e-25
-3.533951945767131047e-25
