# bin_8_3
-1.261648580026123730e-16
-1.353653364520461565e-16
-1.410948183040451823e-16
-1.420073405563780496e-16
-1.363680274335263108e-16
-1.236257280348328822e-16
-1.059844732411837982e-16
-8.700643242642000653e-17
-7.176475897344402571e-17
-6.177754942454148791e-17
-5.178537277025277045e-17
-3.752103163699497931e-17
-2.731075216644419355e-17
-2.189689323743135961e-17
-1.485243225681538043e-17
-1.127530945273202424e-17
-8.058930348044947894e-18
-5.787030674899062196e-18
-4.229335030840018041e-18
-3.130340534699925548e-18
-2.358645124004284622e-18
-1.808222006452433639e-18
-1.408485245452087589e-18
-1.107953375514667641e-18
-8.742940320582281692e-19
-6.872866878476530262e-19
-5.345070404474354242e-19
-4.088435081229165241e-19
-3.060672994538523652e-19
-2.234109303353906796e-19
-1.587053244328052117e-19
