# bin_19_13
-1.996584181236946511e-14
-2.254045625341457114e-14
-2.501919936916803660e-14
-2.719456417462845432e-14
-2.879237043897134946e-14
-2.948518601862326862e-14
-2.902336374647362220e-14
-2.702943553927080546e-14
-2.379390530455469925e-14
-1.982468937099165575e-14
-1.621016205498648004e-14
-1.371687674382006164e-14
-1.185122012636068419e-14
-9.197100922990419569e-15
-6.344837187142835420e-15
-5.094338052230105263e-15
-3.566180711461733786e-15
-2.621236143725271651e-15
-1.766601257761550109e-15
-1.252600203253349389e-15
-8.708505701488363951e-16
-6.047547162101689875e-16
-4.226872763846235200e-16
-2.982376814116295275e-16
-2.141689739032602414e-16
-1.568393346236133817e-16
-1.170895074150407755e-16
-8.895386062347810578e-17
-6.839320007360693840e-17
-5.285237484157632686e-17
-4.074143261567614557e-17
