# bin_1_11
-2.738782239382951166e-43
-2.972102416131812968e-43
-3.142434221707736291e-43
-3.214589261299337563e-43
-3.161020365914918413e-43
-2.941783636013460893e-43
-2.588246236496757204e-43
-2.156260998541539944e-43
-1.762605974041981044e-43
-1.489778699002911928e-43
-1.285244445353983011e-43
-9.997425270528019483e-44
-6.939371452350405039e-44
-5.565063046135376946e-44
-3.957872462088725507e-44
-2.929760476473677741e-44
-2.038878235413148240e-44
-1.486385096520182401e-44
-1.074546347288814668e-44
-7.836687793909098632e-45
-5.806552426089885633e-45
-4.374282726156566315e-45
-3.355541405576362350e-45
-2.611018487273108958e-45
-2.048603818196133909e-45
-1.610125546667461711e-45
-1.258653387214773050e-45
-9.721875562096046355e-46
-7.378525085698353007e-46
-5.478095125809506869e-46
-3.965521007829383758e-46
