# bin_15_10
-1.660805123972558559e-13
-1.856929797646559662e-13
-2.037208056921893607e-13
-2.182644805016736538e-13
-2.269342454407600493e-13
-2.276571701178715746e-13
-2.174295758315624842e-13
-1.959828837040384217e-13
-1.669813700802669678e-13
-1.367990658060179288e-13
-1.133613983690057528e-13
-9.802027927445532572e-14
-8.121606288078586527e-14
-5.763816942794626460e-14
-4.274674184447366230e-14
-3.352607061398773208e-14
-2.257468884102009203e-14
-1.666362487294749111e-14
-1.179175976306186557e-14
-8.213793402052572568e-15
-5.765352505468991257e-15
-4.079192926029806825e-15
-2.928313913367366109e-15
-2.137002264381321046e-15
-1.590822656826476670e-15
-1.205325519751676273e-15
-9.263825916978964910e-16
-7.180939224034925151e-16
-5.573497881360370645e-16
-4.300400438915788630e-16
-3.277622799556750977e-16
