# bin_9_14
-7.837800707972910071e-14
-8.732712523089511769e-14
-9.539452364450677889e-14
-1.016588205168573014e-13
-1.049723462236206477e-13
-1.044618833904715817e-13
-9.866458842098996051e-14
-8.800750460839516811e-14
-7.419401468123374093e-14
-6.065825057941679811e-14
-5.069586742062057835e-14
-4.390878836381227722e-14
-3.548006369757237388e-14
-2.469678281759617046e-14
-1.903222901970864981e-14
-1.430283370538911339e-14
-9.970511108413993743e-15
-7.069956833396935231e-15
-5.104134779882041924e-15
-3.582356872739724838e-15
-2.522367956210288916e-15
-1.801659119707046971e-15
-1.305862120567905202e-15
-9.634892552376709118e-16
-7.246662855398379075e-16
-5.538936369970525094e-16
-4.284128938106077547e-16
-3.331214528613281354e-16
-2.585110862006576730e-16
-1.988346901594597391e-16
-1.507041993571378685e-16
