# bin_6_18
-5.556900581310015068e-40
-6.220820200592754155e-40
-6.835126347818545854e-40
-7.336906028371017194e-40
-7.646782959795966736e-40
-7.692287121905837185e-40
-7.375827389059617258e-40
-6.673908541358099615e-40
-5.709070234724861543e-40
-4.682777397357578264e-40
-3.870177860019871484e-40
-3.341286562041286801e-40
-2.789997302226867278e-40
-1.998164146687209562e-40
-1.461763424128048784e-40
-1.161480363501863499e-40
-7.753380012514100617e-41
-5.791840373370096978e-41
-4.065138174104889518e-41
-2.825001124313857119e-41
-1.982766094690765896e-41
-1.398889694204665087e-41
-1.000658733412619274e-41
-7.272117362863169861e-42
-5.391683504748523835e-42
-4.070606467017300108e-42
-3.119991716705668977e-42
-2.414730063951687782e-42
-1.873636189303935971e-42
-1.446942070777980363e-42
-1.104868577078910857e-42
