# bin_10_17
-2.222456268670325353e-15
-2.494430136129165010e-15
-2.749247813127601815e-15
-2.962202429249888583e-15
-3.101825972661795068e-15
-3.136733682024885760e-15
-3.030769508431801941e-15
-2.763834669209466447e-15
-2.383293423123006346e-15
-1.961503043560393009e-15
-1.614651422021022845e-15
-1.388430613694784519e-15
-1.174541422280866166e-15
-8.586044559468060197e-16
-6.130847155777986397e-16
-4.960083411584558972e-16
-3.289588295500510833e-16
-2.491589129039963657e-16
-1.723854971022720830e-16
-1.194942218849829354e-16
-8.391951752877199215e-17
-5.903073722625096541e-17
-4.196768876451402782e-17
-3.026272517771453553e-17
-2.226381465394694519e-17
-1.669030610031698676e-17
-1.271997936957873290e-17
-9.810235540845727005e-18
-7.603794048572337784e-18
-5.879835149345353881e-18
-4.504827721055435400e-18
