# bin_16_3
-5.105962274647061391e-40
-5.673426576753140592e-40
-6.176392735017003929e-40
-6.553551567142499785e-40
-6.730418828050537312e-40
-6.650919675650982811e-40
-6.225321978348108641e-40
-5.506441171262876198e-40
-4.607274961841033771e-40
-3.766685812600824908e-40
-3.172973825891660387e-40
-2.744905381845102801e-40
-2.163953322070812146e-40
-1.497633543598940417e-40
-1.187007260766820413e-40
-8.567928435653650608e-41
-6.198365690783783102e-41
-4.284421274987538163e-41
-3.098363226593328958e-41
-2.191638063423672409e-41
-1.556177056740189008e-41
-1.120430184407715610e-41
-8.184322151731521053e-42
-6.091700195953706128e-42
-4.617993406272086616e-42
-3.552230754842026580e-42
-2.758954084938124637e-42
-2.148615195768246989e-42
-1.665820180430995895e-42
-1.277281212127412800e-42
-9.634185555570884143e-43
