# bin_3_10
-8.020869606200330540e-20
-8.706057054966639660e-20
-9.206870582745186570e-20
-9.420458366439159369e-20
-9.264807953557006733e-20
-8.624043758454408392e-20
-7.589204910198183874e-20
-6.325177622735185686e-20
-5.172947316957536951e-20
-4.373393142099161329e-20
-3.771910624360709074e-20
-2.934543022796224061e-20
-2.040222777808635574e-20
-1.634020327501087508e-20
-1.163565450760522997e-20
-8.602518900846529619e-21
-6.003630450108918421e-21
-4.373604845864497561e-21
-3.161916588058997720e-21
-2.306158930915762687e-21
-1.708961761279358841e-21
-1.287686268566882018e-21
-9.879380871103173417e-22
-7.688316996411379715e-22
-6.032900204400649770e-22
-4.742098441714972992e-22
-3.707338900515833516e-22
-2.863894528348227876e-22
-2.173872238718174661e-22
-1.614195547007441794e-22
-1.168685929262402319e-22
