# bin_4_7
-2.304378515388660489e-10
-2.470768913328851211e-10
-2.572950261267244226e-10
-2.586701519042526364e-10
-2.480018031454000085e-10
-2.245200619003535203e-10
-1.922183753378750352e-10
-1.578132668261593359e-10
-1.303914436127924205e-10
-1.122875042129581796e-10
-9.376351597871653462e-11
-6.779624078710395938e-11
-4.965734936825945896e-11
-3.952871542409734784e-11
-2.699614825043198380e-11
-2.036047758239994798e-11
-1.459631470177247874e-11
-1.050021548447563511e-11
-7.678036242999126314e-12
-5.690955511912394451e-12
-4.293299966758385036e-12
-3.295167525361553223e-12
-2.568928361636695166e-12
-2.021887315693871213e-12
-1.595811399395283154e-12
-1.254309426813817661e-12
-9.750748838411172123e-13
-7.453339365136710966e-13
-5.574907835383200672e-13
-4.065414192126031946e-13
-2.885198569209450410e-13
