# bin_18_18
-2.308886510541801399e-08
-2.616483401594953086e-08
-2.917467005761549098e-08
-3.188695947982313745e-08
-3.399108177357261113e-08
-3.510002817107039936e-08
-3.492188157716570759e-08
-3.296279992151585067e-08
-2.938346304303398318e-08
-2.475422881766562120e-08
-2.024596205498054389e-08
-1.695113564374265836e-08
-1.469163368453320403e-08
-1.183051541603980920e-08
-8.208252826136145529e-09
-6.351147582602582668e-09
-4.725803021514793696e-09
-3.290173409391706798e-09
-2.293144539391830099e-09
-1.636681552098008644e-09
-1.125906261153760803e-09
-7.713410824423668729e-10
-5.331672800442616196e-10
-3.716780131290398262e-10
-2.627613839321719685e-10
-1.893132756209398777e-10
-1.391186047257335558e-10
-1.042850452380098590e-10
-7.944034351567581613e-11
-6.112694963886304861e-11
-4.715855283589863695e-11
