# bin_5_11
-8.511995659830798270e-16
-9.331163829764423307e-16
-9.990515437151335819e-16
-1.038069898678163706e-15
-1.040753493070090412e-15
-9.934293300198581680e-16
-8.951609409592114374e-16
-7.625580742270887397e-16
-6.248863362893462642e-16
-5.180001150399357037e-16
-4.475636704647678046e-16
-3.704860056302056049e-16
-2.637407794571209920e-16
-1.960955531070774583e-16
-1.539534013589072483e-16
-1.048380516101251100e-16
-7.788422806325110986e-17
-5.581026320976782820e-17
-3.961550995629543390e-17
-2.846739906471156863e-17
-2.071497133880772982e-17
-1.533614463551614100e-17
-1.155665885564653968e-17
-8.864451965757441324e-18
-6.887559808477353188e-18
-5.389627339827355917e-18
-4.218679750125420412e-18
-3.279517136815764787e-18
-2.516305309878591383e-18
-1.895730029364065148e-18
-1.396614087554712034e-18
