# bin_18_20
-8.539970643767257395e-09
-9.694723912591759977e-09
-1.083392712724010265e-08
-1.187330783241401068e-08
-1.269973012306519971e-08
-1.317105906284884370e-08
-1.317203624880496016e-08
-1.252028991911043017e-08
-1.123365637092206983e-08
-9.524972918188861807e-09
-7.797574882653378904e-09
-6.492028718187935191e-09
-5.624822974225848424e-09
-4.606777049960744054e-09
-3.229633837732619655e-09
-2.439718130259971360e-09
-1.869128685646750984e-09
-1.269581064522815389e-09
-9.097954441988349179e-10
-6.426243685512975132e-10
-4.400484870369978831e-10
-3.006369387077313749e-10
-2.064549355102039492e-10
-1.429595636947583052e-10
-1.001930822081857994e-10
-7.151288452711902741e-11
-5.205330323489543908e-11
-3.868285516895264437e-11
-2.927126187723822643e-11
-2.243455501767290081e-11
-1.729116621798698784e-11
