# bin_5_20
-3.751988083156995763e-42
-4.215881925727979229e-42
-4.652897612515180622e-42
-5.021764544110655592e-42
-5.269636280372288887e-42
-5.341594756239975464e-42
-5.179598673772365238e-42
-4.741247879802772489e-42
-4.104121726509474691e-42
-3.383870819721472341e-42
-2.780550750995353831e-42
-2.385153211218413546e-42
-2.028774703884564625e-42
-1.498722559402839249e-42
-1.059230541743380861e-42
-8.612221611516052570e-43
-5.720426128281037213e-43
-4.343242795400850160e-43
-2.984010656472876249e-43
-2.068603442589183373e-43
-1.452687379105529382e-43
-1.020820257019181631e-43
-7.235340482016547724e-44
-5.196640404745549399e-44
-3.807448022629594789e-44
-2.843404421969071699e-44
-2.160099523166187750e-44
-1.662433310786751862e-44
-1.287389559116163301e-44
-9.958595801455346295e-45
-7.640718574294034320e-45
