# bin_11_3
-7.300419989027613710e-23
-7.962345568762635518e-23
-8.471071692158226771e-23
-8.731259378892977967e-23
-8.669868397378991774e-23
-8.168008484464679009e-23
-7.269523585976919294e-23
-6.117536795703186874e-23
-5.001994914078992532e-23
-4.187817348599296873e-23
-3.623868461405398678e-23
-2.911355212492708494e-23
-2.031158462575096079e-23
-1.577013228558496506e-23
-1.179184877250737380e-23
-8.356135493041173102e-24
-5.963893930538153239e-24
-4.351996904257502453e-24
-3.116582206944150967e-24
-2.251199711863511527e-24
-1.653967539369212569e-24
-1.236153680642393408e-24
-9.407084809906300785e-25
-7.274329055447373526e-25
-5.684603488717367146e-25
-4.461382010924594586e-25
-3.491661490628767553e-25
-2.706482601443627655e-25
-2.065580921540837909e-25
-1.544767600656797596e-25
-1.127857314954015843e-25
