# bin_7_13
-8.043559308266561206e-15
-8.912317166904845221e-15
-9.668847097086172494e-15
-1.021510920524048799e-14
-1.043689626484216346e-14
-1.024142611026636003e-14
-9.504263042602870013e-15
-8.339234004853884512e-15
-6.933087104646814887e-15
-5.672897627161523033e-15
-4.812339498969113127e-15
-4.147048761497876894e-15
-3.191613812581362238e-15
-2.213905738154495504e-15
-1.786962199458584398e-15
-1.244309571193984148e-15
-9.278256382323529527e-16
-6.363635840806714564e-16
-4.559866815662332804e-16
-3.249199784970974220e-16
-2.327015342826456719e-16
-1.686225462879548609e-16
-1.240150001810574613e-16
-9.299404556131100144e-17
-7.095479746360020580e-17
-5.485135503031948946e-17
-4.272635892161065857e-17
-3.329504701872382986e-17
-2.577473432891163249e-17
-1.969712444988639470e-17
-1.478574653312581271e-17
