# bin_9_7
-5.469724817975999857e-09
-5.986963948255937852e-09
-6.397839190809319110e-09
-6.631586838926845895e-09
-6.629926243625213620e-09
-6.303513400485881889e-09
-5.658586539150191336e-09
-4.801954549175349888e-09
-3.931396040716620923e-09
-3.268218400774465651e-09
-2.826513961904235380e-09
-2.320262771903520167e-09
-1.639418757891569112e-09
-1.235283424310790998e-09
-9.567266991650176746e-10
-6.582134170956208858e-10
-4.832740885108157292e-10
-3.486560962749220420e-10
-2.480850254967456717e-10
-1.784396154545175976e-10
-1.302042547407040366e-10
-9.667826613981840669e-11
-7.307715816683040859e-11
-5.619842293101988166e-11
-4.374772480384712257e-11
-3.426870976380743606e-11
-2.682579391313836934e-11
-2.083746618373873775e-11
-1.596343230809863425e-11
-1.200035972112336698e-11
-8.817016184073989304e-12
