# bin_4_5
-3.497895127664517524e-08
-3.701057987270435973e-08
-3.790876020419059476e-08
-3.734233078397468989e-08
-3.484498853858077908e-08
-3.073885084032240152e-08
-2.568202351708321574e-08
-2.100497656835666985e-08
-1.770677564343555731e-08
-1.526544562378775679e-08
-1.198213979370568916e-08
-8.374755787352887003e-09
-6.642372613810822252e-09
-4.822592640774808256e-09
-3.535668778434005235e-09
-2.514741485437311614e-09
-1.849173219309714478e-09
-1.352361594295330671e-09
-1.001133146593446906e-09
-7.546341063259607966e-10
-5.788752691491544661e-10
-4.513867024524635565e-10
-3.559893688333525951e-10
-2.820148954738373137e-10
-2.228460351745299687e-10
-1.744260674806354372e-10
-1.343884944559032156e-10
-1.013867397781417492e-10
-7.460073841383783271e-11
-5.340813634354426060e-11
-3.719850710643292459e-11
