# bin_11_8
-6.303765956782857024e-10
-6.961270270395746216e-10
-7.521135908501380467e-10
-7.905284287182872544e-10
-8.029545811923214359e-10
-7.812161525352503956e-10
-7.179168833916676723e-10
-6.239348485425404658e-10
-5.155824839843780261e-10
-4.229199909776786602e-10
-3.614463871406442188e-10
-3.088143745513992644e-10
-2.312534338420505676e-10
-1.624741481654048439e-10
-1.321811355877860827e-10
-8.941748328701514277e-11
-6.796229718589680170e-11
-4.701617548800641944e-11
-3.332353553962745385e-11
-2.388102609673919611e-11
-1.721612602974726567e-11
-1.256259258642672909e-11
-9.313164787874219870e-12
-7.039703458873773039e-12
-5.407504943151343336e-12
-4.200602851261681184e-12
-3.280092174592066323e-12
-2.555896030264525751e-12
-1.973988092999902345e-12
-1.502142109929406300e-12
-1.121064250687421926e-12
