# bin_7_2
-5.419623964708357702e-15
-5.748396016421843699e-15
-5.905131308048163600e-15
-5.839694839862618250e-15
-5.475376115958602620e-15
-4.852024907762434901e-15
-4.068752955322332469e-15
-3.326832698813113775e-15
-2.793807059001904852e-15
-2.412940606245469777e-15
-1.917758623222054324e-15
-1.340629973685651096e-15
-1.052182783013583911e-15
-7.773170891549712208e-16
-5.617501709690057494e-16
-4.019976759553202188e-16
-2.958341525755929993e-16
-2.156165736597061098e-16
-1.590842033033531144e-16
-1.195554925234488038e-16
-9.145974517733237690e-17
-7.114211225543697001e-17
-5.601355511329807468e-17
-4.433950603320564595e-17
-3.504160208229269603e-17
-2.745597081445806892e-17
-2.119186202938415250e-17
-1.602719985389257933e-17
-1.182776835741838062e-17
-8.494578247677436023e-18
-5.934795543198101824e-18
