# bin_13_2
-5.880808636422460528e-35
-6.457778516229097410e-35
-6.928782474623614660e-35
-7.218937839537395239e-35
-7.260133025675726104e-35
-6.960855337743781701e-35
-6.299559674672787722e-35
-5.390345793739623115e-35
-4.423154370599315568e-35
-3.655690035388815518e-35
-3.153348598280337102e-35
-2.633053576880363285e-35
-1.893089728116409875e-35
-1.386563837222292471e-35
-1.103468252677156396e-35
-7.447910399840333895e-36
-5.597456841505991748e-36
-3.977730094047424784e-36
-2.816894370270709229e-36
-2.023128016372798114e-36
-1.468138710446996167e-36
-1.083302979360439418e-36
-8.134025858454312471e-37
-6.219990417050675135e-37
-4.821751250542996422e-37
-3.768038670356760254e-37
-2.948664345742619568e-37
-2.294003093007031264e-37
-1.763076990568629307e-37
-1.331459815548502973e-37
-9.838778750036052112e-38
