# bin_4_18
-3.786706045614135393e-41
-4.233589888669194530e-41
-4.643921331245242937e-41
-4.974193733060822116e-41
-5.169663221631539970e-41
-5.183453664112961040e-41
-4.946508778974269501e-41
-4.455323625648420060e-41
-3.793156602132936198e-41
-3.107827062979328669e-41
-2.578264541647715368e-41
-2.230276475737238786e-41
-1.843922937047325468e-41
-1.306545295125030002e-41
-9.728156759059674682e-42
-7.599778864663044641e-42
-5.136113198971669021e-42
-3.776701832390355873e-42
-2.678782462013809682e-42
-1.867812922983170142e-42
-1.311692484691084865e-42
-9.292037711927687557e-43
-6.678415232519659058e-43
-4.880078661256830411e-43
-3.637269253324957134e-43
-2.758769991973684606e-43
-2.121996698333191376e-43
-1.645625351730898517e-43
-1.277400076625782370e-43
-9.854372602457735405e-44
-7.507611276106967125e-44
