# bin_3_4
-4.076210171939990560e-08
-4.242942578497041517e-08
-4.264607335903395668e-08
-4.089383648790022494e-08
-3.704190201499382348e-08
-3.173722501625623365e-08
-2.607354205323344522e-08
-2.153520925361487387e-08
-1.851580741229051091e-08
-1.546658190832132400e-08
-1.124621079422951322e-08
-8.235311569936483627e-09
-6.553666764479684097e-09
-4.522961152105364308e-09
-3.419132555541624493e-09
-2.468100546297402635e-09
-1.799043602945560934e-09
-1.334117833898692263e-09
-1.004935625222261049e-09
-7.708965930034732663e-10
-6.011748960225510493e-10
-4.749973783794628373e-10
-3.775963095933062307e-10
-2.998339088795030376e-10
-2.361563437823604037e-10
-1.832785329689543210e-10
-1.393803419791911777e-10
-1.034161135951101821e-10
-7.465790375784749854e-11
-5.241867628635734251e-11
-3.584712370392724165e-11
