# bin_14_17
-1.694440967060221994e-09
-1.910419411174523020e-09
-2.117046461888949847e-09
-2.296356416013586563e-09
-2.424852856739394934e-09
-2.475409446829284845e-09
-2.425602228665713197e-09
-2.246604173854614756e-09
-1.967458252539464341e-09
-1.633221313803863785e-09
-1.337124214601953958e-09
-1.137113934676482289e-09
-9.791524832413462726e-10
-7.476973970358705615e-10
-5.181245860479459355e-10
-4.198813846396311857e-10
-2.871047497683014222e-10
-2.148320527115231514e-10
-1.450792375446988699e-10
-1.017940078866650552e-10
-7.115038306511780586e-11
-4.971679995323798551e-11
-3.491488113700419187e-11
-2.477884640306421659e-11
-1.791724477072400416e-11
-1.321160617333267318e-11
-9.925528152433998499e-12
-7.577575553021332890e-12
-5.843574960342312647e-12
-4.519721474268547867e-12
-3.480127958143828666e-12
