# bin_16_2
-2.337018364013789006e-46
-2.594462646632526708e-46
-2.821415914861122418e-46
-2.989677603654817353e-46
-3.065361996939134047e-46
-3.022576970999483713e-46
-2.821549484839354825e-46
-2.489449111589670683e-46
-2.078566438195210067e-46
-1.699574151313125749e-46
-1.434861245056755913e-46
-1.240156778684039773e-46
-9.703625847316197707e-47
-6.714918565052116100e-47
-5.357653221183686223e-47
-3.822053326850278044e-47
-2.793686944148149493e-47
-1.922799752114055739e-47
-1.387585414993589702e-47
-9.838174131474904828e-48
-7.004991405357994664e-48
-5.054002593263720041e-48
-3.699663598586193826e-48
-2.760262137847372806e-48
-2.096886256289604712e-48
-1.615594045243243548e-48
-1.256050255260150470e-48
-9.784431275065377443e-49
-7.582670469577186610e-49
-5.808180569424795617e-49
-4.374438159251304967e-49
