# bin_3_9
-5.154902244992577013e-17
-5.565756284361781028e-17
-5.847179711131339236e-17
-5.937355352708179213e-17
-5.775913591645991715e-17
-5.308920272389024865e-17
-4.615153449230557308e-17
-3.815069350279524312e-17
-3.128778040474805507e-17
-2.670901393207727751e-17
-2.281045940857883979e-17
-1.714026483740094061e-17
-1.207653504390273354e-17
-9.805500030427978984e-18
-6.719166333089582415e-18
-5.108660155939671700e-18
-3.578949709302273259e-18
-2.578959274008664419e-18
-1.878833343609167737e-18
-1.382407271834553185e-18
-1.032806854681117764e-18
-7.847456699705203632e-19
-6.067416203564432868e-19
-4.748739668332457817e-19
-3.738461706493330353e-19
-2.940351734970137498e-19
-2.294125256858607068e-19
-1.764616659429970473e-19
-1.331100592274015909e-19
-9.806224446155934279e-20
-7.036486588086159280e-20
