# bin_16_8
-1.896891026380041438e-18
-2.119903014813947161e-18
-2.324231421571679102e-18
-2.488011512564880146e-18
-2.583756046761229283e-18
-2.588311784296198526e-18
-2.466845269903937953e-18
-2.219184628546037717e-18
-1.886986349873649610e-18
-1.545565845497776561e-18
-1.283385248014479975e-18
-1.110557567060095109e-18
-9.157276189157772476e-19
-6.471513357975129830e-19
-4.839856441576784949e-19
-3.763872762720857294e-19
-2.552230681418653590e-19
-1.868705286858964205e-19
-1.328851766022235754e-19
-9.273000089923398762e-20
-6.513014719686945629e-20
-4.618423621486481551e-20
-3.323078344961478682e-20
-2.431381656694978911e-20
-1.814408448296830830e-20
-1.377645090211482118e-20
-1.060503241773851725e-20
-8.227762752278536247e-21
-6.386950236845104500e-21
-4.925559064515239545e-21
-3.750255834432413281e-21
