# bin_1_17
-1.984720686611018711e-57
-2.208743622238720587e-57
-2.409169435064913612e-57
-2.562395963239698451e-57
-2.639319182446814937e-57
-2.618079098556929348e-57
-2.462393709478635341e-57
-2.187872640411421156e-57
-1.837923243644026197e-57
-1.502673970199086303e-57
-1.260818974758851577e-57
-1.091774399292806401e-57
-8.720655952826696133e-58
-6.049837701077300139e-58
-4.728968813962459362e-58
-3.486555922730502670e-58
-2.474434988929823105e-58
-1.731026909201145015e-58
-1.252467972967247857e-58
-8.823783122468802138e-59
-6.237225324931827077e-59
-4.473100679602568180e-59
-3.254751594754149881e-59
-2.411944417630364748e-59
-1.821284150636781760e-59
-1.396583049234792572e-59
-1.082537431197134162e-59
-8.424987367420985897e-60
-6.535855892486628942e-60
-5.020054888133928745e-60
-3.796385178480376989e-60
