# bin_11_15
-1.047765471693928402e-10
-1.173452024777537209e-10
-1.289925610599545520e-10
-1.385318948944150483e-10
-1.444634353401174975e-10
-1.454093915435019514e-10
-1.395341203806577472e-10
-1.263588439094157568e-10
-1.081820249978793359e-10
-8.878553447775105347e-11
-7.338166892137649257e-11
-6.334329944437125665e-11
-5.294501564940715588e-11
-3.799575953355380220e-11
-2.775363814068591017e-11
-2.207692792733386034e-11
-1.474302204710686179e-11
-1.102016078577227236e-11
-7.729009700960556044e-12
-5.371779563677079736e-12
-3.771621745861415303e-12
-2.661492704653357189e-12
-1.903500623291862821e-12
-1.382880058508275059e-12
-1.024932188183943472e-12
-7.735434646909951859e-13
-5.927346076138274374e-13
-4.586808313934971516e-13
-3.559010283292147231e-13
-2.748967316985436866e-13
-2.099771970719548920e-13
