# bin_9_2
-8.358490592225972536e-21
-8.991614114471163661e-21
-9.402716441042374086e-21
-9.498028835457214701e-21
-9.168967299226294153e-21
-8.358183437434234261e-21
-7.205903169537206613e-21
-5.931564006048436604e-21
-4.881143206756437009e-21
-4.189546078224346142e-21
-3.540335334361002983e-21
-2.602092538206577393e-21
-1.867380605200328573e-21
-1.508450373001612006e-21
-1.024328458719767510e-21
-7.803543828999451169e-22
-5.530187336872378075e-22
-3.972859352461619279e-22
-2.901318397336376264e-22
-2.143001960321105877e-22
-1.609471404921451961e-22
-1.229675568977886297e-22
-9.551964247199805597e-23
-7.500217499799121592e-23
-5.914046997216131516e-23
-4.650819497485554212e-23
-3.622165788971253373e-23
-2.777138608588954730e-23
-2.085559509263553287e-23
-1.528080967240128635e-23
-1.089942744784223269e-23
