# bin_20_14
-1.435593161659002637e-12
-1.624539578872888930e-12
-1.808247366896352861e-12
-1.972116310077490680e-12
-2.096630465318802910e-12
-2.157785799375940530e-12
-2.137819970172583899e-12
-2.006976588149305727e-12
-1.780001356773934770e-12
-1.492622969633588083e-12
-1.220432568347562646e-12
-1.026370755682912791e-12
-8.890344444112763129e-13
-7.055066323865926743e-13
-4.873168128497963898e-13
-3.835926691624845479e-13
-2.784871887629598468e-13
-1.982732716768666333e-13
-1.357010471746647469e-13
-9.700661750807277474e-14
-6.700438954926722890e-14
-4.612149646391491036e-14
-3.203811780151195570e-14
-2.244879179821023686e-14
-1.597663032145741675e-14
-1.159187133941487673e-14
-8.577500199324758938e-15
-6.468557555143797495e-15
-4.948904109205849449e-15
-3.816529303371630007e-15
-2.944492651686488141e-15
