# bin_10_9
-2.238566202922504960e-08
-2.471197949152710125e-08
-2.668802543944099927e-08
-2.803607590087023016e-08
-2.845949295550682033e-08
-2.766408170617354669e-08
-2.539695949331171307e-08
-2.205018929125179545e-08
-1.821047022674291458e-08
-1.494252705946432510e-08
-1.277991328140567941e-08
-1.090716611184880277e-08
-8.144703627891667628e-09
-5.732586384548904370e-09
-4.664600789611214571e-09
-3.148414710516485350e-09
-2.395758301432209756e-09
-1.659739811668473630e-09
-1.175359657242197516e-09
-8.426537273168658209e-10
-6.077808033478870646e-10
-4.438131725455124170e-10
-3.292895689649551082e-10
-2.491053001614097506e-10
-1.914747513852493617e-10
-1.488081741726898700e-10
-1.162235869927662246e-10
-9.055963314887070310e-11
-6.992315205983103326e-11
-5.318515032882709691e-11
-3.966839157798109114e-11
