# bin_6_14
-6.320671380759346034e-20
-7.009971182444913185e-20
-7.613859191369515105e-20
-8.055660126135598957e-20
-8.244565964294666025e-20
-8.109369328678091297e-20
-7.547111062615594048e-20
-6.639867287142501970e-20
-5.531365154989564368e-20
-4.524080468228168961e-20
-3.828968847971283342e-20
-3.305033379942969708e-20
-2.564042632159428330e-20
-1.775581452491563522e-20
-1.426062890781175130e-20
-1.004276328388215574e-20
-7.421494205193323059e-21
-5.092868249235419446e-21
-3.663072292256226077e-21
-2.604050380788088971e-21
-1.859927255107120713e-21
-1.344967757087367814e-21
-9.869250478770223046e-22
-7.382695102962190041e-22
-5.621296624721496746e-22
-4.338703065755660184e-22
-3.376644580040998683e-22
-2.630947654992737852e-22
-2.037838195409078188e-22
-1.559110119203791837e-22
-1.172254616593604485e-22
