# bin_3_20
-2.703836840966508697e-54
-3.035050630210489465e-54
-3.345537889528112614e-54
-3.605270713786382252e-54
-3.775984516912205770e-54
-3.819361652963476063e-54
-3.691624634800071113e-54
-3.367730087732748813e-54
-2.905134959333804747e-54
-2.391414521924069314e-54
-1.968193564506762799e-54
-1.692032501106621570e-54
-1.432147114711477163e-54
-1.048011192186819365e-54
-7.475655114143209310e-55
-6.051073006234569578e-55
-4.013734993844899333e-55
-3.040824521748018143e-55
-2.102389825390197952e-55
-1.457340080575783371e-55
-1.023478004646922966e-55
-7.198698108190547837e-56
-5.116377740032067282e-56
-3.687979114724221116e-56
-2.712119844431873937e-56
-2.032426222179319125e-56
-1.548477121400745115e-56
-1.194017020264072082e-56
-9.253917183045551857e-57
-7.156094492315302161e-57
-5.483397010650783578e-57
