# bin_17_12
-9.799966240396577835e-12
-1.102451893563557787e-11
-1.218445360295273500e-11
-1.317325242602148811e-11
-1.385363069988421553e-11
-1.407700412040675477e-11
-1.370017237055593857e-11
-1.259080229549129025e-11
-1.094257525287622825e-11
-9.041128416878116895e-12
-7.417643289347752423e-12
-6.345294394303980616e-12
-5.424114261451037679e-12
-4.052089591380824995e-12
-2.838916339047289491e-12
-2.312436074250871578e-12
-1.545095097398837010e-12
-1.171690696118317074e-12
-7.993625248338713786e-13
-5.552126706806215155e-13
-3.896597634129406142e-13
-2.735155849737397274e-13
-1.932522711927285498e-13
-1.382265335215816984e-13
-1.008309332212316236e-13
-7.498729297019711820e-14
-5.676401764351171074e-14
-4.357807802233703935e-14
-3.370753806488770704e-14
-2.607902020730150155e-14
-2.003652091020242078e-14
