# bin_14_8
5.409876051926541990e-19
6.019124327131757960e-19
6.563445099222315733e-19
6.978384025116704416e-19
7.184471155187859124e-19
7.122703273803132097e-19
6.693939052406757913e-19
5.943237860907905198e-19
4.988758953124701885e-19
4.078137145482472255e-19
3.423947108304687283e-19
2.965221262598351853e-19
2.363881403681779516e-19
1.637462061369004944e-19
1.284027566537235790e-19
9.434672670134274493e-20
6.717361978228833767e-20
4.681861762046143174e-20
3.394162005008774410e-20
2.393178526352888458e-20
1.692726832602270193e-20
1.215348897487285136e-20
8.853006396536250169e-21
6.568495910608339466e-21
4.965481419287238091e-21
3.811147932959365254e-21
2.956104975492592813e-21
2.301392961575344442e-21
1.785364434769132000e-21
1.370907111969266790e-21
1.036192656173432035e-21
