# bin_9_8
9.429922068090862556e-11
1.035320053384868343e-10
1.110578259076451821e-10
1.156749602028095967e-10
1.162970491607413145e-10
1.114456571461391691e-10
1.008007228645204826e-10
8.620051909406767008e-11
7.071155255783402098e-11
5.845696156267717280e-11
5.044604987897471860e-11
4.208975580044405521e-11
3.020622408820515374e-11
2.216366557461859348e-11
1.762540501770884322e-11
1.189415519090467735e-11
8.936806812370308684e-12
6.358830315182474889e-12
4.504074199544033866e-12
3.235378806388275892e-12
2.348706179505899385e-12
1.734241780810921290e-12
1.303154188603673154e-12
9.971858353763776940e-13
7.734391588870866307e-13
6.046342080101899818e-13
4.732241815840758205e-13
3.681376956735842464e-13
2.828672385163470403e-13
2.135337516096608006e-13
1.577053093632972521e-13
