# bin_16_5
2.687441686563785896e-40
2.992202677592537669e-40
3.265615804957332231e-40
3.475811232637371186e-40
3.583283453876096864e-40
3.558514282180939662e-40
3.351614877144520692e-40
2.981819823986691953e-40
2.507619395388092976e-40
2.050121567559765999e-40
1.718183995168936509e-40
1.488364490026519030e-40
1.193474506832723170e-40
8.281326836604511495e-41
6.449420136683560649e-41
4.784551573134415599e-41
3.376478985182643010e-41
2.369328757408217687e-41
1.716261164436130972e-41
1.207986760067435797e-41
8.528069525450186377e-42
6.111558786176010541e-42
4.443882260452304779e-42
3.290416037518864176e-42
2.482830612889490019e-42
1.902815021929783337e-42
1.474478135928818058e-42
1.147504920017449728e-42
8.904156323607459268e-43
6.842311026512516759e-43
5.177790925231191565e-43
