# bin_18_14
1.648521547170623478e-13
1.861131188768938525e-13
2.065719817445783564e-13
2.245077877511411062e-13
2.376487391020771201e-13
2.432932747239365370e-13
2.393554737216606875e-13
2.227536759463564533e-13
1.959625123114409800e-13
1.632011429893649723e-13
1.335003153362247980e-13
1.130914622321663109e-13
9.768586677744025451e-14
7.561266845543028176e-14
5.220208745526552255e-14
4.200378114034181830e-14
2.928251813799396491e-14
2.160588294694307585e-14
1.456187085650920287e-14
1.030986793321977445e-14
7.177698390496837372e-15
4.992796082814163570e-15
3.494320735668489622e-15
2.469321500518210011e-15
1.776414614335562540e-15
1.303202595267374229e-15
9.744982242615359497e-16
7.412957580234498472e-16
5.704389709567964194e-16
4.409779798052956072e-16
3.398944362830143978e-16
