# bin_8_3
5.405014312066965993e-19
5.800685612399778948e-19
6.047739173202107775e-19
6.088361281105721243e-19
5.847915940280502349e-19
5.302674408698864733e-19
4.546993300000405592e-19
3.733734264089364256e-19
3.080599295615260040e-19
2.652631870963871070e-19
2.223890752510990538e-19
1.611517573123396786e-19
1.173519307291970170e-19
9.409574422386293842e-20
6.384951196492637862e-20
4.847822554856071571e-20
3.466396817550372249e-20
2.490097778763170820e-20
1.820496942057896286e-20
1.347981636865626816e-20
1.016092219904756135e-20
7.792794765777784942e-21
6.072160588696547706e-21
4.777900824879231349e-21
3.771132579914302948e-21
2.965008273672899842e-21
2.306179347662022213e-21
1.764114946113048256e-21
1.320672388741613345e-21
9.639836534420345467e-22
6.847478694455396294e-22
