# bin_19_4
7.395506326725825590e-62
8.287082034252865241e-62
9.115596284546590836e-62
9.797655332993070989e-62
1.022773614065487472e-61
1.030680658686675800e-61
9.906962177334771358e-62
8.986043846576558977e-62
7.706258541712070174e-62
6.327702106593724294e-62
5.224046048533221186e-62
4.506490590075607829e-62
3.778926693490010309e-62
2.722096630438250700e-62
1.977090660886307322e-62
1.581352594137602688e-62
1.052217849465868417e-62
7.904999460907903459e-63
5.526346696546519274e-63
3.837658045873348962e-63
2.694977217638025103e-63
1.899935675675380338e-63
1.357230074574284582e-63
9.846191705839606959e-64
7.287571652940063463e-64
5.493458179713142191e-64
4.205483451801788342e-64
3.252694151060897788e-64
2.523666321434069570e-64
1.949955198521297346e-64
1.490485793293569458e-64
