# bin_20_1
6.870318966671706094e-97
7.706882159148659349e-97
8.488560332677200586e-97
9.138591933798192166e-97
9.559456983475810474e-97
9.655855865668671961e-97
9.313323381436282296e-97
8.477325273372430804e-97
7.296288371592111568e-97
5.999695360364874873e-97
4.943225439741471268e-97
4.255767073556922389e-97
3.590243561502925638e-97
2.610695125445192586e-97
1.874193806841638327e-97
1.512145417099402563e-97
1.002515535718390669e-97
7.582295936482270693e-98
5.264917078782077080e-98
3.650640115465437464e-98
2.564131128146076848e-98
1.804867296954212168e-98
1.285442696848955695e-98
9.290255077256932968e-99
6.850429401288068363e-99
5.146427122487773782e-99
3.929069354764405200e-99
3.033773839917713800e-99
2.352537920338270196e-99
1.818772917731051359e-99
1.392327085741668054e-99
