# bin_15_3
3.162607207342586183e-50
3.503031940615988222e-50
3.798838488270957163e-50
4.011411911653899331e-50
4.095935025208797828e-50
4.015827021868481467e-50
3.722770319694323698e-50
3.263148163900825154e-50
2.710547181295766342e-50
2.217970124526591425e-50
1.883261432371432884e-50
1.622385747809050358e-50
1.244609957852320562e-50
8.633341567236251655e-51
6.988694952775553887e-51
4.840105291122099516e-51
3.626916069367698579e-51
2.484068303024129290e-51
1.777363716607671667e-51
1.268276367166545148e-51
9.098404186344633849e-52
6.600514779510270602e-52
4.860224454158714779e-52
3.649190162202594492e-52
2.787488618622126493e-52
2.156744651890460968e-52
1.680893854372370020e-52
1.310072185478883685e-52
1.013980760356188287e-52
7.745094451198739664e-53
5.809620299144077494e-53
