# bin_15_7
1.294846332530289406e-25
1.441798246124192823e-25
1.573695382527059900e-25
1.675190655455325982e-25
1.727249621253526146e-25
1.715634988498398360e-25
1.616280941790031693e-25
1.438280626216862168e-25
1.209807036102896367e-25
9.891022683335250189e-26
8.287900473406909378e-26
7.179484820986785646e-26
5.760730596763902339e-26
3.998162170109604865e-26
3.111277757112360440e-26
2.310586921181263474e-26
1.628995190329115344e-26
1.144008731649259683e-26
8.285587664814696272e-27
5.830661991349991650e-27
4.115483292320759753e-27
2.948691231401768702e-27
2.143639004916714512e-27
1.586863181064513128e-27
1.197139782028527975e-27
9.173192798401050617e-28
7.107442667543173928e-28
5.531092021982185538e-28
4.291998600572357708e-28
3.298419735889038884e-28
2.496344344027651623e-28
