# bin_16_1
1.114214019322720157e-74
1.236005436253873692e-74
1.342855979045016021e-74
1.421262327988455284e-74
1.455143125858848588e-74
1.432081425149341147e-74
1.333626184171440376e-74
1.174008400145022733e-74
9.783520427624610859e-75
8.000392535525030910e-75
6.767852963336532329e-75
5.845219898340097491e-75
4.542305283209842575e-75
3.142474408949661591e-75
2.523238699530192668e-75
1.780401690152255027e-75
1.314418410709882244e-75
9.008535765081887846e-76
6.489365963427377081e-76
4.612365470111613986e-76
3.293877045982492117e-76
2.381851613041483429e-76
1.747645373421172798e-76
1.307222348251909384e-76
9.952978570837077917e-77
7.682070350043596863e-77
5.979034268319887439e-77
4.659193585359065971e-77
3.609452745720313479e-77
2.762079642584612977e-77
2.077205837039836486e-77
