# bin_4_3
1.687708743836884538e-10
1.757021635034611658e-10
1.766349789339632767e-10
1.694088376820289818e-10
1.534571830478765304e-10
1.314791640853054855e-10
1.079837640545490586e-10
8.915883332195758767e-11
7.669135999088840409e-11
6.411802439423834208e-11
4.657327814274444441e-11
3.407582808174175778e-11
2.718777158688561189e-11
1.870130730025063822e-11
1.417556327382271853e-11
1.023357446290291585e-11
7.454264632118058434e-12
5.528964712375946934e-12
4.165246075169649578e-12
3.195993239632892729e-12
2.493007635057846526e-12
1.970256279619057722e-12
1.566560330928194764e-12
1.244123116642477021e-12
9.799821364892669317e-13
7.605625718525195219e-13
5.783591299769841579e-13
4.290628688961860802e-13
3.096778458164060370e-13
2.173702308960293462e-13
1.486074875196131001e-13
