# bin_15_2
5.564856161427657799e-59
6.157245298010725914e-59
6.668373227819851872e-59
7.029946053167886920e-59
7.164473744009505728e-59
7.005253500483169762e-59
6.473330572771805624e-59
5.656699678130717190e-59
4.688959291050260083e-59
3.839403039034242635e-59
3.268242256160504516e-59
2.808780439139938332e-59
2.135501349905026002e-59
1.486092595153896091e-59
1.207745704871471006e-59
8.270017031553537772e-60
6.247219084135185980e-60
4.288476691171359206e-60
3.054147910823365399e-60
2.184414536126322456e-60
1.571025492494660211e-60
1.142246369123330675e-60
8.432028970517857787e-61
6.347390103845410110e-61
4.859150431106525997e-61
3.765643711895747221e-61
2.937243981437727350e-61
2.289286779983957031e-61
1.770594611515192399e-61
1.350610496452292311e-61
1.011217741999363296e-61
