# bin_11_10
8.223816561886008575e-11
9.122423535173705343e-11
9.910624913569539322e-11
1.048873994663478375e-10
1.073813656363593781e-10
1.056706207755722886e-10
9.839596059573750463e-11
8.661111007133293440e-11
7.217206522086230720e-11
5.901949103833457755e-11
4.993128790313239665e-11
4.312121279610340193e-11
3.350012800047223956e-11
2.317876035198860791e-11
1.861316172282090861e-11
1.312853023178499071e-11
9.695002364508631553e-12
6.645383676144786670e-12
4.786056383931394850e-12
3.402019999954824627e-12
2.429749684332941967e-12
1.757100612485055219e-12
1.289341669750000363e-12
9.644917786091492361e-13
7.343979710289067402e-13
5.668631468631565033e-13
4.412066868113176154e-13
3.438125845432069086e-13
2.663436017157752074e-13
2.038067695890026155e-13
1.532627865067839213e-13
