# bin_2_1
2.569228111027478040e-10
2.540251086384884047e-10
2.384174684516753055e-10
2.115844685399155994e-10
1.778650912385091467e-10
1.455986600459441141e-10
1.219975292976827673e-10
1.050348033664582901e-10
8.393887663154538643e-11
5.943826482995652396e-11
4.609610909380498656e-11
3.462914046418996096e-11
2.500920592872531360e-11
1.835528552008137413e-11
1.362036452217246899e-11
1.012993672269823068e-11
7.668265427849718579e-12
5.918984799729430587e-12
4.650093984890553249e-12
3.702740538766923175e-12
2.969226072549508149e-12
2.379429746613070558e-12
1.891581060008764752e-12
1.481743878003504639e-12
1.137036047508798074e-12
8.508636615653168718e-13
6.193435729484141727e-13
4.382750436741348989e-13
3.020193790104370225e-13
2.032441951307528076e-13
1.340267781541722211e-13
