# bin_12_1
2.015875211417162147e-51
2.199838738998595688e-51
2.341949530272168665e-51
2.415829352992430976e-51
2.401376388242392407e-51
2.265287303359599542e-51
2.018481347338647255e-51
1.700282508112123254e-51
1.390152162466385333e-51
1.162655678162299303e-51
1.006464398915932114e-51
8.113924284548342282e-52
5.661475149433102421e-52
4.381440341055908392e-52
3.293777660852834283e-52
2.322817092565063393e-52
1.662285005440703594e-52
1.213990684364636273e-52
8.686804686711484715e-53
6.268674231477704956e-53
4.603005511618727016e-53
3.438590111353127607e-53
2.615424075871900558e-53
2.021705588603602149e-53
1.579555258747387644e-53
1.239637939361663573e-53
9.703592222032442017e-54
7.524044007790405584e-54
5.745059712415923643e-54
4.299015588455858611e-54
3.140817072520100373e-54
