# bin_11_8
6.843681957876992669e-13
7.557931991117364442e-13
8.166348638388446357e-13
8.584189017523477588e-13
8.719860037430070307e-13
8.484913720393358438e-13
7.798085300332388735e-13
6.777912687798778689e-13
5.600567922003317551e-13
4.593332286370979733e-13
3.925733609736829760e-13
3.355435643819601309e-13
2.512911853927851185e-13
1.764036680619295257e-13
1.436838542520374999e-13
9.706651401297078517e-14
7.388577334375233536e-14
5.108865242726514974e-14
3.619271150549179333e-14
2.594886995601219842e-14
1.871439671611248118e-14
1.365833290777564011e-14
1.012716430411249232e-14
7.656456222130069263e-15
5.882281019372418964e-15
4.570064541491027500e-15
3.568957235931890086e-15
2.781141158674265462e-15
2.147975545810501590e-15
1.634489712746522891e-15
1.219752425387646157e-15
