# bin_17_10
2.079067343164016826e-20
2.333372204379833513e-20
2.571578394654636280e-20
2.770556812785422851e-20
2.900864070726975131e-20
2.933199619448893913e-20
2.833585407381486452e-20
2.583400371860726302e-20
2.227160345879708088e-20
1.832663154313017610e-20
1.508632438125806140e-20
1.297564941167533025e-20
1.097523962927368996e-20
8.016121155891262481e-21
5.725311072335180137e-21
4.635179228342718775e-21
3.070044399725497747e-21
2.327574097828897025e-21
1.611297697681172530e-21
1.116654278348517880e-21
7.843848876142614655e-22
5.518094005060018261e-22
3.924729959504902060e-22
2.831611266815817399e-22
2.084350107906910387e-22
1.563391333460517397e-22
1.192032073408165188e-22
9.196522805609903448e-23
7.129354060905309521e-23
5.513049516770552398e-23
4.223266200901117263e-23
