# bin_20_17
7.695410200846974862e-08
7.294265938691359975e-08
6.744222404011253688e-08
6.071612650002864839e-08
5.317620139616253098e-08
4.533831069934848295e-08
3.773841210993016182e-08
3.081399990420283734e-08
2.479340823869907601e-08
1.968262812634669234e-08
1.535432272777760675e-08
1.171409298914115316e-08
8.780632184161522393e-09
6.561619553612291731e-09
4.909495549159660062e-09
3.657137409494015573e-09
2.739589987766620829e-09
2.065278282484570059e-09
1.568910902293463497e-09
1.199900165625330731e-09
9.222994438816565874e-10
7.102312017927802918e-10
5.459301478143913757e-10
4.173169552543577214e-10
3.161101203704556542e-10
2.365489010615252599e-10
1.744406514077491333e-10
1.265358678039361479e-10
9.017536831412713084e-11
6.309748290519314157e-11
4.334967534604281891e-11
