# bin_15_3
3.015899557941399334e-08
2.624971178570902315e-08
2.223913917690306542e-08
1.840842119672069910e-08
1.497219269782082928e-08
1.202431675178301086e-08
9.534426829721479467e-09
7.416672043769870865e-09
5.638728233577727170e-09
4.239996649796590504e-09
3.206561158211886913e-09
2.425983564754211957e-09
1.838696247920574143e-09
1.410122279427100611e-09
1.090775034757444527e-09
8.520249433281283177e-10
6.700494899566403089e-10
5.284698192278453655e-10
4.161196980502988628e-10
3.256047008595520069e-10
2.521002821509989081e-10
1.924150819140410815e-10
1.443381670211333509e-10
1.061753895746090479e-10
7.647879219359363920e-11
5.391171893405691746e-11
3.720350073430833004e-11
2.516109361097461699e-11
1.670717550372389051e-11
1.091608762876337334e-11
7.034844463795707437e-12
