# bin_12_2
2.375007391578075286e-08
2.030303614141532836e-08
1.693291075072480278e-08
1.384897549164648094e-08
1.116873928873567137e-08
8.900113317180944993e-09
6.976582935385050775e-09
5.347811626858995021e-09
4.032464065323189974e-09
3.045557804392426762e-09
2.310679883516233538e-09
1.751555835000555508e-09
1.342201300245973093e-09
1.038163385206279762e-09
8.113171250860695490e-10
6.388919242611352350e-10
5.051806282027948378e-10
3.992651159560797657e-10
3.139095530912193571e-10
2.444204198492369544e-10
1.877343946484903400e-10
1.417813667040392694e-10
1.050259143167276422e-10
7.618378626382772173e-11
5.407349959493389794e-11
3.755989138834583237e-11
2.555732354508564690e-11
1.706460589370517168e-11
1.120498489536582016e-11
7.252505058987143005e-12
4.638164734177853240e-12
