# bin_18_5
4.145506655563452620e-08
3.707822701117528199e-08
3.224649796532920401e-08
2.729811275614831375e-08
2.257991522229557523e-08
1.835340246227288111e-08
1.473013606332700768e-08
1.167007436156539050e-08
9.067208272843167114e-09
6.882518668521563961e-09
5.165156319167406445e-09
3.897671096272155662e-09
2.939280235426785202e-09
2.218242249345328604e-09
1.693233184024062096e-09
1.302513829440257409e-09
1.011513205874024743e-09
7.909110681316496541e-10
6.204341001150135301e-10
4.862014057030108654e-10
3.789248478703907522e-10
2.924704181436551594e-10
2.227334616527710705e-10
1.668603620209798287e-10
1.226838219117350006e-10
8.839287930809083056e-11
6.236263408199306359e-11
4.308657990711892628e-11
2.917734601431782026e-11
1.939631846777989326e-11
1.268392753577603549e-11
