# bin_18_18
7.605774566502412879e-08
7.202645632913300745e-08
6.653060604872807379e-08
5.983655120325620402e-08
5.235620921734572892e-08
4.460152788787650148e-08
3.710015583459615551e-08
3.027770334640061168e-08
2.435165370053339822e-08
1.932201801805615338e-08
1.506298988916535247e-08
1.148549654811348746e-08
8.608851327091442336e-09
6.434755228943110780e-09
4.814710294049653005e-09
3.587881266698147174e-09
2.689104096864042299e-09
2.028334116159488009e-09
1.541701135165722897e-09
1.179697334508218780e-09
9.071196586452002708e-10
6.986992244834199560e-10
5.370931075245936216e-10
4.105101845558290426e-10
3.108646663768043874e-10
2.325244057438972690e-10
1.713800075497115530e-10
1.242376361192985028e-10
8.847674963143247431e-11
6.186459819806784031e-11
4.247216484608745894e-11
