# bin_19_10
6.104019022958433338e-08
5.662171758624873612e-08
5.114615076703442593e-08
4.493795373343501284e-08
3.841891785174496983e-08
3.204418187396753658e-08
2.620362453386728427e-08
2.111550819554134167e-08
1.680178414511692820e-08
1.314896484539403372e-08
1.006063100146760342e-08
7.554662029545516979e-09
5.661010346408183448e-09
4.256014825633025975e-09
3.184608608788534062e-09
2.400855256867236545e-09
1.822589515774029523e-09
1.395887804227965108e-09
1.076778874100009845e-09
8.349201122643057228e-10
6.484287899993449664e-10
5.023764298613579073e-10
3.867261192827620836e-10
2.946743241522706807e-10
2.215356712064476147e-10
1.639047801160995979e-10
1.191114836770652702e-10
8.491812594084617524e-11
5.936084033361677469e-11
4.069309232618774529e-11
2.737824348324299845e-11
