# bin_5_4
2.703926058982907170e-08
2.348810200149252603e-08
1.988273128338263845e-08
1.645487302331215657e-08
1.337858857198997182e-08
1.073020519850907480e-08
8.493094855731077837e-09
6.606800699320376198e-09
5.038246532683227185e-09
3.797415352064861257e-09
2.869572058045668883e-09
2.175683244174922451e-09
1.651723167813799088e-09
1.267204857698797460e-09
9.805965837159097278e-10
7.657237351880846484e-10
6.015539093007450420e-10
4.737261429583250688e-10
3.723188658523855013e-10
2.907366036577300850e-10
2.246446233019318827e-10
1.711392733452162582e-10
1.281778419148015070e-10
9.418046538630807538e-11
6.779541370336547472e-11
4.778466087095323713e-11
3.298640845838956961e-11
2.232423817128947291e-11
1.483644686303981054e-11
9.702850383285613957e-12
6.258553499789389462e-12
