# bin_19_8
5.449426811418913782e-08
5.000242100188211238e-08
4.464684876560640665e-08
3.876802003051371992e-08
3.277710012476960259e-08
2.708573372104176546e-08
2.199755212367523329e-08
1.763606734687847252e-08
1.395097049251768898e-08
1.082073273715435799e-08
8.201227474932440272e-09
6.143733474959560083e-09
4.622806671474333985e-09
3.473888029643090175e-09
2.609589759590252824e-09
1.981185667913076880e-09
1.514291319153963223e-09
1.167956869148420746e-09
9.068747489495869734e-10
7.066086532358598188e-10
5.503127548497546405e-10
4.265905673803864959e-10
3.278184549129447773e-10
2.488272088505268022e-10
1.860013912988941267e-10
1.366128574741977735e-10
9.843082278507101808e-11
6.951234146494262384e-11
4.810862157790383606e-11
3.264887872564311656e-11
2.175357240306756693e-11
