# bin_9_2
2.268285023168755939e-08
1.935557287590037335e-08
1.612004149687404120e-08
1.317028026502879207e-08
1.061144254119113311e-08
8.446462566993376194e-09
6.612473287408984521e-09
5.064539011194286163e-09
3.819483954131997680e-09
2.886187574963402624e-09
2.190513861107649793e-09
1.662020487612837119e-09
1.274872804153563603e-09
9.870515445894266022e-10
7.719799076083753502e-10
6.082084519449404001e-10
4.809654556990206228e-10
3.800137112292903216e-10
2.985768602426150089e-10
2.322579544442558588e-10
1.781793427552174699e-10
1.343830409051224321e-10
9.940237662385607873e-11
7.199988021336871098e-11
5.103226937911855756e-11
3.540151310414104027e-11
2.406093986408732545e-11
1.604962027699529230e-11
1.052988727830502126e-11
6.811032834400874062e-12
4.353562858576280393e-12
