# bin_20_10
6.168337410494863017e-08
5.726048861299257034e-08
5.176137691919183970e-08
4.551055256799079302e-08
3.893264423342741182e-08
3.248869127530112457e-08
2.657684008306336513e-08
2.142281249671145160e-08
1.705256083662422517e-08
1.335143661604065843e-08
1.021941939106880196e-08
7.674135297184550044e-09
5.749556946606040316e-09
4.322384444499310852e-09
3.233404067196378181e-09
2.436749570672355805e-09
1.849144986793027160e-09
1.415705673731509568e-09
1.091722276858939256e-09
8.463287568917120668e-10
6.572318911943379175e-10
5.092181586138620127e-10
3.920580211338698789e-10
2.988193735332829549e-10
2.247337856257607793e-10
1.663428367136458340e-10
1.209410662602610378e-10
8.626576259709559403e-11
6.033326749122220736e-11
4.137978487930080563e-11
2.785275485687760775e-11
