# bin_14_4
3.502979319025715268e-08
3.090178675746469793e-08
2.651659349799282600e-08
2.218383790788788010e-08
1.818305200656664754e-08
1.468380785013166742e-08
1.171722655618638641e-08
9.206558120318438480e-09
7.075371205753754718e-09
5.333564376879916508e-09
4.014051816636844981e-09
3.037640388460494610e-09
2.291774871937699762e-09
1.744335169472525935e-09
1.339588070929654237e-09
1.038949990230209919e-09
8.121919432046377167e-10
6.381711122158095095e-10
5.018852692037924754e-10
3.932623534745215180e-10
3.056736737081742252e-10
2.347405964883623835e-10
1.775043265135318549e-10
1.318183382906945579e-10
9.595565766315363521e-11
6.839504472093213178e-11
4.772397289090129146e-11
3.261845845191476141e-11
2.186717579616523201e-11
1.440681257162092636e-11
9.349179443670764574e-12
