# bin_15_9
5.500051358002477382e-08
5.058006626340043418e-08
4.528099297598200494e-08
3.943321529216565721e-08
3.343858189323521430e-08
2.770345405915455338e-08
2.254058817676139721e-08
1.809189680168442196e-08
1.433044957619547176e-08
1.114459187322660589e-08
8.475311702134752871e-09
6.355168190399404664e-09
4.774705542340639408e-09
3.591023413875438326e-09
2.694718728234638896e-09
2.042240480993996720e-09
1.557843317615140865e-09
1.199237133269624024e-09
9.293054574164855178e-10
7.229064457848432575e-10
5.623782992170553023e-10
4.357110219336498484e-10
3.348570137756870382e-10
2.543483889614234239e-10
1.903712148187961036e-10
1.400747500928565324e-10
1.011539624827852639e-10
7.162417328201491812e-11
4.971429816978205995e-11
3.384099114718438850e-11
2.261573668622331622e-11
