# bin_16_12
6.356243985914786228e-08
5.923667410523963992e-08
5.378513862060769226e-08
4.751835520835444789e-08
4.085207029435791523e-08
3.424668517420829785e-08
2.811624976716268528e-08
2.272053796820238025e-08
1.812273514446037508e-08
1.423466869811140275e-08
1.094879051411626268e-08
8.252212341726151469e-09
6.176477202410940414e-09
4.638137690512144037e-09
3.472408171324954663e-09
2.607028037983621730e-09
1.974238486211486834e-09
1.505687506442715019e-09
1.157264658391545096e-09
8.945431531463593715e-10
6.931407671030976528e-10
5.363371914155860540e-10
4.127976802750647122e-10
3.148371987036510301e-10
2.371609986989101344e-10
1.759743958830049107e-10
1.283576342638379168e-10
9.191085961700706703e-11
6.456260516533632368e-11
4.448855344976426955e-11
3.008975020214665730e-11
