# bin_17_16
7.198061902096954018e-08
6.783714835970939710e-08
6.233724850668830359e-08
5.576320213927862607e-08
4.853053020229198387e-08
4.113721125856958953e-08
3.407699608402963889e-08
2.772309552765819842e-08
2.224055200609813419e-08
1.759621375522424314e-08
1.366436182145446310e-08
1.037957750092497846e-08
7.770965218941763755e-09
5.816280935878041702e-09
4.353547630478625432e-09
3.249171333624890929e-09
2.443490251860577645e-09
1.848689793318878003e-09
1.410169097674408616e-09
1.082569239251007643e-09
8.345704154548079218e-10
6.439059799159504707e-10
4.953190594575410051e-10
3.784593561932643596e-10
2.862222199937086033e-10
2.136300910257365590e-10
1.569971033716750376e-10
1.134112363135568880e-10
8.044523916464284546e-11
5.600736622949454051e-11
3.827995837762850399e-11
