# bin_19_2
2.511687127908345395e-08
2.151645629658828076e-08
1.797395604795479534e-08
1.471818366169303803e-08
1.188247196068389211e-08
9.481106153712158868e-09
7.442900111275966923e-09
5.710600424633040593e-09
4.305228859601613603e-09
3.249664115095726256e-09
2.464577147723850525e-09
1.866224215266257500e-09
1.428429238605344044e-09
1.103622562560320440e-09
8.616964801563580913e-10
6.781883849936199085e-10
5.361931078151510822e-10
4.239204772253533175e-10
3.335462044277211947e-10
2.599969484838910452e-10
1.999715983462737926e-10
1.512564421603466652e-10
1.122280105779551763e-10
8.154213922900911188e-11
5.796842161287789150e-11
4.032413999977632022e-11
2.747375176702996773e-11
1.836450465462928662e-11
1.206958693369622724e-11
7.817901532118166760e-12
5.002656306632921312e-12
