# bin_13_8
5.012857451123263306e-08
4.573543121703922981e-08
4.060969675111961489e-08
3.508200405584525679e-08
2.953364331523346279e-08
2.432621781274917483e-08
1.970754818865652328e-08
1.576102646193598527e-08
1.242730739671217851e-08
9.605511836358689091e-09
7.268393412489943153e-09
5.450429847196600242e-09
4.104731037471414572e-09
3.087276673508103963e-09
2.326036084373251243e-09
1.770315830041443380e-09
1.357175914768501886e-09
1.049352514567997931e-09
8.162417192597584234e-10
6.365552316958689119e-10
4.957016498241430180e-10
3.838450729785017476e-10
2.943961410518678444e-10
2.228627122839211972e-10
1.660560318872866927e-10
1.215236603709606265e-10
8.722467336076001233e-11
6.136086048474928176e-11
4.230843992975586581e-11
2.861296850872814461e-11
1.900552875839668756e-11
