# bin_18_12
6.552020298762785520e-08
6.120497593324558829e-08
5.570722519656024168e-08
4.933457372118074324e-08
4.250765956183444560e-08
3.570093897919711593e-08
2.935162704885964694e-08
2.374473023963876153e-08
1.896106896400530745e-08
1.491559499778179868e-08
1.149082963540784868e-08
8.666794310570683052e-09
6.483678304222648218e-09
4.867292509592215121e-09
3.642458098633025377e-09
2.730946024787865333e-09
2.065699978460926168e-09
1.573185653600507601e-09
1.207654333079587751e-09
9.326016370016093812e-10
7.222131208866277804e-10
5.587512649304839573e-10
4.301730509815502110e-10
3.283178342339335405e-10
2.475746080773951300e-10
1.839464082645591556e-10
1.343809381633900307e-10
9.638748768835578818e-11
6.782736881447539548e-11
4.682125383089020656e-11
3.172161587344809076e-11
