# bin_20_18
2.016378218858444865e-06
2.291898785572519484e-06
2.565286029390545569e-06
2.816840522763103103e-06
3.020164524578899545e-06
3.141982275591811672e-06
3.153496394369706386e-06
3.012499988625465558e-06
2.715746633179653323e-06
2.313886691767294208e-06
1.896219863585740119e-06
1.572759222454969870e-06
1.361240144480977837e-06
1.127075984254841398e-06
7.978727037605322437e-07
5.924096328090427096e-07
4.626153762296082429e-07
3.097668383953929333e-07
2.263451231334327055e-07
1.582802721627613174e-07
1.080983763759073262e-07
7.386319369513328776e-08
5.052920735950145423e-08
3.484188477129221865e-08
2.427806588241655248e-08
1.722312447640417647e-08
1.245425663023619527e-08
9.197114502125165633e-09
6.923852411176597848e-09
5.288498893620527671e-09
4.070110864061311870e-09
