# bin_19_4
5.149316028483074806e-57
5.779113932674161704e-57
6.368950739358354872e-57
6.861529152167688256e-57
7.183904211556644122e-57
7.263776761459749068e-57
7.016361386237311735e-57
6.396485226014122146e-57
5.513960869984013096e-57
4.537184169216211201e-57
3.735161537593607361e-57
3.212626483227488267e-57
2.717038176119416559e-57
1.984160459472449049e-57
1.417553454006725001e-57
1.147325873629228426e-57
7.600866204430944089e-58
5.761359072345223724e-58
3.988973209021823415e-58
2.764687088373931282e-58
1.942028534832234592e-58
1.366244584738855120e-58
9.718769735139946052e-59
7.009616356300438284e-59
5.159790494517332909e-59
3.869448512143105741e-59
2.949425129473866851e-59
2.274705943327698000e-59
1.762679196907442857e-59
1.362401282823095541e-59
1.043096601253640296e-59
