# bin_16_5
1.694297239016103395e-35
1.889633898045533333e-35
2.066568075871457664e-35
2.205251107931902011e-35
2.280859507212562993e-35
2.274108470263754096e-35
2.153152028538088860e-35
1.925079694333752317e-35
1.626569148750353758e-35
1.330548161947769081e-35
1.110388772340995154e-35
9.619235816813060684e-36
7.816426245768564777e-36
5.458413247992191215e-36
4.176563671983206614e-36
3.167926129068596136e-36
2.191818989536269902e-36
1.567290723920576369e-36
1.128545632121137579e-36
7.911729596472507197e-37
5.567073312077256972e-37
3.970580365778920609e-37
2.873865973878157840e-37
2.116579070679158313e-37
1.589438175671377936e-37
1.213038745197700051e-37
9.371377461452082444e-38
7.282012884706280696e-38
5.649884090278682257e-38
4.346611099085541663e-38
3.296324414138780082e-38
