# bin_18_2
1.686421512550674610e-70
1.886094960295598413e-70
2.069750938155539937e-70
2.218065737076733188e-70
2.306699459249684634e-70
2.314593190502767316e-70
2.210991567954768294e-70
1.993360025930559513e-70
1.698691328823853033e-70
1.392021326554575413e-70
1.153934458647177372e-70
9.980277028472654330e-71
8.270001955466088192e-71
5.869866656735321840e-71
4.355843216341854646e-71
3.416053131709366698e-71
2.301614850035803634e-71
1.698940111021293074e-71
1.202872275730460962e-71
8.382869169410932554e-72
5.886690018278627271e-72
4.167097344914337909e-72
2.993041159230682343e-72
2.184801183880047803e-72
1.627100328174109072e-72
1.233005404504537579e-72
9.476410189150070074e-73
7.344604842225910079e-73
5.698737064086234549e-73
4.395038501542005782e-73
3.347859832843395961e-73
