# bin_14_3
2.097642954597714905e-40
2.319908999543198765e-40
2.511088763134446442e-40
2.645386481042806539e-40
2.693904921321176157e-40
2.630879454401131678e-40
2.427822331942453854e-40
2.118752896821567486e-40
1.754820516495008954e-40
1.437369963400193558e-40
1.224797875280745868e-40
1.051385869702166965e-40
7.963721332322550505e-41
5.551670436354347065e-41
4.517060787506645993e-41
3.080413057513156958e-41
2.333095368361672746e-41
1.603950999225872480e-41
1.140310231069660108e-41
8.161439382195119446e-42
5.873710018572122015e-42
4.274132611150227779e-42
3.156656547702734602e-42
2.377946838816076907e-42
1.821204735703185024e-42
1.411462158302113887e-42
1.100679639387505061e-42
8.573438308217352212e-43
6.624583124198858653e-43
5.046924515433444122e-43
3.773040459780953802e-43
