# bin_7_6
5.614261581774561707e-06
6.088517221910819530e-06
6.431644605273087116e-06
6.572189138897637799e-06
6.451719504611274897e-06
5.992019604358111068e-06
5.261887951553850692e-06
4.378012476248604376e-06
3.581194350418184142e-06
3.033250075357074879e-06
2.613624305287212593e-06
2.020772525051767222e-06
1.405538231193092185e-06
1.131370406105701125e-06
7.983636567480876778e-07
5.948879315161256173e-07
4.142011736710142696e-07
3.012747804085432858e-07
2.182042209569941990e-07
1.594529921726350449e-07
1.183367477266988194e-07
8.926137565095272595e-08
6.856047794248181743e-08
5.339186184198851329e-08
4.189984450762538404e-08
3.292026477131625959e-08
2.571088783244188966e-08
1.983122154158436802e-08
1.502333134777226083e-08
1.112909745055758795e-08
8.036175482856564002e-09
