# bin_16_1
6.705835433623692368e-70
7.452034993857098611e-70
8.113818960725454487e-70
8.610703079980943296e-70
8.844696749566079591e-70
8.742427892055267632e-70
8.185207742132919613e-70
7.241956609745999558e-70
6.060147841048915328e-70
4.953930157809332028e-70
4.172148309006641616e-70
3.610310630080985739e-70
2.848527424231819467e-70
1.970134213431502155e-70
1.561566854617168063e-70
1.128383181849992878e-70
8.158385721177030445e-71
5.634469129975096146e-71
4.080432471483783394e-71
2.886122135648722637e-71
2.048936417923890098e-71
1.475460656488271205e-71
1.077605249488290676e-71
8.020140342901087813e-72
6.079395189648392095e-72
4.675123076173063655e-72
3.629955291576066255e-72
2.825896441303551190e-72
2.189927003307191978e-72
1.678246759447302440e-72
1.265077299723810504e-72
