# bin_16_13
1.536466526857157947e-07
1.730614757416640003e-07
1.915542747575691790e-07
2.074770048327731875e-07
2.186898241498067020e-07
2.227874776949169786e-07
2.176427639103065195e-07
2.008678841453799426e-07
1.753078019985985512e-07
1.451911877012087175e-07
1.189575665169581038e-07
1.014457662384548546e-07
8.711539617877042292e-08
6.585618558010360353e-08
4.580394075082366795e-08
3.727565987824117762e-08
2.515807610774021896e-08
1.899206604837221540e-08
1.287012850047040772e-08
8.976948874827554098e-09
6.292810972719861966e-09
4.411246603203510654e-09
3.108149231141589014e-09
2.213659858965623240e-09
1.607840243276626536e-09
1.190665642519217020e-09
8.978244414179344320e-10
6.872943976425069937e-10
5.307562724087881651e-10
4.104983916800943411e-10
3.156465353913545153e-10
