# bin_19_8
6.110916821645926955e-30
6.878709764476378549e-30
7.607962488199002606e-30
8.232658166934858578e-30
8.667442940843324210e-30
8.818182812535023326e-30
8.597751555037108678e-30
7.917392720554094528e-30
6.894731029943587747e-30
5.702637032039885785e-30
4.675083988540350194e-30
3.993582116107479573e-30
3.422221368619655830e-30
2.570830304862477538e-30
1.793673351937274370e-30
1.461960915253098021e-30
9.800665507661781417e-31
7.426736755517271702e-31
5.049280603619613676e-31
3.511304391091577498e-31
2.464221822107345370e-31
1.729465480204668115e-31
1.220667626402058365e-31
8.713006139048217872e-32
6.344213868638503836e-32
4.709359046624841891e-32
3.558607850340446986e-32
2.728344236025146601e-32
2.108647938594708699e-32
1.630947976883819635e-32
1.253269651144276765e-32
