# bin_10_9
5.014623449086831952e-06
5.546617787614005513e-06
6.004567216736563492e-06
6.326837513286513293e-06
6.444230093849340121e-06
6.295350454597781598e-06
5.811568354573155594e-06
5.073502774482113266e-06
4.203109931169638004e-06
3.442547306293953831e-06
2.932545429060173035e-06
2.517917022367356264e-06
1.909225341545519491e-06
1.330581163160517168e-06
1.081972501169221579e-06
7.389933711067904475e-07
5.590696848090435274e-07
3.842922103318176183e-07
2.734028039129153319e-07
1.956171074451840942e-07
1.407370284030481546e-07
1.023887688008243056e-07
7.560185571810254953e-08
5.693787827192088026e-08
4.359842553639891754e-08
3.378459787517775604e-08
2.634393523867315206e-08
2.052013268611300937e-08
1.585700227333305037e-08
1.208242299310895628e-08
9.034534776963398898e-09
