# bin_17_12
1.606270365465509175e-10
1.809727098212656537e-10
2.003752895731840763e-10
2.171171127189913426e-10
2.289638675797826978e-10
2.333844508367382673e-10
2.281822335491414762e-10
2.107933787582944860e-10
1.841402267601259510e-10
1.525934048748495711e-10
1.249919434506918286e-10
1.065155587220311892e-10
9.154728564951748075e-11
6.938985193538049300e-11
4.820161038688462938e-11
3.919786539798165975e-11
2.653370973965189813e-11
1.999588599213021218e-11
1.353306165363776811e-11
9.451946163595845215e-12
6.622327296994049657e-12
4.639685485482660183e-12
3.266742499601284103e-12
2.324449587668368030e-12
1.686534274634208180e-12
1.247671174031743841e-12
9.399586761459739284e-13
7.190704460751397131e-13
5.550967290253085052e-13
4.293109602910448861e-13
3.302016188472887104e-13
