# bin_6_1
8.641503912150954478e-16
9.047650412476267247e-16
9.154803641634143623e-16
8.862228502237179072e-16
8.104767094366286820e-16
7.011208210734517379e-16
5.781201154226440567e-16
4.749380364691371196e-16
4.064758845705243540e-16
3.450321911639264573e-16
2.564787585542583709e-16
1.829027151573924217e-16
1.482350927410852997e-16
1.017439485937886853e-16
7.774858907702036679e-17
5.533624310752380490e-17
4.029299387651876387e-17
2.980543859947688915e-17
2.234124806240955403e-17
1.704147975144107791e-17
1.321427937606115014e-17
1.039757665746424253e-17
8.244526852868693059e-18
6.541099945017155070e-18
5.156353274484087637e-18
4.011310692071464034e-18
3.061694598990102491e-18
2.282057280924312420e-18
1.655736522519738097e-18
1.168147539893195263e-18
8.022233870453236263e-19
