# bin_17_11
9.162104469532933176e-13
1.031057109499857520e-12
1.140010544012258681e-12
1.233144698598507061e-12
1.297646852872555554e-12
1.319507198161042292e-12
1.285490184531026351e-12
1.182706145913122247e-12
1.029020753096079498e-12
8.506741493548410485e-13
6.975909766151629581e-13
5.962882519745385622e-13
5.104847423982019689e-13
3.825223476914367173e-13
2.672978574534296580e-13
2.179144863331546557e-13
1.457733481707915635e-13
1.105712533310280964e-13
7.528846498496703011e-14
5.231231234051174690e-14
3.672288300684448411e-14
2.578121156280909386e-14
1.820914240056025716e-14
1.300935168535583342e-14
9.481954456828153759e-15
7.045224794369439467e-15
5.328119740653263936e-15
4.087432063930367584e-15
3.159985111456652953e-15
2.444090657190745346e-15
1.877575304148712675e-15
