# bin_5_4
6.644582528047835362e-06
7.049534563883304728e-06
7.243963564336662543e-06
7.166556215955838789e-06
6.722508680704277136e-06
5.959867569126699069e-06
4.999203374202158907e-06
4.087337697937438972e-06
3.431318268807735979e-06
2.964464519746097423e-06
2.359128504719350409e-06
1.648625784888199932e-06
1.293046313629408498e-06
9.568791809332140691e-07
6.906031331750410918e-07
4.943663764054506194e-07
3.639705953592837257e-07
2.651776483772756621e-07
1.955432470413658486e-07
1.468764369320907165e-07
1.122791061156645689e-07
8.727020564027891734e-08
6.866310846137399462e-08
5.431006238123663995e-08
4.288839782726342735e-08
3.357871608461016204e-08
2.589757587530178004e-08
1.957040327968883522e-08
1.443054947236878666e-08
1.035469082176209931e-08
7.227546861163404301e-09
