# bin_1_1
3.682812690341860082e-05
3.572224489534876567e-05
3.279248091810463598e-05
2.848713851150267256e-05
2.359272757712219451e-05
1.938675141708235520e-05
1.649793725995227149e-05
1.399503379116081526e-05
1.059779917153211801e-05
7.591396655213466813e-06
6.046955401180451242e-06
4.309211837305387378e-06
3.236035089771925408e-06
2.347330839497898370e-06
1.746245257713252838e-06
1.313817422886172130e-06
1.005554346413339310e-06
7.842879941783278775e-07
6.212358039837774616e-07
4.974106404438571732e-07
3.995358190891701398e-07
3.194902291255568528e-07
2.525506063413180633e-07
1.960869831277979674e-07
1.487645191673160571e-07
1.098788479247162728e-07
7.890013567754112358e-08
5.511089903059339459e-08
3.753371018067684324e-08
2.500406325584390653e-08
1.634940324664465105e-08
