# bin_1_12
-4.867792992235993534e-49
-5.312166837621146840e-49
-5.655537339320551930e-49
-5.834211183117389639e-49
-5.799629461148148449e-49
-5.471354650129278905e-49
-4.875582990174761962e-49
-4.107258663327602502e-49
-3.358146791171624106e-49
-2.808468808623157143e-49
-2.431214649217750793e-49
-1.960323213536514435e-49
-1.367844581827093236e-49
-1.058314855490219442e-49
-7.957452432604837059e-50
-5.609441308302418376e-50
-4.014250806682281026e-50
-2.930761997156862766e-50
-2.096247500706497718e-50
-1.511961832033849460e-50
-1.109586392852225034e-50
-8.284068908774985210e-51
-6.297359690024188839e-51
-4.865484431527738690e-51
-3.800061235168708264e-51
-2.981713169821878689e-51
-2.333928110630738495e-51
-1.809896669845357062e-51
-1.382295190656736448e-51
-1.034735728815176874e-51
-7.563115501826305369e-52
