# bin_10_1
-1.139229465311537637e-37
-1.229297342775685003e-37
-1.290490577705801054e-37
-1.309258754078087348e-37
-1.272038613549022934e-37
-1.167398043391578889e-37
-1.013321214903525925e-37
-8.367574397801904309e-38
-6.864247964359949633e-38
-5.867208630468715242e-38
-5.005615037955655068e-38
-3.744141457147061993e-38
-2.641487973756564534e-38
-2.150179946211560747e-38
-1.464226386604220124e-38
-1.118276287355648306e-38
-7.839868658096815785e-39
-5.636667288620731383e-39
-4.110241307799811180e-39
-3.026957971092818853e-39
-2.263182026372092997e-39
-1.720973041413669379e-39
-1.331606407360766184e-39
-1.042773675517739773e-39
-8.211888281243456298e-40
-6.459171235510793456e-40
-5.038617776110793449e-40
-3.874056576818506645e-40
-2.920539962219013692e-40
-2.149892228690720054e-40
-1.541278536769794017e-40
