# bin_16_3
-6.179426170830793822e-53
-6.866061632776140903e-53
-7.474568710161728545e-53
-7.930715605100834031e-53
-8.144172046516137628e-53
-8.047561397303684881e-53
-7.531699821564637789e-53
-6.661149124739338301e-53
-5.572294633861957472e-53
-4.555114675304222792e-53
-3.837566825635087030e-53
-3.320573525343371351e-53
-2.616894225834308717e-53
-1.809462028581153082e-53
-1.435953509336261422e-53
-1.035557425021326363e-53
-7.499380843081815148e-54
-5.172246399569275810e-54
-3.744826304511168416e-54
-2.648966404155502571e-54
-1.880795445001223641e-54
-1.354352485217967466e-54
-9.893740679855725155e-55
-7.364896030811357480e-55
-5.583877909109623388e-55
-4.295784043379374536e-55
-3.336931588897882212e-55
-2.599077920776960645e-55
-2.015301846131583092e-55
-1.545399033577253186e-55
-1.165742825009847107e-55
