# bin_10_6
-1.094552132186577101e-12
-1.198720747827271579e-12
-1.281866933706033853e-12
-1.329853971854672889e-12
-1.330905405221383343e-12
-1.267119345644786220e-12
-1.138910206736084487e-12
-9.676676161496889751e-13
-7.923544528001820639e-13
-6.579903932099033964e-13
-5.690623983079117585e-13
-4.686407468311079684e-13
-3.316540411708177480e-13
-2.488136202143558551e-13
-1.937170733469648532e-13
-1.326484086270866413e-13
-9.781860712182937936e-14
-7.044789705075869220e-14
-5.006995113231372511e-14
-3.598187117218819056e-14
-2.622105892257331745e-14
-1.944583805339482979e-14
-1.468055501868356605e-14
-1.127818382934335128e-14
-8.773101684561145045e-15
-6.869634617234829852e-15
-5.377670075779787883e-15
-4.178719325526577583e-15
-3.203412531932542039e-15
-2.410340339698659052e-15
-1.772928894415086854e-15
