# bin_18_8
-8.391114789528706417e-29
-9.414044684980002570e-29
-1.037046855400955061e-28
-1.116673380208090043e-28
-1.168380522080633714e-28
-1.180482612720283618e-28
-1.139058105832879101e-28
-1.037228256247513388e-28
-8.930917936399463196e-29
-7.345038792512378915e-29
-6.050301819317976131e-29
-5.207769759288911627e-29
-4.396417096805379671e-29
-3.200206542061229390e-29
-2.294273452543839312e-29
-1.852953705162949545e-29
-1.227712285788252780e-29
-9.292115213182816938e-30
-6.445978166962081884e-30
-4.467375116774593035e-30
-3.136701272470164024e-30
-2.206442702704889343e-30
-1.570043859614768796e-30
-1.133529563729538232e-30
-8.349652263976877379e-31
-6.266711600724975475e-31
-4.780665490117099772e-31
-3.689494134426795790e-31
-2.860483891826346447e-31
-2.211720521281813128e-31
-1.693764132756860529e-31
