# bin_12_3
-5.300084412187174718e-33
-5.805829738076413114e-33
-6.210311664088475973e-33
-6.445149761506987033e-33
-6.453015847588595089e-33
-6.147318715651954003e-33
-5.528280749280704889e-33
-4.699588209176339463e-33
-3.848483930596424256e-33
-3.194435167917140746e-33
-2.762572497430410472e-33
-2.278024364912514696e-33
-1.613527732995831372e-33
-1.208212365855421893e-33
-9.427225993873600025e-34
-6.443444411767663960e-34
-4.761057819058444082e-34
-3.425587160636986828e-34
-2.433725935752287399e-34
-1.748609673446439120e-34
-1.273664152919021544e-34
-9.441564384102099396e-35
-7.124740034655907073e-35
-5.471500356754543231e-35
-4.255065076380599094e-35
-3.331401101626476786e-35
-2.607879475124540655e-35
-2.026705949191136501e-35
-1.554038127052781730e-35
-1.169679774534262639e-35
-8.606984362540670713e-36
