# bin_19_1
-4.652070770634530015e-89
-5.205958329123775018e-89
-5.717089590338893694e-89
-6.132423765829259388e-89
-6.385090056034402548e-89
-6.415570763047208274e-89
-6.140472334917375336e-89
-5.546301309326320861e-89
-4.735727336788035722e-89
-3.882931139550343481e-89
-3.214520636188476571e-89
-2.778392696487959703e-89
-2.311145545648789256e-89
-1.647464671108401329e-89
-1.214319226154764749e-89
-9.585187690883440422e-90
-6.428077744362456199e-90
-4.773100549856229638e-90
-3.365067799969140263e-90
-2.341567785664052578e-90
-1.643518816319168495e-90
-1.161214034556650720e-90
-8.321408202647952461e-91
-6.060157260671752549e-91
-4.502161673789799950e-91
-3.405069980346819271e-91
-2.613494698099919434e-91
-2.024389190374724974e-91
-1.571139588448534480e-91
-1.212968793929599546e-91
-9.255269636535442142e-92
