# bin_15_16
-1.921042522376802691e-08
-2.165764984087181329e-08
-2.399821085020292339e-08
-2.602827329380674255e-08
-2.748136298073591937e-08
-2.804988673432619050e-08
-2.747985407435067773e-08
-2.544480032138769912e-08
-2.227757188827087361e-08
-1.848820589309246051e-08
-1.513628514054354691e-08
-1.287579694600710447e-08
-1.108717436905362774e-08
-8.458555481004461057e-09
-5.860490981122105777e-09
-4.753975840605606879e-09
-3.244100248081811248e-09
-2.431763356303086612e-09
-1.641045578308597205e-09
-1.150273689931674361e-09
-8.042765682348474035e-10
-5.622279542579247135e-10
-3.948361934561588524e-10
-2.802043982751224866e-10
-2.026195849008342860e-10
-1.494124210405735445e-10
-1.122569111841055654e-10
-8.570822823290785432e-11
-6.610029371020307391e-11
-5.112869244795292359e-11
-3.937031728731527685e-11
