# bin_14_17
-7.167633286101941519e-10
-8.081830669266890383e-10
-8.956708532287833350e-10
-9.716334647231487621e-10
-1.026134616973979300e-09
-1.047668420969858882e-09
-1.026803636361103955e-09
-9.512326602235985954e-10
-8.332222901888495827e-10
-6.917228866723152788e-10
-5.662603413709534635e-10
-4.815005660260017199e-10
-4.147556564531027054e-10
-3.168703090382438726e-10
-2.194488090422508408e-10
-1.778909082418298708e-10
-1.216346737238202854e-10
-9.104872029267067528e-11
-6.142209713655362030e-11
-4.309472858795807194e-11
-3.011909847174520494e-11
-2.104472766139534310e-11
-1.477347422096907059e-11
-1.047934337947634967e-11
-7.573509080774542988e-12
-5.581631113117341040e-12
-4.191487938374413480e-12
-3.198966776339920921e-12
-2.466560474032554733e-12
-1.907788511526525389e-12
-1.469208335475880970e-12
