# bin_11_14
-3.859294103634646999e-10
-4.314857443906117974e-10
-4.733212878282748691e-10
-5.070027969796554277e-10
-5.269516081701878335e-10
-5.283893345382486611e-10
-5.042637907863978190e-10
-4.541999632997936256e-10
-3.866969633510709660e-10
-3.168093482919713635e-10
-2.628050383278693597e-10
-2.273668436655881971e-10
-1.880236936039464013e-10
-1.331837574787108656e-10
-9.915847119131936586e-11
-7.749486936832338523e-11
-5.233599935127338273e-11
-3.850031905226202670e-11
-2.730658726494345064e-11
-1.903533792005078691e-11
-1.336308147915039699e-11
-9.462713339425439059e-12
-6.798889762740796180e-12
-4.966469484158064762e-12
-3.700491323820097210e-12
-2.805970201221917141e-12
-2.157901455098364009e-12
-1.673319773794309591e-12
-1.298906442365413082e-12
-1.002118335820149884e-12
-7.635879324053120120e-13
