# bin_13_12
-2.013013382285025088e-08
-2.250195921318221046e-08
-2.467776470474375884e-08
-2.642594287854264823e-08
-2.745515988361620535e-08
-2.751795259081320647e-08
-2.624499756415008191e-08
-2.362506187699760569e-08
-2.010121503652432358e-08
-1.646550253290874067e-08
-1.366478953613474417e-08
-1.182458266429665733e-08
-9.765933815670701759e-09
-6.907989583523974736e-09
-5.154494607573478612e-09
-4.019505939236575592e-09
-2.718819975310873828e-09
-1.995908527046159802e-09
-1.417496422392958954e-09
-9.885233967028947460e-10
-6.939825157344327296e-10
-4.916683362114440012e-10
-3.534618244083953596e-10
-2.583679215679715126e-10
-1.926304425963205471e-10
-1.461465761344441933e-10
-1.124396178196551368e-10
-8.721021298592269334e-11
-6.769893056844187635e-11
-5.222264187375728632e-11
-3.978041053423478090e-11
