# bin_9_5
-5.536626630127096140e-13
-6.020587919479391453e-13
-6.381396133060706680e-13
-6.547010936979472492e-13
-6.462616436140810124e-13
-6.042465946388751675e-13
-5.339678629123045753e-13
-4.464728909373415287e-13
-3.649615517879141172e-13
-3.074520347499293876e-13
-2.657430042872198642e-13
-2.092657243643876641e-13
-1.452577416943485031e-13
-1.153337095932508725e-13
-8.353737608716738402e-14
-6.089432229327607881e-14
-4.262343416353643751e-14
-3.116818812196777809e-14
-2.245186624535184380e-14
-1.630988781622976242e-14
-1.204835924895426246e-14
-9.049980341917224196e-15
-6.922245784402861473e-15
-5.374490301331595075e-15
-4.211197994093291797e-15
-3.308700764603143173e-15
-2.588167337555638847e-15
-2.002216718539743346e-15
-1.523154020455236616e-15
-1.134228753826552364e-15
-8.238957421963414192e-16
