# bin_1_18
-1.462419141630493923e-83
-1.632203561486682104e-83
-1.786640399599884582e-83
-1.908694132224053585e-83
-1.977011256003797309e-83
-1.974555596421057864e-83
-1.873960621689799513e-83
-1.679096905277469187e-83
-1.421871047643579984e-83
-1.163529345230161848e-83
-9.692100545967695700e-84
-8.394697798562582861e-84
-6.858839682844599548e-84
-4.807368618758343612e-84
-3.648677094969449111e-84
-2.793241956708580904e-84
-1.917093831433409172e-84
-1.382614778808914520e-84
-9.914490931221581288e-85
-6.936943187464092144e-85
-4.875033408001071925e-85
-3.468441240874568296e-85
-2.504417056270658803e-85
-1.839787997281569449e-85
-1.378176910472745908e-85
-1.049856909621245608e-85
-8.101316792349779546e-86
-6.293162092146226403e-86
-4.885451972423096984e-86
-3.763661581786128164e-86
-2.860015936667952104e-86
