# bin_20_13
-2.099310175799385105e-16
-2.373645916572114164e-16
-2.639388766627779872e-16
-2.874997281446576124e-16
-3.051775550333674924e-16
-3.134755925554505836e-16
-3.098047221450666916e-16
-2.899297894776876985e-16
-2.563854103281001178e-16
-2.144318172111679312e-16
-1.753231192827519493e-16
-1.478297516065160457e-16
-1.279733347245077113e-16
-1.006567383537101167e-16
-6.942041436608604562e-17
-5.515710221820450964e-17
-3.945279233073169497e-17
-2.847408301927271542e-17
-1.931371473579815027e-17
-1.378837955850745113e-17
-9.547170147350322710e-18
-6.593276730561678036e-18
-4.591835908228651454e-18
-3.226293419635632694e-18
-2.304418519965380090e-18
-1.678250862939734689e-18
-1.246359157947679055e-18
-9.428322089288097259e-19
-7.229006505744938398e-19
-5.580739511732914544e-19
-4.305143250211593631e-19
