# bin_11_12
-2.064633963248248345e-08
-2.299675092792038546e-08
-2.511025454968415144e-08
-2.674268817130438972e-08
-2.759069464616954311e-08
-2.742583949030286937e-08
-2.586330385562767677e-08
-2.303644280209834295e-08
-1.939431814613514367e-08
-1.585779964269072633e-08
-1.327694102597312027e-08
-1.150175190792890140e-08
-9.252369568590409705e-09
-6.428634411100222136e-09
-4.985840999036328516e-09
-3.718275539830999650e-09
-2.611079274278777316e-09
-1.839886377787686991e-09
-1.330922366396626512e-09
-9.355885878827147941e-10
-6.596803219733202283e-10
-4.720247188186352538e-10
-3.426979798768778496e-10
-2.533201840921702672e-10
-1.908534988889129807e-10
-1.460849305441008636e-10
-1.131050782045906261e-10
-8.799287226432137875e-11
-6.828793358210848429e-11
-5.250459983579054661e-11
-3.976774576015154946e-11
