# bin_18_4
-1.500219233051323008e-54
-1.677233579607903178e-54
-1.839749986435302165e-54
-1.970528925053331885e-54
-2.047879464898120244e-54
-2.053256897733453946e-54
-1.959206483238769306e-54
-1.764414988399818454e-54
-1.501933329810962296e-54
-1.230408442212897234e-54
-1.020764952205774413e-54
-8.832049702837536205e-55
-7.301737185319982056e-55
-5.169701412632268342e-55
-3.851175209569954882e-55
-3.008335806712221375e-55
-2.032184741647323768e-55
-1.494318184185523769e-55
-1.060245991571463559e-55
-7.391558509514883222e-56
-5.188778839861894839e-56
-3.674628004956517699e-56
-2.640557469300614150e-56
-1.929197962374379528e-56
-1.437663843697906495e-56
-1.090290349934554764e-56
-8.385691518603297251e-57
-6.503016308912197966e-57
-5.048025010219931201e-57
-3.894486441640332478e-57
-2.967295154014133139e-57
