# bin_1_6
-4.304517555527040531e-18
-4.494558505173058796e-18
-4.533635137398798293e-18
-4.369078015591216485e-18
-3.976503477033583752e-18
-3.423408521733650564e-18
-2.816317492171639928e-18
-2.318726269987360019e-18
-1.990440440346131199e-18
-1.678248842565491303e-18
-1.231857925300187709e-18
-8.888965240066954932e-19
-7.167051952091187156e-19
-4.904770225507030009e-19
-3.744261037192740136e-19
-2.682018703323027490e-19
-1.950451861932453999e-19
-1.444510735370324333e-19
-1.085064895003281044e-19
-8.298426772146245917e-20
-6.453477399819245271e-20
-5.089152573311027327e-20
-4.041693233559288395e-20
-3.209465438449320979e-20
-2.530407835460327575e-20
-1.967514303161857491e-20
-1.500175426162826563e-20
-1.116557327463398806e-20
-8.087598562571270186e-21
-5.696738558813488939e-21
-3.906905720637074519e-21
