# bin_20_16
-9.231079090122470877e-11
-1.046376148595388898e-10
-1.167142065326471242e-10
-1.276179891454842064e-10
-1.361096823928231288e-10
-1.406416030670481776e-10
-1.400408614707382903e-10
-1.323219211393085168e-10
-1.180676863787279856e-10
-9.955468380160525123e-11
-8.142917516328226589e-11
-6.812023662572788321e-11
-5.904569770043472240e-11
-4.767810895806769859e-11
-3.310966633125453528e-11
-2.553337615362414665e-11
-1.908663966793128461e-11
-1.323156633367065039e-11
-9.255231107258605764e-12
-6.602185001613077020e-12
-4.537854245433098806e-12
-3.105579807551165474e-12
-2.144143695034684295e-12
-1.492884382224467937e-12
-1.053752879020139451e-12
-7.579390546039484060e-13
-5.560579104875208262e-13
-4.162240845289072954e-13
-3.167275600991775514e-13
-2.435760031349701650e-13
-1.879095103765863976e-13
