# bin_2_1
-5.583584341240719721e-08
-5.520911126800814691e-08
-5.182055745988340872e-08
-4.599147313231727316e-08
-3.866432412840221288e-08
-3.165066810209403592e-08
-2.651949849065510820e-08
-2.283314543073344905e-08
-1.824975621795872605e-08
-1.292230435979334704e-08
-1.002005556249936417e-08
-7.528040452504977652e-09
-5.435023163219070267e-09
-3.988299692243531819e-09
-2.958454019361820618e-09
-2.199268880066628954e-09
-1.663944655029293671e-09
-1.283665793159575412e-09
-1.007972375415550018e-09
-8.022990039081358849e-10
-6.431962031266403936e-10
-5.153789443441400599e-10
-4.097313370070380464e-10
-3.210193567365056521e-10
-2.464174792331431426e-10
-1.844754630912035293e-10
-1.343423890219292052e-10
-9.511081232848541401e-11
-6.556965931053806767e-11
-4.414141272262658232e-11
-2.911746448724226940e-11
