# bin_14_5
-2.025015831504424857e-29
-2.242105240374831344e-29
-2.430256975426314492e-29
-2.564699064397501477e-29
-2.616904666100153198e-29
-2.563163889416438815e-29
-2.373306866954210332e-29
-2.077942738676758982e-29
-1.724682484460712204e-29
-1.411585114079456322e-29
-1.199719042101387043e-29
-1.032696972100769015e-29
-7.895713570965314258e-30
-5.482357532427878348e-30
-4.445392469261615216e-30
-3.064544522393581501e-30
-2.303827809600309022e-30
-1.578404023422270900e-30
-1.127006956887153125e-30
-8.046897275144685157e-31
-5.776336735565643679e-31
-4.191985908139180846e-31
-3.088023121024335095e-31
-2.319679690796098220e-31
-1.772629150978148813e-31
-1.371923649219497262e-31
-1.069384197835832686e-31
-8.334503443695634868e-32
-6.449723712704274995e-32
-4.925052267675580737e-32
-3.692849340883772528e-32
