# bin_9_3
-3.858134346545795939e-20
-4.165086510178058570e-20
-4.374959163268047412e-20
-4.441483354929105007e-20
-4.319402975031356335e-20
-3.968304724700502139e-20
-3.448211281579615115e-20
-2.849044882394999098e-20
-2.336305937719441717e-20
-1.995461340363637105e-20
-1.704490021142177589e-20
-1.278637276042529413e-20
-9.002450660663558761e-21
-7.328569092253487931e-21
-5.000093762080190043e-21
-3.815387720038840001e-21
-2.670934671328882507e-21
-1.921603924517180048e-21
-1.400717204036107879e-21
-1.031056146112665882e-21
-7.703820599777785999e-22
-5.853989586937228668e-22
-4.526752754843460779e-22
-3.543332922876911531e-22
-2.789756626981318387e-22
-2.194314539965917068e-22
-1.712085242623309041e-22
-1.316899592771969008e-22
-9.933260015134011336e-23
-7.317192707713725580e-23
-5.249770894902273186e-23
