# bin_6_3
-3.010826673002404971e-11
-3.188925040161601313e-11
-3.270199855414186718e-11
-3.226608750111179099e-11
-3.016629859799110788e-11
-2.665984341793412383e-11
-2.230411508337569935e-11
-1.823761102594420694e-11
-1.535111471890087777e-11
-1.324857986820886293e-11
-1.045221023786899696e-11
-7.298515496356210546e-12
-5.769332715209720463e-12
-4.215599706558184921e-12
-3.073765119802794071e-12
-2.189377216900424470e-12
-1.611143422619585937e-12
-1.176538772024410862e-12
-8.695178563310421815e-13
-6.544864010698272729e-13
-5.013881084019564729e-13
-3.905092391399834924e-13
-3.077343928777930288e-13
-2.436968337901018731e-13
-1.925796578838911573e-13
-1.508085923768081498e-13
-1.162904621040489433e-13
-8.783456942826816221e-14
-6.471840126835596971e-14
-4.640122576816886610e-14
-3.236409880582633819e-14
