# bin_17_19
-6.495599714480291787e-09
-7.361905826347330992e-09
-8.210047194836979049e-09
-8.975014524210682136e-09
-9.569495285229777205e-09
-9.884541910715018126e-09
-9.838014470743862312e-09
-9.290330300416052207e-09
-8.285019925015272621e-09
-6.982248137310749742e-09
-5.710652732000429072e-09
-4.779579551610013190e-09
-4.142858613099690304e-09
-3.340312784132227480e-09
-2.317869575308030323e-09
-1.791091563995790647e-09
-1.335477228728775279e-09
-9.278703370196682395e-10
-6.474990168860347077e-10
-4.622318117510625815e-10
-3.178320943638907712e-10
-2.175849917814666622e-10
-1.503091872321600245e-10
-1.047130965331212360e-10
-7.396556786344331651e-11
-5.324300969539146416e-11
-3.909198203208562949e-11
-2.928186835753002764e-11
-2.229391648268295165e-11
-1.715004049664505982e-11
-1.323132260322883984e-11
