# bin_7_14
-5.092101643672631040e-20
-5.656283383376357335e-20
-6.155388702317958706e-20
-6.528146067085066570e-20
-6.700238635506642292e-20
-6.616042316345834839e-20
-6.186442243005739950e-20
-5.466849791637819081e-20
-4.569975808929572123e-20
-3.735864510764732010e-20
-3.149685454587826592e-20
-2.724686977642828492e-20
-2.141926744941469653e-20
-1.480815490903157525e-20
-1.177922924355869889e-20
-8.460856765963450255e-21
-6.149485232749712310e-21
-4.233818226696711177e-21
-3.063491386449630475e-21
-2.168710973597627496e-21
-1.541286934246661853e-21
-1.110644121317009314e-21
-8.119128765995961218e-22
-6.048664641532380314e-22
-4.589159826331811390e-22
-3.532471361284083385e-22
-2.744928499164060490e-22
-2.138185210281946958e-22
-1.657712996257177136e-22
-1.270769861858197953e-22
-9.581143612995676428e-23
