# bin_6_2
-4.647473520770719865e-14
-4.887920926055705202e-14
-4.971021897667494377e-14
-4.848674095217471134e-14
-4.470975000674876225e-14
-3.899543144874926263e-14
-3.230168807660566805e-14
-2.645954778311108222e-14
-2.251635774372805973e-14
-1.928704500494477363e-14
-1.465625252494114092e-14
-1.029709811815721103e-14
-8.342230942990274784e-15
-5.807930350007997892e-15
-4.402957993849136767e-15
-3.108043752762830337e-15
-2.270806101773085014e-15
-1.674325369262776528e-15
-1.249947369884213962e-15
-9.488696801378570253e-16
-7.326199321921420748e-16
-5.745223173140357961e-16
-4.547839819050231972e-16
-3.608433280194511549e-16
-2.849573155769409567e-16
-2.224327921138245207e-16
-1.705955605595062648e-16
-1.279163639550672814e-16
-9.343841149063947837e-17
-6.638013408185235435e-17
-4.588797278096530981e-17
