# bin_8_2
-3.664939865654046450e-21
-3.915855543905966130e-21
-4.059604576149136801e-21
-4.060412705665019955e-21
-3.864090117118396482e-21
-3.472316471950022152e-21
-2.950037740084513908e-21
-2.415667508294755129e-21
-2.005505031687420387e-21
-1.732799894968712540e-21
-1.426909788152202669e-21
-1.013248482499202616e-21
-7.606713954448449024e-22
-5.937032255939844725e-22
-4.097343043771245416e-22
-3.043660584790253568e-22
-2.211196961863383739e-22
-1.594769001013009668e-22
-1.167131394346128318e-22
-8.682242572194234908e-23
-6.580153978134452921e-23
-5.073825649861465352e-23
-3.969770379860380911e-23
-3.131497280730846058e-23
-2.473616708336516414e-23
-1.942959426593201515e-23
-1.507345217361532662e-23
-1.148465851608224163e-23
-8.553839993133597290e-24
-6.206563671176568666e-24
-4.381342171025402101e-24
