# bin_13_2
-1.076226892876148248e-45
-1.181788536912242810e-45
-1.267944629030280878e-45
-1.320992508442821636e-45
-1.328482066536389634e-45
-1.273577285432455583e-45
-1.152367470055217033e-45
-9.858411565443298617e-46
-8.087795256366668097e-46
-6.684316757592927280e-46
-5.767775052159453293e-46
-4.816270019460132901e-46
-3.458937650045785639e-46
-2.534482092317856132e-46
-2.018229232951312997e-46
-1.360277003687193756e-46
-1.023213379437557790e-46
-7.273167877650342923e-47
-5.148577133489103984e-47
-3.696610571219439989e-47
-2.681420252909978914e-47
-1.978241030010724564e-47
-1.485223611935664060e-47
-1.135648804057893802e-47
-8.803196346589699626e-48
-6.879383330173134554e-48
-5.383597614378276631e-48
-4.188560982055939031e-48
-3.219392092868186331e-48
-2.431470572805128343e-48
-1.796902411979551624e-48
