# bin_6_9
-9.306080316098434426e-11
-1.015504267458264829e-10
-1.081072664410188017e-10
-1.115156598476324994e-10
-1.108417497443253913e-10
-1.045586160947957136e-10
-9.316688714384854963e-11
-7.848684948632074523e-11
-6.417778808373220506e-11
-5.367619112603641849e-11
-4.645743557799340899e-11
-3.744430933612866908e-11
-2.614688419169848904e-11
-2.022482029626263928e-11
-1.519994958991772800e-11
-1.072157088587186665e-11
-7.677514719294727278e-12
-5.598065913901265626e-12
-4.004300193381067877e-12
-2.889225580013943236e-12
-2.120157613607315303e-12
-1.582795980631734780e-12
-1.203145074471125397e-12
-9.295238322268646109e-13
-7.259347308833983614e-13
-5.695652927820084226e-13
-4.457959656554067860e-13
-3.456812851143624270e-13
-2.639971815061972071e-13
-1.976095866084884923e-13
-1.444331397711317732e-13
