# bin_3_3
-1.043428956988734245e-07
-1.075032946492209103e-07
-1.067365434543735478e-07
-1.006438672383750875e-07
-8.968142113073859509e-08
-7.561267167694702532e-08
-6.186658809123570056e-08
-5.169049520050607637e-08
-4.461590654849106683e-08
-3.600365558523015289e-08
-2.541443923336588131e-08
-1.956962473765020788e-08
-1.484626232206031662e-08
-1.057092047310569010e-08
-7.741805673807208487e-09
-5.707710290502811848e-09
-4.190583034977814803e-09
-3.125777897420943998e-09
-2.376084156947848556e-09
-1.839590820909449087e-09
-1.446495661615434127e-09
-1.149228985468130768e-09
-9.158326699901054035e-10
-7.267687702439825719e-10
-5.703523031119469454e-10
-4.398758218488665694e-10
-3.316781129940898219e-10
-2.436300809206082432e-10
-1.740008944397733959e-10
-1.209089837681523709e-10
-8.192373335732681513e-11
