# bin_17_10
-5.863179377737541846e-18
-6.580485156794404287e-18
-7.252451880572333093e-18
-7.813866145880120728e-18
-8.181702291740478827e-18
-8.273276017939718386e-18
-7.992841717398127898e-18
-7.287643164236488092e-18
-6.283161094282631991e-18
-5.170406945711626628e-18
-4.256114610935717096e-18
-3.660527287130622082e-18
-3.096524897854231456e-18
-2.262039761325673155e-18
-1.615240396860233373e-18
-1.307806388112913441e-18
-8.661013337745797233e-19
-6.566209901502827273e-19
-4.544059062814303301e-19
-3.148153747028717728e-19
-2.210615853932748420e-19
-1.554421705599947773e-19
-1.104926231880161824e-19
-7.966471399269473066e-20
-5.860143130079994320e-20
-4.392710193752026148e-20
-3.347585208894723011e-20
-2.581788419407922032e-20
-2.001175003884540045e-20
-1.547557264856501114e-20
-1.185754056985558613e-20
