# bin_11_13
-4.390869197621890387e-09
-4.900177327106230042e-09
-5.363201959026158913e-09
-5.728756610362348504e-09
-5.932698583708526425e-09
-5.924033927450176260e-09
-5.620544499978550274e-09
-5.034680624535781714e-09
-4.262200130176405349e-09
-3.487622282046301135e-09
-2.905840358017606570e-09
-2.516938130923471818e-09
-2.055029988751254897e-09
-1.439667344354789728e-09
-1.093794740302521276e-09
-8.363693835174800962e-10
-5.745896478986811092e-10
-4.139450662806336739e-10
-2.969838590206966047e-10
-2.078364215800259457e-10
-1.460754075096590555e-10
-1.039556286582404676e-10
-7.508201762703024841e-11
-5.517313716948672580e-11
-4.134163015468576683e-11
-3.150045800099880172e-11
-2.431180975788210454e-11
-1.888718595810167642e-11
-1.466226922578023634e-11
-1.129457815470979866e-11
-8.581487828706437570e-12
