# bin_11_5
-1.846326766315729291e-18
-2.023776376504381769e-18
-2.166460943106354038e-18
-2.250640062505536642e-18
-2.255996233390759432e-18
-2.152631040066135496e-18
-1.938878950148176980e-18
-1.650882003311782081e-18
-1.352451585937809360e-18
-1.121295368623120288e-18
-9.692676504262000501e-19
-8.019699442836751066e-19
-5.699036474123219870e-19
-4.243629371670739471e-19
-3.329726035625400970e-19
-2.266407867400002278e-19
-1.683108681116964889e-19
-1.207274669692848945e-19
-8.568549172846888277e-20
-6.154730211550876766e-20
-4.477827130470630818e-20
-3.315313979044652181e-20
-2.498572078069877784e-20
-1.916720135415294757e-20
-1.489406473703956271e-20
-1.165577152952183490e-20
-9.123887374307818410e-21
-7.092822883637182751e-21
-5.442069990929808759e-21
-4.099749739660745224e-21
-3.020125440482824471e-21
