# bin_10_16
-1.343943320185693811e-15
-1.505770397326432791e-15
-1.656051062991520461e-15
-1.779614407551419270e-15
-1.857271558292379244e-15
-1.871103234076959952e-15
-1.797773101970184309e-15
-1.629983864969353352e-15
-1.397247306506661681e-15
-1.147122001512641009e-15
-9.472948755738363217e-16
-8.173623926496566722e-16
-6.848842613540448566e-16
-4.928046536458534898e-16
-3.584350036123310762e-16
-2.863387244458381981e-16
-1.906236725093974373e-16
-1.430501162335671459e-16
-1.000654625014907578e-16
-6.948070277891790148e-17
-4.877150861750819289e-17
-3.437373511854598371e-17
-2.454919622902710614e-17
-1.780561241273755433e-17
-1.317567479282851687e-17
-9.929884309187768617e-18
-7.600494562749789049e-18
-5.877816688875934304e-18
-4.560093961125674868e-18
-3.523346647365261424e-18
-2.693179743971512552e-18
