# bin_2_8
-3.602404214890485925e-21
-3.849029308490139647e-21
-3.990313063116947773e-21
-3.991091862954847446e-21
-3.798102445734879443e-21
-3.412999589057077788e-21
-2.899625729031259411e-21
-2.374375271058421517e-21
-1.971214103660451991e-21
-1.703156747610868092e-21
-1.402492045084941190e-21
-9.959415357005232425e-22
-7.477055989925573356e-22
-5.836020543567160832e-22
-4.028153337093509028e-22
-2.992596531200282617e-22
-2.174461168857814843e-22
-1.568651751760373107e-22
-1.148347577388162590e-22
-8.545261574189761970e-23
-6.478474697764683658e-23
-4.996961037682135959e-23
-3.910615834732226653e-23
-3.085382704675797372e-23
-2.437419343512536512e-23
-1.914547423008619959e-23
-1.485203395489467024e-23
-1.131438767822198197e-23
-8.425333286866620966e-24
-6.111814646824982874e-24
-4.313319065932598362e-24
