# bin_6_1
-4.231063905211465497e-18
-4.417849738329508259e-18
-4.456243503665268642e-18
-4.294475934701138696e-18
-3.908583446373806231e-18
-3.364915922217628335e-18
-2.768183329017379359e-18
-2.279085208631395679e-18
-1.956394153233578918e-18
-1.649524213774339610e-18
-1.210791944222023335e-18
-8.737250058967450368e-19
-7.044703829952465471e-19
-4.821512377372641541e-19
-3.680848045231719833e-19
-2.636933193173888397e-19
-1.917968980418156438e-19
-1.420712757088037110e-19
-1.067414442930133578e-19
-8.165226109693566318e-20
-6.351183339827426509e-20
-5.009293501113513652e-20
-3.978696997664276829e-20
-3.159586834110060511e-20
-2.491042330043795184e-20
-1.936759469466488592e-20
-1.476532386757400105e-20
-1.098765029959680986e-20
-7.957078654233351941e-21
-5.603607779885935451e-21
-3.842275775507148987e-21
