# bin_16_4
-6.611308550640412479e-45
-7.353211071000010402e-45
-8.014631827756355176e-45
-8.516621464075606801e-45
-8.762139113647014493e-45
-8.679216002818196677e-45
-8.147669845213602238e-45
-7.226426718303754188e-45
-6.060205897637314015e-45
-4.953870894477385721e-45
-4.163037484921463951e-45
-3.604684789268434728e-45
-2.864942183683621740e-45
-1.983145181877858810e-45
-1.560343022059527723e-45
-1.140758196463852417e-45
-8.158704958452575073e-46
-5.667654039196583032e-46
-4.108489579811315614e-46
-2.898804586467954736e-46
-2.051870582850628697e-46
-1.474038069277845303e-46
-1.074263482142835390e-46
-7.975292465057968887e-47
-6.032106635492120428e-47
-4.631683651440869529e-47
-3.593405380433452838e-47
-2.797639569757412751e-47
-2.169996568572740568e-47
-1.665703554249728616e-47
-1.258433472471281868e-47
