# bin_19_3
-2.366977755995296552e-68
-2.650907643747178858e-68
-2.914020166809288330e-68
-3.129504992979644287e-68
-3.263492920752595433e-68
-3.284853645329739412e-68
-3.152007017347316634e-68
-2.854117574845311875e-68
-2.443311062491327351e-68
-2.004977816474565662e-68
-1.657061988218877258e-68
-1.430680105041707081e-68
-1.195904808423032863e-68
-8.576868202469430138e-69
-6.266491605049535468e-69
-4.986792676166523967e-69
-3.327399248114201676e-69
-2.488914732739559197e-69
-1.745809901269623281e-69
-1.213270868735587132e-69
-8.518021035457752636e-70
-6.009821243089786725e-70
-4.298507114380784419e-70
-3.123240926327520293e-70
-2.315137003108863752e-70
-1.747543136750916191e-70
-1.339255180635046452e-70
-1.036490311180439829e-70
-8.043093777597987817e-71
-6.212802023337677953e-71
-4.745674096620016659e-71
