# bin_17_7
-3.158376068901514963e-30
-3.532715086101766755e-30
-3.877270921329590969e-30
-4.155890168728876299e-30
-4.323042698047040381e-30
-4.339008942629744160e-30
-4.146532572633375369e-30
-3.739667319276392919e-30
-3.188124093706338461e-30
-2.612780782255501163e-30
-2.165266362004847661e-30
-1.872602308765466125e-30
-1.552945190381659239e-30
-1.103051629075042360e-30
-8.174416352607377349e-31
-6.419516137928067430e-31
-4.320215635927355967e-31
-3.193055408192538513e-31
-2.258686581485978164e-31
-1.573445548430086771e-31
-1.104672927277737442e-31
-7.816050003910908685e-32
-5.610794832559040108e-32
-4.094327265650614088e-32
-3.047648229316564705e-32
-2.308968630738170526e-32
-1.774563100672482854e-32
-1.375626041576442605e-32
-1.067829878457761438e-32
-8.240954058565702621e-33
-6.282870940828924758e-33
