# bin_3_2
-4.410550666606476111e-08
-4.493551100128508709e-08
-4.395399581776273059e-08
-4.069123929269806850e-08
-3.563165418213533729e-08
-2.961819540442351741e-08
-2.425447112884049210e-08
-2.055297047710072996e-08
-1.762230004416688884e-08
-1.357763582523160827e-08
-9.559973105142969587e-09
-7.655715715289119628e-09
-5.466646085784541283e-09
-4.086487700480800499e-09
-2.923526107214442379e-09
-2.162580134825050962e-09
-1.607080706573161386e-09
-1.212058216903330657e-09
-9.314109163119951342e-10
-7.279622426934448180e-10
-5.768514776555635606e-10
-4.603691166016114218e-10
-3.672879985062416953e-10
-2.908298708384279503e-10
-2.270289653755433913e-10
-1.737029131356508220e-10
-1.296626474426485967e-10
-9.417092845022983423e-11
-6.649462411893900936e-11
-4.571884312528159854e-11
-3.069552732007341268e-11
