# bin_10_12
-3.987753367158801196e-09
-4.433477746646548568e-09
-4.829902361099080057e-09
-5.129292341651717409e-09
-5.273210568713409156e-09
-5.218229080078971468e-09
-4.892663875598637570e-09
-4.334511413378112183e-09
-3.631387940802406692e-09
-2.968461630800324877e-09
-2.497082148804023483e-09
-2.161576316158767664e-09
-1.712210623339445071e-09
-1.184679343754026700e-09
-9.353098576470968928e-10
-6.801030533239227200e-10
-4.888255697416898691e-10
-3.386028112264704710e-10
-2.453515467205877781e-10
-1.732907561756421099e-10
-1.228122984359101552e-10
-8.831346505231561306e-11
-6.442472406775751320e-11
-4.788155490283016906e-11
-3.625086007747256940e-11
-2.785655769913022088e-11
-2.162263328084864615e-11
-1.683686253145512126e-11
-1.305739253913220083e-11
-1.001847755872639331e-11
-7.563877676731842510e-12
