# bin_16_12
-2.347378967326380454e-11
-2.636837435692489309e-11
-2.909148649444187142e-11
-3.138413465357097722e-11
-3.291524672069062453e-11
-3.334434508911274792e-11
-3.230303287545818816e-11
-2.953865480357232276e-11
-2.554257862185749684e-11
-2.104795416329119399e-11
-1.730170267674054554e-11
-1.485244166147431161e-11
-1.261783901525682346e-11
-9.293198040427233155e-12
-6.581865910337634129e-12
-5.351090826840347660e-12
-3.546925247312214124e-12
-2.694988093605066810e-12
-1.855099991371532458e-12
-1.285139535198411800e-12
-9.026680233460845767e-13
-6.344697510880156192e-13
-4.500689162465957864e-13
-3.236042531392215954e-13
-2.373713482198552687e-13
-1.774636314256897331e-13
-1.349439554566335407e-13
-1.039229634485401042e-13
-8.050434142349131089e-14
-6.227299494603747723e-14
-4.776321125611649052e-14
