# bin_2_12
-2.264198990308397371e-40
-2.475372733312792679e-40
-2.641334384294678672e-40
-2.732603087633135172e-40
-2.725855354994403259e-40
-2.583522872064149746e-40
-2.312210837932087814e-40
-1.956069784953242240e-40
-1.600225009643179691e-40
-1.333372801652109031e-40
-1.154103714059672167e-40
-9.410260196771458412e-41
-6.606409708459811612e-41
-5.033673092501914061e-41
-3.855010082354397934e-41
-2.674858767855332899e-41
-1.943724140190046747e-41
-1.411023200423888314e-41
-1.006016970279239705e-41
-7.240316244142645712e-42
-5.295366589762028702e-42
-3.941204432948050038e-42
-2.986435483111048677e-42
-2.301393330008223209e-42
-1.794205686604432447e-42
-1.406602076452297939e-42
-1.101174793052404286e-42
-8.548283925293398649e-43
-6.540736000123851459e-43
-4.908408300962677153e-43
-3.598540289095894937e-43
