# bin_4_20
-2.817096502841381511e-64
-3.163597681581945011e-64
-3.489135449830801586e-64
-3.762544644671690539e-64
-3.944041658814080945e-64
-3.993134605194668973e-64
-3.865009383701202077e-64
-3.530926535831718943e-64
-3.050332903991943972e-64
-2.512409488453974415e-64
-2.066112228437562497e-64
-1.774745850561960034e-64
-1.505743203569089648e-64
-1.106036761920706441e-64
-7.852916902520712524e-65
-6.378025963622855519e-65
-4.224821001750145325e-65
-3.208893581125051972e-65
-2.212755660408656829e-65
-1.532816710665370941e-65
-1.076633291609613236e-65
-7.568771139893437875e-66
-5.373073035069754880e-66
-3.867159256289504901e-66
-2.839589398330663980e-66
-2.124992345366006021e-66
-1.617167771345290698e-66
-1.246095646530301175e-66
-9.655230228866980761e-67
-7.468112680814197144e-67
-5.726024969850246752e-67
