# bin_16_14
-5.324008159307375384e-09
-5.995075904013453322e-09
-6.633530336762448386e-09
-7.182102524982803972e-09
-7.566544546534212923e-09
-7.703873579952528534e-09
-7.520045991905599576e-09
-6.933925154808017467e-09
-6.046027979770096061e-09
-5.004464618689299448e-09
-4.101232094314780370e-09
-3.500105332981211768e-09
-3.003136080823301491e-09
-2.264142676193920262e-09
-1.576597758986284642e-09
-1.284129146061883813e-09
-8.638654775910183034e-10
-6.533466663865823414e-10
-4.432353876857775688e-10
-3.086363245158415697e-10
-2.164289879302054014e-10
-1.517644538500396774e-10
-1.069548447201848595e-10
-7.624311072372955222e-11
-5.541293903613267349e-11
-4.106539738511877440e-11
-3.099073047256539767e-11
-2.374002033134948184e-11
-1.834289739540950650e-11
-1.419231863908910067e-11
-1.091564918922944299e-11
