# bin_10_7
-1.262854842966979904e-10
-1.387061221407160906e-10
-1.488635789543204967e-10
-1.551516612147497075e-10
-1.560996120118202476e-10
-1.497482886252600028e-10
-1.355924703163673080e-10
-1.160837855463384567e-10
-9.526649701569395389e-11
-7.870543606590613959e-11
-6.788038583420222410e-11
-5.674541586974109141e-11
-4.084049147499604326e-11
-2.985479687370627315e-11
-2.380811182610277500e-11
-1.604292729701646640e-11
-1.207917427816209919e-11
-8.575902850828630874e-12
-6.070480334132986754e-12
-4.359541299552048745e-12
-3.162333431099255298e-12
-2.332456580637746785e-12
-1.750576035007441204e-12
-1.338160011226022942e-12
-1.037069739379393926e-12
-8.103173384908838183e-13
-6.341040172976351209e-13
-4.933761891941990637e-13
-3.792722852793199651e-13
-2.865109164405194373e-13
-2.117964111142505733e-13
