# bin_10_18
-1.441928116202922234e-20
-1.621026130325787233e-20
-1.790155953245887044e-20
-1.933531868924074342e-20
-2.030892428148348694e-20
-2.060787248982115651e-20
-2.001458900985979264e-20
-1.835103823516958564e-20
-1.591159868841699623e-20
-1.312924586325394728e-20
-1.077975099953616184e-20
-9.237098932579559783e-21
-7.876140991404482057e-21
-5.844764045098257149e-21
-4.111705694982726372e-21
-3.351168793309517922e-21
-2.226481600110150593e-21
-1.692788575697326197e-21
-1.159460180752886415e-21
-8.035608526413075636e-22
-5.643694276362667776e-22
-3.964725142304873122e-22
-2.806408503021909943e-22
-2.012139574059616573e-22
-1.471604669479681286e-22
-1.097151793543058159e-22
-8.323217785347879595e-23
-6.399654699236610558e-23
-4.954007311270349280e-23
-3.832828810040488918e-23
-2.942651549108143335e-23
