# bin_3_5
-2.337603033230047986e-09
-2.456356829133994970e-09
-2.495627734267853688e-09
-2.430634243720651549e-09
-2.237758133644499543e-09
-1.948711831725957087e-09
-1.612838049802636964e-09
-1.321880447723456191e-09
-1.126055403682353232e-09
-9.628271195093372079e-10
-7.286921470148377831e-10
-5.134230471846083893e-10
-4.159162660062746300e-10
-2.889147247484001900e-10
-2.192974310677299927e-10
-1.550411220480826939e-10
-1.132500580085940877e-10
-8.355872242646950110e-11
-6.243677434363080018e-11
-4.745221568290081103e-11
-3.667888461635503965e-11
-2.878947317061308834e-11
-2.280212286867719924e-11
-1.809563427194052564e-11
-1.428764089110399079e-11
-1.114694385003144898e-11
-8.542224200350078272e-12
-6.398391093269848097e-12
-4.668127284680129449e-12
-3.312198160384046661e-12
-2.287038707474827272e-12
