# bin_15_15
-2.897748167389323526e-08
-3.262764024987559671e-08
-3.609930100503067212e-08
-3.908051248469226453e-08
-4.116702608731814068e-08
-4.190802424987203424e-08
-4.089911071837748659e-08
-3.770206937536537816e-08
-3.286625901679009003e-08
-2.720037345479998299e-08
-2.229267236737209364e-08
-1.902867715288256232e-08
-1.632286921513218866e-08
-1.229771620165053886e-08
-8.566469597819063422e-09
-6.978298623629110428e-09
-4.691234707018422347e-09
-3.549311776048849472e-09
-2.408788105687608823e-09
-1.676816946384216387e-09
-1.175979424815057645e-09
-8.247129660505007796e-10
-5.813214868180996756e-10
-4.145004164258998373e-10
-3.013394626082060291e-10
-2.233765632775907194e-10
-1.686150301472283217e-10
-1.291875058459879559e-10
-9.982678209168529000e-11
-7.723869363057990273e-11
-5.940178941692887357e-11
