# bin_12_1
-4.784753497429372064e-49
-5.221540033597836029e-49
-5.559043573559300004e-49
-5.734657332605806734e-49
-5.700651348841197006e-49
-5.377962520996890162e-49
-4.792343390092938586e-49
-4.037121600933821297e-49
-3.300790671703073240e-49
-2.760491121513397728e-49
-2.389669016255603492e-49
-1.926820679830262804e-49
-1.344491373802273370e-49
-1.040262365861102188e-49
-7.821928267200115731e-50
-5.514256984408535598e-50
-3.946445703748063109e-50
-2.881508681036228362e-50
-2.061294611892957236e-50
-1.486997234008249689e-50
-1.091466196383679521e-50
-8.150362734790314451e-51
-6.196860525447058081e-51
-4.788570269377926836e-51
-3.740395859157396142e-51
-2.935056417741045663e-51
-2.297406179102477644e-51
-1.781482331741898392e-51
-1.360460892228112227e-51
-1.018249008928661883e-51
-7.441290830078377079e-52
