# bin_14_18
-4.855793956848494651e-11
-5.482155113688752308e-11
-6.084939986921030312e-11
-6.613468154867121670e-11
-7.000829160179928109e-11
-7.167425953810383227e-11
-7.051845465181753930e-11
-6.563209846445150297e-11
-5.774235533517805119e-11
-4.809152199454225443e-11
-3.933913280451842908e-11
-3.332325976146513423e-11
-2.878498839671382509e-11
-2.228529114098675460e-11
-1.538487862426285988e-11
-1.237742600576401969e-11
-8.631298154314981131e-12
-6.366609248884860006e-12
-4.290674455432144839e-12
-3.037871633034486057e-12
-2.114464477310951202e-12
-1.470375379326908070e-12
-1.028740315592089881e-12
-7.266934711380096314e-13
-5.225502007934092316e-13
-3.831801049828041844e-13
-2.864143533805718765e-13
-2.178028562466675474e-13
-1.675672027834465409e-13
-1.295269052236930838e-13
-9.983988978201378969e-14
