# bin_15_11
-1.558942432956481974e-11
-1.746050589033382095e-11
-1.919495441801476673e-11
-2.061627926914507089e-11
-2.150146605604557694e-11
-2.164508463265725893e-11
-2.077383331579585636e-11
-1.881442068180882180e-11
-1.610980694032094624e-11
-1.322085518844576665e-11
-1.092541796623797804e-11
-9.431646510477409420e-12
-7.886680349723260703e-12
-5.659523798034877635e-12
-4.132015932920613094e-12
-3.289980457450466607e-12
-2.194700353767818321e-12
-1.642317473746258915e-12
-1.151506654135955865e-12
-8.001662845347673182e-13
-5.617785101284822765e-13
-3.963170239746956668e-13
-2.834090652416746055e-13
-2.058712316066069972e-13
-1.525675985160799895e-13
-1.151379212544144744e-13
-8.822196682660506082e-14
-6.826994573394996314e-14
-5.297476285967618647e-14
-4.092086534729418926e-14
-3.126022195076192939e-14
