# bin_12_3
-5.209667455341604134e-33
-5.706776809274587149e-33
-6.104346926943295506e-33
-6.335163727422533045e-33
-6.342877515372338458e-33
-6.042376654852727293e-33
-5.433883873756118119e-33
-4.619320715766185143e-33
-3.782737070239299544e-33
-3.139848708191302491e-33
-2.715349282620440882e-33
-2.239075108672353825e-33
-1.585968256308941771e-33
-1.187605902568430713e-33
-9.266667225058221247e-34
-6.334291252874766393e-34
-4.680794284273837260e-34
-3.368265888257358902e-34
-2.393440478648087591e-34
-1.720050627875370267e-34
-1.253189457149555190e-34
-9.292396435522933981e-35
-7.014130754407596613e-35
-5.387876568215426147e-35
-4.190829980361155211e-35
-3.281502882130422262e-35
-2.568934641171380685e-35
-1.996390185694385312e-35
-1.530659286484483489e-35
-1.151919482816209071e-35
-8.474676643035833183e-36
