# bin_4_17
-1.037390962070070975e-49
-1.156908388201336183e-49
-1.265136833994629720e-49
-1.349917197913183713e-49
-1.396047535455753281e-49
-1.391735522376408035e-49
-1.317498621508990514e-49
-1.177714796138713848e-49
-9.949404191450708488e-50
-8.138479948639326834e-50
-6.792807775994451051e-50
-5.884791216914033707e-50
-4.779755523977334173e-50
-3.336754713832333738e-50
-2.554734070671884129e-50
-1.936239302176329061e-50
-1.340316904514336565e-50
-9.576031039658986750e-51
-6.896869540098018362e-51
-4.834763693475081168e-51
-3.401410404625679011e-51
-2.425853281895551235e-51
-1.755765012796183508e-51
-1.293260262191541209e-51
-9.711852525977522867e-52
-7.413688874407024562e-52
-5.729294126474764376e-52
-4.453626321647295217e-52
-3.457054994583275076e-52
-2.661082753589677754e-52
-2.019353684259545534e-52
