# bin_8_7
-2.428999021599641041e-08
-2.649387566886601093e-08
-2.818852378323676028e-08
-2.905617152029887557e-08
-2.885524616763230851e-08
-2.718734613113352647e-08
-2.419833423356824659e-08
-2.036311283788617700e-08
-1.664810747277941910e-08
-1.393720589090656409e-08
-1.206315511949426148e-08
-9.694865239597529829e-09
-6.758758422700636265e-09
-5.249215720687390558e-09
-3.926427142433345057e-09
-2.781263693775129549e-09
-1.983651696891889935e-09
-1.449037942820446128e-09
-1.037604190100418761e-09
-7.492713389923758426e-10
-5.505024752116147980e-10
-4.114475050650368809e-10
-3.131175674737942671e-10
-2.421365232156790661e-10
-1.892287013777478936e-10
-1.485184321190718681e-10
-1.162437296908745646e-10
-9.010926303544689352e-11
-6.877531989356525555e-11
-5.143732179064040998e-11
-3.755678728969315590e-11
