# bin_19_12
-6.937782646556229655e-17
-7.827143283308837100e-17
-8.680375905043417674e-17
-9.424471862738921555e-17
-9.963505620814345264e-17
-1.018493643611973224e-16
-9.999294238978218987e-17
-9.282349955193047783e-17
-8.146668644739956147e-17
-6.772484829828383283e-17
-5.541994873050237149e-17
-4.704636893701816578e-17
-4.058166387012769618e-17
-3.118506324023022772e-17
-2.156014002630956996e-17
-1.742668484347636956e-17
-1.201430104126360255e-17
-8.941422441481525986e-18
-6.024542602707788432e-18
-4.243994268099946648e-18
-2.961356094318462202e-18
-2.065480381557126683e-18
-1.448023348467934055e-18
-1.025387572616589480e-18
-7.395453203061265975e-19
-5.439347640118342903e-19
-4.077057614326578522e-19
-3.107184526567972641e-19
-2.393762800777706808e-19
-1.851110056450721514e-19
-1.426144253506749306e-19
