# bin_9_17
-2.339259461240915347e-21
-2.622393942088951316e-21
-2.886081252201058641e-21
-3.104038018077228572e-21
-3.242957764514890446e-21
-3.271073074292227664e-21
-3.148469375222386820e-21
-2.859732158423208907e-21
-2.455931967051278149e-21
-2.017677192368175443e-21
-1.664389973672611854e-21
-1.434724901872514468e-21
-1.206041315114198320e-21
-8.718832228579232708e-22
-6.302933638104153713e-22
-5.060229367881968886e-22
-3.360505415832094296e-22
-2.532219904605315492e-22
-1.765321309143702457e-22
-1.224886495862066366e-22
-8.600726566676833589e-23
-6.057735210171439338e-23
-4.321060830211154928e-23
-3.129221093985560021e-23
-2.312026121579219936e-23
-1.740088823036233894e-23
-1.330448522257743683e-23
-1.028239315040170095e-23
-7.975972947018770081e-24
-6.164533928308620747e-24
-4.715366850674630750e-24
