# bin_6_12
-9.078537889528562681e-18
-1.000879750151153830e-17
-1.079157338020517170e-17
-1.131353890761092821e-17
-1.145802813407432530e-17
-1.109945573318924139e-17
-1.015091741660889777e-17
-8.779526530391324295e-18
-7.235275749709558426e-18
-5.944881055665366459e-18
-5.098462824645877984e-18
-4.332340683765076150e-18
-3.200252733407167303e-18
-2.269437987662369104e-18
-1.846413476830991133e-18
-1.236945846217832175e-18
-9.443448502095132488e-19
-6.581854308063622750e-19
-4.648419801881955814e-19
-3.336597140762249762e-19
-2.410295013128355234e-19
-1.764788489709122551e-19
-1.313527974042698494e-19
-9.966630172137463730e-20
-7.679626414299236099e-20
-5.978498586181337810e-20
-4.672932388158872320e-20
-3.640387021968556149e-20
-2.807913774541398151e-20
-2.132042385835387472e-20
-1.586483839099440915e-20
