# bin_13_2
-1.057867127642336907e-45
-1.161626328534550257e-45
-1.246310357542094347e-45
-1.298450261781925308e-45
-1.305808411655034424e-45
-1.251836434234272997e-45
-1.132691175742410732e-45
-9.690039366322900707e-46
-7.949629837491006391e-46
-6.570099794788985837e-46
-5.669187155123543709e-46
-4.733926076603869789e-46
-3.399851131873182065e-46
-2.491255081495826192e-46
-1.983847165169633635e-46
-1.337230671026591480e-46
-1.005950968962695416e-46
-7.151423387796505262e-47
-5.063333224838285012e-47
-3.636214800932608195e-47
-2.638311045107954782e-47
-1.947000064207980322e-47
-1.462196180178302692e-47
-1.118334042216056864e-47
-8.670783498040194094e-48
-6.776834391920834922e-48
-5.303658401128505581e-48
-4.126303106599576260e-48
-3.171283027224142613e-48
-2.394805015092866534e-48
-1.769471918981471972e-48
