# bin_1_14
-1.078946859289845028e-60
-1.188128317808162973e-60
-1.279218990813673912e-60
-1.338676271566291824e-60
-1.353039810673037982e-60
-1.306739378075539637e-60
-1.191272270048328476e-60
-1.027006279075510048e-60
-8.450960238818432134e-61
-6.954286552060033510e-61
-5.976238113640038983e-61
-5.054747079542413422e-61
-3.701644093102774120e-61
-2.647828173713402231e-61
-2.145331359742374143e-61
-1.435832954827863118e-61
-1.094058391064504804e-61
-7.668910685485511822e-62
-5.415880684480020920e-62
-3.888342954701231735e-62
-2.811668126585817684e-62
-2.063339124648520324e-62
-1.539810261930165514e-62
-1.171172100553497164e-62
-9.041526908126990941e-63
-7.047582987101298592e-63
-5.511125789922885794e-63
-4.292038633119263946e-63
-3.307248871598546495e-63
-2.507264510157982062e-63
-1.861890833404118295e-63
