# bin_20_16
-9.073636521902384575e-11
-1.028529063970589688e-10
-1.147234495747181875e-10
-1.254411575946448889e-10
-1.337878864933103470e-10
-1.382423558236242285e-10
-1.376516945352814924e-10
-1.300642613731931691e-10
-1.160530483131896610e-10
-9.785577412374535555e-11
-8.003944121811250526e-11
-6.695754534008691297e-11
-5.803784615350661868e-11
-4.686431522012535281e-11
-3.254466630848715136e-11
-2.509787844721278665e-11
-1.876142579290591566e-11
-1.300657745756339766e-11
-9.098384141534740870e-12
-6.490822104415819290e-12
-4.461861828882549492e-12
-3.054089047602195075e-12
-2.109044726177967765e-12
-1.468830902241367470e-12
-1.037088683316221058e-12
-7.461947172544861007e-13
-5.476163732801380971e-13
-4.100195250968298940e-13
-3.120710823070962516e-13
-2.400230658405513565e-13
-1.851722877823161174e-13
