# bin_7_7
-5.099253166257326360e-08
-5.540477265195076979e-08
-5.866579562676617336e-08
-6.011555418652876876e-08
-5.924368452671243931e-08
-5.528126933087442237e-08
-4.876014807930798807e-08
-4.070863356963815672e-08
-3.328171715105585122e-08
-2.808277458734675881e-08
-2.425324127205604030e-08
-1.899529319746941282e-08
-1.318881913890847837e-08
-1.051822591286552834e-08
-7.558313488434848308e-09
-5.547368328509815359e-09
-3.874673482552957730e-09
-2.829845912545132467e-09
-2.042067748808662912e-09
-1.486324791491068461e-09
-1.099717213824907950e-09
-8.273324531148150101e-10
-6.337876254448884509e-10
-4.926629790215480829e-10
-3.863199021952392059e-10
-3.036094912248336835e-10
-2.374391051609403991e-10
-1.835626663733349785e-10
-1.394971453690159304e-10
-1.037361890579125294e-10
-7.523289765960689392e-11
