# bin_20_20
-2.555633964109883574e-08
-2.905708295773598089e-08
-3.253662105309153254e-08
-3.574551117469414057e-08
-3.835025563109555031e-08
-3.993028817870615098e-08
-4.011386099961938088e-08
-3.837274540827493333e-08
-3.463624718045138548e-08
-2.955115638585865386e-08
-2.422579231590469759e-08
-2.007450826730165282e-08
-1.736751336121316108e-08
-1.441856420027244350e-08
-1.023705737262285559e-08
-7.566049714105340907e-09
-5.936250249803160510e-09
-3.961784644443976900e-09
-2.908245857870351472e-09
-2.027639216514307303e-09
-1.383436788308725739e-09
-9.450863056302103710e-10
-6.455776327557901031e-10
-4.442872581177766948e-10
-3.089098788566004963e-10
-2.185403494749687008e-10
-1.576017533845767406e-10
-1.160891898752391602e-10
-8.721389562308561739e-11
-6.652652695738349364e-11
-5.117704213480521381e-11
