# bin_12_13
-1.978677166076636574e-08
-2.211812097781304939e-08
-2.425678586576193202e-08
-2.597510791581225122e-08
-2.698672282860318067e-08
-2.704839091865672017e-08
-2.579709584238845367e-08
-2.322180729949711145e-08
-1.975804678095950899e-08
-1.618435178178777669e-08
-1.343141912892890738e-08
-1.162259846634178792e-08
-9.599092637437923405e-09
-6.790029215466810993e-09
-5.066557142382656123e-09
-3.951011834527534279e-09
-2.672662535006252217e-09
-1.962160093478882149e-09
-1.393679382277722072e-09
-9.720664637347470214e-10
-6.825651837047185064e-10
-4.836974063898469748e-10
-3.478286301830032415e-10
-2.543266918883542620e-10
-1.896727536418364068e-10
-1.439394951182963615e-10
-1.107629628676113571e-10
-8.591960362301250351e-11
-6.669916793260170909e-11
-5.144915844835261607e-11
-3.918700792437193067e-11
