# bin_6_7
-8.738678973202469778e-12
-9.428312982485084198e-12
-9.896008595114696300e-12
-1.003817722267799775e-11
-9.750402849820682918e-12
-8.946865048565187569e-12
-7.764654454180356935e-12
-6.412293023391557864e-12
-5.261685356122003407e-12
-4.497108573797470427e-12
-3.833863550699617501e-12
-2.867471877208301999e-12
-2.026120272581300474e-12
-1.645754310394381050e-12
-1.123637045042374949e-12
-8.561327678917226583e-13
-6.008040036743814280e-13
-4.324097231317785230e-13
-3.152651766068247650e-13
-2.321898308782728852e-13
-1.736590995075089111e-13
-1.320989782908425218e-13
-1.022368536043176314e-13
-8.007391710673942001e-14
-6.306241435011672058e-14
-4.960054465192750225e-14
-3.868693803830699034e-14
-2.973908925374270912e-14
-2.241332452872390575e-14
-1.649386504287447271e-14
-1.182079831258638483e-14
