# bin_6_1
-2.532445936651708523e-09
-2.439887235157392335e-09
-2.225813137338068390e-09
-1.922770287518875701e-09
-1.590995333960620251e-09
-1.312971054190059187e-09
-1.118090959256461977e-09
-9.364499857295369486e-10
-7.034268096894057529e-10
-5.122871811920408266e-10
-4.015935765796104206e-10
-2.888629895612340434e-10
-2.152007751005691930e-10
-1.574022458236193327e-10
-1.172141798326220299e-10
-8.840916948825703093e-11
-6.789608550489659738e-11
-5.312212406822935762e-11
-4.219280830659862740e-11
-3.383751395590017342e-11
-2.719547299210542171e-11
-2.173947034549163651e-11
-1.716426654096729551e-11
-1.330286206310050011e-11
-1.007092290407676947e-11
-7.422881554836094950e-12
-5.320462161518378715e-12
-3.711332873301084661e-12
-2.525469758463970116e-12
-1.681681896728103693e-12
-1.099497181507187435e-12
