# bin_19_2
-2.958068706752111456e-09
-2.969470763642674452e-09
-2.845516039083334629e-09
-2.578602486747844188e-09
-2.211863382356642542e-09
-1.821545537649129090e-09
-1.506213892795095890e-09
-1.289845805490235077e-09
-1.073365158933005598e-09
-7.895207628663314247e-10
-5.796677469614823332e-10
-4.559592722900452867e-10
-3.220421280781114351e-10
-2.414070207259099841e-10
-1.755027789026803363e-10
-1.296872184647722392e-10
-9.724750522142027610e-11
-7.418078167066832236e-11
-5.763477953236655170e-11
-4.547489430743636377e-11
-3.626594740070775105e-11
-2.901698856538946458e-11
-2.312096640010576494e-11
-1.821911190296927526e-11
-1.410821238007257836e-11
-1.068057646984499073e-11
-7.876306680030567647e-12
-5.648436137074785851e-12
-3.941165491742994758e-12
-2.681403212944172665e-12
-1.784509016004352555e-12
