# bin_16_19
-6.568663129304407023e-14
-7.433699075037953920e-14
-8.274979413330561593e-14
-9.025756178357295196e-14
-9.596759115922445988e-14
-9.878048059444803957e-14
-9.788539270576066576e-14
-9.191503785695328817e-14
-8.153657501823820245e-14
-6.838295369828812403e-14
-5.591076511758727171e-14
-4.701181799887352628e-14
-4.072591880234505307e-14
-3.233989007745321482e-14
-2.233370942684523864e-14
-1.757341110411412964e-14
-1.277122380008558923e-14
-9.084324628957424094e-15
-6.217525262793612791e-15
-4.447553572811696307e-15
-3.071371571237258283e-15
-2.113353202052713629e-15
-1.467820565653176191e-15
-1.028287786829031788e-15
-7.316393305455359848e-16
-5.307037123962779526e-16
-3.926021922888768692e-16
-2.960156488985669341e-16
-2.264459148843248462e-16
-1.746266876507659568e-16
-1.347337311400019906e-16
