# bin_11_19
-8.982809557589373199e-25
-1.012183596500642297e-24
-1.120872152424714824e-24
-1.214757500196109102e-24
-1.281350091327971880e-24
-1.306422694835477541e-24
-1.277850896512863662e-24
-1.181022375668167354e-24
-1.032160625356729159e-24
-8.555687693595473065e-25
-7.007322818976344862e-25
-5.969560408561206738e-25
-5.132836244175293934e-25
-3.895402617215049480e-25
-2.704198857945602106e-25
-2.198362071035134648e-25
-1.489982245816479216e-25
-1.121953902084247882e-25
-7.586788722242990973e-26
-5.300977251724914901e-26
-3.712244979457753316e-26
-2.599430438180304922e-26
-1.828579044485610881e-26
-1.300436042200055567e-26
-9.426364516382593434e-27
-6.967585093903904534e-27
-5.246095563296506675e-27
-4.011853726510116309e-27
-3.096894071349105252e-27
-2.395873753809981267e-27
-1.843918187177806539e-27
