# bin_6_11
-1.448403882115661642e-19
-1.590580847111430155e-19
-1.706686616195041923e-19
-1.778286891552486142e-19
-1.788591439862544716e-19
-1.714989875837862491e-19
-1.552062309040729147e-19
-1.328037400996524004e-19
-1.089597380708270112e-19
-9.004155171855920837e-20
-7.768635145548036824e-20
-6.489170133358082456e-20
-4.662849865317515170e-20
-3.414580099976872576e-20
-2.720350229939434525e-20
-1.833325734596793480e-20
-1.379625049383825233e-20
-9.804266113987018386e-21
-6.941136089814841815e-21
-4.984734907565088146e-21
-3.616401490217165542e-21
-2.668419974210638188e-21
-2.003658975283011750e-21
-1.532248222626354103e-21
-1.187871895391203933e-21
-9.283453267099924927e-22
-7.265248604493017994e-22
-5.652597938709045475e-22
-4.344616634290759082e-22
-3.281183661861580215e-22
-2.424713779616635137e-22
