# bin_8_18
-6.427533267181011536e-34
-7.209426375426628943e-34
-7.939636283874770428e-34
-8.546281503736701261e-34
-8.938083984389926090e-34
-9.026195106775968804e-34
-8.703044621475943744e-34
-7.919006254350591412e-34
-6.813270604167734247e-34
-5.601595540222572764e-34
-4.616087593303006608e-34
-3.975045888742167016e-34
-3.351570131178962315e-34
-2.434639195380907336e-34
-1.749692166232515829e-34
-1.410789931132295446e-34
-9.353051167231613371e-35
-7.070846562273263588e-35
-4.912619080954421049e-35
-3.406160453952305215e-35
-2.391958117359124632e-35
-1.683471180736830663e-35
-1.199033619339554591e-35
-8.666643697846377136e-36
-6.391267087923038626e-36
-4.801960241655214433e-36
-3.666418369413213462e-36
-2.831148684215569756e-36
-2.195475923886352825e-36
-1.697334224297428132e-36
-1.299311751971146909e-36
