# bin_1_2
-1.924951860305202318e-11
-1.883743184227513989e-11
-1.746460267264144842e-11
-1.531843401316652065e-11
-1.276327043031264972e-11
-1.046061325641299442e-11
-8.843102452011688259e-12
-7.567573690269722135e-12
-5.871115732819048418e-12
-4.163056755289309064e-12
-3.295016242719831650e-12
-2.394022458441271656e-12
-1.773404104095059243e-12
-1.287544504246008918e-12
-9.579891762411747840e-13
-7.173905522066759907e-13
-5.464872860485456906e-13
-4.244001378061029897e-13
-3.350943159021680145e-13
-2.677929653752607823e-13
-2.150736813208766820e-13
-1.722658906523786056e-13
-1.366153250209492980e-13
-1.065718033278364725e-13
-8.132803504628254445e-14
-6.046746745892995601e-14
-4.371752061313012311e-14
-3.073701956051557773e-14
-2.105908122600477647e-14
-1.410251300561387806e-14
-9.262478668489129447e-15
