# bin_20_13
-2.934986764526200538e-10
-3.284976996829804906e-10
-3.608240293770353019e-10
-3.871361025183220790e-10
-4.032171715070645395e-10
-4.052893056212764458e-10
-3.881440726321616566e-10
-3.508306110912845915e-10
-2.997805318942135205e-10
-2.459028618479192349e-10
-2.035175545446927291e-10
-1.757873951381566332e-10
-1.463494532047115158e-10
-1.045955359829089761e-10
-7.691357901158052913e-11
-6.077277688249371521e-11
-4.077895797368716480e-11
-3.029279257560755132e-11
-2.132762114826612019e-11
-1.484104649853062396e-11
-1.042156961952815842e-11
-7.364930510228481354e-12
-5.276432718340260566e-12
-3.840990578334625667e-12
-2.852299158537630579e-12
-2.156375146377592500e-12
-1.654484070153306820e-12
-1.281211967593940652e-12
-9.942136227019437595e-13
-7.675546443240836922e-13
-5.857288229955739581e-13
