# bin_18_9
-5.994396817313777076e-10
-6.597599871033674140e-10
-7.098940376888033140e-10
-7.422956422069281383e-10
-7.495857625605646002e-10
-7.230406321714773535e-10
-6.584487741312417312e-10
-5.670362645876704687e-10
-4.665465706220720077e-10
-3.842958019169767094e-10
-3.303090897696377984e-10
-2.786160266539554310e-10
-2.036686165968609682e-10
-1.464084018106077027e-10
-1.178995378951272045e-10
-7.937750043083682109e-11
-6.012190728256093312e-11
-4.223328492209397998e-11
-2.988319901342346392e-11
-2.144956188659055249e-11
-1.552178785753978179e-11
-1.140020611721764986e-11
-8.515197671058066931e-12
-6.481202218375830987e-12
-5.006055168826195143e-12
-3.903032536404674364e-12
-3.052002464774577986e-12
-2.376180107311157554e-12
-1.830034021727888299e-12
-1.386424340601793146e-12
-1.028717038054347315e-12
