# bin_9_13
-2.847901930243696526e-16
-3.164841001982739453e-16
-3.445984051145016417e-16
-3.657154319375616876e-16
-3.756713632101819398e-16
-3.713571601953884730e-16
-3.477243609614970617e-16
-3.076750084077703604e-16
-2.574911966830966185e-16
-2.104923642073306349e-16
-1.772612815632982395e-16
-1.533901885973217692e-16
-1.210521602885804262e-16
-8.373300696104731585e-17
-6.634313784445510240e-17
-4.795561294164075957e-17
-3.465469952919328351e-17
-2.393978844877015846e-17
-1.733219087748187788e-17
-1.225576152594478952e-17
-8.698070494465826165e-18
-6.261204923374425180e-18
-4.572358551563670306e-18
-3.402291922841741010e-18
-2.578573175966179672e-18
-1.983120864940524587e-18
-1.540118121135342504e-18
-1.199421677993201934e-18
-9.300001786241570108e-19
-7.132045953429720057e-19
-5.380707690332624635e-19
