# bin_18_3
-2.277261167498995526e-09
-2.344462735260988999e-09
-2.324851454494249220e-09
-2.189993468044522856e-09
-1.950058588800486276e-09
-1.644475930818573547e-09
-1.347118831435519175e-09
-1.126436357918048858e-09
-9.696764291743595201e-10
-7.800482068265905440e-10
-5.543763208180532411e-10
-4.256280812842010397e-10
-3.220738559176943484e-10
-2.301405717427176328e-10
-1.689786203948026556e-10
-1.240446568943005984e-10
-9.118168097734680251e-11
-6.811020248736351898e-11
-5.180727002380895367e-11
-4.012288382159315261e-11
-3.155332270616805221e-11
-2.506736708614699220e-11
-1.997165654260835097e-11
-1.584228907811310495e-11
-1.242596588253623198e-11
-9.577456531672031025e-12
-7.217232710282416308e-12
-5.298545150978161171e-12
-3.782954482141012978e-12
-2.628235904227040931e-12
-1.780736410376232652e-12
