# bin_15_1
-3.607350929391780469e-09
-3.480436162015106151e-09
-3.179921795297171820e-09
-2.750981955874438340e-09
-2.277989703342666858e-09
-1.878837442071271284e-09
-1.598839118594517198e-09
-1.341610589908093848e-09
-1.010962687416408664e-09
-7.347667609775441376e-10
-5.761751433749497678e-10
-4.150419210716007663e-10
-3.088980320456543620e-10
-2.258910833368018566e-10
-1.681637889199061181e-10
-1.267417225016418395e-10
-9.725629012928787675e-11
-7.603672401470354801e-11
-6.035705135691168003e-11
-4.838701901742562445e-11
-3.888539261224356276e-11
-3.108939012752204333e-11
-2.455650854583580105e-11
-1.904386732479873519e-11
-1.442835350063713265e-11
-1.064376830077514641e-11
-7.635781453257774943e-12
-5.330768304393355094e-12
-3.630076198129659862e-12
-2.418695807035915272e-12
-1.582147181248691442e-12
