# bin_4_18
-9.177646346093308103e-60
-1.025758011478720873e-59
-1.124751922497409820e-59
-1.204175200683786192e-59
-1.250734744742669708e-59
-1.253203802031660052e-59
-1.194699945571944880e-59
-1.074977097384224405e-59
-9.142275857388694559e-60
-7.487808111435121573e-60
-6.216108538829496886e-60
-5.379713116296988672e-60
-4.439055248165839250e-60
-3.137000122321988007e-60
-2.344386490698257335e-60
-1.825343145965310543e-60
-1.236152786487614052e-60
-9.061838413709991743e-61
-6.442522428830574499e-61
-4.494844612240846416e-61
-3.156315799371268817e-61
-2.237533726444274867e-61
-1.609693376908021514e-61
-1.177548425156822309e-61
-8.786025143563380569e-62
-6.670261797392944934e-62
-5.134412747168346718e-62
-3.983483683005048884e-62
-3.092461685092411697e-62
-2.385163067059373335e-62
-1.816313219910707000e-62
