# bin_11_4
-1.342023515220628640e-09
-1.407761962847371098e-09
-1.427601195289186437e-09
-1.386641544431103057e-09
-1.273518765930061968e-09
-1.106325365029163054e-09
-9.153221222113871649e-10
-7.516362236755093434e-10
-6.407841074759671775e-10
-5.449182491611587015e-10
-4.105764655339539393e-10
-2.921545821449130890e-10
-2.343813491649075470e-10
-1.640155963682179344e-10
-1.234200791261394591e-10
-8.793001137183972218e-11
-6.428300130197213487e-11
-4.740809400572010831e-11
-3.543671308365437001e-11
-2.696272165634196365e-11
-2.086567029856247284e-11
-1.638937842545768623e-11
-1.298460632454900304e-11
-1.030281096026905143e-11
-8.129839416150596122e-12
-6.336576149637892241e-12
-4.849725616835716524e-12
-3.627374757734062832e-12
-2.642585142500147639e-12
-1.872557146785376030e-12
-1.291604175737299297e-12
