# bin_3_6
-2.161104165622575724e-15
-2.284019715693529863e-15
-2.336200641020890398e-15
-2.297055268478006835e-15
-2.138451782740454609e-15
-1.882294029312966176e-15
-1.569684474233581873e-15
-1.283889155836075608e-15
-1.084349326328765870e-15
-9.342030789889667866e-16
-7.287419278362383854e-16
-5.090154458341597317e-16
-4.060898291312790459e-16
-2.921377997492234866e-16
-2.158258454871673947e-16
-1.529425543403513406e-16
-1.124502514304450908e-16
-8.238700813175628793e-17
-6.109153474592603876e-17
-4.611978381291791260e-17
-3.542667244206582550e-17
-2.765859995425280528e-17
-2.183152662374316203e-17
-1.730199295424803158e-17
-1.367134303738530892e-17
-1.069570640239610289e-17
-8.233513073781698197e-18
-6.204158961423633682e-18
-4.558383344473861484e-18
-3.258261778778276390e-18
-2.265792955116997921e-18
