# bin_2_7
-6.327198227466862583e-22
-6.702471163910910931e-22
-6.874128696406315926e-22
-6.784182726083897702e-22
-6.343887101613833613e-22
-5.607391354983276981e-22
-4.690784365216207807e-22
-3.834476509505505128e-22
-3.227167831689634531e-22
-2.786988961296921358e-22
-2.199750811706593775e-22
-1.533304111994571200e-22
-1.214033129287916716e-22
-8.869525937976523917e-23
-6.472927106549528507e-23
-4.595799894433626063e-23
-3.389564197919208531e-23
-2.475604924468979109e-23
-1.829716252847916385e-23
-1.377691751933932935e-23
-1.055692066827088742e-23
-8.224482172926405845e-24
-6.482652920376971813e-24
-5.134609372865242696e-24
-4.058135605774306655e-24
-3.178164873272112858e-24
-2.450772165975752170e-24
-1.850988779387498771e-24
-1.363690491678936755e-24
-9.775403173938343227e-25
-6.816571721727542003e-25
