# bin_19_1
-3.804957385889727765e-09
-3.671726731701709672e-09
-3.355321515663705918e-09
-2.903237252367441731e-09
-2.404284147121312593e-09
-1.982864175919988212e-09
-1.687218039155877329e-09
-1.416093781645986748e-09
-1.067498920343428466e-09
-7.756665650996608620e-10
-6.082695580666924970e-10
-4.382381787095955429e-10
-3.261229813192632716e-10
-2.384818121149871774e-10
-1.775301722847618911e-10
-1.337886339767586909e-10
-1.026537590015153763e-10
-8.024925730030251723e-11
-6.369629700375012529e-11
-5.106174491559184895e-11
-4.103442315317311830e-11
-3.280824396432863928e-11
-2.591547031949616419e-11
-2.009927199406515378e-11
-1.522940704685076886e-11
-1.123588393150707387e-11
-8.061420992822531577e-12
-5.628479189366203270e-12
-3.833142869453442595e-12
-2.554185658231726193e-12
-1.670875732993645441e-12
