# bin_20_6
-1.221570883566819492e-09
-1.314971483844292569e-09
-1.376246201227193067e-09
-1.391538136421061137e-09
-1.345336281344315736e-09
-1.228639112121468229e-09
-1.061228528859746964e-09
-8.747235314144675388e-10
-7.195806746455436145e-10
-6.165906962313498817e-10
-5.217029726393427350e-10
-3.857802077125435720e-10
-2.762151350055671257e-10
-2.224879887989504899e-10
-1.521998780253572435e-10
-1.153559609474182781e-10
-8.161054103339038488e-11
-5.876258038984767877e-11
-4.286959359688802472e-11
-3.163243927148824838e-11
-2.372826680761564147e-11
-1.810561202431391385e-11
-1.404774757452667862e-11
-1.102079537458650886e-11
-8.685668194249183359e-12
-6.829600624036248412e-12
-5.320441739967690692e-12
-4.081665656385243658e-12
-3.068011263516711493e-12
-2.250598293533339413e-12
-1.607535922810798962e-12
