# bin_13_17
-1.513084244411051191e-15
-1.703173525359399487e-15
-1.883726067782931533e-15
-2.038399648129089568e-15
-2.146057137614803451e-15
-2.183349232676807009e-15
-2.128843856003881307e-15
-1.960431117831670240e-15
-1.707249389384413571e-15
-1.412115144283495630e-15
-1.157696962907381983e-15
-9.889268080280753833e-16
-8.473913069964386395e-16
-6.366122840536593715e-16
-4.442115123666981835e-16
-3.619714207437902087e-16
-2.427302813344430245e-16
-1.838634029061926375e-16
-1.249901692975198615e-16
-8.692120454126475723e-17
-6.098044431917109420e-17
-4.278182559042088608e-17
-3.017977557596715634e-17
-2.154146028353691327e-17
-1.567836939892030011e-17
-1.163482582620875058e-17
-8.790965883689086362e-18
-6.740028050293232056e-18
-5.210063436104108462e-18
-4.031179808451956131e-18
-3.099266315164841206e-18
