# bin_11_5
-9.866598026922879374e-10
-1.049937843000073332e-09
-1.083036250293058158e-09
-1.076498588436596051e-09
-1.016295589291936597e-09
-9.065369186807655043e-10
-7.650581552045243294e-10
-6.261920157726801293e-10
-5.230723725907279670e-10
-4.515622303694280096e-10
-3.648333133494635573e-10
-2.574832954818857704e-10
-1.976236435911759554e-10
-1.498274179886719524e-10
-1.060201867132006981e-10
-7.728409254015218456e-11
-5.644525885166380059e-11
-4.094657525585998362e-11
-3.010914226833862727e-11
-2.252322479792220689e-11
-1.715544476605947670e-11
-1.328983981756730130e-11
-1.043273299464604181e-11
-8.244630540436875772e-12
-6.513793310645374379e-12
-5.109174856773945313e-12
-3.952542956046734833e-12
-2.999376222802912903e-12
-2.222915408413868896e-12
-1.604176595268405316e-12
-1.126315233938336450e-12
