# bin_15_19
-2.878701169305480749e-15
-3.255251274418665482e-15
-3.620190328158143205e-15
-3.944015408684540301e-15
-4.187406168004475205e-15
-4.302389413114788286e-15
-4.253445534082657060e-15
-3.982281388725418741e-15
-3.522953989086414916e-15
-2.947531344158984097e-15
-2.409963233404304809e-15
-2.031316448112761800e-15
-1.758603768553848485e-15
-1.384934509543105352e-15
-9.553604517861099942e-16
-7.580827883458840858e-16
-5.433834227424675827e-16
-3.914231807366244861e-16
-2.658566727919132967e-16
-1.898511785624135392e-16
-1.314233989248543260e-16
-9.072937630266348974e-17
-6.317541931503897544e-17
-4.437965890938029805e-17
-3.168953034294416524e-17
-2.307166551182240048e-17
-1.712901434759588969e-17
-1.295404493814536420e-17
-9.930280706069474797e-18
-7.665219463822306142e-18
-5.913031048824403643e-18
