# bin_6_8
-3.936413475567701438e-13
-4.270388437767992129e-13
-4.513011977053777987e-13
-4.614009940027241760e-13
-4.532810818846102814e-13
-4.213703442112024643e-13
-3.703393606005869231e-13
-3.083496878095594348e-13
-2.522110303959538721e-13
-2.134547917509226696e-13
-1.839835241683278582e-13
-1.426164338854957925e-13
-9.918092766596328376e-14
-7.965828049122571024e-14
-5.644004208621969727e-14
-4.190526276573409342e-14
-2.919943020292458468e-14
-2.126103491183431359e-14
-1.538523014280258151e-14
-1.123301973263571573e-14
-8.332012365439790589e-15
-6.283854357598037409e-15
-4.825395390993388792e-15
-3.757771837052786456e-15
-2.949916133608373164e-15
-2.319069895732058239e-15
-1.812757383984446477e-15
-1.399776521968354168e-15
-1.061851964831323128e-15
-7.878317956833462200e-16
-5.698557009388303050e-16
