# bin_4_17
-7.104912529591452395e-55
-7.921009443808588322e-55
-8.658722938412527860e-55
-9.234582889572641964e-55
-9.544365615345176027e-55
-9.507968824313644829e-55
-8.992006887265821139e-55
-8.030642161557611251e-55
-6.778260159043127340e-55
-5.543833803653871019e-55
-4.630820996081398963e-55
-4.011927278622713321e-55
-3.250831190050407002e-55
-2.266302296096142777e-55
-1.740965903829204621e-55
-1.314195523792932560e-55
-9.129160825113117471e-56
-6.498777350063117375e-56
-4.687100207985647957e-56
-3.288001195813160767e-56
-2.314305298686085839e-56
-1.651954162889181882e-56
-1.196607722893334304e-56
-8.822080228062915691e-57
-6.630635757105379570e-57
-5.065158095173684660e-57
-3.916255187590983444e-57
-3.044914149446993982e-57
-2.363417653666600673e-57
-1.818690932715398834e-57
-1.379411967862339748e-57
