# bin_4_19
-1.145669839091713827e-64
-1.283473700302910265e-64
-1.411368512104154674e-64
-1.516408925956492379e-64
-1.582227243557283631e-64
-1.593606626023257063e-64
-1.530586265311216259e-64
-1.387220692071772655e-64
-1.188692328992621546e-64
-9.757644998072131899e-65
-8.059677909393265354e-65
-6.955453781652218243e-65
-5.824170112095954300e-65
-4.186832079863874785e-65
-3.049147455590844130e-65
-2.433277985376540783e-65
-1.620969050446500274e-65
-1.215419185454480405e-65
-8.509323808261259996e-66
-5.910702016021375989e-66
-4.149897675304226144e-66
-2.926296582524383631e-66
-2.091322708502702240e-66
-1.518031171987214847e-66
-1.124176041864070742e-66
-8.478373424149020493e-67
-6.493149433249764547e-67
-5.023260752250724576e-67
-3.897642821566302935e-67
-3.011265639506388536e-67
-2.301153982014503504e-67
