# bin_13_20
-3.258278765215926542e-21
-3.682962854832323928e-21
-4.093801709464875556e-21
-4.457249171961252874e-21
-4.728689715128496360e-21
-4.853987953823921537e-21
-4.792839752682526072e-21
-4.480370097912057889e-21
-3.957907375041973652e-21
-3.307353597577621109e-21
-2.704299559128507033e-21
-2.282339003927849028e-21
-1.975100025223350897e-21
-1.548561224785030927e-21
-1.067948040488839638e-21
-8.509338257151879978e-22
-6.055010908982020294e-22
-4.390608403002708179e-22
-2.972225095993309706e-22
-2.119303275697409773e-22
-1.469036505810377308e-22
-1.016055845236013350e-22
-7.083986086325532186e-23
-4.983547116009347885e-23
-3.565129579439558273e-23
-2.600566947890535329e-23
-1.934258508226237740e-23
-1.465033197916553448e-23
-1.124216944621005499e-23
-8.681731366471426718e-24
-6.696235414607421198e-24
