# bin_7_4
2.996710265479028240e-08
2.621898577254795020e-08
2.233806322753461735e-08
1.858440868452803242e-08
1.517124613033908701e-08
1.221017911034433262e-08
9.703359281033148563e-09
7.585086257926876730e-09
5.806660027811053260e-09
4.378307700750055989e-09
3.303324475085531616e-09
2.502995959214496815e-09
1.895286628786210119e-09
1.449141438756787685e-09
1.117762558829402436e-09
8.703224646573673863e-10
6.823392604506771093e-10
5.368985526406958645e-10
4.221626922001181471e-10
3.302243556061106855e-10
2.558827976272315471e-10
1.956777948436754174e-10
1.472211047597825832e-10
1.087191047302805399e-10
7.867832586779087911e-11
5.575336616231442615e-11
3.868688942817452636e-11
2.630770045633928899e-11
1.755820288946531701e-11
1.152461907823753897e-11
7.455988595387820658e-12
