# bin_19_5
4.168134904690895913e-08
3.731192924414356620e-08
3.247646823720177915e-08
2.751405332844328979e-08
2.277429929468941156e-08
1.852263358446616567e-08
1.487434609112348600e-08
1.179110488211272369e-08
9.166511655689167233e-09
6.961057991044149146e-09
5.225381418563308169e-09
3.943881390200525146e-09
2.974632592771126865e-09
2.244961535904589812e-09
1.713660000309795326e-09
1.318204025503864764e-09
1.023713469503978792e-09
8.005057548007876847e-10
6.280490297074952232e-10
4.922771284580760036e-10
3.837739055553123840e-10
2.963212622960634337e-10
2.257610367538210219e-10
1.692065045397068648e-10
1.244692828591382671e-10
8.972354762402022067e-11
6.333210386925527884e-11
4.377653783891961798e-11
2.965714590290619686e-11
1.972275740005190516e-11
1.290165599195631628e-11
