# bin_19_8
5.432706724116529395e-08
4.986721169553316061e-08
4.454361546787890249e-08
3.869463207768217102e-08
3.272943769966083313e-08
2.705825664360882845e-08
2.198438019304584192e-08
1.763203878522604914e-08
1.395239674407194533e-08
1.082540479649540216e-08
8.207617790988370520e-09
6.150570970267671685e-09
4.629218965857657779e-09
3.479601090557869170e-09
2.614536369338155122e-09
1.985370580434420202e-09
1.517801347444765972e-09
1.170887718602651084e-09
9.093186987613581596e-10
7.086422009522800206e-10
5.519981101119454685e-10
4.279778108179225688e-10
3.289486510328401193e-10
2.497355688149858854e-10
1.867192926339695560e-10
1.371692199198529633e-10
9.885271992789442657e-11
6.982494958877668282e-11
4.833480033726444597e-11
3.280869636030885436e-11
2.186397392465637595e-11
