# bin_17_15
7.015827527813583173e-08
6.601044714203082907e-08
6.055091573981515290e-08
5.406552606884735111e-08
4.696819679705785485e-08
3.974864908381715075e-08
3.288545790879750757e-08
2.673058308060095438e-08
2.142992914542622432e-08
1.693979762358282313e-08
1.313708251842104285e-08
9.966994859875603480e-09
7.462025190822817240e-09
5.590108335258258991e-09
4.185768752794484246e-09
3.127211152277793556e-09
2.355596360752842233e-09
1.784956003499979195e-09
1.363801036266609502e-09
1.048581695410824746e-09
8.093570987482807159e-10
6.249806857404243568e-10
4.809677079759446469e-10
3.674969211575350457e-10
2.778235084493995357e-10
2.072080628037798865e-10
1.521184504139208788e-10
1.097445722050558539e-10
7.772838043097591856e-11
5.402799440349224548e-11
3.686461186345413853e-11
