# bin_16_9
5.567429805400913200e-08
5.127403263955896672e-08
4.596996480288715421e-08
4.009081029757394101e-08
3.404108234595757744e-08
2.823439062899836354e-08
2.299401809386690387e-08
1.847138543871032637e-08
1.464462184677269281e-08
1.140068980151002585e-08
8.677066419289618818e-09
6.508104097109754383e-09
4.889890114365979038e-09
3.678267417946729313e-09
2.759479049468319503e-09
2.090725564657278257e-09
1.594221404229197593e-09
1.226850258719131581e-09
9.504882027510951194e-10
7.393369524582252834e-10
5.752335585350885972e-10
4.458149372022030436e-10
3.427963977568809646e-10
2.605530008315135601e-10
1.951706315859106061e-10
1.437342652964994824e-10
1.038953367562490934e-10
7.363681710748074196e-11
5.116025287049900562e-11
3.485694744413517653e-11
2.331409597123133755e-11
