# bin_18_12
6.529793495066798977e-08
6.101801897601218603e-08
5.555732868766086376e-08
4.922116355159362253e-08
4.242768086946409863e-08
3.564921554178556929e-08
2.932172773612189904e-08
2.373004539588085163e-08
1.895612744139416468e-08
1.491662348233091382e-08
1.149540886257650052e-08
8.673270329902279153e-09
6.490660117460290530e-09
4.873876508271235213e-09
3.648369910369129450e-09
2.736080277547863123e-09
2.070058109528755869e-09
1.576847444798255075e-09
1.210712583455188183e-09
9.351481999782884392e-10
7.243257136231764394e-10
5.604945052422790342e-10
4.316001245721631383e-10
3.294732390405595763e-10
2.484969492049566258e-10
1.846702754869142366e-10
1.349381134321190399e-10
9.680735309095925200e-11
6.813674521165456619e-11
4.704403498535705764e-11
3.187843625157922782e-11
