# bin_18_10
6.014050530750529273e-08
5.576072088990921464e-08
5.034569176562416442e-08
4.421758726533806359e-08
3.779282168298890240e-08
3.151828072805494208e-08
2.577393561663203028e-08
2.077015353659403785e-08
1.652583850752414240e-08
1.293043198537064189e-08
9.892520200858594181e-09
7.430751055767001210e-09
5.570938473243921746e-09
4.189609745664800480e-09
3.136707746129471908e-09
2.366277303567666573e-09
1.797496770822546055e-09
1.377519945764295735e-09
1.063194953017421959e-09
8.247394987863062527e-10
6.407058321810868721e-10
4.964643194476554935e-10
3.821781675546907240e-10
2.911771616179445324e-10
2.188618533956901802e-10
1.618816305571479523e-10
1.176026249085102017e-10
8.381246958835073464e-11
5.856654006750117297e-11
4.013435136576829290e-11
2.699350682415400380e-11
