# bin_11_2
2.340409360368350712e-08
2.000619089592353838e-08
1.668639842605823336e-08
1.364930157612781454e-08
1.100917052489816549e-08
8.773243661337705692e-09
6.876974956750972127e-09
5.272068976301380156e-09
3.976855041588752658e-09
3.004822083698300667e-09
2.280539317214313711e-09
1.729563447578804540e-09
1.325980896215319152e-09
1.026087857916012642e-09
8.021928849041496476e-10
6.318969238020949367e-10
4.997459326150396080e-10
3.950037511599173608e-10
3.105562838593933695e-10
2.417883196861922962e-10
1.856858920709699132e-10
1.402089333910435835e-10
1.038406037756982283e-10
7.530919458154288953e-11
5.344310633562876758e-11
3.711632939816385704e-11
2.525246411220678908e-11
1.685958744740511806e-11
1.106973858928723523e-11
7.164739253778340505e-12
4.581980116973143846e-12
