# bin_17_10
5.937094048677661656e-08
5.499613509688862297e-08
4.960897874024603187e-08
4.353160919160080489e-08
3.717707445795153243e-08
3.098522034747239656e-08
2.532613594569100519e-08
2.040125563615081422e-08
1.622467183291616948e-08
1.268719010178541717e-08
9.701689771964485128e-09
7.287109669829787792e-09
5.464438928317269574e-09
4.109761244019605010e-09
3.077984192936480841e-09
2.323067919652439553e-09
1.765521330467730363e-09
1.353651845941557381e-09
1.045193645115452483e-09
8.109934416236996344e-10
6.300970122561444718e-10
4.882175283160051886e-10
3.757499471729590942e-10
2.861787660011223412e-10
2.150044889592990504e-10
1.589403316813082030e-10
1.153948841773913027e-10
8.218590963976331532e-11
5.739257792439786038e-11
3.930515884382447619e-11
2.642040702937301552e-11
