# bin_12_2
2.370872292352294876e-08
2.027677331786313313e-08
1.691866604894976956e-08
1.384333176037819110e-08
1.116856931037372233e-08
8.903048428858064361e-09
6.981195439900055281e-09
5.353181173104154436e-09
4.037863539733077092e-09
3.050488272568243007e-09
2.314980224399195428e-09
1.755231876846899636e-09
1.345286771542483701e-09
1.040746483484063424e-09
8.134764395855468716e-10
6.406996136485850008e-10
5.066940599732815766e-10
4.005285318961789243e-10
3.149572522459503750e-10
2.452799938364450299e-10
1.884295672978073587e-10
1.423337704939882354e-10
1.054560723966178374e-10
7.651137760412643865e-11
5.431716205569971500e-11
3.773679518121203528e-11
2.568272388525136733e-11
1.715149139018308032e-11
1.126393071886609878e-11
7.291751200996218879e-12
4.663872873583330054e-12
