# bin_18_9
5.712479222119787327e-08
5.270448476132589408e-08
4.733687639350427897e-08
4.135218507670627937e-08
3.516291857314024028e-08
2.919761204115613301e-08
2.379840104700380827e-08
1.913204849418379807e-08
1.518301095476296590e-08
1.183334014829431144e-08
9.013137279316391929e-09
6.759247874152694440e-09
5.076711490226075655e-09
3.818247800344870048e-09
2.862111184844174847e-09
2.166706224912149586e-09
1.650570847934731305e-09
1.269154485159930955e-09
9.825990002568540456e-10
7.640038791708245014e-10
5.943690735892989906e-10
4.607457444222750411e-10
3.544579091855518993e-10
2.696213934944908108e-10
2.021570107062941073e-10
1.490439130912828574e-10
1.078621913336060974e-10
7.654265883305695308e-11
5.324389239599404810e-11
3.631844255068855470e-11
2.431710623433185324e-11
