# bin_15_12
6.221454341750448670e-08
5.791687050563936188e-08
5.252778623983368999e-08
4.635725887272315775e-08
3.981585488046132463e-08
3.335386854967174069e-08
2.737082755477417994e-08
2.211182456532669646e-08
1.763096192480373556e-08
1.383986964249211584e-08
1.063798423314644795e-08
8.017206922255325515e-09
6.004318903083033110e-09
4.510974891492682419e-09
3.378990352623722852e-09
2.539715798016125897e-09
1.925087273196008810e-09
1.469831546005848767e-09
1.130802894409873672e-09
8.747801869836816271e-10
6.782015307246167169e-10
5.249264679560258058e-10
4.040220681499900199e-10
3.080723954751181411e-10
2.319615498072369022e-10
1.720090310752846273e-10
1.253697000693716415e-10
8.969433741737002282e-11
6.294812941732231146e-11
4.333591960858696755e-11
2.928384464973840657e-11
