# bin_10_5
3.684803591197191405e-08
3.275045652640600104e-08
2.832151385201692290e-08
2.386521731529244573e-08
1.967401702497206005e-08
1.595140388119246694e-08
1.276930582392806527e-08
1.008145763512338884e-08
7.804907618401084105e-09
5.916795078702830751e-09
4.447600875268420208e-09
3.360689465859313579e-09
2.538207309622997005e-09
1.922563187724833491e-09
1.472098370311476815e-09
1.136307967317186748e-09
8.848290572705335047e-10
6.930915278074421093e-10
5.440529011709108550e-10
4.261188845890414403e-10
3.315580329881332527e-10
2.552518066445065044e-10
1.937450917219761825e-10
1.445859751554724200e-10
1.058641830862305039e-10
7.594867479029817074e-11
5.335893826057511945e-11
3.672145645659813146e-11
2.477965156818011298e-11
1.642302257260318672e-11
1.071266005032061826e-11
