# bin_20_12
6.691122265649943112e-08
6.264059350609917258e-08
5.714243429367693963e-08
5.071960203167883940e-08
4.379422589734784635e-08
3.685017284884935415e-08
3.034246491746560657e-08
2.457671979724007449e-08
1.964947105804148751e-08
1.547999450897040007e-08
1.194402379438588077e-08
9.016530550211844941e-09
6.745119725420235755e-09
5.063751048680773416e-09
3.789312595590274945e-09
2.838820649984091792e-09
2.145908717927953275e-09
1.632839583322585076e-09
1.252522420087923053e-09
9.667335820010012429e-10
7.484585335926291224e-10
5.791042026236621073e-10
4.460293485949954301e-10
3.406704541684899071e-10
2.571484918540118442e-10
1.912948034933304200e-10
1.399444280233994473e-10
1.005289696923975483e-10
7.085149025514694919e-11
4.898416337867790864e-11
3.323595542742765258e-11
