# bin_18_4
3.631414107746255806e-08
3.211060380524382041e-08
2.761263590690386304e-08
2.314194968521748692e-08
1.899537888474111740e-08
1.535861806610606705e-08
1.227194875255631898e-08
9.656977798271853854e-09
7.430754849604200801e-09
5.603518898433952467e-09
4.216468181397217426e-09
3.190889184081558948e-09
2.406231867939232666e-09
1.830111560419806488e-09
1.404460997647670222e-09
1.088563495130972645e-09
8.506150012576671826e-10
6.682921928098898482e-10
5.257048301490469484e-10
4.121714596261074092e-10
3.206601566423073681e-10
2.465331801883430036e-10
1.866709793746125636e-10
1.388276902420607042e-10
1.012105979976823964e-10
7.224863414817871395e-11
5.048474514485506317e-11
3.455045584788164478e-11
2.318908620280081288e-11
1.529279260528536685e-11
9.932248980981751779e-12
