# bin_4_3
2.221962745168164261e-08
1.903984271014955070e-08
1.592339748186877904e-08
1.305268643892882075e-08
1.053711986331857531e-08
8.398278082203205285e-09
6.594107793579641439e-09
5.078536045325969320e-09
3.846205171277378509e-09
2.903279175730030393e-09
2.203395183338472099e-09
1.673810380714708937e-09
1.280421808643793760e-09
9.898568993734052849e-10
7.720920125906694268e-10
6.068254607497532012e-10
4.789006786482374698e-10
3.778566845643774734e-10
2.967066326438448927e-10
2.308668962410124790e-10
1.773202812797818888e-10
1.340077764491383867e-10
9.940651779327964416e-11
7.225787856659944315e-11
5.142373790200711938e-11
3.582913420931197123e-11
2.445901235484451467e-11
1.638355890972029499e-11
1.078964443178092272e-11
7.001845323297498141e-12
4.487694763676328943e-12
