# bin_15
0.000000000000000000e+00
0.000000000000000000e+00
0.000000000000000000e+00
0.000000000000000000e+00
0.000000000000000000e+00
0.000000000000000000e+00
0.000000000000000000e+00
0.000000000000000000e+00
0.000000000000000000e+00
0.000000000000000000e+00
1.090699936749623624e-282
5.623619558777003515e-245
4.106966757501476986e-212
1.974217582446267206e-183
2.278753199550631988e-158
1.888939602653187008e-136
2.854569552449136008e-117
1.742449813942255281e-100
8.497548672702725008e-86
5.954757698942735179e-73
9.954917438393749574e-62
6.160292028011120356e-52
2.067334974006220059e-43
5.249145928864321962e-36
1.349313668578929664e-29
4.533281636132163180e-24
2.492067209911909876e-19
2.732954521064918382e-15
7.125475341118776019e-12
5.161530903603046897e-09
1.193751293246006887e-06
9.986526836219930450e-05
3.382698001551708369e-03
5.141071847394025618e-02
3.850398780215028016e-01
1.546821658468100047e+00
3.590118842084096151e+00
5.120028912250435660e+00
4.708824286920676450e+00
2.898399405999493084e+00
1.230338453522937359e+00
3.698551228505598809e-01
8.075305695006514128e-02
1.312732950589372456e-02
1.627909067404800791e-03
1.576579230541000722e-04
1.219421250739430296e-05
7.693163616082840494e-07
4.037648158112382944e-08
1.795440939021707350e-09
6.879849570058146119e-11
2.307393503271995638e-12
6.871073776241302883e-14
1.840788748571401998e-15
4.490585023548467510e-17
1.008619836769312130e-18
2.107078186577192038e-20
4.132326608360124200e-22
7.672931103483931692e-24
1.359440000189598403e-25
2.314641666979359636e-27
3.812085562069358127e-29
6.109222977269453643e-31
9.579045918275097869e-33
1.476853617543607234e-34
2.249115759384174763e-36
3.397466460223537124e-38
5.110001668067684223e-40
7.679259452375143333e-42
1.156719896970510853e-43
1.751478018023716803e-45
0.000000000000000000e+00
0.000000000000000000e+00
0.000000000000000000e+00
0.000000000000000000e+00
0.000000000000000000e+00
0.000000000000000000e+00
0.000000000000000000e+00
0.000000000000000000e+00
0.000000000000000000e+00
0.000000000000000000e+00
0.000000000000000000e+00
