# bin_12_11
6.013916322089809898e-06
6.693198584701019375e-06
7.301440704933518762e-06
7.767161746397361661e-06
8.001986697470908944e-06
7.940091064367206774e-06
7.470509163568886152e-06
6.639741483914624439e-06
5.578784645049457353e-06
4.560746976635261537e-06
3.825663032003947392e-06
3.313576954536081188e-06
2.649577962616123195e-06
1.836952227173044358e-06
1.435353392596994930e-06
1.059872588767335503e-06
7.511288129722285546e-07
5.253108121084572924e-07
3.806206633752365477e-07
2.680829917473618388e-07
1.893929864663915173e-07
1.358099693513939904e-07
9.881384255162592859e-08
7.321568197210796919e-08
5.527380208334127790e-08
4.238106800798535278e-08
3.284946829976567025e-08
2.556537379818608655e-08
1.983377338745411329e-08
1.523509611319115805e-08
1.152254303098991625e-08
