# bin_19_15
2.301435375808117367e-08
2.601923793638066494e-08
2.892988867222001353e-08
3.151011172582385060e-08
3.344528105354654396e-08
3.435217612280526398e-08
3.394690085412788123e-08
3.176569468690381348e-08
2.808786490688526421e-08
2.348982824753303598e-08
1.920583711069834979e-08
1.619560303670205746e-08
1.401970871900430476e-08
1.102392045642965862e-08
7.603047042145595429e-09
6.042379645541137363e-09
4.320071238011748660e-09
3.119262903897359823e-09
2.115659595924395084e-09
1.510282326757876051e-09
1.045960983696978072e-09
7.225439120912380246e-10
5.033044711880000705e-10
3.537976728479986896e-10
2.527888379908894084e-10
1.841521362310647590e-10
1.368106963143697898e-10
1.035202019222120857e-10
7.938373607453874394e-11
6.128557211940091598e-11
4.727327564781681611e-11
