# bin_20_3
6.267511951337085168e-71
7.029726509294204742e-71
7.741754782144292778e-71
8.333530745481366607e-71
8.716069099665620512e-71
8.802609596574799435e-71
8.488462117260983985e-71
7.724729152150008891e-71
6.646946115355971565e-71
5.465185047405063878e-71
4.503418218081328036e-71
3.877729507461764055e-71
3.270210094993561061e-71
2.376354128904665981e-71
1.707124468408214887e-71
1.376838654903810911e-71
9.127200280063136332e-72
6.901355350920825997e-72
4.793729421417511884e-72
3.323503975594868878e-72
2.333833502211427350e-72
1.642410545488340299e-72
1.169442205313923248e-72
8.452598206440908762e-73
6.231196280444455746e-73
4.680488813946796752e-73
3.572946597514467479e-73
2.758443050859167811e-73
2.138800391281303629e-73
1.653382250991994184e-73
1.265614740283355329e-73
