# bin_12_2
6.116196148022815844e-38
6.681072593946282988e-38
7.121832661879273624e-38
7.358610815313081356e-38
7.329433531047390825e-38
6.932663602304163722e-38
6.192937733008713498e-38
5.229244769768340087e-38
4.276686783023717096e-38
3.569157602049747824e-38
3.089777498809478355e-38
2.507460680370748051e-38
1.755153493449073102e-38
1.346428356404792857e-38
1.023138190961316625e-38
7.146934915997747494e-39
5.158768795426089512e-39
3.756025043310035841e-39
2.681953104232017007e-39
1.932076352304101396e-39
1.415423632456979090e-39
1.055115693884974260e-39
8.008180384128922705e-40
6.178734140863897195e-40
4.821385943481231521e-40
3.781424690199207850e-40
2.960039211019372707e-40
2.296571386851107523e-40
1.755545747183735889e-40
1.315718485611445457e-40
9.630847040009010386e-41
