# bin_19_6
9.570840362961387647e-42
1.073127878820903592e-41
1.181351880590877878e-41
1.271026156585762878e-41
1.328541420106533703e-41
1.340788941194927106e-41
1.291585412066785304e-41
1.174113216980378828e-41
1.009181957729742730e-41
8.293782686371612515e-42
6.838327765159387240e-42
5.891992959541862143e-42
4.960037080821303125e-42
3.593682891205275002e-42
2.590681309977914413e-42
2.084360781172031105e-42
1.382878610578632504e-42
1.043777527430162211e-42
7.264985197731917909e-43
5.038863980631691678e-43
3.538163940757516266e-43
2.490963154391142740e-43
1.775254094407605756e-43
1.284604791994677507e-43
9.480917096574439101e-44
7.128987233282601922e-44
5.446704464805272175e-44
4.207314618355273956e-44
3.262813051173001632e-44
2.521891327414998378e-44
1.929558555354170393e-44
