# bin_15_10
4.947339723035213364e-11
5.528831353527529445e-11
6.061755493817649233e-11
6.489100217763837265e-11
6.739184671958839539e-11
6.751605628674049317e-11
6.435278229231336890e-11
5.789469318643789059e-11
4.922874386398996789e-11
4.031845726290330253e-11
3.347539310105295909e-11
2.897240060433663084e-11
2.389790474154660844e-11
1.688237046656986306e-11
1.262445339282881537e-11
9.823303482171322639e-12
6.655759799684079399e-12
4.876267556961939757e-12
3.468117589031228635e-12
2.420010964647501078e-12
1.699453781016830140e-12
1.204993915467119006e-12
8.670077690593121163e-13
6.344544087707671893e-13
4.734269178088663437e-13
3.594789339583380989e-13
2.767379507622597261e-13
2.147068755105586431e-13
1.666719088632122148e-13
1.285352004313577828e-13
9.786206983996716317e-14
