# bin_13_7
1.099462694117937456e-14
1.217127260049907896e-14
1.319042544868102701e-14
1.391751552895579883e-14
1.419789746256956322e-14
1.390247686682226950e-14
1.286849878549970964e-14
1.126350088576796629e-14
9.346601215180776784e-15
7.650253375910377237e-15
6.503683162617308180e-15
5.597026432185159702e-15
4.275486492909360258e-15
2.969589125761495282e-15
2.409076653510902671e-15
1.658964285918544766e-15
1.248389482545409252e-15
8.555754948125182459e-16
6.107641038190645152e-16
4.363141785470379919e-16
3.133956940239039553e-16
2.275545888153732798e-16
1.677749867943047330e-16
1.261077578158332100e-16
9.641836168652055377e-17
7.465527207431452331e-17
5.820433450017801155e-17
4.536280303753086215e-17
3.509776959373959260e-17
2.679142635654570368e-17
2.007860306812217021e-17
