# bin_14_7
1.457323925958785406e-17
1.617480367415999159e-17
1.758521378855328572e-17
1.862839067508042507e-17
1.909274881986653592e-17
1.881781087996388107e-17
1.755551530303828121e-17
1.548037685609638515e-17
1.291758341581994800e-17
1.056128314875710482e-17
8.921173183328420184e-18
7.711393064508056664e-18
6.022912429561232153e-18
4.164182361738074611e-18
3.331187470000229888e-18
2.368570410055316045e-18
1.737345403236526134e-18
1.192089902215717533e-18
8.607667546281983321e-19
6.107173080531135361e-19
4.352232493238719753e-19
3.142178646642198794e-19
2.302099273216880314e-19
1.718856314267824246e-19
1.306594939905550163e-19
1.007279634283408714e-19
7.833988322718604055e-20
6.103320551464567387e-20
4.729490875490617049e-20
3.621652920965673715e-20
2.726413135404599911e-20
