# bin_9_8
6.280075691509377911e-06
6.889464434998474189e-06
7.383192576804093519e-06
7.680905888514227549e-06
7.711712026689219277e-06
7.375613580612601204e-06
6.658415017342938453e-06
5.682745098640221952e-06
4.658737447871479975e-06
3.856336766482125643e-06
3.330555382500583836e-06
2.768549886204627234e-06
1.977832490329317783e-06
1.460906489265335181e-06
1.154981536134064242e-06
7.822588370660675985e-07
5.848316774800589123e-07
4.176730634688282373e-07
2.961262673991159987e-07
2.127234392401115755e-07
1.545881285967462476e-07
1.142905908959247701e-07
8.601524112626699665e-08
6.589467344397767986e-08
5.115543184399995277e-08
4.001139634125624087e-08
3.131676577018754043e-08
2.435320961277530865e-08
1.869833525894824621e-08
1.410024699427146640e-08
1.040000175628457936e-08
