# bin_18_14
1.622273660143832596e-08
1.830150173265438969e-08
2.029620090392870895e-08
2.203619221772520797e-08
2.329720131594313181e-08
2.381599962091347460e-08
2.338356687763490109e-08
2.170893186601285180e-08
1.905453336345615089e-08
1.584156677347445988e-08
1.296318141395418945e-08
1.100370618083186389e-08
9.492092416364722435e-09
7.296209742004687574e-09
5.044150836230811557e-09
4.076287689009818941e-09
2.811625862169757512e-09
2.091685513037048106e-09
1.409399974004184460e-09
9.930920095153985025e-10
6.928767637829505042e-10
4.832006631317179894e-10
3.386836553495924897e-10
2.398666534382777392e-10
1.729701501778572419e-10
1.271970009881085597e-10
9.533225286247899723e-11
7.264660519340688668e-11
5.596168781909373088e-11
4.327311695757756324e-11
3.333773100111244820e-11
