# bin_20_19
6.767141801369845383e-06
7.683291466277116091e-06
8.588120921680422376e-06
9.414972516902591850e-06
1.007438561886042684e-05
1.045387859238412630e-05
1.046128152748000056e-05
9.952246213749621628e-06
8.936643279099691642e-06
7.583306592724965414e-06
6.208750584414189007e-06
5.165652771581174117e-06
4.475511464079774247e-06
3.672969029986731568e-06
2.578264006008880326e-06
1.941994386067339082e-06
1.493002438109467247e-06
1.011110082282240787e-06
7.271029936040258092e-07
5.128333860925833160e-07
3.509658456567496834e-07
2.396951584486234507e-07
1.644598298963358963e-07
1.137709550218737679e-07
7.965091528291757964e-08
5.677012515028405463e-08
4.126736977962484443e-08
3.062971858534638621e-08
2.315440970582396030e-08
1.773545495717937674e-08
1.366669077407188962e-08
