# bin_12_4
2.011994746703908761e-24
2.206736066619242261e-24
2.364222063787795840e-24
2.458678992431220919e-24
2.467536549974127755e-24
2.358581567287173619e-24
2.127954859178836780e-24
1.814999477551550291e-24
1.487607110568128384e-24
1.231855868740503178e-24
1.064228406639695484e-24
8.836666255089171758e-25
6.302912904599335414e-25
4.665428510507545294e-25
3.682159913888579670e-25
2.496242503326967366e-25
1.863654724095546508e-25
1.332579863313967919e-25
9.450643143213459662e-26
6.788945906328835110e-26
4.935192240941815616e-26
3.650388812075170225e-26
2.748662990550283969e-26
2.106613150672797598e-26
1.635946875340149049e-26
1.279815221342194918e-26
1.001754910621556534e-26
7.789335355116003079e-27
5.979330568321970602e-27
4.507512892004449929e-27
3.323269230175618656e-27
