# bin_15_5
4.135690283289630346e-31
4.588651149163478648e-31
4.986713136333846906e-31
5.279818811840757553e-31
5.408098908899957701e-31
5.325762322541507017e-31
4.963412719425644548e-31
4.372521330017640597e-31
3.645812952879622573e-31
2.981050515912295434e-31
2.520252544677431900e-31
2.177568043383929114e-31
1.695822052117920094e-31
1.172736840142873762e-31
9.403002580469630638e-32
6.655809372437506791e-32
4.901043623221747485e-32
3.359302518263067394e-32
2.422600346531232025e-32
1.720458723725456619e-32
1.227469958427795322e-32
8.868773305441055098e-33
6.503045366309560494e-33
4.859845662656985370e-33
3.697154210794849683e-33
2.851941509418079928e-33
2.218857222235020097e-33
1.728813911833320055e-33
1.339430004591959244e-33
1.025273052636233486e-33
7.713902690436863047e-34
