# bin_16_8
9.520539287524395538e-20
1.063082330267766987e-19
1.164381119334013588e-19
1.244906098390620913e-19
1.290794358632655054e-19
1.290760934976454671e-19
1.227062072989634485e-19
1.101194813234229296e-19
9.339741150481985238e-20
7.644940392406174788e-20
6.359860660049179011e-20
5.507431049834234307e-20
4.517174688474895901e-20
3.174955402393266558e-20
2.395899974022652510e-20
1.846278037137681759e-20
1.260394960964677387e-20
9.147882073887584768e-21
6.540826750286060791e-21
4.572020757426454396e-21
3.212108016455208222e-21
2.282585903788945999e-21
1.646211422787851398e-21
1.207828317583525151e-21
9.035478714511888036e-22
6.875622146157550302e-22
5.301499031741958053e-22
4.116550626409807763e-22
3.195689555658553082e-22
2.462762017899987128e-22
1.872646363800746628e-22
