# bin_9_9
1.148938407228832608e-05
1.264001762377392149e-05
1.359356847864023151e-05
1.420518913940157965e-05
1.433482022406361646e-05
1.381196554688206392e-05
1.256136702718847124e-05
1.080271205398073067e-05
8.880190456721003144e-06
7.316987029902090782e-06
6.296669519607741340e-06
5.305237389426461226e-06
3.860522417858182477e-06
2.781926035581974414e-06
2.243350804808492352e-06
1.503456584509337998e-06
1.142015079233445028e-06
8.041066177666374790e-07
5.682762658284276645e-07
4.080957943448286985e-07
2.954259325185681876e-07
2.172037089103016664e-07
1.624796913417108262e-07
1.238146305169321724e-07
9.573214237947218855e-08
7.469469348529505282e-08
5.842849370067078958e-08
4.548882867119972956e-08
3.502029401051820335e-08
2.651306502881081136e-08
1.965385911640493203e-08
