# bin_16_13
1.867899282555910244e-07
2.099170057722586302e-07
2.317296295417264085e-07
2.501773603033474724e-07
2.626320729737506795e-07
2.663393441017489236e-07
2.584417579961347782e-07
2.367356979194506866e-07
2.050688185034943797e-07
1.691295100344183921e-07
1.389203639100849110e-07
1.191167312416379303e-07
1.014390986518002545e-07
7.507550863777284095e-08
5.293697414966543887e-08
4.311264662970022446e-08
2.861560948760066440e-08
2.175443779982817279e-08
1.492663890750991418e-08
1.034278305252047544e-08
7.264346657942013569e-09
5.104108783546110062e-09
3.615052797877212913e-09
2.595081880636593853e-09
1.899668549224218601e-09
1.417591430892443326e-09
1.076285139380710632e-09
8.279666436517916904e-10
6.410546140148728238e-10
4.959092412354384188e-10
3.805756668314617487e-10
