# bin_15_11
4.816946702804975847e-09
5.390882760180832219e-09
5.920965540253700907e-09
6.352338755838831392e-09
6.615824736202359247e-09
6.649471103674375295e-09
6.367251407706744927e-09
5.753737700999905558e-09
4.915119635999996849e-09
4.030610030772503903e-09
3.335762267996113656e-09
2.882625639382955541e-09
2.400022369568872391e-09
1.712683780229583368e-09
1.260394264764182701e-09
9.964245163742587516e-10
6.676143363496241753e-10
4.964614295087769536e-10
3.497222177495068429e-10
2.433355973357322102e-10
1.708378163007496949e-10
1.207031292865898522e-10
8.648573274070691385e-11
6.298705622469909028e-11
4.678386413814928882e-11
3.538004834536563857e-11
2.715327965353275853e-11
2.103122957989686439e-11
1.632192337624974825e-11
1.260105722505632668e-11
9.615148814749267665e-12
