# bin_3_1
5.072044018441996937e-07
5.099494748044718525e-07
4.894364162303623523e-07
4.438703400530177305e-07
3.808500420983948072e-07
3.131102954955075382e-07
2.583762208976526033e-07
2.218323871902000820e-07
1.857026735387337434e-07
1.358158510990453547e-07
9.916026258930478318e-08
7.912654240386142878e-08
5.492762174806142442e-08
4.169742182332001302e-08
3.025531967507215746e-08
2.227864247122869031e-08
1.670899379796880732e-08
1.274535955933263278e-08
9.902972828157116217e-09
7.815709246901906953e-09
6.235454098365607819e-09
4.991690834890264828e-09
3.979823833914341407e-09
3.138013181620440309e-09
2.431322880878234039e-09
1.841410775213867953e-09
1.358172749350612475e-09
9.738931864190618999e-10
6.793045881953914424e-10
4.619568701560575386e-10
3.072890336177710875e-10
