# bin_17_17
9.301572763159051188e-06
1.051362197642349753e-05
1.168646659742995869e-05
1.272440082362312297e-05
1.350009039161861284e-05
1.385892469375906698e-05
1.368596723322150670e-05
1.279558911976106330e-05
1.130507703333427519e-05
9.447946491358976776e-06
7.725122394580357833e-06
6.518989248648059543e-06
5.641785862933673077e-06
4.425278662631229812e-06
3.051718047333373820e-06
2.430801338502873791e-06
1.730878094000635877e-06
1.254362477833906851e-06
8.492782541346461156e-07
6.057143788887101858e-07
4.198099747606999712e-07
2.903096788774811945e-07
2.023662305128932603e-07
1.423700566501872962e-07
1.018290935915854770e-07
7.426051505645966266e-08
5.522638210895725964e-08
4.182358163337030238e-08
3.209056554393034945e-08
2.478057885275229883e-08
1.911320778585319045e-08
