# bin_20_4
8.910801000654041299e-62
9.999073731626721617e-62
1.101803957453355010e-61
1.186848553900676726e-61
1.242416667821315179e-61
1.255988261820169288e-61
1.212946514897252677e-61
1.105489077690579691e-61
9.527238007708954306e-62
7.838570069705694432e-62
6.453831775676803768e-62
5.552063868705138621e-62
4.693746456915705602e-62
3.425042620106781356e-62
2.448684703451974274e-62
1.981224923082408842e-62
1.312250649131672273e-62
9.944504350571558150e-63
6.887843598492817048e-63
4.773006034359881807e-63
3.352015256428924128e-63
2.357734331974877153e-63
1.676648374823014672e-63
1.209920293622591715e-63
8.905016386268790271e-64
6.678935366416203588e-64
5.092315925225753840e-64
3.928413722757582488e-64
3.045111140199595130e-64
2.354496554600160872e-64
1.803432490464194772e-64
