# bin_15_3
2.287441690440974367e-45
2.531660043576217471e-45
2.742868839010576778e-45
2.893039931217705237e-45
2.950122572838130492e-45
2.887047777780701855e-45
2.670495670148236649e-45
2.335878877679302791e-45
1.937479252178265508e-45
1.586069005433328363e-45
1.349086128171732775e-45
1.160408729276201593e-45
8.847151239882865305e-46
6.149238438061839205e-46
4.992701621544011800e-46
3.429864297341416979e-46
2.585389498226628121e-46
1.772812759138206768e-46
1.264294605002689624e-46
9.036284238490522821e-47
6.494088697144652558e-47
4.717605002472772835e-47
3.480201738938637150e-47
2.617363035661421373e-47
2.002121010146838648e-47
1.550754817144895323e-47
1.209253129388658745e-47
9.424627078661143348e-48
7.290820528896321005e-48
5.563735811727097174e-48
4.168021746285789369e-48
