# bin_14_17
3.691318276110484902e-08
4.145702905673075748e-08
4.572683983223301989e-08
4.931467221203477640e-08
5.169927748181948271e-08
5.235056076129663175e-08
5.068034525753731894e-08
4.631560893752326048e-08
4.002432957026893256e-08
3.297673306588701599e-08
2.712012808444470327e-08
2.328672439931709970e-08
1.975664286259393299e-08
1.453071958686065403e-08
1.031985904585509853e-08
8.365048809591777735e-09
5.559222921562980866e-09
4.212142915669305493e-09
2.902718692641302506e-09
2.013052898607933080e-09
1.413532438079316696e-09
9.937818840355951656e-10
7.053689076273025363e-10
5.074063689038191865e-10
3.724439129273871767e-10
2.786009633617748012e-10
2.119347981836464545e-10
1.632540551689242914e-10
1.264701112784634999e-10
9.781417132507508540e-11
7.500094969071651487e-11
