# bin_9_10
2.792732716604645363e-08
3.071536564821684577e-08
3.301922161231212407e-08
3.448596816818988448e-08
3.477934212792362047e-08
3.348038326799767659e-08
3.042603509195563567e-08
2.614530048386632691e-08
2.149035526738904124e-08
1.771928231509763804e-08
1.525019648749580086e-08
1.282435513547345223e-08
9.320264033711146845e-09
6.737632401865745542e-09
5.411334682855737594e-09
3.639822151465948313e-09
2.753880971929690759e-09
1.941545995141043627e-09
1.373278582486425015e-09
9.859728942611428698e-10
7.140605403735772429e-10
5.252433594934474283e-10
3.929351550339409431e-10
2.995524348196199346e-10
2.316579580261849728e-10
1.807615955774352446e-10
1.413960985351052391e-10
1.100709921139191120e-10
8.472463989610034657e-11
6.412877930573689065e-11
4.752594158066429074e-11
