# bin_10_11
2.408209730322311233e-08
2.662734817270272476e-08
2.881296043008113628e-08
3.034240402423817640e-08
3.088679655736934982e-08
3.014529833390022764e-08
2.780260531633149249e-08
2.424864552133368823e-08
2.008095546870687432e-08
1.645468571902500669e-08
1.402515847145717088e-08
1.202470041889497796e-08
9.096175716154346627e-09
6.355635953778513617e-09
5.160762207288616096e-09
3.524627149016009496e-09
2.663346403867392791e-09
1.834833664811902077e-09
1.305226250227889390e-09
9.336194507689358874e-10
6.715825117239111758e-10
4.888155428615634574e-10
3.612449273062738504e-10
2.722703445623295025e-10
2.086402873225675912e-10
1.617937613869618219e-10
1.262373168373011383e-10
9.837970245207684527e-11
7.605591200407593160e-11
5.797419332085893118e-11
4.336556723648985272e-11
