# bin_11_18
9.798391876818773847e-08
1.089640844650701986e-07
1.187434970396416808e-07
1.261519358261274655e-07
1.297602479831068724e-07
1.284793208918670013e-07
1.205653065834341430e-07
1.069034261540784806e-07
8.964713118304485955e-08
7.330210643083185141e-08
6.161694478362724759e-08
5.331704649986451130e-08
4.232678737096951489e-08
2.935965983566117261e-08
2.307624451729351880e-08
1.685188553616044782e-08
1.206214072818434230e-08
8.406278137212422466e-09
6.072238831992609514e-09
4.286053425893051855e-09
3.036723116193474132e-09
2.181685334661813144e-09
1.590206742271302705e-09
1.180819912245385572e-09
8.933217589256374047e-10
6.859981263914491372e-10
5.322307088265218684e-10
4.143471421601123757e-10
3.213528985353507622e-10
2.466358650865175846e-10
1.863014350714215919e-10
