# bin_7_8
3.926941735804611053e-08
4.259666585825000932e-08
4.501057392500972642e-08
4.601328244487808907e-08
4.519168914550256073e-08
4.200307198962768991e-08
3.691057937845984002e-08
3.073636389812752773e-08
2.514754457249661688e-08
2.128390339337055388e-08
1.833130462226120871e-08
1.420634033147645659e-08
9.897957454259057874e-09
7.933202455666670084e-09
5.628249985160557942e-09
4.170616951945347728e-09
2.915365431678794223e-09
2.120279468841261368e-09
1.533878395308189987e-09
1.119648782334412152e-09
8.304135462381291134e-10
6.262074664427179975e-10
4.808371592378577355e-10
3.744330765431938030e-10
2.939106141855835815e-10
2.310411267957539289e-10
1.805905334711459833e-10
1.394448282179383687e-10
1.057813745269304520e-10
7.848659566214895304e-11
5.677638454158968500e-11
