# bin_19_13
1.215776980705240918e-16
1.373370337250392042e-16
1.525382600897899255e-16
1.659199911855641834e-16
1.758116380549096021e-16
1.802090830232452421e-16
1.775850712820790212e-16
1.656020861067209815e-16
1.459634688461025369e-16
1.217434260535191850e-16
9.956325665630638632e-17
8.419984118693451148e-17
7.279813696403800051e-17
5.667955981762297256e-17
3.910204106668394115e-17
3.133149896332691244e-17
2.204465187984061429e-17
1.614157528533271692e-17
1.089300676251674188e-17
7.739191666616852452e-18
5.376853763318975868e-18
3.730309099737101285e-18
2.606237587340265307e-18
1.837530425262500652e-18
1.318479077665449220e-18
9.647362052489407999e-19
7.196104505434530086e-19
5.463307299053403297e-19
4.198957131277196654e-19
3.244709109531183593e-19
2.501964677215566026e-19
