# bin_7_11
1.176398978186725605e-07
1.278147398395735942e-07
1.353320154414145828e-07
1.386851719827348110e-07
1.366583715769239352e-07
1.275334573738125518e-07
1.125055370177215734e-07
9.398152966986101070e-08
7.687270009892091467e-08
6.484863326688423225e-08
5.594190179647658519e-08
4.383673800636078722e-08
3.054174392345775613e-08
2.425285027009731741e-08
1.748237810899577484e-08
1.278244283841009579e-08
8.985442599493364639e-09
6.543237633629215469e-09
4.718920744131802381e-09
3.433562342174630494e-09
2.539254258616387653e-09
1.909575475203645809e-09
1.462294959642670065e-09
1.136337409880211704e-09
8.907930283914688575e-10
6.999290428219615517e-10
5.473250532591490870e-10
4.231297809175998473e-10
3.215845414014531823e-10
2.391909347834924606e-10
1.735251928940268720e-10
