# bin_18_1
2.401193948124418906e-86
2.681090616513117458e-86
2.936227546536645817e-86
3.138720299579159059e-86
3.253568273002717495e-86
3.252477788357873397e-86
3.090553305567783942e-86
2.772515990215716369e-86
2.350515867380786548e-86
1.923880885056288382e-86
1.601019339141314176e-86
1.386449749575732767e-86
1.136001188598103652e-86
7.979550542621676267e-87
6.030227176047891897e-87
4.638845574896405639e-87
3.171426866444373575e-87
2.297973260388173591e-87
1.644159208886099294e-87
1.149555474043508971e-87
8.077298073869003146e-88
5.741702213734978676e-88
4.142431050956891059e-88
3.039976991080212475e-88
2.275355703754921596e-88
1.731997130615842235e-88
1.335804257268382061e-88
1.037441580225108340e-88
8.054464888890743617e-89
6.207269353236687020e-89
4.719713390321833976e-89
