# bin_15_4
7.519091030318208175e-43
8.341982750551076697e-43
9.064325533127037916e-43
9.595046666742870629e-43
9.825640179039200159e-43
9.672048988922730071e-43
9.009558826635336811e-43
7.933446360929574595e-43
6.612602876168829319e-43
5.407162775345093107e-43
4.573154865933525289e-43
3.950289080416756094e-43
3.072183479207305813e-43
2.125091562290063070e-43
1.705339308330034871e-43
1.204602141217457267e-43
8.883961853053421811e-44
6.088588230718193673e-44
4.386864811989465272e-44
3.116492672379447819e-44
2.224311114649851585e-44
1.607662996072993912e-44
1.178767623392662330e-44
8.812051538974756107e-45
6.706174723077240158e-45
5.173994258361501460e-45
4.026109697225278799e-45
3.137287325922560018e-45
2.430783888527751547e-45
1.860661169647032982e-45
1.399878213159715420e-45
