# bin_17_17
4.911024734657622463e-09
5.550410401760854307e-09
6.168536020353388446e-09
6.714737125104501273e-09
7.121727201290912034e-09
7.308196912147608755e-09
7.212791606217330567e-09
6.738883425970066606e-09
5.950261023007214786e-09
4.970412948661265370e-09
4.064477905199717882e-09
3.431796928932614256e-09
2.968813766323060840e-09
2.324275265670509773e-09
1.603648101276678161e-09
1.278676034530762556e-09
9.079049429617014898e-10
6.593970954192209269e-10
4.465749916057433620e-10
3.180149906777178846e-10
2.205611398540170953e-10
1.526549888699560038e-10
1.064863478195729969e-10
7.494636120881886012e-11
5.365391131876351568e-11
3.916788296605781146e-11
2.915165646150421044e-11
2.209194798544328996e-11
1.695879602099948084e-11
1.309819564208509563e-11
1.010193328442993474e-11
