# bin_8_5
1.123772775634917820e-12
1.215802775578225417e-12
1.280507248882961236e-12
1.304014302614732732e-12
1.273834180303758720e-12
1.176344179530628361e-12
1.027333314419558358e-12
8.515947310996229814e-13
6.974244268159878948e-13
5.933203407369489146e-13
5.090398301816077082e-13
3.874369585516519385e-13
2.710078587153505726e-13
2.195961038054327089e-13
1.521688977927054091e-13
1.148839032441234923e-13
8.012802899391685051e-14
5.795911024892176043e-14
4.212351754366565582e-14
3.090411128176653502e-14
2.301963939573490162e-14
1.743312474093529587e-14
1.344099980783818716e-14
1.049863468408615820e-14
8.255991883486926061e-15
6.493052027646763723e-15
5.070741825519098581e-15
3.907357491139325093e-15
2.954919932447559598e-15
2.183774337560575438e-15
1.572513376837226846e-15
