# bin_3_5
1.716610708037657170e-07
1.764540433919782575e-07
1.746319561908197122e-07
1.640765694205204575e-07
1.457383041819883329e-07
1.226216268860852071e-07
1.004206623351618725e-07
8.412706093603727887e-08
7.240901645865890633e-08
5.790858070290939566e-08
4.104441232376011876e-08
3.172226145630038581e-08
2.381895245671977902e-08
1.711335498375358360e-08
1.251465454543909464e-08
9.205004432665384014e-09
6.774967703276077680e-09
5.066459304906179937e-09
3.859221159076801125e-09
2.992765291342084108e-09
2.356235461332855315e-09
1.873326866237236558e-09
1.492939224279938012e-09
1.184067628315967823e-09
9.281919724305206803e-10
7.147368513138475529e-10
5.379272528411618915e-10
3.943502703015971353e-10
2.811276316541792758e-10
1.950372292911337412e-10
1.319805420844332806e-10
