# bin_10_4
1.308309504221866846e-21
1.424489169686740866e-21
1.512238680085231997e-21
1.554464848151939966e-21
1.538268799676617481e-21
1.442747404639846915e-21
1.278705571897861811e-21
1.071835880463929368e-21
8.760833982281955962e-22
7.361517121212600637e-22
6.368177842171646129e-22
5.057688537463137569e-22
3.513332332999661345e-22
2.766688676216518083e-22
2.030501803272675932e-22
1.462902726502691976e-22
1.030292158704274445e-22
7.542001299769092682e-23
5.419656758425092273e-23
3.926610148431321543e-23
2.894792475857506131e-23
2.170160370436537528e-23
1.656747869590150207e-23
1.284470188857775539e-23
1.005511722753704137e-23
7.897872697015292158e-24
6.180173789227982641e-24
4.785412647387876777e-24
3.645588212233159309e-24
2.719694326393935914e-24
1.979793706481483751e-24
