# bin_2_13
5.676237944963058214e-07
5.701632591014191538e-07
5.468048009984911675e-07
4.959523590749185537e-07
4.257714358204690918e-07
3.507681685094036908e-07
2.899245614821269377e-07
2.481815846518683157e-07
2.067962616269355799e-07
1.523944590175365519e-07
1.116927080094830161e-07
8.792805923702186190e-08
6.212251976824997146e-08
4.656357370676014747e-08
3.383212876504657944e-08
2.499772527178175582e-08
1.873658123431943556e-08
1.428491927035890021e-08
1.109338775388823774e-08
8.748918940086319037e-09
6.975541189357567088e-09
5.580819572662388040e-09
4.447241166784094328e-09
3.505318793768617330e-09
2.715527169603731308e-09
2.056897196108667089e-09
1.517791070509060182e-09
1.089188463538095296e-09
7.604553798709322937e-10
5.176776127749528494e-10
3.446908867929255982e-10
