# bin_12_18
7.871590691599101590e-08
8.786919204067305226e-08
9.620138741592841161e-08
1.027968609101932682e-07
1.065089461670217354e-07
1.064102218734610292e-07
1.010427211257049774e-07
9.059118837212894421e-08
7.676648502042862124e-08
6.283961511247866171e-08
5.232680902379409977e-08
4.529774063018207328e-08
3.704054089813870616e-08
2.602657064553381531e-08
1.970432672193906211e-08
1.510964833422299612e-08
1.036585347536935352e-08
7.492947973890207378e-09
5.359302796526978753e-09
3.749152467708906226e-09
2.636642527657461735e-09
1.875461343178160911e-09
1.353670567607844949e-09
9.939160100804377584e-10
7.442534337799157189e-10
5.667149062939766570e-10
4.371555284017293855e-10
3.395095744437883169e-10
2.635402119329776342e-10
2.030356643356152554e-10
1.543142695117938449e-10
