# bin_5_6
5.966078205020141667e-08
6.337725876748425351e-08
6.523291173077495609e-08
6.466348734618930836e-08
6.082509902073289708e-08
5.406872539689028507e-08
4.547849460408933031e-08
3.720439045538528630e-08
3.116332710524677609e-08
2.690705310604297728e-08
2.155582021000721800e-08
1.514025698109560215e-08
1.175018274627716333e-08
8.794443918357961873e-09
6.285646274983296901e-09
4.542880222288055276e-09
3.330105965660376651e-09
2.421163859321113197e-09
1.783210572045881053e-09
1.336984081909049357e-09
1.020583808858088145e-09
7.922668923084156199e-10
6.229210642454128034e-10
4.927054791254388686e-10
3.893441154016580712e-10
3.052373926033153121e-10
2.358761728319421785e-10
1.787000404862769523e-10
1.321649279709759000e-10
9.515412259330580577e-11
6.664899774341989653e-11
