# bin_6_13
2.011711998727990302e-07
2.166928228570130432e-07
2.269719793607088274e-07
2.297071306190230353e-07
2.223662679076575932e-07
2.033653210987992147e-07
1.759003287239648094e-07
1.450893997602917454e-07
1.192835859114373899e-07
1.021216568635565242e-07
8.656667776825650399e-08
6.424711420095595561e-08
4.585684293922662799e-08
3.697372756971998489e-08
2.532571692541925561e-08
1.918983599049545235e-08
1.355166901922234556e-08
9.761285698142773330e-09
7.117324893267917272e-09
5.247325492016334100e-09
3.932469659710224469e-09
2.997315329388369240e-09
2.323685304528357268e-09
1.821972788515734081e-09
1.435541983053694518e-09
1.128862749858329620e-09
8.797573991482715292e-10
6.753684988006969408e-10
5.081026449641558120e-10
3.731358489346590307e-10
2.668392686403140986e-10
