# bin_7_6
2.019907845372019231e-09
2.181156793945282924e-09
2.291751359364509323e-09
2.327472279920243505e-09
2.264598040021831129e-09
2.081956637185118891e-09
1.810272142243361813e-09
1.496595884765773835e-09
1.227246848795699790e-09
1.047497887206885345e-09
8.948703578020992043e-10
6.728002459508654642e-10
4.737581865727721684e-10
3.847462262402329166e-10
2.636706302907174804e-10
2.004838989808774428e-10
1.403692873891275102e-10
1.011484164199148624e-10
7.368197964461289098e-11
5.420680459614854674e-11
4.049163458416539849e-11
3.075564851494658908e-11
2.377573849241599432e-11
1.860644459661493486e-11
1.464718676238701559e-11
1.152071273374508233e-11
8.989825985018913335e-12
6.916217235420619612e-12
5.218443640280252798e-12
3.845625496085593802e-12
2.760384116386491496e-12
