# bin_1_10
6.853834896263415476e-07
6.615469909831530787e-07
6.047260696851305637e-07
5.234024879523582752e-07
4.335353269450747232e-07
3.575216230678751314e-07
3.041574617975651046e-07
2.553460748661966105e-07
1.926287340257056088e-07
1.399365406590185163e-07
1.097071199080465957e-07
7.908599053650599790e-08
5.882706149108199975e-08
4.302077509494077610e-08
3.202122386430979319e-08
2.412618379625995196e-08
1.850744200057245216e-08
1.446520393612400269e-08
1.147910128213175787e-08
9.201169940912697566e-09
7.394044708858535350e-09
5.911933819398068456e-09
4.670375795668122611e-09
3.622835805686993454e-09
2.745684316696316513e-09
2.026242667966624544e-09
1.454186222526694768e-09
1.015596259910510613e-09
6.918264434130587123e-10
4.610982590632113322e-10
3.016963090607615967e-10
