# bin_9_3
1.630545135076412713e-22
1.760445133139728916e-22
1.849355466549386512e-22
1.877746064804663032e-22
1.826392930070525551e-22
1.678267946259189512e-22
1.458577427096953315e-22
1.205287142415342178e-22
9.883113352754489707e-23
8.439939326103364537e-23
7.210397616447082944e-23
5.411992362145543768e-23
3.809592627690744395e-23
3.100474148534775092e-23
2.116934381468572496e-23
1.614594970062582053e-23
1.130145700768321197e-23
8.133503504711967002e-24
5.928497530908463512e-24
4.363831519226040958e-24
3.260781046112208952e-24
2.477548003318735737e-24
1.915925289550945193e-24
1.499762234637274069e-24
1.180835583104344121e-24
9.288539471233246279e-25
7.247812363850267092e-25
5.575345286553183867e-25
4.205849844628981910e-25
3.098512545204230455e-25
2.223301716690130262e-25
