# bin_5_20
3.398031555571332958e-07
3.620525200560085965e-07
3.740513606194032729e-07
3.725080469335059032e-07
3.525661170403779377e-07
3.152666378772715140e-07
2.666746724001931554e-07
2.183521818938739918e-07
1.820506752734451639e-07
1.571422040434641894e-07
1.277008298532879430e-07
9.042296201548498939e-08
6.887749870800473971e-08
5.267050996755510929e-08
3.702347580872100774e-08
2.713936326310201797e-08
1.977027373398716780e-08
1.431897938010128438e-08
1.051641899695643945e-08
7.853791278232687616e-09
5.972233778957528312e-09
4.619211226814819988e-09
3.622256153424536291e-09
2.860783425147243914e-09
2.260020253235800167e-09
1.773494844773136429e-09
1.373292360620517486e-09
1.043535737699600732e-09
7.747038080145607039e-10
5.601357131026394051e-10
3.940473888545648049e-10
