# bin_2_4
2.306262905215748406e-07
2.309746785695184958e-07
2.206140666310015820e-07
1.992542612062543085e-07
1.703608960847648296e-07
1.401174989424047442e-07
1.160635232028435622e-07
9.952022891049056488e-08
8.237372290311840438e-08
6.017444496651532475e-08
4.449941753692425666e-08
3.485363595471182711e-08
2.461484481923801335e-08
1.843970750992726196e-08
1.343804293866270446e-08
9.933509696248665472e-09
7.459824300716391885e-09
5.700768459951641902e-09
4.436976919637707347e-09
3.505861998192433289e-09
2.798653127055425341e-09
2.240071180023856285e-09
1.784500507393623774e-09
1.405087532649936488e-09
1.086683313048307253e-09
8.213177533933895758e-10
6.045358255653123696e-10
4.326912363582272598e-10
3.013517680281418587e-10
2.046931030287313504e-10
1.360403314013673620e-10
