# bin_7_13
1.544852116677842794e-07
1.678854504378348132e-07
1.778104366110778333e-07
1.822793244339355856e-07
1.796985570451175352e-07
1.677961733228144154e-07
1.481046359885580588e-07
1.237752299859203227e-07
1.012401447949079342e-07
8.536517012951523367e-08
7.365515439782758849e-08
5.780593435641165198e-08
4.027767301575296331e-08
3.194016874659176126e-08
2.307532729565470107e-08
1.683998094378071382e-08
1.184835182244411086e-08
8.628772751470729012e-09
6.220287184927295379e-09
4.524016666075865628e-09
3.344319362470543571e-09
2.514022177649664064e-09
1.924413664391220366e-09
1.494998136329349526e-09
1.171728046594371319e-09
9.206058354463447398e-10
7.199282247965564456e-10
5.566592785615466841e-10
4.231797527769841313e-10
3.148643875098612741e-10
2.285159670232893812e-10
