# bin_6_17
2.531778712391183019e-07
2.727571352435533111e-07
2.857552259536671715e-07
2.892673334633996113e-07
2.801198146916441277e-07
2.562793234253120728e-07
2.217508326066454577e-07
1.829439927044779352e-07
1.503825542681325419e-07
1.287152882959659749e-07
1.091609316041270012e-07
8.109584809870157783e-08
5.783731556076739765e-08
4.664259233386815272e-08
3.196263964493866201e-08
2.421527920717500610e-08
1.709315477797009511e-08
1.231392521272575477e-08
8.977345611212128042e-09
6.617301378944100055e-09
4.957968090880812898e-09
3.778003382264255289e-09
2.928294453249216524e-09
2.295700658286625938e-09
1.808660916054238671e-09
1.422278186750150037e-09
1.108513554058858866e-09
8.511025486483492152e-10
6.404418423005538308e-10
4.704375046635821621e-10
3.365131978363688963e-10
