# bin_2_14
5.832269829927433925e-07
5.858679823349672024e-07
5.619078277648633258e-07
5.096899686176517628e-07
4.375974739745095987e-07
3.605217988906263042e-07
2.979747317186625862e-07
2.550649054015498528e-07
2.125573130929828955e-07
1.566645656257123609e-07
1.148039780791321338e-07
9.038554705312431565e-08
6.385926853985387707e-08
4.786579237177332180e-08
3.477644268859758692e-08
2.569524624805221403e-08
1.925872780492369319e-08
1.468238813899131382e-08
1.140159539647495843e-08
8.991683733042654826e-09
7.168939331107973247e-09
5.735502482437958290e-09
4.570531011338543756e-09
3.602563544412633098e-09
2.790946004789294405e-09
2.114107331652011359e-09
1.560077100438329789e-09
1.119586139613325559e-09
7.817133113057991465e-10
5.321698616755344954e-10
3.543521700404268710e-10
