# bin_20_3
2.847733337334388257e-76
3.197989398768336746e-76
3.526992606783501303e-76
3.803228867389386799e-76
3.986471504042685350e-76
4.035953500921614165e-76
3.905959793999393409e-76
3.568033885702075499e-76
3.082031890793420486e-76
2.538433171407923344e-76
2.087614703751220127e-76
1.793318478746551195e-76
1.521269967690236555e-76
1.117133995162711339e-76
7.934299176416219169e-77
6.442519748649048238e-77
4.267957007566097572e-77
3.241040267977997487e-77
2.235309257202880028e-77
1.548503249657580094e-77
1.087605577656399617e-77
7.645943502539855970e-78
5.428668219053194348e-78
3.906818174048714198e-78
2.869152308947257949e-78
2.147315508875670295e-78
1.634248784289587403e-78
1.259336942038509814e-78
9.758260644046938509e-79
7.547981778985500236e-79
5.787335137796263151e-79
