# bin_2_3
1.366802186356945215e-07
1.364833840218419707e-07
1.298327175446925846e-07
1.167729138435813392e-07
9.943596936384141219e-08
8.166122985299676331e-08
6.779972473402742600e-08
5.822217136961649329e-08
4.784910560392772595e-08
3.465947051243941233e-08
2.588142602050875752e-08
2.014137231144809966e-08
1.423956764081450418e-08
1.064868178605829040e-08
7.788264463485559357e-09
5.760395982186345026e-09
4.333949344103209439e-09
3.319652816116519329e-09
2.589397483128745439e-09
2.049778822169704305e-09
1.638198143413541718e-09
1.311741034568470855e-09
1.044586045832974050e-09
8.216050594284092384e-10
6.343396180132459303e-10
4.783758601157938293e-10
3.512254328879720138e-10
2.507302284899645890e-10
1.741932158468780798e-10
1.180622188550333911e-10
7.832060282754777013e-11
