# bin_15_13
1.703565873246858076e-10
1.912643836274521125e-10
2.108806789162773383e-10
2.273163310012392248e-10
2.381621521960905406e-10
2.409975370669480839e-10
2.330619501534241891e-10
2.127369785209109232e-10
1.836178565281514201e-10
1.511828808149038533e-10
1.243843537352176061e-10
1.068977601586604017e-10
9.056977479091873591e-11
6.637420005600849666e-11
4.725331054033155579e-11
3.830717471891036554e-11
2.538950662947552633e-11
1.925842597411797350e-11
1.330087739994832492e-11
9.216569433196527285e-12
6.473076790079428529e-12
4.551837494057618379e-12
3.233863703432465752e-12
2.329196129982547053e-12
1.711954124071617746e-12
1.282219303977425237e-12
9.764597455449790161e-13
7.527496989720982633e-13
5.833690563918871505e-13
4.511860593937221973e-13
3.458315517647022799e-13
