# bin_1_3
3.193981544487215157e-07
3.069565489440272875e-07
2.792737681710780985e-07
2.406280898906364111e-07
1.988427378890697644e-07
1.642602814409156719e-07
1.400567635387591263e-07
1.169174986648061111e-07
8.732586022962706415e-08
6.382426371707804635e-08
5.000986106692013033e-08
3.587457907796915459e-08
2.677473729609220408e-08
1.958854984122442485e-08
1.459497307136046182e-08
1.102279673769838109e-08
8.476977625215179756e-09
6.641045435657529558e-09
5.279952622178094186e-09
4.237118789569940664e-09
3.405996805319652946e-09
2.721905741764878975e-09
2.147585014530687755e-09
1.662715780368290631e-09
1.257109555445874956e-09
9.252170085599088017e-10
6.621832209392959027e-10
4.612755250238201689e-10
3.135066331562772685e-10
2.085490822011000337e-10
1.362391329826909321e-10
