# bin_10_7
2.289981984160170872e-12
2.514144154636758097e-12
2.696793981313370940e-12
2.808727045494320750e-12
2.823661371444327476e-12
2.705563534655953587e-12
2.447108453825866211e-12
2.092544412477385829e-12
1.716685386542176541e-12
1.419337848153581269e-12
1.224679003669976232e-12
1.021525155626503547e-12
7.332708685176561148e-13
5.381303644099579719e-13
4.276174023786565669e-13
2.888004657514759434e-13
2.167864044584146141e-13
1.542362087680671964e-13
1.092383209695481163e-13
7.845198409983783751e-14
5.694315936103991496e-14
4.203452150820483682e-14
3.157228166509228730e-14
2.415359841792123057e-14
1.872967318221403745e-14
1.463952563958844324e-14
1.145721820230898321e-14
8.913347838179178046e-15
6.849652712298145767e-15
5.171811448959306743e-15
3.820714958156243141e-15
