# bin_11_13
3.681422230238600349e-08
4.091347636210014288e-08
4.455038236421258140e-08
4.728350024097926001e-08
4.857696013150003796e-08
4.802230794709994402e-08
4.497434961719056197e-08
3.980331492895380159e-08
3.332236049832801285e-08
2.724559787384544946e-08
2.293997897109586974e-08
1.984262230488126371e-08
1.566781209514692777e-08
1.085487681730033927e-08
8.581767949093413355e-09
6.212593340348630508e-09
4.481456033381860775e-09
3.107216082944059319e-09
2.244902311246361962e-09
1.587167430813392275e-09
1.126462778388497104e-09
8.106366374432876369e-10
5.918241108767811916e-10
4.402747492787120354e-10
3.336263170981376667e-10
2.565342941748230736e-10
1.992004147657289909e-10
1.551251715302308078e-10
1.202814857108707674e-10
9.225072272081324562e-11
6.960892431286115469e-11
