# bin_10_5
1.105885049640079212e-17
1.207587983501328495e-17
1.286619974051474252e-17
1.328531489711978994e-17
1.322180080376131831e-17
1.249227694376800078e-17
1.114835242893127840e-17
9.404338594396450799e-18
7.690476492991655658e-18
6.423807548084062616e-18
5.560743654877893859e-18
4.500613184761598183e-18
3.146461570961154282e-18
2.422096454535739855e-18
1.832432067392991632e-18
1.284851921875911875e-18
9.241676223568451490e-19
6.735068430561890328e-19
4.812202786338415668e-19
3.468335294283655721e-19
2.542527509497026536e-19
1.896354294503611725e-19
1.440080307229214525e-19
1.111808478369303708e-19
8.678793891834226766e-20
6.808228715126802016e-20
5.329702734985766024e-20
4.134689675791258101e-20
3.159920518764843068e-20
2.367473096901551481e-20
1.732253696576263110e-20
