# bin_8_18
1.779679799688729184e-07
1.948548340604317378e-07
2.083018195204458815e-07
2.160126187430380874e-07
2.160670956999816738e-07
2.055934009818056848e-07
1.847276596589447206e-07
1.569177707416430322e-07
1.285336023699047576e-07
1.068014480200753708e-07
9.229782906276273143e-08
7.586491664971309947e-08
5.377994329820892165e-08
4.038390769526683104e-08
3.133876916406062974e-08
2.155055731647505060e-08
1.585403330930035881e-08
1.140594990789770569e-08
8.112978339167512493e-09
5.836782579812968772e-09
4.256769440812636256e-09
3.158127375412724375e-09
2.384873976597114000e-09
1.832708832427332692e-09
1.425818213348175070e-09
1.116453187563739218e-09
8.738718953435135983e-10
6.788924426582158622e-10
5.202852882690343821e-10
3.913401038331784255e-10
2.877436690868603214e-10
