# bin_20_7
-1.003702450416895010e-09
-1.089841478047113643e-09
-1.153076758846126425e-09
-1.180662567501492902e-09
-1.162038750062373415e-09
-1.083075426296062707e-09
-9.542811978861592871e-10
-7.966471510655118774e-10
-6.519105771917001840e-10
-5.504355457107883596e-10
-4.741982024067426053e-10
-3.703607929563150797e-10
-2.586528522541100894e-10
-2.054171584075846139e-10
-1.476639741572451123e-10
-1.081618014491687827e-10
-7.617757589001878826e-11
-5.537625076673577914e-11
-3.996413245220114970e-11
-2.910665107295846331e-11
-2.154200847012007154e-11
-1.621502353641241272e-11
-1.242631266129961524e-11
-9.661217317595644183e-12
-7.575666280917756368e-12
-5.952270845264691620e-12
-4.652977597480305728e-12
-3.595094399171626981e-12
-2.730187676937514249e-12
-2.028758336231828502e-12
-1.470277008212228075e-12
