# bin_16_11
-3.050174545719686533e-10
-3.388013200475373413e-10
-3.686854886565069650e-10
-3.910033985485248197e-10
-4.013440007960982824e-10
-3.962780856253396510e-10
-3.706065175586589151e-10
-3.275560411539547910e-10
-2.739777840143799474e-10
-2.240779475608220454e-10
-1.888755154032925544e-10
-1.632192212174269725e-10
-1.283789422068783593e-10
-8.906596705140409296e-11
-7.054739689847894198e-11
-5.080936124049508873e-11
-3.680135741955360610e-11
-2.553096982089009629e-11
-1.839893996642360919e-11
-1.302234362274666519e-11
-9.255540433979558300e-12
-6.666329504654991657e-12
-4.872275166438368000e-12
-3.628561902867830666e-12
-2.752017205655820599e-12
-2.117537760596856333e-12
-1.644799140989259189e-12
-1.280776034426990961e-12
-9.926817932568127372e-13
-7.608095043600035579e-13
-5.735441826491649879e-13
