# bin_8_4
-9.778267480176626146e-10
-1.024613561582980479e-09
-1.037784146061152646e-09
-1.006286476956812536e-09
-9.227019803618682110e-10
-8.003110465119954825e-10
-6.618723956934472509e-10
-5.440904475421441365e-10
-4.641055276211423007e-10
-3.934484735051558006e-10
-2.955571314545423024e-10
-2.113635269463684602e-10
-1.688354795587640093e-10
-1.184328429362728599e-10
-8.885670441707693830e-11
-6.350438957979784661e-11
-4.642937951088257104e-11
-3.425168640775966074e-11
-2.562101991875711703e-11
-1.951050697237167087e-11
-1.511068316340012417e-11
-1.187544483658845959e-11
-9.410783330656398671e-12
-7.466730772216107568e-12
-5.889882871993645572e-12
-4.587935389787231639e-12
-3.508540857068195325e-12
-2.621748705824309019e-12
-1.908084142161031535e-12
-1.350834954631807574e-12
-9.310045795814694601e-13
