# bin_7_8
-1.245606683867660267e-11
-1.354288411675412981e-11
-1.435202189513439111e-11
-1.472255470265442581e-11
-1.452859359745176476e-11
-1.358152316652803180e-11
-1.199989325389680135e-11
-1.003535354802806410e-11
-8.206055898203687967e-12
-6.913366462273795620e-12
-5.970350289699638508e-12
-4.699675822281533962e-12
-3.269870712223516988e-12
-2.590488257857367637e-12
-1.878168283724506239e-12
-1.367074936796978847e-12
-9.609402678135268329e-13
-7.012128907040029687e-13
-5.051479629920388337e-13
-3.670697985291420645e-13
-2.711947321401956632e-13
-2.037591089146517223e-13
-1.558831718799667960e-13
-1.210437669525843521e-13
-9.484744736617067184e-14
-7.451610701038419380e-14
-5.828045568148789144e-14
-4.507658173340355988e-14
-3.428240787114707678e-14
-2.552110870573202792e-14
-1.853293129535910619e-14
