# bin_8_18
-6.383059542216622428e-28
-7.159614378899208789e-28
-7.884868584138156219e-28
-8.487456736343536740e-28
-8.876724784981793971e-28
-8.964381961769115025e-28
-8.643941362467066231e-28
-7.866053930846083906e-28
-6.768435961441393589e-28
-5.565425420916915697e-28
-4.586420426531676620e-28
-3.948844517410613738e-28
-3.329301637790271635e-28
-2.419807229416122774e-28
-1.739037077654410438e-28
-1.401142175809975215e-28
-9.300421603511307742e-29
-7.024310421265602334e-29
-4.879341107820073134e-29
-3.384003286028813450e-29
-2.376372234955271197e-29
-1.672815680192873236e-29
-1.191367902038479007e-29
-8.610183287182142475e-30
-6.348705917653867417e-30
-4.769275047381437387e-30
-3.640940463588114251e-30
-2.811124770360432779e-30
-2.179742636733211580e-30
-1.685074967879172213e-30
-1.289906548993383116e-30
