# bin_4_1
-1.932546390726960400e-09
-1.856655113501980596e-09
-1.689376257043983122e-09
-1.456337086900551371e-09
-1.204993626467839349e-09
-9.961942280575204704e-10
-8.479569024128518086e-10
-7.063538397333536661e-10
-5.296621358508243371e-10
-3.878844884477128654e-10
-3.022253360262842799e-10
-2.181901820150598440e-10
-1.621627042122517235e-10
-1.188927028147688822e-10
-8.857983937111828814e-11
-6.688034067690836033e-11
-5.142346198952021317e-11
-4.027327493513966691e-11
-3.200956991280329058e-11
-2.567725724080721269e-11
-2.063328376958695962e-11
-1.648424676370108191e-11
-1.300306531937758388e-11
-1.006603790506544504e-11
-7.610582155707778971e-12
-5.602230997955015475e-12
-4.010755759095844560e-12
-2.794945386223714925e-12
-1.900346554215821416e-12
-1.264607884865292417e-12
-8.264000888270734052e-13
