# bin_13_6
-8.818163965731288108e-10
-9.487087676237773057e-10
-9.922211903376832906e-10
-1.002454833749595651e-09
-9.681154683942904843e-10
-8.832896189729010209e-10
-7.622099135220639207e-10
-6.281887484150859574e-10
-5.171917759228678287e-10
-4.432366357302748159e-10
-3.741540209942293389e-10
-2.762672181311723914e-10
-1.985569399082076138e-10
-1.592472902643773593e-10
-1.093507722678821527e-10
-8.255303760541230498e-11
-5.853285240256925763e-11
-4.218477746392389253e-11
-3.077413627147997637e-11
-2.271587010731004133e-11
-1.704951187343285987e-11
-1.301710736447521940e-11
-1.010388285008557602e-11
-7.928593645693265896e-12
-6.248864195000703437e-12
-4.912688501259607134e-12
-3.825788428908484029e-12
-2.933558329702556230e-12
-2.203689626668798979e-12
-1.615478984667442090e-12
-1.153134309401032075e-12
