# bin_4_6
-1.049874929727325351e-12
-1.115121970294134081e-12
-1.147565427830491201e-12
-1.137345788728408635e-12
-1.069539233362805345e-12
-9.504338607634417692e-13
-7.991714599790166849e-13
-6.536939429953219591e-13
-5.476680745037566875e-13
-4.729534884261313996e-13
-3.786755230469959278e-13
-2.657195683820279231e-13
-2.064870380585204558e-13
-1.543851361806042933e-13
-1.104199349643132109e-13
-7.972591772262427006e-14
-5.849608288504819389e-14
-4.254023618288307784e-14
-3.133277107938896444e-14
-2.349837372543689896e-14
-1.794294256673949190e-14
-1.393272249595867906e-14
-1.095624073647698801e-14
-8.666836728768431175e-15
-6.848721892513282683e-15
-5.368734014688396826e-15
-4.148000446406657592e-15
-3.141693289742642587e-15
-2.322777409863199609e-15
-1.671650849356323917e-15
-1.170378933307307326e-15
