# bin_15_3
-2.131976849791809954e-09
-2.193845046059980236e-09
-2.173913148052036976e-09
-2.046574604848103207e-09
-1.821523843308949590e-09
-1.536161459143362543e-09
-1.259222080221670840e-09
-1.053403574989434013e-09
-9.054575361239913942e-10
-7.271591644863938404e-10
-5.185555816152070170e-10
-3.975542486743171276e-10
-3.004481036294963666e-10
-2.150645443968218215e-10
-1.580065578963870423e-10
-1.158173886884501308e-10
-8.518579664272809415e-11
-6.365916272006156079e-11
-4.843237977303470523e-11
-3.751283688581226372e-11
-2.950072280259879341e-11
-2.343448820683673138e-11
-1.866750121475853757e-11
-1.480423464981659539e-11
-1.160840665802164730e-11
-8.944567458858384077e-12
-6.738391092139453854e-12
-4.945907400412486849e-12
-3.530778780149117853e-12
-2.452972924592433279e-12
-1.662056911164463711e-12
