# bin_2_13
-7.601690891959860485e-40
-8.343985139621805185e-40
-8.947884334224004756e-40
-9.316378204026087680e-40
-9.362413496911276796e-40
-8.966649731512295560e-40
-8.106069375792693884e-40
-6.928441286868009341e-40
-5.683233050256534073e-40
-4.700480033823093025e-40
-4.056418451585897410e-40
-3.380081899727319348e-40
-2.424007158071994183e-40
-1.781958796517330024e-40
-1.413638064404677843e-40
-9.559936993276437738e-41
-7.165743533865735190e-41
-5.102793549835741557e-41
-3.615574753873238665e-41
-2.597014607458582159e-41
-1.885803779095641112e-41
-1.392643091000132549e-41
-1.046615321299632049e-41
-8.009563751244382814e-42
-6.212674576141187594e-42
-4.856693410351276724e-42
-3.800874094924523810e-42
-2.956470607094935301e-42
-2.271300594786729190e-42
-1.714253082459817311e-42
-1.265796638428452648e-42
