# bin_5_10
-6.297454223763380883e-18
-6.870133091208418541e-18
-7.311328527228808053e-18
-7.538856507669450215e-18
-7.489422337474101719e-18
-7.060437486334774383e-18
-6.287620282789920359e-18
-5.294399646888489362e-18
-4.329356693425767227e-18
-3.622815386597780353e-18
-3.134828807205648592e-18
-2.522429264543214824e-18
-1.761442469031005065e-18
-1.364586674919206506e-18
-1.023004383321615736e-18
-7.233298442969779281e-19
-5.173699072706613493e-19
-3.772134749844044956e-19
-2.700064023334385528e-19
-1.949732060372276374e-19
-1.431768784623486082e-19
-1.069596921321850853e-19
-8.135783482635731883e-20
-6.288869699756437006e-20
-4.913215895161038989e-20
-3.855495310721728617e-20
-3.017530382994193638e-20
-2.339325998545993227e-20
-1.785846997241019096e-20
-1.336054724041274680e-20
-9.759094772578980785e-21
