# bin_13_15
-1.460176641761817907e-12
-1.637662551555031666e-12
-1.803342831259220041e-12
-1.940879466594806765e-12
-2.029522679021777936e-12
-2.049137408339468939e-12
-1.975311600094194895e-12
-1.797056223126551892e-12
-1.545863308773103956e-12
-1.271011853564805644e-12
-1.047639092849245195e-12
-9.020899355761921731e-13
-7.601227520339201664e-13
-5.521516144760077071e-13
-3.972124693798323448e-13
-3.196945506681824282e-13
-2.123767642926088326e-13
-1.602422241452614380e-13
-1.113701168507925582e-13
-7.725654233638299511e-14
-5.425176551239309635e-14
-3.819810506828346971e-14
-2.721096903132136633e-14
-1.967131291349518237e-14
-1.450856683495303081e-14
-1.090175313294827566e-14
-8.324098611501937486e-15
-6.427560283830443312e-15
-4.983955546239144926e-15
-3.852601996160747253e-15
-2.948693243272540561e-15
