# bin_12_11
-8.680746784709829469e-11
-9.629523932606991002e-11
-1.046192013105402560e-10
-1.107278820728542625e-10
-1.133768550544673755e-10
-1.115803412727751506e-10
-1.039267508686568779e-10
-9.150121575290251186e-11
-7.628726788280811598e-11
-6.240388861186212034e-11
-5.277659053698469000e-11
-4.554536739827054784e-11
-3.542111837611861547e-11
-2.455987390433246697e-11
-1.965309281488491784e-11
-1.391077654566909663e-11
-1.022768845565827398e-11
-7.045827824174894240e-12
-5.068367705080517095e-12
-3.599481644215536548e-12
-2.567885050182377418e-12
-1.855554757550984481e-12
-1.360701533615929537e-12
-1.017076935533718168e-12
-7.738722598880271751e-13
-5.969562162102969762e-13
-4.644040261480665312e-13
-3.617818282459845496e-13
-2.802344012877971503e-13
-2.144523962381499460e-13
-1.613050065280752274e-13
