# bin_12_18
-1.767058553831166689e-17
-1.989731932981555345e-17
-2.201556127504833307e-17
-2.383519954537294692e-17
-2.510975939317900358e-17
-2.556445729736184316e-17
-2.495238059550821650e-17
-2.300667930589740258e-17
-2.005956789875662168e-17
-1.660488002771400005e-17
-1.360937065029280662e-17
-1.161413882451702874e-17
-9.962083274584026996e-18
-7.510726566896096356e-18
-5.233369813781108205e-18
-4.258769889179811645e-18
-2.868611117462958340e-18
-2.166769160742886398e-18
-1.470786727441958524e-18
-1.024950750680642039e-18
-7.184475064671223241e-19
-5.035869457219037317e-19
-3.549029503736034937e-19
-2.530074296294267053e-19
-1.838865539480197880e-19
-1.362747744655857436e-19
-1.028403409360900859e-19
-7.877612352636329950e-20
-6.086315791224842303e-20
-4.708766471764271903e-20
-3.621338631999712154e-20
