# bin_7_1
-2.749878142051422815e-09
-2.647963391252617830e-09
-2.415406470894778048e-09
-2.087123942928205617e-09
-1.728991753861627117e-09
-1.428121825922919519e-09
-1.214360768049839660e-09
-1.014623988213722024e-09
-7.645605050834943395e-10
-5.583122721441995805e-10
-4.351344171668525509e-10
-3.148853776454342958e-10
-2.336449096101456263e-10
-1.712865074102688825e-10
-1.275258943560279637e-10
-9.616561721406400179e-11
-7.384363096068090928e-11
-5.776097046926420187e-11
-4.586410416908103684e-11
-3.676881482897945230e-11
-2.954145325704030803e-11
-2.360761008677225096e-11
-1.863459443442904775e-11
-1.444018183625914125e-11
-1.093163841601963245e-11
-8.058345330908460256e-12
-5.777507889264131161e-12
-4.031609578197384042e-12
-2.744487259177054917e-12
-1.828211103164677682e-12
-1.195701358359285944e-12
