# bin_17_18
-6.490041333563390157e-12
-7.338411331955243558e-12
-8.160390613703122566e-12
-8.889392560517248693e-12
-9.436758195523946012e-12
-9.694580201966752961e-12
-9.582261163660901411e-12
-8.969368882556179316e-12
-7.933271098150488784e-12
-6.636876237545687328e-12
-5.427038393946503811e-12
-4.575178239723477735e-12
-3.959849818127013477e-12
-3.116549103590251805e-12
-2.151306374569732368e-12
-1.706686782381088739e-12
-1.222420716096391434e-12
-8.808771112922325253e-13
-5.990847577455838733e-13
-4.272421166683860201e-13
-2.958341152792461936e-13
-2.043055224716839174e-13
-1.422708177868056075e-13
-9.996131181874295143e-14
-7.139308417618474927e-14
-5.198897004094200443e-14
-3.860507451979932873e-14
-2.919907757352974708e-14
-2.238422586171595038e-14
-1.727765970740283014e-14
-1.332655178461352763e-14
