# bin_14_12
-1.264965760417930584e-10
-1.409630166190534722e-10
-1.540072008384259576e-10
-1.641393789190024469e-10
-1.695108338418793801e-10
-1.686835607754846090e-10
-1.593339876389273736e-10
-1.421426547360349576e-10
-1.198784378696405945e-10
-9.806410711607074061e-11
-8.199691674682171368e-11
-7.099523106998614288e-11
-5.731982983174253984e-11
-3.999644130884415201e-11
-3.080743395704478222e-11
-2.312960898160514366e-11
-1.615630202401241672e-11
-1.147836631555557164e-11
-8.260635271757618331e-12
-5.800830588007911078e-12
-4.090478448619956250e-12
-2.922442268872722132e-12
-2.118674984081790775e-12
-1.563551223379211117e-12
-1.176173983833041404e-12
-8.990738953665896572e-13
-6.953909927370772498e-13
-5.406822536843807504e-13
-4.195489758778859950e-13
-3.226748723918104334e-13
-2.445581190657031889e-13
