# bin_1_14
-2.345785899430881515e-50
-2.582130883894348482e-50
-2.778727230402210035e-50
-2.906069110939354751e-50
-2.935190561503245673e-50
-2.831908085048831078e-50
-2.579204944143043556e-50
-2.221380368585227532e-50
-1.827389551884604639e-50
-1.504754814508901241e-50
-1.293654684705059625e-50
-1.092098282095207148e-50
-7.980161714557634443e-51
-5.728754625766543234e-51
-4.625823933545349206e-51
-3.103726880640560401e-51
-2.357945645975389628e-51
-1.655801009893218365e-51
-1.170340786876000688e-51
-8.401800391069473717e-52
-6.078402735008404186e-52
-4.463826149015278768e-52
-3.333868837090167849e-52
-2.537439250312878250e-52
-1.959920615061769327e-52
-1.528153411981918046e-52
-1.195060403177674667e-52
-9.305417863506778493e-53
-7.167621223709278379e-53
-5.430937943695185858e-53
-4.030305950208633828e-53
