# bin_16_8
-6.631227493442505316e-10
-7.252013632969230262e-10
-7.741436240486910043e-10
-8.013811454480062006e-10
-7.998542668384570518e-10
-7.589566134130499103e-10
-6.801235481477753309e-10
-5.763214233794168716e-10
-4.719259335055126554e-10
-3.929767828229895856e-10
-3.396137191812017314e-10
-2.773180066750530807e-10
-1.959714126695301568e-10
-1.484157503768544709e-10
-1.139767459311326248e-10
-7.907607087600525146e-11
-5.772879371456967713e-11
-4.164510300730287071e-11
-2.968222123760005435e-11
-2.138613250139656532e-11
-1.563001683125002592e-11
-1.161963894625813960e-11
-8.793699316013925026e-12
-6.768970962186645298e-12
-5.272422097338019562e-12
-4.130754147885788874e-12
-3.232782421031962570e-12
-2.509594599038103091e-12
-1.920815422097092513e-12
-1.442274358130253187e-12
-1.058274792536195486e-12
