# bin_6_13
-4.743717202539632654e-22
-5.243314622384653715e-22
-5.671422027769456946e-22
-5.969539592185674941e-22
-6.073056816333894854e-22
-5.922606773710272657e-22
-5.457017649115381992e-22
-4.754974411862390928e-22
-3.935060102813738974e-22
-3.225054646825118904e-22
-2.751072587107929298e-22
-2.357132101402896159e-22
-1.777975008253493182e-22
-1.243338979613346260e-22
-1.011186928695462590e-22
-6.878535949798909273e-23
-5.213251200961528666e-23
-3.593646437245855320e-23
-2.552353208355471932e-23
-1.827254561854534629e-23
-1.315592964485433655e-23
-9.582097286207993066e-24
-7.088288814730560238e-24
-5.346760706841709100e-24
-4.100014321215012243e-24
-3.181081133894158075e-24
-2.482592541774692386e-24
-1.934669977778257112e-24
-1.495237285268099698e-24
-1.139181691714847452e-24
-8.515418715301392881e-25
