# bin_16_14
-9.666647433301561949e-11
-1.084232070241584644e-10
-1.194012557511436407e-10
-1.285198870664529038e-10
-1.344055579682445742e-10
-1.357222445031936127e-10
-1.308635967947785610e-10
-1.190923459811184357e-10
-1.024792288937520289e-10
-8.428084021067040279e-11
-6.946692416018582794e-11
-5.979439216966312851e-11
-5.039216546302807641e-11
-3.665180617004535345e-11
-2.635486935221215520e-11
-2.119446712157891288e-11
-1.410504573829183997e-11
-1.062946391774583087e-11
-7.383194246495266639e-12
-5.123951443797825436e-12
-3.598073305014838325e-12
-2.533742583706725350e-12
-1.804532346209134175e-12
-1.304081074723363063e-12
-9.614587342802977165e-13
-7.221737649714336063e-13
-5.512350260518894338e-13
-4.255313818743201158e-13
-3.299034283656520006e-13
-2.549996839008375894e-13
-1.951787901247019814e-13
