# bin_20_14
-2.352517052753069922e-10
-2.640298769766827787e-10
-2.909861321602770081e-10
-3.135057151862798072e-10
-3.282560686497828292e-10
-3.319194632745391090e-10
-3.206823503565037262e-10
-2.924566976472608584e-10
-2.522045489025388155e-10
-2.076234643013526883e-10
-1.709520331650656416e-10
-1.469545024079567360e-10
-1.242411723275219892e-10
-9.089592924396784837e-11
-6.497687477914840237e-11
-5.241737781899445479e-11
-3.490226883079477885e-11
-2.634690661751037891e-11
-1.822827585262935794e-11
-1.265188237599865071e-11
-8.882962940801398212e-12
-6.250272421414991924e-12
-4.443607711169971302e-12
-3.204053319811203217e-12
-2.356825762331849835e-12
-1.766508511518009246e-12
-1.346007821275374322e-12
-1.037866880099302422e-12
-8.042577630271624153e-13
-6.217900696991439696e-13
-4.763114097663841851e-13
