# bin_5_12
-9.521236814597097276e-23
-1.046898842359351494e-22
-1.125070479043411970e-22
-1.174596259946193759e-22
-1.184055476650260063e-22
-1.139109899565672467e-22
-1.034408568794932271e-22
-8.882167763182807034e-23
-7.297751373730253372e-23
-6.019009313791807863e-23
-5.183195304497566825e-23
-4.354542038646854083e-23
-3.157531209420930321e-23
-2.287107966527981363e-23
-1.835930286395036653e-23
-1.233888663271708503e-23
-9.336280884866779513e-24
-6.591848754113904589e-24
-4.662077983346217728e-24
-3.347615087443006832e-24
-2.425031407613660846e-24
-1.784793193177529508e-24
-1.336316932147379003e-24
-1.019335536778914396e-24
-7.886945222622806578e-25
-6.156223191106940210e-25
-4.816053837049114358e-25
-3.748694955402282281e-25
-2.884614327957363101e-25
-2.182378784509415698e-25
-1.616385442559855035e-25
