# bin_8_7
-1.739646913835161774e-10
-1.884114144838077046e-10
-1.987061563281992453e-10
-2.026831416852736317e-10
-1.984475079979677526e-10
-1.837925851385244011e-10
-1.609562699330114869e-10
-1.337355489120027988e-10
-1.095109985872083301e-10
-9.292997418307057311e-11
-7.980622965602074386e-11
-6.126569443385148259e-11
-4.285687916258084617e-11
-3.445932820400618082e-11
-2.421108581111132934e-11
-1.806643598400252367e-11
-1.264505839244168090e-11
-9.171948185517221893e-12
-6.649095538190528053e-12
-4.865395768360150776e-12
-3.616819883188302747e-12
-2.734206100496989832e-12
-2.104067781096213141e-12
-1.641052531446368161e-12
-1.289316190373451594e-12
-1.013639710004897072e-12
-7.917792708855697768e-13
-6.105736687507506319e-13
-4.622982226302579475e-13
-3.422004651885340524e-13
-2.468869323465963943e-13
