# bin_7_15
-8.567037077965967937e-24
-9.536258435947172499e-24
-1.040457850407944724e-23
-1.107027200571520127e-23
-1.140765288843644833e-23
-1.132221992804123055e-23
-1.065659682814248768e-23
-9.474876252670170756e-24
-7.964179599563334930e-24
-6.511617416654073875e-24
-5.460380919846370134e-24
-4.728788567326601411e-24
-3.784409703814500021e-24
-2.626620745144080363e-24
-2.048737103992646946e-24
-1.515202297526430371e-24
-1.072302662060330792e-24
-7.516492032563529355e-25
-5.437795426125787798e-25
-3.828756565109945153e-25
-2.704708013891138246e-25
-1.938549312494243888e-25
-1.409716288201934131e-25
-1.043979951748618035e-25
-7.878470505670806115e-26
-6.038383652976971711e-26
-4.679071667181664783e-26
-3.641132689718581678e-26
-2.824908224760246683e-26
-2.170296651629855727e-26
-1.641907168264952204e-26
