# bin_14_17
-1.994567613196312791e-13
-2.246758750387576068e-13
-2.487066524161757803e-13
-2.694123445226159747e-13
-2.840156272776355404e-13
-2.893873872122402512e-13
-2.827851432634558608e-13
-2.610831240824997573e-13
-2.279364073921604598e-13
-1.888370428762867834e-13
-1.547193087981713768e-13
-1.319006070982389780e-13
-1.132717791937563124e-13
-8.572372420005016345e-14
-5.962944420824454281e-14
-4.846850721641956357e-14
-3.279052383463552368e-14
-2.470185729390762872e-14
-1.673965984555315909e-14
-1.168859311686885439e-14
-8.186568273253128601e-15
-5.733261863128886679e-15
-4.036302016948151333e-15
-2.873603131867496278e-15
-2.085386329737442657e-15
-1.543161567994763036e-15
-1.163026244556202605e-15
-8.900168135893835772e-16
-6.872659373998726119e-16
-5.316753906868591541e-16
-4.090387903195801818e-16
