# bin_19_14
-2.049644739816585301e-10
-2.300212343581149724e-10
-2.534834455733543785e-10
-2.730714610312378073e-10
-2.858807737595354359e-10
-2.890272755610812558e-10
-2.791789635100777338e-10
-2.545452596836476632e-10
-2.194575022744257791e-10
-1.806443755615368399e-10
-1.487551208525830311e-10
-1.278928516306885449e-10
-1.080877521811825327e-10
-7.902553652952395270e-11
-5.652770848526904057e-11
-4.558672678945909381e-11
-3.035105092982668504e-11
-2.290776263045204599e-11
-1.585581699473970289e-11
-1.100487657373263561e-11
-7.726762994377783634e-12
-5.437251014704615116e-12
-3.866360092173272129e-12
-2.788536377478234406e-12
-2.051715944043538396e-12
-1.538191734183481459e-12
-1.172275145082836316e-12
-9.040268201119610750e-13
-7.005816119021128551e-13
-5.416231989219986749e-13
-4.148632684390847798e-13
