# bin_2_19
-9.190867611157432058e-63
-1.028654602307490785e-62
-1.129838069430951824e-62
-1.212169925572483368e-62
-1.262445695189826100e-62
-1.268851318874630394e-62
-1.215008903976409472e-62
-1.097997035793707987e-62
-9.380279031987112851e-63
-7.693087926392318280e-63
-6.367181953864810040e-63
-5.501150408323931695e-63
-4.579507416415659433e-63
-3.269849726662774352e-63
-2.405911530157272427e-63
-1.901217037266196299e-63
-1.274852026079296736e-63
-9.473777037888431671e-64
-6.672960727892275075e-64
-4.643314527003091343e-64
-3.260216032003154707e-64
-2.303815321439671608e-64
-1.650799066542391250e-64
-1.202000331816292010e-64
-8.928276689416318245e-65
-6.751559816444819057e-65
-5.181304150460682412e-65
-4.013029976444739278e-65
-3.114431638627773520e-65
-2.404509870890676942e-65
-1.834863398511824958e-65
