# bin_15_5
-1.289756277576718430e-09
-1.372359704232052999e-09
-1.415565190833141669e-09
-1.406808439485163721e-09
-1.328163008169074447e-09
-1.184859396518845336e-09
-1.000336053112187090e-09
-8.191465256811862722e-10
-6.842790216283882880e-10
-5.901905146076136671e-10
-4.766773621015899457e-10
-3.373704235427613694e-10
-2.584402751311083066e-10
-1.959306452585171991e-10
-1.387391113409889106e-10
-1.012817157903041248e-10
-7.381558251325548149e-11
-5.355855381325457330e-11
-3.939687767627221904e-11
-2.946952662269894834e-11
-2.244235925440852580e-11
-1.738162479700235880e-11
-1.364191248234272619e-11
-1.077863991076088038e-11
-8.514407522605729404e-12
-6.677536340574149443e-12
-5.165453470197897419e-12
-3.919709765680046115e-12
-2.905144657810090848e-12
-2.096821118053795425e-12
-1.472552001539124994e-12
