# bin_11_5
7.626297655759893861e-21
8.359050318290805125e-21
8.948121497801903731e-21
9.295438062949501089e-21
9.317133136227918756e-21
8.889668289812829480e-21
8.006439437389136993e-21
6.816737447089459304e-21
5.584359413216712048e-21
4.630078816027972421e-21
4.002373753276140796e-21
3.311130495690701742e-21
2.352728368345309835e-21
1.752306573478180661e-21
1.374682999928595954e-21
9.359158075181737930e-22
6.949711827138205417e-22
4.986178145551870414e-22
3.539688955545819533e-22
2.543128123841252865e-22
1.850799797673997830e-22
1.370756600377467232e-22
1.033408148233459879e-22
7.929857173733123505e-23
6.163368730029204840e-23
4.824003747917348737e-23
3.776321179913439814e-23
2.935577102440007526e-23
2.252118352392878581e-23
1.696323304916950713e-23
1.249324569545101995e-23
