# bin_18_7
1.954759928000081513e-36
2.190899811577050285e-36
2.410585653877451950e-36
2.591815476636583208e-36
2.706728911733571208e-36
2.728960515184722941e-36
2.624927399816483675e-36
2.382594581298142710e-36
2.044746964872431006e-36
1.679416311351569281e-36
1.385909375552847488e-36
1.195114569937239027e-36
1.003435418579145930e-36
7.241153402387424545e-37
5.246665583805520144e-37
4.204724087087679812e-37
2.794700841610670449e-37
2.102895198069366882e-37
1.467944611901457564e-37
1.018872120731443762e-37
7.153910950827491879e-38
5.040361717422576608e-38
3.597457919589092487e-38
2.607100460208214347e-38
1.927642424864844110e-38
1.451737014432591102e-38
1.110557698467054372e-38
8.585709719557590107e-39
6.660526346603094483e-39
5.147245765564585748e-39
3.936057872871447536e-39
