# bin_12_5
3.352642338067364668e-24
3.688025675210269496e-24
3.965612709571985945e-24
4.143107707672609764e-24
4.179821030704359339e-24
4.025690794465164132e-24
3.659537883662848413e-24
3.145745194787391668e-24
2.585321294398733784e-24
2.130660147415200227e-24
1.834118711554440076e-24
1.544318622549934620e-24
1.122307857559206142e-24
8.097331287753974564e-25
6.526149718257633224e-25
4.372476943771668995e-25
3.320385696996316926e-25
2.339651614227265820e-25
1.653232745349832224e-25
1.187069525123026752e-25
8.592819137779747378e-26
6.318988308150271749e-26
4.726999536196189163e-26
3.603029813792135656e-26
2.786229313420381381e-26
2.174121659891580343e-26
1.700756407133046913e-26
1.324106298994674382e-26
1.019338514961074737e-26
7.716594849462573560e-27
5.719641378728120560e-27
