# bin_20_12
1.171469787427104836e-21
1.323385431979384785e-21
1.469971413716816959e-21
1.599086431445227106e-21
1.694637747631482463e-21
1.737272763793469105e-21
1.712379028629081439e-21
1.597274804368982353e-21
1.408180096073664805e-21
1.174749227243214160e-21
9.607018735104665775e-22
8.122753578226594441e-22
7.023855814705357663e-22
5.472710976589533300e-22
3.774950958247763168e-22
3.023412542513350864e-22
2.129667541325476874e-22
1.557991821937250917e-22
1.051386621398103187e-22
7.473620724842706698e-23
5.190838882231005810e-23
3.599953841905298261e-23
2.514286411198763781e-23
1.772358707571388507e-23
1.271161661635283159e-23
9.296769218929310138e-24
6.931951597278679281e-24
5.261010090285465898e-24
4.042511251829239365e-24
3.123456644704551446e-24
2.408463264623678859e-24
