# bin_10_4
1.273030257221709241e-21
1.385775948237452080e-21
1.470762978007789434e-21
1.511351276131601219e-21
1.495035935248243898e-21
1.401523194434668974e-21
1.241559128911725210e-21
1.040271327052667532e-21
8.502686543773998207e-22
7.147454322159850502e-22
6.182631813159368234e-22
4.903804012493232128e-22
3.405206757236274422e-22
2.685723139352434909e-22
1.966923526838950184e-22
1.419873476086810277e-22
9.985931202049082563e-23
7.311739128529074004e-23
5.256443688620321354e-23
3.809988858489443190e-23
2.809905463307139401e-23
2.107410484986492148e-23
1.609433636324765239e-23
1.248077462245374800e-23
9.771905711559862814e-24
7.675686780253821059e-24
6.005669777500398604e-24
4.649254504426431843e-24
3.540691007141504988e-24
2.640319098444563423e-24
1.921055432700963225e-24
