# bin_8_4
1.133536736939702343e-15
1.221946973407362031e-15
1.281184199085729220e-15
1.298010084081039906e-15
1.258503615857485866e-15
1.152399359392204038e-15
9.980616636062580918e-16
8.232114542532422321e-16
6.759094405125146219e-16
5.785947413892233345e-16
4.922454258424020752e-16
3.659993597510826802e-16
2.594850589085347672e-16
2.109868682572470084e-16
1.432979375978020954e-16
1.095178611621466374e-16
7.705600570621904130e-17
5.535971935278172891e-17
4.039858933136279287e-17
2.978343397526793809e-17
2.230500048661356979e-17
1.699077672140586211e-17
1.316609273102930623e-17
1.032106047051595826e-17
8.132274074206433430e-18
6.396558928019216801e-18
4.987234818017248472e-18
3.830883525311871459e-18
2.884125342253259527e-18
2.119572710489710978e-18
1.516764292519232064e-18
