# bin_12_10
1.568735025153747667e-11
1.744038523043115990e-11
1.899931322784721625e-11
2.017632542708825230e-11
2.074155666847139182e-11
2.052416556975252659e-11
1.924232936779648885e-11
1.704607243250885043e-11
1.428012962204959644e-11
1.167322697679571642e-11
9.820127386361511284e-12
8.500576560135539105e-12
6.732120561125255424e-12
4.657825852115465326e-12
3.678101603487480667e-12
2.673674640167013773e-12
1.922253300215174497e-12
1.331294931445500679e-12
9.646372560062715644e-13
6.813593449511795036e-13
4.829173840718296528e-13
3.472819988266118418e-13
2.533565058642237887e-13
1.883107313827973248e-13
1.425770188516247019e-13
1.095665662833092022e-13
8.504944590239383618e-14
6.622593155965697115e-14
5.135934778051677552e-14
3.940524338619975953e-14
2.974954926631744597e-14
