# bin_9_6
3.900110960839138237e-13
4.255765443493473485e-13
4.530363620891494535e-13
4.672955659068184787e-13
4.644420417837188376e-13
4.380783067692117073e-13
3.903185998691817158e-13
3.287925021414156456e-13
2.688466672476772938e-13
2.248677778320466299e-13
1.946240768286724366e-13
1.568339922174428694e-13
1.095086098751212515e-13
8.472915974235883183e-14
6.366021337500746941e-14
4.492078426889887505e-14
3.216280755637668430e-14
2.345634242373768056e-14
1.678270522575064551e-14
1.211284146267443051e-14
8.891610793422843006e-15
6.640332974323105104e-15
5.049300166704931347e-15
3.902104631600986104e-15
3.048091547460209769e-15
2.391805653782016612e-15
1.872101687082419519e-15
1.451584323210479511e-15
1.108422485572382011e-15
8.295145750005731153e-16
6.061323862795307266e-16
