# bin_7_2
1.156881617858361383e-19
1.226807643994102432e-19
1.259860333594676500e-19
1.245508793855693822e-19
1.167166553017338975e-19
1.033726794296866664e-19
8.662216439119514047e-20
7.080510266405219899e-20
5.948784658627482862e-20
5.140568366539348950e-20
4.080311950966526539e-20
2.845673233405912061e-20
2.241066714579294099e-20
1.650960511921376805e-20
1.196252597538893655e-20
8.525191067699437230e-21
6.288337161427968832e-21
4.585316761398643347e-21
3.383588030569195955e-21
2.544158849065567443e-21
1.947126889757415317e-21
1.515230904900300954e-21
1.193411720421112330e-21
9.448964404609858037e-22
7.468286912793120422e-22
5.851436185982905708e-22
4.515772091469398413e-22
3.414345844326232481e-22
2.518798323357777001e-22
1.808138999009641212e-22
1.262621966634290024e-22
