# bin_13_4
1.719581850677150386e-33
1.894511030065465655e-33
2.040983715017207355e-33
2.137466316798302812e-33
2.162235770042125771e-33
2.090894092290749547e-33
1.908655302798129463e-33
1.647682790198239755e-33
1.356646992392395316e-33
1.115643639670203985e-33
9.579587057483372280e-34
8.118760611151551807e-34
5.966677429055348213e-34
4.251888850653553063e-34
3.452181905901195585e-34
2.310339799045516272e-34
1.762512116800453101e-34
1.232505151097176901e-34
8.702918193556539212e-35
6.247892283948353199e-35
4.515868773858060474e-35
3.310816077110335340e-35
2.468039016485997015e-35
1.875312852077001239e-35
1.446618207759268223e-35
1.127016474454340733e-35
8.811538121134551131e-36
6.863352287584937062e-36
5.290835356938183735e-36
4.013689384643348462e-36
2.983112804914272209e-36
