# bin_20_18
2.166203765811531502e-11
2.459248711673985146e-11
2.748412026594720894e-11
3.012331986627203573e-11
3.222323715363391661e-11
3.342335519242851609e-11
3.343100747375280742e-11
3.178290080428988131e-11
2.852149985073639785e-11
2.418675182735044739e-11
1.980013561424028862e-11
1.648213509656476000e-11
1.428144128945646968e-11
1.170282657133903247e-11
8.204893117427035048e-12
6.194420436736316429e-12
4.749757024273722546e-12
3.223386660763817922e-12
2.311754416819442084e-12
1.632738031877670992e-12
1.117888767109290579e-12
7.635786074109496729e-13
5.242584489916048791e-13
3.629630734637525916e-13
2.543268333431618863e-13
1.814839914726529860e-13
1.320693648196158531e-13
9.812647546293624855e-14
7.424204565270021752e-14
5.689864857884242195e-14
4.385523241211379425e-14
