# bin_18_13
3.802270017526781583e-15
4.288213131850253282e-15
4.753719649893521456e-15
5.158616627577849933e-15
5.450249115510179151e-15
5.567314306131490166e-15
5.460199945329478671e-15
5.062470361697104407e-15
4.437883674757593666e-15
3.686224766270816365e-15
3.017143362437296741e-15
2.563837858316997854e-15
2.209727661810251719e-15
1.692138710979826732e-15
1.171040134955308632e-15
9.482413958325607890e-16
6.504682532057619188e-16
4.858435985613932824e-16
3.275805760672402898e-16
2.302122464979878302e-16
1.608119382361939777e-16
1.123000630274573333e-16
7.880401159769552093e-17
5.586970546163546066e-17
4.035197693720403069e-17
2.972049032408307588e-17
2.230551031442123389e-17
1.701613921798828294e-17
1.311686763856460550e-17
1.014481651142403612e-17
7.813694188283128489e-18
