# bin_19_8
8.440665973044953942e-35
9.486779316728663354e-35
1.047355204549457370e-34
1.130835436210157879e-34
1.187244774982482017e-34
1.204121180563864321e-34
1.168571564605376753e-34
1.070568556829212982e-34
9.274913447984565753e-35
7.649846259699424296e-35
6.282975672165602116e-35
5.386862092611792941e-35
4.588350732447273238e-35
3.397110846640324902e-35
2.394317051785437506e-35
1.950514905032760283e-35
1.294527743867121996e-35
9.843242431857902944e-36
6.752180297068840095e-36
4.678306439866291929e-36
3.285943278144271369e-36
2.308753395415282092e-36
1.635290223584727702e-36
1.173470174685982568e-36
8.590042386328962866e-37
6.409730766219728081e-37
4.866073045521926652e-37
3.743349898362770563e-37
2.898414039563261930e-37
2.242353928216709431e-37
1.721072372694737453e-37
