# bin_19_4
7.519662630541475710e-62
8.426218164533630302e-62
9.268658512416360544e-62
9.962190649420048178e-62
1.039952053694024081e-61
1.047995082840079637e-61
1.007342941216939490e-61
9.137076489848395171e-62
7.835819129531033991e-62
6.434109081834788487e-62
5.311902471688447688e-62
4.582288278872570296e-62
3.842507497118002508e-62
2.767893082925811920e-62
2.010311005922745210e-62
1.607905442003873191e-62
1.069820171841036973e-62
8.036814369512345662e-63
5.617893235216423776e-63
3.900657968355026213e-63
2.738719786773311559e-63
1.930331182479019770e-63
1.378575064659990755e-63
9.998107769573379568e-64
7.397859804859642878e-64
5.575135942287226163e-64
4.267143780595712811e-64
3.299970130760265899e-64
2.560242347877108400e-64
1.978294246580147225e-64
1.512310961212745481e-64
