# bin_16_15
6.634190055040463408e-11
7.479177049019109073e-11
8.287265244548065196e-11
8.988046279904951747e-11
9.489487206707192974e-11
9.685402934150764186e-11
9.488019001525524557e-11
8.784763517892258893e-11
7.690770088688495774e-11
6.382289632784040544e-11
5.225236275653673267e-11
4.445117073261459368e-11
3.827433558714685662e-11
2.919447221849231544e-11
2.022881368562930825e-11
1.641102080754679458e-11
1.119633910496366914e-11
8.394570900785016978e-12
5.665819947635998342e-12
3.971362161904441459e-12
2.777373801856420770e-12
1.942017943775972243e-12
1.364228654256783677e-12
9.684983527690717368e-13
7.006040709478409904e-13
5.168244618192160824e-13
3.884328688998514944e-13
2.966444671492220355e-13
2.288135708545766410e-13
1.769938483120029194e-13
1.362796646737504086e-13
