# bin_19_15
7.217583641335747602e-08
6.808545392311778035e-08
6.262475662178227788e-08
5.607213976795460848e-08
4.884141907368668325e-08
4.143214287664649192e-08
3.434351477685317419e-08
2.795625449530691376e-08
2.244130117976948723e-08
1.776765361399454214e-08
1.380687505090169125e-08
1.049180289729501744e-08
7.855819540402374448e-09
5.881812884222426555e-09
4.404069455140651955e-09
3.286660331033004163e-09
2.472315701596229322e-09
1.870523733622790665e-09
1.427068604157129844e-09
1.095780291170801741e-09
8.449980624464534769e-10
6.522019748600447530e-10
5.019404221385294093e-10
3.837344155859882895e-10
2.903939821755412223e-10
2.168902197170465972e-10
1.595047549291973754e-10
1.153038244813833046e-10
8.184367286619424880e-11
5.701762629953008744e-11
3.899321143033573584e-11
