# bin_17_10
5.922355239480990923e-08
5.486209561251185045e-08
4.948963752501315131e-08
4.342772691946189632e-08
3.708873393659884608e-08
3.091187569440530193e-08
2.526669822688895531e-08
2.035428888058800920e-08
1.618836457473475702e-08
1.265968039939043529e-08
9.681180644827123119e-09
7.272037729122828381e-09
5.453509641635924784e-09
4.101901370457751590e-09
3.072336827939895004e-09
2.319017795626958982e-09
1.762609211288017793e-09
1.351555729777304406e-09
1.043683675527712684e-09
8.099107006853526010e-10
6.293296495262905473e-10
4.876844905432383143e-10
3.753907519801391899e-10
2.859467828419310998e-10
2.148632590780469425e-10
1.588614906923913527e-10
1.153568075940321715e-10
8.217269887662974653e-11
5.739311339476389738e-11
3.931213959755518239e-11
2.642943469479083927e-11
