# bin_3_2
1.739214674608512369e-08
1.466829270657416025e-08
1.210578252893700906e-08
9.823855028965399316e-09
7.867445371946449052e-09
6.215691136815622007e-09
4.824179370085782422e-09
3.674813477686932357e-09
2.775619154856533831e-09
2.105770952161723363e-09
1.602563013910278863e-09
1.224309364048722907e-09
9.459862406619559985e-10
7.375843473084656374e-10
5.801377362722172922e-10
4.586906230424928876e-10
3.630606045898702989e-10
2.863496351630699477e-10
2.240336011568195165e-10
1.731693648139507660e-10
1.317900208055376676e-10
9.848831709868372469e-11
7.213602096286300867e-11
5.172643830279930288e-11
3.630470240854429141e-11
2.495540322010176792e-11
1.682281498394622361e-11
1.114266680841155723e-11
7.267747583768144199e-12
4.678775848189194616e-12
2.979550874121815566e-12
