# bin_4_1
1.492800662801144758e-08
1.245136482538748882e-08
1.018707630321601701e-08
8.214971313026773036e-09
6.542393444276090125e-09
5.128691971517829984e-09
3.940343218495828237e-09
2.982141534863868938e-09
2.257431891358617761e-09
1.718003122019748309e-09
1.309279013504737358e-09
1.007555480682503735e-09
7.834219397852264083e-10
6.150754906846152889e-10
4.863867010486541841e-10
3.859054406607281108e-10
3.057723757782149345e-10
2.408106748177007428e-10
1.876769223722259106e-10
1.441947133287633950e-10
1.088809044459713849e-10
8.061590869545890325e-11
5.844088069583857236e-11
4.145519732780055948e-11
2.878272932009742097e-11
1.958192249368275387e-11
1.307695239274632568e-11
8.590607459933934717e-12
5.564364496811717656e-12
3.561852610578445006e-12
2.258020948527157914e-12
