# bin_14_1
1.827584313741141599e-08
1.534348459860706038e-08
1.261504597284455441e-08
1.021524062708621916e-08
8.173902804168908949e-09
6.443346871947626945e-09
4.971285437123418682e-09
3.763071870467261682e-09
2.841979876481557512e-09
2.159267304098035248e-09
1.639861326822223851e-09
1.256164290053005543e-09
9.727099880020509040e-10
7.610038122116582117e-10
6.004935767524507461e-10
4.762158709456410884e-10
3.778072498993217418e-10
2.983944078834102383e-10
2.335362226913318671e-10
1.803737399345901571e-10
1.370144534621053594e-10
1.020932734749930239e-10
7.448883661238197606e-11
5.316957722358765345e-11
3.713066300954397775e-11
2.539245386561110698e-11
1.703317664990491786e-11
1.123144754661769076e-11
7.297067555151251437e-12
4.682278589986842690e-12
2.973862088303788936e-12
