# bin_16_2
2.454139337325156395e-08
2.101824149157442354e-08
1.755626201381818380e-08
1.437684877641821570e-08
1.160780729863156556e-08
9.261782359556700271e-09
7.270042693988195531e-09
5.578393437846899558e-09
4.207361708513071095e-09
3.177516359756482910e-09
2.410936006211010034e-09
1.826806528246043202e-09
1.399181456748075918e-09
1.081715728410148799e-09
8.450610411615586106e-10
6.653858622626069595e-10
5.262244942450727189e-10
4.161013251302602140e-10
3.274023987559952873e-10
2.551896772462721030e-10
1.962471988679994092e-10
1.484135522166925661e-10
1.100984357786364660e-10
7.998114811221672584e-11
5.685070194183259554e-11
3.954272221625521159e-11
2.693996623496017082e-11
1.800760231551659305e-11
1.183542226751420061e-11
7.666718371322709761e-12
4.906337703301641088e-12
