# bin_14_9
5.375122241016926658e-08
4.938854695133450711e-08
4.417682097033373475e-08
3.844234383487218246e-08
3.257912971645731423e-08
2.698181884485808219e-08
2.194996051780449391e-08
1.761574968858070381e-08
1.394922079999917508e-08
1.084339838303186161e-08
8.244968188784777709e-09
6.185453293266433205e-09
4.650126655298118413e-09
3.498884721184293254e-09
2.628042771975082815e-09
1.993517104069426552e-09
1.522194715186567596e-09
1.172843946003064389e-09
9.095589115517823653e-10
7.079602316891803533e-10
5.509557497473449380e-10
4.269300749574132951e-10
3.280979964957805647e-10
2.491657724171588600e-10
1.864316003370341870e-10
1.371181082495842826e-10
9.897080963634539584e-11
7.004224165251449131e-11
4.859131652793800357e-11
3.306059865953976569e-11
2.208476493526723043e-11
