# bin_13_2
2.390923391133993416e-08
2.045675126758054611e-08
1.707429974025887625e-08
1.397424195160541542e-08
1.127705599486776316e-08
8.992423054313937553e-09
7.053759746615483996e-09
5.410061320817112498e-09
4.080750776045424602e-09
3.082739815989136941e-09
2.339450911145070612e-09
1.773526483843863029e-09
1.359104812339630643e-09
1.051283846066225654e-09
8.216338907623161532e-10
6.471079773413708380e-10
5.117961917009607718e-10
4.046277023812785193e-10
3.182618034573068874e-10
2.479368858958910459e-10
1.905474569288063251e-10
1.439988083343411857e-10
1.067415081364289430e-10
7.748262759499569142e-11
5.503383021661675037e-11
3.825275653430190234e-11
2.604528769860901529e-11
1.740051472213056704e-11
1.143148324159021903e-11
7.402478702667716682e-12
4.735939969026870735e-12
