# bin_10_7
4.348170655635066603e-08
3.924592597641270238e-08
3.447062693941951703e-08
2.947369051107430598e-08
2.459473201199837404e-08
2.012292854787873881e-08
1.622169437173685623e-08
1.291089386218496667e-08
1.011236325441746275e-08
7.755611786897072407e-09
5.845013738974115689e-09
4.394354249407629431e-09
3.317614033911974565e-09
2.499390454044813239e-09
1.896528226732615114e-09
1.451534553836380812e-09
1.120669624110183103e-09
8.715220365054245359e-10
6.809034793668282813e-10
5.323455363748137695e-10
4.147206849683604885e-10
3.206068411274307120e-10
2.450177930314706647e-10
1.845185956602048708e-10
1.365880705297767680e-10
9.920428321884199303e-11
7.062004688594577044e-11
4.925657581918297163e-11
3.367536390692859026e-11
2.259161325979780447e-11
1.489652817248231253e-11
