# bin_11_9
5.013146286620557349e-08
4.581855283875584486e-08
4.076524747946606109e-08
3.529410681842792891e-08
2.977917465036040434e-08
2.457780136600895132e-08
1.994240865644711144e-08
1.596686029375206671e-08
1.260541409468227987e-08
9.763417836474797427e-09
7.406023821070705986e-09
5.558506507730871560e-09
4.183724293982327455e-09
3.149385251866663493e-09
2.371776662038269254e-09
1.803778396727126375e-09
1.381465425752856549e-09
1.067179783632583390e-09
8.293462050462883914e-10
6.463353697948781463e-10
5.031444370276252243e-10
3.896201555392765876e-10
2.989540212871868726e-10
2.264994930943873610e-10
1.689668822835852074e-10
1.238429867799146210e-10
8.905139393071897945e-11
6.277479536002153626e-11
4.337931382575921958e-11
2.940421073274063661e-11
1.957500332181063914e-11
