# bin_10_10
5.059079132578831595e-08
4.628483924086452442e-08
4.122498127656301117e-08
3.573241715780184353e-08
3.018167530522311875e-08
2.493285789550497980e-08
2.024440132676016271e-08
1.621704722949572280e-08
1.281058801343393003e-08
9.931349079667774977e-09
7.540702645087314623e-09
5.661006658225109964e-09
4.259028972015462876e-09
3.206182123007492760e-09
2.413599745719094597e-09
1.834238617059288675e-09
1.403835914639058793e-09
1.083700484236088241e-09
8.416359969523833842e-10
6.555991797488519990e-10
5.102168259209210035e-10
3.950770857724948087e-10
3.031939075279073669e-10
2.298004391774472491e-10
1.715279413048939868e-10
1.258132267930934987e-10
9.054755304769769259e-11
6.389212054151833203e-11
4.419760749735333718e-11
2.999083483955797580e-11
1.998629202999728041e-11
