# bin_14_12
6.079685334911919538e-08
5.650529373071736997e-08
5.116045141967365490e-08
4.507361950527859679e-08
3.865155908646773979e-08
3.233487605669493094e-08
2.650755705839015593e-08
2.139803607107858679e-08
1.704857461261947012e-08
1.336867966239484331e-08
1.026421305408657105e-08
7.731847684801277984e-09
5.793020533417277086e-09
4.353619640708632556e-09
3.262394417716471743e-09
2.454798593272990281e-09
1.862486103829071214e-09
1.423682063600921173e-09
1.096405846726683425e-09
8.488581213910304520e-10
6.584595831939874425e-10
5.097642677399454927e-10
3.923219749808674723e-10
2.990412379123203925e-10
2.250227538588053251e-10
1.667261634940026701e-10
1.213995657864567692e-10
8.675872492736138025e-11
6.081743094876854277e-11
4.182020358094103361e-11
2.822775163125086423e-11
