# bin_17_15
6.998699695622599142e-08
6.585319705194894166e-08
6.040947126971602592e-08
5.394103667453442745e-08
4.686106873776103875e-08
3.965858698226135860e-08
3.281148740443891088e-08
2.667135390146698469e-08
2.138361176493365334e-08
1.690440666189538507e-08
1.311056456074349300e-08
9.947432059202259492e-09
7.447779673458386387e-09
5.579873116059809449e-09
4.178472691160602782e-09
3.122016818171457946e-09
2.351907696032788108e-09
1.782334236254124852e-09
1.361940090185101040e-09
1.047263979978695040e-09
8.084329454625669021e-10
6.243437910256792117e-10
4.805406916325198828e-10
3.672221552501015054e-10
2.776569944675115840e-10
2.071160860878895754e-10
1.520754782019411218e-10
1.097317679826631392e-10
7.773241074188322885e-11
5.403992794155130684e-11
3.687891993332467671e-11
