# bin_1_10
-1.552784323905930158e-42
-1.674540677565463312e-42
-1.756525406518254465e-42
-1.780533336774499165e-42
-1.727452015656742185e-42
-1.582946069604844345e-42
-1.371321170371312372e-42
-1.132248540868913330e-42
-9.296887145619911253e-43
-7.957622717747697994e-43
-6.775464271188985007e-43
-5.044227725784174210e-43
-3.573080674574115125e-43
-2.907345418957241969e-43
-1.974799019676931874e-43
-1.510094201705643436e-43
-1.061746661319301007e-43
-7.628380471031838512e-44
-5.566757424681327391e-44
-4.103766661912741386e-44
-3.072563355372337410e-44
-2.339890689774097517e-44
-1.812805755149674792e-44
-1.420913358129005537e-44
-1.119563435083281753e-44
-8.806911023357340893e-45
-6.867834039091839293e-45
-5.276882946981801391e-45
-3.974102710498075708e-45
-2.921723967737627914e-45
-2.091612365630181531e-45
