# bin_7_2
-1.891665979582177656e-09
-1.897389212774082736e-09
-1.815983201991442449e-09
-1.643647760142682612e-09
-1.407873469293913634e-09
-1.159517686527640123e-09
-9.598003294250835796e-10
-8.225011073002372516e-10
-6.828982253663587504e-10
-5.009120322066640600e-10
-3.690527383680777935e-10
-2.897329893239981972e-10
-2.046885849097346623e-10
-1.533909835229312063e-10
-1.116457014472854085e-10
-8.251909904987201794e-11
-6.191991144466630395e-11
-4.727181890106564307e-11
-3.675695199602211019e-11
-2.902176312335450139e-11
-2.315547630198583779e-11
-1.853097074681881137e-11
-1.476498418465283096e-11
-1.163137485389364407e-11
-9.002419136382285760e-12
-6.810660794597754948e-12
-5.018547882427755797e-12
-3.596071787788661664e-12
-2.507205213926193712e-12
-1.704633086941602340e-12
-1.133807484771513807e-12
