# bin_4_1
-1.933082879708879693e-09
-1.859995982621623705e-09
-1.694424499399836226e-09
-1.461498659028268537e-09
-1.209003182174404881e-09
-9.986574727271413183e-10
-8.512252981872014452e-10
-7.115653763087706749e-10
-5.327501470599270217e-10
-3.889618085526452902e-10
-3.048360282349653693e-10
-2.189514805380068576e-10
-1.633116116302095819e-10
-1.194847856684138665e-10
-8.901554178230001350e-11
-6.720059893589858321e-11
-5.165701730814873030e-11
-4.045212623267685835e-11
-3.215254597770130738e-11
-2.579767113621248139e-11
-2.073747387653997837e-11
-1.657534281708846167e-11
-1.308215958707978400e-11
-1.013305565143604487e-11
-7.665302278848043567e-12
-5.644879523350083461e-12
-4.042455497118318781e-12
-2.817510049890613650e-12
-1.915845078183549732e-12
-1.274957552096993781e-12
-8.331606265613615809e-13
