# bin_10_18
-1.712358434007527907e-25
-1.924755651234601407e-25
-2.125172913349519440e-25
-2.294807123196028538e-25
-2.409542117265132036e-25
-2.444134735156019112e-25
-2.372128176722704323e-25
-2.173419897384645350e-25
-1.882223920884736696e-25
-1.553709410019035971e-25
-1.276527649227501755e-25
-1.094765109269804044e-25
-9.324008374724876716e-26
-6.901322517816157946e-26
-4.868066135818387115e-26
-3.965107354822718094e-26
-2.631844078973135785e-26
-2.001229046685738181e-26
-1.373487278606031911e-26
-9.517944182816987072e-27
-6.685024320035272186e-27
-4.697208899529071614e-27
-3.327474398497975300e-27
-2.388155841393216085e-27
-1.748453517200961389e-27
-1.304833253634195676e-27
-9.907004837385317673e-28
-7.621818909517835499e-28
-5.901727997937418815e-28
-4.565931105953031269e-28
-3.504447885089241082e-28
