# bin_15_5
-1.286167780497373726e-09
-1.369215259837212853e-09
-1.413068883723806579e-09
-1.405335049798213325e-09
-1.327664312835788049e-09
-1.185133514970732969e-09
-1.000678707562853715e-09
-8.195307319074200802e-10
-6.845227382216606703e-10
-5.910019591949553305e-10
-4.780587251327581542e-10
-3.376641053796962559e-10
-2.588793287873429886e-10
-1.965770314097652744e-10
-1.389674064779245381e-10
-1.014028689443539982e-10
-7.403332509327520130e-11
-5.369329168002662660e-11
-3.947406169801222935e-11
-2.951984252923634472e-11
-2.247793809000466124e-11
-1.740839628703088994e-11
-1.366339592433294446e-11
-1.079687983960160728e-11
-8.530542205935768687e-12
-6.692000919188404195e-12
-5.178277337222348933e-12
-3.930765950906160918e-12
-2.914284892618121043e-12
-2.103965125898405774e-12
-1.477826399725570227e-12
