# bin_15_14
-5.508021004609148967e-11
-6.178307913539968788e-11
-6.804339585687079387e-11
-7.324464657891310891e-11
-7.660313731282433431e-11
-7.735963802353031837e-11
-7.458554001386881557e-11
-6.787249993499735839e-11
-5.836442721401575066e-11
-4.802888799774973167e-11
-3.960093803233192090e-11
-3.410563920709536345e-11
-2.874048205439118633e-11
-2.087734017579890792e-11
-1.502625472515181432e-11
-1.209406406826013216e-11
-8.035100768337621184e-12
-6.063184276704999445e-12
-4.215375266025774814e-12
-2.924373214295673224e-12
-2.053629971581697112e-12
-1.445954590291847796e-12
-1.030093174431249434e-12
-7.447057016200146566e-13
-5.492747270742505465e-13
-4.127320544219261256e-13
-3.151500989674479526e-13
-2.433522823081148814e-13
-1.887015351736924809e-13
-1.458712044733399931e-13
-1.116508191252176147e-13
