# bin_18_1
-3.768062179577612324e-09
-3.636640280731806660e-09
-3.323820069052120818e-09
-2.875916533522182385e-09
-2.382814868066657996e-09
-1.965842036208746594e-09
-1.673098417219807017e-09
-1.404260883912403059e-09
-1.058569348227870171e-09
-7.694787505417120309e-10
-6.034641610585465714e-10
-4.347971945093534802e-10
-3.236216619721155922e-10
-2.366719521289939676e-10
-1.761995548061514170e-10
-1.327999431521532262e-10
-1.019055400709355948e-10
-7.967217635128205786e-11
-6.324435341924706342e-11
-5.070404924148626272e-11
-4.075019544675783608e-11
-3.258321026580813459e-11
-2.573916517581689267e-11
-1.996341396589410372e-11
-1.512697005051585469e-11
-1.116061435876400861e-11
-8.007608286192844067e-12
-5.591041506537574748e-12
-3.807735604573072837e-12
-2.537311592441700902e-12
-1.659868819000287162e-12
