# bin_3_1
-1.488997397503238582e-09
-1.430039729212882839e-09
-1.300116843539402898e-09
-1.119227118715851382e-09
-9.249639044546115974e-10
-7.646183994226617425e-10
-6.523439447769174947e-10
-5.439446809204464138e-10
-4.055212817371412487e-10
-2.968932753965265578e-10
-2.325758045204417182e-10
-1.667268121060841530e-10
-1.245221123689415311e-10
-9.113035781066030892e-11
-6.792005311007408217e-11
-5.132759463196181260e-11
-3.949820601353034604e-11
-3.096171700820778177e-11
-2.462886072902891943e-11
-1.977067182869027491e-11
-1.589463807966485509e-11
-1.270163210308738931e-11
-1.001933584004069941e-11
-7.754271123459295410e-12
-5.859733181974621255e-12
-4.310214616361184492e-12
-3.083014146226039931e-12
-2.146419546260235872e-12
-1.458088959651322556e-12
-9.695282932380881245e-13
-6.331401931679041343e-13
