# bin_16_8
-6.607451083126868468e-10
-7.228935819895889859e-10
-7.720487921206522665e-10
-7.996500720769710322e-10
-7.986766908071482794e-10
-7.583958801756362282e-10
-6.801211852099700066e-10
-5.764382364911240823e-10
-4.722216643408943425e-10
-3.931573845520667561e-10
-3.399646185443146198e-10
-2.780592294681606600e-10
-1.963577658011031266e-10
-1.486318012056887545e-10
-1.144145061518284189e-10
-7.919316467736198723e-11
-5.787881220827544836e-11
-4.179293980988375104e-11
-2.977423957702962326e-11
-2.143897098208868626e-11
-1.566197510047250135e-11
-1.164025250298798643e-11
-8.807157017492275415e-12
-6.778182753286727115e-12
-5.279220157165397007e-12
-4.136294980780409189e-12
-3.237662722553542371e-12
-2.514045075405184972e-12
-1.924873266198645941e-12
-1.445889939224353484e-12
-1.061367669846657737e-12
