# bin_11_2
-2.451024906770110999e-09
-2.460016718613782004e-09
-2.356537936583367431e-09
-2.134837434805902784e-09
-1.830191265745868980e-09
-1.507848681719147698e-09
-1.247541348867241324e-09
-1.068722151948201286e-09
-8.886302203360998290e-10
-6.530019539804386235e-10
-4.801681273461448094e-10
-3.774195948771539914e-10
-2.666225763458720733e-10
-1.998477817468460127e-10
-1.453614466416685295e-10
-1.074267310706221644e-10
-8.057717954243707788e-11
-6.148484737592064696e-11
-4.778586311056499987e-11
-3.771469222489907911e-11
-3.008356256171816141e-11
-2.407323762463272652e-11
-1.918231696629421089e-11
-1.511463100547525505e-11
-1.170261388987728737e-11
-8.857620692580796130e-12
-6.530380922235853216e-12
-4.681985384764192706e-12
-3.266021922464521536e-12
-2.221578775800830801e-12
-1.478221794477456640e-12
