# bin_2_12
-2.554640126189475884e-45
-2.791755314575007673e-45
-2.977340973543046966e-45
-3.078028600064507854e-45
-3.067740490945334819e-45
-2.903932489448339132e-45
-2.596276515111128721e-45
-2.193411429150690249e-45
-1.794948341949082223e-45
-1.497776131639535100e-45
-1.296705315060811040e-45
-1.053769884807748131e-45
-7.383599309037199931e-46
-5.655560427940529452e-46
-4.306358182436712761e-46
-3.003745184105058724e-46
-2.171872120529341635e-46
-1.580188907211159024e-46
-1.127956145845582894e-46
-8.123797298015567892e-47
-5.948823884311235867e-47
-4.432557032794858616e-47
-3.362679004350504747e-47
-2.593826425539346641e-47
-2.023592488740755682e-47
-1.587041309899422869e-47
-1.242485529600450046e-47
-9.642717353929432432e-48
-7.374191822470320288e-48
-5.529636823745036424e-48
-4.050114906279906231e-48
