# bin_16_4
-1.705515622216591182e-09
-1.789843129661354924e-09
-1.815991071673781008e-09
-1.764975032314605031e-09
-1.622152261388663124e-09
-1.409740661970322275e-09
-1.167434950051026597e-09
-9.587975422238957971e-10
-8.172992923138784295e-10
-6.954242901125082949e-10
-5.246596386337296261e-10
-3.732064789376738920e-10
-2.993947222120337509e-10
-2.097075700724621833e-10
-1.577392389373369809e-10
-1.123677004712408908e-10
-8.216217839276273295e-11
-6.058102709698593555e-11
-4.527110410876051798e-11
-3.443579949178899938e-11
-2.664208259283690811e-11
-2.092264820786436241e-11
-1.657460345731709152e-11
-1.315152050774968872e-11
-1.037895264849499842e-11
-8.091293918135077233e-12
-6.194497979159477258e-12
-4.634821017853438622e-12
-3.377819048121184948e-12
-2.394481528335862480e-12
-1.652204677334692076e-12
