# bin_2_8
-6.826519596238415940e-26
-7.288469984126546674e-26
-7.548634358023126000e-26
-7.541314614099592671e-26
-7.164589089089350638e-26
-6.428652480358589828e-26
-5.451182088634754932e-26
-4.464730682049047829e-26
-3.712942786405412435e-26
-3.209654338089275035e-26
-2.632508662314838596e-26
-1.863439662896485554e-26
-1.408333121378609612e-26
-1.092027607275389600e-26
-7.577432467122052940e-27
-5.598337952466483328e-27
-4.080623893757430416e-27
-2.947283228975807578e-27
-2.158748399945549037e-27
-1.608346040782638531e-27
-1.220774118326791575e-27
-9.426745346264032534e-28
-7.383651235861832378e-28
-5.828567010969970702e-28
-4.605293392451815087e-28
-3.616687385745773049e-28
-2.804192973635242748e-28
-2.134537453074340760e-28
-1.587842590786556055e-28
-1.150448643137736384e-28
-8.108958818741363918e-29
