# bin_5_14
-1.999495119334721351e-34
-2.213330812079085188e-34
-2.398342332096796190e-34
-2.530010742950701917e-34
-2.580342179784752094e-34
-2.525406320862455304e-34
-2.336224181549434762e-34
-2.043243413263287995e-34
-1.695793807817314862e-34
-1.388579402895822987e-34
-1.181467511223319119e-34
-1.016210516782729944e-34
-7.745812038739632544e-35
-5.386698957291078094e-35
-4.374403719272384430e-35
-3.004038063522421670e-35
-2.265321567576741159e-35
-1.553740628573693154e-35
-1.107826161315180119e-35
-7.918249340657239800e-36
-5.690738382887062015e-36
-4.134359845206222965e-36
-3.049281814878256407e-36
-2.293403256231607106e-36
-1.754384387653849810e-36
-1.358867201918622264e-36
-1.059678401772216853e-36
-8.259580109632279392e-37
-6.390230336631705140e-37
-4.877126068260868150e-37
-3.654207717271276582e-37
