# bin_18_5
-1.434853541739063190e-09
-1.527633482153713845e-09
-1.576730613259402655e-09
-1.568310291267717759e-09
-1.481893644981220458e-09
-1.323030229735922094e-09
-1.117285550211620929e-09
-9.150528268722756811e-10
-7.642080968868228449e-10
-6.597982284581987320e-10
-5.339250609715839648e-10
-3.772049028897677338e-10
-2.890445334792076142e-10
-2.196157398383408454e-10
-1.551811059025821955e-10
-1.132778186058530877e-10
-8.268954512321123082e-11
-5.996474959287261835e-11
-4.408105046743131450e-11
-3.296139422212050794e-11
-2.509577299625146821e-11
-1.943381378752443508e-11
-1.525194952825359456e-11
-1.205165540379768528e-11
-9.521863754888234861e-12
-7.469875369035922194e-12
-5.780536487100827109e-12
-4.388309965354775875e-12
-3.253858846811310194e-12
-2.349403014715839740e-12
-1.650424461087176221e-12
