# bin_15_13
-1.086234192194698202e-10
-1.215245299938457522e-10
-1.334118282759869275e-10
-1.430423845348694703e-10
-1.488485927568558074e-10
-1.494582174636344409e-10
-1.429055766632153783e-10
-1.289799658595236614e-10
-1.099797830050396127e-10
-9.022865126782714772e-11
-7.479021157875699411e-11
-6.465815740485179126e-11
-5.364628155757277790e-11
-3.817915040236135343e-11
-2.826355412890610541e-11
-2.220547298640896129e-11
-1.495677093809093010e-11
-1.105508513275618252e-11
-7.813777948399250298e-12
-5.443220035494335740e-12
-3.822734934939729220e-12
-2.704781811268773918e-12
-1.940974310111838315e-12
-1.415707096610550674e-12
-1.053280793764348822e-12
-7.976172627928519495e-13
-6.127676045959876959e-13
-4.748807527415833306e-13
-3.685774264495888461e-13
-2.844531587654277873e-13
-2.168988307965859218e-13
