# bin_13_19
-4.185184633330413892e-19
-4.725021606356572246e-19
-5.244502690470563820e-19
-5.699876007547754280e-19
-6.033395626159593190e-19
-6.176541321877835139e-19
-6.075768239062534602e-19
-5.653350336428725055e-19
-4.972134010667684239e-19
-4.141941452158023989e-19
-3.389113527564902752e-19
-2.872666087991444500e-19
-2.481103684980079234e-19
-1.918401364950583724e-19
-1.325127337862486442e-19
-1.067294642346616883e-19
-7.426697518213924794e-20
-5.489548972366283240e-20
-3.699135516972969123e-20
-2.616708930837230843e-20
-1.822515306907221140e-20
-1.268322288981882227e-20
-8.878098267982459810e-21
-6.274934985509260906e-21
-4.515253451359167240e-21
-3.313203843926145426e-21
-2.478052853175048410e-21
-1.885383923594042444e-21
-1.451022784237938755e-21
-1.121794127201653042e-21
-8.646632136625975282e-22
