# bin_6_7
-8.773740894499893796e-12
-9.467584724085058912e-12
-9.938882819701928139e-12
-1.008368767563636613e-11
-9.796212269021559815e-12
-8.990807996653568729e-12
-7.801295683820435905e-12
-6.447549153936226026e-12
-5.292069705291775196e-12
-4.524052719048884072e-12
-3.857050989256087652e-12
-2.884808446173878517e-12
-2.039322323568176176e-12
-1.656524717670228591e-12
-1.131053187899871684e-12
-8.618980555322937745e-13
-6.049620808002246505e-13
-4.354165681636683052e-13
-3.174538496966716743e-13
-2.338036784861625612e-13
-1.748659399990517917e-13
-1.330179764345392799e-13
-1.029497016740821637e-13
-8.063401277346513268e-14
-6.350582160746807073e-14
-4.995186383697345942e-14
-3.896335824160781849e-14
-2.995365166885383086e-14
-2.257664929757617505e-14
-1.661518598769185929e-14
-1.190849827938604420e-14
