# bin_17_17
-1.680949460517343022e-11
-1.898727729781816806e-11
-2.108761619446100676e-11
-2.293579351992237561e-11
-2.430049662522893614e-11
-2.490497369836503346e-11
-2.453614228544960809e-11
-2.287341551386798500e-11
-2.015322683707382582e-11
-1.681168635905712419e-11
-1.375388735808923928e-11
-1.163948059656594549e-11
-1.006053699035382536e-11
-7.821822531535418038e-12
-5.400647945237646203e-12
-4.331327758494678993e-12
-3.040916041384092468e-12
-2.230709686176052713e-12
-1.506275541872124488e-12
-1.068842630978851389e-12
-7.430898749032118366e-13
-5.158873715874140129e-13
-3.605708817380126318e-13
-2.543957336066085513e-13
-1.826489543619674841e-13
-1.337219722175886465e-13
-9.980355533609682534e-14
-7.580409684579974667e-14
-5.827550643818957057e-14
-4.503442643462444605e-14
-3.472107599275038532e-14
