# bin_16_15
-4.883037886460558455e-11
-5.492342309278167746e-11
-6.069037071217221800e-11
-6.559882338241614120e-11
-6.896320903531611231e-11
-7.004945217276756656e-11
-6.812712500570674759e-11
-6.256534924209164175e-11
-5.431282523366628342e-11
-4.489047020585921712e-11
-3.685303010693764315e-11
-3.155222106156826105e-11
-2.694208521355091603e-11
-2.007555396570509736e-11
-1.410074475972855870e-11
-1.148055207055011886e-11
-7.661713650592921853e-12
-5.812295846158935339e-12
-3.972779757498712763e-12
-2.758593614040267177e-12
-1.936306864039693779e-12
-1.359596146935921448e-12
-9.613703134325826791e-13
-6.883310445115618781e-13
-5.026476063048461695e-13
-3.741886634998679741e-13
-2.834966779838139459e-13
-2.177723904796035261e-13
-1.684958483336212718e-13
-1.303601216388789935e-13
-1.001260947769907649e-13
