# bin_20_17
-9.494988407791124040e-11
-1.073584548931017027e-10
-1.193787160842476097e-10
-1.300347900752129497e-10
-1.380276173912687354e-10
-1.417795554931329331e-10
-1.401010039032559516e-10
-1.310959606064673305e-10
-1.159160285848475379e-10
-9.697005728093574199e-11
-7.931904137391129181e-11
-6.691704144108481196e-11
-5.791152493839086264e-11
-4.551007799007933811e-11
-3.142541183790058456e-11
-2.497020415198025619e-11
-1.783828471866255018e-11
-1.288824631459803743e-11
-8.758051089738808402e-12
-6.241396916357049368e-12
-4.324873276174887074e-12
-2.989304959106132707e-12
-2.082872760543855145e-12
-1.464374087159154419e-12
-1.046694718130573345e-12
-7.628154193795607381e-13
-5.668631349630891272e-13
-4.290173602001441286e-13
-3.290303879255382638e-13
-2.540206907505756569e-13
-1.959273998051231773e-13
