# bin_5_2
-1.407791738550293238e-09
-1.410687531844762459e-09
-1.348375665007851262e-09
-1.218743603517164087e-09
-1.042547071694650153e-09
-8.581936836992634363e-10
-7.108897321141648193e-10
-6.095073699816120506e-10
-5.049295904617156394e-10
-3.693465792977305225e-10
-2.729323283769323573e-10
-2.138796307832929380e-10
-1.511125693949776168e-10
-1.132035047922735397e-10
-8.247988292379054422e-11
-6.097273954549785979e-11
-4.578043075977742415e-11
-3.497682906537668817e-11
-2.721638394862680168e-11
-2.150193734179927854e-11
-1.716232884334443429e-11
-1.373662740242626040e-11
-1.094376612189506621e-11
-8.618180760089419166e-12
-6.666613184786589730e-12
-5.039936401342812181e-12
-3.710735572225399410e-12
-2.656701530675077217e-12
-1.850790418194917857e-12
-1.257449002523993901e-12
-8.358717766464997442e-13
