# bin_4_15
-2.983643348120535497e-45
-3.308067846682622069e-45
-3.591712868240517737e-45
-3.798276773610449945e-45
-3.884985924994493705e-45
-3.817834321000772222e-45
-3.549001252435059772e-45
-3.118645993774513571e-45
-2.596535943051917340e-45
-2.124317550762656169e-45
-1.800465698263044790e-45
-1.553621702210186510e-45
-1.200519932497652045e-45
-8.315331285777539945e-46
-6.704759448341624273e-46
-4.690305912589596627e-46
-3.488293281237757983e-46
-2.388120542282389639e-46
-1.715233264196048138e-46
-1.221280893706868973e-46
-8.739422864349782394e-47
-6.327726195738002391e-47
-4.649213666813659562e-47
-3.482814229856544011e-47
-2.655200714383033269e-47
-2.051414672955820937e-47
-1.597571622940203588e-47
-1.245078992217010739e-47
-9.642809983365967166e-48
-7.374268927582263915e-48
-5.540602856804762337e-48
