# bin_11_11
-3.164281799374269363e-11
-3.509099946283340217e-11
-3.810994199822230184e-11
-4.031513416818592773e-11
-4.125302154121273831e-11
-4.056230207386294183e-11
-3.773371215435786616e-11
-3.318074740952705318e-11
-2.764339924735486088e-11
-2.261718049343453768e-11
-1.915669783212269484e-11
-1.653069688589739618e-11
-1.280228242882455401e-11
-8.871896480600617962e-12
-7.134822472141914784e-12
-5.012156970998017187e-12
-3.712579269857041200e-12
-2.547354043629913163e-12
-1.831031742604745138e-12
-1.302599158790382976e-12
-9.311135240142950224e-13
-6.737595536034293648e-13
-4.947449876031031576e-13
-3.703699622164539513e-13
-2.821890210733093367e-13
-2.179152461448587472e-13
-1.696524970490018560e-13
-1.322053723576697861e-13
-1.023977497420609613e-13
-7.832739397528746940e-14
-5.887340570509978527e-14
