# bin_14_3
-2.063538123600647714e-09
-2.124528689519286944e-09
-2.106775399879403911e-09
-1.984501992462193148e-09
-1.767022631451757288e-09
-1.490020112899805573e-09
-1.221184463465300017e-09
-1.021594273123196366e-09
-8.795059037451940525e-10
-7.071650737491455746e-10
-5.025712915125289188e-10
-3.862044169154087675e-10
-2.920093088516922451e-10
-2.088256134160019369e-10
-1.532662763654100083e-10
-1.125394892770639674e-10
-8.274010078276584387e-11
-6.181293227311804590e-11
-4.702459561613590234e-11
-3.642431461261313245e-11
-2.864891105749906671e-11
-2.276258691376445793e-11
-1.813688750757659116e-11
-1.438760148243454167e-11
-1.128514965330874874e-11
-8.698005989889223269e-12
-6.554196222378859240e-12
-4.811440080811744313e-12
-3.434907655153880283e-12
-2.386244194653715757e-12
-1.616670232280904483e-12
