# bin_9_20
-4.711158615726215548e-36
-5.308246958627523401e-36
-5.877840066532263150e-36
-6.369533140199998962e-36
-6.717721474718228156e-36
-6.848079212679734377e-36
-6.695912963611290160e-36
-6.185929920615026805e-36
-5.402631060691693063e-36
-4.479796371779217885e-36
-3.670432304761425810e-36
-3.129082708193411164e-36
-2.689310171148225101e-36
-2.037445769765485694e-36
-1.416048752773530281e-36
-1.152019615119545415e-36
-7.791481621641581543e-37
-5.876304953397486594e-37
-3.977409336406610600e-37
-2.776564974202191626e-37
-1.945277688598881040e-37
-1.362852701664232126e-37
-9.592093151953501288e-38
-6.826180457402606468e-38
-4.951753438970095448e-38
-3.662748841232602470e-38
-2.759546199878884927e-38
-2.111321074261346696e-38
-1.630257791428827481e-38
-1.261307989843410745e-38
-9.706007295166314431e-39
