# bin_19_12
-3.357261928183089575e-10
-3.745424928677798751e-10
-4.097612217164120708e-10
-4.374543210719735333e-10
-4.527134132687423528e-10
-4.516442103180224508e-10
-4.280084312540741953e-10
-3.830431488638644031e-10
-3.239132197267148739e-10
-2.651945718125908263e-10
-2.212756437656342998e-10
-1.916239339554217271e-10
-1.558955693732640306e-10
-1.091743579828494357e-10
-8.331451028639559670e-11
-6.332655699385694218e-11
-4.377837726854924244e-11
-3.139938243959724095e-11
-2.253899558254653984e-11
-1.579473666456265392e-11
-1.111862689268325475e-11
-7.924479748795479254e-12
-5.731111124781804502e-12
-4.217820757585950536e-12
-3.164775704056179202e-12
-2.414098663033247170e-12
-1.864555435728206669e-12
-1.448928763838493401e-12
-1.124639698378133655e-12
-8.658633984244539330e-13
-6.573270888643659822e-13
