# bin_11_1
-3.303102192820006705e-09
-3.186461618474806290e-09
-2.910952316107398630e-09
-2.517521335137984128e-09
-2.085386157313538464e-09
-1.720769965497726148e-09
-1.464846392708159971e-09
-1.228740797094417344e-09
-9.253335516958433434e-10
-6.730606649798185665e-10
-5.277956487519319380e-10
-3.801046753591510705e-10
-2.830011637080778079e-10
-2.069782361957074256e-10
-1.541082512350188949e-10
-1.161779161910377037e-10
-8.917321333642909006e-11
-6.973432236324801828e-11
-5.536609125436723164e-11
-4.439309501808731008e-11
-3.567923056796384576e-11
-2.852702364785942120e-11
-2.253204361259096104e-11
-1.747252825071605030e-11
-1.323627987010006614e-11
-9.762998408845860773e-12
-7.002889772531657643e-12
-4.888264434079124047e-12
-3.328354953187813605e-12
-2.217447357972816778e-12
-1.450391620466945201e-12
