# bin_3_14
-8.409255018947930193e-48
-9.279211613741240562e-48
-1.001595553471361706e-47
-1.051495904191891923e-47
-1.066572655601383679e-47
-1.035602810244616491e-47
-9.494762390092727620e-48
-8.232778870405454418e-48
-6.793376593315875206e-48
-5.576044505022629854e-48
-4.774094815583853105e-48
-4.069959478350754530e-48
-3.027233434315186360e-48
-2.134181252068915472e-48
-1.739211756255207487e-48
-1.168257020745888634e-48
-8.916466938564176790e-49
-6.186899437964276339e-49
-4.372209115516098060e-49
-3.136461483603204248e-49
-2.263403491163358412e-49
-1.653842379388299430e-49
-1.228022401181549438e-49
-9.297204754006163872e-50
-7.150941645587045212e-50
-5.560085259852457686e-50
-4.343587146806212743e-50
-3.384379892904739392e-50
-2.612503172168105516e-50
-1.986249801308478521e-50
-1.480560824079460447e-50
