# bin_20_17
-9.495466260894088125e-11
-1.073516409967071040e-10
-1.193555177390264292e-10
-1.299904764198835983e-10
-1.379583132078527906e-10
-1.416824181709552869e-10
-1.399813155326808504e-10
-1.309592575134544615e-10
-1.157752386601701753e-10
-9.681712627219550647e-11
-7.917127012978327391e-11
-6.677326194667400700e-11
-5.778205365497652641e-11
-4.540880391012312597e-11
-3.134578877352168927e-11
-2.489815966752421710e-11
-1.779024049909682603e-11
-1.284595627029934967e-11
-8.729136981240257379e-12
-6.220488345755900804e-12
-4.308714918704967868e-12
-2.977021594972491845e-12
-2.073554349845668890e-12
-1.457273774485926907e-12
-1.041171951009211249e-12
-7.584736338048018220e-13
-5.634201242805771387e-13
-4.262757001769446755e-13
-3.268542781015457254e-13
-2.523110468130314905e-13
-1.946063474397080629e-13
