# bin_18_16
-7.481789989764283176e-11
-8.438360962361114672e-11
-9.354919296546937973e-11
-1.015245230791828163e-10
-1.072738172087412713e-10
-1.095928372964490552e-10
-1.075009570913643155e-10
-9.969528819065105241e-11
-8.741379045385916664e-11
-7.263004711515525768e-11
-5.945115985828777581e-11
-5.050463007828086154e-11
-4.352082562428348343e-11
-3.335696842468247138e-11
-2.309671973320248653e-11
-1.867478002478968058e-11
-1.284133192163791155e-11
-9.566758966285303012e-12
-6.459580972577450503e-12
-4.543184323171153857e-12
-3.171180624239160425e-12
-2.212289752433580624e-12
-1.551709991180112461e-12
-1.099587662212213067e-12
-7.936906677390751347e-13
-5.842113273492180309e-13
-4.381974411899985661e-13
-3.341214004558582000e-13
-2.574680130217191058e-13
-1.990960191368538324e-13
-1.533476930681716711e-13
