# bin_16_6
-1.058723646152817677e-09
-1.139573660457440591e-09
-1.192543978312568142e-09
-1.205644050004662439e-09
-1.165401249376311932e-09
-1.064105314933888494e-09
-9.189349976982103943e-10
-7.573668753461168509e-10
-6.230961412364775609e-10
-5.339848303197128131e-10
-4.516910694271811257e-10
-3.338306770608188379e-10
-2.391197169705868617e-10
-1.925736552120960467e-10
-1.317008074582815585e-10
-9.981327084768522082e-11
-7.062178355163768962e-11
-5.083767843362904054e-11
-3.708197930332503168e-11
-2.735739085031963836e-11
-2.051812652375580479e-11
-1.565375010097638864e-11
-1.214376527891777392e-11
-9.526028525893323465e-12
-7.507037646724100773e-12
-5.902581714404953185e-12
-4.598220619430677075e-12
-3.527676633035667710e-12
-2.651737787209509459e-12
-1.945384751994526178e-12
-1.389665146470197074e-12
