# bin_7_10
-9.510103149997850236e-15
-1.043258699773792787e-14
-1.117943503863973419e-14
-1.162889950332515539e-14
-1.167385789399443064e-14
-1.116302489721191432e-14
-1.007607884882996194e-14
-8.598512394407435821e-15
-7.049366429384472597e-15
-5.836260557723090847e-15
-5.040088089917265619e-15
-4.187451274301247127e-15
-2.991585354798109010e-15
-2.210768166811152225e-15
-1.746072316597111783e-15
-1.183699435735812760e-15
-8.839391478236533374e-16
-6.313290630550911630e-16
-4.475698045757578321e-16
-3.214542958875257038e-16
-2.335742538220089395e-16
-1.726522288193213228e-16
-1.298878546093459163e-16
-9.948923643371777177e-17
-7.722096505910921135e-17
-6.039053071483789259e-17
-4.726559272213693895e-17
-3.675689209064498649e-17
-2.822470131940198284e-17
-2.128757629237583165e-17
-1.570483468125385147e-17
