# bin_12_15
-3.387428747042992102e-14
-3.796179393623171124e-14
-4.176212655633194103e-14
-4.489363665728657421e-14
-4.687315859881944683e-14
-4.724564660252491842e-14
-4.542764341257314605e-14
-4.121930184847919404e-14
-3.536167862299948050e-14
-2.904099583935211714e-14
-2.397173417152539151e-14
-2.067422628893075877e-14
-1.734567743980203884e-14
-1.250777567539204087e-14
-9.073800869083218876e-15
-7.262192756163747403e-15
-4.831227080321069493e-15
-3.630537372957470007e-15
-2.535892301683469260e-15
-1.760240054704215590e-15
-1.235675908225189320e-15
-8.706410819527998148e-16
-6.214062583145930129e-16
-4.503467281469316236e-16
-3.329806297638497293e-16
-2.507714284755215865e-16
-1.918332369515516905e-16
-1.483000447183481894e-16
-1.150395471498784093e-16
-8.889541346093921443e-17
-6.797161048483640624e-17
