# bin_1_11
-3.360653383418104887e-48
-3.645589177388400103e-48
-3.852453010549387264e-48
-3.938198575310704425e-48
-3.868450564416251753e-48
-3.595297869795695498e-48
-3.159244747093921599e-48
-2.629579304366848824e-48
-2.150532724545302122e-48
-1.820560331771837823e-48
-1.569725503928462341e-48
-1.215773542268048512e-48
-8.446565697814209737e-49
-6.797056711146513443e-49
-4.803869213049072816e-49
-3.575699613590824701e-49
-2.486288780265584078e-49
-1.809838836975189902e-49
-1.310216695459185026e-49
-9.570086439162064509e-50
-7.098944301922444826e-50
-5.353829136531080256e-50
-4.111412652234370477e-50
-3.201913758271316552e-50
-2.513691967040871519e-50
-1.976245653813700297e-50
-1.544859889298580719e-50
-1.192967077390513107e-50
-9.050045602070766106e-51
-6.714807547428130035e-51
-4.857012151539249063e-51
