# bin_4_6
-3.403380945537373345e-13
-3.617570683336120417e-13
-3.726009045915244962e-13
-3.697201861165296425e-13
-3.481486099558891915e-13
-3.097585443038695685e-13
-2.606845253334400116e-13
-2.131772418549586816e-13
-1.784133026845728553e-13
-1.542062020922305837e-13
-1.239076005186378033e-13
-8.684233468900221712e-14
-6.735009593294371171e-14
-5.058551359801563184e-14
-3.603241953877869379e-14
-2.602948794913392503e-14
-1.912284873694651482e-14
-1.389078727587311514e-14
-1.021680652121496125e-14
-7.654261852789111131e-15
-5.839121472737228067e-15
-4.530284434809420589e-15
-3.560425336708220117e-15
-2.815682275650115670e-15
-2.225119539585083066e-15
-1.744892417006515437e-15
-1.348969986119438501e-15
-1.022562301995416732e-15
-7.567686996541566798e-16
-5.451936466875968467e-16
-3.820841455859590088e-16
