# bin_5_4
-3.449322410348890430e-10
-3.606182825260350363e-10
-3.642859520996210632e-10
-3.518732226863908091e-10
-3.211865846701651340e-10
-2.773275850658778616e-10
-2.286521282090818106e-10
-1.881616553279730595e-10
-1.610707977323737014e-10
-1.360502895914391949e-10
-1.008648867191765747e-10
-7.250548886276090441e-11
-5.818514815355547477e-11
-4.028874727294273598e-11
-3.050482087682460187e-11
-2.180620162199317005e-11
-1.590853789876026223e-11
-1.176425577089759147e-11
-8.823610497174385044e-12
-6.736735928403255603e-12
-5.230203426744258579e-12
-4.118688380286976547e-12
-3.267996951108675330e-12
-2.594097392905890794e-12
-2.045567051620612065e-12
-1.591626545110119367e-12
-1.214991417059980815e-12
-9.057510929483738139e-13
-6.573508445040757021e-13
-4.639984058810640484e-13
-3.188739218791711183e-13
