# bin_1_5
-5.983563890651430800e-19
-6.165178483598431847e-19
-6.122299779119017761e-19
-5.773096633750639729e-19
-5.144298427315686824e-19
-4.336215430936618394e-19
-3.546841771253703813e-19
-2.963357031430792720e-19
-2.559360068235121318e-19
-2.066342158707275828e-19
-1.455528378089306457e-19
-1.122219203719804904e-19
-8.514398629804708986e-20
-6.058871529879870431e-20
-4.431254486864890034e-20
-3.273550123710762311e-20
-2.403236676597051498e-20
-1.791745917995896098e-20
-1.362100525250646769e-20
-1.054667581379781634e-20
-8.293953272352162901e-21
-6.590234331751700330e-21
-5.252392483562376196e-21
-4.168490536797657961e-21
-3.271594958334928605e-21
-2.523293038106506884e-21
-1.902645479505080212e-21
-1.397504920254335266e-21
-9.979945886950291069e-22
-6.933845604742151120e-22
-4.697406618364655330e-22
