# bin_9_6
-5.015288931352822611e-10
-5.394292125364195471e-10
-5.639759005499069689e-10
-5.695639563030849005e-10
-5.496973271597664591e-10
-5.010856942311185872e-10
-4.320042728800782360e-10
-3.557575901345610239e-10
-2.929016088493339461e-10
-2.512704346545993883e-10
-2.120678877217712803e-10
-1.560515629743629304e-10
-1.122071945215075865e-10
-9.023853513584503267e-11
-6.163103161861643547e-11
-4.671103466491229636e-11
-3.312184913370577683e-11
-2.383212428716358355e-11
-1.739286604993233530e-11
-1.284290751161718708e-11
-9.642572244969679086e-12
-7.364715821072015084e-12
-5.718684389810138677e-12
-4.488829981942943253e-12
-3.538544917139085344e-12
-2.782150072565896099e-12
-2.166541964560305460e-12
-1.661036630724287980e-12
-1.247462196584307986e-12
-9.141607767259192723e-13
-6.522314189973312943e-13
