# bin_1_8
-7.113519437820327573e-32
-7.559261002277576289e-32
-7.782983328266508472e-32
-7.719802823802576636e-32
-7.264795701745277417e-32
-6.459810141491229252e-32
-5.432234520573459299e-32
-4.441066143321226710e-32
-3.718740629585258462e-32
-3.215592281075753274e-32
-2.580151109411480234e-32
-1.804348186825354558e-32
-1.403923424973123066e-32
-1.051527529693474624e-32
-7.508413755939823129e-33
-5.403614029862598333e-33
-3.978351773330924287e-33
-2.891037207346839839e-33
-2.126550462024001993e-33
-1.593929479408616348e-33
-1.216458908266980065e-33
-9.441818678118216604e-34
-7.422843697824429367e-34
-5.871382299268899117e-34
-4.640283110672469796e-34
-3.638629814837218534e-34
-2.812529095170117343e-34
-2.131375495784246086e-34
-1.576753589685202751e-34
-1.135384323715836959e-34
-7.952863319129936472e-35
