# bin_3_8
-3.157645663748723030e-21
-3.385775319204343277e-21
-3.525964000845842017e-21
-3.545065436146391025e-21
-3.398696458486229221e-21
-3.076100557049807581e-21
-2.632712352998408136e-21
-2.160418066386628103e-21
-1.784607371961638415e-21
-1.538027876819883715e-21
-1.285064037301423853e-21
-9.270249162533423611e-22
-6.791042329871123299e-22
-5.419304894060267342e-22
-3.685672968458102938e-22
-2.787841949489746755e-22
-1.999569117676952232e-22
-1.436861530978272995e-22
-1.050240356536740255e-22
-7.779713285234087037e-23
-5.868264458281257944e-23
-4.503828225657620925e-23
-3.511260937242315247e-23
-2.763690887717783649e-23
-2.181479400179945596e-23
-1.714835355005439991e-23
-1.333238604661961496e-23
-1.019238839016104348e-23
-7.624524031824890548e-24
-5.560442180037298561e-24
-3.946200105437469359e-24
