# bin_12_18
-1.842838882058158721e-19
-2.075363072742455520e-19
-2.296701864808434050e-19
-2.487058401133980859e-19
-2.620746149003160492e-19
-2.668959309432767667e-19
-2.606202332825272177e-19
-2.404055459264282250e-19
-2.097057131210717971e-19
-1.736222457908349240e-19
-1.422710251896531250e-19
-1.213809711267380801e-19
-1.041862445212972654e-19
-7.863878603779542020e-20
-5.472757172677465634e-20
-4.456162986255447125e-20
-3.001395746795990734e-20
-2.268250983244939405e-20
-1.537743080301789045e-20
-1.071235933397515986e-20
-7.509028205462886426e-21
-5.263115823235113138e-21
-3.706954946461367015e-21
-2.640592791726114529e-21
-1.917636011409465956e-21
-1.420018483974295134e-21
-1.070910103028842250e-21
-8.199410232032496623e-22
-6.333549001901461311e-22
-4.900190632475741186e-22
-3.769502608032535603e-22
