# bin_2_2
-2.035310341629436816e-10
-2.016729685034825510e-10
-1.898797310587154263e-10
-1.690399196047273993e-10
-1.425714766860773043e-10
-1.168236544895968757e-10
-9.766012245821192589e-11
-8.398376657274423096e-11
-6.758412994869876926e-11
-4.818891346202406063e-11
-3.695206805039110352e-11
-2.804908137039709841e-11
-2.010997263993942317e-11
-1.485966231733177949e-11
-1.097398987045309046e-11
-8.145240277545189804e-12
-6.154767444860206815e-12
-4.739760627708839951e-12
-3.715624124375133945e-12
-2.953374720078052674e-12
-2.365754917871520360e-12
-1.895178896301403840e-12
-1.507192250654108669e-12
-1.181905615834378631e-12
-9.084800901171624332e-13
-6.813207915820962555e-13
-4.971625225883157638e-13
-3.527090577032610964e-13
-2.436328455027616581e-13
-1.642953050843078975e-13
-1.085324700979422337e-13
