# bin_18_9
-6.024830139456837197e-10
-6.631110611474991343e-10
-7.135017533611700506e-10
-7.460706522094528620e-10
-7.534010300655090250e-10
-7.267248797533982000e-10
-6.618080681222301104e-10
-5.699330381764720810e-10
-4.689323959798463809e-10
-3.862619765075804830e-10
-3.320002122859958714e-10
-2.800449192664828510e-10
-2.047123981745012834e-10
-1.471538582291015724e-10
-1.184985694266886845e-10
-7.977405624117784747e-11
-6.041878315153237810e-11
-4.243619650317428870e-11
-3.002173698219280914e-11
-2.154473108656308896e-11
-1.558690181322333470e-11
-1.144494448412226741e-11
-8.546232689108301606e-12
-6.503169944148611202e-12
-5.021982106548302996e-12
-3.914896052402360247e-12
-3.061073999056065639e-12
-2.383255426067517646e-12
-1.835611044729646486e-12
-1.390823652401771225e-12
-1.032160623893224741e-12
