# bin_4_19
-1.153479403674020541e-64
-1.292224321199177673e-64
-1.420993271504100548e-64
-1.526752870269342707e-64
-1.593023946287833867e-64
-1.604485590714711801e-64
-1.541040685733017456e-64
-1.396701778524447741e-64
-1.196822243962924777e-64
-9.824423963751427703e-65
-8.114866174035606211e-65
-7.003113446031130052e-65
-5.864113952330920106e-65
-4.215529648918215617e-65
-3.069986585692741677e-65
-2.449870867244151307e-65
-1.631900312055642254e-65
-1.223530342569571333e-65
-8.564953828376830628e-66
-5.948201728041780871e-66
-4.175207989447533149e-66
-2.943232008739809018e-66
-2.102659259995338219e-66
-1.525641720089582051e-66
-1.129352188605214066e-66
-8.514223391894195392e-67
-6.518634411467269138e-67
-5.041946726034864726e-67
-3.911767328178551137e-67
-3.022204387881034815e-67
-2.309737002071915533e-67
