# bin_20_12
-3.670824333818687468e-10
-4.094847696303045158e-10
-4.479423309154252167e-10
-4.781634222354925860e-10
-4.947886083631102935e-10
-4.935673907448328572e-10
-4.676999953835807380e-10
-4.184808668685729448e-10
-3.539308030151799187e-10
-2.896186162131209714e-10
-2.415573925053493329e-10
-2.091611588831571276e-10
-1.702026877720859873e-10
-1.191919364744947977e-10
-9.088318118746741398e-11
-6.912152607868724075e-11
-4.773981693247294179e-11
-3.425684853923288537e-11
-2.457986626903579375e-11
-1.721821760196204166e-11
-1.211676141109925220e-11
-8.632444090844638019e-12
-6.240639557875883169e-12
-4.590831605299934252e-12
-3.443309979170209028e-12
-2.625707431059798601e-12
-2.027498393179987816e-12
-1.575329677767841374e-12
-1.222702559901241354e-12
-9.414117454033568562e-13
-7.147705145086388704e-13
