# bin_10_18
-1.712375521980526183e-25
-1.924545443367491772e-25
-2.124651285446890002e-25
-2.293895924343034369e-25
-2.408187227375038493e-25
-2.442267831872148487e-25
-2.369941250185909785e-25
-2.170970491091554306e-25
-1.880642017098739291e-25
-1.551063142713481153e-25
-1.273984973146122010e-25
-1.092356369365505449e-25
-9.302980505037005861e-26
-6.885774675301778506e-26
-4.854449797974523443e-26
-3.954062765922516003e-26
-2.624041905858620476e-26
-1.995014552433253227e-26
-1.368645128601792817e-26
-9.481606378276434861e-27
-6.658519285415883688e-27
-4.677452019450604357e-27
-3.312451922062378803e-27
-2.376542938616078049e-27
-1.739343998007890060e-27
-1.297630167188520845e-27
-9.849729851938171335e-28
-7.576343452244130557e-28
-5.865912732331023468e-28
-4.538133851821875839e-28
-3.483292894452219021e-28
