# bin_1_4
-8.118848610797122481e-16
-8.257516240245288813e-16
-8.057461047324330133e-16
-7.438961097625859295e-16
-6.496647149588111353e-16
-5.391251649887043293e-16
-4.418180469646698243e-16
-3.751277092267087555e-16
-3.208513798087941438e-16
-2.454616288607384218e-16
-1.734120701550248385e-16
-1.390986542558669685e-16
-9.875020740220528523e-17
-7.410134843936680470e-17
-5.303053344564045139e-17
-3.920287198951219074e-17
-2.916302372018561832e-17
-2.201959982247119771e-17
-1.694163930119093033e-17
-1.325517504057839487e-17
-1.051181959443008959e-17
-8.392189460141120693e-18
-6.694965065413639281e-18
-5.298819122504010947e-18
-4.132954050040064560e-18
-3.158609477208007197e-18
-2.354637380715938040e-18
-1.707673922629105542e-18
-1.204140297412542220e-18
-8.268895182954396172e-19
-5.545911590676007003e-19
