# bin_8_13
-1.014738533861832750e-18
-1.125724120416398896e-18
-1.223131463287822766e-18
-1.294666760089804451e-18
-1.325677807192064996e-18
-1.304864429928619742e-18
-1.215381652560922839e-18
-1.070103521347899033e-18
-8.918946826560387472e-19
-7.293360839119670595e-19
-6.168877042575342698e-19
-5.328286229280055603e-19
-4.142717905177441707e-19
-2.865901729008470065e-19
-2.300079738187016099e-19
-1.624113502478542797e-19
-1.198051351022380294e-19
-8.211198221112255901e-20
-5.914821418505369640e-20
-4.201923852482162679e-20
-2.998958220277785596e-20
-2.167294542456470692e-20
-1.589189480961004249e-20
-1.187925056680405657e-20
-9.039497881185035250e-21
-6.973951769706833897e-21
-5.426477829972432545e-21
-4.228303579089648503e-21
-3.275986033374277949e-21
-2.507539861111506804e-21
-1.886495896965091325e-21
