# bin_2_12
-2.554207856267205286e-45
-2.790886298193029829e-45
-2.975948482877259132e-45
-3.076068973371817220e-45
-3.065246864534093307e-45
-2.901053945163612817e-45
-2.592940490929342344e-45
-2.190667164110078476e-45
-1.791769950969621519e-45
-1.494642256858990756e-45
-1.293850184347341200e-45
-1.051458645340654425e-45
-7.366048850622497913e-46
-5.639328680205111698e-46
-4.294940810249546930e-46
-2.993907604987231104e-46
-2.165003708051528008e-46
-1.574774630664935383e-46
-1.123723498363414683e-46
-8.090906132405890179e-47
-5.922832931088678763e-47
-4.411813642710712712e-47
-3.345890308923641721e-47
-2.580181747876768009e-47
-2.012522468283508511e-47
-1.578125069070866567e-47
-1.235406683500662410e-47
-9.587619073026286869e-48
-7.332371136840935584e-48
-5.498820724956088686e-48
-4.028157475907541033e-48
