# bin_18_15
-1.191615873725193644e-10
-1.340950989729323262e-10
-1.482614932198681897e-10
-1.603703227938979435e-10
-1.687547392009859551e-10
-1.715934056864397539e-10
-1.671692064515327159e-10
-1.538136392408167011e-10
-1.338337096945044679e-10
-1.106589920183690661e-10
-9.076138309970596851e-11
-7.756989902866082264e-11
-6.637925631112090849e-11
-4.975784476897217199e-11
-3.480578766843907433e-11
-2.832133350464855435e-11
-1.899671922565016822e-11
-1.437152323075991466e-11
-9.787813463922329039e-12
-6.809136780758718697e-12
-4.774755222025869092e-12
-3.348497077519559074e-12
-2.363046441551287572e-12
-1.687666038651241292e-12
-1.229044034098313929e-12
-9.125641950906288436e-13
-6.898199560542478474e-13
-5.290296175760150305e-13
-4.089702210431263593e-13
-3.163902365964546364e-13
-2.431748033934175428e-13
