# bin_17_1
-3.718578230800414670e-09
-3.588148418193672724e-09
-3.278727595044874597e-09
-2.836786329888365433e-09
-2.349185624022560046e-09
-1.937490122385809964e-09
-1.648687428527607496e-09
-1.383654076247685043e-09
-1.042876084009768496e-09
-7.578230625729629334e-10
-5.942689159132795489e-10
-4.280862768947269542e-10
-3.185616008671287081e-10
-2.329208486321168777e-10
-1.733632876137524277e-10
-1.306253810795332688e-10
-1.002069670366702827e-10
-7.832131974515757644e-11
-6.215547691200653129e-11
-4.982025703333490884e-11
-4.003372989952170305e-11
-3.200750369682784434e-11
-2.528380984126305927e-11
-1.961101399166193980e-11
-1.486129971309722393e-11
-1.096597230420199682e-11
-7.869035572112988637e-12
-5.495007045582838103e-12
-3.742764639154962172e-12
-2.494260445939921464e-12
-1.631837423667049707e-12
