# bin_3_9
-7.084129955177432502e-25
-7.642122171470297222e-25
-8.019797823854278206e-25
-8.133298992958123005e-25
-7.897556254707253704e-25
-7.243353640663362983e-25
-6.283430356446320531e-25
-5.186841531058269172e-25
-4.255968519888516323e-25
-3.639365321041223414e-25
-3.102639800625580813e-25
-2.316776023405792662e-25
-1.636553526737018576e-25
-1.331981156088400499e-25
-9.061300016269445370e-26
-6.923238518486241871e-26
-4.857971377194660792e-26
-3.491491031131316389e-26
-2.546481198056579228e-26
-1.875824347974937380e-26
-1.403043676263444968e-26
-1.067340104029150669e-26
-8.261452018098069405e-27
-6.471082121433924922e-27
-5.096639481678669111e-27
-4.008809742028467294e-27
-3.126757207247805185e-27
-2.403511548905648599e-27
-1.811344473795337550e-27
-1.332843922727010128e-27
-9.551027321432174317e-28
