# bin_20_14
-2.341198999709493996e-10
-2.628147919612912774e-10
-2.897213780309649016e-10
-3.122417314209888132e-10
-3.270632017841780118e-10
-3.308613722577598434e-10
-3.198633860485103148e-10
-2.918806313657230576e-10
-2.518586190652964041e-10
-2.073680603802511229e-10
-1.706659613344007957e-10
-1.466789509253427618e-10
-1.241667826967437034e-10
-9.095385247831665341e-11
-6.486340991330569465e-11
-5.245901120611143991e-11
-3.485314985641235772e-11
-2.637274727816678214e-11
-1.822276056157925076e-11
-1.263642424688805285e-11
-8.871772876697108767e-12
-6.238829350058714891e-12
-4.431961269455653074e-12
-3.192655804566888646e-12
-2.346295075411890096e-12
-1.757160978975824545e-12
-1.338017745112941313e-12
-1.031313351815183322e-12
-7.991080440036033536e-13
-6.179239363235651005e-13
-4.735451761364578882e-13
