# bin_15_2
-2.762214856854162912e-09
-2.772527504649648572e-09
-2.656354244179530327e-09
-2.406776295770275522e-09
-2.064140028572173970e-09
-1.699788551312190451e-09
-1.405673342401289556e-09
-1.203842305650966205e-09
-1.001524809169258782e-09
-7.364061580761297859e-10
-5.408592535838113929e-10
-4.253333784831278048e-10
-3.003863345432191755e-10
-2.251501177758753059e-10
-1.636824256811866931e-10
-1.209343907979498370e-10
-9.067262071118918109e-11
-6.915633181472772367e-11
-5.372386815512747442e-11
-4.238402140597943154e-11
-3.379773769688893335e-11
-2.704031530891758755e-11
-2.154520635084093850e-11
-1.697744100596878200e-11
-1.314716040833502740e-11
-9.953656672774876395e-12
-7.340891351659127012e-12
-5.264983136273936015e-12
-3.673974644780490136e-12
-2.499841346221559273e-12
-1.663806861284104440e-12
