# bin_2_3
-1.564587602375813583e-11
-1.583463694759209493e-11
-1.534281154128247097e-11
-1.405607807303228567e-11
-1.218318361870187293e-11
-1.006640074948517259e-11
-8.270321539845176108e-12
-7.057767826456128767e-12
-5.988094993903855633e-12
-4.492634249421035006e-12
-3.210420113441647819e-12
-2.579089519653284050e-12
-1.805888494112103191e-12
-1.367221458460601955e-12
-9.820139210024441234e-13
-7.241134492758409398e-13
-5.407481718605101503e-13
-4.101502673309791089e-13
-3.168722339439743473e-13
-2.488178032332984481e-13
-1.978374137987447373e-13
-1.581403268482317634e-13
-1.261390814666873229e-13
-9.968690922897309745e-14
-7.754453784428490985e-14
-5.904528241777873062e-14
-4.382418184542702950e-14
-3.163445819609294118e-14
-2.220623636570498524e-14
-1.518742266018605096e-14
-1.015127107173674945e-14
