# bin_4_12
-8.985536629823793011e-32
-9.858764592131877596e-32
-1.056668807878720869e-31
-1.099438792124009927e-31
-1.104025662527554984e-31
-1.056125176172306386e-31
-9.535981180561027041e-32
-8.140173637212563443e-32
-6.673494818672852085e-32
-5.523218084696937098e-32
-4.770185929153032865e-32
-3.966948671423387197e-32
-2.834650374340289787e-32
-2.092370867864480657e-32
-1.655418618457402076e-32
-1.120302129639741591e-32
-8.380813614773481309e-33
-5.982133150936467739e-33
-4.239537948095942859e-33
-3.044375082698438265e-33
-2.211183597533919420e-33
-1.634003769963986968e-33
-1.228961903961560133e-33
-9.411424057217345638e-34
-7.303873599846035042e-34
-5.711647188547992045e-34
-4.470438247412354892e-34
-3.476876733237078966e-34
-2.670259581005687534e-34
-2.014402356493295965e-34
-1.486502652026119744e-34
