# bin_11_12
-5.855203590331826556e-12
-6.511173623745176790e-12
-7.095411948322825341e-12
-7.537943090740195155e-12
-7.752997626227857556e-12
-7.676525167936742966e-12
-7.202987467618362133e-12
-6.385800140758983562e-12
-5.353551590461382577e-12
-4.376555986670349750e-12
-3.679289651404786099e-12
-3.184996276712260364e-12
-2.528031720152651200e-12
-1.750581486114758281e-12
-1.378402077649418758e-12
-1.005766106269169990e-12
-7.204934864984919684e-13
-5.005050938797883439e-13
-3.624251387854606052e-13
-2.558066970081045476e-13
-1.811626415641163068e-13
-1.301737070257815748e-13
-9.489440104913280335e-14
-7.047125369674711624e-14
-5.331589606650992391e-14
-4.094727150086056578e-14
-3.177279690938424324e-14
-2.473798218668706119e-14
-1.918750241233100020e-14
-1.472696830378288847e-14
-1.112444314366535305e-14
