# bin_3_1
-1.487850959466776342e-09
-1.428702738628133820e-09
-1.298655138480285997e-09
-1.117975643844072415e-09
-9.234403047982222990e-10
-7.631218614916101937e-10
-6.509554549040370326e-10
-5.427740704034114487e-10
-4.046138589787576373e-10
-2.961104427608196429e-10
-2.319535354125989718e-10
-1.662452636596256476e-10
-1.241377621910224323e-10
-9.082617672016164001e-11
-6.767496902857694769e-11
-5.112642867793025776e-11
-3.933039403111979751e-11
-3.082032733846784845e-11
-2.450938594379947081e-11
-1.967032847271861465e-11
-1.581155770475273021e-11
-1.263426438171275609e-11
-9.966160505822903087e-12
-7.713618445135555913e-12
-5.829713654507761433e-12
-4.288793067602968980e-12
-3.068195428247107569e-12
-2.136431743473233781e-12
-1.451500196961661545e-12
-9.652567214173072897e-13
-6.304099318972380296e-13
