# bin_4_10
-5.574268811532503702e-24
-6.064293126402806915e-24
-6.431373374206239758e-24
-6.602796438385938998e-24
-6.523658941946106628e-24
-6.106394301864763290e-24
-5.401839117087908645e-24
-4.520581880397423442e-24
-3.695015877059483023e-24
-3.109922277599042794e-24
-2.689096075724750065e-24
-2.124158557170111137e-24
-1.474346826766762610e-24
-1.167523318799942218e-24
-8.495966701638751992e-25
-6.167677887245434218e-25
-4.324124458683543978e-25
-3.164603628545209008e-25
-2.277550917994779208e-25
-1.652760608437373992e-25
-1.220018968270254250e-25
-9.157547691211067470e-26
-6.999538307660465571e-26
-5.431524527415822770e-26
-4.254428546131623209e-26
-3.342298351956324682e-26
-2.614780363897570282e-26
-2.023479241402291972e-26
-1.540119752986008966e-26
-1.147623903698262317e-26
-8.342691563021435800e-27
