# bin_11_19
-9.050867128027963133e-25
-1.019853222409119425e-24
-1.129366612467543087e-24
-1.223965151192903835e-24
-1.291064683735636000e-24
-1.316330028931283706e-24
-1.287544831909820089e-24
-1.189985317953360937e-24
-1.039997221338665752e-24
-8.620673399204538227e-25
-7.060564874111410709e-25
-6.014929118663647508e-25
-5.171861598956133465e-25
-3.925024114963137548e-25
-2.724732025855878026e-25
-2.215029004512584975e-25
-1.501223190984752028e-25
-1.130365423645447414e-25
-7.642919654396079700e-26
-5.339526477360433060e-26
-3.738620693066153194e-26
-2.617339330333894467e-26
-1.840687793100322623e-26
-1.308639364261769602e-26
-9.482670700488360043e-27
-7.006908481290368233e-27
-5.274180804362701172e-27
-4.032451756468173597e-27
-3.112394931675459217e-27
-2.407785306053281126e-27
-1.853187643451404262e-27
