# bin_17_14
-1.347132332724434810e-10
-1.511854334134690117e-10
-1.666115463370274326e-10
-1.794931038267171910e-10
-1.879216751487751796e-10
-1.900000373267623515e-10
-1.835337269344820719e-10
-1.673322400341713540e-10
-1.442605179027148776e-10
-1.187279087581514800e-10
-9.775462556628213403e-11
-8.406198121081414404e-11
-7.106996719939256543e-11
-5.193377979404988261e-11
-3.712413437269601418e-11
-2.998946386928566785e-11
-1.991783179591547219e-11
-1.506273525451823315e-11
-1.042470541640602409e-11
-7.228512957577680372e-12
-5.075187999997424313e-12
-3.569986372602308493e-12
-2.537861754097983267e-12
-1.829878614475119774e-12
-1.346052924850894815e-12
-1.008954481319484806e-12
-7.688452506330829494e-13
-5.928954107983433757e-13
-4.594948263801679696e-13
-3.552835349520919625e-13
-2.721819156773997033e-13
