# bin_20_8
-8.195423728129989569e-10
-8.965919261931352377e-10
-9.575308947251120182e-10
-9.917569405453423029e-10
-9.905613286490805422e-10
-9.406873400188569523e-10
-8.435757544824624638e-10
-7.152298805487189482e-10
-5.856016425802965423e-10
-4.872999958584971959e-10
-4.212985107345682445e-10
-3.447834093293529929e-10
-2.435498910470739408e-10
-1.840985310352062299e-10
-1.418754965448807911e-10
-9.807507845110062164e-11
-7.173955681969050971e-11
-5.176572972491998526e-11
-3.686183452903491033e-11
-2.653292479366314335e-11
-1.937404367449166420e-11
-1.439204032295006461e-11
-1.088370682906411815e-11
-8.372755786620854786e-12
-6.519038376555371303e-12
-5.106629569652938295e-12
-3.996864621911769893e-12
-3.103681138098410454e-12
-2.376670912414799520e-12
-1.785690267368340585e-12
-1.311226863853844715e-12
