# bin_19_5
-1.475024745788416947e-09
-1.570189486275794795e-09
-1.620417311914056941e-09
-1.611533124486396816e-09
-1.522531587313993967e-09
-1.359059723262690938e-09
-1.147720347236849228e-09
-9.394927322911842015e-10
-7.843533229389936947e-10
-6.771179327413539083e-10
-5.479961225469984527e-10
-3.870882387093245734e-10
-2.964499034740107805e-10
-2.253111959111829688e-10
-1.591063125290393074e-10
-1.161568594980131663e-10
-8.476634667069539116e-11
-6.145120507447789093e-11
-4.516055646933529386e-11
-3.375791942289938622e-11
-2.569413961975003813e-11
-1.989114894559248232e-11
-1.560698085934437695e-11
-1.232990429817690913e-11
-9.740559603501321458e-12
-7.641092125472186160e-12
-5.913168870198890338e-12
-4.489406573744685964e-12
-3.329324891596696589e-12
-2.404363076227832715e-12
-1.689394353647602778e-12
