# bin_19_14
-2.039447409155718064e-10
-2.289293227643609893e-10
-2.523508668402993695e-10
-2.719451818022335226e-10
-2.848258673595834892e-10
-2.881017627660639998e-10
-2.784790927667528685e-10
-2.540723409422002462e-10
-2.191955300719314915e-10
-1.804598166117107001e-10
-1.485325316207937219e-10
-1.276706667247618946e-10
-1.080483313980424552e-10
-7.910833683861663762e-11
-5.644259062086361194e-11
-4.563793937872575775e-11
-3.031914048283809920e-11
-2.293933452478774734e-11
-1.585551145582979709e-11
-1.099473383517902343e-11
-7.719240490565070920e-12
-5.428650466698680095e-12
-3.856974757347108864e-12
-2.778965000158007818e-12
-2.042659974794335039e-12
-1.530036302684813492e-12
-1.165241785361308989e-12
-8.982295282234242246e-13
-6.960171609781198225e-13
-5.381984538834032351e-13
-4.124204509729397228e-13
