# bin_5
0.000000000000000000e+00
1.504219610293054480e-141
1.508230131560535356e-112
3.222643726492599017e-89
2.644860017551451496e-70
5.977151796023356816e-55
1.690314791406340937e-42
1.977545005367076566e-32
2.493365410211698320e-24
7.347899059147426846e-18
9.514499890461131943e-13
9.094204732440467839e-09
9.866051944614935362e-06
1.742893365659449684e-03
6.821896679985478551e-02
7.741123525938881089e-01
3.227339989899377759e+00
6.016269770133547468e+00
5.746537817966124173e+00
3.037355936528439493e+00
9.320798732000580289e-01
1.738395483197640867e-01
2.072812325438936135e-02
1.665724401627170694e-03
9.496365003395087969e-05
4.028366861457601299e-06
1.327604942289254747e-07
3.532716253687093703e-09
7.853322673373657815e-11
1.502928299304775462e-12
2.542184693260718615e-14
3.889454450586216059e-16
5.492391682293631521e-18
7.286238459813276938e-20
9.222000784221340602e-22
1.128726619431820606e-23
1.351796067301929951e-25
1.600499189017117350e-27
1.890212028346887767e-29
2.244196510861093004e-31
2.696793299415729103e-33
3.299301271077765598e-35
4.130395979106789532e-37
5.314499629300964219e-39
7.054614200874862767e-41
9.692342629683316348e-43
1.382057693410535806e-44
2.050124044442887173e-46
3.169889113784494651e-48
5.117161231186150754e-50
8.636162294467629864e-52
1.525435695373802394e-53
2.822444517429908974e-55
5.474016220981175739e-57
1.113398565609261048e-58
2.375783983406695218e-60
5.319414642605670195e-62
1.249851554600120527e-63
3.081643179053423640e-65
7.972368737511910111e-67
2.163667147059874692e-68
6.158544706932012491e-70
1.837851384122491418e-71
5.748101783888167094e-73
1.883378404204372740e-74
6.461748816854313833e-76
2.320318597091576551e-77
8.715726461317545491e-79
3.422795469377570423e-80
1.404539652212240499e-81
6.018800839264358964e-83
0.000000000000000000e+00
0.000000000000000000e+00
0.000000000000000000e+00
0.000000000000000000e+00
0.000000000000000000e+00
0.000000000000000000e+00
0.000000000000000000e+00
0.000000000000000000e+00
0.000000000000000000e+00
0.000000000000000000e+00
0.000000000000000000e+00
