# bin_14
0.000000000000000000e+00
0.000000000000000000e+00
0.000000000000000000e+00
0.000000000000000000e+00
0.000000000000000000e+00
0.000000000000000000e+00
6.561184105846506845e-304
4.277487663228294937e-262
4.269046115889156721e-226
5.119600429796304374e-195
4.017905854944743704e-168
8.396780810185191256e-145
1.504088053768877600e-124
6.148079323554568572e-107
1.307847069954068732e-91
2.908255986237324724e-78
1.222864207117990122e-66
1.612371359135742945e-56
1.028252292962727754e-47
4.603981950065242653e-40
1.996402477033064448e-33
1.107644474206333300e-27
1.001561072960165219e-22
1.822519231569023737e-18
8.025520679406151994e-15
1.005408822212718619e-11
4.131797853729540948e-09
6.317316455266097448e-07
4.018306087013768396e-05
1.174652232057119385e-03
1.724955142789108553e-02
1.377758683273243856e-01
6.422904600411915021e-01
1.858846037933424400e+00
3.520964836094635952e+00
4.563301793030029252e+00
4.199478254319404691e+00
2.831408680539434286e+00
1.437145603587883569e+00
5.626907702859531568e-01
1.737952938575001993e-01
4.323911736509879894e-02
8.836577886742963753e-03
1.510820734416431057e-03
2.198269486118056761e-04
2.765529233287341196e-05
3.052676077328489064e-06
2.996878873633236293e-07
2.649439012160652255e-08
2.133547324793100534e-09
1.581495458110127797e-10
1.089483380199811546e-11
7.036796631613185744e-13
4.295550823978815145e-14
2.496544985880407844e-15
1.390746697401453051e-16
7.471425717985997923e-18
3.892539058596970452e-19
1.976750764679634473e-20
9.830640501920405483e-22
4.808026033074197835e-23
2.321607101055563069e-24
1.110659248280813262e-25
5.281295672769130138e-27
2.503459232950660100e-28
1.186150650069543099e-29
5.631096283449189272e-31
2.684470647478479170e-32
1.287680523593796021e-33
6.226329960870695468e-35
3.039819098639162682e-36
0.000000000000000000e+00
0.000000000000000000e+00
0.000000000000000000e+00
0.000000000000000000e+00
0.000000000000000000e+00
0.000000000000000000e+00
0.000000000000000000e+00
0.000000000000000000e+00
0.000000000000000000e+00
0.000000000000000000e+00
0.000000000000000000e+00
