# bin_18
0.000000000000000000e+00
0.000000000000000000e+00
0.000000000000000000e+00
0.000000000000000000e+00
0.000000000000000000e+00
0.000000000000000000e+00
0.000000000000000000e+00
0.000000000000000000e+00
0.000000000000000000e+00
0.000000000000000000e+00
9.646581040557536606e-295
4.331107162691810702e-259
8.630354545906953699e-228
2.960775720706149542e-200
5.489150208500334370e-176
1.450558166749988978e-154
1.248110556729075649e-135
7.088064246350838303e-119
4.874109622057219517e-104
6.847499102364158704e-91
3.090052919380118874e-79
6.634111939062735594e-69
9.539395163878379231e-60
1.238541143945259512e-51
1.886170600333652787e-44
4.239672439849489201e-38
1.722062749884723948e-32
1.511192770369827089e-27
3.355940721767211729e-23
2.169980148866748821e-19
4.628365809062456438e-16
3.639471008759682857e-13
1.165380018414369624e-10
1.661168217610987717e-08
1.141957125172922242e-06
4.069112243514648089e-05
8.021023254335531106e-04
9.275945156018634494e-03
6.635578669529007545e-02
3.079022918868627445e-01
9.667543667871526525e-01
2.131986621194383869e+00
3.411947780955381315e+00
4.077130838996645856e+00
3.729851687779308200e+00
2.670617431634275452e+00
1.526589522075365579e+00
7.093335201182808802e-01
2.723938091890732993e-01
8.778912195430718657e-02
2.408808885280810594e-02
5.702807998864056413e-03
1.179559421195959783e-03
2.156502968898295987e-04
3.522791847233484267e-05
5.194081102255314591e-06
6.977206843147086030e-07
8.613462656991427657e-08
9.851288638309266348e-09
1.051633347374757502e-09
1.055083767297182497e-10
1.001223263753936332e-11
9.039764636829160659e-13
7.807860053383943472e-14
6.483984704425829208e-15
5.201235050547436129e-16
4.047533891589221736e-17
3.067722223026542794e-18
2.272860850987720764e-19
1.651689320268425159e-20
1.180964504048324468e-21
0.000000000000000000e+00
0.000000000000000000e+00
0.000000000000000000e+00
0.000000000000000000e+00
0.000000000000000000e+00
0.000000000000000000e+00
0.000000000000000000e+00
0.000000000000000000e+00
0.000000000000000000e+00
0.000000000000000000e+00
0.000000000000000000e+00
