# bin_14_16
-5.432661387048341148e-09
-6.117424391850458522e-09
-6.768908506900462973e-09
-7.328676045900818742e-09
-7.720963822994095866e-09
-7.861095489747482485e-09
-7.673516318271022879e-09
-7.075433831436753311e-09
-6.169416305887861716e-09
-5.106596549682957658e-09
-4.184930708484471116e-09
-3.571536054062458768e-09
-3.064424572268675531e-09
-2.310349669585632937e-09
-1.608773223455391800e-09
-1.310335863328452165e-09
-8.814953852969581741e-10
-6.666802718230430810e-10
-4.522810078426303115e-10
-3.149350250161644186e-10
-2.208459060512298485e-10
-1.548616876020814454e-10
-1.091375966532499581e-10
-7.779909257523434669e-11
-5.654381534299259096e-11
-4.190346671950896416e-11
-3.162319435976060881e-11
-2.422451054219337882e-11
-1.871724224021376876e-11
-1.448195779498889195e-11
-1.113841754003006388e-11
