# bin_5_2
-1.956364412326468896e-11
-2.039024504106607240e-11
-2.052507368036860211e-11
-1.972291013198291948e-11
-1.790122091860775549e-11
-1.536832971724260858e-11
-1.263286086749321200e-11
-1.041995023265581261e-11
-8.953031477267277738e-12
-7.508665528668923655e-12
-5.481274681557061525e-12
-3.988622399645009659e-12
-3.191959454391518177e-12
-2.194987317315766548e-12
-1.666015062124934359e-12
-1.198986300420674058e-12
-8.731220841536773976e-13
-6.471915274894679725e-13
-4.870487493598821784e-13
-3.731956646452283309e-13
-2.907258198165972202e-13
-2.295427951558711472e-13
-1.824121845965886817e-13
-1.448535419356735956e-13
-1.141388407808859008e-13
-8.864935760081598050e-14
-6.748656399855201574e-14
-5.013459402505884477e-14
-3.624047298476853049e-14
-2.547704136215316594e-14
-1.744211500567492378e-14
