# bin_1_7
-2.423840378600434693e-22
-2.556067887560702946e-22
-2.607557622680064854e-22
-2.554650488651214634e-22
-2.367740163110969471e-22
-2.075321382621636511e-22
-1.724793602707891451e-22
-1.411216125950443372e-22
-1.196169858226542273e-22
-1.028657255090327919e-22
-7.927021540214931275e-23
-5.539234864450968215e-23
-4.463358878630602129e-23
-3.155958999883495485e-23
-2.365608645686729499e-23
-1.667524919821981791e-23
-1.223929964515404448e-23
-8.997703367437917386e-24
-6.695090487266622432e-24
-5.068761413752047474e-24
-3.903548616606021644e-24
-3.054574403375049392e-24
-2.414715972158693004e-24
-1.915043384271614043e-24
-1.512948729286195797e-24
-1.182481332576217257e-24
-9.087178819325980738e-25
-6.831464373136165017e-25
-5.005220462796384541e-25
-3.566905544453944815e-25
-2.473114156950628756e-25
