# bin_14_13
-1.979205710443598713e-08
-2.219376169227659002e-08
-2.443366893258601356e-08
-2.628992947123092120e-08
-2.748111125093695370e-08
-2.773598605996790096e-08
-2.672019235873667632e-08
-2.429191879473475783e-08
-2.088141488651969737e-08
-1.716175403881555885e-08
-1.414947988876533942e-08
-1.219054284631966216e-08
-1.026327137305356532e-08
-7.438146080169973120e-09
-5.360851774678447907e-09
-4.313305179680254473e-09
-2.862078963330859897e-09
-2.160168480880444683e-09
-1.503309869513222503e-09
-1.042688357139658637e-09
-7.321754062428122476e-10
-5.154967576124062028e-10
-3.674201830727415572e-10
-2.658126837018147365e-10
-1.962010175873782298e-10
-1.475322016595867934e-10
-1.127184646564717482e-10
-8.707448104708923197e-11
-6.753221681547124869e-11
-5.220186343697320373e-11
-3.994555989371556076e-11
