# bin_11_10
-2.136637341755061279e-08
-2.370165074922401832e-08
-2.575033551846131639e-08
-2.725347974774358941e-08
-2.790279084624058533e-08
-2.745999037858789976e-08
-2.557153641860325565e-08
-2.251048698513539644e-08
-1.875884522429391711e-08
-1.534020452567155467e-08
-1.297730905121545365e-08
-1.120780213108891326e-08
-8.708951832168666854e-09
-6.025434615978678254e-09
-4.837768927022024398e-09
-3.413105707961477209e-09
-2.519606316274556668e-09
-1.726867330521763352e-09
-1.243609644180217050e-09
-8.837077146791808916e-10
-6.309080191854360791e-10
-4.560599484042548191e-10
-3.344993343468068182e-10
-2.501068792897037156e-10
-1.903611627008789616e-10
-1.468861361654449776e-10
-1.143007994548573886e-10
-8.906065408355307753e-11
-6.899422775635986705e-11
-5.280049772698802857e-11
-3.971368684252578176e-11
