# bin_13_2
-1.079456252696261747e-45
-1.185332988300562808e-45
-1.271745262798055545e-45
-1.324949246716250362e-45
-1.332457562913300283e-45
-1.277384116565584706e-45
-1.155807322186133172e-45
-9.887795271758078234e-46
-8.111867181113269034e-46
-6.704183464070394600e-46
-5.784884852166882035e-46
-4.830536812861096336e-46
-3.469235848850187392e-46
-2.542097021934515054e-46
-2.024333842009831771e-46
-1.364521092884276941e-46
-1.026480580574179373e-46
-7.297370803873988910e-47
-5.166666555957435908e-47
-3.710423266257764626e-47
-2.692154127661178776e-47
-1.986734759395898769e-47
-1.492036918549289637e-47
-1.141157185934751451e-47
-8.847738263306319735e-48
-6.915137134613082794e-48
-5.411896327682148254e-48
-4.210513374081200836e-48
-3.236003089004226474e-48
-2.443678586829458214e-48
-1.805583590797417428e-48
