# bin_6_19
-3.109866150243793537e-44
-3.489636147064148898e-44
-3.845050783853721020e-44
-4.141458679155713906e-44
-4.334782256486970290e-44
-4.381446085013398856e-44
-4.230248310424511939e-44
-3.854479260081592140e-44
-3.320968076924766343e-44
-2.732008362598733023e-44
-2.249666487167250025e-44
-1.935636718753867596e-44
-1.635705845631977142e-44
-1.192728102689131816e-44
-8.534180089076569493e-45
-6.901331231085336307e-45
-4.571647400145227242e-45
-3.463277492857584501e-45
-2.399930922345287526e-45
-1.663231641050861622e-45
-1.168098116864979268e-45
-8.217260780687523424e-46
-5.845954813998949546e-46
-4.219269014098304499e-46
-3.106948270518991217e-46
-2.331197908554777431e-46
-1.777967905338092629e-46
-1.371956315064228742e-46
-1.063647446019195688e-46
-8.224704183403799666e-47
-6.299628199397494199e-47
