# bin_2_12
-2.310407132967752278e-40
-2.525890544196725783e-40
-2.695239167647631007e-40
-2.788370497584831750e-40
-2.781485056116740774e-40
-2.636247828636884158e-40
-2.359398814216417543e-40
-1.995989576482900312e-40
-1.632882662901203554e-40
-1.360584491481742981e-40
-1.177656851081296657e-40
-9.602306323236186590e-41
-6.741234396387566074e-41
-5.136401114797873655e-41
-3.933683757504488520e-41
-2.729447722301360704e-41
-1.983391979785760868e-41
-1.439819592269273785e-41
-1.026547928856367351e-41
-7.388077800145573781e-42
-5.403435295675540857e-42
-4.021637176477598425e-42
-3.047383146031683611e-42
-2.348360540824715844e-42
-1.830822129188199990e-42
-1.435308241277854630e-42
-1.123647748012656837e-42
-8.722738699278979383e-43
-6.674220408289643143e-43
-5.008579898941509429e-43
-3.671979886832541677e-43
