# bin_8_4
-2.631428088827086724e-13
-2.836744306360735825e-13
-2.974365983434166348e-13
-3.013545884844188885e-13
-2.921994001414964674e-13
-2.675809447837569005e-13
-2.317591619885884022e-13
-1.911636883633232389e-13
-1.569538324443326771e-13
-1.343504691828026373e-13
-1.143088127262209887e-13
-8.500664727527395938e-14
-6.025969521284647191e-14
-4.899824629009375894e-14
-3.328156948301125193e-14
-2.543519897529401853e-14
-1.789443228703941956e-14
-1.285637326065653708e-14
-9.381718817543068989e-15
-6.916378398397313974e-15
-5.179513186579333300e-15
-3.945314415707651030e-15
-3.057100338481782219e-15
-2.396437999520839883e-15
-1.888201588007180276e-15
-1.485193351587550986e-15
-1.157982840783146807e-15
-8.895118463791568384e-16
-6.697018202741891018e-16
-4.921909102987915701e-16
-3.522274014913686397e-16
