# bin_13_3
-8.379182579331206642e-38
-9.215851387748889216e-38
-9.907441717820163967e-38
-1.034815601824698283e-37
-1.043675110156394393e-37
-1.004749119757441938e-37
-9.129561048802429276e-38
-7.844196576938629121e-38
-6.445558062303994887e-38
-5.313375405533472963e-38
-4.575002176021175363e-38
-3.849227967638619809e-38
-2.794108898206052225e-38
-2.018789387331460137e-38
-1.625436438780691980e-38
-1.089459785128367884e-38
-8.267095491987091931e-39
-5.830116939704546024e-39
-4.120259408228347787e-39
-2.958494226209587411e-39
-2.141971578600956108e-39
-1.575681656171486678e-39
-1.179148208844845123e-39
-8.990692768839056003e-40
-6.954284496871034963e-40
-5.427360910059882561e-40
-4.245879163786000668e-40
-3.305388043529569225e-40
-2.544199543345282974e-40
-1.925564053428987819e-40
-1.426829563445383536e-40
