# bin_17_3
-4.430633671022933358e-58
-4.937032839779223530e-58
-5.393459840268376012e-58
-5.747668158478626350e-58
-5.934583690000864898e-58
-5.904836188138510013e-58
-5.575471661272358420e-58
-4.971946537713262701e-58
-4.190526528073678435e-58
-3.426759045705011828e-58
-2.866102973426519492e-58
-2.483051457114248023e-58
-2.003971827664740290e-58
-1.394245951821253592e-58
-1.076856536419672645e-58
-8.074606821115419746e-59
-5.642583400879897090e-59
-3.993531122151489107e-59
-2.885873848167826494e-59
-2.026858062820110336e-59
-1.427973263852600295e-59
-1.020743560255772549e-59
-7.403819968141244723e-60
-5.466897082939481708e-60
-4.114686151407019327e-60
-3.146885603736339476e-60
-2.435044850871087094e-60
-1.893914071806795281e-60
-1.469872401704121133e-60
-1.130516213530241028e-60
-8.567429746580380012e-61
