# bin_3_7
-1.157225068019366106e-13
-1.234073314887166815e-13
-1.276237964449429845e-13
-1.272787795879084350e-13
-1.206439432947435839e-13
-1.080052043830139353e-13
-9.141593696792505081e-14
-7.480008694759147428e-14
-6.228237538677686954e-14
-5.384769259908296919e-14
-4.395720656022294555e-14
-3.101248441280731397e-14
-2.358730317595531759e-14
-1.815501006176562605e-14
-1.267033831409685151e-14
-9.305532869471174315e-15
-6.801697871522478328e-15
-4.919112367612405128e-15
-3.605874300286680310e-15
-2.690416031338745045e-15
-2.044859439279942718e-15
-1.581024401401289517e-15
-1.239506953771075657e-15
-9.789579965765385212e-16
-7.735589214699040377e-16
-6.072832588405103349e-16
-4.705056534179917371e-16
-3.577596743228996114e-16
-2.657732399470094875e-16
-1.922717828835659555e-16
-1.353153090288162846e-16
