# bin_10_15
-1.653196878853670014e-13
-1.848961069667086058e-13
-2.029057897754241532e-13
-2.174548494316309383e-13
-2.261585652024014046e-13
-2.269452221666932479e-13
-2.168125986196481068e-13
-1.954832039558658146e-13
-1.666035753771634973e-13
-1.365281789849212010e-13
-1.131684277107327251e-13
-9.787955605665699957e-14
-8.112043671416776459e-14
-5.758562837847842497e-14
-4.271866978008915040e-14
-3.351159109758565777e-14
-2.257104771436077993e-14
-1.666471193790264823e-14
-1.179541779895339525e-14
-8.218442327132794972e-15
-5.770077197383373411e-15
-4.083557163920936252e-15
-2.932146366332358845e-15
-2.140273780641978236e-15
-1.593571284886595075e-15
-1.207614566726335396e-15
-9.282791036082952714e-16
-7.196593866848253130e-16
-5.586367124647480169e-16
-4.310919287102715524e-16
-3.286143669492358361e-16
