# bin_16_16
-2.858297569345194805e-08
-3.226160891029195063e-08
-3.579776547508685225e-08
-3.889222891201265132e-08
-4.115063748560256834e-08
-4.210610224513676726e-08
-4.139479508082936829e-08
-3.848988405578965166e-08
-3.383290388237263895e-08
-2.815863695472493851e-08
-2.303676420444384986e-08
-1.952946098737496110e-08
-1.686171057780770976e-08
-1.301855287540452272e-08
-8.991444171731981257e-09
-7.247071185844808744e-09
-5.032072305030655113e-09
-3.724583672264236513e-09
-2.509219385952091705e-09
-1.773379074357746414e-09
-1.235473081739009041e-09
-8.601179379846166737e-10
-6.022246725301457653e-10
-4.257878658577164365e-10
-3.065131589682864425e-10
-2.250129778432655917e-10
-1.683636969822546065e-10
-1.281367739537698532e-10
-9.863317486253915521e-11
-7.625480802942133284e-11
-5.876772058748222760e-11
