# bin_5_8
-6.589652876476628001e-11
-7.134507493376175298e-11
-7.521148481839853456e-11
-7.667221124597534669e-11
-7.501544567704988132e-11
-6.939764924033292681e-11
-6.071116281183039082e-11
-5.038150100081853916e-11
-4.124269961294754685e-11
-3.503880349101467315e-11
-3.010706646059390046e-11
-2.302704353760799556e-11
-1.607127737461457327e-11
-1.300371305902062741e-11
-9.057331047393538885e-12
-6.814483058975151180e-12
-4.747141655597498943e-12
-3.440245246128926496e-12
-2.497923530818699367e-12
-1.830624704075150540e-12
-1.362127634061509777e-12
-1.030569712968642403e-12
-7.937662158939974750e-13
-6.195374726296204123e-13
-4.869951869997818042e-13
-3.829692548194363243e-13
-2.991480599634150430e-13
-2.306323327601482938e-13
-1.745454714887253187e-13
-1.291166156434101448e-13
-9.307472492071411731e-14
