# bin_15_18
-8.586815491076962375e-10
-9.704024746408663457e-10
-1.078383726607864266e-09
-1.173763972522557580e-09
-1.244771817295579387e-09
-1.277168662108905112e-09
-1.260302694625426554e-09
-1.177241329778869693e-09
-1.039228654624409382e-09
-8.679015948498459805e-10
-7.096886006426758316e-10
-5.993346928466662290e-10
-5.185164326385637794e-10
-4.056522540121429195e-10
-2.797688063005430501e-10
-2.233238387436409959e-10
-1.583489660330384068e-10
-1.151782782760801869e-10
-7.788171923556321257e-11
-5.547425122221461563e-11
-3.847978572047387844e-11
-2.663956419516249110e-11
-1.858465743361516183e-11
-1.308350362060480551e-11
-9.368139777997297408e-12
-6.839883173679808784e-12
-5.091864660538129071e-12
-3.859426655696859450e-12
-2.963003875888371795e-12
-2.288605108159233910e-12
-1.765039327800679805e-12
