# bin_17_20
-1.185736589479075141e-09
-1.345130485668125233e-09
-1.501855907277483908e-09
-1.644146990184772902e-09
-1.756192691170318603e-09
-1.818169101692379337e-09
-1.814583156915864911e-09
-1.719890392924182131e-09
-1.539056756205475512e-09
-1.301411747130787040e-09
-1.064871546479597836e-09
-8.885790953539644883e-10
-7.701594438761857659e-10
-6.266742243917034447e-10
-4.371082345571113173e-10
-3.335011731904482132e-10
-2.526083046388963889e-10
-1.731456837870354569e-10
-1.226488493954930798e-10
-8.711162455839453193e-11
-5.975699387679048376e-11
-4.084500662683707315e-11
-2.812257211523436043e-11
-1.952753757966250089e-11
-1.373459706489514305e-11
-9.841260036839291944e-12
-7.192037657055840906e-12
-5.364547440148472310e-12
-4.071250262519133595e-12
-3.126073053615027644e-12
-2.410826551237914324e-12
