# bin_19_5
-2.177225038450997588e-51
-2.441334518802226452e-51
-2.687605533262620963e-51
-2.891625340372304905e-51
-3.022430206532546986e-51
-3.050220570104482670e-51
-2.938155252459592445e-51
-2.670801126656419252e-51
-2.295528926773720386e-51
-1.886505602149847502e-51
-1.555482155023132357e-51
-1.340245421820939306e-51
-1.128136335864318339e-51
-8.172892348452325563e-52
-5.892855742687568478e-52
-4.740217598958284119e-52
-3.145431169524402713e-52
-2.373711451990596573e-52
-1.652326651100263427e-52
-1.146101007682461399e-52
-8.047942610775656346e-53
-5.666477228215584772e-53
-4.039301120885516532e-53
-2.922743747679414910e-53
-2.157691952063811022e-53
-1.622718489886137801e-53
-1.239962077245728741e-53
-9.579504136200826835e-54
-7.429869995214075321e-54
-5.743197515402049234e-54
-4.394564873437131697e-54
