# bin_17_18
-1.900737292925149617e-08
-2.152151335070452492e-08
-2.397218586448682604e-08
-2.616730253677900185e-08
-2.784945368106440058e-08
-2.869989244058133959e-08
-2.848314220458605146e-08
-2.679751285131402326e-08
-2.381453918391503675e-08
-2.000482306607472010e-08
-1.635694551359545418e-08
-1.373178795980992486e-08
-1.189944094876470699e-08
-9.499821162039986805e-09
-6.567745122079577520e-09
-5.137915626607134411e-09
-3.767351732347313457e-09
-2.657821892020246963e-09
-1.829608353193619590e-09
-1.309265081228717214e-09
-9.027906934979375489e-10
-6.199584463454539321e-10
-4.298578653707080268e-10
-3.005963315855682476e-10
-2.133748194995277856e-10
-1.543934659904223279e-10
-1.139426427148951318e-10
-8.573436799573833842e-11
-6.549000765022671959e-11
-5.046803150548835532e-11
-3.894138985924837306e-11
