# bin_8_13
-3.429858767545020202e-14
-3.807278225013505748e-14
-4.139765840046570972e-14
-4.385898101213886146e-14
-4.495870981658366475e-14
-4.431898110369059855e-14
-4.135512933406769309e-14
-3.647403025348894869e-14
-3.044129780605205316e-14
-2.488852374508968254e-14
-2.101948856433446464e-14
-1.816980541972274078e-14
-1.420009587503062801e-14
-9.818648531859373334e-15
-7.849375085748445054e-15
-5.586560975721186526e-15
-4.093623243192210706e-15
-2.810307596760174041e-15
-2.029169099558846855e-15
-1.439268197797190275e-15
-1.025292594229177058e-15
-7.400329588858736751e-16
-5.419097975587035783e-16
-4.044775536940821016e-16
-3.073843132324455569e-16
-2.369047964513328220e-16
-1.842230580667919805e-16
-1.435219604931337942e-16
-1.112248999872681707e-16
-8.518676593094682184e-17
-6.414605857070437701e-17
