# bin_10_8
-3.461198393275730418e-09
-3.811907469378123570e-09
-4.104771373580172299e-09
-4.296367654595532378e-09
-4.343392172192718678e-09
-4.196112143835085101e-09
-3.826653953076489666e-09
-3.300149665667642784e-09
-2.716075874350841809e-09
-2.234705494737968125e-09
-1.919961887770082781e-09
-1.624697809505123222e-09
-1.190953615478500184e-09
-8.511162651690789866e-10
-6.898613292183991734e-10
-4.618085904531552917e-10
-3.519274278802817185e-10
-2.465390435727758443e-10
-1.741176470478541118e-10
-1.250059300517007846e-10
-9.038296904126218948e-11
-6.631235304837380291e-11
-4.947365384145042833e-11
-3.762027144841654531e-11
-2.903753082016943591e-11
-2.263099444333006551e-11
-1.769638532828860275e-11
-1.378235084454595537e-11
-1.062117767687394381e-11
-8.053365320188785324e-12
-5.981698902830066815e-12
