# bin_8_14
-1.431350862631418231e-16
-1.592583060577504634e-16
-1.736652485034631560e-16
-1.846508232047313821e-16
-1.901123333817900963e-16
-1.884883744752180519e-16
-1.771546049205109618e-16
-1.572979808742605275e-16
-1.320442709917469244e-16
-1.079424349022040287e-16
-9.062244295045446451e-17
-7.848250652370128163e-17
-6.257799676529770063e-17
-4.334902189234061267e-17
-3.398472563575258620e-17
-2.497729811336229938e-17
-1.777704166136496562e-17
-1.239096026750912324e-17
-8.981373875899236790e-18
-6.330756311426876552e-18
-4.476147246069985158e-18
-3.212429498525394202e-18
-2.338938377798799795e-18
-1.734523052979170042e-18
-1.310619622307191169e-18
-1.005553120015335689e-18
-7.797433011383495592e-19
-6.069602240799968149e-19
-4.708557648117714436e-19
-3.615828228459205262e-19
-2.733491347718241981e-19
