# bin_7_19
-6.653130514419139657e-38
-7.471501354854889184e-38
-8.240381907170859576e-38
-8.886171687426910321e-38
-9.314916036001605843e-38
-9.430971168970728059e-38
-9.128510975247408063e-38
-8.339574868330832883e-38
-7.204575763707227831e-38
-5.934062628448395279e-38
-4.879885571663626149e-38
-4.191701054245082605e-38
-3.556486470343503375e-38
-2.612470487311962626e-38
-1.854714886989295541e-38
-1.506532053148994013e-38
-9.978244695124472005e-39
-7.579573033195020039e-39
-5.226536896969916097e-39
-3.620377713309893401e-39
-2.542933460856970421e-39
-1.787671489492557789e-39
-1.269054170535562135e-39
-9.133631468254242212e-40
-6.706591453880847629e-40
-5.018793630018145934e-40
-3.819390808730587433e-40
-2.942994732157032428e-40
-2.280351843339736568e-40
-1.763814935807635033e-40
-1.352382709765216514e-40
