# bin_12_6
-9.263814172988330367e-18
-1.021305867501176645e-17
-1.101180957163792656e-17
-1.154442745674583948e-17
-1.169186544293298943e-17
-1.132597523794821893e-17
-1.035807899653968767e-17
-8.958700541215631596e-18
-7.382934438479138799e-18
-6.066205158842209996e-18
-5.202513086373341611e-18
-4.420755799760277431e-18
-3.265564013680781759e-18
-2.315753048635074264e-18
-1.884095384521418620e-18
-1.262189638997785344e-18
-9.636171940913409734e-19
-6.716177865371047612e-19
-4.743285512124442723e-19
-3.404690959961476303e-19
-2.459484707273831901e-19
-1.800804581335842163e-19
-1.340334667390508913e-19
-1.017003078789538299e-19
-7.836353483978812051e-20
-6.100508761409532185e-20
-4.768298355264151154e-20
-3.714680634661788783e-20
-2.865218137287145539e-20
-2.175553454934067621e-20
-1.618861060305553870e-20
