# bin_5_5
-6.958188432658138461e-08
-7.411327507510156908e-08
-7.653046818897552679e-08
-7.618188339054538456e-08
-7.203634714902811370e-08
-6.434377540571176305e-08
-5.434618459367616287e-08
-4.445730089101256745e-08
-3.708660245037856714e-08
-3.206255732061054182e-08
-2.602252692559699211e-08
-1.831302939755914490e-08
-1.403050848524999378e-08
-1.070293178457289766e-08
-7.526739266189902142e-09
-5.492916529644995734e-09
-4.023139907545897850e-09
-2.914512033410032063e-09
-2.139346999576835011e-09
-1.598776233616872346e-09
-1.216913944071597694e-09
-9.421682609574092067e-10
-7.393742525061794245e-10
-5.842671447305995679e-10
-4.617083578518129681e-10
-3.623168617899110204e-10
-2.804827927841032238e-10
-2.130200141820836492e-10
-1.580182459596793359e-10
-1.141329348376930554e-10
-8.019343997595148633e-11
