# bin_7_10
-1.288627390782632729e-10
-1.415368593272613296e-10
-1.519016111778779460e-10
-1.583180216477036328e-10
-1.592853183794082550e-10
-1.528043761482244304e-10
-1.383596635881298296e-10
-1.184528423942229720e-10
-9.721071124050403907e-11
-8.031166945500624986e-11
-6.926569983081865853e-11
-5.790348558136847803e-11
-4.167397089285312528e-11
-3.046407844255742739e-11
-2.429399165928854651e-11
-1.637033397654740658e-11
-1.232568803894092948e-11
-8.750921276355748988e-12
-6.194367687890807162e-12
-4.448511530155153627e-12
-3.226870848060470730e-12
-2.380057735344642140e-12
-1.786302076538205921e-12
-1.365469399210227796e-12
-1.058234427938157203e-12
-8.268544270315138675e-13
-6.470449156098306948e-13
-5.034450910144890116e-13
-3.870125359993063393e-13
-2.923580780005301483e-13
-2.161187868512758789e-13
