# bin_13_10
1.090189843053749732e-12
1.214540707951639360e-12
1.326487020464931637e-12
1.413155184398238762e-12
1.458535920519292508e-12
1.450507917010307760e-12
1.368735306231197998e-12
1.219856657643094838e-12
1.027587077656415609e-12
8.402689939968995166e-13
7.031499563999998567e-13
6.091343475740102647e-13
4.907907442719483383e-13
3.412962563816326168e-13
2.641218233951535244e-13
1.975082107758605433e-13
1.383697817104758011e-13
9.773920764041556493e-14
7.064550231338712046e-14
4.964086352793045610e-14
3.499197113565874017e-14
2.502587593859453331e-14
1.816118977875972017e-14
1.341769003731197905e-14
1.010411741903233535e-14
7.730803007750581632e-15
5.983697421213033243e-15
4.654417307573392955e-15
3.612046931271157597e-15
2.777501632327906810e-15
2.104168730473588566e-15
