# bin_6_3
1.269461086466388495e-13
1.344496154544253036e-13
1.378691884388511642e-13
1.360221456038739785e-13
1.271594314978212822e-13
1.123696775062753725e-13
9.400412723178567210e-14
7.686508423172015998e-14
6.470327992966154644e-14
5.583933171980025943e-14
4.404410828321273979e-14
3.075565181265394107e-14
2.431673088068853599e-14
1.776363349109739589e-14
1.295660735104763825e-14
9.228844616871007134e-15
6.792328833387391491e-15
4.961422431815749961e-15
3.667850635356066289e-15
2.761670093286376930e-15
2.116316097637908225e-15
1.648760017795411439e-15
1.299547958253849836e-15
1.029250493889883992e-15
8.133897148082813018e-16
6.369344128932212986e-16
4.910878148935645768e-16
3.708481487214036829e-16
2.731803848523336827e-16
1.958068481080645578e-16
1.365332166385268736e-16
