# bin_8_4
1.074143269346009598e-15
1.157919457770158224e-15
1.214050596421339965e-15
1.229992323203795737e-15
1.192552477750240257e-15
1.092004993622982629e-15
9.457526612236951855e-16
7.800651191472970389e-16
6.404843496388754640e-16
5.482712263496901363e-16
4.664455103510723265e-16
3.468132707952963457e-16
2.458842888519388552e-16
1.999278219173968603e-16
1.357862639288043377e-16
1.037770870242931728e-16
7.301717771425493407e-17
5.245800641001663330e-17
3.828111011038170743e-17
2.822238548963624616e-17
2.113596500383944996e-17
1.610030212112907694e-17
1.247609028067562662e-17
9.780171821966784376e-18
7.706096669869391083e-18
6.061342661024831273e-18
4.725871947790685644e-18
3.630116257857334075e-18
2.732970607619237515e-18
2.008483278735893041e-18
1.437265408511417155e-18
