# bin_16_16
9.133396485774956020e-11
1.030867094970357401e-10
1.143833271301285624e-10
1.242674931655948068e-10
1.314789489815690996e-10
1.345262101343533596e-10
1.322461056834620938e-10
1.229571563424644777e-10
1.080732948956631892e-10
8.994338720636244599e-11
7.358398841468065414e-11
6.238455179088852094e-11
5.386073857400309161e-11
4.157644151550405075e-11
2.871641851992736507e-11
2.314823560033044392e-11
1.606829805053887322e-11
1.189609964981084501e-11
8.014224781763634619e-12
5.663259484702839029e-12
3.945726335348009964e-12
2.747175627179009729e-12
1.923579930819216948e-12
1.360107482968117653e-12
9.791824378587755224e-13
7.188807212976468904e-13
5.379351661814467449e-13
4.094310151955677854e-13
3.151707112229638113e-13
2.436661127863196412e-13
1.877852085707454895e-13
