# bin_16_7
4.705157344604112123e-29
5.251260918323467337e-29
5.747915625878838533e-29
6.140297723646894606e-29
6.359685083930867884e-29
6.351351620517252002e-29
6.027159858743851269e-29
5.399890368022414737e-29
4.572161089709477072e-29
3.741311799872963303e-29
3.116701320869709493e-29
2.699596115641790260e-29
2.205250751587953131e-29
1.545262890823865486e-29
1.173280038728256681e-29
8.978990140966094614e-30
6.164389565155222038e-30
4.444339402974008581e-30
3.188178103595028385e-30
2.231121761340053053e-30
1.568171344573271480e-30
1.116014187947019295e-30
8.060763508746097417e-31
5.923530017963359196e-31
4.438669625122199756e-31
3.382146375578972803e-31
2.610354728329817672e-31
2.027933697245508170e-31
1.574304191065034291e-31
1.212706041767939499e-31
9.213918999719541823e-32
