# bin_15_3
3.028293044803345143e-50
3.354264287590450904e-50
3.637514108358720932e-50
3.841067719143367812e-50
3.922011158969339138e-50
3.845316540470042967e-50
3.564716247647473875e-50
3.124621348361629431e-50
2.595491231208179531e-50
2.123832326099635512e-50
1.803339114823157486e-50
1.553544632579603135e-50
1.191796299491464096e-50
8.266787619745704477e-51
6.691876349621288259e-51
4.634220204606742222e-51
3.472400832095873606e-51
2.377874706584923284e-51
1.701093017387954156e-51
1.213578488246034882e-51
8.703570242056338856e-52
6.312004015832746937e-52
4.646105705250730331e-52
3.487189194799944985e-52
2.662903819126500230e-52
2.059841617857518215e-52
1.605116035150937624e-52
1.250927822728025595e-52
9.682217201040161568e-53
7.396252767480843956e-53
5.548803262894128314e-53
