# bin_16_6
3.038971722503091020e-34
3.387542139515590598e-34
3.702369655049367353e-34
3.947712701785530293e-34
4.078970019318294761e-34
4.062012477879434265e-34
3.839800467323336512e-34
3.427789758078198181e-34
2.891997469299080041e-34
2.365179240059600537e-34
1.976392228007898594e-34
1.712279247007837461e-34
1.385869348664406791e-34
9.655276778002116078e-35
7.428971543087934042e-35
5.597153704334615299e-35
3.894619399457578242e-35
2.767672676866645016e-35
1.997468217023690963e-35
1.401708049977581314e-35
9.868484039391839883e-36
7.047118141280694962e-36
5.106697194482507101e-36
3.766668722686881169e-36
2.832203936532178227e-36
2.164287168120894983e-36
1.673782864569824219e-36
1.301519781921958936e-36
1.010196428685631641e-36
7.772514281202191663e-37
5.893763726124784086e-37
