# bin_19_8
7.942663881366376956e-35
8.927051554520877969e-35
9.855597721270811141e-35
1.064113709129488846e-34
1.117193690114619016e-34
1.133073111359912208e-34
1.099619259383676987e-34
1.007397155873240371e-34
8.727610187263665682e-35
7.198430278600826955e-35
5.912222936731372604e-35
5.068994794894244330e-35
4.317591022963150917e-35
3.196630068039083152e-35
2.253026049507731675e-35
1.835410926656804009e-35
1.218132376751922305e-35
9.262353029273456922e-36
6.353727810416553418e-36
4.402233005604313895e-36
3.092035481542290019e-36
2.172511571339568664e-36
1.538792292969004155e-36
1.104226150289008329e-36
8.083177709109399275e-37
6.031528843452166585e-37
4.578960802455058772e-37
3.522485307168440633e-37
2.727403548082982177e-37
2.110051655260161828e-37
1.619525389290768109e-37
