# bin_20_8
1.633966665066785689e-38
1.839700221896038193e-38
2.035330863718632735e-38
2.203258469837598509e-38
2.320683799403981661e-38
2.362212807103055353e-38
2.305000010596820773e-38
2.124445730956539104e-38
1.851637266259748281e-38
1.532256121767290296e-38
1.255842997534527990e-38
1.072117948759408601e-38
9.195366007384558539e-39
6.924312052166851554e-39
4.824320827736249951e-39
3.930753065105347527e-39
2.640712758794447939e-39
1.998765444001323339e-39
1.356792283130997842e-39
9.441806326945010293e-40
6.622516273313476132e-40
4.644915728909267640e-40
3.274490670909430109e-40
2.335174083778924507e-40
1.697958680173925210e-40
1.258876800956773366e-40
9.504035629755188513e-41
7.282507158002518398e-41
5.627735284362863974e-41
4.354352389099386119e-41
3.348635642971369973e-41
