# bin_15_2
5.328518191861181973e-59
5.895755642060300485e-59
6.385186046020885075e-59
6.731416217260410817e-59
6.860246841208712695e-59
6.707806767785978462e-59
6.198491020325230578e-59
5.416553452696741504e-59
4.489915568913321609e-59
3.676437069511158853e-59
3.129533929388125733e-59
2.689587223841690152e-59
2.044873162526175281e-59
1.422990421709785073e-59
1.156448259793085736e-59
7.918225975340341058e-60
5.981124053032603388e-60
4.105246245091936564e-60
2.923200533037857975e-60
2.090344952024666287e-60
1.503004462228925599e-60
1.092479242964255550e-60
8.062157651609030900e-61
6.067151224245499832e-61
4.643409475894267435e-61
3.597739796482356229e-61
2.805940332474015524e-61
2.186861428664526864e-61
1.691433571098175974e-61
1.290351540756400047e-61
9.662461614144112827e-62
