# bin_2_1
2.460149940393016122e-10
2.432416132151554665e-10
2.282980312344820354e-10
2.026054416880725217e-10
1.703181859252308466e-10
1.394215730344792840e-10
1.168226201051545377e-10
1.005810144555538319e-10
8.037985746134548459e-11
5.691524437636089409e-11
4.413869632793562363e-11
3.315673471888588130e-11
2.394315320229187317e-11
1.757020101458229610e-11
1.303540507308722932e-11
9.692421392965712226e-12
7.334950291842057359e-12
5.660030117490989440e-12
4.445441247866479868e-12
3.539007325214850827e-12
2.837515906606877614e-12
2.273731963986586710e-12
1.807578928039417044e-12
1.416067757359057916e-12
1.086806360125372681e-12
8.134420821854820062e-13
5.922406893294676482e-13
4.191920762912756775e-13
2.889300682794171323e-13
1.944712492990327076e-13
1.282612104979601514e-13
