# bin_9_4
2.018570836531654359e-18
2.187005877243583986e-18
2.307539418946635690e-18
2.354643487575431229e-18
2.307071545658933586e-18
2.137684593592239717e-18
1.873018099204039033e-18
1.555701148383623494e-18
1.272902406437999086e-18
1.080218462007951765e-18
9.296787538200155267e-19
7.140022611604598020e-19
4.970870207195805767e-19
4.019869163571584336e-19
2.809307796217138896e-19
2.109919218653186818e-19
1.466764117938956260e-19
1.064152454731723106e-19
7.722478674001317818e-20
5.655902728389452084e-20
4.204344886780742654e-20
3.177613287806557890e-20
2.445192118065793441e-20
1.907203973342482701e-20
1.498638651200177540e-20
1.178486730112844681e-20
9.208223779819462043e-21
7.103288721674258698e-21
5.380215485330522599e-21
3.983897263988710832e-21
2.874999444897110598e-21
