# bin_15_1
6.336975302668654897e-69
7.005084272008837436e-69
7.577976130250153040e-69
7.977541886786976399e-69
8.117099234599122171e-69
7.917986392252187404e-69
7.296973108180862887e-69
6.359590179053365733e-69
5.262888881442909821e-69
4.312399750483572375e-69
3.678465920267288300e-69
3.153647936506731267e-69
2.379611281393899294e-69
1.661988675985567972e-69
1.353544893779856783e-69
9.193090620287454624e-70
6.979627545605825071e-70
4.805789864053321789e-70
3.410760227426941015e-70
2.442775470311288416e-70
1.759366153983796026e-70
1.281266206684091116e-70
9.476274381508182218e-71
7.147089836290037441e-71
5.480028271269907075e-71
4.251603515045948249e-71
3.318100005884004061e-71
2.585943377385220236e-71
1.998794431946275161e-71
1.523033084239643061e-71
1.138650970999167515e-71
