# bin_19_19
7.835040694955369428e-11
8.894577160879105813e-11
9.939860740485998781e-11
1.089360053333932734e-10
1.165200177763849298e-10
1.208462818531514408e-10
1.208584311938911507e-10
1.148797105261995558e-10
1.030742149757515066e-10
8.739388284819826374e-11
7.154150519721937645e-11
5.956133411279255836e-11
5.160993501465264309e-11
4.227437409164378397e-11
2.962917651008235421e-11
2.238290421673442993e-11
1.715068647301877630e-11
1.164565074170428944e-11
8.346029557299115511e-12
5.896684881636841902e-12
4.037731323641662361e-12
2.758056467319261323e-12
1.893935678918696898e-12
1.311467051292898220e-12
9.191439907498881577e-13
6.560480396473597540e-13
4.775391417220726338e-13
3.548912138090680560e-13
2.685592384388674464e-13
2.058463743574976616e-13
1.586645122450343315e-13
