# bin_19_4
7.081408656097712681e-62
7.935124599039974311e-62
8.728460026340807053e-62
9.381563219521811284e-62
9.793393223454596971e-62
9.869123327064668467e-62
9.486278571417479658e-62
8.604486567081773474e-62
7.379063897549557380e-62
6.059056270447095207e-62
5.002270442782819213e-62
4.315189883172982175e-62
3.618518194727170256e-62
2.606532821395198661e-62
1.893127891909891972e-62
1.514171087913463399e-62
1.007456695683719679e-62
7.568288633244177508e-63
5.290403856881581603e-63
3.673276507355080359e-63
2.579071091148001794e-63
1.817807861250194934e-63
1.298216966351896792e-63
9.415330135489141813e-64
6.966661321535801091e-64
5.250187849858640984e-64
4.018438095412342329e-64
3.107637839496174680e-64
2.411024347406096325e-64
1.862993273707927052e-64
1.424167172851440459e-64
