# bin_18_13
3.574577715517273662e-15
4.031418932764206217e-15
4.469046495525270286e-15
4.849692921905575154e-15
5.123856315712885980e-15
5.233905322783155643e-15
5.133197874639897872e-15
4.759279008409302690e-15
4.172091645210420774e-15
3.465446522248849339e-15
2.836439246235159884e-15
2.410286809335139102e-15
2.077382177728098191e-15
1.590784561512093073e-15
1.100899895838023921e-15
8.914481990013043114e-16
6.115051242799083805e-16
4.567439132487559940e-16
3.079604119860263581e-16
2.164231154576744969e-16
1.511799519490233863e-16
1.055739312252713577e-16
7.408420579653718249e-17
5.252359513399694340e-17
3.793532235437686015e-17
2.794060628107994818e-17
2.096972972028774730e-17
1.599713920043588077e-17
1.233138333418736196e-17
9.537310998209587842e-18
7.345780985750745258e-18
