# bin_20_7
2.169252531231825817e-44
2.440558255151031290e-44
2.697672611816914223e-44
2.917036945016818706e-44
3.068278795908793624e-44
3.118372012795698782e-44
3.035845438443265802e-44
2.790818750601343957e-44
2.426199980534164887e-44
2.004761810692748143e-44
1.644425879379890323e-44
1.406504558736706713e-44
1.203046790488412496e-44
8.993690606199723274e-45
6.293123123399360074e-45
5.131857774420088806e-45
3.425474583094142237e-45
2.600705676618491659e-45
1.772970112437450315e-45
1.230610034128872717e-45
8.639216956111133878e-46
6.065252164202395921e-46
4.284386789243626237e-46
3.063441939117201399e-46
2.233948280452099213e-46
1.660881433735446561e-46
1.256958324253681536e-46
9.648378239218172285e-47
7.462748950059142708e-47
5.774228600591774165e-47
4.437036649384375919e-47
