# bin_14_6
-9.677061720761210363e-10
-1.041520759760061800e-09
-1.089821249253163287e-09
-1.101663477154769689e-09
-1.064709783829006016e-09
-9.719886354038433165e-10
-8.392314258574153518e-10
-6.916130907170796324e-10
-5.690415463966028415e-10
-4.877108283984396160e-10
-4.124461878276585782e-10
-3.046894312446959463e-10
-2.183432494918743439e-10
-1.758172487593574193e-10
-1.202367827760555840e-10
-9.113140310786666714e-11
-6.450406480155244115e-11
-4.644050707856881211e-11
-3.388424615628926153e-11
-2.500732117314648695e-11
-1.876315884711449467e-11
-1.432063142407477643e-11
-1.111340609534382878e-11
-8.719995406247816914e-12
-6.872848878841371329e-12
-5.404114659580700639e-12
-4.209592588255414130e-12
-3.228973582615088703e-12
-2.426579902749898422e-12
-1.779618347258750007e-12
-1.270781013555466651e-12
