# bin_12_2
-2.601789757480302113e-09
-2.611060503184181756e-09
-2.501073335640232000e-09
-2.265542099206729929e-09
-1.942564138781009777e-09
-1.599523558081708201e-09
-1.322910216307465624e-09
-1.133047077757289763e-09
-9.422606609442124568e-10
-6.925194686212036766e-10
-5.088955700579954780e-10
-4.000761941768615965e-10
-2.825775543805584948e-10
-2.118036651162297303e-10
-1.540276052458781097e-10
-1.138239691524617021e-10
-8.536786575611796575e-11
-6.513353818648444326e-11
-5.061633274457843838e-11
-3.994439049594505511e-11
-3.185908592946601455e-11
-2.549202307853118195e-11
-2.031157489591572470e-11
-1.600369990836647923e-11
-1.239065592860721520e-11
-9.378318312681825248e-12
-6.914298516016938191e-12
-4.957299513036227518e-12
-3.458114090318588484e-12
-2.352264802389773116e-12
-1.565188906083681053e-12
