# bin_8_13
-1.038142054530843804e-18
-1.151686565863992864e-18
-1.251339326572128584e-18
-1.324522978652078933e-18
-1.356247464952822307e-18
-1.334952164808197817e-18
-1.243403988757265734e-18
-1.094774267561701010e-18
-9.124552800413492280e-19
-7.461481545621710006e-19
-6.311069769228458571e-19
-5.451100234072417126e-19
-4.238219247889506119e-19
-2.932004827274696687e-19
-2.353155542803264524e-19
-1.661640478394213427e-19
-1.225770390738663613e-19
-8.401668889560066127e-20
-6.052370312917359277e-20
-4.299951062649931743e-20
-3.069181955146228143e-20
-2.218249944955867415e-20
-1.626709143884676137e-20
-1.216075393054757714e-20
-9.254303588537698697e-21
-7.139915649564472854e-21
-5.555596310763385082e-21
-4.328734562856624557e-21
-3.353545258690767039e-21
-2.566641167853467160e-21
-1.930717249843786494e-21
