# bin_17_16
-4.459176036746797489e-11
-5.027524014841367462e-11
-5.571251456762667588e-11
-6.043076220192455094e-11
-6.381162323018902002e-11
-6.514172024240061757e-11
-6.383002437221721536e-11
-5.911958903735016477e-11
-5.177343808579612959e-11
-4.297925595380160745e-11
-3.518824109485461927e-11
-2.992404045619881038e-11
-2.576494976793245763e-11
-1.967534854215416133e-11
-1.363663760194743375e-11
-1.104802213341252985e-11
-7.557346873550831384e-12
-5.652500992710953679e-12
-3.818236146794570006e-12
-2.679606090264267862e-12
-1.872716930265126539e-12
-1.308380463882255143e-12
-9.188395793776030846e-13
-6.521003621918426328e-13
-4.715221661597924935e-13
-3.476820674501971141e-13
-2.612004080487937758e-13
-1.994075034829622112e-13
-1.537727037312304225e-13
-1.189326850645663280e-13
-9.157449207045441108e-14
