# bin_12_20
-4.229278130278855229e-24
-4.776597087366240476e-24
-5.304167776644306416e-24
-5.768037908016391398e-24
-6.110037661417920212e-24
-6.260495275514554141e-24
-6.166401169530978522e-24
-5.746897121620628279e-24
-5.062449718676000492e-24
-4.220504199491577085e-24
-3.451813242116214058e-24
-2.920647328313128521e-24
-2.524569855942492891e-24
-1.962121994571496941e-24
-1.353777366046788412e-24
-1.086268829772093055e-24
-7.621080322311748328e-25
-5.594004934269228533e-25
-3.772244985119528919e-25
-2.677447505181002796e-25
-1.861186280916259421e-25
-1.292166011752598364e-25
-9.031009976159928730e-26
-6.371315445618573189e-26
-4.574286112908344021e-26
-3.348940962210552083e-26
-2.499515233042226133e-26
-1.898505717360408690e-26
-1.459534407622708558e-26
-1.127919957667479358e-26
-8.696106690595991829e-27
