# bin_14_3
-2.110087404976973794e-09
-2.172069134997082017e-09
-2.153539391212859737e-09
-2.028181003970617724e-09
-1.805598065399115693e-09
-1.522370620481058112e-09
-1.247068018934809111e-09
-1.042938099925273055e-09
-8.977811708141132437e-10
-7.218590243966024797e-10
-5.129182212192037914e-10
-3.940105694071999002e-10
-2.979576103290647789e-10
-2.130065781878007325e-10
-1.563472354755711258e-10
-1.147902240182475513e-10
-8.438859741246845872e-11
-6.304239038962338732e-11
-4.795838767741516933e-11
-3.714634506956738139e-11
-2.921540360035970053e-11
-2.321145379157274106e-11
-1.849342487224960443e-11
-1.466944518265708159e-11
-1.150540979062531557e-11
-8.867151345504463412e-12
-6.681208405268155244e-12
-4.904377925793902106e-12
-3.501057629108956958e-12
-2.432071961344918690e-12
-1.647640263636636418e-12
