# bin_14_1
-3.627815615265764443e-09
-3.499997575515512155e-09
-3.197613700665633091e-09
-2.766138701689570295e-09
-2.290477424054605083e-09
-1.889176659269938554e-09
-1.607679626853697959e-09
-1.348936103741094610e-09
-1.016364158696042115e-09
-7.387471784034258279e-10
-5.792905206516168139e-10
-4.172633244871064436e-10
-3.105628054353888373e-10
-2.271100057531056851e-10
-1.690731595140501884e-10
-1.274306640185237163e-10
-9.778785180884725223e-11
-7.645441842706347189e-11
-6.068994529474713494e-11
-4.865455315336897852e-11
-3.910052826193116167e-11
-3.126120051042307874e-11
-2.469184353570107195e-11
-1.914838511274420182e-11
-1.450712510975738999e-11
-1.070153742216604265e-11
-7.676976649887521970e-12
-5.359366359722246252e-12
-3.649453568544169155e-12
-2.431552504122673730e-12
-1.590528169788660001e-12
