# bin_15_18
-5.847371217465288595e-14
-6.603788902252208938e-14
-7.332777910304471347e-14
-7.973535862814055452e-14
-8.445623799645922256e-14
-8.652814015960928537e-14
-8.521645973924766524e-14
-7.940719471223322852e-14
-6.993996381766170262e-14
-5.830309860721438439e-14
-4.768612733712711034e-14
-4.035293701074153504e-14
-3.487584674794765874e-14
-2.709510932414771027e-14
-1.869836141347396528e-14
-1.500473974870573739e-14
-1.052170775138865468e-14
-7.725114609555014383e-15
-5.211350838864162978e-15
-3.697407111259307563e-15
-2.570551626706121577e-15
-1.784876913065536048e-15
-1.247587742438541461e-15
-8.802893312577083289e-16
-6.321063508798476259e-16
-4.628545207449197671e-16
-3.455065580723371212e-16
-2.624577457143376994e-16
-2.017841038499294214e-16
-1.559380463957828831e-16
-1.202203064635803215e-16
