# bin_19_2
-3.030395789116582956e-09
-3.042090943165608869e-09
-2.915123507415568353e-09
-2.641697992213493162e-09
-2.265999397839463846e-09
-1.866132795072781749e-09
-1.543077142278274288e-09
-1.321410590140655478e-09
-1.099644139147742969e-09
-8.088607331314584532e-10
-5.938587584907062080e-10
-4.671260174364789511e-10
-3.299288141800558341e-10
-2.473194849788410934e-10
-1.798002498717000390e-10
-1.328626989134821113e-10
-9.962838792561095866e-11
-7.599665734316975673e-11
-5.904542399254941674e-11
-4.658778557407623597e-11
-3.715340369200209982e-11
-2.972703862232637388e-11
-2.368675310111748949e-11
-1.866497771720368722e-11
-1.445351254290052623e-11
-1.094202203686775878e-11
-8.069138746089049444e-12
-5.786747277646560934e-12
-4.037686423961603473e-12
-2.747081059442287133e-12
-1.828223542440188464e-12
