# bin_3_12
-6.090694589660083066e-38
-6.668457917652276226e-38
-7.128477361557792511e-38
-7.391958250397295975e-38
-7.393923457378811594e-38
-7.034255398833238381e-38
-6.317909993588073038e-38
-5.363889951376707467e-38
-4.391157030058072503e-38
-3.648419525993162095e-38
-3.156126434162719772e-38
-2.595181358692471350e-38
-1.833572597259224596e-38
-1.379275107868869786e-38
-1.071173325886457034e-38
-7.348734543602082284e-39
-5.407446207719271781e-39
-3.900698237079565567e-39
-2.774162770056971824e-39
-1.994269409523199877e-39
-1.454431946674414845e-39
-1.079560609082853022e-39
-8.157426319195138041e-40
-6.271669391277936509e-40
-4.881429709381369163e-40
-3.823620821319073354e-40
-2.993432097247077795e-40
-2.325665532418364495e-40
-1.782185775267674192e-40
-1.340219421963103966e-40
-9.850951767656485314e-41
