# bin_6_19
-1.829957367831425587e-49
-2.052943606426949709e-49
-2.261382957373094960e-49
-2.434843005347136644e-49
-2.547358605121778022e-49
-2.573483006282647116e-49
-2.482804436255860116e-49
-2.260499139870979490e-49
-1.946067474943889349e-49
-1.600394903572558740e-49
-1.318394306065693621e-49
-1.134896443447052031e-49
-9.578394432755426097e-50
-6.969456648843039319e-50
-4.999006789193222325e-50
-4.036053860830325450e-50
-2.674698666339944920e-50
-2.023966197745573239e-50
-1.404583236046527876e-50
-9.736621713401812988e-51
-6.837766122227228378e-51
-4.811423680467444751e-51
-3.425158173884541642e-51
-2.474119620187075169e-51
-1.823379961286425879e-51
-1.369155195622757526e-51
-1.044882644785140409e-51
-8.065958752906812849e-52
-6.254251433850881395e-52
-4.835609437444984868e-52
-3.702595495917499464e-52
