# bin_3_15
-6.825819824478958970e-53
-7.557789631649557526e-53
-8.192307524096200671e-53
-8.645885780165767772e-53
-8.822331769543891722e-53
-8.641784909514353948e-53
-8.002376876951083161e-53
-7.007048558577496634e-53
-5.816169032224011465e-53
-4.760227095447041055e-53
-4.045441031296868704e-53
-3.482420969344957971e-53
-2.663270436885005689e-53
-1.849140257631156107e-53
-1.499185195243489187e-53
-1.033951934461626626e-53
-7.770923323868940898e-54
-5.324433112201430648e-54
-3.802715860757080125e-54
-2.715281941882155694e-54
-1.949248670410554753e-54
-1.414765883967022471e-54
-1.042310551012285641e-54
-7.830492184744125692e-55
-5.984319461620805811e-55
-4.631798788750488891e-55
-3.610447822448904107e-55
-2.813843063366435848e-55
-2.177413040617930817e-55
-1.662566934046504407e-55
-1.246491251691701429e-55
