# bin_3_13
-8.592784910406366923e-43
-9.446378502251827395e-43
-1.014940511045918555e-42
-1.059311795376238156e-42
-1.067496354532255433e-42
-1.026430144403131648e-42
-9.315039364981777448e-43
-7.993391636457838805e-43
-6.564893068364722327e-43
-5.415649542098983122e-43
-4.666214096472886745e-43
-3.917631597964232648e-43
-2.834613394343444878e-43
-2.056312286130762160e-43
-1.650825506235434829e-43
-1.107844519981423853e-43
-8.388329285692041707e-44
-5.929459189490011060e-44
-4.192335613243573344e-44
-3.010284014797628448e-44
-2.180633339604781409e-44
-1.605582845039301625e-44
-1.202758299342926065e-44
-9.178975666902662840e-45
-7.104852611379899762e-45
-5.547268827444913811e-45
-4.340221431015561205e-45
-3.378253556922047818e-45
-2.599164722300357158e-45
-1.965897792057398754e-45
-1.455515703562140313e-45
