# bin_18_2
-2.986495756429702886e-09
-2.997942591264679590e-09
-2.872714363324770667e-09
-2.603170176092860966e-09
-2.232871500651372499e-09
-1.838825310737961886e-09
-1.520526517014796705e-09
-1.302117433266023361e-09
-1.083524117175239986e-09
-7.969444657817681663e-10
-5.851563935043733306e-10
-4.602584313884216312e-10
-3.250788558169204662e-10
-2.436817729732400752e-10
-1.771604836565712117e-10
-1.309126547280293263e-10
-9.816775220423543300e-11
-7.488400101776726458e-11
-5.818207326085109679e-11
-4.590733498633303040e-11
-3.661113251465298227e-11
-2.929326660928109097e-11
-2.334105003931798729e-11
-1.839239599779264670e-11
-1.424222419381613534e-11
-1.078185948856301753e-11
-7.950854094514360459e-12
-5.701790990956408770e-12
-3.978323659466559915e-12
-2.706641958582028522e-12
-1.801282189758517935e-12
