# bin_18_8
-7.648086236971843777e-10
-8.366769313186512383e-10
-8.934964926172139791e-10
-9.253716371451238890e-10
-9.241823089558492506e-10
-8.775545340838615640e-10
-7.868775803851380332e-10
-6.670879613752998825e-10
-5.461708450897891397e-10
-4.545216109171000404e-10
-3.929648043430053950e-10
-3.215197287045468375e-10
-2.270801401288364655e-10
-1.717133053947602205e-10
-1.322854578467030806e-10
-9.148036876135784087e-11
-6.690158988394580708e-11
-4.828849874036483519e-11
-3.439439956489252610e-11
-2.476337696548089166e-11
-1.808799484844985376e-11
-1.344148949420067027e-11
-1.016847849722205230e-11
-7.824920621166618557e-12
-6.093890208356697264e-12
-4.774239350856580754e-12
-3.736843471372483480e-12
-2.901603352638309922e-12
-2.221621428279013816e-12
-1.668846072438268958e-12
-1.225096911532640481e-12
