# bin_5_11
-3.562096463151773068e-23
-3.902263194222521451e-23
-4.174479485699666484e-23
-4.332806381599893273e-23
-4.338631911826447667e-23
-4.133835858206912069e-23
-3.718201714197417525e-23
-3.161407821980227850e-23
-2.589001134051822638e-23
-2.148725956815370853e-23
-1.858097400388531550e-23
-1.532751586817576991e-23
-1.086114907561970331e-23
-8.127820349869199851e-24
-6.345869376319723271e-24
-4.335912753906547337e-24
-3.205840641345339493e-24
-2.306055834908996159e-24
-1.638477260626769502e-24
-1.177478502361065655e-24
-8.577794817521425194e-25
-6.359589239737512125e-25
-4.799699928332912527e-25
-3.686434010768304113e-25
-2.867154582770900554e-25
-2.244928828898012269e-25
-1.757439039442472059e-25
-1.365800954408162590e-25
-1.047250454642609571e-25
-7.882008039525835478e-26
-5.799512841593884081e-26
