# bin_8_20
-2.949733272476228695e-41
-3.320537263679074291e-41
-3.672848209615047294e-41
-3.974829613788197659e-41
-4.185289147436335122e-41
-4.258602098580733053e-41
-4.153165651666624698e-41
-3.825451641971358719e-41
-3.332150358049679874e-41
-2.756402643295994074e-41
-2.259569468518246973e-41
-1.929892911032690079e-41
-1.654191493946848126e-41
-1.243463031476115970e-41
-8.671850723625022486e-42
-7.067790677195357788e-42
-4.740178684102364972e-42
-3.590973912449041972e-42
-2.440042001137216664e-42
-1.696805454821227614e-42
-1.190454352972018097e-42
-8.351937703842379472e-43
-5.890713874575163988e-43
-4.203621128961022100e-43
-3.058728275576997816e-43
-2.269323865165321176e-43
-1.714291721959837149e-43
-1.314162451834844869e-43
-1.015787769894436108e-43
-7.859571160195523941e-44
-6.043133028027659361e-44
