# bin_5_14
-2.045425380979843728e-34
-2.263869878905572328e-34
-2.452738502360955479e-34
-2.586966096426289699e-34
-2.637912475095516393e-34
-2.581331517568541299e-34
-2.387515954674642457e-34
-2.088182910880765699e-34
-1.731944879387439029e-34
-1.417850213980272325e-34
-1.206076542315103307e-34
-1.037309091969587557e-34
-7.906759086064073868e-35
-5.496249072295603862e-35
-4.462657414098806690e-35
-3.064779062246529883e-35
-2.310376348155452701e-35
-1.584348344576579542e-35
-1.129574091429319699e-35
-8.072688918652566243e-36
-5.800788108766692152e-36
-4.213752777196445282e-36
-3.107388424619842039e-36
-2.336755022466923234e-36
-1.787309912877260474e-36
-1.384204589025059461e-36
-1.079324115359704202e-36
-8.411973174379157744e-37
-6.507666182342047324e-37
-4.966473267995258643e-37
-3.720999708291294427e-37
