# bin_9_11
-4.968603524475347033e-13
-5.492441098279792693e-13
-5.941625276327302065e-13
-6.254910673544613919e-13
-6.364429426423165501e-13
-6.208340887326387882e-13
-5.721790474547584377e-13
-4.987017688007295337e-13
-4.127524600503389886e-13
-3.382375876107353223e-13
-2.884815532823532255e-13
-2.472707119321367460e-13
-1.866371141984734935e-13
-1.304236708240229695e-13
-1.061065447502758180e-13
-7.218259249239551823e-14
-5.472396691764810728e-14
-3.769213710775015932e-14
-2.677176533874048261e-14
-1.916702997797097419e-14
-1.380064821640846485e-14
-1.005002272177057253e-14
-7.432867706777759622e-15
-5.605631157707514323e-15
-4.297883285481439973e-15
-3.334280413445883414e-15
-2.602071600273691154e-15
-2.027845290663455358e-15
-1.567386785285472789e-15
-1.194307829460774790e-15
-8.928985131335269409e-16
