# bin_2_2
-2.082222254378224502e-10
-2.063203657541239066e-10
-1.942542255771360665e-10
-1.729331369512258758e-10
-1.458541256617973672e-10
-1.195127742187512683e-10
-9.990729163739732119e-11
-8.591488419971475107e-11
-6.913764638784603320e-11
-4.929814132828374483e-11
-3.780293284292061954e-11
-2.869580684862745178e-11
-2.057523272688994142e-11
-1.520487205924729722e-11
-1.123039560489282520e-11
-8.337053709949369624e-12
-6.301015490822561130e-12
-4.853445198458152039e-12
-3.805523225631335070e-12
-3.025334104250248199e-12
-2.423663855153277454e-12
-1.941661797172069271e-12
-1.544133781169434675e-12
-1.210779654855413493e-12
-9.305504036258362914e-13
-6.977496220935590654e-13
-5.090488952774027380e-13
-3.610690304817535236e-13
-2.493609195089509196e-13
-1.681307328817477556e-13
-1.110509431036138931e-13
