# bin_8_5
-6.427969143454460898e-10
-6.835971036620494465e-10
-7.046001638350898541e-10
-6.996740080639406601e-10
-6.597021761329455244e-10
-5.877361044613875462e-10
-4.954400525518217006e-10
-4.054434393662728085e-10
-3.390010493847889602e-10
-2.926642257617344476e-10
-2.357544528130163835e-10
-1.661217888678191838e-10
-1.279862540102762309e-10
-9.660368831464870398e-11
-6.859391912484242745e-11
-4.986014804549290876e-11
-3.646000569986572795e-11
-2.646987624939182328e-11
-1.947568963474763444e-11
-1.458068586045393420e-11
-1.111459657558363647e-11
-8.616608319803403619e-12
-6.767842293027338060e-12
-5.350016325744143631e-12
-4.227074701475304863e-12
-3.314890682621400442e-12
-2.563363635585683307e-12
-1.943990465605248888e-12
-1.439619545220540345e-12
-1.037998386651283306e-12
-7.281427635173977663e-13
