# bin_14_12
-1.277273073829586813e-10
-1.423924614961914033e-10
-1.556463023548479697e-10
-1.659884900847528812e-10
-1.715500984457050086e-10
-1.708774271237376666e-10
-1.616004150010223727e-10
-1.443233788277728195e-10
-1.218343791727000692e-10
-9.966399046777453734e-11
-8.325370061373071401e-11
-7.210222902955326583e-11
-5.839860346226546639e-11
-4.076874939133718987e-11
-3.129832979287633013e-11
-2.361699037236629907e-11
-1.642014391068066166e-11
-1.170130773192712089e-11
-8.421949519141878027e-12
-5.908548019322187819e-12
-4.161839892885955834e-12
-2.970546041198395841e-12
-2.151539212951112609e-12
-1.586110910135831694e-12
-1.191994273789764988e-12
-9.104609306980232177e-13
-7.038500583304422484e-13
-5.471727383664616397e-13
-4.246547134388238501e-13
-3.267465363250065669e-13
-2.478079927718806697e-13
