# bin_15_6
-1.028595902935097872e-09
-1.107103873660908354e-09
-1.158510305818055547e-09
-1.171173229116785051e-09
-1.131992612391092306e-09
-1.033513961810426159e-09
-8.924416944283286276e-10
-7.354994964457310937e-10
-6.051238415878237668e-10
-5.186044696791609451e-10
-4.386308391754887852e-10
-3.241164116733195293e-10
-2.322122600630975224e-10
-1.870005556790887269e-10
-1.278949114585499331e-10
-9.693547068829702561e-11
-6.860345191865335574e-11
-4.939324319293656409e-11
-3.603750394370385755e-11
-2.659509289909706610e-11
-1.995320545856613718e-11
-1.522791121522385666e-11
-1.181684087006845628e-11
-9.271585587845336955e-12
-7.307463162659577047e-12
-5.745866427210012923e-12
-4.475903262866348324e-12
-3.433382726875158687e-12
-2.580332886729904768e-12
-1.892502662317269609e-12
-1.351485766214665281e-12
