# bin_2_14
-3.831686498254932196e-56
-4.222406265708397458e-56
-4.550098991031142607e-56
-4.766833463897958477e-56
-4.823923619579358368e-56
-4.667462864553223633e-56
-4.263259074525528681e-56
-3.682625098123140743e-56
-3.033041935630004299e-56
-2.493537008613928267e-56
-2.140258482711638892e-56
-1.815453750162369486e-56
-1.336450735101231428e-56
-9.508513100661560374e-57
-7.725401698573611450e-57
-5.171752407199524865e-57
-3.946481608769396896e-57
-2.756714045804344719e-57
-1.946656208513235140e-57
-1.397436601950163326e-57
-1.009841119328949032e-57
-7.400400118267593032e-58
-5.513761753263365925e-58
-4.187602824217681176e-58
-3.229111021850671101e-58
-2.515077174430461679e-58
-1.966216614230379449e-58
-1.531581325468911933e-58
-1.180891877942698854e-58
-8.961066449677278095e-59
-6.662788890274308519e-59
