# bin_20_7
-1.023390016415554269e-09
-1.111484005385808129e-09
-1.176316761859713536e-09
-1.204800489152566002e-09
-1.186355612275575843e-09
-1.106186427831756440e-09
-9.750157224487728400e-10
-8.139551631408652708e-10
-6.658337652359142744e-10
-5.620728621627285682e-10
-4.846871028428856734e-10
-3.789184557011772385e-10
-2.640378667824459057e-10
-2.100533621324849464e-10
-1.509295219876309466e-10
-1.106541283815243837e-10
-7.771251123596724557e-11
-5.657540916904786386e-11
-4.083054408132259474e-11
-2.973122406433356430e-11
-2.200174441770742996e-11
-1.655801587814759813e-11
-1.268763136648174950e-11
-9.863835412341487356e-12
-7.734694845684976394e-12
-6.077825078655160622e-12
-4.751909573087927839e-12
-3.672325154044000380e-12
-2.789536836001681105e-12
-2.073419110970095688e-12
-1.503018269828787510e-12
