# bin_13_12
1.512013817159159122e-09
1.687506350238796467e-09
1.847118697237511154e-09
1.973244824024051357e-09
2.043831440410350826e-09
2.041210926011655239e-09
1.937213798256157835e-09
1.735655304645025215e-09
1.469636535791808173e-09
1.202286099822846233e-09
1.001085199758212857e-09
8.669380521209495158e-10
7.085680241484889613e-10
4.968298732319521997e-10
3.766572851432002390e-10
2.885911767886220947e-10
1.979266564684316220e-10
1.428977306417568213e-10
1.023652701885252158e-10
7.161136345072785017e-11
5.033535735753513816e-11
3.580720272724086812e-11
2.585136552471853784e-11
1.898799999927576084e-11
1.422185273540186526e-11
1.083237068129204041e-11
8.357832370056420399e-12
6.491734330915657598e-12
5.039182980250951053e-12
3.881870603336438898e-12
2.949746262363219840e-12
