# bin_5_7
1.064155824614099059e-07
1.130901707400323805e-07
1.164626365041975184e-07
1.155234935483941538e-07
1.087681453057980530e-07
9.676357698977248043e-08
8.145146806422746060e-08
6.662186553824871348e-08
5.574238387597556356e-08
4.812347514133267774e-08
3.865446185693504161e-08
2.718633421886666301e-08
2.101757588969308685e-08
1.579775330889561216e-08
1.125130850209596156e-08
8.156114620494930469e-09
5.970489440927880458e-09
4.337566207091414814e-09
3.193109351252619607e-09
2.392300398550341392e-09
1.824901074698770296e-09
1.415694316185536956e-09
1.112467078010532818e-09
8.796230780516348774e-10
6.949960341333734151e-10
5.448923199107423134e-10
4.211739196415385342e-10
3.192114448034808624e-10
2.362140508969873178e-10
1.701738826153125649e-10
1.192741809973950487e-10
