# bin_8_4
2.690457000209224536e-15
2.896522906880592184e-15
3.031986972762157749e-15
3.066141227458954323e-15
2.964813717189291229e-15
2.706938523372647038e-15
2.337395411788697646e-15
1.924680008467141051e-15
1.581650917834909720e-15
1.356127258325336562e-15
1.149632928366667609e-15
8.485227791072014670e-16
6.052248096752853499e-16
4.910058987365914493e-16
3.326861720782449214e-16
2.542203692742118765e-16
1.795539841282888068e-16
1.289082951564366588e-16
9.411622448760675441e-17
6.945597679138033302e-17
5.209914426519177464e-17
3.975353894220635662e-17
3.084822395099904466e-17
2.420527188525853886e-17
1.908023954485213155e-17
1.500599639906179697e-17
1.169230285488206063e-17
8.971529993751703534e-18
6.744443194785006154e-18
4.947830630062076369e-18
3.533900943664588166e-18
