# bin_1_20
8.411795266094765685e-07
8.116034521845229678e-07
7.415163840987971263e-07
6.414421089776390506e-07
5.310334465251259813e-07
4.378181121248506639e-07
3.724858354087625375e-07
3.126462613678403889e-07
2.356666231787864710e-07
1.711726552894763547e-07
1.342344797958007947e-07
9.670370889583313896e-08
7.195622687628690943e-08
5.261390426163605614e-08
3.916510994447103689e-08
2.951301855768621463e-08
2.264311761916496822e-08
1.769984886933652667e-08
1.404782388016621523e-08
1.126057240281693055e-08
9.048746922792608623e-09
7.234436052959115053e-09
5.714393868393848748e-09
4.431892275983757204e-09
3.358129279227836785e-09
2.477609855903641015e-09
1.777672025949793335e-09
1.241211739423367426e-09
8.453254413458400930e-10
5.632932524631101109e-10
3.685010651738482470e-10
