# bin_9_1
1.069351585625329257e-34
1.145047793067017597e-34
1.190400408173310281e-34
1.194477875148190630e-34
1.141933777213697815e-34
1.030600817983951603e-34
8.794247526673370965e-35
7.207672936975402823e-35
5.962222008341675544e-35
5.143744831935398313e-35
4.276725376927123589e-35
3.065714686047208244e-35
2.264541102451070281e-35
1.794632071245220818e-35
1.225269453362406345e-35
9.217640667814749517e-36
6.642283990731028536e-36
4.779018261816168014e-36
3.495150386766071803e-36
2.593339368228889545e-36
1.960056227906447711e-36
1.507280013019765023e-36
1.176904806966733306e-36
9.272425274396579598e-37
7.321756928439484850e-37
5.754065589109903391e-37
4.469930737480157767e-37
3.412649528046347617e-37
2.548424672191050651e-37
1.854718607526197109e-37
1.313428224783628939e-37
