# bin_13_20
8.238781799634253607e-08
9.220724307532635655e-08
1.012745709549961378e-07
1.086518207951648264e-07
1.131556772573916775e-07
1.137257895920638517e-07
1.089022036179247889e-07
9.841581263009751825e-08
8.407546986988855380e-08
6.894221048717677364e-08
5.703935879087879914e-08
4.926238149422789614e-08
4.101972780497991379e-08
2.931461479218965254e-08
2.154154242572604329e-08
1.702875015553015445e-08
1.141925395522558971e-08
8.485785216713315009e-09
5.972045226046943060e-09
4.154750368769172767e-09
2.917203745132550163e-09
2.061144534739456115e-09
1.476354650057839579e-09
1.074458362866241169e-09
7.977132764362306355e-10
6.029649132600307819e-10
4.625531853384055258e-10
3.581569283953761684e-10
2.779120249418520455e-10
2.145522643327571699e-10
1.637321260202359000e-10
