# bin_10_3
1.520934441520730109e-26
1.649474822773342558e-26
1.742540348653363873e-26
1.780679154209920301e-26
1.748313212195729916e-26
1.623908012011097174e-26
1.426060786002380724e-26
1.186253944509623781e-26
9.698626539135734056e-27
8.211356845989744671e-27
7.078731706387538501e-27
5.476650160690831040e-27
3.803912869465714784e-27
3.062913305548058454e-27
2.161717130338852045e-27
1.610565327288660086e-27
1.119533707998659028e-27
8.146809743697747540e-28
5.899255602966151538e-28
4.310174834365242250e-28
3.197981445670170247e-28
2.412395156761901285e-28
1.852980941973813607e-28
1.443296820940900977e-28
1.133143879152258122e-28
8.908356703307770324e-29
6.962854398256653644e-29
5.375652445887041896e-29
4.076868088905316856e-29
3.023824983552473998e-29
2.186360310993447194e-29
