# bin_19_5
3.458978387338918431e-54
3.877301444251087504e-54
4.266735480018859192e-54
4.588405383932009961e-54
4.793065650820344400e-54
4.833801121302752652e-54
4.651629091597813770e-54
4.223898846801659397e-54
3.626272418029246470e-54
2.978096550146337226e-54
2.455938585144983810e-54
2.116862697160538767e-54
1.779429161086226298e-54
1.286067630182241488e-54
9.293365723592436064e-55
7.462227254560119031e-55
4.953527186671960863e-55
3.732699219302460318e-55
2.601755493081876415e-55
1.804891454490356849e-55
1.267149247343210778e-55
8.923228902287483583e-56
6.363981472980640812e-56
4.607721024837553319e-56
3.403771979446639208e-56
2.561314897728898521e-56
1.958046272999059677e-56
1.513096738344389048e-56
1.173595547878744086e-56
9.070096132932548656e-57
6.937719652677883239e-57
