# bin_15_17
2.459319693259031939e-08
2.766763573260723277e-08
3.058052458124478969e-08
3.306489744794930661e-08
3.477646484815264096e-08
3.534140880163747671e-08
3.440281060675027316e-08
3.162463142344641321e-08
2.748964261390336610e-08
2.271196846258885432e-08
1.862581664186362926e-08
1.592462692059412100e-08
1.361837542928889928e-08
1.018644871179951153e-08
7.129875744753253016e-09
5.804000356594230411e-09
3.884822259859529810e-09
2.942071261084240413e-09
2.005186655586756296e-09
1.394072151523168093e-09
9.778498308766993217e-10
6.860608172184908734e-10
4.844760935822379094e-10
3.463031760829634305e-10
2.524355809085296033e-10
1.876068942167107893e-10
1.419290592764234957e-10
1.089099391400280928e-10
8.421843755040030912e-11
6.515332995125527949e-11
5.006237195472536011e-11
