# bin_18_19
1.112791781765006630e-08
1.259872378584469524e-08
1.403197365504554718e-08
1.531511318474112647e-08
1.629746622184739839e-08
1.679273391151854936e-08
1.666259156000865683e-08
1.567310597502895404e-08
1.392478568929816070e-08
1.169401393228683940e-08
9.558921963569324416e-09
8.022870292723523885e-09
6.951291533884753951e-09
5.548958458293926339e-09
3.836991228971165887e-09
2.999534178451187734e-09
2.199569761716051787e-09
1.551229365447378972e-09
1.069005205903481463e-09
7.639947085578803515e-10
5.267816569571760672e-10
3.618053688993862201e-10
2.508166109959434623e-10
1.753677577729259673e-10
1.244646312419806444e-10
9.004778752655749399e-11
6.644619864751323837e-11
4.998934170870725664e-11
3.818033504373627380e-11
2.941912223795815914e-11
2.269779879074237451e-11
