# bin_20_2
2.638988112485312490e-86
2.960141054210279136e-86
3.260142569854678611e-86
3.509505223221477974e-86
3.670777516147651214e-86
3.707366844593765661e-86
3.575367031542306301e-86
3.253798198013005618e-86
2.799784450737181075e-86
2.301475234327259607e-86
1.895574741876142433e-86
1.631744110932943191e-86
1.376756081920047017e-86
1.001052030306125096e-86
7.181427817166213442e-87
5.796324124291240848e-87
3.840390172103812648e-87
2.905096554168956991e-87
2.016340107587011466e-87
1.397597108127017248e-87
9.813209300378914593e-88
6.904358986486614286e-88
4.914922091091870686e-88
3.550125360175141897e-88
2.616326724350351703e-88
1.964528029184462204e-88
1.499200382728071824e-88
1.157251372845000085e-88
8.972592628386022572e-89
6.936763359186252927e-89
5.310907215974396943e-89
