# bin_10_19
1.342080542262235648e-07
1.484696475406684313e-07
1.607625869537591006e-07
1.694393545847486920e-07
1.726458802891624478e-07
1.687501229819054391e-07
1.559009358222662233e-07
1.361875960464103830e-07
1.128891342518743481e-07
9.243902054880525063e-08
7.865574924903977235e-08
6.753156727549732358e-08
5.136348674001581112e-08
3.580835128130476516e-08
2.899938159513861290e-08
1.994366705486152610e-08
1.498913765438889571e-08
1.031843071667856193e-08
7.358536630455130269e-09
5.255546573470200447e-09
3.774094538577986470e-09
2.742764169243443565e-09
2.023960935380858601e-09
1.522845645899033146e-09
1.165260139431544701e-09
9.026599924056035764e-10
7.038469186758834326e-10
5.484462199156826036e-10
4.241243965123181989e-10
3.235115975429249715e-10
2.422310203187480463e-10
