# bin_18_15
1.740392637103826214e-11
1.965398920028030466e-11
2.182187583162220273e-11
2.372656773905817709e-11
2.512866044798184605e-11
2.574181250415906329e-11
2.534783705351687336e-11
2.361523206764580185e-11
2.079437093801263561e-11
1.732891758881999998e-11
1.416833623035750305e-11
1.198684024067431931e-11
1.036009678831563887e-11
8.048938473419035868e-12
5.551813910492717992e-12
4.454587934595310776e-12
3.124147747521828767e-12
2.292896819317758148e-12
1.546437553796856574e-12
1.097262083176276355e-12
7.627562936019643107e-13
5.295383798463514004e-13
3.700981238680587022e-13
2.611108768034771765e-13
1.874761487649798886e-13
1.372666378904011858e-13
1.024584047515622204e-13
7.782702832084233929e-14
5.983389023724474476e-14
4.623925328300014128e-14
3.564868711877659781e-14
