# bin_8_9
3.392168492408717328e-08
3.704067019553273305e-08
3.946522051826331627e-08
4.075397853612715654e-08
4.055996343628228454e-08
3.833050461350417861e-08
3.421149050088888856e-08
2.886873399354058948e-08
2.360709275379602432e-08
1.970821480037442744e-08
1.705053211698279853e-08
1.380736701630063822e-08
9.674490941708600912e-09
7.426363948864742589e-09
5.626988829793341935e-09
3.941663437661387770e-09
2.843734813966935070e-09
2.065880706071248981e-09
1.475670317273624603e-09
1.064089207798748509e-09
7.796981364699733308e-10
5.812704027246426955e-10
4.412062059185484699e-10
3.404603141758158369e-10
2.656622355917579480e-10
2.083388686629863923e-10
1.630589257547337274e-10
1.264839754733233314e-10
9.666324686652074595e-11
7.242692129186131065e-11
5.300277939684938508e-11
