# bin_2_11
5.412444297935050379e-07
5.430510842269664457e-07
5.200264469068809110e-07
4.708918892266225797e-07
4.036004675583291134e-07
3.322011964279475884e-07
2.746882766126949029e-07
2.352528325835429094e-07
1.956119107856961244e-07
1.437079550839549951e-07
1.055887355866019721e-07
8.300722433308426033e-08
5.861607169843323880e-08
4.393408962907711606e-08
3.194767840089582932e-08
2.360838471765885412e-08
1.770607436869145577e-08
1.350925370245467852e-08
1.049821747920718306e-08
8.284613756581490203e-09
6.607488521326001048e-09
5.286739130538001928e-09
4.212141594179338880e-09
3.318586387194447443e-09
2.569212346996798350e-09
1.944486354166534644e-09
1.433522389420262532e-09
1.027733646081754059e-09
7.168964957818755945e-10
4.876274488853868572e-10
3.244568299829991400e-10
