# bin_10_13
6.133834780605389478e-08
6.782595709754343163e-08
7.340113149732793913e-08
7.730924286772459763e-08
7.870928844312093809e-08
7.684479155833867519e-08
7.089861649820038946e-08
6.185326408425244440e-08
5.122710389505596572e-08
4.195996128968217497e-08
3.574064897477373706e-08
3.065322813145880185e-08
2.322626443347675765e-08
1.621643964128421935e-08
1.315192451269675587e-08
9.005646816246571312e-09
6.789434982896792760e-09
4.676971665661841378e-09
3.330394550790593915e-09
2.380652844627025297e-09
1.711304420425438756e-09
1.244866999843950246e-09
9.196190400463383878e-10
6.926944995774424364e-10
5.305338951541903001e-10
4.112535392126504634e-10
3.207874793702821635e-10
2.499640215979605381e-10
1.932437102199986157e-10
1.473180374755700312e-10
1.102188458125949051e-10
