# bin_4_3
2.943658443706077916e-09
3.047410607355722736e-09
3.043464278295313306e-09
2.892430633114244247e-09
2.596700442914083507e-09
2.204959193920161242e-09
1.805923522502139741e-09
1.499567016481955137e-09
1.293199180532935003e-09
1.062409811912688941e-09
7.584467452082996690e-10
5.698374533968902697e-10
4.438984333735103620e-10
3.098003429164728042e-10
2.309646211844562311e-10
1.687666158725321532e-10
1.233485581924160145e-10
9.171362130428801935e-11
6.940302466943764612e-11
5.350564453543029191e-11
4.191568452821342700e-11
3.322170458081243854e-11
2.644865675249106234e-11
2.099793992715418920e-11
1.650872922611997875e-11
1.277070338600904495e-11
9.668477737580783721e-12
7.135425000938276827e-12
5.121470624315872302e-12
3.575677760971794206e-12
2.432906018701930532e-12
