# bin_7_2
1.458095610256396030e-19
1.544368389942561402e-19
1.583664508644345209e-19
1.562639244591867066e-19
1.460856876686654263e-19
1.290861885768644962e-19
1.079460900139383963e-19
8.820992483062540212e-20
7.422547193920396546e-20
6.410092100991010623e-20
5.058827093971969433e-20
3.524650727332010561e-20
2.790619426866243301e-20
2.038624299572758117e-20
1.487536866196109797e-20
1.056035764358714974e-20
7.788287051039571184e-21
5.688055237493960664e-21
4.203861271054354796e-21
3.165240412479790992e-21
2.425363665080333011e-21
1.889438836111020192e-21
1.489227143275729554e-21
1.179497394320625577e-21
9.321724786141677111e-22
7.300065755153192335e-22
5.629058201779372220e-22
4.251309942038740010e-22
3.132027491927709631e-22
2.245117506564546613e-22
1.565552879377823230e-22
