# bin_9_16
1.305717508545123864e-07
1.436914860723568387e-07
1.545854419184097030e-07
1.616096263907512498e-07
1.631595725386527050e-07
1.573344812151094919e-07
1.432272280814753010e-07
1.232908954703490361e-07
1.013998374497462508e-07
8.350252786919054312e-08
7.176934504999096449e-08
6.052901940877558738e-08
4.422396960197638236e-08
3.178603038971234874e-08
2.559681763683773975e-08
1.722637086671805286e-08
1.304736424560509224e-08
9.164866617429359075e-09
6.484206904045719005e-09
4.653788848632828811e-09
3.367459355671902674e-09
2.473240354967198216e-09
1.847319877437484904e-09
1.406048664364878181e-09
1.086013361904497056e-09
8.467037459917069571e-10
6.620615340686130351e-10
5.154317299200346934e-10
3.969398028953949440e-10
3.006994100812879837e-10
2.231015655277136520e-10
