# bin_1_9
6.711993919443644868e-07
6.470855852950269009e-07
5.907000002105046434e-07
5.105636793342152643e-07
4.225072916381706197e-07
3.484541917092098169e-07
2.965747777977041626e-07
2.486698602636516418e-07
1.871114692018512280e-07
1.360591337300776756e-07
1.066807152344605323e-07
7.679104020712234812e-08
5.717110068623137378e-08
4.180750791696294635e-08
3.112640350973478241e-08
2.346536237747408031e-08
1.801128323314638369e-08
1.408507993506891008e-08
1.118260631189387635e-08
8.965682962834029505e-09
7.205001078083879631e-09
5.759826459437382251e-09
4.548576868425507548e-09
3.526506620707685577e-09
2.670943890973229318e-09
1.969658961733950806e-09
1.412528891590577017e-09
9.858105383835414904e-10
6.711149952072465783e-10
4.470548300021599041e-10
2.923783779486788294e-10
