# bin_7_17
2.131057818369451312e-07
2.314181737273322697e-07
2.448764488371391118e-07
2.507564399302449907e-07
2.468575817772119567e-07
2.301044595951390644e-07
2.027452281226715067e-07
1.691851649341951011e-07
1.383507316607505195e-07
1.167757619552177352e-07
1.006957035008319455e-07
7.869815966773983100e-08
5.481402478678646302e-08
4.361131638148655389e-08
3.132493988936475022e-08
2.296616465317859273e-08
1.612462070126760829e-08
1.173770394231654896e-08
8.470378649647151064e-09
6.167215483033187198e-09
4.563476226485262429e-09
3.434031668529945963e-09
2.631104030406454741e-09
2.045349391278303149e-09
1.603727069793257972e-09
1.260095073115436171e-09
9.851308649014605747e-10
7.612735375639118920e-10
5.782425761128504922e-10
4.297828755024356821e-10
3.115417894071773912e-10
