# bin_1_13
7.597665619894442250e-07
7.328066730878858724e-07
6.692820100246439542e-07
5.787571334385769361e-07
4.790542216620386789e-07
3.950167492647801291e-07
3.361277982358797093e-07
2.820043969521144475e-07
2.124108541433000365e-07
1.543548328044084304e-07
1.210374462997933393e-07
8.716642218379759649e-08
6.487480595411544565e-08
4.743811879353516909e-08
3.531492541319651023e-08
2.661645894267265360e-08
2.042467395902050422e-08
1.596853453372025037e-08
1.267551146841545192e-08
1.016142192077744485e-08
8.165674256987121532e-09
6.528163316528251241e-09
5.156019120477350996e-09
3.998252618506049371e-09
3.028997894367450038e-09
2.234323862113006016e-09
1.602784628908061278e-09
1.118885871120599419e-09
7.618863506728639866e-10
5.076201947292104228e-10
3.320416685752151210e-10
