# bin_5_11
2.289901073406671541e-07
2.436547246950301040e-07
2.513098742321809535e-07
2.497629153513959267e-07
2.357592829537808874e-07
2.102529933559687703e-07
1.773909898972589469e-07
1.451427644333353679e-07
1.212062126690922973e-07
1.046332517227189031e-07
8.454711726139281594e-08
5.965298521895023149e-08
4.576616470477052154e-08
3.470832674665263459e-08
2.454807615526062333e-08
1.789751977754386780e-08
1.306948688706656869e-08
9.479757414738912548e-09
6.970156245947915865e-09
5.213569512275694952e-09
3.970717620078315249e-09
3.075732659408745305e-09
2.414322299589452376e-09
1.907837970388461133e-09
1.507243657629861841e-09
1.182189519800343375e-09
9.145506619883124991e-10
6.940104148887441591e-10
5.143642564176918258e-10
3.712102066230941458e-10
2.606460858994850463e-10
