# bin_16_1
5.745208163073104118e-75
6.370323001247779431e-75
6.917225008994561066e-75
7.316153143573760117e-75
7.484525784849989445e-75
7.357944567990162938e-75
6.842973054269796914e-75
6.016015200694678659e-75
5.007622454450994911e-75
4.094086577695968490e-75
3.465873087676444491e-75
2.991839711595256698e-75
2.317477769719034128e-75
1.603194572722441070e-75
1.290078056369559346e-75
9.059409272530816190e-76
6.712445629365476573e-76
4.595625602583605121e-76
3.304980150130782533e-76
2.350543305286590257e-76
1.679875104947119636e-76
1.215193344567020418e-76
8.919791939748714987e-77
6.675107223206544363e-77
5.084366793992473921e-77
3.925418014520497835e-77
3.055573648463967870e-77
2.380934686127310467e-77
1.844083323365514980e-77
1.410640625204220295e-77
1.060359142124537564e-77
