# bin_13_2
2.694474232415854134e-48
2.956989755451625908e-48
3.170224780149608936e-48
3.299781625573768742e-48
3.314948009454330347e-48
3.173139395531349144e-48
2.866694670234435790e-48
2.448374097170265659e-48
2.007033871710635800e-48
1.659685984428813000e-48
1.432817809338359227e-48
1.193487650061820859e-48
8.542602542460975967e-49
6.285179119522880477e-49
4.986681194520119685e-49
3.367803401872221660e-49
2.525503010774969202e-49
1.799613959816089025e-49
1.274807608983650839e-49
9.154839623529756623e-50
6.646639409331048125e-50
4.909402535337661134e-50
3.690509636288052646e-50
2.824966753460773394e-50
2.191631929336477193e-50
1.713510413473167140e-50
1.341070845257764581e-50
1.043103438847779643e-50
8.012749285121870345e-51
6.046556962661788336e-51
4.463746966546483268e-51
