# bin_8_15
1.503073772960061338e-07
1.644028947969859054e-07
1.755306901046463404e-07
1.817457027930314430e-07
1.814565059497433544e-07
1.722317337379722019e-07
1.543649024873641047e-07
1.307979429170600519e-07
1.070468176005786165e-07
8.907380479078251936e-08
7.701032116858017560e-08
6.298107425079473326e-08
4.445150274308538823e-08
3.362539747567273497e-08
2.588988235156064524e-08
1.790612342149293623e-08
1.308855836486781674e-08
9.447974651746190506e-09
6.729282317498246568e-09
4.844713741420023052e-09
3.538734928770591731e-09
2.629731470048425955e-09
1.989430233483573352e-09
1.530942042975937844e-09
1.192259098658278820e-09
9.340427810883345493e-10
7.310426910394291398e-10
5.675979664884960202e-10
4.345402320763849703e-10
3.263836978545693606e-10
2.395700965554859899e-10
