# bin_2_10
5.174059829293752520e-07
5.190812000751222126e-07
4.970048431119401243e-07
4.499820084196444096e-07
3.856263560579516741e-07
3.173900594874480464e-07
2.624608418823529133e-07
2.247927941642651396e-07
1.868718600777710207e-07
1.372481250900871844e-07
1.008730453244107837e-07
7.928539633077789886e-08
5.598820949892014921e-08
4.196309021859031078e-08
3.051760260942766009e-08
2.255199094030333421e-08
1.691485678204159815e-08
1.290657401304818279e-08
1.003060595169436194e-08
7.916090991450503157e-09
6.313820454404028859e-09
5.051842336471558404e-09
4.024944866773800335e-09
3.170989544879077740e-09
2.454806515189732082e-09
1.857763604183620955e-09
1.369474348689844725e-09
9.817310562389737919e-10
6.847516584153158063e-10
4.657292292211944463e-10
3.098674695807388393e-10
