# bin_5_17
3.216897039564885021e-07
3.423978843579502432e-07
3.532931691719720042e-07
3.512879799755868650e-07
3.318044721188406972e-07
2.960884825649589574e-07
2.499545520033073791e-07
2.045322748694112494e-07
1.707193101559632447e-07
1.473736242398057138e-07
1.192587782253614120e-07
8.421094402099942327e-08
6.448489230027105233e-08
4.901214879678301207e-08
3.460545268685103265e-08
2.526592244124580397e-08
1.843898907673503444e-08
1.336916610500118243e-08
9.826988121215542011e-09
7.347456359678452662e-09
5.593697477375660496e-09
4.331277977885434831e-09
3.398950063318926542e-09
2.685498702120074953e-09
2.121562067070413489e-09
1.664190420521031378e-09
1.287703784283694073e-09
9.774829461636462605e-10
7.247409159125663971e-10
5.232647415893091896e-10
3.675750019703947752e-10
