# bin_9_2
6.333039696793436390e-28
6.806030853759036009e-28
7.108400993889456211e-28
7.170375808033599894e-28
6.907510680279891111e-28
6.281947883581998365e-28
5.402709203200405871e-28
4.440587578845348927e-28
3.656059733415520552e-28
3.142424647342759024e-28
2.648728575942425927e-28
1.934661539413234132e-28
1.394325882344585964e-28
1.125661172031177033e-28
7.617364967202602934e-29
5.809575736677497044e-29
4.130029551727296981e-29
2.964053231260996661e-29
2.165690143387481228e-29
1.600924269286901389e-29
1.203967198360924069e-29
9.211637728277152698e-30
7.164044858946124499e-30
5.629852485949492086e-30
4.441015863922546087e-30
3.492270844482083696e-30
2.718594784581543502e-30
2.082630347013281440e-30
1.562208642878894999e-30
1.143011468745404186e-30
8.140119136908068275e-31
