# bin_18_6
1.994625606672757654e-42
2.233263774547325838e-42
2.454109140723538266e-42
2.634549807306740787e-42
2.746054232086665336e-42
2.762579768008672484e-42
2.649028330713679870e-42
2.396931903070172964e-42
2.050365905888293675e-42
1.681707144415390011e-42
1.389888357514381421e-42
1.200083206263738676e-42
1.002226945483790398e-42
7.177982140158581066e-43
5.250741766361360266e-43
4.172873614913597548e-43
2.785557279260827303e-43
2.081254559773301794e-43
1.460826691944277556e-43
1.015357308314342162e-43
7.127742900045104603e-44
5.029969601943862116e-44
3.598812318088511573e-44
2.615902863594572409e-44
1.939864678274282684e-44
1.464817202827851768e-44
1.122895333391659640e-44
8.691684974967618673e-45
6.744662452563146867e-45
5.209091070492221832e-45
3.977937244479691923e-45
