# bin_10_10
1.513409200375264497e-10
1.674642621782363038e-10
1.813858191249587146e-10
1.912515219465281485e-10
1.949500710901326547e-10
1.906859152737977296e-10
1.762833611623376130e-10
1.541045374438594992e-10
1.277606221162909091e-10
1.045678367255911092e-10
8.894337147445078493e-11
7.646881854057562116e-11
5.824689701007806285e-11
4.049339770488922609e-11
3.287116802663391763e-11
2.256630013870074612e-11
1.700815808783451358e-11
1.166815875835649876e-11
8.317306061034771095e-12
5.943957824113869446e-12
4.271025393270326722e-12
3.102964766072806182e-12
2.288658326026411088e-12
1.721372820083822050e-12
1.316818855918001270e-12
1.019920546137303904e-12
7.952916429457627207e-13
6.197967927352169162e-13
4.794295295322966923e-13
3.658244529176843209e-13
2.740261003686488778e-13
