# bin_14_6
1.102715920946638055e-26
1.222692235737012361e-26
1.327666440816527079e-26
1.404261515314450989e-26
1.436630310691988936e-26
1.412463438899801478e-26
1.313782675729762800e-26
1.155198986303712302e-26
9.616995844356043812e-27
7.862563644203841451e-27
6.654978870429493627e-27
5.744798648808293016e-27
4.451725981342056997e-27
3.079541879292224888e-27
2.477264106236398349e-27
1.740600075767319806e-27
1.289098786184047873e-27
8.826589274485203572e-28
6.349237099226566746e-28
4.515287302404881908e-28
3.226850045036024123e-28
2.334282178781278135e-28
1.713456450860088669e-28
1.282280400015952523e-28
9.767240482204982869e-29
7.541045784289186586e-29
5.870143886424058985e-29
4.574191588425189095e-29
3.542888312243972708e-29
2.710206642909328201e-29
2.037262702605029446e-29
