# bin_20_16
2.922897757525602587e-13
3.312777513849955351e-13
3.694557392935627228e-13
4.039017578422841369e-13
4.306939073434909046e-13
4.449378738176568964e-13
4.429348843983018700e-13
4.184086905298991528e-13
3.732253152209295792e-13
3.146019681035029346e-13
2.572404610722455569e-13
2.151436090174464027e-13
1.864591668129573180e-13
1.505398138852056461e-13
1.045082946464220271e-13
8.057664746129228352e-14
6.023249803290982943e-14
4.174253191776899323e-14
2.919889831603731889e-14
2.082927743918025241e-14
1.431615284557645538e-14
9.798494451747233406e-15
6.766079610845703619e-15
4.712228939849800733e-15
3.327177414358638169e-15
2.394056338765743459e-15
1.757058080622028212e-15
1.315647634079275297e-15
1.001402955672412534e-15
7.702264413279059745e-16
5.942104111934056107e-16
