# bin_19_3
8.699646564842904397e-71
9.741796123203069639e-71
1.070692763975766472e-70
1.149652852982410373e-70
1.198624485478136833e-70
1.206196668702446868e-70
1.157120899642459883e-70
1.047458193277091168e-70
8.964128239512663327e-71
7.353543225086625580e-71
6.075853040092227230e-71
5.244976796741933390e-71
4.383775908463249022e-71
3.143201135619618949e-71
2.295782884283972287e-71
1.826864721377499523e-71
1.218624584206929402e-71
9.115065769383218212e-72
6.392171442641781227e-72
4.441881928705354860e-72
3.118231859158995211e-72
2.199933922570907113e-72
1.573387811108095535e-72
1.143127163966461308e-72
8.473164051993128529e-73
6.395578782032971402e-73
4.901124285344478629e-73
3.792951281675617893e-73
2.943144322699646761e-73
2.273264458219576829e-73
1.736327698336334451e-73
