# bin_19_12
2.374839577119503205e-19
2.678908821890112075e-19
2.970470764424439456e-19
3.224533343474393462e-19
3.408284921986878636e-19
3.483264187725854036e-19
3.418964845007821901e-19
3.172948970258686667e-19
2.783918363210916791e-19
2.313563951218726635e-19
1.892630301948813194e-19
1.606327166884050219e-19
1.385453443955509529e-19
1.064471915200315456e-19
7.356633495240803440e-20
5.945522783865067177e-20
4.098349119516356803e-20
3.049502361289821911e-20
2.054514283828417507e-20
1.447165899043429728e-20
1.009728613015241365e-20
7.042240627282818815e-21
4.937054457176733320e-21
3.496142881966525207e-21
2.521647844601864995e-21
1.854794236404736994e-21
1.390349308992596495e-21
1.059660743157244414e-21
8.163822906554050810e-22
6.313136774622379577e-22
4.863674847788974992e-22
