# bin_18_4
5.497311555776813307e-57
6.145044018593561775e-57
6.739333470010443663e-57
7.217028053098567708e-57
7.498730288696999443e-57
7.516701494429128104e-57
7.170527384474109667e-57
6.455700673810642707e-57
5.493577407377702405e-57
4.498952074798587777e-57
3.731403739494023803e-57
3.228067946319133989e-57
2.668429912008666627e-57
1.888780736613182426e-57
1.406647245652179903e-57
1.098797047443759313e-57
7.420658470244908663e-58
5.456856764164247272e-58
3.871602468511026888e-58
2.699270685417427842e-58
1.895073542346546696e-58
1.342348886052886769e-58
9.648404944444730198e-59
7.051059283472740349e-59
5.256031059041485700e-59
3.987050251023656971e-59
3.067077686369419413e-59
2.378694502205191502e-59
1.846461562711621300e-59
1.424378225443948824e-59
1.085073754616033702e-59
