# bin_7_3
5.030554095176649741e-16
5.363614650515415437e-16
5.545714496828278154e-16
5.529487066722049417e-16
5.239903246436095063e-16
4.689621482755870778e-16
3.968074982712716636e-16
3.245795783926522396e-16
2.701928764911032397e-16
2.335707859930731045e-16
1.906487416145627060e-16
1.344689804279148421e-16
1.022468863055142777e-16
7.869973515580507036e-17
5.490775767044249961e-17
4.032628268457332142e-17
2.947329076273475691e-17
2.131390880346155676e-17
1.562312783960743247e-17
1.165641715127417202e-17
8.859326671651199980e-18
6.849542343577523454e-18
5.369782303814577480e-18
4.240824726618443619e-18
3.350820881021209210e-18
2.630363331795840287e-18
2.037755321932201465e-18
1.549315437957799503e-18
1.150856807025910610e-18
8.325084980113321083e-19
5.858495906403668403e-19
