# bin_19_6
1.101456236732041625e-46
1.235788151247393634e-46
1.361429634278089948e-46
1.466110438849022081e-46
1.534234302902592054e-46
1.550403302959929057e-46
1.496529575823889048e-46
1.363203423690895232e-46
1.174158769608262148e-46
9.656096168542012714e-47
7.949033345485710533e-47
6.838263341518212093e-47
5.778031559233719795e-47
4.212312412830183734e-47
3.012973170144044768e-47
2.436379456585509898e-47
1.613552897318933806e-47
1.222276731553635757e-47
8.467731235556009198e-48
5.867682113031675458e-48
4.120661299972994054e-48
2.898608972442775972e-48
2.061989562428839262e-48
1.488115687841168494e-48
1.095748440813397869e-48
8.221251223004160561e-49
6.269933869981494288e-49
4.837932327922391256e-49
3.750553584322334865e-49
2.899975712525921938e-49
2.221074843255151399e-49
