# bin_10_9
8.767273759272925984e-11
9.677935652068899004e-11
1.045139553946154404e-10
1.097902426828090067e-10
1.114442107831386012e-10
1.083336395729392481e-10
9.945057520384743571e-11
8.634034040026112922e-11
7.128269701683407974e-11
5.845998210550621526e-11
4.998663112568142201e-11
4.268482741460326918e-11
3.188244678836368307e-11
2.240185276372607018e-11
1.825554616838194311e-11
1.229919387696941651e-11
9.373796921003870413e-12
6.487978326391116882e-12
4.590345375248475968e-12
3.291996614766329245e-12
2.374715286741782652e-12
1.733774589789390988e-12
1.286102767468626878e-12
9.727770909448091665e-13
7.476399283501112583e-13
5.809994222125145475e-13
4.537659816806391395e-13
3.535725042853832996e-13
2.730139564787898338e-13
2.076750680122835200e-13
1.549096559622452985e-13
