# bin_8_5
2.780654751264306577e-13
3.010013265197294897e-13
3.172476725392901053e-13
3.233348163980820207e-13
3.162682301193150503e-13
2.924974336045222538e-13
2.558055677319504037e-13
2.122101420862852763e-13
1.736650823800820149e-13
1.475136917829003405e-13
1.267365201032032706e-13
9.691200678000682419e-14
6.761553510757820719e-14
5.470565728716870767e-14
3.809620721262345746e-14
2.865890757925848233e-14
1.996306243983108453e-14
1.446573558347652407e-14
1.050296764403662333e-14
7.696950977275845162e-15
5.727081742079433056e-15
4.332997586167786734e-15
3.337318827488961644e-15
2.604730120132129866e-15
2.047395184348502436e-15
1.609956318565267025e-15
1.257484912450539187e-15
9.693872986798606548e-16
7.335727210529593185e-16
5.425922051814939233e-16
3.910935870907256559e-16
