# bin_8_4
1.121517083235479341e-15
1.208804164615361164e-15
1.267191616048159379e-15
1.283598729303937363e-15
1.244299365185185335e-15
1.139141947721595024e-15
9.863444868084093425e-16
8.133075738191926065e-16
6.675671186164310032e-16
5.713252966052219117e-16
4.860489780765922074e-16
3.613850349961611048e-16
2.560907975441981415e-16
2.082244213073210759e-16
1.414064360138845041e-16
1.080606301468732390e-16
7.601260903495868428e-17
5.460594863880798204e-17
3.984774923329234401e-17
2.937605119180436740e-17
2.199882843296063385e-17
1.675649268914743795e-17
1.298380464902066787e-17
1.017757864793240867e-17
8.018716196135405368e-18
6.306821001432773989e-18
4.916943343124317730e-18
3.776646184656387625e-18
2.843124146384368891e-18
2.089337068088220778e-18
1.495065639401165493e-18
