# bin_13_2
4.359678320563689561e-48
4.786500657244240660e-48
5.134488749418946878e-48
5.348184203095508000e-48
5.377284788116857604e-48
5.153730606744611154e-48
4.661870903240728551e-48
3.986943472610580359e-48
3.269791294407088828e-48
2.701634850114340985e-48
2.330815950112848477e-48
1.946085295547513725e-48
1.397321148801571811e-48
1.023570959785304668e-48
8.150703473042628770e-49
5.492593208492278806e-49
4.131789850022913297e-49
2.936780601545126989e-49
2.079130185350667687e-49
1.493042093678963629e-49
1.083276300633925664e-49
7.994030066983027157e-50
6.003312523023050260e-50
4.591416704208243511e-50
3.559762292771449025e-50
2.782085902300259293e-50
2.177182873468913455e-50
1.693754928133632762e-50
1.301639164234347843e-50
9.828548473015609674e-51
7.261504552617467700e-51
