# bin_12_3
2.166696458635868661e-35
2.373048202046424470e-35
2.537893767260630865e-35
2.633305376820423169e-35
2.635919717263221819e-35
2.510398542873243727e-35
2.256937989899616166e-35
1.918015548748896568e-35
1.570145904331359903e-35
1.302954006250436902e-35
1.126636676597656597e-35
9.289212738750663594e-36
6.577943449739602922e-36
4.924250366103248828e-36
3.842272662773531960e-36
2.625583834538820812e-36
1.940179410392377814e-36
1.395951355092918309e-36
9.918473636478108188e-37
7.127398292487129450e-37
5.192630029922677042e-37
3.850170839703485758e-37
2.906061427851549498e-37
2.232190211108724066e-37
1.736176323483891552e-37
1.359381248085603148e-37
1.064124422090823990e-37
8.268970288117193449e-38
6.339412125808015906e-38
4.770414426796350284e-38
3.509312622684019100e-38
