# bin_18_3
1.167399850278070923e-65
1.304064828561214885e-65
1.428991465091241124e-65
1.528695011242811804e-65
1.586244015711660694e-65
1.587605545604595136e-65
1.511209260311678330e-65
1.357772386472758133e-65
1.152965514794296823e-65
9.437479582727217961e-66
7.839856192353347989e-66
6.785950719888287961e-66
5.583854093314975919e-66
3.935296935437912551e-66
2.952823615965164417e-66
2.288568335703981611e-66
1.554765237252066878e-66
1.134706174592907418e-66
8.086620090512396160e-67
5.645807492304542775e-67
3.964837624719072346e-67
2.813425118438941062e-67
2.026101742495904370e-67
1.483931892440186926e-67
1.108474742188574535e-67
8.423725383696563920e-68
6.488738693718071563e-68
5.035937509044735815e-68
3.909332116593669990e-68
3.014005698582857059e-68
2.293608621348534085e-68
