# bin_2_1
2.567552902755044541e-10
2.538156838619987429e-10
2.381751093521909504e-10
2.113228257342744222e-10
1.775999663652102756e-10
1.453377618179159626e-10
1.217458153019111661e-10
1.048085713492758441e-10
8.376043464065727350e-11
5.929536711915570236e-11
4.596895456457138399e-11
3.453771944671057863e-11
2.493160229589472425e-11
1.829732169729861472e-11
1.357376228666927380e-11
1.009205730869041058e-11
7.637107300875164778e-12
5.892973450892102228e-12
4.628200016153441505e-12
3.684288242208124273e-12
2.953815449573236830e-12
2.366755745823623526e-12
1.881387605444123686e-12
1.473776549247266485e-12
1.131011854321888749e-12
8.464691335449117669e-13
6.162460547047207643e-13
4.361568702443835064e-13
3.006064465659247387e-13
2.023203202877191384e-13
1.334323646333384004e-13
