# bin_13_1
3.044574534764433291e-57
3.337792266613376111e-57
3.573997459552017222e-57
3.714152759428757041e-57
3.724526867942387826e-57
3.556198741412002950e-57
3.204958365684014647e-57
2.730525860997124456e-57
2.236766805100133596e-57
1.852794833324705650e-57
1.600850112458391791e-57
1.326818400924406691e-57
9.445189354446449767e-58
7.009050532945347442e-58
5.516114815968762827e-58
3.745964851611952907e-58
2.789443518806792225e-58
1.997243649561770286e-58
1.416907732836205758e-58
1.017803894529530937e-58
7.402107276497354819e-59
5.477956003579045772e-59
4.126399493024036918e-59
3.164181803122203833e-59
2.458007941488465049e-59
1.923212446051163735e-59
1.505365943660085780e-59
1.170337994638327817e-59
8.981210294181588024e-60
6.767774888125717985e-60
4.987302889748637774e-60
