# bin_17_3
1.658191785816074897e-60
1.847435886594220717e-60
2.017883975839655126e-60
2.149990423241544978e-60
2.219428945976959778e-60
2.207794756252308361e-60
2.084090446535938257e-60
1.857946031275625855e-60
1.565436517901400616e-60
1.279708371527158941e-60
1.070073612841880911e-60
9.269409034482963980e-61
7.479892160122757699e-61
5.202453161225301401e-61
4.017283226303610679e-61
3.012252248052034685e-61
2.104326924438339655e-61
1.489324607294793606e-61
1.076212102340517394e-61
7.557965119457404147e-62
5.324721613820119654e-62
3.806286819076911147e-62
2.761046007795830646e-62
2.038882858804883700e-62
1.534713630606000425e-62
1.173829437861157671e-62
9.083444434039956526e-63
7.064950193489579838e-63
5.482987985702694695e-63
4.216863103447601171e-63
3.195410548817937927e-63
