# bin_12_11
7.771270932224007471e-11
8.654639076744715841e-11
9.448391124391927308e-11
1.006066262773954380e-10
1.037740332491923366e-10
1.031297380865127402e-10
9.722760891070376490e-11
8.657460818810022714e-11
7.286308164412122204e-11
5.955744494189453387e-11
4.985253838353114362e-11
4.318160807440276743e-11
3.473125428218179564e-11
2.412415337262566598e-11
1.870648886844933292e-11
1.395054648795245503e-11
9.794026829738062888e-12
6.901537012688937247e-12
4.992590337444941626e-12
3.509569439006691348e-12
2.474813788021743968e-12
1.771052145015004157e-12
1.286069726326842166e-12
9.508428842253313662e-13
7.165108312061684330e-13
5.485203826995742339e-13
4.247200528663414828e-13
3.304212609822375167e-13
2.564067882753269585e-13
1.971145075831205112e-13
1.492670967469368956e-13
