# bin_19_2
1.169135714102515390e-80
1.308590309721028803e-80
1.437429085153066326e-80
1.542363105929816407e-80
1.606637930874043967e-80
1.615158717811568202e-80
1.547184016843575195e-80
1.398542884273376574e-80
1.195087833474221984e-80
9.798869380004006622e-81
8.103977354326083513e-81
7.000321758099173628e-81
5.834710015971397841e-81
4.168706635258260371e-81
3.060235263673844112e-81
2.424104164255259646e-81
1.621547646602085262e-81
1.208002793301190402e-81
8.496785066199065185e-82
5.909207641708881488e-82
4.148174551012873064e-82
2.929348969126825365e-82
2.097771016602851663e-82
1.526465971048496250e-82
1.133156379989261845e-82
8.564526553963975088e-83
6.570076058950284705e-83
5.087605463373580511e-83
3.948267561275609215e-83
3.048675817340880250e-83
2.327015852483960060e-83
