# bin_12_11
5.592635046112144733e-08
5.158483673883393367e-08
4.633533332429100542e-08
4.049793706951584790e-08
3.446809288502000346e-08
2.865114230385386785e-08
2.337172101179679942e-08
1.879315194007040438e-08
1.491210414997997634e-08
1.162988371716856861e-08
8.877937645942044779e-09
6.670662509960043468e-09
5.005900749871543072e-09
3.765269811035100677e-09
2.825299721390017202e-09
2.135822605427496552e-09
1.626609776343504643e-09
1.249257461987518497e-09
9.659354031050973198e-10
7.500962647914710074e-10
5.828475177971929278e-10
4.513446718819868896e-10
3.469461758265508665e-10
2.637757100439616618e-10
1.977408293915709271e-10
1.458159522178103906e-10
1.055860357560976474e-10
7.499768589439290265e-11
5.223606225659282210e-11
3.568686677261833370e-11
2.393640402458834635e-11
