# bin_15_7
4.809430116177285098e-08
4.369047500877875403e-08
3.861337956305031019e-08
3.319899988016553570e-08
2.782611518718632461e-08
2.284075451716622317e-08
1.846039502619494525e-08
1.473658014111151671e-08
1.158754139672631394e-08
8.917615653495139101e-09
6.724134949402976963e-09
5.046315411385876211e-09
3.806716209551997464e-09
2.861554053372973660e-09
2.163566502847163450e-09
1.650492782458539735e-09
1.270006131904543003e-09
9.849587577776687898e-10
7.681820204545488070e-10
6.002086852952392409e-10
4.678417447711152238e-10
3.622630036213247292e-10
2.775664864148878989e-10
2.097273555238629822e-10
1.558531884208555777e-10
1.136777869533827219e-10
8.127935786427694864e-11
5.693799454252929246e-11
3.908716704670863750e-11
2.631995052407417067e-11
1.741108896191600007e-11
