# bin_14_9
5.371302626882150409e-08
4.932833278075855830e-08
4.409959014053351880e-08
3.835458578600911210e-08
3.248799692966326601e-08
2.689385770949668371e-08
2.186971246373204035e-08
1.754511169433924256e-08
1.388811959123362599e-08
1.079120180045703577e-08
8.201850696767513802e-09
6.151739672367199498e-09
4.624425288220080029e-09
3.478946828790885706e-09
2.612963948489866461e-09
1.982117544835518753e-09
1.513532981932515061e-09
1.166196141214097793e-09
9.044060521597275974e-10
7.039151304986219955e-10
5.477464176745608668e-10
4.243671171135647770e-10
3.260482469109236636e-10
2.475333464283591279e-10
1.851439336320785706e-10
1.361166352176569589e-10
9.820569191314916073e-11
6.946960108611040906e-11
4.817220706278224054e-11
3.276088827096070418e-11
2.187532432857746669e-11
