# bin_6_4
2.839612695999614508e-08
2.475338624582096599e-08
2.101951028136810745e-08
1.743999637227642453e-08
1.420750729013253502e-08
1.141472350728995549e-08
9.053276851936184779e-09
7.059619803980089953e-09
5.393468995047267332e-09
4.065691550849178578e-09
3.070119215091353062e-09
2.327099077151972477e-09
1.764387510789671918e-09
1.351493856645279156e-09
1.044204416249992425e-09
8.143036298967161706e-10
6.391336972217689340e-10
5.031579673100667592e-10
3.955736146421860527e-10
3.091817287308813584e-10
2.392501478052061349e-10
1.826202766025835402e-10
1.370917630054269042e-10
1.009873955949786913e-10
7.289091212723034598e-11
5.151520006794979998e-11
3.565442133537932643e-11
2.418807335382602402e-11
1.610957847480702744e-11
1.055481860006097029e-11
6.818478643274617189e-12
