# bin_9_2
2.235589566039298421e-08
1.906382730743907419e-08
1.586885469977949651e-08
1.296090985654413645e-08
1.044087591092824121e-08
8.308673796959105794e-09
6.501502963106918804e-09
4.977006363527070710e-09
3.753589068122397880e-09
2.837859567875261183e-09
2.154292080651399535e-09
1.635326611036972819e-09
1.255257457952796353e-09
9.724712260934757262e-10
7.610332114655590463e-10
5.998751970881339103e-10
4.745261492940501790e-10
3.749765157380698589e-10
2.946061887036819534e-10
2.291219220171555102e-10
1.757129586510847118e-10
1.324628385146230485e-10
9.792991246864975393e-11
7.089230275440655260e-11
5.021751428692602774e-11
3.481639452185504742e-11
2.365087510833852815e-11
1.576892457354082557e-11
1.034183883799258163e-11
6.687410214962763665e-12
4.273585084956510655e-12
