# bin_20_4
3.654095875279263986e-08
3.230532765376050846e-08
2.777258555515321214e-08
2.326860038705129462e-08
1.909385452743632399e-08
1.543544752971470752e-08
1.233231851005529997e-08
9.702981495747840001e-09
7.463262526860082812e-09
5.625691719210277485e-09
4.232901992191139514e-09
3.203020343407679135e-09
2.414739587727845194e-09
1.836651026186955558e-09
1.409373848026235442e-09
1.092420619322705247e-09
8.536826957401071391e-10
6.707543016504194102e-10
5.276852840933387571e-10
4.137549897304527455e-10
3.219103666966434931e-10
2.475017514351706805e-10
1.874039903643254289e-10
1.393675956974549308e-10
1.015966020925112527e-10
7.251619357288783576e-11
5.066466945684009394e-11
3.466815324174477638e-11
2.326433486521361130e-11
1.534007991313874918e-11
9.961624541940911283e-12
