# bin_12_1
1.770041100431983990e-08
1.483469715071234518e-08
1.218029406338393532e-08
9.852739350201520466e-09
7.875280252610431673e-09
6.199192557757520600e-09
4.775982150036826232e-09
3.613043533627802381e-09
2.729678520190436882e-09
2.074234411175830397e-09
1.575858947810700505e-09
1.208258645245640987e-09
9.363362755011998447e-10
7.331140329728382424e-10
5.787833366149523857e-10
4.590817341513869885e-10
3.641437926423992304e-10
2.874420397609279295e-10
2.247641616000435363e-10
1.733955209963452669e-10
1.315309916950895304e-10
9.785645930379586078e-11
7.128163852046178337e-11
5.079703840531472398e-11
3.541777181917499523e-11
2.418557712357071387e-11
1.620236862248416184e-11
1.067152680753300423e-11
6.926684544315342127e-12
4.441141725596093878e-12
2.818937061628324121e-12
