# bin_17_3
3.030776692208289931e-08
2.638385270769825984e-08
2.235533532815937873e-08
1.850666543391741019e-08
1.505468447125611742e-08
1.209368858409815149e-08
9.591677185319777977e-09
7.461281779505028950e-09
5.671703480928269901e-09
4.265162109898420436e-09
3.226509709907644052e-09
2.440965462468164817e-09
1.850398071908809245e-09
1.419332460578600738e-09
1.098159487345486697e-09
8.579977632887001132e-10
6.749286273642146853e-10
5.324641060076599712e-10
4.193763871525974703e-10
3.282347221579379232e-10
2.541932289590406522e-10
1.940496207671349564e-10
1.455869577708820079e-10
1.071065212538654722e-10
7.715547884056176669e-11
5.439099576500274960e-11
3.753476405190028652e-11
2.538507026138422014e-11
1.685578096385713928e-11
1.101314533317124543e-11
7.097425313125912888e-12
