# bin_15_10
5.741635996502342718e-08
5.304237018906854514e-08
4.771500435508684777e-08
4.175742796155225345e-08
3.557514962115912850e-08
2.959080347182214071e-08
2.414931261181607035e-08
1.942842587513375843e-08
1.542856243622511581e-08
1.204268682006673839e-08
9.194318593395214393e-09
6.903750695613816159e-09
5.179632261545773883e-09
3.895868009326598608e-09
2.920204461531882993e-09
2.206806496367472605e-09
1.679297451768650904e-09
1.289196589896092222e-09
9.965195816102840566e-10
7.737895508020718904e-10
6.013678750260566106e-10
4.658804635993942654e-10
3.583408196874973250e-10
2.726466025051214339e-10
2.045663488807908435e-10
1.509851308125167231e-10
1.094265140080734842e-10
7.779037850338869312e-11
5.422097334647981260e-11
3.706531996377593923e-11
2.487238858322221769e-11
