# bin_14_4
3.468061963921158621e-08
3.058040975808687232e-08
2.623013487429592059e-08
2.193730573251839192e-08
1.797777808196225900e-08
1.451708562442029675e-08
1.158336222964255810e-08
9.099219138436983329e-09
6.990507188312662165e-09
5.269376656939499424e-09
3.967314113477974285e-09
3.002953700214291267e-09
2.266194519629298886e-09
1.725837629278954619e-09
1.325966512682065811e-09
1.028896684271287641e-09
8.046781491218370267e-10
6.324740870708727074e-10
4.975100279730790058e-10
3.898697089659853253e-10
3.030301857268918227e-10
2.326823653027198829e-10
1.759123255641428722e-10
1.306012911063315560e-10
9.504002389385878475e-11
6.771942185852818092e-11
4.723622547948772904e-11
3.227443087949879780e-11
2.163013921209642443e-11
1.424709318892843778e-11
9.243708258835298885e-12
