# bin_9_3
2.728879297759031788e-08
2.364064412177239670e-08
1.995116985526232105e-08
1.646684907403636330e-08
1.336434567208373705e-08
1.071056813074927664e-08
8.469451466862067270e-09
6.568891359273367231e-09
4.987701031386390161e-09
3.754739738195626554e-09
2.843004879959324251e-09
2.153319714719973551e-09
1.636653398236284234e-09
1.258249314028555595e-09
9.758484280446022437e-10
7.637720075329021833e-10
6.013856019630896094e-10
4.744588293058583533e-10
3.733529452256241579e-10
2.917042881702828630e-10
2.253524251488741830e-10
1.715237378924571035e-10
1.282616257306756018e-10
9.403251316417802651e-11
6.750172542405041238e-11
4.742701736145118152e-11
3.262890902138276584e-11
2.200771460011839585e-11
1.457971048706252421e-11
9.508036164372859440e-12
6.118196706682334993e-12
