# bin_6_5
3.142432509765738488e-08
2.762558346648197645e-08
2.364789806233595870e-08
1.975639624436369696e-08
1.617958089699442638e-08
1.305114215959158969e-08
1.039367465038350573e-08
8.151235007145103545e-09
6.266819437540258160e-09
4.736405372061726208e-09
3.567991123112456299e-09
2.700931925457999867e-09
2.044220525523933678e-09
1.557498626331626601e-09
1.198441289650726303e-09
9.301664419095202503e-10
7.273751356104912056e-10
5.712803431183948923e-10
4.487800450323953593e-10
3.510713709412458834e-10
2.723259825628315753e-10
2.086673195336482812e-10
1.574346146819559832e-10
1.166675632890936705e-10
8.477079564556263539e-11
6.033433312055500891e-11
4.205586208888404369e-11
2.872676463277075410e-11
1.925326098515856073e-11
1.268470019932866617e-11
8.232946599942868021e-12
