# bin_11_6
4.125353640691256091e-08
3.701713847351189604e-08
3.231529477619969422e-08
2.746683104632389053e-08
2.280136823942428998e-08
1.858134741508849334e-08
1.493517203068174321e-08
1.185192111805047279e-08
9.242303597713874756e-09
7.050984661831351057e-09
5.300835189745279187e-09
3.992421416671918494e-09
3.015143756809831341e-09
2.273228993122589716e-09
1.731620657327342121e-09
1.328974072279313701e-09
1.029655773592014351e-09
8.031637455174087939e-10
6.288344268274766371e-10
4.921668006723367246e-10
3.833886763004877219e-10
2.960188483743379849e-10
2.257012714707097612e-10
1.694151266355765657e-10
1.248961586574758973e-10
9.028419358627596342e-11
6.393817620078587482e-11
4.435558363887554278e-11
3.016160851603757512e-11
2.013077109206270289e-11
1.321212126180240076e-11
