# bin_17_5
4.073086223872520979e-08
3.640031780236917805e-08
3.163241303897512018e-08
2.676105203963868413e-08
2.212578633859160072e-08
1.797941654943035843e-08
1.442685918731805284e-08
1.142559406701391374e-08
8.872570922609713124e-09
6.732791804343886488e-09
5.054366247800836359e-09
3.815703009841254460e-09
2.878068156416614545e-09
2.173586521180624078e-09
1.660143487161447272e-09
1.277968056845929227e-09
9.930356569992923310e-10
7.768298987564366887e-10
6.095721612481285881e-10
4.777449614361155303e-10
3.723115417826623813e-10
2.873028082628118740e-10
2.187215171400995402e-10
1.637811130704454846e-10
1.203570712160549304e-10
8.666769754074552285e-11
6.111040692449989597e-11
4.219796924375034285e-11
2.856104546282147757e-11
1.897821314168959706e-11
1.240598558277423033e-11
