# bin_9_1
1.704047103107359588e-08
1.426554487908238307e-08
1.170309773821475534e-08
9.459921688532838043e-09
7.555075823876996692e-09
5.941451720420818833e-09
4.574214924919920215e-09
3.460407900101723155e-09
2.615409423614230101e-09
1.987978165268355577e-09
1.511262739821584603e-09
1.159645903784400683e-09
8.993051641896033359e-10
7.045425100382402938e-10
5.564262047566394940e-10
4.413771822940768413e-10
3.500178205790712567e-10
2.761501362144675104e-10
2.157743993266203636e-10
1.663078746858450105e-10
1.260243814899498144e-10
9.365724438226844188e-11
6.814783189910466495e-11
4.851247235582431089e-11
3.379187918508500251e-11
2.305530922886053410e-11
1.543368959267151502e-11
1.015894382278260072e-11
6.590661903010421246e-12
4.224015039566578254e-12
2.680296348652713535e-12
