# bin_9_9
4.665917618300141959e-08
4.237623080778144935e-08
3.746094393857683252e-08
3.223324995388759431e-08
2.704831503537514278e-08
2.222697073436639649e-08
1.797490411149652477e-08
1.434752139460607447e-08
1.128305478017982454e-08
8.698720288209244316e-09
6.577780316197656056e-09
4.938891753540012729e-09
3.722131762213692308e-09
2.802981199845992766e-09
2.117514627090506148e-09
1.615208107904687718e-09
1.241407656992737192e-09
9.618380803531386937e-10
7.492347104286627766e-10
5.846769940491161242e-10
4.552217222149604645e-10
3.521601433213155565e-10
2.696478435508307590e-10
2.036764169821804690e-10
1.513613129632822635e-10
1.104482892316790513e-10
7.903518639421009048e-11
5.543221396805148132e-11
3.811113883220052851e-11
2.570721570884243426e-11
1.703673661565905570e-11
