# bin_19_10
6.068196449655141516e-08
5.628519785348833492e-08
5.083781668978624625e-08
4.466332342916503993e-08
3.818175477202968694e-08
3.184586021715608774e-08
2.604260195528076239e-08
2.098749580943206307e-08
1.670104534911538545e-08
1.307007100718176906e-08
9.999842602422297173e-09
7.509723349270851279e-09
5.628891626301247840e-09
4.232681557218102915e-09
3.167826765606992342e-09
2.389048087804786429e-09
1.814155607481165919e-09
1.389884110973671062e-09
1.072476187653575621e-09
8.318043723912039843e-10
6.461511142674653836e-10
5.006977470216154817e-10
3.854819686121064623e-10
2.937502273859043664e-10
2.208506674297864469e-10
1.633998765898884528e-10
1.187427124971526962e-10
8.465206902613937125e-11
5.917171671191574346e-11
4.056089624697514148e-11
2.728751366396979898e-11
