# bin_14_6
4.360067711219051382e-08
3.926130315992740795e-08
3.438807811836695327e-08
2.931244011530783521e-08
2.438783413304201557e-08
1.990724915389440275e-08
1.602444268120051626e-08
1.273958917096200658e-08
9.956238031712651871e-09
7.606962994951913267e-09
5.717592438659363167e-09
4.302898887465356390e-09
3.248509957072813999e-09
2.445398450585035663e-09
1.859754984048795743e-09
1.424814756806961521e-09
1.102254961285516802e-09
8.588176043372326178e-10
6.720223593215970118e-10
5.259920947677206387e-10
4.100039523590891201e-10
3.169476114692287738e-10
2.420572682643894534e-10
1.820551017143347708e-10
1.345147730218617035e-10
9.746717832270823083e-11
6.918958993561707378e-11
4.810898935474709482e-11
3.278341905313066852e-11
2.192186169702295660e-11
1.441073557484224187e-11
