# bin_11_1
1.751154827895795940e-08
1.467181611535847905e-08
1.204372909619837371e-08
9.740321996149596612e-09
7.783643469519603037e-09
6.125431709933447094e-09
4.718239939941927967e-09
3.569361915838106963e-09
2.696976731603063246e-09
2.049549406321611649e-09
1.557372665524858249e-09
1.194346550420696669e-09
9.257386387444377383e-10
7.249373801173659617e-10
5.723851310546546027e-10
4.540150127219040848e-10
3.601011953594157931e-10
2.842105007983067338e-10
2.221914530852406673e-10
1.713671631376597295e-10
1.299550975041475224e-10
9.665471796517707270e-11
7.038479791752265880e-11
5.014323535453357908e-11
3.495246949114919988e-11
2.386211392928553252e-11
1.598238588094561042e-11
1.052483433075328448e-11
6.830520601951548279e-12
4.379003768539334481e-12
2.779260449048755494e-12
