# bin_19_16
7.396288771602015009e-08
6.989579661115423676e-08
6.441489613171196036e-08
5.779337065492288927e-08
5.044456015893617507e-08
4.287410373405718205e-08
3.559465633060328390e-08
2.900770030977177525e-08
2.330532831993307051e-08
1.847020954022922589e-08
1.437419400193222030e-08
1.093970376308066666e-08
8.194213335813092945e-09
6.130056077735655253e-09
4.588635600535954545e-09
3.421708122162754356e-09
2.569590434766825219e-09
1.941275385955521984e-09
1.478522914638174901e-09
1.133464419238010500e-09
8.729154272912076926e-10
6.731162311177367008e-10
5.177660556078061780e-10
3.957986749283587760e-10
2.996229887006604826e-10
2.239412170580449979e-10
1.648608251133669814e-10
1.193322103881828973e-10
8.483292734648320707e-11
5.920005063814829991e-11
4.055786068396707748e-11
