# bin_19_7
5.032614755936364484e-08
4.584966876209407513e-08
4.063335977336154454e-08
3.502147394580334988e-08
2.941156552652440766e-08
2.417753087889363057e-08
1.956376155270009448e-08
1.563801052192754806e-08
1.231724513652492501e-08
9.493591288234200432e-09
7.160715731408975888e-09
5.370430974747155634e-09
4.050104776151739583e-09
3.042033113432881524e-09
2.296733670189009736e-09
1.749813313755665133e-09
1.344612349364264857e-09
1.041678164428055539e-09
8.118610286114513665e-10
6.342035901630446490e-10
4.944794076756305341e-10
3.831747624808904213e-10
2.939253996082409745e-10
2.224126109874154284e-10
1.655594972649248137e-10
1.209789377776375658e-10
8.666299377199073776e-11
6.082222546955772272e-11
4.182687937506115162e-11
2.820947816271733931e-11
1.868677758810711047e-11
