# bin_20_1
1.862323590368884651e-08
1.563056951632780701e-08
1.284758019876953293e-08
1.040203488030469294e-08
8.323037315660464394e-09
6.559603864496079631e-09
5.058122911469531688e-09
3.826481240461333875e-09
2.889466454789186381e-09
2.194850634091636739e-09
1.666186898622222181e-09
1.276236146601691969e-09
9.881186286688087210e-10
7.730669401327330363e-10
6.100463660391872278e-10
4.838388417893586091e-10
3.838968045832731519e-10
3.032320415172626924e-10
2.373349719753552365e-10
1.833065138687172882e-10
1.392311477183067029e-10
1.037284229260035252e-10
7.566379123327145771e-11
5.399165754067384998e-11
3.769133633797519661e-11
2.576608568712420439e-11
1.727724997832234236e-11
1.138829662720974871e-11
7.396561437710642836e-12
4.744760602023318930e-12
3.012805164900079085e-12
