# bin_12_10
5.383382619521481147e-08
4.948482742508915293e-08
4.428912793581072641e-08
3.856952327908624949e-08
3.271558369513423370e-08
2.711690504704492131e-08
2.207229124344419171e-08
1.771805905046032935e-08
1.403259443474920446e-08
1.091560290949592168e-08
8.310625352959451682e-09
6.238974464432723207e-09
4.686777085025092072e-09
3.526369996642171242e-09
2.648553003406063870e-09
2.006880207004125846e-09
1.531352609899031372e-09
1.178738213147292667e-09
9.131919961130579775e-10
7.101448048265291534e-10
5.522387054155946356e-10
4.276843611078954685e-10
3.285657654956615516e-10
2.494949784493851519e-10
1.867017211980151128e-10
1.373656013536835082e-10
9.920623338369943930e-11
7.026280575518124362e-11
4.878979658248339639e-11
3.323052676831604050e-11
2.222289790758083339e-11
