# bin_16_5
4.032715519724440750e-08
3.601967705561568093e-08
3.128604854106639756e-08
2.645719061679943719e-08
2.186783809626051565e-08
1.776562494425532705e-08
1.425189644010072437e-08
1.128354958627660613e-08
8.759530781996451698e-09
6.646185551177987919e-09
4.989884285472981151e-09
3.767342203086619305e-09
2.841894391467783513e-09
2.146859350799771949e-09
1.640114095682517454e-09
1.262879864390367480e-09
9.815109520229927636e-10
7.679129500983534270e-10
6.025968778195485196e-10
4.722497926025841001e-10
3.679741284804879456e-10
2.838915745877795818e-10
2.160628697306567486e-10
1.617373061144183988e-10
1.188133165679683191e-10
8.552533371239278638e-11
6.028379894855975725e-11
4.161356842680754460e-11
2.815725657921323795e-11
1.870518658076515830e-11
1.222494839904359767e-11
