# bin_14_10
5.636172684086720655e-08
5.199509477475395851e-08
4.670648963787184102e-08
4.081896796822748262e-08
3.473334643440221864e-08
2.886253341211202051e-08
2.353787558121985561e-08
1.892492508449199141e-08
1.501761497119487999e-08
1.171089401246455874e-08
8.934175450213364263e-09
6.708052462146002236e-09
5.034544391634848635e-09
3.787094399271208960e-09
2.840235051163126143e-09
2.147951703732578001e-09
1.635745084181197473e-09
1.256679593319427698e-09
9.719894132762245184e-10
7.550536716014848467e-10
5.869051317167446138e-10
4.546362256494814649e-10
3.495755908249914759e-10
2.658311937018235217e-10
1.993073362393355544e-10
1.469757971368134920e-10
1.064178558957243155e-10
7.557440290797263414e-11
5.262213698767635391e-11
3.593642856567341396e-11
2.409242771614010649e-11
