# bin_20_16
7.498002700907622842e-08
7.093655594599879016e-08
6.545168111083958515e-08
5.879505444504162766e-08
5.137977889534156181e-08
4.371576560904641500e-08
3.632493523313578518e-08
2.962215301721640254e-08
2.381193778225920769e-08
1.888397563420234111e-08
1.470869563198448038e-08
1.120257547582909409e-08
8.392142711325208492e-09
6.276298513406052770e-09
4.697844784293724756e-09
3.501613026644911101e-09
2.627799892812859612e-09
1.983876507698078718e-09
1.509866733769101391e-09
1.156719504589200064e-09
8.903720121696335943e-10
6.863650374979243441e-10
5.279101277192505175e-10
4.036071468866802405e-10
3.056382199372755895e-10
2.285560434942713388e-10
1.683712517530714990e-10
1.219695547028396833e-10
8.678369154120129582e-11
6.061735262875663338e-11
4.156781451455727386e-11
