# bin_12_1
1.801042790158521179e-08
1.511319497719766827e-08
1.242098565385989481e-08
1.005459615512665783e-08
8.042026561187375759e-09
6.336342883781528205e-09
4.886996859333015993e-09
3.699089605267836627e-09
2.793983104442284205e-09
2.122899628709393089e-09
1.612554894886476046e-09
1.235577576935617357e-09
9.569927291184820817e-10
7.488454199651405638e-10
5.909463063625359294e-10
4.686204787247959810e-10
3.717114415636480554e-10
2.934869529972473285e-10
2.295971736943410193e-10
1.772397012727311434e-10
1.345554057741636882e-10
1.001984944800686119e-10
7.305965659772054203e-11
5.211654398212005675e-11
3.637340595255599081e-11
2.486078066288039301e-11
1.666821010532641607e-11
1.098597237717491597e-11
7.134878824780329542e-12
4.576730653727125590e-12
2.906034511547914375e-12
