# bin_20_6
4.669673332321136351e-08
4.223671047991185098e-08
3.715087175269991513e-08
3.178556184272617504e-08
2.652415672848574958e-08
2.169974336131435757e-08
1.750093143418203475e-08
1.394505493451729348e-08
1.092830796104305478e-08
8.367110309508590201e-09
6.289371238220940789e-09
4.728992019838937312e-09
3.569216764728409068e-09
2.682450195768498059e-09
2.036113234407280785e-09
1.556783328345018205e-09
1.202183133104104606e-09
9.353741590957647936e-10
7.313938369940344823e-10
5.724669881783290067e-10
4.465594306968249622e-10
3.456898735182083313e-10
2.645240855287296413e-10
1.994262085096245649e-10
1.477439820607061226e-10
1.073567529681977467e-10
7.642878444149734823e-11
5.329034060089186917e-11
3.640792437870518907e-11
2.440145300315798788e-11
1.607225528151111313e-11
