# bin_16_5
4.057407436399914142e-08
3.626692969475745718e-08
3.152459797264522677e-08
2.667813045592181425e-08
2.206404583814271711e-08
1.793358219779546058e-08
1.439209536011563858e-08
1.139943586296015913e-08
8.854576906735777726e-09
6.721824009431254323e-09
5.047196878811997271e-09
3.810275874163282540e-09
2.874650385722805053e-09
2.171102194382038217e-09
1.658319841276801488e-09
1.276532870512739380e-09
9.918960032447156529e-10
7.758978982190358159e-10
6.088060989793343845e-10
4.771207317900438136e-10
3.718116065481050117e-10
2.869125272801915215e-10
2.184263962663233118e-10
1.635661016312677200e-10
1.202069733350034128e-10
8.656781055237334514e-11
6.104731297527955717e-11
4.216026137923996577e-11
2.853974103857361128e-11
1.896680759252199228e-11
1.240016979221879917e-11
