# bin_8_8
4.279196070839831448e-08
3.858881115586647492e-08
3.386861910356375852e-08
2.894412362377563646e-08
2.414589327776108448e-08
1.975207155744361562e-08
1.591850564929406145e-08
1.266320394085960490e-08
9.913212313775304105e-09
7.602880787339516368e-09
5.733214372020729571e-09
4.310949802571748598e-09
3.254047184070130828e-09
2.453113652031919901e-09
1.861488878334926915e-09
1.425181822715217543e-09
1.100312264492326539e-09
8.556537319678947380e-10
6.683672759998730722e-10
5.223566907271831443e-10
4.067419730735487165e-10
3.142555506301754382e-10
2.400099543339529688e-10
1.806271363898840872e-10
1.336201379181328639e-10
9.698982250267068532e-11
6.900705885488822660e-11
4.811076507926523300e-11
3.288139891683646346e-11
2.205416363899610869e-11
1.454022801667635999e-11
