# bin_19_12
6.614074234661300266e-08
6.186567854345778436e-08
5.638541438469662735e-08
5.000397330749724285e-08
4.314158755296490665e-08
3.627661655201463863e-08
2.985497873742509511e-08
2.417236302310805760e-08
1.931834242461964255e-08
1.521093854479842935e-08
1.172977334517866980e-08
8.852595638061772961e-09
6.623594382068288552e-09
4.973070371091196673e-09
3.722000891306793791e-09
2.789753677011843603e-09
2.109683811254471421e-09
1.606098723863161505e-09
1.232554774081471889e-09
9.516489539088421842e-10
7.369331180210771939e-10
5.702165341897051354e-10
4.391382020359833690e-10
3.353228595542028560e-10
2.530166667700185518e-10
1.881310457699007879e-10
1.375535010665412819e-10
9.875159212774487173e-11
6.955497686284721710e-11
4.805759317188789856e-11
3.258762897022204279e-11
