# bin_8_5
3.471389200484005314e-08
3.073634183136736828e-08
2.648689580673701294e-08
2.225407478690081677e-08
1.830508777302380619e-08
1.481607743901079389e-08
1.183982509195754556e-08
9.326562498966976392e-09
7.203690862984188139e-09
5.455700359048796517e-09
4.104171593054322385e-09
3.103180880160267713e-09
2.345503600249059664e-09
1.780208143547036684e-09
1.365436817188135467e-09
1.055991773561132908e-09
8.235046666065816164e-10
6.456627993428225653e-10
5.069644304181796704e-10
3.969067255332605084e-10
3.085021212171994801e-10
2.371175893335546126e-10
1.796084476241026564e-10
1.337147741327983148e-10
9.764909383427061669e-11
6.986637224811463383e-11
4.895528031258699166e-11
3.360627974799397748e-11
2.262598965322483834e-11
1.496602149381131752e-11
9.746106653564080581e-12
