# bin_20_19
7.948200351151916773e-08
7.560697471709696319e-08
7.017506906220304591e-08
6.343422587620152573e-08
5.578793535086352502e-08
4.775524526748918166e-08
3.988968659142140040e-08
3.266160334488534047e-08
2.633841697410007629e-08
2.095589904728641176e-08
1.639530556805988678e-08
1.254898971269385290e-08
9.423498150351297203e-09
7.038991798630866432e-09
5.265649991356336390e-09
3.921662259859139431e-09
2.931327515525218995e-09
2.206031982953598316e-09
1.671729069162418180e-09
1.275737577763926651e-09
9.788016139018892290e-10
7.527772711779414830e-10
5.782812389712061434e-10
4.420908666764785842e-10
3.351455485768042754e-10
2.511551672015010909e-10
1.855835265769314391e-10
1.349532137380688038e-10
9.644964460768577008e-11
6.769994109948689381e-11
4.666583943486797741e-11
