# bin_12_6
4.235749953751636519e-08
3.808449283868849822e-08
3.331234057294427228e-08
2.836454867746587258e-08
2.358092158538506127e-08
1.923820337586741783e-08
1.547780588447629552e-08
1.229586192741715324e-08
9.601197458692158125e-09
7.332699852148947066e-09
5.513459564169315585e-09
4.151020949374500388e-09
3.134720683894126272e-09
2.361809676206955811e-09
1.797563586105808843e-09
1.378378659840440145e-09
1.067088380706376575e-09
8.318510915033034381e-10
6.510855587611264719e-10
5.095843132675410369e-10
3.970870694454307661e-10
3.067876737430798434e-10
2.341177611304643819e-10
1.759222755138658704e-10
1.298520266313804371e-10
9.398968860149874580e-11
6.665150925745073342e-11
4.629850053193181612e-11
3.152147221501363976e-11
2.106160978492710664e-11
1.383619338615660635e-11
