# bin_13_12
5.952405094165694355e-08
5.521091096630558385e-08
4.988433937618425011e-08
4.385837587925116738e-08
3.753695954246927829e-08
3.135114829741490830e-08
2.566867334080075635e-08
2.069995267571735530e-08
1.647478475662060175e-08
1.290042791437020722e-08
9.889908198827430193e-09
7.444827136968876368e-09
5.580023428734658206e-09
4.194367003670830419e-09
3.143974548302574153e-09
2.368403647183238396e-09
1.798609199968163069e-09
1.376466669217503847e-09
1.061085715938902461e-09
8.221112295528924041e-10
6.379591416953135230e-10
4.938936223156443899e-10
3.799601201544123030e-10
2.893999162937705389e-10
2.175341531532458686e-10
1.609618842076406426e-10
1.170211242306639178e-10
8.348817226525065520e-11
5.842106505191033117e-11
4.010063385206749750e-11
2.702013083275514900e-11
