# bin_14_9
5.388625515444179579e-08
4.951070170487120540e-08
4.428496573985036550e-08
3.853591078557520075e-08
3.265819493296045868e-08
2.704702929199128198e-08
2.200245758993804040e-08
1.765698870106383889e-08
1.398095238312302004e-08
1.086736455666486737e-08
8.262794363925915556e-09
6.198520988226852619e-09
4.659596683478974433e-09
3.505714535937314668e-09
2.632965000500804007e-09
1.997064559974391909e-09
1.524759637688727361e-09
1.174701934869199298e-09
9.109052643840518589e-10
7.089300490294674020e-10
5.516452196494762793e-10
4.274097442186005535e-10
3.284212715630155260e-10
2.493744176631314113e-10
1.865585498977132266e-10
1.371890910701210234e-10
9.900542214478527050e-11
7.005480981058445846e-11
4.859177015083214970e-11
3.305537792540104049e-11
2.207769684166120166e-11
