# bin_6_5
3.165266857533271563e-08
2.784734414344980571e-08
2.385542380931209192e-08
1.994320403509738670e-08
1.634167698513372603e-08
1.318775033091589046e-08
1.050674503338791209e-08
8.243879937047881743e-09
6.341425164321704411e-09
4.794420558119680831e-09
3.611660379193416550e-09
2.733883590774882677e-09
2.069142239816853322e-09
1.576058235884563300e-09
1.212469775387310553e-09
9.408075517863033835e-10
7.355555143642551084e-10
5.776408361435920657e-10
4.537714143317439150e-10
3.550094177644818892e-10
2.754340023440919053e-10
2.111083033554707009e-10
1.593327482297199117e-10
1.181226752673055875e-10
8.586666987706150939e-11
6.114301557722610619e-11
4.263959253534403968e-11
2.913862326277266462e-11
1.953737544696208539e-11
1.287655810361742594e-11
8.360021513655530744e-12
