# bin_20_20
8.071303254042347111e-08
7.688188690897425303e-08
7.146271579964880704e-08
6.469774146784942522e-08
5.698795970850871980e-08
4.885488198376771719e-08
4.086049057749458356e-08
3.348976313853645186e-08
2.702698501968304682e-08
2.152038300543297831e-08
1.685456409033127051e-08
1.291585218826697458e-08
9.705204475752640190e-09
7.247552097049345950e-09
5.420451552932146729e-09
4.036263443757561712e-09
3.014060577155491651e-09
2.266446412636596118e-09
1.715615059298707419e-09
1.307931145714002953e-09
1.002641083506719727e-09
7.706212974263011153e-10
5.917760399646457182e-10
4.523770164199138200e-10
3.430200683710826665e-10
2.571815246852210245e-10
1.901734261738177897e-10
1.384179694730408197e-10
9.903249782162732887e-11
6.959601176065600947e-11
4.803374784896509825e-11
