# bin_16_12
-2.384134613324539710e-11
-2.678905253922347431e-11
-2.956424403985844092e-11
-3.190348602064343957e-11
-3.346973498091152526e-11
-3.391597963551257947e-11
-3.286639516996326113e-11
-3.006252453179963790e-11
-2.600306457434256578e-11
-2.143354318823616105e-11
-1.762362724538617206e-11
-1.513291943228862258e-11
-1.285950220233551370e-11
-9.473698565215297394e-12
-6.711482870993896477e-12
-5.457732360158259522e-12
-3.618574244547302575e-12
-2.750036260158173054e-12
-1.893465703779593752e-12
-1.312039184935900919e-12
-9.217811709371402649e-13
-6.480546388507462590e-13
-4.598064484568788225e-13
-3.306721246273899282e-13
-2.425977779535110056e-13
-1.813971701414676824e-13
-1.379513414746617845e-13
-1.062496061290120259e-13
-8.231438562609191920e-14
-6.367952847155426214e-14
-4.884783741780535370e-14
