# bin_14_9
-7.767028370345461252e-14
-8.658896698619531588e-14
-9.464338925028447738e-14
-1.009173185170245908e-13
-1.042675686313042562e-13
-1.038210131791486268e-13
-9.811618279064939371e-14
-8.756879811032810588e-14
-7.386635222870581424e-14
-6.042451802408227347e-14
-5.052839909028652983e-14
-4.378668693198183683e-14
-3.539952925450122820e-14
-2.465403433705372166e-14
-1.900849081817972517e-14
-1.429174119837475442e-14
-9.967824279640195359e-15
-7.071548180409275072e-15
-5.107631913509606847e-15
-3.586590351129978269e-15
-2.526610760341424631e-15
-1.805553490783688824e-15
-1.309277307440325571e-15
-9.664085160624074274e-16
-7.271265920649118204e-16
-5.559511978089319059e-16
-4.301258174648870750e-16
-3.345424247450612240e-16
-2.596846615629513863e-16
-1.997973210406763766e-16
-1.514849128156006436e-16
