# bin_4_7
-4.507758135214714341e-11
-4.834763840492710783e-11
-5.036300109443589045e-11
-5.064912875467319279e-11
-4.857326218495997211e-11
-4.398120468870498478e-11
-3.765804528108907598e-11
-3.091815786738577539e-11
-2.554928414240996875e-11
-2.201642520182830481e-11
-1.839559995154931622e-11
-1.328859779170634476e-11
-9.734873084425026213e-12
-7.762390189135789762e-12
-5.290161014193014881e-12
-3.997273160696791298e-12
-2.867415380564122145e-12
-2.061959831640392832e-12
-1.507937018910452673e-12
-1.117747892225973595e-12
-8.434512410897125470e-13
-6.475439130486204955e-13
-5.049717765850355056e-13
-3.975481120982054774e-13
-3.138536302383638124e-13
-2.467503243799473208e-13
-1.918629446697296834e-13
-1.466883986556834151e-13
-1.097387866760982107e-13
-8.003526406379218973e-14
-5.680433229068967525e-14
