# bin_4_14
-1.483514294045646511e-35
-1.640515750830433461e-35
-1.775354271916339331e-35
-1.869714333657861196e-35
-1.903209261293966525e-35
-1.857401503929533638e-35
-1.712560102534924734e-35
-1.493283364658005098e-35
-1.236253631459573036e-35
-1.013196267287105920e-35
-8.643661982677560175e-36
-7.414050840254698784e-36
-5.598780854317382268e-36
-3.909885088589912049e-36
-3.184997998291596354e-36
-2.164541042503379665e-36
-1.643486326927162109e-36
-1.131509902822096079e-36
-8.033404023271029110e-37
-5.754446958404056179e-37
-4.145137912231768939e-37
-3.018891988476368696e-37
-2.232817276537152204e-37
-1.684015724140910783e-37
-1.291237509263124111e-37
-1.001833629986488510e-37
-7.819397601716477907e-38
-6.094951111891238091e-38
-4.712094985940061563e-38
-3.591494890145990630e-38
-2.685943138181712008e-38
