# bin_20_3
-2.021030423094408659e-73
-2.269232994480537352e-73
-2.502072583568728496e-73
-2.697062449574203130e-73
-2.825532858490848299e-73
-2.858761749638251991e-73
-2.763789931822566183e-73
-2.521753457535245610e-73
-2.175746808431762368e-73
-1.791287229551694390e-73
-1.474625613489277643e-73
-1.268260626886414414e-73
-1.073825616859180042e-73
-7.856056236091917945e-74
-5.604247215407089149e-74
-4.541709622069556480e-74
-3.008893469437611444e-74
-2.282643628964116570e-74
-1.578945003868527683e-74
-1.094264892316946895e-74
-7.687234671517167628e-75
-5.407331811597953214e-75
-3.844221182218457541e-75
-2.771798016428515512e-75
-2.038967666756165177e-75
-1.528388623900274342e-75
-1.164741872788178509e-75
-8.983135371013959798e-76
-6.963419726169600791e-76
-5.385698515083421768e-76
-4.127404512908632409e-76
