# bin_12_19
-7.045878985655457924e-17
-7.951412293446390507e-17
-8.820767770477767258e-17
-9.579702013513391204e-17
-1.013058097623008299e-16
-1.035875548207493744e-16
-1.017291226579150769e-16
-9.446261278221149674e-17
-8.292910999955047115e-17
-6.896039161380192359e-17
-5.644697529452782572e-17
-4.793141616238965711e-17
-4.135606474261020034e-17
-3.178849363696251963e-17
-2.198330277220132592e-17
-1.777295251169636841e-17
-1.225626668711058854e-17
-9.123693634534193378e-18
-6.149093947905498331e-18
-4.332898853614318132e-18
-3.024251904860105078e-18
-2.109977451527808960e-18
-1.479675100378417515e-18
-1.048129493542573638e-18
-7.561751814999576091e-19
-5.563199688907029572e-19
-4.170900128237637521e-19
-3.179340629708598181e-19
-2.449749117237094418e-19
-1.894657960770245569e-19
-1.459868862889391791e-19
