# bin_16_8
-3.187263571818600037e-22
-3.562812688977408005e-22
-3.907076953377586877e-22
-4.183238896843549037e-22
-4.344973574649418984e-22
-4.353347665241633974e-22
-4.149332075919199920e-22
-3.732901902616847379e-22
-3.174103586498786247e-22
-2.600126155193890164e-22
-2.159881084107679306e-22
-1.870002418924816238e-22
-1.541875167815656049e-22
-1.088835140728355458e-22
-8.152840393643834294e-23
-6.338293591454321905e-23
-4.299066386541256174e-23
-3.146982172833197220e-23
-2.240106847872029142e-23
-1.563742591815611451e-23
-1.098384434028490407e-23
-7.791304337654335444e-24
-5.608652660117578755e-24
-4.105692857785140204e-24
-3.065286385605143997e-24
-2.328386755209490724e-24
-1.793017855380000109e-24
-1.391470676365095593e-24
-1.080367830673420490e-24
-8.332784778365397253e-25
-6.344973410600556397e-25
