# bin_6_13
-7.274148858080951793e-21
-8.046232360450691909e-21
-8.710578360273902283e-21
-9.177498934527941095e-21
-9.346474193224445329e-21
-9.128069312730503774e-21
-8.423155140037228776e-21
-7.350556765180854711e-21
-6.088355199933508295e-21
-4.988724072042942708e-21
-4.253295838973407706e-21
-3.651031139694807365e-21
-2.763417373634012155e-21
-1.927570252441760386e-21
-1.569328751251909913e-21
-1.069022109553768522e-21
-8.105293106926453603e-22
-5.574567423511947847e-22
-3.961555362764354387e-22
-2.836474097633306755e-22
-2.042244029391685497e-22
-1.486502605829234696e-22
-1.098703439861574438e-22
-8.281045227754519998e-23
-6.346067456213583480e-23
-4.921774288670525904e-23
-3.840734414698561693e-23
-2.993758759701562695e-23
-2.314982847305651312e-23
-1.765080569512130736e-23
-1.320681143533315320e-23
