# bin_3_12
-5.293261942119828892e-33
-5.800033346473213044e-33
-6.205907561868858227e-33
-6.442441111014251595e-33
-6.452160887930150935e-33
-6.148261354647061799e-33
-5.530694638150479201e-33
-4.702962424730478088e-33
-3.852313081272589337e-33
-3.198479337739613393e-33
-2.766774684040081361e-33
-2.282051123959138695e-33
-1.616827841406286053e-33
-1.211005798945580242e-33
-9.451212550490861124e-34
-6.462047407185945325e-34
-4.776153360022566923e-34
-3.437588100490971818e-34
-2.443200976513705774e-34
-1.756145866755240219e-34
-1.279711554177877111e-34
-9.490547422817594473e-35
-7.164716082591795989e-35
-5.504262320027313138e-35
-4.281901756559874983e-35
-3.353261299521921174e-35
-2.625500707046203388e-35
-2.040696479549907475e-35
-1.564931464237378869e-35
-1.177959111568395001e-35
-8.668122928300323018e-36
