# bin_3_17
-4.410596467365505142e-58
-4.916135740013702158e-58
-5.372198256536771658e-58
-5.726683459331670590e-58
-5.914644139377398703e-58
-5.886711749066085734e-58
-5.559970927725364807e-58
-4.959553427299356981e-58
-4.181275572326442379e-58
-3.420161200832592332e-58
-2.861374164166822132e-58
-2.479604316910279200e-58
-2.001703059883993138e-58
-1.393043748136059324e-58
-1.076187393714519084e-58
-8.071498338202038240e-59
-5.641820608384181185e-59
-3.993971203099048916e-59
-2.886841502661402585e-59
-2.028026541316558586e-59
-1.429140326173865137e-59
-1.021810383211212581e-59
-7.413134047027808677e-60
-5.474822689242090561e-60
-4.121337709407657018e-60
-3.152429210988631368e-60
-2.439649649969524213e-60
-1.897731329522022225e-60
-1.473028045288970549e-60
-1.133110897902866583e-60
-8.588545133982310178e-61
