# bin_8_7
-2.468113075689589269e-08
-2.692832639023600585e-08
-2.865910327143389350e-08
-2.954983326443513931e-08
-2.935401216757715696e-08
-2.766526968013577525e-08
-2.463077409422816508e-08
-2.073290007530883807e-08
-1.695518302865837118e-08
-1.419814159778381733e-08
-1.229214268417977802e-08
-9.881351131909236946e-09
-6.890575185861902301e-09
-5.352802780423155347e-09
-4.004789446423953468e-09
-2.837418883352210111e-09
-2.024146892228789653e-09
-1.478900469162353025e-09
-1.059196787098905117e-09
-7.650069577497281741e-10
-5.621584909137855386e-10
-4.202236255252704321e-10
-3.198409645048019273e-10
-2.473682373220609407e-10
-1.933427988923587493e-10
-1.517689091394815666e-10
-1.188066827595941004e-10
-9.211258276726605642e-11
-7.031840576946469217e-11
-5.260254540235737470e-11
-3.841572563967234091e-11
