# bin_19_10
-2.252396196974901154e-23
-2.536979089812571349e-23
-2.807899222827469714e-23
-3.040887707619604205e-23
-3.204458662500195391e-23
-3.263406610782007229e-23
-3.186232953801879111e-23
-2.938486569269562132e-23
-2.562725060545822761e-23
-2.121720826658113638e-23
-1.739299241804864578e-23
-1.484882735775443253e-23
-1.274312703485895789e-23
-9.607408449017625630e-24
-6.692205789122864167e-24
-5.452859953387862400e-24
-3.667778407311077175e-24
-2.775356961976732358e-24
-1.883487506373682202e-24
-1.311590536858706965e-24
-9.200518838079897206e-25
-6.453735111015145811e-25
-4.549645828536415508e-25
-3.244263372252134129e-25
-2.358634077190204464e-25
-1.748420014881156609e-25
-1.319788674323433707e-25
-1.011196128949622151e-25
-7.814197499675014958e-26
-6.046677912259751849e-26
-4.651055622422370921e-26
