# bin_3_7
-1.152643081942690895e-13
-1.229542871459193887e-13
-1.271920865845674654e-13
-1.268848614021213921e-13
-1.203050887490138068e-13
-1.077325249994214859e-13
-9.121089753239198202e-14
-7.465308982956212223e-14
-6.217679644329482190e-14
-5.376999778598638583e-14
-4.390446893694881960e-14
-3.098348507000690075e-14
-2.357079392025228072e-14
-1.814618608433816922e-14
-1.266750635301902481e-14
-9.305590178308706455e-15
-6.803288252986791150e-15
-4.921496410959776156e-15
-3.608527128227715913e-15
-2.693050679892503625e-15
-2.047339528409260347e-15
-1.583291931840074252e-15
-1.241541426665005320e-15
-9.807585437885956624e-16
-7.751311327360770077e-16
-6.086345789382768953e-16
-4.716439621487108560e-16
-3.586938184972389273e-16
-2.665162378800373175e-16
-1.928426362703067711e-16
-1.357393891827031975e-16
