# bin_20_2
-1.798207540484640870e-83
-2.018312665609348366e-83
-2.224422938768713337e-83
-2.396465589112559218e-83
-2.508888584607346698e-83
-2.536433866376706632e-83
-2.449333026525946567e-83
-2.232150798451795647e-83
-1.923520593753749668e-83
-1.582777506674265085e-83
-1.303795952434680196e-83
-1.122171566087443701e-83
-9.483364340092557509e-84
-6.914941304095289673e-84
-4.951105108299164363e-84
-4.003264284993608409e-84
-2.653174493640939233e-84
-2.009756705868171670e-84
-1.393321663784764404e-84
-9.659214984985165325e-85
-6.785175858122111150e-85
-4.774521975059273022e-85
-3.397708000343902444e-85
-2.452991346903704820e-85
-1.806787763605433323e-85
-1.355968616723892740e-85
-1.034362417983939889e-85
-7.982652080719842515e-86
-6.189376847035135014e-86
-4.786325841781995670e-86
-3.666294426427747548e-86
