# bin_1_1
-1.867063277823671692e-07
-1.805045892177994929e-07
-1.650956634069230518e-07
-1.429079505743266422e-07
-1.181293812069392720e-07
-9.722374320851313951e-08
-8.295509805834871374e-08
-7.008109278720014812e-08
-5.257489445306577244e-08
-3.788059455223301293e-08
-3.018845533351855612e-08
-2.139279582563917394e-08
-1.612939874869721594e-08
-1.171573087787204419e-08
-8.718342229939460421e-09
-6.575924957739827765e-09
-5.047383984559167188e-09
-3.947559768816989421e-09
-3.134880018932591166e-09
-2.514919283497024259e-09
-2.022658666692607028e-09
-1.618519379731453167e-09
-1.279520500705372370e-09
-9.930528628356062834e-10
-7.528280681483236903e-10
-5.555346858545170996e-10
-3.985528203329845886e-10
-2.781930531612316887e-10
-1.893861461192603575e-10
-1.261474281834956857e-10
-8.249279462308748509e-11
