# bin_12_15
-4.813209120410811576e-10
-5.399775886275602782e-10
-5.947732253464996502e-10
-6.403125243321109156e-10
-6.697404798016599492e-10
-6.763995914018100538e-10
-6.521773328006438327e-10
-5.934188347332168661e-10
-5.105506212720051874e-10
-4.198279675204613777e-10
-3.461273519062270262e-10
-2.981858560022699568e-10
-2.513446144955281512e-10
-1.824943744564007928e-10
-1.313204839734672126e-10
-1.058151229740158127e-10
-7.020627374462850078e-11
-5.304742067386995995e-11
-3.688607214498617133e-11
-2.558532240653604521e-11
-1.797108757868207063e-11
-1.265332041745375677e-11
-9.016438247777262800e-12
-6.520427494496815131e-12
-4.810815019069486844e-12
-3.616026378707073548e-12
-2.761855713307530283e-12
-2.133152766038263488e-12
-1.654416113291913870e-12
-1.279098534051666826e-12
-9.791421546236948983e-13
