# bin_13_19
-1.977670853209547934e-14
-2.233994701634856108e-14
-2.481113359650444518e-14
-2.698420255496975870e-14
-2.858639417133008131e-14
-2.929139654258300047e-14
-2.884944642355907543e-14
-2.688308316685949111e-14
-2.367872996811595374e-14
-1.974005359539311809e-14
-1.615011048892523377e-14
-1.367361549594158747e-14
-1.182009088845573199e-14
-9.177775882090503253e-15
-6.334972939896274192e-15
-5.088857235725724548e-15
-3.564220946766750228e-15
-2.621072030094887976e-15
-1.767498453412504901e-15
-1.253902777544416829e-15
-8.722512084704033420e-16
-6.060904474945384911e-16
-4.238840395274507320e-16
-2.992713938130393295e-16
-2.150429495183130520e-16
-1.575685834540683452e-16
-1.176924901460850004e-16
-8.944881845113409973e-17
-6.879648411119798181e-17
-5.317815802412798098e-17
-4.100195760108024784e-17
