# bin_6_14
-2.847542181497926574e-24
-3.158766256959926574e-24
-3.431566941698487877e-24
-3.631315639402397815e-24
-3.716918842491483154e-24
-3.656317424600034664e-24
-3.402790480942893946e-24
-2.993790321405886388e-24
-2.493849304887852323e-24
-2.040099599749146446e-24
-1.727609774033881568e-24
-1.491870615815360360e-24
-1.156561546473881889e-24
-8.005605174052859117e-25
-6.442177664417954258e-25
-4.528080338507641109e-25
-3.354945657753108950e-25
-2.297860504357172696e-25
-1.653322621531693336e-25
-1.176103402379861391e-25
-8.406936924210286505e-26
-6.082514380467822657e-26
-4.465368150195391167e-26
-3.342021845816534380e-26
-2.545839494636103732e-26
-1.965743661675837696e-26
-1.530352409859385919e-26
-1.192671190732502995e-26
-9.239497253963023238e-27
-7.069660213858357124e-27
-5.315763515299690519e-27
