# bin_16_17
-1.901880001236549539e-08
-2.149696450402093898e-08
-2.389253030754774360e-08
-2.600871800820155295e-08
-2.758406971181061193e-08
-2.830261498480265240e-08
-2.792689577704626316e-08
-2.608222664364410151e-08
-2.302156128054820276e-08
-1.922499742195978668e-08
-1.572530471085916393e-08
-1.328874764429558932e-08
-1.149810628084035355e-08
-8.986059759739019608e-09
-6.199250696116317010e-09
-4.955184406091558624e-09
-3.506997826439594653e-09
-2.556291459375331771e-09
-1.727756376499177510e-09
-1.230264312358419538e-09
-8.539770425416193755e-10
-5.917297825314713227e-10
-4.131011488761422770e-10
-2.910452928537261717e-10
-2.085802355409919713e-10
-1.524225963866805196e-10
-1.135615320948254641e-10
-8.613310232840665038e-11
-6.615894866395137660e-11
-5.111454617662731948e-11
-3.942392113384595241e-11
