# bin_19_20
-1.884653496934724476e-08
-2.141871034301649880e-08
-2.396774705151120229e-08
-2.630863766312325880e-08
-2.819317648137549721e-08
-2.930863274474117857e-08
-2.938941707132019392e-08
-2.803671859026812529e-08
-2.524099150015991033e-08
-2.147647956226308795e-08
-1.759761072267522731e-08
-1.461781867189363434e-08
-1.266182315960196569e-08
-1.044947774900348961e-08
-7.372772819640793631e-09
-5.507670551481611623e-09
-4.275204779167678952e-09
-2.875881154122340768e-09
-2.088557069000248883e-09
-1.465938293323465124e-09
-1.002122047769382865e-09
-6.846170146593897705e-10
-4.689082877361397566e-10
-3.237517700153002248e-10
-2.260334477194302046e-10
-1.606421798008840221e-10
-1.164050353439248175e-10
-8.613829092955594342e-11
-6.495874913787796334e-11
-4.967888315653623888e-11
-3.826156460516929461e-11
