# bin_4_18
-1.497839031774606847e-54
-1.675058389600677668e-54
-1.837898428885223198e-54
-1.969118719989056817e-54
-2.047008860366194472e-54
-2.052978662000463124e-54
-1.959505325490314397e-54
-1.765188544791628287e-54
-1.503019063110166865e-54
-1.231642325150724422e-54
-1.022069519101944673e-54
-8.845662487611964979e-55
-7.314863072067146663e-55
-5.180416409568564632e-55
-3.860198705338628753e-55
-3.016126495081858245e-55
-2.038131975013929564e-55
-1.499138169147797039e-55
-1.064043964468302284e-55
-7.421129293843458344e-56
-5.211930487589450233e-56
-3.692877471072804321e-56
-2.655071883542751752e-56
-1.940837376993580809e-56
-1.447061042538076493e-56
-1.097898689066641970e-56
-8.447177787526568390e-57
-6.552375312289068464e-57
-5.087191398465158801e-57
-3.925086176478734793e-57
-2.990756622143114879e-57
