# bin_10_9
-2.212647054245133768e-08
-2.443582277271922374e-08
-2.640126613176040670e-08
-2.774789925769988008e-08
-2.818048759671755688e-08
-2.740869203968744937e-08
-2.517577747106583772e-08
-2.186990004519872810e-08
-1.806695936723223518e-08
-1.482546067141332296e-08
-1.268236584982802650e-08
-1.083378051145939205e-08
-8.095761654328480097e-09
-5.691857850662922360e-09
-4.639594020617227926e-09
-3.127245717279354049e-09
-2.384141650862091882e-09
-1.650780911959150895e-09
-1.168390187615598276e-09
-8.380810434543857979e-10
-6.046863029298900321e-10
-4.415578256932775484e-10
-3.275987735838801381e-10
-2.478212966400047379e-10
-1.904899076839074609e-10
-1.480522296332808006e-10
-1.156488764594463883e-10
-9.013080197660308082e-11
-6.961166638736216489e-11
-5.296633904363728525e-11
-3.952053342779491060e-11
