# bin_6_18
-5.505872433006961739e-40
-6.167283744459270315e-40
-6.780260780078448211e-40
-7.282270467318583119e-40
-7.594280344498668011e-40
-7.643932925067324272e-40
-7.333725494409237435e-40
-6.639649230774472895e-40
-5.683042043546021323e-40
-4.664066170741652415e-40
-3.856866458441015956e-40
-3.331581835384409036e-40
-2.783336251815848776e-40
-1.994453524274785517e-40
-1.459804189384455283e-40
-1.160444192049002996e-40
-7.750721877737956806e-41
-5.792458906803583990e-41
-4.067616108228639486e-41
-2.828198529150558244e-41
-1.986035580704925287e-41
-1.401922191357339289e-41
-1.003328698485975406e-41
-7.294944703775695808e-42
-5.410875918193361314e-42
-4.086587547905636614e-42
-3.133219549357680798e-42
-2.425630311196956794e-42
-1.882576249139796040e-42
-1.454230070743427134e-42
-1.110757791538932152e-42
