# bin_11_1
-2.716048430787173839e-43
-2.949143402663524057e-43
-3.119972831106754640e-43
-3.193466975966638567e-43
-3.142068672679256406e-43
-2.925829836882690397e-43
-2.575677481182787467e-43
-2.147005418880029798e-43
-1.756017800876057562e-43
-1.485006753389126838e-43
-1.281771164045794695e-43
-9.975356566254041126e-44
-6.927710079876024428e-44
-5.558087141074666025e-44
-3.954821277514145497e-44
-2.928748100371016123e-44
-2.039194649332777646e-44
-1.487237192633998794e-44
-1.075629136102291890e-44
-7.847921385455998749e-45
-5.817217356323607753e-45
-4.383994829875846770e-45
-3.364186955295729058e-45
-2.618627515733615887e-45
-2.055255853511340615e-45
-1.615903423368084580e-45
-1.263626633657577398e-45
-9.764070103630108152e-46
-7.413567349544615143e-46
-5.506362273509806031e-46
-3.987547355694039136e-46
