# bin_2_1
-5.581627652153438873e-08
-5.520526100052415209e-08
-5.183134646174683635e-08
-4.601367783341031214e-08
-3.869352996219653376e-08
-3.168308163896325030e-08
-2.655344109614589712e-08
-2.286753604134380821e-08
-1.828134051250334225e-08
-1.294834634850394122e-08
-1.004238133230899377e-08
-7.546572857880190705e-09
-5.449987675961971967e-09
-4.000487215011463697e-09
-2.968411488848455719e-09
-2.207497401636420170e-09
-1.670836598449546250e-09
-1.289499043338392806e-09
-1.012939230892685771e-09
-8.065257850070870208e-10
-6.467672565365656442e-10
-5.183559549759970071e-10
-4.121655785584230174e-10
-3.229608721284626238e-10
-2.479211995334384204e-10
-1.856034369231115176e-10
-1.351624435617817001e-10
-9.569043171543695606e-11
-6.596944761023562055e-11
-4.441144167132493771e-11
-2.929656481699268011e-11
