# bin_2_4
-2.248840694642239169e-09
-2.319461751770932802e-09
-2.305983919643301130e-09
-2.177737850373743471e-09
-1.943353178471980703e-09
-1.640522664257241253e-09
-1.342587252985928002e-09
-1.120939203296471711e-09
-9.681241113627797178e-10
-7.839097106966885133e-10
-5.536137677012103353e-10
-4.251613035078396187e-10
-3.240543348942202045e-10
-2.299286673754082573e-10
-1.687758538252355633e-10
-1.244684975369960014e-10
-9.133870780139222434e-11
-6.809856025163524269e-11
-5.174882010133888520e-11
-4.005579636110474477e-11
-3.149169898007451578e-11
-2.502016191748088965e-11
-1.994238322517104497e-11
-1.583090785067368450e-11
-1.242989485798814137e-11
-9.592262462790832716e-12
-7.237867681220331974e-12
-5.320370359085753138e-12
-3.802498817117088853e-12
-2.643975765206775067e-12
-1.792478276552575061e-12
