# bin_19_7
-6.622192132823930316e-38
-7.438922997255418478e-38
-8.206848350440981154e-38
-8.852601318931070527e-38
-9.282444359839409941e-38
-9.400844603711693803e-38
-9.102004417335570051e-38
-8.317772220985229952e-38
-7.187812986319290965e-38
-5.921949467796301147e-38
-4.871297121388414414e-38
-4.185465345354488268e-38
-3.552131542876343558e-38
-2.609964544840495640e-38
-1.853425167450617832e-38
-1.505831602037927493e-38
-9.976233396492834592e-39
-7.579702712559942505e-39
-5.227895521395725899e-39
-3.622172397571990505e-39
-2.544766079627383715e-39
-1.789345041415330034e-39
-1.270493663448664387e-39
-9.145597260705632611e-40
-6.716357654149369165e-40
-5.026692658689834805e-40
-3.825764324431575211e-40
-2.948146165803694579e-40
-2.284530269266726589e-40
-1.767215139946112200e-40
-1.355151833972135737e-40
