# bin_9_11
-3.724854729312387704e-09
-4.124417321301156515e-09
-4.470559162602733619e-09
-4.717575772937764758e-09
-4.813062627219134022e-09
-4.712828815247517610e-09
-4.362064083215268109e-09
-3.817803689058677032e-09
-3.168325816882352496e-09
-2.594304966693969648e-09
-2.206662399661859989e-09
-1.898861460721280490e-09
-1.449492524545564450e-09
-1.007577797225177213e-09
-8.176677570087528599e-10
-5.626722604031117049e-10
-4.236992133326016463e-10
-2.905711187611504520e-10
-2.073574514298535080e-10
-1.481662251738897040e-10
-1.064466353532320041e-10
-7.731401921713598597e-11
-5.700422536929951459e-11
-4.285791948539379875e-11
-3.277481014056466726e-11
-2.538011441764174490e-11
-1.978990171385341258e-11
-1.542558320644253661e-11
-1.193641181752386273e-11
-9.112751447424230607e-12
-6.830513801651729348e-12
