# bin_5_20
-5.436959070199950854e-56
-6.110818619102122438e-56
-6.746061147024621774e-56
-7.282763554197515181e-56
-7.644159960351638943e-56
-7.750438355289803757e-56
-7.516967600572156716e-56
-6.881851532670859060e-56
-5.957973046783655263e-56
-4.913088146948060003e-56
-4.038062218626429597e-56
-3.465345523370819914e-56
-2.948552518328419242e-56
-2.177652141478730780e-56
-1.538969328951634713e-56
-1.252919874435632763e-56
-8.310237603934343281e-57
-6.319044421354598263e-57
-4.343586508871633344e-57
-3.009744123819775234e-57
-2.114524126837670968e-57
-1.486298981998243660e-57
-1.053783554709257023e-57
-7.571056166559620817e-58
-5.548999637556307979e-58
-4.145286596616789930e-58
-3.150001831511328567e-58
-2.424847960545200360e-58
-1.878171078572471986e-58
-1.453088440829856315e-58
-1.115024606225297109e-58
