# bin_11_5
-1.843934444886525961e-18
-2.021738707764400377e-18
-2.164906175458188405e-18
-2.249675095532952982e-18
-2.255678209037812101e-18
-2.152942917872671572e-18
-1.939709162473481201e-18
-1.652053698503225687e-18
-1.353785966262330924e-18
-1.122705892065659677e-18
-9.707347633057480375e-19
-8.033815961898225362e-19
-5.710647681971154324e-19
-4.253421878374110570e-19
-3.338179793143264406e-19
-2.272952779127336455e-19
-1.688443226354750278e-19
-1.211513808580773791e-19
-8.602052421117470457e-20
-6.181413992723375075e-20
-4.499261028984295657e-20
-3.332690938171254197e-20
-2.512764786064030373e-20
-1.928359358893491354e-20
-1.498945921626127016e-20
-1.173351165290025091e-20
-9.186576173780652689e-21
-7.142611919015240520e-21
-5.480851300470189704e-21
-4.129240083595986041e-21
-3.041917712437105648e-21
