# bin_19_19
-1.403075729355276845e-11
-1.590817803715250523e-11
-1.774957737173549221e-11
-1.941501674117047699e-11
-2.071653931163606892e-11
-2.141921469025770046e-11
-2.134290167235405240e-11
-2.018622240845902739e-11
-1.802814277144188537e-11
-1.521534191812705198e-11
-1.244690968675691367e-11
-1.040419023220907982e-11
-9.017642004975277196e-12
-7.298856841990735731e-12
-5.076851932045763325e-12
-3.901454954030339520e-12
-2.928561711886904042e-12
-2.023211775858681769e-12
-1.421252365166992639e-12
-1.012114683679518409e-12
-6.952852485466872274e-13
-4.757657742314265130e-13
-3.282312131594811020e-13
-2.283746863080737784e-13
-1.610484122979440685e-13
-1.157220936076282596e-13
-8.481177971864045367e-14
-6.342391682583541981e-14
-4.822724072468316247e-14
-3.707199621614078871e-14
-2.859580218049884502e-14
