# bin_10_10
-3.569290445974313713e-11
-3.939101183153796855e-11
-4.252606221911674728e-11
-4.465463463809235440e-11
-4.530677397862330906e-11
-4.400849219366557414e-11
-4.036983536519322265e-11
-3.502219215070321930e-11
-2.891127260126600775e-11
-2.373005285039953942e-11
-2.030673365150295682e-11
-1.731461870501247868e-11
-1.290124463230337222e-11
-9.095062603410306639e-12
-7.399035239626729037e-12
-4.987630052221136507e-12
-3.797133370763265243e-12
-2.633696682557807969e-12
-1.864187967594218855e-12
-1.336833842778413834e-12
-9.645732040668020060e-13
-7.047476339021984743e-13
-5.232336337664332277e-13
-3.960691709465054883e-13
-3.045928692357680324e-13
-2.368027002897704000e-13
-1.849781510866980565e-13
-1.441255471895248175e-13
-1.112578725547450270e-13
-8.459405852673084259e-14
-6.306391044705690469e-14
