# bin_9_18
-2.189739884834130593e-29
-2.458568628574623881e-29
-2.710878417286144748e-29
-2.922397800484411781e-29
-3.062173380713443567e-29
-3.098940715760593699e-29
-2.997532536771459769e-29
-2.736530108554382255e-29
-2.362392181753091177e-29
-1.945141381067969400e-29
-1.600145731704262101e-29
-1.375112953631476198e-29
-1.165497363652401282e-29
-8.544377270714715185e-30
-6.078344724002718150e-30
-4.932050514661687192e-30
-3.266247760489741342e-30
-2.479614237761328485e-30
-1.712094334913376120e-30
-1.186049582731763197e-30
-8.330497889656019987e-31
-5.857235194058568805e-31
-4.160378219022614743e-31
-2.996544310740037483e-31
-2.201967799335237740e-31
-1.648986752604694969e-31
-1.255650699698261918e-31
-9.679071758144957664e-32
-7.500925478868861417e-32
-5.801416356977918868e-32
-4.446940024167455222e-32
