# bin_7_11
-9.306246347042944811e-17
-1.024354733082181055e-16
-1.102300826555228461e-16
-1.152757198507867657e-16
-1.164244406650850209e-16
-1.123145687532392952e-16
-1.022730485761413197e-16
-8.806743375126920358e-17
-7.243353356827628152e-17
-5.964287917737088606e-17
-5.128852156816278736e-17
-4.329897207390589944e-17
-3.161300365818944557e-17
-2.269450469852210131e-17
-1.834357132602363839e-17
-1.228690509388183515e-17
-9.346736248880702810e-18
-6.565371206648893434e-18
-4.638277478610945217e-18
-3.330172572557640868e-18
-2.409143586098488333e-18
-1.769465722707049976e-18
-1.321802013602325271e-18
-1.006236840415103388e-18
-7.773549728612851364e-19
-6.061906595070014556e-19
-4.741037038717443725e-19
-3.691794816501978330e-19
-2.843632182406443496e-19
-2.154519639632902056e-19
-1.598723624096828062e-19
