# bin_10_12
-5.152332160892806200e-13
-5.721083494334034235e-13
-6.223105156315819986e-13
-6.596286300281242864e-13
-6.765733484642400655e-13
-6.674686343247994685e-13
-6.234515017095003977e-13
-5.503769345693895350e-13
-4.597288505922933714e-13
-3.758707531076171644e-13
-3.171741532578467764e-13
-2.742258509703136165e-13
-2.149301292144355623e-13
-1.486716334169590975e-13
-1.184990611065108747e-13
-8.474265183717571647e-14
-6.181711439438435558e-14
-4.254752018481732816e-14
-3.073790447851708859e-14
-2.178205012089923496e-14
-1.549892262282582138e-14
-1.117776536543704653e-14
-8.178715592850631424e-15
-6.099007950464969658e-15
-4.631248350012547591e-15
-3.567099706169113925e-15
-2.772759759747778843e-15
-2.159889563120312646e-15
-1.674063183277491299e-15
-1.282616163549888101e-15
-9.663357460713080332e-16
