# bin_9_4
-1.099836611799443321e-09
-1.153414110903118231e-09
-1.169319729715417493e-09
-1.135287642224779958e-09
-1.042177572830467655e-09
-9.049347361997796698e-10
-7.484958399462667896e-10
-6.147361699797059386e-10
-5.242411683352219673e-10
-4.455921377226807616e-10
-3.353252618227826918e-10
-2.387771604321270526e-10
-1.915797493084935485e-10
-1.339469105344285983e-10
-1.008493089605629893e-10
-7.186360993555597505e-11
-5.253004032878726742e-11
-3.874933171427123787e-11
-2.897257751161359590e-11
-2.205057934432812025e-11
-1.706882085078291519e-11
-1.340991064850216547e-11
-1.062546456392136453e-11
-8.431246609985536242e-12
-6.652672403954013738e-12
-5.184543137986550457e-12
-3.967191452452548724e-12
-2.966491983990837461e-12
-2.160465700388622542e-12
-1.530444513030535863e-12
-1.055318500865678775e-12
