# bin_7_13
-7.617468837291857179e-22
-8.435531239240501878e-22
-9.145340989736630317e-22
-9.653790734651184817e-22
-9.853312271197907849e-22
-9.655151043003377830e-22
-8.944615775839023087e-22
-7.835311389812169485e-22
-6.505584432960156708e-22
-5.324081290752483238e-22
-4.523064121861876432e-22
-3.894664796869233319e-22
-2.982189269790688114e-22
-2.069869246799060155e-22
-1.677015593381731442e-22
-1.158551758762524425e-22
-8.696339458943752909e-23
-5.957565386186828404e-23
-4.257842977725327766e-23
-3.039129231993496821e-23
-2.180845803257066271e-23
-1.582368257555299848e-23
-1.165387645368766604e-23
-8.751974534921442328e-24
-6.686495618435215944e-24
-5.174097074184268017e-24
-4.032667144157995294e-24
-3.142868239744055316e-24
-2.432240295057165436e-24
-1.857470188205785204e-24
-1.392963430653428713e-24
