# bin_16_4
-1.675754241623701564e-09
-1.758321763983271661e-09
-1.783666263963299618e-09
-1.733271904884027892e-09
-1.592668104663572594e-09
-1.384256272914622034e-09
-1.145600668096142015e-09
-9.405838721525813578e-10
-8.015956460348236674e-10
-6.820255957881650809e-10
-5.145490538042037960e-10
-3.658644093158358814e-10
-2.934825472808760086e-10
-2.055622134816487012e-10
-1.545938410204204980e-10
-1.101167743374383553e-10
-8.051486897792863824e-11
-5.936450369039898032e-11
-4.436076246034978227e-11
-3.374269677106600792e-11
-2.610519390906701305e-11
-2.050026793265581412e-11
-1.623928435388427126e-11
-1.288474870567637313e-11
-1.016776237468764606e-11
-7.926105299112596108e-12
-6.067606486549080583e-12
-4.539567932900291995e-12
-3.308193835922367912e-12
-2.344987381366306108e-12
-1.617969541504550535e-12
