# bin_7_4
-7.894251441571522927e-10
-8.273775020400475447e-10
-8.381957897833540798e-10
-8.129828482638509790e-10
-7.454713501338357836e-10
-6.465876704952718060e-10
-5.344624313692690866e-10
-4.391092635954386654e-10
-3.747513080758459261e-10
-3.181580982913854767e-10
-2.387264867117522754e-10
-1.702791808648309505e-10
-1.366557098418575570e-10
-9.534743222815496283e-11
-7.188184606994270343e-11
-5.124576990842517866e-11
-3.744666247450852922e-11
-2.763807810150878695e-11
-2.067858552620592602e-11
-1.574870810292235273e-11
-1.219835336971377380e-11
-9.588314936454816490e-12
-7.599699700406993307e-12
-6.030875369202049155e-12
-4.758091296013204237e-12
-3.706882123580906297e-12
-2.835099353783599584e-12
-2.118627934685440671e-12
-1.541857863025540835e-12
-1.091418577800982586e-12
-7.520584569666546069e-13
