# bin_11_16
-9.686801272179272429e-18
-1.086183801166921126e-17
-1.195749583530556928e-17
-1.286515999893541006e-17
-1.344706255298278160e-17
-1.357062259928317683e-17
-1.307199805073825351e-17
-1.188257805843198439e-17
-1.021301164689123697e-17
-8.393358424897982599e-18
-6.920669275251025115e-18
-5.962910998852863056e-18
-5.019067322973452402e-18
-3.636341795334580221e-18
-2.621943232278339876e-18
-2.108815064660337539e-18
-1.399592572515835770e-18
-1.056027284996597441e-18
-7.350881260583964016e-19
-5.098919644723520525e-19
-3.580436651718021542e-19
-2.521022308939108835e-19
-1.797056751674020551e-19
-1.300270474854070242e-19
-9.598815544257166295e-20
-7.218652495376155447e-20
-5.515776290965798714e-20
-4.261163271374557915e-20
-3.304880780925925817e-20
-2.554587829946746994e-20
-1.954694249079732523e-20
