# bin_15_6
-9.882588087023477278e-10
-1.063688035478125809e-09
-1.113078529119308157e-09
-1.125244867190636265e-09
-1.087600745238500942e-09
-9.929840025237421636e-10
-8.574439809213351027e-10
-7.066563789380550057e-10
-5.813934948588897629e-10
-4.982670394956634562e-10
-4.214296297960576040e-10
-3.114059641567188121e-10
-2.231058969233680968e-10
-1.796672005544186045e-10
-1.228794247346851700e-10
-9.313407968091267039e-11
-6.591312047086293455e-11
-4.745625326380177077e-11
-3.462426849493120946e-11
-2.555214807952463759e-11
-1.917072681313216715e-11
-1.463073822639155458e-11
-1.135343534575204535e-11
-8.907993996165131084e-12
-7.020895979810182693e-12
-5.520538332025310035e-12
-4.300377644714727613e-12
-3.298740266997698744e-12
-2.479143361760106934e-12
-1.818286871638162430e-12
-1.298486324402324599e-12
