# bin_1_19
-2.604644877386713483e-94
-2.913898308472008649e-94
-3.198831182625534737e-94
-3.429674093537341162e-94
-3.568921083837431153e-94
-3.583596428938553096e-94
-3.426692896249238063e-94
-3.092277269823491367e-94
-2.637833016308606221e-94
-2.162204716920105707e-94
-1.791139759894241578e-94
-1.548666211384874095e-94
-1.285823927509562969e-94
-9.146191775344785837e-95
-6.763687482655925560e-95
-5.322251000074923680e-95
-3.577087708444549047e-95
-2.648645267954924849e-95
-1.871209586563689061e-95
-1.303059383452654440e-95
-9.148466030467090920e-96
-6.470201655802244639e-96
-4.642196911159630236e-96
-3.385399091083870531e-96
-2.518433590768056775e-96
-1.907013250097048701e-96
-1.465044619394999184e-96
-1.135431447989724097e-96
-8.813432418421312845e-97
-6.802676176639602404e-97
-5.187800459256144638e-97
