# bin_17_13
-1.908067019123725256e-10
-2.135227066281003415e-10
-2.344846780470308789e-10
-2.515170747629097439e-10
-2.618759401938442321e-10
-2.631199176368153753e-10
-2.518478700850326028e-10
-2.275109875782618611e-10
-1.942941645956761351e-10
-1.593449251664820492e-10
-1.319275938635048567e-10
-1.139793921839315206e-10
-9.479002335009860771e-11
-6.765409464845272354e-11
-4.984482438503900294e-11
-3.931753076023987965e-11
-2.640929562294092336e-11
-1.958900946065383309e-11
-1.380726211048318451e-11
-9.610730254231458102e-12
-6.748871899172878342e-12
-4.771115119363529897e-12
-3.419845810380906068e-12
-2.490962073316692812e-12
-1.850842754306577918e-12
-1.399977684889055425e-12
-1.074563937573877436e-12
-8.323213948590823198e-13
-6.459113281837628225e-13
-4.985998996981848558e-13
-3.803889357120685943e-13
