# bin_19_16
-1.042559215847378925e-10
-1.176091872510901296e-10
-1.304153363817107877e-10
-1.415759105643087869e-10
-1.496490146700854249e-10
-1.529511941374776539e-10
-1.501238994120182523e-10
-1.393265322669862041e-10
-1.222486975492510886e-10
-1.016267806575665087e-10
-8.317678207369529880e-11
-7.061668532820356974e-11
-6.087819704202695345e-11
-4.676083570279404450e-11
-3.236312506039960993e-11
-2.613374340703344286e-11
-1.802771538130840732e-11
-1.339851993724078965e-11
-9.048105678485591913e-12
-6.372612645520434654e-12
-4.445881391548063619e-12
-3.099695604448695771e-12
-2.173362312989250738e-12
-1.539425115287301235e-12
-1.110534935512718104e-12
-8.169620828177718882e-13
-6.124473314436753283e-13
-4.667861949575986712e-13
-3.596008803584071465e-13
-2.780495081856837453e-13
-2.141778116975456725e-13
