# bin_17_7
-8.690264680969232853e-10
-9.437725663205360382e-10
-9.987432840600825894e-10
-1.022829544101722607e-09
-1.007040919660712053e-09
-9.388408663475192626e-10
-8.273899853358675981e-10
-6.906323895154993455e-10
-5.649596611605714326e-10
-4.769787579363017266e-10
-4.112814294158037558e-10
-3.213946818499001318e-10
-2.239568470966798525e-10
-1.782282064846477313e-10
-1.279856931901181618e-10
-9.387949305899903320e-11
-6.591884244633933730e-11
-4.798695813419861178e-11
-3.463629303629540750e-11
-2.522385766973577027e-11
-1.866824580220975863e-11
-1.405079645092705645e-11
-1.076758758321425687e-11
-8.371791949206465332e-12
-6.565043377493348946e-12
-5.158813871795733460e-12
-4.033316463157077868e-12
-3.116841917712234847e-12
-2.367412588862962001e-12
-1.759493445560862320e-12
-1.275312692468243135e-12
