# bin_17_5
-1.366043130331059451e-09
-1.454108511385657018e-09
-1.500535270825951931e-09
-1.492200123433348163e-09
-1.409654085013152054e-09
-1.258185388218016918e-09
-1.062439674205064959e-09
-8.696696782937784567e-10
-7.261057854341418449e-10
-6.268294735538091506e-10
-5.071892275688408708e-10
-3.582344067279517005e-10
-2.744320706572374110e-10
-2.085194889318728134e-10
-1.472985206408533424e-10
-1.075264452930726102e-10
-7.848575356837032886e-11
-5.691263661829307721e-11
-4.183689565638467504e-11
-3.128348232622748477e-11
-2.381848058755552979e-11
-1.844458686063324811e-11
-1.447535019057045022e-11
-1.143762943279858336e-11
-9.036239617374958703e-12
-7.088404563592259057e-12
-5.484880009393021527e-12
-4.163486396816370447e-12
-3.086872709350686829e-12
-2.228631662496900614e-12
-1.565452763150522963e-12
