# bin_10_13
-2.151612325334787683e-14
-2.394921425915977570e-14
-2.612839295552104382e-14
-2.779805857600863655e-14
-2.864229092611889355e-14
-2.842465091334342360e-14
-2.674897634970860988e-14
-2.377876416143569757e-14
-1.998349560253897309e-14
-1.633777823176017323e-14
-1.370215329824746957e-14
-1.186724780136300581e-14
-9.493591836587541723e-15
-6.585527134582261140e-15
-5.140936502934202957e-15
-3.799300192492734978e-15
-2.690420601012581003e-15
-1.883824142282641166e-15
-1.363850095671373136e-15
-9.603972680061689367e-16
-6.784245230924110336e-16
-4.863403021205210008e-16
-3.537271326400772959e-16
-2.620054828386784639e-16
-1.977591137231335617e-16
-1.515936472382398767e-16
-1.174815551806204318e-16
-9.142696118641662132e-17
-7.093284412345369857e-17
-5.449366676372410474e-17
-4.122318891198622058e-17
