# bin_9_20
-4.630922987749699660e-36
-5.217232006830019928e-36
-5.776279607769223057e-36
-6.258533210342517716e-36
-6.599556008903122267e-36
-6.726281819839771980e-36
-6.575754673879292697e-36
-6.073798059548846669e-36
-5.305097693036392867e-36
-4.395780316415134003e-36
-3.600762597557422373e-36
-3.068945850098426099e-36
-2.637444551049778359e-36
-1.998181342008937156e-36
-1.388121274447735843e-36
-1.129154607897333954e-36
-7.636972983290699784e-37
-5.758184134478990910e-37
-3.896659187442845116e-37
-2.719921367757806168e-37
-1.905529890108014030e-37
-1.334885829317234420e-37
-9.394738242250998805e-38
-6.685316600179169488e-38
-4.849267864991435463e-38
-3.586799657622601981e-38
-2.702234918104447137e-38
-2.067415253105516879e-38
-1.596315244046734398e-38
-1.235017867284635483e-38
-9.503462592872212617e-39
