# bin_20_8
-8.055612261710743713e-10
-8.812950390706953356e-10
-9.411925821926310683e-10
-9.748323646657891738e-10
-9.736543052557242207e-10
-9.246282415243364548e-10
-8.291710111799218515e-10
-7.030136007045028466e-10
-5.755970347414332497e-10
-4.789727308971111988e-10
-4.140965598788367309e-10
-3.388885576954530495e-10
-2.393907915555831845e-10
-1.809588695362875585e-10
-1.394602274571068930e-10
-9.641406397898324049e-11
-7.053118810020113272e-11
-5.090027412881081050e-11
-3.625227307449371249e-11
-2.610008671057420260e-11
-1.906295823140627552e-11
-1.416490156445415083e-11
-1.071486796419197815e-11
-8.244824252767032272e-12
-6.420590437459587763e-12
-5.030061507012822827e-12
-3.937074952447679469e-12
-3.057147817102261781e-12
-2.340813386136280816e-12
-1.758484709438393607e-12
-1.290994271709125324e-12
