# bin_1_12
-5.367479250721070947e-54
-5.853995466088186367e-54
-6.227781003922547498e-54
-6.418552908799260080e-54
-6.373150885399676451e-54
-6.003333101695580373e-54
-5.342098050865761379e-54
-4.494266494464048456e-54
-3.674085289373671401e-54
-3.076401988478256948e-54
-2.662959090671725039e-54
-2.139022406614824952e-54
-1.490254129953094201e-54
-1.158608401980728075e-54
-8.658120654907840240e-55
-6.137535082762447123e-55
-4.372036913451543115e-55
-3.196349139842875590e-55
-2.289135181544345055e-55
-1.652981955309201221e-55
-1.214723346949173900e-55
-9.080406567285426704e-56
-6.911504876552286877e-56
-5.345476511342440474e-56
-4.177889638017045359e-56
-3.279246500790125835e-56
-2.566635956842019232e-56
-1.989501405038894573e-56
-1.518338369907799561e-56
-1.135426492693519857e-56
-8.288928748242809856e-57
