# bin_10_15
-4.873054429914724235e-18
-5.447164428770987263e-18
-5.973798474427290060e-18
-6.396885065163827952e-18
-6.645895655362655574e-18
-6.660940672115598999e-18
-6.352617404356469616e-18
-5.718299736079843244e-18
-4.865237195816915430e-18
-3.985237102109432798e-18
-3.307427309960534328e-18
-2.862012802950982677e-18
-2.363577715907917631e-18
-1.671848593094583072e-18
-1.247604406924887478e-18
-9.727989167599550723e-19
-6.581184680441569546e-19
-4.831080918868824323e-19
-3.431595310226830644e-19
-2.393532633907277286e-19
-1.680714335717028650e-19
-1.191073340461394382e-19
-8.565321167987598590e-20
-6.263040352773127543e-20
-4.671028725922554024e-20
-3.544866905362251943e-20
-2.727869753098025995e-20
-2.116051161340700363e-20
-1.642686224921024108e-20
-1.267094326752611880e-20
-9.650863730724426904e-21
