# bin_16_15
-4.799819089100137514e-11
-5.398096365044288042e-11
-5.964080987256304526e-11
-6.445456765017268641e-11
-6.774898424889451714e-11
-6.880220438860718035e-11
-6.690334926932181066e-11
-6.142913052550350368e-11
-5.333831454146265410e-11
-4.404878786284902512e-11
-3.615218448129638341e-11
-3.094537263950821212e-11
-2.642231378319629650e-11
-1.968840936119528510e-11
-1.382174077020614713e-11
-1.125316213956590146e-11
-7.509292522569925566e-12
-5.695837548888061544e-12
-3.892060846191305398e-12
-2.702145688832014117e-12
-1.896699550923021612e-12
-1.331724779222066802e-12
-9.416130017581723703e-13
-6.741459333901046464e-13
-4.922637656871059134e-13
-3.664475071690250174e-13
-2.776242470618170656e-13
-2.132565558431115513e-13
-1.649980063802583928e-13
-1.276509327191066939e-13
-9.804263752624623498e-14
