# bin_20_15
-1.780760761467192002e-10
-2.004321968229143775e-10
-2.216588571238871178e-10
-2.398317282165601265e-10
-2.524621087333301238e-10
-2.568145756286216200e-10
-2.503451947869681300e-10
-2.305038193376294768e-10
-2.006987979009836694e-10
-1.660139150303917226e-10
-1.361352127432359037e-10
-1.162881103840407145e-10
-9.957945580375102766e-11
-7.479248428967941982e-11
-5.226251502760368275e-11
-4.251135673745811313e-11
-2.857139089697672232e-11
-2.159266748528541181e-11
-1.469364280876731557e-11
-1.023180347305984754e-11
-7.173647861988080023e-12
-5.029970319173005347e-12
-3.548679369288505100e-12
-2.533437996231099581e-12
-1.844137088599305051e-12
-1.368666875689613850e-12
-1.034186873444731693e-12
-7.929006866246180192e-13
-6.128659242026228938e-13
-4.741281377473699732e-13
-3.644589654209292343e-13
