# bin_9_1
-3.017198518014775946e-09
-2.909358935392892059e-09
-2.656493288097749050e-09
-2.296791866531723656e-09
-1.901314341920302502e-09
-1.568530003494965226e-09
-1.335160926298950723e-09
-1.119497723298516580e-09
-8.425031459133059195e-10
-6.128358936540427676e-10
-4.805029905001269714e-10
-3.459197347100376669e-10
-2.575571408428855320e-10
-1.883610810218381950e-10
-1.402425967400046402e-10
-1.057308296341048314e-10
-8.116003500252102186e-11
-6.347176287257239190e-11
-5.039537451251476823e-11
-4.040699465784194476e-11
-3.247362407839910268e-11
-2.596130600703027375e-11
-2.050256724456743718e-11
-1.589597288712208693e-11
-1.203957240657556397e-11
-8.878438814677119180e-12
-6.367064699070345947e-12
-4.443555515270405520e-12
-3.025023695733486900e-12
-2.015054817457066353e-12
-1.317846516518754911e-12
