# bin_9_9
-4.142695116037644961e-11
-4.546797315777785690e-11
-4.875308648230833317e-11
-5.075343797101173324e-11
-5.099550016248381651e-11
-4.882845162627843484e-11
-4.413222928785600437e-11
-3.771250270640280309e-11
-3.093300372450621649e-11
-2.558818503526241041e-11
-2.208319792232244853e-11
-1.839234870543913514e-11
-1.318459816949132199e-11
-9.699441796495743389e-12
-7.688959278858475218e-12
-5.202541273638767363e-12
-3.897309370472660494e-12
-2.776252085335703337e-12
-1.967333329519166537e-12
-1.413210258833499865e-12
-1.026348512711846805e-12
-7.580719804338196705e-13
-5.698158664960251491e-13
-4.361361865468241069e-13
-3.383298817792828699e-13
-2.645023415072949762e-13
-2.070023616151600188e-13
-1.610074922897873944e-13
-1.236825519897968140e-13
-9.333708186688350060e-14
-6.890899548941226329e-14
