# bin_9_13
-2.815918730026863912e-16
-3.129299695963244370e-16
-3.407287179988409276e-16
-3.616088327269795755e-16
-3.714532494696905813e-16
-3.671878505173526318e-16
-3.438208082032780624e-16
-3.042214013024278785e-16
-2.546011498308281631e-16
-2.081298209865086241e-16
-1.752715411008839205e-16
-1.516684471715313015e-16
-1.196938130828208717e-16
-8.279345145516609881e-17
-6.559849021642565011e-17
-4.741761273257389526e-17
-3.426574644718897390e-17
-2.367115851338575881e-17
-1.713771625463508887e-17
-1.211823359753910470e-17
-8.600454080031244535e-18
-6.190930793533949203e-18
-4.521035122700694689e-18
-3.364098414557946144e-18
-2.549624063923759694e-18
-1.960855245381958945e-18
-1.522825603507698133e-18
-1.185954361320510778e-18
-9.195581383722397911e-19
-7.051970570622430175e-19
-5.320299152693514393e-19
