# bin_14_15
-4.919354625012116782e-12
-5.524651941410678704e-12
-6.093430377623153333e-12
-6.571297275442336975e-12
-6.888792410242920116e-12
-6.975102903377515860e-12
-6.752221226844379698e-12
-6.169636822708369761e-12
-5.330819603601824560e-12
-4.391292225317800564e-12
-3.611159907447965412e-12
-3.101412609933527658e-12
-2.631599991545070117e-12
-1.934179567764154289e-12
-1.373070388675307678e-12
-1.114676572557680472e-12
-7.390665318785844804e-13
-5.609927171619470854e-13
-3.867118086463816728e-13
-2.679582652799471506e-13
-1.882004351901800002e-13
-1.323112610283511435e-13
-9.391531683421974119e-14
-6.758099092716967821e-14
-4.961312123549348617e-14
-3.712012206709961937e-14
-2.824406914631346919e-14
-2.176015847606046339e-14
-1.685914775505839132e-14
-1.303982830709433640e-14
-9.998322462427652264e-15
