# bin_1_13
-7.481730944071867960e-60
-8.199306400789571798e-60
-8.775405834213585577e-60
-9.113727357779208296e-60
-9.132353101910108441e-60
-8.709806128200220473e-60
-7.841434178465415838e-60
-6.673595970721676871e-60
-5.466578387262547022e-60
-4.533751046331246159e-60
-3.919514031160746968e-60
-3.239847040603922592e-60
-2.300262832584218911e-60
-1.715582218816513267e-60
-1.343999247637094343e-60
-9.159944942772437553e-61
-6.793309380536470186e-61
-4.877681116133496780e-61
-3.463581061302179633e-61
-2.488674516882095391e-61
-1.811738300094317147e-61
-1.342267702654755417e-61
-1.012276983993037706e-61
-7.769958601259732745e-62
-6.040381191402944779e-62
-4.728315878090600516e-62
-3.701480719748198671e-62
-2.877176584494237766e-62
-2.206960821912418423e-62
-1.661930090174034678e-62
-1.223644621257370086e-62
