# bin_11_15
-6.999006403558556244e-16
-7.833919412846617996e-16
-8.605214466111912701e-16
-9.233224804736970999e-16
-9.617457302257322306e-16
-9.667731721837164259e-16
-9.259250426702029973e-16
-8.368716899794275134e-16
-7.150472612877445816e-16
-5.864125722849309065e-16
-4.852566863984869189e-16
-4.192931954225740239e-16
-3.492180890187025230e-16
-2.493427278215346531e-16
-1.833642012632928175e-16
-1.450436878634193570e-16
-9.715172877288816588e-17
-7.227800362132823468e-17
-5.089315067844212094e-17
-3.540676804816157802e-17
-2.485769224460714596e-17
-1.756041906106125081e-17
-1.258080092841153653e-17
-9.159015323628601659e-18
-6.802165052486124667e-18
-5.143176129776029710e-18
-3.946701517644846297e-18
-3.056752090330326512e-18
-2.372372559269963761e-18
-1.831752403763128253e-18
-1.397956948107755514e-18
