# bin_7_18
-3.610472503878689321e-39
-4.045747759452516965e-39
-4.450240448661880203e-39
-4.783238492458276963e-39
-4.993226991497480887e-39
-5.031855632339291683e-39
-4.836675851106928683e-39
-4.387090998259182395e-39
-3.762301279786334151e-39
-3.089269525180542410e-39
-2.550444764407355988e-39
-2.200143045137762457e-39
-1.844960789185345041e-39
-1.328968801234654798e-39
-9.652204574165865827e-40
-7.720359301441147684e-40
-5.136527991237938703e-40
-3.858874670712813896e-40
-2.697409400401156390e-40
-1.872877168906933427e-40
-1.314981978694004392e-40
-9.268326020701545411e-41
-6.619120167391855082e-41
-4.800529637878499468e-41
-3.552051855252019852e-41
-2.676891792179447899e-41
-2.048873099978011458e-41
-1.584493157344299849e-41
-1.229316965459977076e-41
-9.498955233294768439e-42
-7.261521217556008502e-42
