# bin_16_10
-3.936454006306721867e-10
-4.354545622132085069e-10
-4.714780218680916455e-10
-4.968801594792283179e-10
-5.062337852114418663e-10
-4.947230379136559226e-10
-4.569714787583046563e-10
-3.991442273028617590e-10
-3.308884542687703487e-10
-2.710633023195351647e-10
-2.307575636124022700e-10
-1.980495162917838855e-10
-1.504772413936246580e-10
-1.050052101747149906e-10
-8.507244519295949051e-11
-5.843750336590797773e-11
-4.396645041920323436e-11
-3.028166680862435018e-11
-2.158438883194439531e-11
-1.542190691018482194e-11
-1.107931516607591847e-11
-8.054839960733407992e-12
-5.946415695381823137e-12
-4.476009308977704237e-12
-3.426188266593449241e-12
-2.654776779370109357e-12
-2.070373348021479403e-12
-1.613318024232681038e-12
-1.247522782048152459e-12
-9.514252710175910585e-13
-7.122141047505691372e-13
