# bin_6_15
-5.826260973807062004e-33
-6.476383696709159235e-33
-7.054006610598338062e-33
-7.489312847788372695e-33
-7.696953089256252240e-33
-7.613530746252200372e-33
-7.134725469016903004e-33
-6.317672883466605112e-33
-5.290460909136580082e-33
-4.324602727007900257e-33
-3.639475138830276285e-33
-3.150227142434716716e-33
-2.491651713902662688e-33
-1.723415356372989016e-33
-1.362888189921377981e-33
-9.886069630548542937e-34
-7.121876907160458862e-34
-4.925511022398650607e-34
-3.569017481853155684e-34
-2.521900931365308572e-34
-1.788235610587279310e-34
-1.286474850911345468e-34
-9.388859561857373178e-35
-6.981366103885499117e-35
-5.287859977068393468e-35
-4.064811809917370647e-35
-3.155869013028189917e-35
-2.457565563880291587e-35
-1.905781298583169903e-35
-1.461966132897404278e-35
-1.103459002855328102e-35
