# bin_18_2
-2.869378275785398209e-09
-2.880376215136656159e-09
-2.760058898096346123e-09
-2.501085071148042580e-09
-2.145307912390536154e-09
-1.766714514238431503e-09
-1.460898026151468895e-09
-1.251054004510491565e-09
-1.041032975325231276e-09
-7.656917416334623686e-10
-5.622090839551818851e-10
-4.422090811378950373e-10
-3.123306653927275300e-10
-2.341256250135050659e-10
-1.702130137092548756e-10
-1.257788251308514081e-10
-9.431803643152024170e-11
-7.194737352687435515e-11
-5.590042332905303649e-11
-4.410704733981016241e-11
-3.517540182780384419e-11
-2.814451105597589909e-11
-2.242571474365846516e-11
-1.767112556650663864e-11
-1.368370559798019614e-11
-1.035904146940368240e-11
-7.639055894729474962e-12
-5.478191344252236637e-12
-3.822310966938455931e-12
-2.600499136676853491e-12
-1.730643672513085008e-12
