# bin_2_13
-1.062409202370679530e-50
-1.166030352354588440e-50
-1.250258202701948801e-50
-1.301529241920300372e-50
-1.307721201275244479e-50
-1.252032291093015096e-50
-1.131412985668295283e-50
-9.666232234993026322e-51
-7.926657830993452755e-51
-6.556690064389364452e-51
-5.660811803686297273e-51
-4.715249389920190520e-51
-3.375952599980612090e-51
-2.484795960200472857e-51
-1.971063199703270817e-51
-1.331779314782011287e-51
-9.985896176056397784e-52
-7.117157701667212754e-52
-5.042501801154646126e-52
-3.621522252861250982e-52
-2.629669716466029873e-52
-1.942552535122856454e-52
-1.460429408844453751e-52
-1.118018686145927675e-52
-8.674398170813814334e-53
-6.782478508854737633e-53
-5.308550532840962131e-53
-4.129215508975032585e-53
-3.171983936190826849e-53
-2.393646699499159252e-53
-1.767039960154065360e-53
