# bin_4_13
-4.356616597295046424e-36
-4.797848828390332362e-36
-5.166186163893548658e-36
-5.406967944461200426e-36
-5.465728698647959482e-36
-5.279761470430428293e-36
-4.814205983550170257e-36
-4.151231269648736992e-36
-3.416218319270258201e-36
-2.810890252586980094e-36
-2.415296905222822331e-36
-2.043562857245339655e-36
-1.497290397111243471e-36
-1.070368317737808093e-36
-8.676148505176211290e-37
-5.805777055407857809e-37
-4.425251058143502651e-37
-3.100784366642711250e-37
-2.189652521276931062e-37
-1.572048820956615405e-37
-1.136638883742212375e-37
-8.339913333758775418e-38
-6.222731790105452362e-38
-4.732239132029589111e-38
-3.652874070229132439e-38
-2.847077897508417525e-38
-2.226325984060731123e-38
-1.733897546479136790e-38
-1.336156951928682404e-38
-1.013065187270952281e-38
-7.524045792158087833e-39
