# bin_15_7
-7.719767529329502768e-10
-8.383176204399659966e-10
-8.870696641581695795e-10
-9.083688645310258648e-10
-8.942224423098718254e-10
-8.335202675611986833e-10
-7.344529726480733311e-10
-6.129769199554181881e-10
-5.014414359212390716e-10
-4.234100887314637058e-10
-3.650648934925051247e-10
-2.851473830744225645e-10
-1.987012921597838089e-10
-1.581881639820219259e-10
-1.135213238993739190e-10
-8.331456451099195336e-11
-5.848818621654216755e-11
-4.257520370696532311e-11
-3.073405955216003288e-11
-2.238499146065953602e-11
-1.656916492655144435e-11
-1.247234687130838994e-11
-9.559047998614582539e-12
-7.432797505083239500e-12
-5.829013943205972514e-12
-4.580524411049726686e-12
-3.581125041430262723e-12
-2.767258788261630357e-12
-2.101718300810744319e-12
-1.561864887924470645e-12
-1.131931967308255222e-12
