# bin_4_11
-9.949842006878388422e-28
-1.087258183319577501e-27
-1.159455746205593589e-27
-1.198598634374073253e-27
-1.194541929144169957e-27
-1.130761329097799410e-27
-1.010837835664732931e-27
-8.541580862910166843e-28
-6.986425263129919605e-28
-5.827023418641685273e-28
-5.044087991383443373e-28
-4.100900386341639746e-28
-2.873748407637812453e-28
-2.198763006915195438e-28
-1.675846466422822947e-28
-1.167566221285506405e-28
-8.449130147192418992e-29
-6.144673557495323794e-29
-4.384817641504679385e-29
-3.157469589436859390e-29
-2.311551823381971144e-29
-1.722004600454101023e-29
-1.306071137161269535e-29
-1.007256269692883331e-29
-7.857021646033914857e-30
-6.161359542395216114e-30
-4.823409718620987091e-30
-3.743303912243728901e-30
-2.862732498829227188e-30
-2.146789787218976660e-30
-1.572539901599670562e-30
