# bin_4_14
-1.349122143689713351e-40
-1.490877557496653332e-40
-1.612161798559646133e-40
-1.696320512124705535e-40
-1.725020440147366364e-40
-1.681304826608556971e-40
-1.547967124035077951e-40
-1.347851725544352699e-40
-1.114780427632144600e-40
-9.136885359526265092e-41
-7.799310106895263314e-41
-6.680525373839332070e-41
-5.027426193048183470e-41
-3.516205420690985153e-41
-2.865382904476270425e-41
-1.940948634931905321e-41
-1.475983270406402751e-41
-1.017547333225104535e-41
-7.213991954192464603e-42
-5.169276799037019925e-42
-3.725153864282283240e-42
-2.714740293022120367e-42
-2.009439831829268619e-42
-1.516738153827239592e-42
-1.163726720080396986e-42
-9.032894857374799792e-43
-7.051252524939071469e-43
-5.495300090866146072e-43
-4.246586440822905782e-43
-3.234446702930817510e-43
-2.416760246376899020e-43
