# bin_18_16
-7.354179370876232132e-11
-8.294430651035451888e-11
-9.195348809874215264e-11
-9.979269010772694998e-11
-1.054437965741015832e-10
-1.077231155814667528e-10
-1.056667621465713642e-10
-9.799410080596137869e-11
-8.592200231730350177e-11
-7.139040395238286892e-11
-5.843633152573367864e-11
-4.964242618860045674e-11
-4.277779612403126803e-11
-3.278752720507558482e-11
-2.270263475929790155e-11
-1.835634510038173601e-11
-1.262279574093374734e-11
-9.404341802331234196e-12
-6.350454595465080132e-12
-4.466919547834406277e-12
-3.118399981963064736e-12
-2.175876246624113221e-12
-1.526522277170622036e-12
-1.082032440676688974e-12
-7.812464267953915658e-13
-5.752168446619748469e-13
-4.315607067778355252e-13
-3.291241540354163579e-13
-2.536454837567030939e-13
-1.961449738863670084e-13
-1.510661516799513483e-13
