# bin_20_20
8.100674845975175343e-08
7.715207821134870298e-08
7.170370457578751011e-08
6.490543782370740178e-08
5.716055550717777742e-08
4.899321444247454942e-08
4.096788560278583502e-08
3.357138206026417668e-08
2.708854783322411629e-08
2.156680193500485932e-08
1.688936824277335211e-08
1.294144021369506815e-08
9.723659239066567861e-09
7.261047120950851824e-09
5.430632095983228460e-09
4.044014234568502394e-09
3.020057954010425326e-09
2.271173064870298112e-09
1.719370255023255798e-09
1.310923014155514921e-09
1.005014697210076002e-09
7.724863932154752422e-10
5.932203359220899595e-10
4.534749277669078320e-10
3.438368263141032148e-10
2.577746919785592972e-10
1.905933234944823373e-10
1.387074587849042883e-10
9.922683973369420455e-11
6.972310821282260199e-11
4.811483581636387070e-11
