# bin_6_2
2.093259979788101247e-08
1.780497738974675124e-08
1.479253437982240563e-08
1.206427242137151030e-08
9.705158933605550015e-09
7.710130830184552995e-09
6.022571162929959772e-09
4.606593664611411643e-09
3.476161742583435202e-09
2.630121453010383693e-09
1.998083309898844343e-09
1.519232670360892944e-09
1.167963013384171181e-09
9.062492969557269151e-10
7.100465124377297074e-10
5.600665881708982345e-10
4.430690019244833024e-10
3.499321664033932084e-10
2.746333204981212531e-10
2.132621573065714816e-10
1.632453377740629461e-10
1.228076410229528295e-10
9.059299742264755805e-11
6.543752172890266946e-11
4.625666599297997497e-11
3.200892640015203498e-11
2.170711718079899743e-11
1.445220828613278646e-11
9.467073383339152176e-12
6.115928704800525953e-12
3.905458991557614560e-12
