# bin_20_15
7.356784595766502655e-08
6.945835795110452081e-08
6.394568662672131366e-08
5.730757869847274244e-08
4.996114056059918546e-08
4.241367370595459070e-08
3.517649087237242837e-08
2.864470765325349956e-08
2.300087366601437106e-08
1.821870694162416527e-08
1.416625329282157670e-08
1.077002872487615730e-08
8.063364316181131247e-09
6.035114930088843848e-09
4.518395301158734228e-09
3.370262793085977313e-09
2.533684424953586944e-09
1.915693641065833915e-09
1.460592321592219296e-09
1.120852513474108865e-09
8.639229543875544216e-10
6.665939115690558630e-10
5.129338821443174888e-10
3.921385857060262146e-10
2.967967653188058630e-10
2.217319321138809763e-10
1.631260701659235672e-10
1.179748004070510422e-10
8.378187311984550329e-11
5.839909339982861857e-11
3.995949277490360013e-11
