# bin_6_6
3.423794343346577916e-08
3.030270907574602717e-08
2.610878804303467122e-08
2.193744490856056929e-08
1.804669146730078475e-08
1.460675319745508334e-08
1.166933761424209491e-08
9.189879606128354086e-09
7.100805571829380982e-09
5.383448042374724708e-09
4.051550735280105483e-09
3.062214814771481389e-09
2.316289873957303303e-09
1.758185179827128908e-09
1.348629015140789843e-09
1.042823896770618983e-09
8.130882380957474590e-10
6.372648766166778053e-10
5.001508600587377642e-10
3.913889185082656648e-10
3.040723510175691966e-10
2.336155988158719375e-10
1.768963488697646876e-10
1.316654932243640545e-10
9.614312980609414410e-11
6.879218800188506584e-11
4.821199770832106905e-11
3.310680071009216636e-11
2.229905361368794854e-11
1.475662427692924997e-11
9.614198300797225806e-12
