# bin_12_9
5.179341070377127145e-08
4.742722033599722690e-08
4.227699082744819434e-08
3.666887743805160482e-08
3.098681751801092927e-08
2.560421918095267010e-08
2.079247856018050026e-08
1.665997049402283308e-08
1.316630315734543341e-08
1.021113636343155616e-08
7.752100104660351464e-09
5.816630142409649716e-09
4.375639788688481247e-09
3.293142765602160061e-09
2.477398685265163479e-09
1.882179486412096453e-09
1.439801995582285341e-09
1.111100747809909306e-09
8.627451482291125479e-10
6.719933038844919485e-10
5.230068180697194838e-10
4.050513215853354837e-10
3.109307457133838663e-10
2.357404973563636001e-10
1.760237026874055532e-10
1.291563698968328010e-10
9.298393796560112248e-11
6.562942580049245214e-11
4.540883982776599474e-11
3.081669648297523939e-11
2.053766318420264621e-11
