# bin_18_11
6.306615349151104045e-08
5.871095561888946455e-08
5.324006675294917306e-08
4.696895520942359311e-08
4.031777002297202016e-08
3.374959744014209095e-08
2.767670834958253761e-08
2.234928530394197596e-08
1.781827752812069505e-08
1.398419586416627871e-08
1.073968095506482748e-08
8.083701260194487885e-09
6.052950352856864678e-09
4.549446539721482636e-09
3.405335306404033853e-09
2.560833627041017759e-09
1.941308346461187006e-09
1.483198466111325521e-09
1.141692608073808675e-09
8.837445340583128049e-10
6.855615844332197600e-10
5.308996401665934991e-10
4.087889701814315768e-10
3.117913071904128170e-10
2.347874923192453919e-10
1.740940548604403470e-10
1.268589390404460075e-10
9.072181803732925277e-11
6.363174544141773170e-11
4.377417698340236440e-11
2.955466531801046746e-11
