# bin_18_17
7.469510518257495264e-08
7.063734318170476600e-08
6.514904942704567841e-08
5.850140568502903759e-08
5.110741194376049435e-08
4.347469270955554098e-08
3.612038563164961008e-08
2.945336695886223386e-08
2.367399677116663426e-08
1.877110012581750495e-08
1.461833599013332861e-08
1.113479884063534570e-08
8.344327893562000791e-09
6.241522002262486614e-09
4.672269564338066978e-09
3.484339974934404140e-09
2.615373573854742115e-09
1.975329793686858696e-09
1.503730262924340984e-09
1.152267945254878789e-09
8.870612765696161872e-10
6.838299754056610537e-10
5.259196660868991290e-10
4.020166827463081033e-10
3.043593917771238168e-10
2.275313453007538325e-10
1.675600046979014238e-10
1.213393179133035862e-10
8.630547151765429312e-11
6.026394093932905580e-11
4.131379898075385272e-11
