# bin_11_4
3.350932427866667613e-08
2.949644110223039148e-08
2.526374719443919488e-08
2.110595106996078699e-08
1.728254866263394229e-08
1.394554406302312893e-08
1.111727510050058942e-08
8.724333058967002153e-09
6.698856089125423510e-09
5.051001186269803135e-09
3.804703606759092770e-09
2.880860295709132931e-09
2.176158131133730236e-09
1.658801875695605623e-09
1.275741342065305127e-09
9.907334386096650768e-10
7.752811789297536244e-10
6.095187760879551971e-10
4.794013670775200462e-10
3.755127767250613182e-10
2.916573407344701514e-10
2.237346699862253041e-10
1.689578994740469334e-10
1.252853373435372115e-10
9.105758320302922028e-11
6.480256749510611271e-11
4.515010510070190128e-11
3.081761848320111372e-11
2.063567371671254084e-11
1.358215430435989725e-11
8.807092833255114892e-12
