# bin_14_4
3.504568385288261947e-08
3.092223160232684410e-08
2.653987739857126259e-08
2.220828778352153831e-08
1.820723254519245873e-08
1.470665694965117754e-08
1.173810171913499039e-08
9.225042305152063149e-09
7.091293063773195332e-09
5.347006447052453795e-09
4.025294611412419917e-09
3.047037637495855130e-09
2.299591236119343842e-09
1.750844189651383879e-09
1.345016583874190602e-09
1.043476153249698370e-09
8.159558125909045146e-10
6.412834794709981202e-10
5.044359191878110946e-10
3.953274282360798364e-10
3.073205962154855513e-10
2.360310744399362650e-10
1.784956905659202019e-10
1.325637272786336359e-10
9.650359334314794386e-11
6.878869727897837761e-11
4.800052483201001711e-11
3.280871440813178195e-11
2.199559996886425420e-11
1.449206246290472977e-11
9.404955799988837043e-12
