# bin_16_10
5.871648570209577007e-08
5.432414541887590485e-08
4.894217142411464501e-08
4.289439392200934213e-08
3.659212978986208704e-08
3.046927568028621137e-08
2.488622233724357384e-08
2.003469190573184197e-08
1.592270121908942975e-08
1.244135974112693620e-08
9.507538585150863922e-09
7.140437807034057235e-09
5.355713349876483467e-09
4.028420312491169773e-09
3.018433781101633943e-09
2.279569286221220337e-09
1.733607885029876276e-09
1.330051242571527213e-09
1.027545656191363849e-09
7.976031841060594374e-10
6.197966497521936842e-10
4.802080402138364195e-10
3.694830451741649653e-10
2.812730477461926606e-10
2.111850953573421688e-10
1.559983915660853039e-10
1.131630463752869461e-10
8.052416988735482871e-11
5.618119441164194488e-11
3.844170916313791388e-11
2.581882982187514112e-11
