# bin_11_9
5.041913885429104091e-08
4.607216659922053850e-08
4.098238178416613047e-08
3.547449222683753611e-08
2.992483132393251138e-08
2.469264078178133986e-08
2.003143147099935154e-08
1.603504579793056850e-08
1.265712119856907618e-08
9.802005761537769993e-09
7.434342396969007300e-09
5.579210438995321426e-09
4.199042785664183749e-09
3.160823012280863497e-09
2.380383536318152976e-09
1.810351600030759075e-09
1.386526656756722197e-09
1.071098343843870671e-09
8.323766943436941554e-10
6.486612925461824553e-10
5.049046658917428679e-10
3.909257255258472927e-10
2.998978487136740792e-10
2.271611642156395432e-10
1.694145962115664376e-10
1.241340356821114328e-10
8.923229904156714489e-11
6.288171457223598776e-11
4.343895977138434709e-11
2.943526207389989817e-11
1.958977760229472300e-11
