# bin_20_10
6.168848143994698120e-08
5.727644366163762005e-08
5.178632068893442043e-08
4.554211171982654914e-08
3.896819490112335712e-08
3.252570910135372521e-08
2.661326134848109910e-08
2.145708234860020901e-08
1.708372629386620074e-08
1.337896389050266654e-08
1.024302523146039935e-08
7.693962478523663818e-09
5.766063487929010934e-09
4.336078389382204698e-09
3.244695122896897295e-09
2.446063104664864679e-09
1.856826945329120717e-09
1.422040856919344984e-09
1.096934870212850360e-09
8.505977933128127734e-10
6.607016847067445822e-10
5.120085336045718059e-10
3.942719761555268373e-10
3.005480170541740724e-10
2.260591211239623682e-10
1.673389166874694017e-10
1.216740942439487487e-10
8.679369362242011453e-11
6.070538243206525552e-11
4.163663148522981949e-11
2.802660016239817342e-11
