# bin_8_3
2.694121247414492420e-08
2.332759283965109597e-08
1.967978998318687652e-08
1.623880830520184519e-08
1.317640736055885958e-08
1.055692605947785722e-08
8.345184664820824740e-09
6.471540269758188153e-09
4.914800674370222974e-09
3.700897917090017636e-09
2.802618852212116323e-09
2.123652462764224196e-09
1.614802775665235712e-09
1.241965354552727821e-09
9.635659752011295574e-10
7.543584059819861168e-10
5.940447636606578730e-10
4.686552827010150615e-10
3.687263290818374466e-10
2.880091776726987451e-10
2.224159385766844353e-10
1.692161144505323515e-10
1.264776047143323671e-10
9.268116529007071204e-11
6.650167521521024949e-11
4.670508544505082760e-11
3.212061052200629512e-11
2.165827663747780845e-11
1.434464310561065697e-11
9.352881868337829892e-12
6.017421657176334009e-12
