# bin_15_7
4.844646013084558350e-08
4.402740222689741901e-08
3.892673305289746499e-08
3.348145443806368180e-08
2.807247445986473566e-08
2.304912096032837380e-08
1.863249416493674662e-08
1.487683145605622586e-08
1.170115358712427965e-08
9.008417309021972260e-09
6.794405827545875214e-09
5.099053189302971737e-09
3.846680426850089454e-09
2.891992210627858395e-09
2.186365280013966359e-09
1.667895085759237780e-09
1.283296168038433205e-09
9.952154164306561724e-10
7.761586794499484144e-10
6.064410807363112856e-10
4.727160905274248878e-10
3.660626564748059195e-10
2.805063862633470266e-10
2.119761207787989838e-10
1.575481829520535156e-10
1.149335494283097374e-10
8.219211874600186719e-11
5.758818442555828837e-11
3.954086636197092312e-11
2.663016565856226903e-11
1.761913764420907761e-11
