# bin_17_12
6.459259567263730863e-08
6.028385687410429837e-08
5.481778456411927646e-08
4.850280976444754222e-08
4.175692627673315898e-08
3.504794050967585568e-08
2.880246667422101246e-08
2.329401416939492074e-08
1.859565606790831494e-08
1.462133187082453970e-08
1.125855779360556772e-08
8.491138762393511582e-09
6.355488152494858381e-09
4.773162515820003396e-09
3.573835710254748316e-09
2.682090643817566892e-09
2.030502525960912088e-09
1.547914482497857339e-09
1.189301048735922587e-09
9.190935319179387970e-10
7.121192298236071468e-10
5.510961294868827189e-10
4.242982471090308321e-10
3.237771132685656663e-10
2.440615418831069265e-10
1.812418672070545883e-10
1.323203767314368338e-10
9.484091663549179795e-11
6.668778568462938405e-11
4.599879411608585308e-11
3.114093872109038259e-11
