# bin_8_1
1.706920068940572049e-08
1.429572766883121776e-08
1.173168061759231302e-08
9.484764655814214956e-09
7.576030350769271409e-09
5.960052377859255503e-09
4.591372860660345685e-09
3.474915462803304209e-09
2.626224767428701213e-09
1.996392672610209030e-09
1.517937363897310941e-09
1.164600307484713149e-09
9.030944189095715083e-10
7.073989804733901530e-10
5.586003506930737720e-10
4.430459652801153066e-10
3.513117031890240635e-10
2.771632117982710909e-10
2.165736175180434127e-10
1.669409466761530303e-10
1.265252651575383847e-10
9.405080542416638589e-11
6.845309817136338703e-11
4.874490349533578826e-11
3.396482003452901512e-11
2.318071828443556485e-11
1.552225962024342060e-11
1.021993438018215058e-11
6.631710937796265518e-12
4.251099284863957064e-12
2.697870116397771738e-12
