# bin_4_3
9.071514273212929566e-06
9.436690802492605658e-06
9.478407980567282848e-06
9.079243230574388017e-06
8.214004947207041843e-06
7.028599402263215575e-06
5.769913647529913629e-06
4.767643572150686290e-06
4.103377552910891881e-06
3.423145681954764421e-06
2.479098343225209261e-06
1.820568266885563906e-06
1.448751968460056037e-06
9.974823424053680328e-07
7.548143474169313350e-07
5.459428329819309708e-07
3.977305307329149698e-07
2.950605793169080920e-07
2.223920615074530249e-07
1.707331774624716292e-07
1.332614949139577185e-07
1.053502427198875626e-07
8.377638524938415719e-08
6.652931252461714158e-08
5.238989043205541868e-08
4.064092593258797894e-08
3.088567932617050046e-08
2.289607442063118736e-08
1.651211937556715355e-08
1.158113425816728380e-08
7.911857552831030670e-09
