# bin_14_11
1.155470650208564325e-07
1.290849863930641532e-07
1.414696957656634295e-07
1.513660655368208991e-07
1.570966599850073890e-07
1.572670651287544332e-07
1.497401456139997701e-07
1.345793468700379796e-07
1.143181335646279252e-07
9.360637516961071942e-08
7.778072872540140438e-08
6.733189760870633812e-08
5.541178639550361647e-08
3.906742598107818906e-08
2.932061102163801586e-08
2.272593056879636388e-08
1.544503508561345635e-08
1.127309760615202257e-08
8.034326416481574529e-09
5.610124286960988414e-09
3.940464668173832304e-09
2.796434393003775641e-09
2.013927759968316338e-09
1.475269619831864350e-09
1.101931343423887821e-09
8.374226779769697892e-10
6.450753117021207763e-10
5.006392642672430608e-10
3.886350846045507352e-10
2.996239042062704879e-10
2.280035873987444537e-10
