# bin_18_13
3.588616750974135513e-10
4.044230938593185241e-10
4.479428652944625454e-10
4.856001024661113924e-10
5.124099977104484283e-10
5.226625021399333086e-10
5.115583994350584369e-10
4.731488047107258577e-10
4.138117464485348131e-10
3.431766970654613134e-10
2.810230108431270474e-10
2.392654280903370816e-10
2.058562325749482700e-10
1.565583104368266308e-10
1.085927755897307687e-10
8.820903790572911950e-11
5.994549264900637956e-11
4.506218136205772588e-11
3.044523783293854482e-11
2.129983259426054311e-11
1.490817061413575797e-11
1.043328924585429864e-11
7.333946588074578228e-12
5.213076821355124377e-12
3.775190670953053364e-12
2.787931461120239567e-12
2.097535921622096126e-12
1.603084344723204400e-12
1.237021370390692446e-12
9.569083011066745988e-13
7.365591988492415046e-13
