# bin_13_9
1.803370231822519122e-09
2.003975261208387542e-09
2.181954766906500689e-09
2.315667919063470625e-09
2.378737892154028677e-09
2.351502285861937647e-09
2.201941804331841163e-09
1.948413364500559403e-09
1.630646718322365033e-09
1.332989379083118571e-09
1.122515322148080728e-09
9.713925147197849452e-10
7.667016069262769622e-10
5.302838758138287260e-10
4.201549588636920260e-10
3.037658978714973097e-10
2.194930569740055229e-10
1.516162396205086019e-10
1.097978102091034271e-10
7.764311909234161004e-11
5.510678826270220154e-11
3.967007257691864976e-11
2.897620103910877042e-11
2.156310074323407225e-11
1.634278559631939601e-11
1.256988947925464869e-11
9.762252417210557418e-12
7.602586413928669932e-12
5.894594398305721195e-12
4.520143861648762055e-12
3.409821856906441493e-12
