# bin_13_12
6.017386771193766997e-06
6.721077858313621414e-06
7.364128039259514060e-06
7.876895942959645787e-06
8.171916834753841885e-06
8.177104529726215388e-06
7.780788033774444981e-06
6.988788192363845809e-06
5.932887860027499761e-06
4.857270034620434264e-06
4.037964345838307522e-06
3.496065324807259532e-06
2.873246804520494364e-06
2.023141017102028698e-06
1.521770655476846245e-06
1.176750255216419854e-06
8.011616323683142771e-07
5.834384373199034694e-07
4.163711852931462174e-07
2.908611580013506110e-07
2.043132060013143212e-07
1.450728589598162900e-07
1.045387854970644452e-07
7.662794749680464544e-08
5.727184469243421574e-08
4.354769434734327282e-08
3.355862593811283754e-08
2.605015346655608128e-08
2.022249801598031941e-08
1.558829610656373816e-08
1.185849488828195924e-08
