# bin_10_4
7.892573501338159435e-17
8.584614217495893247e-17
9.102159683426693922e-17
9.342272779965399121e-17
9.227249495070530275e-17
8.633446380683787157e-17
7.634403098100935256e-17
6.386665883989294402e-17
5.220241704585359535e-17
4.395123099081395461e-17
3.800112779599336440e-17
2.998450352138000410e-17
2.080747978506019097e-17
1.649799438345064838e-17
1.198521483345916197e-17
8.715730020554536403e-18
6.104839449665526654e-18
4.468869924833432722e-18
3.218037979611624197e-18
2.336716211704969818e-18
1.725865283317004554e-18
1.296315687547836186e-18
9.913773172931061293e-19
7.695807481059583426e-19
6.029726292762616306e-19
4.737388607674324288e-19
3.705791748746792799e-19
2.866982807662193548e-19
2.181197869285879651e-19
1.624409277059500281e-19
1.180076114307761030e-19
