# bin_14_9
2.275113017779687811e-11
2.533599698560264615e-11
2.765861491798762385e-11
2.944965164842949741e-11
3.037471340130615158e-11
3.018290513357913148e-11
2.845045935388669991e-11
2.533032327591665963e-11
2.131681933520285488e-11
1.742888922483899949e-11
1.459776201044942425e-11
1.264593217042716267e-11
1.016135443842474981e-11
7.056237764853017188e-12
5.481131530919932687e-12
4.080031348233944255e-12
2.870174695619466313e-12
2.019265759318298762e-12
1.461630831452536847e-12
1.027963427936161345e-12
7.251283356304603508e-13
5.191493012570815473e-13
3.771429483222708045e-13
2.789593112528839756e-13
2.102660561794676481e-13
1.610144718972339061e-13
1.246962678867802133e-13
9.701453650480858874e-14
7.527827280523463236e-14
5.786076576171709780e-14
4.380432974045185325e-14
