# bin_20_8
1.582924519181084679e-33
1.780882612755679210e-33
1.968553182842080188e-33
2.128758122263935052e-33
2.239340260501247576e-33
2.276155892241344696e-33
2.216325852491504125e-33
2.037853097812608514e-33
1.771965189289490374e-33
1.464330564046024222e-33
1.201044107849104311e-33
1.027131434724823514e-33
8.787766084968413592e-34
6.573164189714547366e-34
4.597535343323466553e-34
3.749344956274521821e-34
2.503509949397377926e-34
1.900577823036254108e-34
1.295210807539547098e-34
8.991099077750263462e-35
6.311887904008822878e-35
4.431211373241783897e-35
3.129211845465335198e-35
2.237604179590450292e-35
1.631221047012573449e-35
1.212471778003504195e-35
9.174492668780635293e-36
7.041223395248319353e-36
5.445628792493990176e-36
4.213333402079314965e-36
3.237635210420998482e-36
