# bin_19_4
6.272696004083301760e-57
7.023579859387621282e-57
7.718908370525296740e-57
8.287540198713105244e-57
8.639651555966697192e-57
8.693160754904328207e-57
8.337415809964143102e-57
7.545735754217018940e-57
6.456291188257327354e-57
5.297085546220466549e-57
4.379308534666886631e-57
3.781963493054560653e-57
3.158456500850966099e-57
2.262296816948971713e-57
1.655778703347008139e-57
1.315701610916276783e-57
8.786249817303007855e-58
6.563948407433435008e-58
4.608822124282097786e-58
3.203815862603109370e-58
2.249253407555402823e-58
1.587409542356771987e-58
1.135764837425545041e-58
8.257799400058141988e-59
6.123404164808970822e-59
4.624013492263378622e-59
3.544792579734130467e-59
2.743779930545037689e-59
2.129088675486322992e-59
1.644286052555970315e-59
1.255590810455717328e-59
