# bin_20_15
1.065270934768401951e-09
1.205668412887577073e-09
1.342321198978055724e-09
1.464425168145657800e-09
1.557518515861592687e-09
1.603754404104244302e-09
1.589989586772720761e-09
1.493912361088220235e-09
1.325980635166436227e-09
1.112611263027028549e-09
9.096787417198900363e-10
7.645186709607763123e-10
6.623903714830992890e-10
5.268893740887668095e-10
3.639267818734762314e-10
2.858825372237591379e-10
2.083426071773765914e-10
1.478172565279160299e-10
1.013169499739741603e-10
7.250561530547235784e-11
5.004563427230262090e-11
3.441097340856900982e-11
2.388615886162907234e-11
1.672551446390669983e-11
1.189129049365153319e-11
8.617776425348498317e-12
6.370402584242190230e-12
4.799990817079761891e-12
3.670113404571801743e-12
2.829585034311402739e-12
2.183190325204659646e-12
