# bin_9_6
2.455102104302148766e-08
2.676858303124648536e-08
2.846845293639312229e-08
2.932967420734575820e-08
2.910802260838927793e-08
2.740335043531796167e-08
2.437258285237076860e-08
2.049626902706778825e-08
1.675680786854178768e-08
1.403725653330132128e-08
1.214799973205254288e-08
9.742650975100511499e-09
6.789699734604493095e-09
5.284888867134303562e-09
3.940226625473336641e-09
2.799420694215901984e-09
1.993230878530722860e-09
1.455935441663500324e-09
1.043268113580133762e-09
7.539317879768435175e-10
5.542633892517924009e-10
4.145240500478290101e-10
3.156548974990207636e-10
2.441952267678070529e-10
1.908945307252088535e-10
1.498388050745471693e-10
1.172611014926812321e-10
9.086891172288198119e-11
6.932158343363142119e-11
5.181352864103224385e-11
3.780385662660639818e-11
