# bin_18_12
2.795881564726178188e-12
3.147453150916822761e-12
3.481673662267290971e-12
3.768405787233208086e-12
3.968623640297424046e-12
4.038961847481646854e-12
3.940206136492492824e-12
3.630592611440085252e-12
3.163540022257490840e-12
2.617476250783677422e-12
2.145459231137611872e-12
1.831954972391567655e-12
1.570836321252869299e-12
1.181984871029146697e-12
8.238494042323914047e-13
6.713508564783119985e-13
4.506877142628035365e-13
3.412617354920645976e-13
2.317521676027561139e-13
1.612267366349544381e-13
1.130982622557456410e-13
7.933515346713268262e-14
5.593178172602650204e-14
3.990849712850574092e-14
2.902448213535015391e-14
2.152413795176397256e-14
1.625421083561243705e-14
1.245676247324117115e-14
9.626768701814238356e-15
7.448202646395075400e-15
5.727103464979509814e-15
