# bin_20_12
1.147969362430441166e-16
1.295886024785517907e-16
1.438211210053759424e-16
1.562958108315792129e-16
1.654303826536692792e-16
1.693438066747995874e-16
1.665841268160480139e-16
1.550075014276000368e-16
1.363472226143093659e-16
1.135388630802917515e-16
9.287653807442081452e-17
7.868900149840546808e-17
6.796885107212750288e-17
5.258716514087849081e-17
3.630374572139884876e-17
2.922382960477447195e-17
2.035625848551466750e-17
1.503055634172681334e-17
1.012538904495133668e-17
7.166366305780033138e-18
4.989153442502926880e-18
3.470482749294307383e-18
2.428199633618520613e-18
1.715932968815601305e-18
1.234106516054095908e-18
9.051024788378076567e-19
6.766941702136794047e-19
5.146718715940202438e-19
3.959961454810404680e-19
3.061021069781869810e-19
2.359283712764281319e-19
