# bin_10_7
3.473458446015015833e-08
3.811955854051040926e-08
4.087070139435826751e-08
4.254442385129309897e-08
4.274453602460360812e-08
4.092283790125290220e-08
3.698092285513232959e-08
3.159520023697953973e-08
2.591151595268731897e-08
2.143489520717559929e-08
1.850316608883269644e-08
1.540987527058809642e-08
1.103722183594113102e-08
8.123699996858143846e-09
6.441345866682858815e-09
4.355391833219905044e-09
3.263943617112043438e-09
2.326423332383255062e-09
1.648567864061763490e-09
1.184226260111127001e-09
8.601073080067991791e-10
6.354073215968804802e-10
4.778095309086042420e-10
3.657766026966917261e-10
2.838047169458928179e-10
2.219060583780125946e-10
1.736717510201393041e-10
1.350760158401899346e-10
1.037493713452200118e-10
7.827888009341737082e-11
5.777647771424535442e-11
