# bin_13_4
1.163737480555984691e-28
1.281094553535958327e-28
1.378820125001437458e-28
1.442289722481490535e-28
1.457077850354892243e-28
1.406245379673275645e-28
1.281052811285844132e-28
1.103582949781305481e-28
9.077976758158502881e-29
7.472913868580900682e-29
6.424909485446566526e-29
5.428464095235249561e-29
3.967250241531944331e-29
2.843848095399039494e-29
2.301782301047750610e-29
1.540412458038227190e-29
1.173246028255743975e-29
8.235670518095000024e-30
5.817124649045524871e-30
4.177313016028803359e-30
3.021876363777661321e-30
2.219040363933038351e-30
1.657685767195800344e-30
1.261674826898226954e-30
9.745933293384645804e-31
7.599756007391377448e-31
5.943739971074243319e-31
4.628483028026379651e-31
3.565375706793404498e-31
2.701606071527843377e-31
2.004896334289751734e-31
