# bin_12_6
2.538452283763578509e-15
2.796259800791521180e-15
3.011988196070654829e-15
3.153835470146562876e-15
3.189802455828372814e-15
3.083769001756723222e-15
2.814230306177561784e-15
2.428761013186624790e-15
1.999500359231960471e-15
1.644501836454732345e-15
1.412316495266663860e-15
1.196503571566306959e-15
8.786691635213995384e-16
6.266419257460741851e-16
5.086107769958446687e-16
3.403662156723564915e-16
2.596454175634604829e-16
1.816717781641816631e-16
1.282988072434758708e-16
9.212547191859528312e-17
6.660573691588804372e-17
4.884780408108105994e-17
3.643710497158731704e-17
2.769571140133691338e-17
2.137138120344784548e-17
1.665381913098761531e-17
1.302179160385395863e-17
1.014222639469543386e-17
7.817157416286683398e-18
5.928578203295854118e-18
4.404740428535530994e-18
