# bin_18_15
2.844404887360262037e-07
3.212084768821138023e-07
3.566434829031534601e-07
3.877879338853869960e-07
4.107285366997287387e-07
4.207830683502476457e-07
4.143829216970217615e-07
3.861063847393139871e-07
3.400529701145075831e-07
2.834523363824600626e-07
2.318322249824834942e-07
1.961955022107952253e-07
1.695722602929705595e-07
1.317099231678510049e-07
9.088109394293032320e-08
7.295543054586931602e-08
5.113362447632864609e-08
3.756372566378397970e-08
2.532724310458967001e-08
1.796972740287152497e-08
1.249415220717065150e-08
8.676729158099765192e-09
6.064648581772578593e-09
4.280376874161748294e-09
3.073773668299698649e-09
2.250831720321407212e-09
1.680395372677513085e-09
1.276588509482392573e-09
9.815164283185328493e-10
7.585254000069641861e-10
5.847718952918842265e-10
