# bin_12_9
6.602036511741241708e-08
7.319624393428261871e-08
7.947265597314738387e-08
8.404749878536240211e-08
8.597352599011143352e-08
8.450620012585616550e-08
7.857946629073302262e-08
6.907783001764754463e-08
5.750532826227625100e-08
4.703446265091370924e-08
3.983695247136032155e-08
3.437793372695510854e-08
2.660403791823319321e-08
1.842058724226435408e-08
1.482963550317195051e-08
1.040093365690202595e-08
7.715169070551959153e-09
5.286314667924938890e-09
3.799591745699742609e-09
2.703766381797693081e-09
1.933423894155117112e-09
1.399219649656871570e-09
1.027835735627407152e-09
7.695922784332772680e-10
5.864486484282240325e-10
4.529490946324038549e-10
3.526520472011746328e-10
2.747982471549055444e-10
2.128114013057176704e-10
1.627494838240136731e-10
1.222913080981143780e-10
