# bin_17_13
1.114709135505957826e-08
1.254523885506867498e-08
1.387268797073010750e-08
1.500890783694872130e-08
1.579810022522403477e-08
1.606871034635490552e-08
1.566215997322110592e-08
1.441739161280041823e-08
1.255053141607980931e-08
1.037842963316093124e-08
8.509464255189790936e-09
7.271178285493318338e-09
6.228321358855422860e-09
4.673768731995752323e-09
3.263000428920390805e-09
2.659741720821614069e-09
1.781297164575977009e-09
1.350301923245880146e-09
9.184630451791337881e-10
6.383575049856567986e-10
4.479439681162943783e-10
3.143324744947666662e-10
2.217735013717785739e-10
1.583966158015822237e-10
1.153226941488743768e-10
8.561125876981370294e-11
6.470942371901532048e-11
4.962396952399126816e-11
3.836300601380821062e-11
2.968133231043789289e-11
2.281573950671109200e-11
