# bin_17_11
1.114369891521883770e-12
1.251204051647582298e-12
1.379697018857879380e-12
1.487507790639693186e-12
1.558890967167787653e-12
1.577888084520032731e-12
1.526681447849745151e-12
1.394161785373973373e-12
1.203910185379985339e-12
9.914137402842988781e-13
8.154599912376530933e-13
7.006488070886846692e-13
5.941169933786797925e-13
4.359083211642252658e-13
3.098338308309549100e-13
2.515240303030657857e-13
1.665712933938556613e-13
1.264907511205095439e-13
8.729033337297480825e-14
6.046679935641669287e-14
4.246965934872131411e-14
2.985743714672610812e-14
2.119876224669864960e-14
1.526643447835113145e-14
1.121270228881373280e-14
8.393496454084378872e-15
6.389388956140122982e-15
4.923930934795008333e-15
3.815269011748943626e-15
2.950683093469192034e-15
2.261854938095286431e-15
