# bin_14_2
1.129755401189759506e-48
1.244497341722032639e-48
1.340512970308602819e-48
1.403648828983097441e-48
1.419661949909597852e-48
1.372481109555015821e-48
1.252531150707486115e-48
1.080981179039644139e-48
8.899354862831326967e-49
7.319338433401715745e-49
6.285865507620243114e-49
5.325345286573310394e-49
3.910876788143255349e-49
2.789146218884968048e-49
2.263684772577133631e-49
1.514994377063261129e-49
1.155637052376005602e-49
8.085736304577533916e-50
5.710382522205994227e-50
4.100340824202080307e-50
2.964502693514288558e-50
2.174113692966058120e-50
1.621724944449060875e-50
1.232656142833854521e-50
9.511710803475973280e-51
7.412032482943248433e-51
5.795523373034394421e-51
4.513929677998489735e-51
3.479132303610531034e-51
2.638603584928215589e-51
1.960406909377018936e-51
