# bin_19_18
6.601163612786686228e-06
7.482596914169777348e-06
8.346483241014436964e-06
9.126891006216751926e-06
9.735252006156589667e-06
1.006089874376788776e-05
1.001983598529707199e-05
9.469914567164603665e-06
8.451817500820575527e-06
7.128108231441967700e-06
5.830454686548881233e-06
4.876559949810313553e-06
4.227009297674094748e-06
3.415491713212095422e-06
2.372445384639087870e-06
1.828086754514872297e-06
1.368072321653465322e-06
9.474579619971277185e-07
6.633760284505962686e-07
4.731642522100940307e-07
3.251913030486798080e-07
2.225356954836280266e-07
1.536281869084460295e-07
1.069626140290237484e-07
7.549504583013143033e-08
5.428925570767623714e-08
3.982454476370270732e-08
2.980609362419362910e-08
2.267829416847597228e-08
1.743905487531752028e-08
1.345291460942182607e-08
