# bin_14_1
3.000789290254252668e-58
3.301725814641852819e-58
3.551356688782413119e-58
3.711878275631975336e-58
3.746583094630697578e-58
3.611080792616345287e-58
3.285121293977937252e-58
2.826075192664917732e-58
2.323351615109351514e-58
1.913978750578454598e-58
1.646870586684755992e-58
1.388386568182991390e-58
1.011003958627624773e-58
7.277627593741904138e-59
5.874506795158222961e-59
3.934317444736588321e-59
2.991038471234892256e-59
2.104852263858011882e-59
1.487233130788420591e-59
1.068018243792230629e-59
7.730029738809950789e-60
5.681988477737653390e-60
4.249375767991874383e-60
3.237469281612937921e-60
2.502775622096844244e-60
1.952600879727756013e-60
1.527360771751095160e-60
1.189176553243078365e-60
9.156161388105385116e-61
6.933104947776481615e-61
5.140534534097054436e-61
