# bin_17_4
3.100266315074078113e-47
3.454695204933955966e-47
3.774335848864523880e-47
4.022651342352107071e-47
4.154110237911349334e-47
4.134118996700554989e-47
3.904558874821492030e-47
3.482789910574832907e-47
2.936086532797983169e-47
2.401006663849552227e-47
2.007760732215444069e-47
1.739455081720120279e-47
1.404831440953013449e-47
9.776422797639998226e-48
7.544461963962108452e-48
5.663649235964346007e-48
3.953709603564352564e-48
2.800888846479152339e-48
2.023666312545766565e-48
1.421077859976692064e-48
1.001045724323075250e-48
7.154386820152022663e-49
5.188694532381993862e-49
3.830713544375729987e-49
2.882432162134297343e-49
2.204152265232039843e-49
1.705364203779847555e-49
1.326272507442141617e-49
1.029288965548098701e-49
7.916571056906320896e-50
5.999641134718368265e-50
