# bin_17_16
6.320800106090861086e-06
7.136981171171724932e-06
7.923149756295731462e-06
8.613490963650021691e-06
9.120989152889483735e-06
9.341746948014803922e-06
9.196267783587320011e-06
8.564862647827201013e-06
7.540102176261292173e-06
6.282942343027263013e-06
5.138986367199790129e-06
4.350688697276024838e-06
3.759573411905032443e-06
2.916309574424133255e-06
2.012555583801322320e-06
1.617155829633999840e-06
1.131075200270336381e-06
8.323691569267927365e-07
5.610066227015117281e-07
3.977227601976348593e-07
2.766532421393761879e-07
1.922342575275122989e-07
1.344110271118277418e-07
9.490684482604640301e-08
6.818939786799297622e-08
4.995999014248677941e-08
3.731724830075859805e-08
2.836121766442048021e-08
2.181143883401404743e-08
1.685765812286494603e-08
1.299520595326309868e-08
