# bin_7_4
1.136006432554444190e-08
1.217052205766098546e-08
1.266111286058834239e-08
1.271450118511009204e-08
1.216954065067526800e-08
1.099767832883995014e-08
9.397903654870789250e-09
7.709292527079956340e-09
6.375582685940047638e-09
5.496545586158310614e-09
4.577427243293077250e-09
3.292906972379004013e-09
2.424694038714481127e-09
1.924951439005399955e-09
1.314513052948505335e-09
9.899496373838929660e-10
7.121217374628042246e-10
5.123378990776341256e-10
3.747442667578085001e-10
2.779916554802822279e-10
2.099772936761269794e-10
1.613890054892137544e-10
1.259436877141777848e-10
9.919293523990475348e-11
7.831358778606978297e-11
6.154647976203367689e-11
4.782006004008864126e-11
3.652123088113819792e-11
2.728485947629343888e-11
1.986865348189838636e-11
1.407863614720451816e-11
