# bin_20_13
7.017978217059071507e-14
7.929194111929604556e-14
8.809337036836716269e-14
9.585860725697698044e-14
1.016246992834484453e-13
1.042295735135150481e-13
1.028014571722648031e-13
9.596637406250762464e-14
8.466730232634317395e-14
7.067439102480700126e-14
5.779282736096559857e-14
4.883213630057164865e-14
4.223930915642268284e-14
3.298567143681879214e-14
2.274884754830146741e-14
1.818801988653536480e-14
1.285817192838763230e-14
9.377496066017347119e-15
6.333715423088003839e-15
4.507897478878562639e-15
3.128681468929132681e-15
2.167685564646208049e-15
1.512863387640050495e-15
1.065854848623990385e-15
7.637071756175912695e-16
5.579725388075139841e-16
4.156786119954868531e-16
3.152472310321883555e-16
2.421116488839720036e-16
1.870298032953683077e-16
1.442276949181045280e-16
