# bin_17_8
6.570360099933383751e-23
7.344328807727030770e-23
8.054437418555312325e-23
8.625097435278715620e-23
8.961242739790153218e-23
8.981987604902952086e-23
8.566844980372563141e-23
7.711840386590456362e-23
6.561665740118983525e-23
5.374783317639364568e-23
4.460404508585842869e-23
3.859899841346593232e-23
3.188258723746015419e-23
2.255011879585789422e-23
1.682471286589287082e-23
1.312211827860815025e-23
8.873378838054386947e-24
6.515173426994907650e-24
4.626858553724361206e-24
3.226431258325213889e-24
2.264926757374004527e-24
1.604638402781469434e-24
1.153557544220462155e-24
8.435297242125807642e-25
6.289490778585925979e-25
4.773500675392674102e-25
3.674254610857809751e-25
2.851242459385581067e-25
2.214636346477036294e-25
1.709493989831930576e-25
1.303158308409242774e-25
