# bin_16_8
1.008061790247277947e-19
1.124489710965362881e-19
1.230104259003805259e-19
1.313115780852913755e-19
1.358767692831348463e-19
1.355505762745050288e-19
1.284396093835263527e-19
1.149119616487990454e-19
9.716031890856775663e-20
7.948572116166804310e-20
6.629477269478209915e-20
5.743128571948872942e-20
4.675129854602309944e-20
3.267779894592777736e-20
2.494028539929193871e-20
1.897257995051000475e-20
1.308893931513747103e-20
9.382439394604264555e-21
6.747591516635245344e-21
4.726168348682867942e-21
3.322899341893556840e-21
2.367548816097575010e-21
1.712027458261976700e-21
1.260036650983669459e-21
9.453666083327083729e-22
7.213286281095679979e-22
5.573734424774630088e-22
4.333756563446780576e-22
3.366212468767559531e-22
2.593819118003854619e-22
1.970944638360885010e-22
