# bin_18_1
4.577172734321301477e-81
5.099275877543653457e-81
5.569439561784975420e-81
5.933621187147719941e-81
6.124569347858094250e-81
6.091460658859670683e-81
5.748688095603939456e-81
5.123921576069261562e-81
4.316587505149986570e-81
3.529669812477134480e-81
2.953472838888112954e-81
2.558720305530449848e-81
2.062273917318967555e-81
1.433847613752647509e-81
1.109382139389924622e-81
8.299467763841826857e-82
5.810815457954985414e-82
4.104302096874431903e-82
2.967267158498209825e-82
2.084515260951212072e-82
1.468834830880035138e-82
1.050273737928272707e-82
7.621204499393890428e-83
5.630610892652252760e-83
4.239658255652937679e-83
3.244568271585319157e-83
2.512249735852115004e-83
1.955131352508021315e-83
1.518290967510255522e-83
1.168454873523043946e-83
8.860356225583992730e-84
