# bin_17_12
2.061234016881237969e-10
2.314998719245065139e-10
2.553587082892779734e-10
2.754227747832030666e-10
2.887830214268736016e-10
2.924605449699775203e-10
2.832046962750415716e-10
2.588459976501574726e-10
2.237202578535169742e-10
1.843093791947973812e-10
1.515369384471821150e-10
1.301289763722722704e-10
1.104813091007566883e-10
8.125605559417190199e-11
5.761563049248997393e-11
4.682473984030402855e-11
3.101659635896501059e-11
2.356467539569203194e-11
1.623292803887671536e-11
1.124180336416348439e-11
7.894173647067869460e-12
5.547378304262909178e-12
3.934425083145477524e-12
2.830731366356185127e-12
2.076645643193505914e-12
1.553078901061039125e-12
1.181549444692212467e-12
9.103609446668908439e-13
7.055598887302491151e-13
5.460558268451696496e-13
4.190456495018752377e-13
