# bin_16_2
1.465464362334870475e-59
1.623739042202283392e-59
1.761601535367623329e-59
1.861188711435840492e-59
1.901613161872670614e-59
1.866141396261997288e-59
1.731842742291578104e-59
1.519602625824500711e-59
1.263197444546825450e-59
1.033442388076477524e-59
8.767380615653838497e-60
7.558394018687486673e-60
5.815915059393630641e-60
4.030413641968295230e-60
3.257277555221700743e-60
2.264860584935917399e-60
1.691734985081858586e-60
1.157840316549916266e-60
8.296117956173616402e-61
5.912863512004992735e-61
4.236314255483332184e-61
3.069436395170466547e-61
2.258390495211579436e-61
1.693782682764816669e-61
1.292760702406711468e-61
9.999296924200819082e-62
7.793930918035096224e-62
6.077979672716807002e-62
4.709126664323955467e-62
3.602087942266124881e-62
2.706674344175414198e-62
