# bin_11_7
5.951507515041807828e-10
6.543182759797371596e-10
7.030922886707692127e-10
7.339450888291359553e-10
7.397449547157641142e-10
7.114927194842356304e-10
6.458851186466171317e-10
5.544142024337547309e-10
4.554006240649369325e-10
3.756245321356426244e-10
3.235817246909136917e-10
2.717911518413373415e-10
1.968086037949267384e-10
1.426493213190004540e-10
1.145579082430975873e-10
7.687549495035502452e-11
5.821581300031730154e-11
4.112023501760517823e-11
2.906927254224782612e-11
2.087073558874740277e-11
1.511645559647489659e-11
1.112628392480611255e-11
8.336202196954473273e-12
6.361111500991907292e-12
4.924742235069249349e-12
3.846790640353081616e-12
3.011555517991784543e-12
2.345950501792867127e-12
1.806725461006255119e-12
1.368117425088418417e-12
1.014253611339597584e-12
