# bin_11_3
5.814221703969956144e-26
6.326675022715482901e-26
6.711532313347849805e-26
6.892821503700913546e-26
6.813505283445769292e-26
6.381451116246429926e-26
5.648264229478932029e-26
4.728871501741289684e-26
3.865102908530407171e-26
3.251547367159322858e-26
2.812104871418862120e-26
2.224847991383272885e-26
1.544118520131664516e-26
1.221020259473799383e-26
8.906270236152505046e-27
6.451680239009841772e-27
4.526745836120686746e-27
3.314321067203688721e-27
2.384356108698736296e-27
1.729627709713017255e-27
1.276541453311147848e-27
9.583592524613756363e-28
7.326311010407595342e-28
5.686441883211471611e-28
4.456556344153934406e-28
3.503566879805092796e-28
2.743335764312935789e-28
2.125199972015940510e-28
1.619503800562326115e-28
1.208400320954215488e-28
8.797187049580164167e-29
