# bin_15_12
1.566362096275670457e-07
1.753722463045974775e-07
1.927118315918005669e-07
2.068768714990380789e-07
2.156229684018922925e-07
2.169064326949009617e-07
2.079602631915249674e-07
1.881504328454230083e-07
1.609302684744735176e-07
1.320227718525916078e-07
1.091742899973261835e-07
9.429533906461623645e-08
7.869555760525489643e-08
5.632145626037790646e-08
4.126949525129169252e-08
3.275425811480198800e-08
2.188778325672758077e-08
1.633268769497085052e-08
1.147426140795798008e-08
7.976307280918829345e-09
5.598555859051512434e-09
3.951266938631513389e-09
2.827180831474209071e-09
2.056284837995196169e-09
1.525142341362986492e-09
1.152161407754957324e-09
8.836977598525444142e-10
6.843789698017221507e-10
5.313737074764431569e-10
4.106455812494908303e-10
3.137962248601663356e-10
