# bin_16_11
1.068234785326298977e-10
1.196377766075576157e-10
1.315159510321156982e-10
1.412484550429348324e-10
1.473073094870964679e-10
1.482839536105961692e-10
1.423066785985332921e-10
1.288741281046535679e-10
1.103389957152965880e-10
9.054836453068846159e-11
7.483035757897542240e-11
6.460437899347663685e-11
5.401638869902068669e-11
3.874960423285709341e-11
2.829867950202596449e-11
2.252817500311892507e-11
1.502596369290655309e-11
1.124270456216829245e-11
7.882722465213072001e-12
5.476642797564892538e-12
3.844091661941638730e-12
2.711275821918026565e-12
1.938243162647275547e-12
1.408289617604362760e-12
1.043463323444451496e-12
7.875623466240563740e-13
6.036256321937463614e-13
4.672828211350685823e-13
3.627760900307507622e-13
2.804084125493444801e-13
2.143702877317125693e-13
