# bin_10_8
1.004339833096752162e-06
1.103807210674054658e-06
1.185580442819349285e-06
1.236934420860224101e-06
1.245944874313766359e-06
1.197275453498910619e-06
1.085873843888531989e-06
9.312096846158004208e-07
7.646198331881210446e-07
6.310125196390657811e-07
5.438553184948641869e-07
4.560888309247882895e-07
3.294688899513877684e-07
2.395088443265396127e-07
1.919445013966647672e-07
1.289113522527611315e-07
9.747203761947802519e-08
6.896863254530644638e-08
4.877101960291334341e-08
3.501724430696079627e-08
2.537280427363017404e-08
1.868838224405729153e-08
1.401279579030833561e-08
1.070010432314648887e-08
8.288404280992852976e-09
6.476368271064505335e-09
5.070714226553076124e-09
3.949538788923341899e-09
3.040774133465707712e-09
2.301494178927157591e-09
1.705171408010349686e-09
