# bin_18_3
9.990670745241876662e-61
1.114182390967616673e-60
1.218461773058051243e-60
1.300198944551745372e-60
1.344755520978823553e-60
1.340758430896394573e-60
1.269440612747435893e-60
1.134922007248457631e-60
9.589186178649281117e-61
7.843992958995210062e-61
6.546294811154952574e-61
5.671256273384239902e-61
4.608040801968003259e-61
3.217318968134777006e-61
2.462003116405367791e-61
1.867027675543251796e-61
1.291550764919051821e-61
9.231498752484453735e-62
6.646737611579737697e-62
4.658104369824784775e-62
3.276212066629949711e-62
2.335876287300331688e-62
1.690249540360405448e-62
1.244919150273936233e-62
9.346701851543625548e-63
7.135790372670066453e-63
5.516075871993489429e-63
4.289711546855742353e-63
3.331881931104244794e-63
2.566766432755726241e-63
1.949624291660926470e-63
