# bin_7_5
7.425332426428879222e-07
7.980790668563572020e-07
8.336620940351842541e-07
8.410819477626960274e-07
8.104599899603329534e-07
7.373097830020019984e-07
6.343635678836336573e-07
5.216159300709317975e-07
4.295904720160448048e-07
3.692332792278493891e-07
3.112191098203484985e-07
2.274167173733474367e-07
1.639571137001488348e-07
1.323103044542637324e-07
8.959205679961399523e-08
6.830295277598649459e-08
4.855502568669192484e-08
3.485355900862822568e-08
2.546806860814040238e-08
1.882940967354584018e-08
1.416291141423617113e-08
1.084354985872211229e-08
8.437006368887887685e-09
6.634691443907425616e-09
5.238026554720223129e-09
4.122754582788831771e-09
3.212676998581516760e-09
2.463914181610289903e-09
1.850473163582309889e-09
1.355680869198701419e-09
9.667750081594325058e-10
