# bin_18_5
2.575413327530439246e-44
2.876410228126713342e-44
3.151330404673900713e-44
3.370345501454941526e-44
3.496000481593289027e-44
3.497530688383499099e-44
3.327078821614373914e-44
2.987585935930919497e-44
2.535472091657993371e-44
2.075649513678471203e-44
1.725909647212255922e-44
1.494427774225697863e-44
1.227439645922003616e-44
8.636976611529757925e-45
6.503103806377348642e-45
5.023046901908452607e-45
3.422087747394816518e-45
2.489164175479880346e-45
1.777244873443106971e-45
1.241457935250334528e-45
8.718356682304234127e-46
6.190401458333693991e-46
4.460821670187968253e-46
3.270556948048019722e-46
2.444816423850219670e-46
1.859629012436493815e-46
1.433728351955811029e-46
1.113537677908958796e-46
8.649690952163679121e-47
6.672264114368107977e-47
5.079842494307857634e-47
