# bin_15_6
1.904567993614293512e-25
2.113741249063297702e-25
2.297846576075194762e-25
2.433860175384019403e-25
2.494138921318088528e-25
2.457711904567827025e-25
2.292245096560023692e-25
2.020782690360254492e-25
1.685891296553819128e-25
1.378384546929117226e-25
1.164591046027015589e-25
1.006570438763663124e-25
7.855481134939413657e-26
5.430964051439768752e-26
4.347338471444254775e-26
3.086894122994647891e-26
2.266468570533631516e-26
1.554249556210923926e-26
1.121715673215409889e-26
7.959081557708102878e-27
5.672582359717924818e-27
4.095327498810891192e-27
3.001116413777181357e-27
2.241281223611606968e-27
1.704256381602417972e-27
1.314492603321419278e-27
1.022917343863967876e-27
7.974609003812732945e-28
6.184229356611402542e-28
4.739656837792724616e-28
3.571414222163915106e-28
