# bin_18_15
2.996804203591189763e-07
3.381415082891123561e-07
3.750694508999534478e-07
4.073175412337338688e-07
4.307451402823993702e-07
4.404756012636387020e-07
4.326712504268631047e-07
4.018969371573765761e-07
3.529314585173230095e-07
2.935264547906074867e-07
2.401730962643333801e-07
2.037849320615988427e-07
1.758485751180854409e-07
1.353658072171148043e-07
9.354569515684987003e-08
7.553418295792916593e-08
5.220716435430983682e-08
3.877499930825490143e-08
2.611700810605396199e-08
1.841683376293840298e-08
1.283978296676980376e-08
8.946412762697961460e-09
6.265069448881871002e-09
4.433803979322664064e-09
3.193918368764975967e-09
2.346430170119698685e-09
1.757355803525774771e-09
1.338578524080415547e-09
1.031066575442375345e-09
7.975505317198854944e-10
6.148749849706927265e-10
