# bin_13_12
6.370676664054726689e-06
7.108560070158353872e-06
7.779018831792273742e-06
8.307717430983871975e-06
8.601538954291849647e-06
8.586745450788307098e-06
8.143947053848790091e-06
7.292602069970785362e-06
6.171532570012330576e-06
5.049643311600109282e-06
4.208521052265451813e-06
3.645469842208012394e-06
2.974014748046962000e-06
2.082023466408062706e-06
1.583850777490100090e-06
1.209359126470455417e-06
8.317416134637909678e-07
5.983414129830470989e-07
4.295767480045960222e-07
3.006907396298261265e-07
2.113505081447551114e-07
1.504633013800809372e-07
1.087150370028363093e-07
7.994210880354599461e-08
5.992738265083868993e-08
4.569287064358558846e-08
3.528916858671208133e-08
2.743181883177580463e-08
2.130798998966576269e-08
1.642317880348263053e-08
1.248515017502945435e-08
