# bin_3_2
-4.500561904700487624e-08
-4.585256224620934952e-08
-4.485101614057422407e-08
-4.152167274765112163e-08
-3.635883079809725350e-08
-3.022264837186073745e-08
-2.474946033555150634e-08
-2.097241885418442495e-08
-1.798193882057848231e-08
-1.385473043390980507e-08
-9.755074597084654167e-09
-7.811954811519511985e-09
-5.578210291616880599e-09
-4.169885408653878516e-09
-2.983189905320863571e-09
-2.206714423290867308e-09
-1.639878272013432134e-09
-1.236794098880948595e-09
-9.504193023591802108e-10
-7.428186149933104437e-10
-5.886239567913910549e-10
-4.697644046955218653e-10
-3.747836719451451789e-10
-2.967651743249264377e-10
-2.316622095668810458e-10
-1.772478705465824213e-10
-1.323088239210700378e-10
-9.609278413288755325e-11
-6.785165726422349556e-11
-4.665188074008319352e-11
-3.132196665313615609e-11
