# bin_18_6
-5.531328922050914363e-40
-6.193995215690432648e-40
-6.807639064178979557e-40
-7.309537444913490885e-40
-7.620485878539984973e-40
-7.668070251901469419e-40
-7.354743310752842198e-40
-6.656752476568456080e-40
-5.696035709189807751e-40
-4.673405978376049520e-40
-3.863509335785647090e-40
-3.336422050866456319e-40
-2.786654629446094459e-40
-1.996300542670844805e-40
-1.460779132621667042e-40
-1.160958730359275031e-40
-7.752061023470081057e-41
-5.792180240394791199e-41
-4.066434578755475782e-41
-2.826678410307486953e-41
-1.984492258920688246e-41
-1.400504394439374032e-41
-1.002093816451963304e-41
-7.284506522663593798e-42
-5.402195390000264025e-42
-4.079429459366156203e-42
-3.127338776669048563e-42
-2.420805764097325241e-42
-1.878622812414051259e-42
-1.450998549235842323e-42
-1.108131243655328929e-42
