# bin_4_11
-7.033434373128151329e-23
-7.689800530303179199e-23
-8.205872853968872611e-23
-8.490087192963890894e-23
-8.469923562920409482e-23
-8.028674716149625700e-23
-7.186379100623249673e-23
-6.080184461748133796e-23
-4.974170249932022316e-23
-4.144272604159473711e-23
-3.587063731199000888e-23
-2.925674020452509911e-23
-2.054295604581497363e-23
-1.564594998315132458e-23
-1.198824532069761962e-23
-8.314708152710499109e-24
-6.044529774988259417e-24
-4.387226092476134933e-24
-3.127682389811469060e-24
-2.250862398689169045e-24
-1.646057917983621212e-24
-1.225009644622494558e-24
-9.281624827095011936e-25
-7.152030466034742275e-25
-5.575556191997156628e-25
-4.370954843227265560e-25
-3.421866124318911575e-25
-2.656431742028280682e-25
-2.032680797262356268e-25
-1.525507177501668060e-25
-1.118503986171652482e-25
