# bin_19_9
-1.594692778144318185e-27
-1.793976243820759280e-27
-1.982757485111415647e-27
-2.143700839788885997e-27
-2.254468915745463809e-27
-2.290846972475992664e-27
-2.229593014063208990e-27
-2.048999206428222857e-27
-1.780742374713595743e-27
-1.471167090512017638e-27
-1.206865722179100121e-27
-1.032483855564178899e-27
-8.828206118149411517e-28
-6.593951607940952570e-28
-4.616607518625967542e-28
-3.764827557694794454e-28
-2.511277472556193907e-28
-1.907159469521784904e-28
-1.300869578380767189e-28
-9.027016070502489913e-29
-6.337725693150789081e-29
-4.449891471743683819e-29
-3.144102227731334223e-29
-2.248842233082592369e-29
-1.640497438941111438e-29
-1.220078731729799262e-29
-9.236290410295418800e-30
-7.091233249254445331e-30
-5.485446348454617048e-30
-4.244298412964900837e-30
-3.261079491480234049e-30
