# bin_11_14
-3.870883184509894451e-10
-4.327810654893266705e-10
-4.747416900949879802e-10
-5.085236038023015638e-10
-5.285313944752004756e-10
-5.299723733982214193e-10
-5.057733253952319910e-10
-4.555583300657383508e-10
-3.878522091770072799e-10
-3.177547725060775287e-10
-2.635884476479384898e-10
-2.280437687836595118e-10
-1.885830076134304155e-10
-1.335810157327196532e-10
-9.945582663980630879e-11
-7.772882153431505219e-11
-5.249743571009368037e-11
-3.862177207980427238e-11
-2.739576714428982488e-11
-1.910056642453825270e-11
-1.341160715508337788e-11
-9.499453368860801009e-12
-6.827249445490319646e-12
-4.988733835846735034e-12
-3.718204316399146558e-12
-2.820154229978474838e-12
-2.169249477447017923e-12
-1.682325242352318253e-12
-1.305945263940240995e-12
-1.007507513601159546e-12
-7.676127024748184116e-13
