# bin_13_4
-4.259810510688191170e-31
-4.693257191576738042e-31
-5.056253738053324673e-31
-5.295462019513797373e-31
-5.357037710853961602e-31
-5.180591202240125396e-31
-4.729354038674026656e-31
-4.082962798352314357e-31
-3.361874752052554064e-31
-2.764568862043075068e-31
-2.373730833856756563e-31
-2.011933807154483613e-31
-1.478871514871513086e-31
-1.053674015319950841e-31
-8.555636506588091706e-32
-5.725902710429325153e-32
-4.368331052213710047e-32
-3.054383958326617074e-32
-2.156753660668076227e-32
-1.548343243223444643e-32
-1.119094431714552357e-32
-8.204294021921901663e-33
-6.115551837868047527e-33
-4.646616982065123668e-33
-3.584270575715256901e-33
-2.792327554883868846e-33
-2.183150968858194631e-33
-1.700477463240204051e-33
-1.310892921532892855e-33
-9.944889336807605367e-34
-7.391680021307199200e-34
