# bin_18_10
-1.471355220615226910e-20
-1.654108296250803642e-20
-1.826689748210089588e-20
-1.972991702983751779e-20
-2.072339212396275823e-20
-2.102844131614404542e-20
-2.042305001006101732e-20
-1.872554921956081973e-20
-1.623632519226224290e-20
-1.339718965638159102e-20
-1.099974591789405160e-20
-9.425611155693416006e-21
-8.036878562657624772e-21
-5.964044943977812818e-21
-4.195618056104824809e-21
-3.419559993172976381e-21
-2.271920000112398648e-21
-1.727335281323801129e-21
-1.183122633421310101e-21
-8.199600537156195042e-22
-5.758871710574156568e-22
-4.045637900311095781e-22
-2.863682145940721256e-22
-2.053203646999607932e-22
-1.501637417836408319e-22
-1.119542646472509232e-22
-8.493079372803971077e-23
-6.530259897180214400e-23
-5.055109501296279406e-23
-3.911049806163766949e-23
-3.002705662355248997e-23
