# bin_18_2
-6.962273369309231812e-73
-7.774045578401283650e-73
-8.514265299131216720e-73
-9.102114868591806128e-73
-9.436171532197970643e-73
-9.434123763279192230e-73
-8.966179759350563862e-73
-8.044461990162006895e-73
-6.821249201337373656e-73
-5.583254703426642960e-73
-4.645682303143998782e-73
-4.023054426908103556e-73
-3.297601973538939492e-73
-2.316915073321723830e-73
-1.749930223258723266e-73
-1.347056997884928477e-73
-9.204246866296210121e-74
-6.673503091485268726e-74
-4.773466434138491570e-74
-3.337087743566397269e-74
-2.344618230206063393e-74
-1.666399398671136374e-74
-1.202031263698273764e-74
-8.820127543054417836e-75
-6.599964678605111511e-75
-5.023045740326794842e-75
-3.873502094397536278e-75
-3.007998391460308893e-75
-2.335201797150919582e-75
-1.799613054124155278e-75
-1.368349113703031016e-75
