# bin_13_10
-3.038480424851321592e-10
-3.385143075244798006e-10
-3.697268735231827647e-10
-3.938983515316432383e-10
-4.065669420387046374e-10
-4.043526786523847472e-10
-3.815865101495690268e-10
-3.401053535139161233e-10
-2.865186782412786932e-10
-2.342911070136231206e-10
-1.960461798770769828e-10
-1.698339763250642135e-10
-1.368651155057470338e-10
-9.518441527095456148e-11
-7.364237966002367054e-11
-5.508715784090747529e-11
-3.858149589239074454e-11
-2.725986505963736763e-11
-1.970180683985871867e-11
-1.384317087808054982e-11
-9.757592571411059716e-12
-6.978052570497697134e-12
-5.063624741473599255e-12
-3.740790507537242825e-12
-2.816794317708582866e-12
-2.155051179178369238e-12
-1.667963052498027932e-12
-1.297404386501818591e-12
-1.006852535131163891e-12
-7.742432904626412903e-13
-5.865716938303297812e-13
