# bin_3_16
-6.197988324713705796e-53
-6.886682088733937503e-53
-7.497010956857224179e-53
-7.954520164444441322e-53
-8.168608503774739960e-53
-8.071697890722507863e-53
-7.554278519652712859e-53
-6.681108035567143737e-53
-5.588982885259692927e-53
-4.568751377693678255e-53
-3.849052877183599436e-53
-3.330512983954262442e-53
-2.624735074660657356e-53
-1.814901376342954215e-53
-1.440285153589784436e-53
-1.038704534883110671e-53
-7.522384358855467467e-54
-5.188353448254447288e-54
-3.756651173409988374e-54
-2.657485013957694437e-54
-1.886969732886396063e-54
-1.358893550244709032e-54
-9.927614089830353468e-55
-7.390564734590003600e-55
-5.603579582620756011e-55
-4.311014235327137196e-55
-3.348713031389586763e-55
-2.608131769860480681e-55
-2.022167598413452331e-55
-1.550508272915117331e-55
-1.169457879401830736e-55
