# bin_14_18
-4.954891792702549480e-11
-5.594035830294647508e-11
-6.209122435633704980e-11
-6.748436892721554202e-11
-7.143703224673398588e-11
-7.313699952867740387e-11
-7.195760678756910810e-11
-6.697152904535870710e-11
-5.892077075018163319e-11
-4.907298162708385831e-11
-4.014197224950862497e-11
-3.400332628720930917e-11
-2.937243713950387690e-11
-2.274009300100688480e-11
-1.569885573904373589e-11
-1.263002653649389521e-11
-8.807447096239778643e-12
-6.496540049882504539e-12
-4.378239240236881846e-12
-3.099869013300495993e-12
-2.157616813582604158e-12
-1.500383040129500186e-12
-1.049735015910295905e-12
-7.415239501408263008e-13
-5.332144906055198301e-13
-3.910001071253103273e-13
-2.922595442658896853e-13
-2.222478124965992765e-13
-1.709869416157618264e-13
-1.321703114527480561e-13
-1.018774385530752884e-13
