# bin_4_19
-2.062964497405060111e-59
-2.311716976219652704e-59
-2.542900200450096399e-59
-2.733255723190551523e-59
-2.853351119510671954e-59
-2.875542763882191906e-59
-2.764173656883327830e-59
-2.507395474163154210e-59
-2.150445430279988554e-59
-1.765806350935412313e-59
-1.457766756955380468e-59
-1.257493582146542872e-59
-1.054599626243284570e-59
-7.597914477246500554e-60
-5.517138514103484066e-60
-4.413547477068725899e-60
-2.936288928707610714e-60
-2.206149278972563925e-60
-1.541948614861629081e-60
-1.070583471584197532e-60
-7.516776222935006768e-61
-5.297868830796311873e-61
-3.783343410614915288e-61
-2.743680601650927968e-61
-2.029984491414888315e-61
-1.529733854859371969e-61
-1.170784408442790064e-61
-9.053932348002931544e-62
-7.024331549846660606e-62
-5.427756130606024090e-62
-4.149380143774117340e-62
