# bin_6_3
-3.019848903937982969e-11
-3.198473137389209250e-11
-3.279980993839105742e-11
-3.236246482104809512e-11
-3.025625410686350527e-11
-2.673919186706771189e-11
-2.237037640961640779e-11
-1.829170616228516369e-11
-1.539655662141967963e-11
-1.328766200804380588e-11
-1.048304509091468017e-11
-7.320321648807149209e-12
-5.786649518578487766e-12
-4.228504223107357062e-12
-3.083424079125229012e-12
-2.196561495996917728e-12
-1.616661757569523020e-12
-1.180811839024316502e-12
-8.728921568094585002e-13
-6.572015385993512520e-13
-5.036019807248287922e-13
-3.923253350586902602e-13
-3.092210047766099737e-13
-2.449017746204435122e-13
-1.935398154501648418e-13
-1.515561670411908098e-13
-1.168559757859086396e-13
-8.824815405506422717e-14
-6.501004090703174934e-14
-4.659956556562136052e-14
-3.249488431797991024e-14
