# bin_15_6
-6.251553393226768399e-28
-6.951340779670255112e-28
-7.574278971115275118e-28
-8.045597807515482273e-28
-8.273602749292076590e-28
-8.190291966817344986e-28
-7.682725175052265903e-28
-6.809118847726695773e-28
-5.706558553238622047e-28
-4.664719832081144597e-28
-3.922547510977847078e-28
-3.395977435840699649e-28
-2.693317810273001947e-28
-1.863582268503368877e-28
-1.469653081591466245e-28
-1.070730766664555990e-28
-7.682482436231436423e-29
-5.325699304728748899e-29
-3.860333350995105289e-29
-2.725481314431219508e-29
-1.930651752366552588e-29
-1.387841852317656528e-29
-1.012076505643281286e-29
-7.518954466477661538e-30
-5.690566775919734439e-30
-4.371650066224176763e-30
-3.392762227075516603e-30
-2.641715831624287612e-30
-2.048855978554255653e-30
-1.572280234341671812e-30
-1.187353843246134724e-30
