# bin_13_6
-7.306344772187477149e-21
-8.079495577195705750e-21
-8.744038123978261294e-21
-9.210064102236455301e-21
-9.376905025800518448e-21
-9.155129399584470545e-21
-8.445685880321585534e-21
-7.368115086808567792e-21
-6.101156376457758488e-21
-4.997814465169308367e-21
-4.259896623594853284e-21
-3.655754427772361447e-21
-2.766285577515623677e-21
-1.929063902290064710e-21
-1.570200922129666230e-21
-1.069344686379411067e-21
-8.106065608821736926e-22
-5.573734046337877443e-22
-3.960083654787659740e-22
-2.834816401805960579e-22
-2.040635998151959891e-22
-1.485049836007213626e-22
-1.097438593984172390e-22
-8.270245440279650788e-23
-6.336920910199543499e-23
-4.914045401292310218e-23
-3.834203527060993502e-23
-2.988243896249536650e-23
-2.310345762382388700e-23
-1.761221089339741620e-23
-1.317527853751859780e-23
