# bin_4_6
-2.547855169213069706e-09
-2.715215825639286920e-09
-2.805614008108445219e-09
-2.795129746445616868e-09
-2.645812318982789099e-09
-2.365578312037986224e-09
-1.999801917639829477e-09
-1.636028253874832708e-09
-1.363657181397471471e-09
-1.179028344143252004e-09
-9.594030570553869450e-10
-6.757525226198955758e-10
-5.161315076687230281e-10
-3.953015542282609294e-10
-2.770113459583958104e-10
-2.027133170053903345e-10
-1.483780719213471252e-10
-1.074095049219109181e-10
-7.878834422980362837e-11
-5.883914946154710434e-11
-4.475826144951962010e-11
-3.463316803353647485e-11
-2.716758947068318698e-11
-2.146370384661409784e-11
-1.696115964211726057e-11
-1.331245746046242651e-11
-1.030941037632792135e-11
-7.833796162253127591e-12
-5.814785570558060684e-12
-4.202794569928715530e-12
-2.955051841400235616e-12
