# bin_7_4
-4.525938199115931909e-11
-4.852855875810789779e-11
-5.053680117313795825e-11
-5.080920194579153440e-11
-4.871273527234465531e-11
-4.409487364435321963e-11
-3.774464340489861100e-11
-3.098058687450900649e-11
-2.559386755435579788e-11
-2.204914233312461243e-11
-1.841842788262092231e-11
-1.330171226920125628e-11
-9.742119616829012851e-12
-7.766637058179105379e-12
-5.291730038278569344e-12
-3.997714297525480711e-12
-2.867137503132742612e-12
-2.061338716332765040e-12
-1.507198829383668302e-12
-1.117001957484709342e-12
-8.427487756919495256e-13
-6.469030945199955618e-13
-5.043963435039513920e-13
-3.970348484752664166e-13
-3.133982769305830761e-13
-2.463496544343642624e-13
-1.915152611430998373e-13
-1.463932475126582835e-13
-1.094955156168640034e-13
-7.984174453209683365e-14
-5.665594788313784171e-14
