# bin_8_3
-1.256570162751867752e-16
-1.348595858112887750e-16
-1.406084982414611923e-16
-1.415589303659015170e-16
-1.359766928025359685e-16
-1.233063239788153644e-16
-1.057407933799796634e-16
-8.683071149346745314e-17
-7.163946284965844454e-17
-6.168570651631698287e-17
-5.172106250855437565e-17
-3.748379155013977220e-17
-2.729010579467054375e-17
-2.188451542407088553e-17
-1.484753213760251179e-17
-1.127347733544186677e-17
-8.059082333946762970e-18
-5.788111383138459630e-18
-4.230734231990787774e-18
-3.131776340259876853e-18
-2.359992157119892275e-18
-1.809444840526813906e-18
-1.409585112379981903e-18
-1.108946552369035550e-18
-8.751955008489154966e-19
-6.881046776982165774e-19
-5.352421177813991481e-19
-4.094900696897189805e-19
-3.066183219672781660e-19
-2.238625006661988411e-19
-1.590605024606867679e-19
