# bin_16_8
-3.201891001881436021e-22
-3.578122101806936565e-22
-3.922720315532386947e-22
-4.198760040861003475e-22
-4.359819814577459471e-22
-4.366948054069603504e-22
-4.161085711720764861e-22
-3.742394787055461508e-22
-3.181260712571980434e-22
-2.605250794638125492e-22
-2.163535934641840773e-22
-1.872667133210236371e-22
-1.543672517828954214e-22
-1.089813998194789474e-22
-8.158116198010961884e-23
-6.340961310793465076e-23
-4.299742109322951247e-23
-3.146770106738168657e-23
-2.239433487843612398e-23
-1.562895783817047570e-23
-1.097531312777190750e-23
-7.783499434874172969e-24
-5.601865730614420471e-24
-4.099955230120463486e-24
-3.060508132806792191e-24
-2.324436063381778130e-24
-1.789759888014698883e-24
-1.388785288929961654e-24
-1.078155643979051717e-24
-8.314607574849564275e-25
-6.330137975727309167e-25
