# bin_12_3
-5.315987199328177231e-33
-5.823241642116920425e-33
-6.228925435656425745e-33
-6.464452783084224291e-33
-6.472323995277898620e-33
-6.165690464135431572e-33
-5.544779463016449084e-33
-4.713592567108351083e-33
-3.859935785958464160e-33
-3.203927253256433487e-33
-2.770764574102492378e-33
-2.284770519053423590e-33
-1.618334955417287870e-33
-1.211842757722888507e-33
-9.455782882712481936e-34
-6.463562502933425251e-34
-4.776320698238604021e-34
-3.437006008425877618e-34
-2.442286202702132429e-34
-1.755153701913644020e-34
-1.278764752193422158e-34
-9.482037179105039322e-35
-7.157276280007745951e-35
-5.497833232872884435e-35
-4.276357122817503179e-35
-3.348472328704514661e-35
-2.621361878746309385e-35
-2.037132842545292051e-35
-1.561897231106616329e-35
-1.175428043690007636e-35
-8.647629227587599280e-36
