# bin_11_19
-7.690676440560941683e-20
-8.668155945954512047e-20
-9.601973458197093285e-20
-1.041028178737720174e-19
-1.098627776000631841e-19
-1.120744698980457402e-19
-1.097112174023042270e-19
-1.014926918652785485e-19
-8.878053605971532675e-20
-7.363447668518982288e-20
-6.029565633337840005e-20
-5.132865509874575571e-20
-4.416811843453343966e-20
-3.360836880447189939e-20
-2.330642947779975516e-20
-1.892832382450014994e-20
-1.287127168381961332e-20
-9.671887333301121236e-21
-6.533076183721599096e-21
-4.571872104024445420e-21
-3.199582658503987335e-21
-2.238917627291620138e-21
-1.573832605049434207e-21
-1.118230787676501957e-21
-8.097031161945078292e-22
-5.978764425555871551e-22
-4.497380340409233018e-22
-3.436882210977443414e-22
-2.652008208287979623e-22
-2.051563187433113094e-22
-1.579314097857411340e-22
