# bin_20_13
-2.949933214143089501e-10
-3.302668586315232099e-10
-3.628734498578969083e-10
-3.894491644581735242e-10
-4.057453859062273744e-10
-4.079500589228360809e-10
-3.908065497047350412e-10
-3.533398325796868272e-10
-3.020121365102383133e-10
-2.478036990764214681e-10
-2.051477095369031086e-10
-1.772427667663157395e-10
-1.475998691291709814e-10
-1.055177765042969387e-10
-7.761120403809340014e-11
-6.133826428331327385e-11
-4.116946024104893833e-11
-3.059002325049614035e-11
-2.154218595370486846e-11
-1.499424025524550595e-11
-1.053186883467454305e-11
-7.444789292050061873e-12
-5.334960344247827136e-12
-3.884491548880576868e-12
-2.885194427086996757e-12
-2.181632852419376361e-12
-1.674118253199674700e-12
-1.296590091886214542e-12
-1.006274539035585184e-12
-7.769683665680768113e-13
-5.929993810533810706e-13
