# bin_11_1
-3.299910995882643919e-09
-3.183740831895296795e-09
-2.908704393494184211e-09
-2.516261459805418628e-09
-2.083867537232979897e-09
-1.719404215167526343e-09
-1.463758591490992687e-09
-1.228052867606998829e-09
-9.249765284923547610e-10
-6.727167873986045509e-10
-5.275802759217723726e-10
-3.799934538533531701e-10
-2.829207130293325824e-10
-2.069369557324253850e-10
-1.540868249077410086e-10
-1.161679403807261211e-10
-8.917025957725420884e-11
-6.973570905737700288e-11
-5.537027482835756292e-11
-4.439929044201879174e-11
-3.568710342197836015e-11
-2.853616623066456051e-11
-2.254194684026470285e-11
-1.748261022107541017e-11
-1.324593996540871396e-11
-9.771703265768327440e-12
-7.010304778696288129e-12
-4.894253635993989004e-12
-3.332971152230825678e-12
-2.220861788247369913e-12
-1.452830461658806839e-12
