# bin_18_2
-2.917876959493636799e-09
-2.929898112874252494e-09
-2.808310227249510917e-09
-2.545527017197777153e-09
-2.184038695065029130e-09
-1.799107908442899292e-09
-1.488085964810586696e-09
-1.274658358224661083e-09
-1.060922895644240589e-09
-7.805090788595235544e-10
-5.732223957829756980e-10
-4.509558928698041370e-10
-3.185804547299372246e-10
-2.388533808694687421e-10
-1.736839091336866456e-10
-1.283669888674900654e-10
-9.627575854646860934e-11
-7.345322939428524066e-11
-5.707984378261490457e-11
-4.504503241186199994e-11
-3.592934507584713933e-11
-2.875262148952386940e-11
-2.291431212804692498e-11
-1.805946721084476716e-11
-1.398708934477935453e-11
-1.059077134350316200e-11
-7.811466374127583718e-12
-5.602928241243922476e-12
-3.910100959473757124e-12
-2.660726679617753351e-12
-1.771039317051114713e-12
