# bin_16_11
-3.028699916630058482e-10
-3.366085532610275178e-10
-3.665316251434429160e-10
-3.889962143486772039e-10
-3.995871728581556920e-10
-3.949281889218996825e-10
-3.697298054510870074e-10
-3.271041656342530200e-10
-2.737907405579038349e-10
-2.239388852265518713e-10
-1.887020122258650557e-10
-1.632222516464384887e-10
-1.286774879338122766e-10
-8.918571075264245924e-11
-7.062914387592915355e-11
-5.100181210783648370e-11
-3.688711168592636006e-11
-2.556339913121950661e-11
-1.846057848411711243e-11
-1.306219914598165285e-11
-9.279101815070141191e-12
-6.681902111046790319e-12
-4.882065884290653997e-12
-3.634507963307641767e-12
-2.755685815076239831e-12
-2.119963819592402037e-12
-1.646661174751866460e-12
-1.282455547785043394e-12
-9.943419154361192617e-13
-7.624757041363321426e-13
-5.751695563858982502e-13
