# bin_20_3
-2.361547787053182154e-09
-2.432050954633941050e-09
-2.412543448497409758e-09
-2.273422117164965140e-09
-2.025069989797626618e-09
-1.708324751140722199e-09
-1.399818808719797696e-09
-1.170750686203742144e-09
-1.008080058183680694e-09
-8.112747956620233428e-10
-5.767536110751440813e-10
-4.428185676572969294e-10
-3.352255815715665946e-10
-2.395498954797407284e-10
-1.759412910560519466e-10
-1.291718626930620977e-10
-9.496370504377059877e-11
-7.094465147596795022e-11
-5.396957819241815067e-11
-4.180232151985955274e-11
-3.287799562589656943e-11
-2.612328738047013363e-11
-2.081621968261797977e-11
-1.651525657384126950e-11
-1.295650391786417157e-11
-9.988654689542895525e-12
-7.528915140757491993e-12
-5.528737222906707723e-12
-3.948279910577923228e-12
-2.743758306192005314e-12
-1.859432443655563158e-12
