# bin_11_10
-9.708139343712798779e-11
-1.072875394213512699e-10
-1.160154413563259129e-10
-1.220628338540818090e-10
-1.241174037677314137e-10
-1.209356136061977016e-10
-1.113193015072205215e-10
-9.690348203161008969e-11
-8.016367243539448773e-11
-6.574946971866454855e-11
-5.615012724866552705e-11
-4.804862407455434314e-11
-3.612887522299421132e-11
-2.533757788937080745e-11
-2.060182155221897827e-11
-1.399207222387806021e-11
-1.061290324411794936e-11
-7.331740018277694642e-12
-5.205111908361146991e-12
-3.728328998536870529e-12
-2.686154069525148959e-12
-1.958516589582608207e-12
-1.450524361304655814e-12
-1.095369064819037471e-12
-8.407309649148878051e-13
-6.527364141568276739e-13
-5.095956307132300322e-13
-3.971484887282218603e-13
-3.068802324291932526e-13
-2.337082516230925664e-13
-1.745959507270148846e-13
