# bin_17_8
-7.053572104543978268e-10
-7.718420553581269650e-10
-8.244705473078241850e-10
-8.540948914044759199e-10
-8.532011092946632909e-10
-8.103314830540173155e-10
-7.267600845085802151e-10
-6.162565525046600223e-10
-5.046875383341067843e-10
-4.201362985819611410e-10
-3.633350788452618740e-10
-2.973048373149906526e-10
-2.100071039990857222e-10
-1.588779821424632326e-10
-1.223928991063699498e-10
-8.467637944193858291e-11
-6.192609631284630710e-11
-4.471114995633390910e-11
-3.185446406543057801e-11
-2.293975887974798536e-11
-1.675986245470845284e-11
-1.245725627483270115e-11
-9.425851312801832691e-12
-7.254791137651825082e-12
-5.650838255521375236e-12
-4.427832969062294632e-12
-3.466244121851099042e-12
-2.691913929175874538e-12
-2.061412203195795591e-12
-1.548759325211955914e-12
-1.137125226492379725e-12
