# bin_4_11
-1.010982856445619890e-27
-1.105061701151802232e-27
-1.178784671798974992e-27
-1.218935052073828231e-27
-1.215162579932029885e-27
-1.150613711812090887e-27
-1.028880296940408292e-27
-8.696516119693540086e-28
-7.115150796095123221e-28
-5.936010900685872912e-28
-5.139758275316259919e-28
-4.179723697888330175e-28
-2.929746552778021148e-28
-2.242125135177745844e-28
-1.709259046197464544e-28
-1.191118909296994594e-28
-8.621321386652756121e-29
-6.271050223028234773e-29
-4.475821779648129491e-29
-3.223541980312865195e-29
-2.360267395675723475e-29
-1.758518976948404098e-29
-1.333915800290300950e-29
-1.028838087859705424e-29
-8.026235735591549708e-30
-6.294818763859273765e-30
-4.928593497983133344e-30
-3.825584282952018937e-30
-2.926230547714526366e-30
-2.194877412554705748e-30
-1.608118453022840753e-30
