# bin_1_12
-5.453919557470946310e-54
-5.949999555078319567e-54
-6.331757627201817438e-54
-6.527614185278204747e-54
-6.483322650587465083e-54
-6.108876374965052295e-54
-5.437575975135327488e-54
-4.575891020877742681e-54
-3.741863123764910168e-54
-3.134006928204004965e-54
-2.713515457643721545e-54
-2.180174495073525699e-54
-1.519323247101259386e-54
-1.181473468224570399e-54
-8.830934290933851880e-55
-6.261435800808969718e-55
-4.461268301013043755e-55
-3.262184617305696977e-55
-2.336726115842319157e-55
-1.687645411871083222e-55
-1.240389597648335960e-55
-9.273559912844851797e-56
-7.059405699043944659e-56
-5.460507335551727786e-56
-4.268307164796060577e-56
-3.350656996793325345e-56
-2.622924893416358059e-56
-2.033489011553264816e-56
-1.552214463313103700e-56
-1.161003957100068234e-56
-8.477456800389673383e-57
