# bin_13_18
-3.276052955364325120e-17
-3.694139957013029452e-17
-4.094134001879309964e-17
-4.441191896024482634e-17
-4.689751558803504932e-17
-4.787293759336219646e-17
-4.690129822325954883e-17
-4.342719082494566926e-17
-3.802116466466161952e-17
-3.155684222282694471e-17
-2.584464756797471082e-17
-2.199616309094402789e-17
-1.894076661277694048e-17
-1.444165635980856994e-17
-1.001219573442653134e-17
-8.126266101246933053e-18
-5.541170580857074116e-18
-4.157497012971761741e-18
-2.807764496677191713e-18
-1.967804011067351813e-18
-1.376777996495529742e-18
-9.631051604077171489e-19
-6.768800911009189695e-19
-4.807842038192259162e-19
-3.479826180669087394e-19
-2.568313561502901448e-19
-1.931143582711878250e-19
-1.475320347522655631e-19
-1.138245229705837103e-19
-8.805838728547772279e-20
-6.780554956714373133e-20
