# bin_17_16
-4.351109818011147052e-11
-4.907112996378725209e-11
-5.439406608972852074e-11
-5.901792679133102975e-11
-6.233799936094796640e-11
-6.365600078381319485e-11
-6.239241557417265772e-11
-5.780484408225734244e-11
-5.063661142570922041e-11
-4.204761117702443516e-11
-3.443521700491910522e-11
-2.929172626818852824e-11
-2.522721480355750454e-11
-1.926976362624147869e-11
-1.335915157911035758e-11
-1.082578333984642771e-11
-7.407285064390152544e-12
-5.541577025372167662e-12
-3.744348174422463194e-12
-2.628449247683969152e-12
-1.837474070418026640e-12
-1.284126442351052669e-12
-9.020717802571942722e-13
-6.403887841117063165e-13
-4.631828626500655153e-13
-3.416194658783577949e-13
-2.567021099052740298e-13
-1.960089566708077834e-13
-1.511744234220098565e-13
-1.169379122359845483e-13
-9.004924431483556342e-14
