# bin_10_3
-1.709100616535551383e-09
-1.759299191256033047e-09
-1.744148291850656202e-09
-1.642308326167102391e-09
-1.461815154965823637e-09
-1.232355397176605978e-09
-1.009733276214432244e-09
-8.449677925523030111e-10
-7.275135506202878498e-10
-5.844614324510277931e-10
-4.152091729477492375e-10
-3.194010101342245866e-10
-2.412429746413643719e-10
-1.726749380981168852e-10
-1.266769687872298860e-10
-9.305531105864901890e-11
-6.843949567901462303e-11
-5.114779446409235686e-11
-3.892660353994388833e-11
-3.016313072201307600e-11
-2.373198403813875502e-11
-1.886045713182972472e-11
-1.503005892406211902e-11
-1.192387761328933519e-11
-9.352661575768377638e-12
-7.208070104183512859e-12
-5.430846832426571541e-12
-3.986188584590875654e-12
-2.845305894909517763e-12
-1.976364110619218906e-12
-1.338830470452189803e-12
