# bin_18_10
-4.826404767565550952e-10
-5.341019629649692355e-10
-5.785145906482757935e-10
-6.099403753682084694e-10
-6.216962718696680292e-10
-6.078669744498288965e-10
-5.617837719023418458e-10
-4.909520876583168777e-10
-4.071784322916698900e-10
-3.336345682056904173e-10
-2.840469140526496127e-10
-2.438970184572364169e-10
-1.854894762184598783e-10
-1.294352482450671630e-10
-1.048603862147344231e-10
-7.210582021342213749e-11
-5.423050614900497232e-11
-3.735510584075981537e-11
-2.663929412157177584e-11
-1.903448337883355746e-11
-1.367476779874875750e-11
-9.941765293588099454e-12
-7.339124239849644856e-12
-5.523974442044975859e-12
-4.228156860719814260e-12
-3.276155940290954768e-12
-2.555110346654370476e-12
-1.991311991837917956e-12
-1.540142024587469414e-12
-1.174930185870554390e-12
-8.798309134611312843e-13
