# bin_2_14
-3.740187047071101233e-56
-4.122774434509073608e-56
-4.444029079627112652e-56
-4.657067905090683118e-56
-4.714214475866958752e-56
-4.562633280222191406e-56
-4.168707104539096948e-56
-3.601978855324180397e-56
-2.967459782362727353e-56
-2.440297527435967058e-56
-2.095118328198153502e-56
-1.777614146863867898e-56
-1.308934472462784656e-56
-9.315177169681865608e-57
-7.569942844760799916e-57
-5.069075417138221042e-57
-3.868940318547198539e-57
-2.703246007840367144e-57
-1.909392337665464986e-57
-1.371028110464458515e-57
-9.910052685129846238e-58
-7.264124002964017834e-58
-5.413469449366388517e-58
-4.112285832096992776e-58
-3.171628865307012032e-58
-2.470732001040216547e-58
-1.931866737387461400e-58
-1.505074987731019190e-58
-1.160657998235031345e-58
-8.809159333036882143e-59
-6.551085298280333921e-59
