# bin_7_12
-4.037580867235697582e-19
-4.459552457122150764e-19
-4.819002120238425421e-19
-5.065797895941899616e-19
-5.145893842685344167e-19
-5.006607309747248871e-19
-4.600358352048333761e-19
-3.997693589539979172e-19
-3.303140333006074012e-19
-2.710124592488931705e-19
-2.317803053056436472e-19
-1.980839967784424453e-19
-1.481657575921008443e-19
-1.040882749280242332e-19
-8.486030155142362792e-20
-5.722427755656117386e-20
-4.362258184465606526e-20
-3.018660054965276448e-20
-2.136806210230608398e-20
-1.532642870149118612e-20
-1.105718761866205498e-20
-8.072295039974500005e-21
-5.987237846351564375e-21
-4.527987335475002442e-21
-3.479709511335880923e-21
-2.704086891764493929e-21
-2.112124359884551682e-21
-1.646120671946513966e-21
-1.271494766265180922e-21
-9.676193515777404026e-22
-7.221420731490694900e-22
