# bin_19_5
-1.473615380248043156e-09
-1.569139550243815293e-09
-1.619797684248516812e-09
-1.611375718910843877e-09
-1.522812557886620812e-09
-1.359690047372768187e-09
-1.148570625563883324e-09
-9.404458767965745853e-10
-7.853569999101077395e-10
-6.781490766509357616e-10
-5.489614999076784722e-10
-3.878816043376365445e-10
-2.971312529999710538e-10
-2.258844636081218581e-10
-1.595635102976607751e-10
-1.165273374266354531e-10
-8.506512063369268606e-11
-6.169258733375987726e-11
-4.535751496507707988e-11
-3.392024350869835916e-11
-2.582904813486996291e-11
-2.000377117861711417e-11
-1.570092413053324464e-11
-1.240778083147835086e-11
-9.804360414746416429e-12
-7.692479537294935232e-12
-5.953649871406504175e-12
-4.520437239450114739e-12
-3.352384900450601288e-12
-2.420948710426119024e-12
-1.700970950324496648e-12
