# bin_9_7
-2.945049861606135433e-10
-3.195817148855659578e-10
-3.378363452004394043e-10
-3.455216154226549856e-10
-3.395386455353230238e-10
-3.157804042093590717e-10
-2.776587191702170628e-10
-2.313531447138452495e-10
-1.893470321228770499e-10
-1.602504098842627563e-10
-1.380536363676091547e-10
-1.071182187496727095e-10
-7.468119858774364678e-11
-5.979544489920393592e-11
-4.250749109352932764e-11
-3.145584341596446155e-11
-2.201930002783390230e-11
-1.601707444924511638e-11
-1.158653301123726561e-11
-8.457139217404308615e-12
-6.272064185417156217e-12
-4.730115429944681156e-12
-3.631851311433576448e-12
-2.828029162201587261e-12
-2.219922652180541002e-12
-1.745179318830035229e-12
-1.364259172953905760e-12
-1.053610102192484873e-12
-7.994324493962841263e-13
-5.933030214969523420e-13
-4.293053603561482498e-13
