# bin_15_3
-2.125008393873643743e-09
-2.188150297052945139e-09
-2.170222243000828899e-09
-2.044616966188330917e-09
-1.820866549100027159e-09
-1.535765948648447794e-09
-1.258396484354938785e-09
-1.052640758509556267e-09
-9.063629620226962873e-10
-7.290454629188672856e-10
-5.181869941139677615e-10
-3.980745400113649045e-10
-3.011529548304634607e-10
-2.153049257749414833e-10
-1.580809132829844479e-10
-1.160781018128178851e-10
-8.534756952897910037e-11
-6.376746262490611630e-11
-4.851587057308649464e-11
-3.758262794304858194e-11
-2.956218381302234288e-11
-2.349020758409178338e-11
-1.871849435112188252e-11
-1.485068962620004095e-11
-1.164996030655364813e-11
-8.980576454789236058e-12
-6.768277608477949937e-12
-4.969498810398228071e-12
-3.548405687835873050e-12
-2.465545806858404602e-12
-1.670692449265166776e-12
