# bin_13_2
-2.624022070333013527e-09
-2.634296511946568832e-09
-2.524272963461298771e-09
-2.287412262499169677e-09
-1.962038247510232099e-09
-1.616061190725271369e-09
-1.336884375099826832e-09
-1.145265238698497489e-09
-9.527856148833174717e-10
-7.005524613040712499e-10
-5.148169015771063102e-10
-4.048558091513315968e-10
-2.860167625681254710e-10
-2.144246005004720980e-10
-1.559532839372948216e-10
-1.152666766149782188e-10
-8.646155097659764021e-11
-6.597587683369187975e-11
-5.127693873146342036e-11
-4.047072147970002801e-11
-3.228334613432581754e-11
-2.583563330205553184e-11
-2.058915201358829799e-11
-1.622577516606787756e-11
-1.256545422869847674e-11
-9.512921877976627703e-12
-7.015287599512706525e-12
-5.030971871959287088e-12
-3.510371817496127230e-12
-2.388371849723692300e-12
-1.589558643725397606e-12
