# bin_10_17
-8.955244802853010054e-23
-1.005045814920855968e-22
-1.107556174558488753e-22
-1.193050852680294050e-22
-1.248799243150524068e-22
-1.262260435584726756e-22
-1.218551947508747020e-22
-1.110157447513338220e-22
-9.563565218157091757e-23
-7.868299890700627104e-23
-6.482471022472875063e-23
-5.580527002008765971e-23
-4.713767028752187633e-23
-3.434115806296034941e-23
-2.461138540617142806e-23
-1.988889712902791336e-23
-1.318200247792148416e-23
-9.981775938523526384e-24
-6.924262068592904194e-24
-4.800584109245905492e-24
-3.372153287044520501e-24
-2.373097000970104837e-24
-1.689217038178728108e-24
-1.219951446745200577e-24
-8.988816048775094137e-25
-6.748116202463274414e-25
-5.148957289712382195e-25
-3.974368044379870999e-25
-3.081750469294491157e-25
-2.383077834350477769e-25
-1.825200623760152505e-25
