# bin_2_19
-1.821497316277266200e-83
-2.039070636588504875e-83
-2.240069339087020092e-83
-2.403701325467745507e-83
-2.503728231197534965e-83
-2.516710706722351921e-83
-2.409900219036563726e-83
-2.177688513011260216e-83
-1.860271760245906692e-83
-1.525776911645601030e-83
-1.263328213046433055e-83
-1.092151876381210908e-83
-9.090241316746522496e-84
-6.484003836853965388e-84
-4.777780838851095807e-84
-3.774415162017092523e-84
-2.531069133312897094e-84
-1.880986173543147446e-84
-1.326127084616008878e-84
-9.230803512566527685e-85
-6.482005055305256695e-85
-4.581609289040972695e-85
-3.284562649079365228e-85
-2.392952713626625534e-85
-1.778404913568452542e-85
-1.345480528571903082e-85
-1.032976588246563721e-85
-8.003083181816395269e-86
-6.212304674459290715e-86
-4.796782125796059639e-86
-3.660538805858473665e-86
