# bin_7_14
-7.406320131592018364e-25
-8.226166541350956349e-25
-8.950460350125092650e-25
-9.489732437405387811e-25
-9.735886816718434815e-25
-9.607292950514779297e-25
-8.975608689037765846e-25
-7.925265426394918370e-25
-6.620961605756686800e-25
-5.414388475345584825e-25
-4.570476806196624549e-25
-3.953222573484640426e-25
-3.098337762771413951e-25
-2.142665068082621271e-25
-1.709667132128786328e-25
-1.222045639854111888e-25
-8.925129645622249491e-26
-6.135846407982062892e-26
-4.436019699036190373e-26
-3.144590384951013939e-26
-2.238405994304711197e-26
-1.614921457833285617e-26
-1.181999337539292744e-26
-8.817221604745235392e-27
-6.697284102486463738e-27
-5.159771710974321394e-27
-4.011699611598792787e-27
-3.125613084415111273e-27
-2.422998949360726232e-27
-1.856732684028427177e-27
-1.399098030757955401e-27
