# bin_8_14
-2.896771315834518076e-21
-3.222556291327075470e-21
-3.513155803805757375e-21
-3.733902027385426855e-21
-3.842178543370784238e-21
-3.806292995714974549e-21
-3.573481202796549498e-21
-3.169739043001533016e-21
-2.658521268633195585e-21
-2.173811855298085691e-21
-1.827594808667079213e-21
-1.582797998180454910e-21
-1.257584214324119910e-21
-8.707167742968707810e-22
-6.856172034005959221e-22
-5.009172880679176258e-22
-3.586432971354376236e-22
-2.491021136597779334e-22
-1.805912609587120645e-22
-1.274735388192156012e-22
-9.027354165734360521e-23
-6.487790493242349772e-23
-4.730133582827328896e-23
-3.513053940852951815e-23
-2.658052586578940547e-23
-2.041573629677308986e-23
-1.584290550634335529e-23
-1.233657289949977605e-23
-9.570041508362001568e-24
-7.346651451716123017e-24
-5.550721152371161634e-24
