# bin_13_10
-2.374928856929807979e-10
-2.627055770687938095e-10
-2.844039059613857494e-10
-2.996599625804072450e-10
-3.052082560883236058e-10
-2.980997088423767439e-10
-2.751574783809595960e-10
-2.401741043595275910e-10
-1.990312590547991837e-10
-1.631287462209582394e-10
-1.390170869864680041e-10
-1.192478072224059989e-10
-9.037220272185410100e-11
-6.315033044388417373e-11
-5.122797555000373831e-11
-3.508501359961222902e-11
-2.646256820763696860e-11
-1.823988561214180458e-11
-1.298949422930558963e-11
-9.288761367126432145e-12
-6.679433010418936431e-12
-4.860414837852073446e-12
-3.591633752078298012e-12
-2.706107932216864968e-12
-2.073098801488189441e-12
-1.607339173131155470e-12
-1.253993491166691509e-12
-9.773020747221190858e-13
-7.556630588208915614e-13
-5.761700759981788991e-13
-4.311430779766402078e-13
