# bin_13_5
-1.154944894711023351e-09
-1.229565360666294949e-09
-1.268943306166532392e-09
-1.261955041205076301e-09
-1.192107531688958354e-09
-1.063992860018561194e-09
-8.984554140687342830e-10
-7.356123386384470505e-10
-6.144908056318473733e-10
-5.306124663105411332e-10
-4.291248325223797672e-10
-3.030556805906756382e-10
-2.324318470270986232e-10
-1.764502716939434035e-10
-1.247798189026475239e-10
-9.104300427163699357e-11
-6.648705809604785962e-11
-4.823122650707280607e-11
-3.546724720418744227e-11
-2.653076612272750528e-11
-2.020734649652575128e-11
-1.565369127568299718e-11
-1.228869144114316983e-11
-9.712183853738064855e-12
-7.674484970039537892e-12
-6.020996531575907252e-12
-4.659358901501138761e-12
-3.537013844609398741e-12
-2.622418310951298459e-12
-1.893268563097511217e-12
-1.329841381910994763e-12
