# bin_15_18
-5.705488740284925609e-14
-6.445429771155939831e-14
-7.159028488176447369e-14
-7.786882599852838664e-14
-8.250335499993258447e-14
-8.455208637217016734e-14
-8.329465949055659163e-14
-7.763894626225742469e-14
-6.840224974684426409e-14
-5.703758474333178730e-14
-4.666427453802064429e-14
-3.949912117851193003e-14
-3.414692027684144260e-14
-2.653577627809875975e-14
-1.831738156167293966e-14
-1.470253759264249048e-14
-1.031252196544034869e-14
-7.573389451814230087e-15
-5.110483266791353597e-15
-3.626832207377897550e-15
-2.522232298995588321e-15
-1.751881583556428415e-15
-1.224933345766466285e-15
-8.646033266789809631e-16
-6.210540606243661135e-16
-4.549071122546247736e-16
-3.396709376224196598e-16
-2.580864212955722701e-16
-1.984612932092801126e-16
-1.533933820947790110e-16
-1.182732602324326166e-16
