# bin_14_3
-2.061195999694254858e-09
-2.122352019457272035e-09
-2.104850063261745709e-09
-1.982891080343026648e-09
-1.765777588460862029e-09
-1.489213917809883775e-09
-1.220244293368808229e-09
-1.020777666016600118e-09
-8.789222438761607519e-10
-7.068620552340469605e-10
-5.023871929200877206e-10
-3.860037252196429320e-10
-2.919610166518062357e-10
-2.087642420662051494e-10
-1.532626322564719145e-10
-1.125457341564596825e-10
-8.275337777377721467e-11
-6.183123737719080955e-11
-4.704459724329167118e-11
-3.644426059044230566e-11
-2.866766104949743451e-11
-2.277986876923211528e-11
-1.815258072711440552e-11
-1.440163125917393364e-11
-1.129748764839175371e-11
-8.708622263387836820e-12
-6.563076707294264488e-12
-4.818630335509830739e-12
-3.440529669645377467e-12
-2.390491065955734470e-12
-1.619775142453815669e-12
