# bin_4_16
-5.018165850099933320e-50
-5.581042432858379011e-50
-6.082327020970730361e-50
-6.461862439341889606e-50
-6.645873985704706443e-50
-6.579513573921168567e-50
-6.171959463095600540e-50
-5.470399988776212963e-50
-4.584950891727359067e-50
-3.748947203215024111e-50
-3.154013316763663703e-50
-2.731155659753608491e-50
-2.165055497083261040e-50
-1.498339794162051916e-50
-1.182747960468388025e-50
-8.609226595735864179e-51
-6.185177069540886203e-51
-4.286275084361119237e-51
-3.107310986479823340e-51
-2.194870117345435223e-51
-1.555603441397672562e-51
-1.118753376128944225e-51
-8.162110232612614886e-52
-6.066593922689848233e-52
-4.593246305825416280e-52
-3.529861734790569137e-52
-2.740181005163294810e-52
-2.133981749051667270e-52
-1.655260928227057009e-52
-1.270324721018703436e-52
-9.593575872435882059e-53
