# bin_19_11
-4.187620099096728275e-10
-4.654753531009478075e-10
-5.069409278691740729e-10
-5.381260005272320480e-10
-5.529220404022117941e-10
-5.466621328844990773e-10
-5.120033369415339921e-10
-4.531585723866872829e-10
-3.794334357465984876e-10
-3.103448212248525533e-10
-2.614192639189690791e-10
-2.261454205359512390e-10
-1.784939209467361898e-10
-1.237327656540451789e-10
-9.787290743978942810e-11
-7.080733777666326412e-11
-5.112679277337909726e-11
-3.546472638643555064e-11
-2.561349203903747280e-11
-1.811685186307871882e-11
-1.286472448127998822e-11
-9.260694452034218817e-12
-6.763872479383700758e-12
-5.033477629913941874e-12
-3.815063493364488497e-12
-2.934144291993339102e-12
-2.278674418620652408e-12
-1.774584301450862431e-12
-1.375988945172229902e-12
-1.055292013743656550e-12
-7.962402820166405325e-13
