# bin_20
0.000000000000000000e+00
0.000000000000000000e+00
0.000000000000000000e+00
0.000000000000000000e+00
0.000000000000000000e+00
0.000000000000000000e+00
0.000000000000000000e+00
0.000000000000000000e+00
0.000000000000000000e+00
0.000000000000000000e+00
0.000000000000000000e+00
0.000000000000000000e+00
0.000000000000000000e+00
0.000000000000000000e+00
0.000000000000000000e+00
2.024821153530212431e-291
4.208772719066340775e-258
1.788786433658866227e-228
4.283268333455077357e-202
1.385457378681983466e-178
1.290827906616286870e-157
6.688400768291217131e-139
3.419773880629598877e-122
2.848569850980254165e-107
5.999583504055039710e-94
4.702528677480453517e-82
1.928505237821649086e-71
5.591711936534708319e-62
1.496675145544869149e-53
4.685986133614328326e-46
2.118667855766188794e-39
1.669166537536836794e-33
2.710267696286377221e-28
1.054083891920529612e-23
1.123717750937090142e-19
3.707006779577497192e-16
4.221230776146799809e-13
1.831438388423626913e-10
3.310902126734370753e-08
2.705408622548535262e-06
1.076184756606782836e-04
2.230559809568880697e-03
2.563699016105796397e-02
1.729819763996979787e-01
7.215771301536633153e-01
1.948898206325894611e+00
3.548821260954065249e+00
4.510461032359972755e+00
4.120626338123449806e+00
2.774638042318550823e+00
1.407594097277411693e+00
5.487567264884550822e-01
1.674582010454619685e-01
4.070219808533382527e-02
8.011646815920640818e-03
1.297461458903289037e-03
1.755001034048701803e-04
2.011257783006374492e-05
1.979300515999600215e-06
1.693961972435109247e-07
1.275824357810952938e-08
8.550348004779688151e-10
5.151918451363256129e-11
2.817895341648551568e-12
1.411686833839050128e-13
6.531639339231291227e-15
2.812755675645486091e-16
1.135489718525630864e-17
4.325806556620256926e-19
1.564826834102068832e-20
5.405915309398764029e-22
0.000000000000000000e+00
0.000000000000000000e+00
0.000000000000000000e+00
0.000000000000000000e+00
0.000000000000000000e+00
0.000000000000000000e+00
0.000000000000000000e+00
0.000000000000000000e+00
0.000000000000000000e+00
0.000000000000000000e+00
0.000000000000000000e+00
