# bin_14_6
-9.401566055069906415e-10
-1.012355887684140061e-09
-1.059946133967050655e-09
-1.072202330215035234e-09
-1.037275885559275146e-09
-9.479471744559988263e-10
-8.193432379985550766e-10
-6.755648702492689887e-10
-5.555692720571879786e-10
-4.758606446391182913e-10
-4.030180311875178919e-10
-2.985356363958544409e-10
-2.134002524537938669e-10
-1.720154820898662011e-10
-1.177147866364021932e-10
-8.923262429191313777e-11
-6.306988468268249216e-11
-4.541895814957410327e-11
-3.312827946344159444e-11
-2.443590063004750746e-11
-1.832194649492240704e-11
-1.397404891270566626e-11
-1.083807163408271678e-11
-8.500543331306790867e-12
-6.698608589016033304e-12
-5.267286895935501944e-12
-4.104010271226410685e-12
-3.149332407227954319e-12
-2.368107690739793397e-12
-1.737960721070215576e-12
-1.241986871660561861e-12
