# bin_2_1
-8.841477534241579847e-10
-8.472897196457112758e-10
-7.683966661651392989e-10
-6.599695687432178571e-10
-5.443641376496806537e-10
-4.501722991235795141e-10
-3.845680618933426878e-10
-3.198963507422485779e-10
-2.370640072010255680e-10
-1.740049169028670580e-10
-1.364159429935331760e-10
-9.739479766961248587e-11
-7.292478152084105085e-11
-5.336546185449338861e-11
-3.978024587110609038e-11
-3.009673769717487967e-11
-2.318828567390840540e-11
-1.819704537828276042e-11
-1.448775969826393276e-11
-1.163627685338897752e-11
-9.356200635604906621e-12
-7.474662914364095984e-12
-5.892406822122658011e-12
-4.555871146921238113e-12
-3.438496176572996373e-12
-2.525662970880626478e-12
-1.803907565208008926e-12
-1.254139977440373983e-12
-8.508849173767682203e-13
-5.651753480831787312e-13
-3.687567181069863848e-13
