# bin_7_20
-4.570680863911026221e-47
-5.142004743164309941e-47
-5.683287147910504528e-47
-6.144856138278039348e-47
-6.462697397579944926e-47
-6.567352154543503222e-47
-6.392295397390787351e-47
-5.875091682019774956e-47
-5.106407588440948103e-47
-4.218910397006263222e-47
-3.460863995078892008e-47
-2.960588886330096600e-47
-2.531692695140326743e-47
-1.891484525121081717e-47
-1.324067917107288682e-47
-1.079735429634484115e-47
-7.204013261240903031e-48
-5.470348232687330136e-48
-3.730717869918259897e-48
-2.589087330523403106e-48
-1.817699485794206429e-48
-1.276214688181255751e-48
-9.016544640465138124e-49
-6.448547701764789166e-49
-4.703641051941535780e-49
-3.497872888645833962e-49
-2.647749139955529824e-49
-2.032706886613074655e-49
-1.572359280976822189e-49
-1.216595558844452599e-49
-9.347912523892396392e-50
