# bin_2_16
-5.878219713085615274e-67
-6.524544841832313519e-67
-7.093647863780278877e-67
-7.514505429637609903e-67
-7.701811266449573610e-67
-7.590740869387183658e-67
-7.081396749881102688e-67
-6.244190657789392061e-67
-5.210436523196975084e-67
-4.260079018034638422e-67
-3.598545356228403342e-67
-3.110401467652464971e-67
-2.429194965141693615e-67
-1.679679393660300199e-67
-1.343584474841507353e-67
-9.552515014404505357e-68
-7.006202132659975132e-68
-4.808119565256694519e-68
-3.470918860899590042e-68
-2.462391908283034453e-68
-1.754575796660486411e-68
-1.266642529829987085e-68
-9.277082251991854535e-69
-6.925781632073482416e-69
-5.264228434896008314e-69
-4.057771453764215122e-69
-3.155686205295835295e-69
-2.458535695966525016e-69
-1.905209006392894585e-69
-1.459058804946682088e-69
-1.098532143815175741e-69
