# bin_19_5
-1.465971525356577632e-09
-1.561500288360014020e-09
-1.612667506743837069e-09
-1.605327743581006052e-09
-1.518541456393664066e-09
-1.357090127402122524e-09
-1.147312134524149401e-09
-9.392975174686420044e-10
-7.834612038930886105e-10
-6.763363835343004630e-10
-5.489260165051515088e-10
-3.883159404481694724e-10
-2.963325321553810576e-10
-2.261878275117886543e-10
-1.592126338261073974e-10
-1.165569535996280871e-10
-8.497822325433527987e-11
-6.156974939350935073e-11
-4.523196032013260598e-11
-3.379394327033372186e-11
-2.570894887013081665e-11
-1.989322858897184515e-11
-1.560355142265942834e-11
-1.232524723042892997e-11
-9.737023746835545632e-12
-7.639751403548036986e-12
-5.914124787837486241e-12
-4.492219054661020857e-12
-3.333280362811143419e-12
-2.408696381639952809e-12
-1.693480747893149976e-12
