# bin_16_9
-5.154883510256842486e-10
-5.674733093419362220e-10
-6.107444537233711074e-10
-6.388188319841295271e-10
-6.453187418976127842e-10
-6.227866970845763501e-10
-5.674526452953049627e-10
-4.889376680585924517e-10
-4.023814640098098735e-10
-3.313507417608149099e-10
-2.847152789380895591e-10
-2.403587848655815485e-10
-1.759454136492393857e-10
-1.262886769720957500e-10
-1.017900352555647065e-10
-6.852408139747087929e-11
-5.193003979636220084e-11
-3.644439408152199914e-11
-2.578640221269451440e-11
-1.850770477900162184e-11
-1.338971258343553919e-11
-9.830435555415596020e-12
-7.339432514639265764e-12
-5.584063624693903602e-12
-4.311762457379655078e-12
-3.361043604061209262e-12
-2.628012811707755485e-12
-2.046202901130870971e-12
-1.576176084804565551e-12
-1.194424623614493797e-12
-8.865633162161025451e-13
