# bin_6_5
-2.633997581498567110e-10
-2.797405566855999582e-10
-2.878463415925109923e-10
-2.852347533360799712e-10
-2.681840721997938672e-10
-2.382835785073024905e-10
-2.003462427244538798e-10
-1.638880072472043563e-10
-1.373248192411793649e-10
-1.185685991472942775e-10
-9.488299117188736949e-11
-6.660896050141681260e-11
-5.176742661720434229e-11
-3.868136990268845487e-11
-2.768524605921073118e-11
-1.998744891786028445e-11
-1.465909437335232649e-11
-1.066193963259139624e-11
-7.854950746025997142e-12
-5.891499958746557774e-12
-4.498952171331987908e-12
-3.493645528364753439e-12
-2.747373161231048439e-12
-2.173287589597156240e-12
-1.717329898767751967e-12
-1.346145474133535667e-12
-1.039981758952387733e-12
-7.876090477081123098e-13
-5.822527053785690769e-13
-4.189962573148549789e-13
-2.933315714011132776e-13
