# bin_20_7
-9.955158141594454910e-10
-1.081627756383857805e-09
-1.145269718059938563e-09
-1.173676576079058937e-09
-1.156607061592804030e-09
-1.079472083957034103e-09
-9.523247213586838718e-10
-7.955799670605618164e-10
-6.507513136170030439e-10
-5.489261489541276181e-10
-4.735470287847384915e-10
-3.711530003746212903e-10
-2.585956388167218893e-10
-2.053132974465296172e-10
-1.480470766950467175e-10
-1.082234541213063656e-10
-7.608737638122695829e-11
-5.541206132496278901e-11
-3.996329282769996949e-11
-2.907878344884120901e-11
-2.150485224839552294e-11
-1.617376210357816799e-11
-1.238549428015390997e-11
-9.624348713045254948e-12
-7.544650556075682071e-12
-5.927915158838941910e-12
-4.635199142383121186e-12
-3.583153101761473750e-12
-2.723001880259972733e-12
-2.025121639990568420e-12
-1.468982781030346245e-12
