# bin_7_15
-4.400917291632526523e-28
-4.899856750324183612e-28
-5.347404759843874312e-28
-5.691362381748955016e-28
-5.867039148726669078e-28
-5.826105287660950643e-28
-5.486909906181063332e-28
-4.881148104474606798e-28
-4.104618417738920730e-28
-3.355764618561054313e-28
-2.812643151322755473e-28
-2.436416620488699373e-28
-1.953240273215956974e-28
-1.355221968622271726e-28
-1.055693066169624276e-28
-7.828432453811303242e-29
-5.526049509709940064e-29
-3.876227478857000324e-29
-2.807402044890598840e-29
-1.975658816773965914e-29
-1.394455387639154676e-29
-9.990401102704991185e-30
-7.261884680467438272e-30
-5.375154861649556840e-30
-4.054600388296737769e-30
-3.106551385356230342e-30
-2.406759660891441985e-30
-1.872821895750140668e-30
-1.453173410069970968e-30
-1.116711896969734215e-30
-8.451275446877996136e-31
