# bin_16_11
-3.023061077604653127e-10
-3.359500810531543180e-10
-3.657961009644309858e-10
-3.882187659815295770e-10
-3.988182088073653703e-10
-3.942432618526307004e-10
-3.692041702748131732e-10
-3.267294991021529482e-10
-2.735308637600656835e-10
-2.236597646983710387e-10
-1.883222476462220455e-10
-1.628798443249604606e-10
-1.285867912906874306e-10
-8.911173447189841860e-11
-7.044352762410430019e-11
-5.098733717810187065e-11
-3.678398516657381998e-11
-2.551489285964938150e-11
-1.842597212355592532e-11
-1.302790985019753732e-11
-9.247201414380648462e-12
-6.654175647584434035e-12
-4.858360850234439864e-12
-3.614168768875402715e-12
-2.738453796565709353e-12
-2.105569774072076377e-12
-1.634853296284063292e-12
-1.272985267583799440e-12
-9.869338467686049191e-13
-7.568364901866840696e-13
-5.709996121439567750e-13
