# bin_11_4
-1.334619303027352491e-09
-1.401130992277366949e-09
-1.422206090407580578e-09
-1.383239105546755131e-09
-1.272249955928074864e-09
-1.106809076008138305e-09
-9.164698761301388223e-10
-7.522067680954324749e-10
-6.406575633928066272e-10
-5.456753489558005797e-10
-4.126795657083931252e-10
-2.929704738438272402e-10
-2.350183423456269426e-10
-1.648532508411721466e-10
-1.238746951687194968e-10
-8.818924258344191556e-11
-6.449750001813333846e-11
-4.753411318305300061e-11
-3.550068645547130279e-11
-2.698810896969987901e-11
-2.086840722023338984e-11
-1.638095064583817036e-11
-1.297291341111501799e-11
-1.029239172678443307e-11
-8.122953156398331337e-12
-6.333880118843531929e-12
-4.850781864327109415e-12
-3.631138849639488554e-12
-2.647802226591490004e-12
-1.878044510066104778e-12
-1.296550237377148633e-12
