# bin_15_1
-3.576166633866247300e-09
-3.458898458429096629e-09
-3.168606571654355541e-09
-2.748028290098536344e-09
-2.278353429313169473e-09
-1.877245174315027056e-09
-1.595659781610396887e-09
-1.343360998516427697e-09
-1.017575602174143488e-09
-7.370352606605972413e-10
-5.783429243094879180e-10
-4.175435004919686850e-10
-3.102707481274613952e-10
-2.268346515092967413e-10
-1.687641978324438142e-10
-1.270285722572184315e-10
-9.734342383848911679e-11
-7.600783390005402311e-11
-6.027307717588426806e-11
-4.828980492237127666e-11
-3.880145330093631020e-11
-3.103159400717222878e-11
-2.452832996366516783e-11
-1.904230117569078389e-11
-1.444637559110165703e-11
-1.067276124302413363e-11
-7.667977247727154696e-12
-5.360650512985708578e-12
-3.654861416813614059e-12
-2.437692478843775527e-12
-1.595897264575497667e-12
