# bin_16_4
-1.692564650314290819e-09
-1.777391025382509736e-09
-1.804686013580662946e-09
-1.756013317940692218e-09
-1.615911578513189857e-09
-1.406462427562087587e-09
-1.164935024674859266e-09
-9.559993393059654432e-10
-8.139515304648460962e-10
-6.936107378364116398e-10
-5.252350282780204052e-10
-3.726261893220192676e-10
-2.988550092286127627e-10
-2.098428208218149200e-10
-1.575752069224519138e-10
-1.121658867544172068e-10
-8.204525981604157905e-11
-6.045153877286042870e-11
-4.513461532357261374e-11
-3.430181542985035843e-11
-2.651634744985228277e-11
-2.080970358549042864e-11
-1.647800308200786690e-11
-1.307266419330489035e-11
-1.031770393594157335e-11
-8.046341884048332927e-12
-6.163578630211866212e-12
-4.615124104147112584e-12
-3.366383952551158192e-12
-2.388502511345402487e-12
-1.649466445586574216e-12
