# bin_2_4
-2.954152628397972622e-13
-3.036969233701134563e-13
-3.006916042442130025e-13
-2.825156352814539351e-13
-2.508949915343663453e-13
-2.108942768938213206e-13
-1.725176852100121784e-13
-1.445351167512545845e-13
-1.246984801859046621e-13
-9.977056557197401834e-14
-7.022855334903373793e-14
-5.459756500244403499e-14
-4.091553711332013999e-14
-2.942739191419048431e-14
-2.140205155612853462e-14
-1.581746000138021516e-14
-1.164247651391950791e-14
-8.702716361851848020e-15
-6.631076319972938458e-15
-5.144668675377108919e-15
-4.052563442187433092e-15
-3.223338113196977915e-15
-2.569765086343065315e-15
-2.038649885766856543e-15
-1.598321930207423436e-15
-1.230750517879291262e-15
-9.261132472729735054e-16
-6.786618640650966118e-16
-4.835228752174818429e-16
-3.352188562421563667e-16
-2.266787009479718865e-16
