# bin_9_12
-1.706258800080483672e-14
-1.891792298443708839e-14
-2.054039749769915888e-14
-2.172270898248073967e-14
-2.222029874667491383e-14
-2.184019601395610836e-14
-2.030778569546251485e-14
-1.785154528605046888e-14
-1.486104419142739551e-14
-1.215562258829555205e-14
-1.029564230754063598e-14
-8.883707428593026162e-15
-6.874369105894692002e-15
-4.760990822135556055e-15
-3.831815561625011677e-15
-2.687736016518193671e-15
-1.993042509460281959e-15
-1.366227490338767416e-15
-9.817352136144637645e-16
-6.984829808067473579e-16
-4.993664935067492250e-16
-3.613575503132568786e-16
-2.653531402824037133e-16
-1.986550819929766684e-16
-1.513637763506218894e-16
-1.168899472339511838e-16
-9.099989312303462118e-17
-7.090902544847339583e-17
-5.491556750679207742e-17
-4.200053448173621543e-17
-3.156342924009426543e-17
