# bin_4_5
-1.120721985892073769e-11
-1.181728427937391414e-11
-1.205449098387625384e-11
-1.180785019097152933e-11
-1.094373720841720773e-11
-9.591940597995035328e-12
-7.974163055818642243e-12
-6.526802702525825042e-12
-5.531359565536268342e-12
-4.752560329336366207e-12
-3.663394817610584918e-12
-2.565469409700683924e-12
-2.061033923530654195e-12
-1.461667676336496316e-12
-1.092273767316482977e-12
-7.720433732301727014e-13
-5.665658712805289804e-13
-4.162784232173719798e-13
-3.096326331720146557e-13
-2.343846242405953387e-13
-1.804922062549566038e-13
-1.412206180584217566e-13
-1.116253899708121434e-13
-8.851698482122357496e-14
-6.992409763907855449e-14
-5.464609979226094111e-14
-4.199187099344152120e-14
-3.156729704185474348e-14
-2.312893010301423604e-14
-1.648384360319922086e-14
-1.143053139717618771e-14
