# bin_17_19
-7.312852846636371735e-13
-8.282578332120182978e-13
-9.229093885851710989e-13
-1.007871374553786963e-12
-1.073262837803736071e-12
-1.106820316996192425e-12
-1.099425519138329117e-12
-1.035545933625186968e-12
-9.212642007594629300e-13
-7.746622788484620949e-13
-6.334597116293144981e-13
-5.312950813311513011e-13
-4.604336875314669887e-13
-3.687139056523533582e-13
-2.552087126789362654e-13
-1.988833120541529067e-13
-1.465933845782165208e-13
-1.029277595449991496e-13
-7.116028600952299830e-14
-5.088375261092020119e-14
-3.505712360703955306e-14
-2.405224997626328373e-14
-1.665891783307204142e-14
-1.163675583669055352e-14
-8.248466873095745265e-15
-5.959475613882479484e-15
-4.391591162773992910e-15
-3.300101967420085789e-15
-2.518467475810039987e-15
-1.939810302060932844e-15
-1.496711960398849711e-15
