# bin_18_2
-2.894394894093595709e-09
-2.909830543479808214e-09
-2.793940738127490112e-09
-2.537046812260572633e-09
-2.180459061212787074e-09
-1.797007553113042564e-09
-1.484318678536261112e-09
-1.270182938118475042e-09
-1.060526391171916719e-09
-7.831509326144380564e-10
-5.725107240035221352e-10
-4.515660573777002477e-10
-3.188718088958932812e-10
-2.391468564526882294e-10
-1.736122734763665897e-10
-1.282552133318609335e-10
-9.608508977572965848e-11
-7.321211071647771441e-11
-5.682203267736522794e-11
-4.479382058223494229e-11
-3.570249892874842466e-11
-2.856057649804789198e-11
-2.276119771635920012e-11
-1.794486716106655702e-11
-1.390720035768630741e-11
-1.053951584175691087e-11
-7.781584103551935757e-12
-5.587398590538638079e-12
-3.903098254571885405e-12
-2.658222623600018480e-12
-1.770600140876601977e-12
