# bin_12_16
-1.080236298077753299e-15
-1.212861509356443403e-15
-1.337340018903205219e-15
-1.441699952442580537e-15
-1.510671840331743834e-15
-1.528827402445952092e-15
-1.478835563898534615e-15
-1.350122747384107493e-15
-1.165580640429563736e-15
-9.597516589286552645e-16
-7.895356350701291464e-16
-6.784686197607117750e-16
-5.750389950491321854e-16
-4.216357054881437443e-16
-2.999605892841088658e-16
-2.433226913537150795e-16
-1.612115246956035314e-16
-1.223454026968530116e-16
-8.446832787375010686e-17
-5.852290098955887388e-17
-4.110403922120148243e-17
-2.890169264501880456e-17
-2.052824897640811686e-17
-1.478501002329694612e-17
-1.086399168844745993e-17
-8.135289777789710162e-18
-6.194457783163411886e-18
-4.774743501836391970e-18
-3.700139801195884360e-18
-2.861740729575052350e-18
-2.193596515811583818e-18
