# bin_13_6
-8.735614586646858740e-10
-9.405936175950114033e-10
-9.847404252594931593e-10
-9.960464226287047802e-10
-9.634870476664290276e-10
-8.804013988274572245e-10
-7.608646174190958843e-10
-6.273078555684296626e-10
-5.159113767016828361e-10
-4.419280128291831736e-10
-3.742177825813613016e-10
-2.771094154209697057e-10
-1.981394607250808294e-10
-1.597005867275188073e-10
-1.092733713481731042e-10
-8.283599708422799336e-11
-5.855793755061336350e-11
-4.216797144976128583e-11
-3.075835588010356287e-11
-2.268934281934518891e-11
-1.701377322147112225e-11
-1.297740884141767507e-11
-1.006581136917229154e-11
-7.895232084337272572e-12
-6.221761115195367796e-12
-4.892317103740918909e-12
-3.811746178717860201e-12
-2.924908973989262151e-12
-2.199203738192157409e-12
-1.613866312086537487e-12
-1.153200089270279020e-12
