# bin_11_13
-5.540336483126023401e-13
-6.177131167002983260e-13
-6.752987656594904171e-13
-7.202859939523055002e-13
-7.445566608384735470e-13
-7.418312524350500818e-13
-7.017472926229918271e-13
-6.268685738621873382e-13
-5.292564089319634531e-13
-4.329071469401205703e-13
-3.615405344522673205e-13
-3.131878802121214707e-13
-2.538949709081097573e-13
-1.771426597012156037e-13
-1.359346099819108998e-13
-1.027066529145858915e-13
-7.130143389126335318e-14
-5.082420616347617383e-14
-3.661647321810080809e-14
-2.568237373610243959e-14
-1.807906797352372423e-14
-1.290151292064077548e-14
-9.343021326952464531e-15
-6.886359481912625054e-15
-5.174431509145570233e-15
-3.951876727826181394e-15
-3.054966466585541262e-15
-2.375017769658516799e-15
-1.843409293607551876e-15
-1.418603706405927962e-15
-1.076077533456040622e-15
