# bin_4_12
-1.062934146589049020e-31
-1.166580640727032960e-31
-1.250813801659217589e-31
-1.302061848230247706e-31
-1.308204068904370865e-31
-1.252422079669958713e-31
-1.131699549715128972e-31
-9.668101875995309115e-32
-7.928026247204944444e-32
-6.558064646941489037e-32
-5.662154293065750306e-32
-4.715850393914811156e-32
-3.375890916933304156e-32
-2.485267518810422602e-32
-1.971087964907785348e-32
-1.331939512596351699e-32
-9.985650921168880613e-33
-7.117777073676568722e-33
-5.043106700767881026e-33
-3.621973851129798826e-33
-2.630090946672576139e-33
-1.942953443275881555e-33
-1.460804628227849009e-33
-1.118355010318458038e-33
-8.677299620640122987e-34
-6.784888549243394094e-34
-5.310468689734474217e-34
-4.130674217582726592e-34
-3.173039567071253012e-34
-2.394369656700821039e-34
-1.767503703316220433e-34
