# bin_16_20
-3.926962845825333590e-15
-4.449592672824729565e-15
-4.960692584086642724e-15
-5.420863653196168986e-15
-5.777218026050097706e-15
-5.963887028311397189e-15
-5.931490639264614746e-15
-5.595970542421609702e-15
-4.986001895395168646e-15
-4.198502454876770695e-15
-3.433609358425873337e-15
-2.876001488080117188e-15
-2.492730437323859291e-15
-2.004847862594151158e-15
-1.389830856938306175e-15
-1.077342555608131494e-15
-7.999291885815193398e-16
-5.579258823025015014e-16
-3.879970743174417284e-16
-2.771890224867379685e-16
-1.907477959505978232e-16
-1.306990447588885180e-16
-9.038706396791206365e-17
-6.304106132586121921e-17
-4.459555035633550896e-17
-3.215167997201024311e-17
-2.364302701837907280e-17
-1.773401828650716739e-17
-1.351548392562316355e-17
-1.040270450391175886e-17
-8.026154150827363001e-18
