# bin_4_7
-3.421085420694950740e-15
-3.663862753019887181e-15
-3.809747484390181815e-15
-3.823670882119199788e-15
-3.656840040357298443e-15
-3.302089786349117039e-15
-2.819504055781655274e-15
-2.312336265439750810e-15
-1.913327215886338061e-15
-1.650020864434943056e-15
-1.371911660194520614e-15
-9.852174549137748682e-16
-7.273999528177986853e-16
-5.760644846124203290e-16
-3.939946813366260622e-16
-2.961432764739055638e-16
-2.132878604319927317e-16
-1.535002433688323305e-16
-1.122807356208692659e-16
-8.331835002080617411e-17
-6.296179513732056890e-17
-4.840767951223075381e-17
-3.779071098866943321e-17
-2.977019854306331021e-17
-2.350565080006260931e-17
-1.847250840610092870e-17
-1.435063550574865295e-17
-1.095728003117883671e-17
-8.183591504339903280e-18
-5.957085944598505437e-18
-4.219534637033025413e-18
