# bin_11_12
-5.841997155797270602e-12
-6.497782789978100839e-12
-7.082552509248483252e-12
-7.526575189788333442e-12
-7.744220089756753026e-12
-7.671555573940523755e-12
-7.202752484581625618e-12
-6.389255295581716432e-12
-5.359170624905982554e-12
-4.381176897947405781e-12
-3.681310025176656988e-12
-3.187128769610785903e-12
-2.533983915348270332e-12
-1.755258568370903607e-12
-1.379633228075736098e-12
-1.009426225235265346e-12
-7.213487478709671947e-13
-5.019112663062722457e-13
-3.634830529031147860e-13
-2.564378782241281884e-13
-1.815168171221203425e-13
-1.303725406893139048e-13
-9.499970981147616629e-14
-7.051484955872869550e-14
-5.332489648325693120e-14
-4.093885195205628927e-14
-3.175791971337262570e-14
-2.472328211883804269e-14
-1.917619699821615833e-14
-1.472008185747755456e-14
-1.112163384800782184e-14
