# bin_1_13
-1.199603743129313137e-59
-1.315047757219370970e-59
-1.407964793029249216e-59
-1.462939020971124041e-59
-1.466727741919314676e-59
-1.399942179615824181e-59
-1.261299134880567684e-59
-1.074269333394067121e-59
-8.801484636244566380e-60
-7.295616774815567372e-60
-6.305742186246264950e-60
-5.220519606424116840e-60
-3.712429088979843423e-60
-2.761489224364469973e-60
-2.168999454434164441e-60
-1.475474947248955730e-60
-1.096803687199503809e-60
-7.863661950534427821e-61
-5.581282484044429627e-61
-4.009826490872067373e-61
-2.917554160559151037e-61
-2.160278252416418397e-61
-1.628184854902706564e-61
-1.249102119416468402e-61
-9.706838949007330812e-62
-7.596725600535727297e-62
-5.946800011381504192e-62
-4.623143567163366037e-62
-3.547270680627643033e-62
-2.672363722724182034e-62
-1.968642887461334339e-62
