# bin_3_13
-1.103967011607344961e-42
-1.213972489669552757e-42
-1.304771591808411231e-42
-1.362412710602389530e-42
-1.373621433832953962e-42
-1.321743848977158896e-42
-1.200393110366853736e-42
-1.030860933601498002e-42
-8.468841211314414360e-43
-6.983273882916527610e-43
-6.014511627057301318e-43
-5.056091475360983087e-43
-3.665352897774710599e-43
-2.652547155151681804e-43
-2.133281746928420778e-43
-1.430476927076035886e-43
-1.084578094307598794e-43
-7.655886805611864253e-44
-5.411452880053639160e-44
-3.885582477709775302e-44
-2.813723738319818455e-44
-2.070572637668139881e-44
-1.550119237425145304e-44
-1.182342916717123589e-44
-9.147892347760723524e-45
-7.140535406550169875e-45
-5.586376437596248003e-45
-4.348653024181485590e-45
-3.346637107015572987e-45
-2.532235006264768138e-45
-1.875753352342798303e-45
