# bin_7_5
-4.567287049307576460e-10
-4.857248439261105234e-10
-5.006517581553794849e-10
-4.971636027145925073e-10
-4.687607179975773491e-10
-4.176178002725020104e-10
-3.520167441623708729e-10
-2.880531352053595910e-10
-2.408455726610466634e-10
-2.079530293633416176e-10
-1.675270658918521722e-10
-1.179953649608044726e-10
-9.093254278846735479e-11
-6.863901862011092283e-11
-4.873018642763491552e-11
-3.541315068832452338e-11
-2.590540052466690568e-11
-1.880657417989612879e-11
-1.383623962199480013e-11
-1.035869991212119392e-11
-7.896458545841448860e-12
-6.121938849108137949e-12
-4.808575966134344629e-12
-3.801314219336113502e-12
-3.003512025506923129e-12
-2.355412983337209190e-12
-1.821434095359766966e-12
-1.381335821157791960e-12
-1.022940431037185702e-12
-7.375481098552449297e-13
-5.173633076700776838e-13
