# bin_1_17
-7.464421182623743324e-83
-8.305459029469739813e-83
-9.057090240481622600e-83
-9.630413022393236600e-83
-9.915783039991837918e-83
-9.831713399056058820e-83
-9.241332513436310763e-83
-8.206179185564154759e-83
-6.889256146479068893e-83
-5.631839833923954232e-83
-4.727840889497797605e-83
-4.094476149489284591e-83
-3.265466066147382348e-83
-2.262343908606103149e-83
-1.773052408428404581e-83
-1.303622204146078623e-83
-9.274941877469151960e-84
-6.467233682035312431e-84
-4.687043034243250027e-84
-3.303567192065157819e-84
-2.335655061947163966e-84
-1.676112599060358957e-84
-1.220271901565617930e-84
-9.048609692988476620e-85
-6.836684875648952680e-85
-5.245016090937271697e-85
-4.067006523652456748e-85
-3.165741480024326270e-85
-2.455870269205651795e-85
-1.885979495024927669e-85
-1.425824344657559209e-85
