# bin_11_2
-2.426063863773845308e-09
-2.438170819443647420e-09
-2.339967819011123304e-09
-2.123779228257820694e-09
-1.824417320691637812e-09
-1.503281430378506851e-09
-1.242002689366912811e-09
-1.063042841661373356e-09
-8.869150019601773757e-10
-6.542788738772992826e-10
-4.787815102257722072e-10
-3.774350898676319090e-10
-2.664983892462438921e-10
-1.998621970361276466e-10
-1.451417182681181350e-10
-1.072271913945504582e-10
-8.034916052657137013e-11
-6.123853796163274852e-11
-4.754119539574384231e-11
-3.748571075911876662e-11
-2.988189132174559679e-11
-2.390559608355783250e-11
-1.905077390871949405e-11
-1.501781211081220764e-11
-1.163652123215416928e-11
-8.816486072899033829e-12
-6.507564417644305208e-12
-4.671221746917149720e-12
-3.262178306321535544e-12
-2.221164160643194174e-12
-1.479170264481527108e-12
