# bin_15_18
-5.764475667325751409e-14
-6.510882569849480896e-14
-7.230568474853991853e-14
-7.863668201093230984e-14
-8.330927989556737867e-14
-8.537359020188168933e-14
-8.410705778006999132e-14
-7.840495171172050469e-14
-6.908309565342184228e-14
-5.760610938435739953e-14
-4.711405108996803087e-14
-3.985541821043595274e-14
-3.445198910541583236e-14
-2.679681664960752638e-14
-1.849022033695723102e-14
-1.482510630849007673e-14
-1.041484253347855846e-14
-7.634966444256441150e-15
-5.152237678983373556e-15
-3.657947003250609391e-15
-2.542151505262664478e-15
-1.764293853330648855e-15
-1.232808151309372972e-15
-8.695328727120606284e-16
-6.240887658366616120e-16
-4.567653293559221660e-16
-3.408085755664114191e-16
-2.587958182996030198e-16
-1.989228317612052060e-16
-1.537142366307424227e-16
-1.185133259103398835e-16
