# bin_15_4
-1.636686760251547591e-09
-1.718654079953224625e-09
-1.744978099207844614e-09
-1.697820537998250382e-09
-1.562263488706749617e-09
-1.359684352073880704e-09
-1.126147802185967877e-09
-9.241858317161250694e-10
-7.868990768554989351e-10
-6.705169442928498237e-10
-5.076643010643178964e-10
-3.601913515351568373e-10
-2.888896400846375041e-10
-2.028196214437191563e-10
-1.523143114543778868e-10
-1.084229578360302494e-10
-7.930592663781011841e-11
-5.843503446913399478e-11
-4.363068876160809114e-11
-3.316009248301094145e-11
-2.563466274830012255e-11
-2.011834290858485576e-11
-1.593083298113898916e-11
-1.263864335108388112e-11
-9.975087307649402914e-12
-7.779014096577841456e-12
-5.958641471164305123e-12
-4.461516825667058905e-12
-3.254208104240970993e-12
-2.308816296340242510e-12
-1.594373654165785455e-12
