# bin_14_5
-1.216423145415336146e-09
-1.295499564792446063e-09
-1.337704148569344934e-09
-1.331314750784933284e-09
-1.258962024703385841e-09
-1.124784103363183796e-09
-9.506549326970212085e-10
-7.782599393773725712e-10
-6.492858811613656005e-10
-5.605174271627075005e-10
-4.546141249829425188e-10
-3.214695561858025029e-10
-2.455417813512530189e-10
-1.872286533638001601e-10
-1.318924087427521909e-10
-9.649133904990887134e-11
-7.037067681000365229e-11
-5.099527274868274540e-11
-3.746845525456295379e-11
-2.799893481930090823e-11
-2.130435373107143655e-11
-1.648794928198040818e-11
-1.293425226826528513e-11
-1.021752200087378122e-11
-8.072021037337777244e-12
-6.333086235656831445e-12
-4.902116856084987283e-12
-3.722980859764959665e-12
-2.761991351114988978e-12
-1.995460144768343691e-12
-1.402651676233646425e-12
