# bin_13_14
-5.233895818284226586e-12
-5.861809419137736781e-12
-6.443732101920760284e-12
-6.920388084330555162e-12
-7.216875609574781719e-12
-7.264335035924213346e-12
-6.971000886431573646e-12
-6.312793678382267919e-12
-5.404711694951129932e-12
-4.435500670305684005e-12
-3.665809320137247236e-12
-3.164541552607902814e-12
-2.645343265828127651e-12
-1.898119006252760257e-12
-1.386385782535605179e-12
-1.103184398556036148e-12
-7.363660874480289700e-13
-5.506631476752396846e-13
-3.861890841863357430e-13
-2.683875048987259047e-13
-1.884350179955607741e-13
-1.329564272728360782e-13
-9.508812223524843105e-14
-6.908044241613531360e-14
-5.119944729922434840e-14
-3.864178332329330568e-14
-2.961002947856909522e-14
-2.291388271225556179e-14
-1.777989006058277757e-14
-1.373352314870013569e-14
-1.049050164640921646e-14
