# bin_14_20
-9.240179370511472551e-19
-1.045400988573038300e-18
-1.163297861737311546e-18
-1.268290157182186170e-18
-1.347795221220649414e-18
-1.386363853280247928e-18
-1.372615168071859593e-18
-1.287479406921892031e-18
-1.140930472808801577e-18
-9.559925405575146290e-19
-7.816083071515726851e-19
-6.577997646812390733e-19
-5.697484013012525667e-19
-4.510390848691875460e-19
-3.112813539943840652e-19
-2.457617071529878327e-19
-1.776843737105918257e-19
-1.269950882399711627e-19
-8.662405106422883558e-20
-6.195209376554171224e-20
-4.281952264688870400e-20
-2.949731043922769986e-20
-2.050731661156450266e-20
-1.438133692462651479e-20
-1.024629493123017505e-20
-7.442716320019276921e-21
-5.513465287310329016e-21
-4.161909148037662604e-21
-3.186387093603573398e-21
-2.458200404019668939e-21
-1.896563532569909633e-21
