# bin_2_10
-5.853315242091100267e-35
-6.332394748699484290e-35
-6.669121977730419239e-35
-6.790871752053304043e-35
-6.633435469045093838e-35
-6.124659247969948267e-35
-5.348050321380218957e-35
-4.431802441680978157e-35
-3.628950784195230666e-35
-3.088114526108548021e-35
-2.650572169551482726e-35
-2.015774504601713610e-35
-1.408582644044117355e-35
-1.143792084220325576e-35
-7.901743732099422752e-36
-5.984139080813799204e-36
-4.167743529280468516e-36
-3.011817108962847275e-36
-2.190692225689537102e-36
-1.608512016027252265e-36
-1.198375544024833513e-36
-9.078280498555110747e-37
-7.000797211456082420e-37
-5.469123285594681132e-37
-4.301401246797479062e-37
-3.383041248931647185e-37
-2.641870389571745301e-37
-2.035510894869736792e-37
-1.539053306712948273e-37
-1.137108470508983931e-37
-8.185466662748727097e-38
