# bin_18_8
-7.442332540955195111e-10
-8.144273432418592585e-10
-8.700806384189735220e-10
-9.015738185912269179e-10
-9.009540154626287513e-10
-8.561986851027904623e-10
-7.683273101620866445e-10
-6.518648277760807414e-10
-5.337923105828938357e-10
-4.439517789446005367e-10
-3.837751447004244183e-10
-3.145718249397111924e-10
-2.224748566262974682e-10
-1.677778170406154611e-10
-1.296309016826534889e-10
-8.943955960384332144e-11
-6.556420578556011058e-11
-4.726758215056264806e-11
-3.364966873937414693e-11
-2.422015969328365198e-11
-1.768099945870554682e-11
-1.313120243580501708e-11
-9.927539222771461007e-12
-7.635544247818495742e-12
-5.944194319754319047e-12
-4.656046602357437880e-12
-3.644324005008752943e-12
-2.830256002357059447e-12
-2.167706523510631694e-12
-1.629089813729622329e-12
-1.196583821965329114e-12
