# bin_9_9
-4.200955650277266880e-11
-4.612015859656965539e-11
-4.946937797773879363e-11
-5.152168455307971463e-11
-5.179332127384636901e-11
-4.962814368204284466e-11
-4.488694321032192078e-11
-3.838551786072234663e-11
-3.149259556991808261e-11
-2.603894043013725645e-11
-2.246532224900008437e-11
-1.873622681910286484e-11
-1.345385667825841336e-11
-9.873594770164732357e-12
-7.843297826860499105e-12
-5.300335615684502281e-12
-3.977378658838962220e-12
-2.829446017604759707e-12
-2.004327772683602400e-12
-1.439688999125956784e-12
-1.045144142105585437e-12
-7.715346748428509488e-13
-5.795916131954907520e-13
-4.433920784273460552e-13
-3.438261671318210299e-13
-2.687376361705197900e-13
-2.103064525479373545e-13
-1.635968247610401625e-13
-1.257051021819755316e-13
-9.490021606176965521e-14
-7.009742963470933204e-14
