# bin_6_1
-2.504138367170285824e-09
-2.418667817660004162e-09
-2.212325963573110203e-09
-1.915895858772028186e-09
-1.587185245000000403e-09
-1.308426790586168275e-09
-1.113017226745696123e-09
-9.354353922597496587e-10
-7.062837176554727644e-10
-5.124791027493975973e-10
-4.021633142751301695e-10
-2.898281650538303969e-10
-2.156316993514708658e-10
-1.576501086749354656e-10
-1.173285857184004176e-10
-8.838024091523909952e-11
-6.778072165321304631e-11
-5.296433412143699455e-11
-4.202519261889234603e-11
-3.368271693593052368e-11
-2.706745836137756046e-11
-2.164403019991534882e-11
-1.710141536935418354e-11
-1.326851972069085504e-11
-1.005845073259204646e-11
-7.424687059456419089e-12
-5.329708171862611850e-12
-3.722931726649318530e-12
-2.536439641337356129e-12
-1.690705431855318454e-12
-1.106312170624152967e-12
