# bin_14_18
-2.170271745600920852e-15
-2.449137179979486766e-15
-2.716989778650496477e-15
-2.951061630324020649e-15
-3.121383913941889364e-15
-3.192615241194420083e-15
-3.136965079274019858e-15
-2.914919095951361329e-15
-2.560652694281158206e-15
-2.130239773147519239e-15
-1.742955157423252817e-15
-1.478382554817039202e-15
-1.275909043786973155e-15
-9.832814607977430932e-16
-6.794410609957855882e-16
-5.481804860065860978e-16
-3.796069041231759611e-16
-2.815308585969657713e-16
-1.897154436536052021e-16
-1.339085814093136396e-16
-9.334672347679750195e-17
-6.503074337846223694e-17
-4.555514132598931380e-17
-3.222870751601623098e-17
-2.321792248746315066e-17
-1.705717147310103228e-17
-1.277164453872323562e-17
-9.725334592771020328e-18
-7.488482684305363452e-18
-5.789951853787405655e-18
-4.461543641377174740e-18
