# bin_4_14
-1.747620000859475788e-40
-1.931710670646135373e-40
-2.089475232560053112e-40
-2.199364408270701550e-40
-2.237509517730608167e-40
-2.182154242868263554e-40
-2.010499101843354698e-40
-1.751795244259325065e-40
-1.449466662428456499e-40
-1.187757671545003397e-40
-1.013353764326889870e-40
-8.685951880137230354e-41
-6.549340665271146246e-41
-4.575608931758393437e-41
-3.727463576116928928e-41
-2.529466115250590328e-41
-1.921551701481435384e-41
-1.323440314525785695e-41
-9.389351045312544798e-42
-6.725898140055670226e-42
-4.845185185682110359e-42
-3.529243441172092689e-42
-2.610837710301681335e-42
-1.969572618868628255e-42
-1.510464462231272479e-42
-1.172041682807473890e-42
-9.147734102638743864e-43
-7.129296996140948796e-43
-5.510261071064149805e-43
-4.198234023397551906e-43
-3.138210644232539958e-43
