# bin_3_18
-3.099470069349828195e-68
-3.462337969566214718e-68
-3.794001579199231831e-68
-4.058605497512963703e-68
-4.211110041051580520e-68
-4.214320441577681557e-68
-4.010750864531912283e-68
-3.603044680018259783e-68
-3.059178238033390272e-68
-2.504628714497076781e-68
-2.081880569948497344e-68
-1.802437999759990672e-68
-1.481869854149973641e-68
-1.043751436367582993e-68
-7.846293351553808425e-69
-6.071085444825415737e-69
-4.131256691742976788e-69
-3.010274998348999878e-69
-2.147522871920881182e-69
-1.499943301489033517e-69
-1.053533408392472541e-69
-7.479068500279427348e-70
-5.388483126664206764e-70
-3.948552024259706306e-70
-2.950868933266932833e-70
-2.243372534072477688e-70
-1.728593070591279531e-70
-1.341818180760173999e-70
-1.041700577443146490e-70
-8.030840682761827688e-71
-6.110440300087586471e-71
