# bin_11_14
-3.948300848200093105e-10
-4.414366867991134851e-10
-4.842365238968878619e-10
-5.186940758783480934e-10
-5.391020223647044707e-10
-5.405718208661855561e-10
-5.158887919031368810e-10
-4.646694966670533122e-10
-3.956092533605472393e-10
-3.241098679561992685e-10
-2.688602166008974054e-10
-2.326046441593326886e-10
-1.923546677656991722e-10
-1.362526360473742018e-10
-1.014449431726023672e-10
-7.928339796500134858e-11
-5.354738442429552334e-11
-3.939420752140039169e-11
-2.794368248717562338e-11
-1.948257775302903229e-11
-1.367983929818503568e-11
-9.689442436238014153e-12
-6.963794434400123179e-12
-5.088508512563671141e-12
-3.792568402727129813e-12
-2.876557314578046201e-12
-2.212634466995959057e-12
-1.715971747199363960e-12
-1.332064169219046813e-12
-1.027657663873181965e-12
-7.829649565243145395e-13
