# bin_3_2
-4.590573142794495166e-08
-4.676961349113354577e-08
-4.574803646338571755e-08
-4.235210620260411521e-08
-3.708600741405920281e-08
-3.082710133929796411e-08
-2.524444954226257022e-08
-2.139186723126810008e-08
-1.834157759699002284e-08
-1.413182504258800352e-08
-9.950176089026340401e-09
-7.968193907749905997e-09
-5.689774497449214952e-09
-4.253283116826957360e-09
-3.042853703427278146e-09
-2.250848711756682826e-09
-1.672675837453701020e-09
-1.261529980858566119e-09
-9.694276884063625991e-10
-7.576749872931778272e-10
-6.003964359272185493e-10
-4.791596927894324122e-10
-3.822793453840476286e-10
-3.027004778114248734e-10
-2.362954537582187520e-10
-1.807928279575142274e-10
-1.349550003994913496e-10
-9.801463981554537566e-11
-6.920869040950795591e-11
-4.758491835488493067e-11
-3.194840598619886719e-11
