# bin_18_11
-2.200543001629875301e-17
-2.476504465401734892e-17
-2.738387105350788500e-17
-2.962370133523617460e-17
-3.117685427120858600e-17
-3.170545206507392191e-17
-3.089500161058176916e-17
-2.843081346544154765e-17
-2.474182244513891270e-17
-2.045595197443649238e-17
-1.677357480034464177e-17
-1.433599146107259102e-17
-1.227607977811991684e-17
-9.204012767101297289e-18
-6.428584894043667021e-18
-5.241240653589499310e-18
-3.506884114769995203e-18
-2.659708578847929262e-18
-1.810011111714975841e-18
-1.257479685268105124e-18
-8.825211608405366911e-19
-6.193751928355794010e-19
-4.371666697014882401e-19
-3.122569987399409935e-19
-2.274464711731160120e-19
-1.689150288751857898e-19
-1.277132573154598457e-19
-9.796561380836375382e-20
-7.574760741098551164e-20
-5.860944214780735983e-20
-4.505137933310260236e-20
