# bin_19_15
-6.986323101948819665e-11
-7.904293164744671001e-11
-8.796007953211744234e-11
-9.590277642584600764e-11
-1.019198506106369672e-10
-1.048431069887373029e-10
-1.038118684868236372e-10
-9.738310673912805096e-11
-8.630680627789680846e-11
-7.232329522836092559e-11
-5.913088405352083459e-11
-4.976018393098579553e-11
-4.310005815404260752e-11
-3.413005694471415264e-11
-2.355605610546478676e-11
-1.859182387582520076e-11
-1.344845390509823273e-11
-9.607413722854511882e-12
-6.555464964832210752e-12
-4.688467785461369809e-12
-3.240276597303030178e-12
-2.231891650755131321e-12
-1.551528042272964847e-12
-1.087947832958556887e-12
-7.750336893979026941e-13
-5.628957022995670469e-13
-4.169323000924380761e-13
-3.146923068600849944e-13
-2.409122170187335950e-13
-1.858495735807616760e-13
-1.433881732173360791e-13
