# bin_18_7
-5.479937203531193539e-34
-6.142044770815422263e-34
-6.758077674400818085e-34
-7.266366039793203819e-34
-7.588813940544751898e-34
-7.651462541173924095e-34
-7.360224604969955945e-34
-6.681143908506196038e-34
-5.734135346368838265e-34
-4.709744818183799575e-34
-3.886492959859592267e-34
-3.351335569572804235e-34
-2.814136763790619044e-34
-2.031116261248197854e-34
-1.471360741631685733e-34
-1.179356418612218355e-34
-7.838057649060631304e-35
-5.898591519436263880e-35
-4.117066113243088752e-35
-2.857492208860252218e-35
-2.006367069431583891e-35
-1.413563308724760298e-35
-1.008848775778189948e-35
-7.310705569585192568e-36
-5.405047915012883678e-36
-4.070383420841095842e-36
-3.113637280438027408e-36
-2.407080966118659599e-36
-1.867323366376981794e-36
-1.443081984132716088e-36
-1.103544398347354251e-36
