# bin_8_14
-1.459977879884047503e-16
-1.624434721789050881e-16
-1.771385534735322761e-16
-1.883438396688262755e-16
-1.939145800494259500e-16
-1.922581419647223587e-16
-1.806976970189213398e-16
-1.604439404917456705e-16
-1.346851564115817480e-16
-1.101012836002481258e-16
-9.243489180946353087e-17
-8.005215665417523454e-17
-6.382955670060362284e-17
-4.421600233018739706e-17
-3.466442014846760797e-17
-2.547684407562954019e-17
-1.813258249459226776e-17
-1.263877947285929998e-17
-9.161001353417207751e-18
-6.457371437655414452e-18
-4.565670190991389083e-18
-3.276678088495903951e-18
-2.385717145354776739e-18
-1.769213514038751775e-18
-1.336832014753332754e-18
-1.025664182415642511e-18
-7.953381671611163443e-19
-6.190994285615965105e-19
-4.802728801080068744e-19
-3.688144793028387316e-19
-2.788161174672608033e-19
