# bin_8_4
-2.684056650603624309e-13
-2.893479192487945382e-13
-3.033853303102847706e-13
-3.073816802541067634e-13
-2.980433881443261352e-13
-2.729325636794321687e-13
-2.363943452283601207e-13
-1.949869621305893614e-13
-1.600929090932193044e-13
-1.370374785664585764e-13
-1.165949889807454984e-13
-8.670678022077945093e-14
-6.146488911710337939e-14
-4.997821121589568511e-14
-3.394720087267149060e-14
-2.594390295479991297e-14
-1.825232093278019962e-14
-1.311350072586965492e-14
-9.569353193893934376e-15
-7.054705966365269483e-15
-5.283103450310916479e-15
-4.024220704021803419e-15
-3.118242345251418976e-15
-2.444366759511255418e-15
-1.925965619767321547e-15
-1.514897218619303035e-15
-1.181142497598810788e-15
-9.073020833067398371e-16
-6.830958566796723730e-16
-5.020347285047673345e-16
-3.592719495211958074e-16
