# bin_9_2
-1.759593697648182714e-25
-1.892709856411626413e-25
-1.979027976839244019e-25
-1.998833268356089625e-25
-1.929130462362406916e-25
-1.757879357927217222e-25
-1.514958419441588169e-25
-1.246557377444136961e-25
-1.025723160537274564e-25
-8.808238027399983402e-26
-7.443976440919159397e-26
-5.462642045505144313e-26
-3.919706249418680020e-26
-3.172507801583596944e-26
-2.147165482653028907e-26
-1.639981740427069604e-26
-1.162605429675291242e-26
-8.343250794963914463e-27
-6.094927052238962524e-27
-4.502559680156761981e-27
-3.382429036300114265e-27
-2.584993979392335030e-27
-2.008554612148284788e-27
-1.577470221520812777e-27
-1.244051135712584167e-27
-9.783967730172888383e-28
-7.619912893326108388e-28
-5.841755601961961365e-28
-4.386325374803461052e-28
-3.213099225710397949e-28
-2.291143188127551575e-28
