# bin_1_1
-1.910508522642254697e-07
-1.846522948816113062e-07
-1.688415955985343228e-07
-1.461095677694052036e-07
-1.207424827590078391e-07
-9.934759604906472845e-08
-8.474577612709127652e-08
-7.157720290739335996e-08
-5.368486669464506713e-08
-3.867158638561424816e-08
-3.081342424855542148e-08
-2.183129960324939205e-08
-1.645746871151842575e-08
-1.195212104503512279e-08
-8.893023755585369087e-09
-6.706812429546816893e-09
-5.147211469873003566e-09
-4.025146507845200983e-09
-3.196089632288991643e-09
-2.563677024525100168e-09
-2.061566049203119353e-09
-1.649382233251599997e-09
-1.303685944930822785e-09
-1.011614341334669032e-09
-7.667450742084911852e-10
-5.656866450693283681e-10
-4.057499895845781885e-10
-2.831569436305534032e-10
-1.927261382165699689e-10
-1.283476501409995031e-10
-8.391702535873850045e-11
