# bin_12_8
-3.754209122230184825e-12
-4.157054300114766464e-12
-4.506412138307975727e-12
-4.756378629880926211e-12
-4.854032983528760986e-12
-4.755466983561457071e-12
-4.404535666220921384e-12
-3.857457938533832811e-12
-3.202428150415729202e-12
-2.621007245816263829e-12
-2.227028825488914008e-12
-1.917174086204035713e-12
-1.467150188566047362e-12
-1.018697585572554983e-12
-8.253845302376715403e-13
-5.699209111249530711e-13
-4.278902043370840725e-13
-2.932671477952007078e-13
-2.095402874051683655e-13
-1.495788202173808993e-13
-1.073462267801703489e-13
-7.789951723187680880e-14
-5.738214489793186499e-14
-4.310120807263296454e-14
-3.293413262299003102e-14
-2.548754076848406479e-14
-1.986585496676619236e-14
-1.548238018715789795e-14
-1.198098616883594320e-14
-9.148803732258657078e-15
-6.859995187917704929e-15
