# bin_14_16
-5.541314614789298641e-09
-6.239772879687467858e-09
-6.904286677038465151e-09
-7.475249566818836821e-09
-7.875383099453972192e-09
-8.018317399542426510e-09
-7.826986644636442874e-09
-7.216942508065501563e-09
-6.292804632005619927e-09
-5.208728480676623313e-09
-4.268629322654158553e-09
-3.642966775143711558e-09
-3.125713063714047917e-09
-2.356556662977345199e-09
-1.640948687924498337e-09
-1.336542580595022172e-09
-8.991252930028972176e-10
-6.800138772595036138e-10
-4.613266279994830025e-10
-3.212337255164881981e-10
-2.252628241722543214e-10
-1.579589213541229549e-10
-1.113203485863149276e-10
-7.935507442673886974e-11
-5.767469164985236627e-11
-4.274153605389917976e-11
-3.225565824695581995e-11
-2.470900075303723056e-11
-1.909158708501804717e-11
-1.477159695088866061e-11
-1.136118589083065407e-11
