# bin_16_10
-1.374938579089016596e-15
-1.540496381515079694e-15
-1.694240944102748149e-15
-1.820651294313402561e-15
-1.900095998635430163e-15
-1.914242657143712979e-15
-1.839217232784148922e-15
-1.667554963173771565e-15
-1.429448959808522924e-15
-1.173554961480922664e-15
-9.691196779845350493e-16
-8.361900465713755992e-16
-7.006577662343290197e-16
-5.041574963671007306e-16
-3.666981600192778956e-16
-2.929448522232642391e-16
-1.950347420483367716e-16
-1.463700075553410810e-16
-1.024002887809452948e-16
-7.111428679651761210e-17
-4.992920214967615382e-17
-3.519947948670592013e-17
-2.514715138575315423e-17
-1.824592027289115713e-17
-1.350639206589306461e-17
-1.018251137744195896e-17
-7.795931126449960123e-18
-6.030017833557811548e-18
-4.678532954534911785e-18
-3.614797267838862566e-18
-2.762814893464706879e-18
