# bin_3_20
-2.071065469872604025e-73
-2.324735886174305029e-73
-2.562521717409268956e-73
-2.761414009129920323e-73
-2.892102577766672299e-73
-2.925258627866741736e-73
-2.827253308343296253e-73
-2.578910960475771158e-73
-2.224419429005783927e-73
-1.830836623506050942e-73
-1.506759133226253258e-73
-1.295544358493672965e-73
-1.096638120968739949e-73
-8.020819173715072957e-74
-5.720278001345682370e-74
-4.634679043463360976e-74
-3.069674998313926501e-74
-2.328246898560331075e-74
-1.610101888165542601e-74
-1.115595755950913035e-74
-7.835336774740502113e-75
-5.510334613835090039e-75
-3.916685700226432392e-75
-2.823562127809221252e-75
-2.076751002793587719e-75
-1.556533112686790285e-75
-1.186080713974260219e-75
-9.146977432872264754e-76
-7.089842501827371423e-76
-5.482946218988646388e-76
-4.201418054671553389e-76
