# bin_14_14
-3.137330299848062114e-08
-3.523041661403399485e-08
-3.885327044019525772e-08
-4.189463192296837607e-08
-4.391133682466161250e-08
-4.445316086703651618e-08
-4.301994805882577716e-08
-3.929487809762261476e-08
-3.394073870120509006e-08
-2.795324438934260570e-08
-2.298970633920392080e-08
-1.974968869132919821e-08
-1.675184306773991111e-08
-1.229943596148812488e-08
-8.736934895209118630e-09
-7.093928046134393842e-09
-4.699190039359437078e-09
-3.568493947056505880e-09
-2.461492274499016250e-09
-1.705179870168717899e-09
-1.197682170700943021e-09
-8.420124354124344884e-10
-5.978227403218646764e-10
-4.303436526117797294e-10
-3.160483317327858205e-10
-2.365507687235603215e-10
-1.800441769575152866e-10
-1.387433603508218557e-10
-1.075071291921762504e-10
-8.315271146023981566e-11
-6.375144142510474865e-11
