# bin_2_1
-5.712277752720903580e-08
-5.648132868459417655e-08
-5.301437430568456978e-08
-4.705068210168449226e-08
-3.955452566285826884e-08
-3.237920436400347600e-08
-2.712969359567392184e-08
-2.335813615547362551e-08
-1.866925879841910538e-08
-1.321981396918255300e-08
-1.025077227610951892e-08
-7.701676041323290830e-09
-5.560785458929360514e-09
-4.081021824739144664e-09
-3.027624460394942294e-09
-2.251102052572234793e-09
-1.703522106318364281e-09
-1.314486692985476621e-09
-1.032383678169066899e-09
-8.218623895624294072e-10
-6.589487471838715650e-10
-5.280226842456269671e-10
-4.197731723065324917e-10
-3.288586901886697604e-10
-2.523994794165041972e-10
-1.889192489905064528e-10
-1.375504724464297066e-10
-9.736231359201729817e-11
-6.710938080562611357e-11
-4.517069257037497544e-11
-2.979240951890446932e-11
