# bin_11_2
-3.643309803544200780e-35
-3.963802194722894988e-35
-4.204020528999056700e-35
-4.316425026804061677e-35
-4.265157473860318306e-35
-3.992887229339619956e-35
-3.532616787856223965e-35
-2.956605104285885453e-35
-2.416623483478203538e-35
-2.033724661591608227e-35
-1.758603538358745162e-35
-1.389668672753595793e-35
-9.645545423438801883e-36
-7.635922684788494192e-36
-5.559910056235492364e-36
-4.034448347206625637e-36
-2.829329943457288572e-36
-2.071031035909800918e-36
-1.490552065885884231e-36
-1.081695759897396643e-36
-7.985464125123091859e-37
-5.994544802102800798e-37
-4.582297140218797662e-37
-3.556040521963978813e-37
-2.785532973679901550e-37
-2.188383293272853250e-37
-1.712040329098551813e-37
-1.324852672909309133e-37
-1.008331957549623794e-37
-7.513094414132347331e-38
-5.461174166541654102e-38
