# bin_18_14
-5.053989628556596553e-11
-5.705916546900542060e-11
-6.333304884346370601e-11
-6.883405630575988026e-11
-7.286577289166860020e-11
-7.459973951925101425e-11
-7.339675892332041840e-11
-6.831095962626591122e-11
-6.009918616518531858e-11
-5.005444125962559144e-11
-4.094481169449880147e-11
-3.468339281295349703e-11
-2.995988588229397396e-11
-2.319489486102700531e-11
-1.601283285382462160e-11
-1.288262706722376587e-11
-8.983596038164571308e-12
-6.626470850880156343e-12
-4.465804025041615622e-12
-3.161866393566509161e-12
-2.200769149854252266e-12
-1.530390700932090283e-12
-1.070729716228501322e-12
-7.563544291436433741e-13
-5.438787804176300248e-13
-3.988201092678166722e-13
-2.981047351512072922e-13
-2.266927687465313084e-13
-1.744066804480769352e-13
-1.348137176818029273e-13
-1.039149873241367871e-13
