# bin_10_7
-1.314399938598284003e-10
-1.443675965138066720e-10
-1.549396434014355763e-10
-1.614843820806577908e-10
-1.624710247469965468e-10
-1.558604636711892199e-10
-1.411268568598923771e-10
-1.208218992421074614e-10
-9.915492546531413717e-11
-8.191790284410630842e-11
-7.065101382743498956e-11
-5.906155529299583880e-11
-4.250745031071017499e-11
-3.107336001140860101e-11
-2.477987149247432449e-11
-1.669774065607837261e-11
-1.257220179971974684e-11
-8.925939701882871949e-12
-6.318255041648619493e-12
-4.537481760758248815e-12
-3.291408265021674046e-12
-2.427658890051533456e-12
-1.822028118068969829e-12
-1.392778787194433661e-12
-1.079399116496919875e-12
-8.433915155721439166e-13
-6.599858139220275813e-13
-5.135139928347788584e-13
-3.947527867192925620e-13
-2.982052395605407079e-13
-2.204411625883014621e-13
