# bin_12_13
-2.059439499385886803e-08
-2.302090142588708361e-08
-2.524685875824202580e-08
-2.703531640217193657e-08
-2.808822171956660268e-08
-2.815240687452023506e-08
-2.685003852983284078e-08
-2.416963616886432009e-08
-2.056449766997827992e-08
-1.684493756879953105e-08
-1.397964031786477480e-08
-1.209699024047817848e-08
-9.990892336925198955e-09
-7.067173265077708733e-09
-5.273355393092152106e-09
-4.112277623691924143e-09
-2.781750801741199971e-09
-2.042248260559652368e-09
-1.450564255023753148e-09
-1.011742645928001685e-09
-7.104249871212376692e-10
-5.034401576710653959e-10
-3.620257171292483329e-10
-2.647073731899198529e-10
-1.974144986884420467e-10
-1.498145765516963580e-10
-1.152839001275138504e-10
-8.942652621987024798e-11
-6.942158295025884495e-11
-5.354912409930581480e-11
-4.078647763557080635e-11
