# bin_2_2
-1.391053528887913343e-07
-1.398160014004076047e-07
-1.341451105794166891e-07
-1.216300379473198613e-07
-1.043439529711715242e-07
-8.580314721347802602e-08
-7.083214434287459749e-08
-6.079395240034678026e-08
-5.083406570595967075e-08
-3.720078580682102193e-08
-2.719487339763604255e-08
-2.164125133320759324e-08
-1.507048856575532369e-08
-1.141199685100920968e-08
-8.282237475279990869e-09
-6.103017283454073143e-09
-4.577001795308077678e-09
-3.491376515410159450e-09
-2.712806517835214229e-09
-2.140790976559661357e-09
-1.707894144641192771e-09
-1.367130561760114845e-09
-1.089903354910385201e-09
-8.593049153496194617e-10
-6.657503009453931945e-10
-5.042053082951523781e-10
-3.718956382764654278e-10
-2.666913406021431381e-10
-1.860414833363649775e-10
-1.265329444679117948e-10
-8.417969671466892025e-11
