# bin_15_11
-1.622572736342460401e-11
-1.817317960014336123e-11
-1.997842194528070875e-11
-2.145776005564080680e-11
-2.237907691547603048e-11
-2.252855747480654681e-11
-2.162174487970591644e-11
-1.958235621984183824e-11
-1.676735008074222327e-11
-1.376048193083132994e-11
-1.137135339343135507e-11
-9.816611674170366390e-12
-8.208585670120127333e-12
-5.890524769383244274e-12
-4.300669644468389082e-12
-3.424265374081102571e-12
-2.284279960044058367e-12
-1.709350840021617345e-12
-1.198506925733344032e-12
-8.328261328831250237e-13
-5.847082452357672715e-13
-4.124932290348879583e-13
-2.949767821903149098e-13
-2.142741390191218602e-13
-1.587948474351036058e-13
-1.198374282443904775e-13
-9.182286343177258058e-14
-7.105647413125405331e-14
-5.513699807843848134e-14
-4.259110474922457155e-14
-3.253614937732364273e-14
