# bin_17_5
-2.709640064588874838e-42
-3.024584909336588153e-42
-3.311249759926618652e-42
-3.538099414368866051e-42
-3.665588886697392246e-42
-3.662044320659188090e-42
-3.476772651885316448e-42
-3.116313962139935484e-42
-2.639814976051910098e-42
-2.160288239459727682e-42
-1.798963360421482714e-42
-1.558116390256810194e-42
-1.274173829776538820e-42
-8.935654350160532224e-43
-6.773466574738464992e-43
-5.193249838503490526e-43
-3.559935364893262555e-43
-2.571167675201847182e-43
-1.842824902126010796e-43
-1.289210605976820815e-43
-9.060158904213960192e-44
-6.445150673897166287e-44
-4.653320695544624489e-44
-3.417964539090551037e-44
-2.560077376200421611e-44
-1.950001558747995488e-44
-1.504629471103816619e-44
-1.168774173216743666e-44
-9.073443002915553910e-45
-6.990370297661758558e-45
-5.312428075531524841e-45
