# bin_4_11
-7.174103060590722913e-23
-7.843596540909238458e-23
-8.369990311048247454e-23
-8.659888936823171109e-23
-8.639322034178812664e-23
-8.189248210472624773e-23
-7.330106682635713232e-23
-6.201788150983100751e-23
-5.073653654930664256e-23
-4.227158056242660411e-23
-3.658805005822979789e-23
-2.984187500861559039e-23
-2.095381516673130119e-23
-1.595886898281434813e-23
-1.222801022711157489e-23
-8.481002315764720699e-24
-6.165420370488022842e-24
-4.474970614325666198e-24
-3.190236037607695341e-24
-2.295879646662952558e-24
-1.678979076343293644e-24
-1.249509837514944736e-24
-9.467257323636913681e-25
-7.295071075355438277e-25
-5.687067315837104205e-25
-4.458373940091808612e-25
-3.490303446805287217e-25
-2.709560376868848693e-25
-2.073334413207603219e-25
-1.556017321051701688e-25
-1.140874065895084706e-25
