# bin_1_10
-1.165498796046270345e-37
-1.257641231000143616e-37
-1.320242335156050472e-37
-1.339439264157913559e-37
-1.301356342542725757e-37
-1.194298822284758281e-37
-1.036666498594069193e-37
-8.560310614556875784e-38
-7.022328072080798331e-38
-6.002291202230014792e-38
-5.120822928812827527e-38
-3.830356549515038550e-38
-2.702407258473253674e-38
-2.199781147497968453e-38
-1.498146066342993476e-38
-1.144237436397696369e-38
-8.023012047687607141e-39
-5.769304044562038926e-39
-4.207768399208658202e-39
-3.099495108162524061e-39
-2.318001146277069840e-39
-1.763102342514832262e-39
-1.364501530969732758e-39
-1.068710683629702652e-39
-8.416994293340753162e-40
-6.620709691370959059e-40
-5.164453160446210042e-40
-3.970431376108482971e-40
-2.992745902474341976e-40
-2.202609641300659904e-40
-1.578710359899719375e-40
