# bin_4_14
-1.519875921362436522e-35
-1.680236883268866429e-35
-1.817810153453024207e-35
-1.913868217917902221e-35
-1.947586413290696711e-35
-1.900158688752571376e-35
-1.751477283917342051e-35
-1.526781907738016415e-35
-1.263625622666003684e-35
-1.035339969184608860e-35
-8.830191977314999015e-36
-7.572095530099405876e-36
-5.716667890775804723e-36
-3.991162108383445265e-36
-3.250495713541282539e-36
-2.208488748911980149e-36
-1.676508874393926871e-36
-1.153961235531477615e-36
-8.190955978478395780e-37
-5.866035737644452872e-37
-4.224644312380228786e-37
-3.076196700880748919e-37
-2.274792598462599241e-37
-1.715402160832312857e-37
-1.315116153421154971e-37
-1.020223988585303090e-37
-7.961870019849394575e-38
-6.205106314017227337e-38
-4.796476272406178380e-38
-3.655135122124537356e-38
-2.732988408103159496e-38
