# bin_19_5
-2.220769539220019397e-51
-2.490161209178268981e-51
-2.741357643927876931e-51
-2.949457847179749626e-51
-3.082878810663196026e-51
-3.111224981506572122e-51
-2.996918357508783155e-51
-2.724217149189547560e-51
-2.341439505309196391e-51
-1.924235714192844161e-51
-1.586591798123596642e-51
-1.367050330257357991e-51
-1.150699062581604733e-51
-8.336350195421376347e-52
-6.010712857541316717e-52
-4.835021950937447427e-52
-3.208339792914892132e-52
-2.421185681030405025e-52
-1.685373184122270197e-52
-1.169023027836110430e-52
-8.208901462991167970e-53
-5.779806772779886638e-53
-4.120087143303221057e-53
-2.981198622633004126e-53
-2.200845791105086871e-53
-1.655172859683860464e-53
-1.264761318790645092e-53
-9.771094218924852783e-54
-7.578467395118353443e-54
-5.858061465710095040e-54
-4.482456170905871839e-54
