# bin_10_2
-3.505392530306275322e-30
-3.793265889307988780e-30
-3.996244105026479165e-30
-4.070686069219496028e-30
-3.978415420887423879e-30
-3.675520155292989767e-30
-3.211367564984171882e-30
-2.662211525617382093e-30
-2.179622992982324340e-30
-1.853923519923756775e-30
-1.592044060482017766e-30
-1.212807806710714299e-30
-8.468813056036278559e-31
-6.872567313155849158e-31
-4.756792687301130665e-31
-3.597752815151247220e-31
-2.504580764985110910e-31
-1.811175253502751501e-31
-1.316886416684703612e-31
-9.665275190040749188e-32
-7.198091325568700800e-32
-5.450748219408562939e-32
-4.201878087065210916e-32
-3.281706626735604882e-32
-2.580646137927380414e-32
-2.029632483831418307e-32
-1.585137827478298792e-32
-1.221577275617400020e-32
-9.239182365574204002e-33
-6.828858138093051561e-33
-4.917871642600190890e-33
