# bin_14_5
-2.071718289406780840e-29
-2.293812323190172463e-29
-2.486300431721991843e-29
-2.623839287071137144e-29
-2.677244267366394141e-29
-2.622259096634419837e-29
-2.428019118613824118e-29
-2.125840412859384154e-29
-1.764432742431972537e-29
-1.444115770663421330e-29
-1.227364185460368238e-29
-1.056490766735982295e-29
-8.077669008694870426e-30
-5.608795989117260419e-30
-4.547961905140969290e-30
-3.135403168941604883e-30
-2.357187205850926610e-30
-1.615104196479417207e-30
-1.153324020965623857e-30
-8.235766073349593171e-31
-5.912749611430630877e-31
-4.291678138694613080e-31
-3.162004775788915050e-31
-2.375633029209418325e-31
-1.815624507696336759e-31
-1.405322786647481004e-31
-1.095455827214005146e-31
-8.537536747753940542e-32
-6.606397474705173660e-32
-5.044145324443128757e-32
-3.781611875116181204e-32
