# bin_19_1
-4.759359581149501791e-89
-5.326015866555479485e-89
-5.848927665987867250e-89
-6.273830386239269678e-89
-6.532310981113246756e-89
-6.563479672719823011e-89
-6.282021549223944497e-89
-5.674135036053741392e-89
-4.844860308519340890e-89
-3.972396115975600784e-89
-3.288571551738027534e-89
-2.842382493240307306e-89
-2.364363824249017187e-89
-1.685413234421476191e-89
-1.242311633281178085e-89
-9.806338829995389943e-90
-6.576874533572213162e-90
-4.883958886294369723e-90
-3.443674369512554561e-90
-2.396719835484867720e-90
-1.682636878859232344e-90
-1.189212984755773050e-90
-8.525060961199906810e-91
-6.210876220545689491e-91
-4.615908294883881779e-91
-3.492315824975125979e-91
-2.681197816771301462e-91
-2.077206116782305600e-91
-1.612255300555520537e-91
-1.244687512729460097e-91
-9.496334145778811642e-92
