# bin_12_11
-2.112252623757357533e-08
-2.352713280249857066e-08
-2.568936142005306695e-08
-2.735941824562215206e-08
-2.822695065949609983e-08
-2.805825853393944241e-08
-2.645965416639052904e-08
-2.356757527113268532e-08
-1.984144619795689904e-08
-1.622337353541164573e-08
-1.358300705346703625e-08
-1.176689536132598126e-08
-9.465678076165915765e-09
-6.576900840047029275e-09
-5.100892905955540191e-09
-3.804152169815667649e-09
-2.671479432570624336e-09
-1.882534758886880647e-09
-1.361841972112807066e-09
-9.573913889061569631e-10
-6.751102590833335189e-10
-4.831096660014499448e-10
-3.507795600448952865e-10
-2.593177273734625104e-10
-1.953866173518613735e-10
-1.495618260642683203e-10
-1.157984398029559180e-10
-9.008591004691771039e-11
-6.990792272610332607e-11
-5.374519282854603437e-11
-4.070266553857230085e-11
