# bin_12_19
-7.220957448456477689e-17
-8.146618519362265966e-17
-9.034676962392128071e-17
-9.809144183667050009e-17
-1.037017931962309463e-16
-1.060064812738992816e-16
-1.040742869771202384e-16
-9.661221381935612257e-17
-8.479185732280371324e-17
-7.048912782066290766e-17
-5.768198745419633930e-17
-4.896662889363114723e-17
-4.223805831380639590e-17
-3.245792296432124183e-17
-2.244014574166917443e-17
-1.813797810239378347e-17
-1.250468067560088478e-17
-9.306378459501168159e-18
-6.270442300777494224e-18
-4.417218523940762998e-18
-3.082227771637585254e-18
-2.149785703253336832e-18
-1.507126342282951032e-18
-1.067240126600939328e-18
-7.697308435839272036e-19
-5.661361829510937465e-19
-4.243468129197053895e-19
-3.234008384795242088e-19
-2.491467404891082577e-19
-1.926665568958911502e-19
-1.484354223037636526e-19
