# bin_13_11
6.012007246088307018e-07
6.710131684426152950e-07
7.345215346367839062e-07
7.847229547122468413e-07
8.128339749704115243e-07
8.118670936245069825e-07
7.705277629919095548e-07
6.904128355216782352e-07
5.846246838057407765e-07
4.783704226988226263e-07
3.984560376072990715e-07
3.451663571437641293e-07
2.820829461958976389e-07
1.976281716367476340e-07
1.500013309949281824e-07
1.148684795241454805e-07
7.879955353066821666e-08
5.684017317121209674e-08
4.078138783042218842e-08
2.853566274996920812e-08
2.005141208774345578e-08
1.426768532427367104e-08
1.030430960579091966e-08
7.571346606592713927e-09
5.672865067702302605e-09
4.322247484963194086e-09
3.335803798243027817e-09
2.591530200350345013e-09
2.011910544205509753e-09
1.549908103319331963e-09
1.177695441132425490e-09
