# bin_20_15
1.881574381286631756e-11
2.131138880341518222e-11
2.374746370760207900e-11
2.593448016401946179e-11
2.761818390241022900e-11
2.848263786517243504e-11
2.829429064101562318e-11
2.665153512493565739e-11
2.371109827642864717e-11
1.993741106955024350e-11
1.630226596538947139e-11
1.367269996284125933e-11
1.185048635771987899e-11
9.492036149255786463e-12
6.566368089427778068e-12
5.118575702390936609e-12
3.773816749984021753e-12
2.648715234253620759e-12
1.829835717799817023e-12
1.309910764130863172e-12
9.024294281024134819e-13
6.189201639827619861e-13
4.287037068641597437e-13
2.994669971334146448e-13
2.122714317939293699e-13
1.533667996341411073e-13
1.130206194003539301e-13
8.493495137001539295e-14
6.482290434581355094e-14
4.993351190803781457e-14
3.853148060945305847e-14
