# bin_15_1
2.292482907084359162e-95
2.534341250747249278e-95
2.741817242925212291e-95
2.886663331179369051e-95
2.937417803754897917e-95
2.865810564818256640e-95
2.641318291369491370e-95
2.302292970882472371e-95
1.905170363343980221e-95
1.560849505244538401e-95
1.331418396242642715e-95
1.141972088029672868e-95
8.617991299030677598e-96
6.013431353580498462e-96
4.902998575014954406e-96
3.325203766565768936e-96
2.528515657850764350e-96
1.739556203054952948e-96
1.233650881868904608e-96
8.839147416368364403e-97
6.368811295741076467e-97
4.637920028201736322e-97
3.429921749092057147e-97
2.586776390110643921e-97
1.983374845155760672e-97
1.538786485195661062e-97
1.200967172050622485e-97
9.360226217593971522e-98
7.235491454037544384e-98
5.513731194799461405e-98
4.122551529105727688e-98
