# bin_19_1
1.702758278029635743e-130
1.905568317943543280e-130
2.092759893096208175e-130
2.244925572059365883e-130
2.337603391570109959e-130
2.348968482163485095e-130
2.248472572658902616e-130
2.031006701511337744e-130
1.734269452223993970e-130
1.421868921201957823e-130
1.176957721473946629e-130
1.017402615174371965e-130
8.465657132470720812e-131
6.033327987835769428e-131
4.446289167824530675e-131
3.511946028084238888e-131
2.353467392135435031e-131
1.749120314877591600e-131
1.233069032608669772e-131
8.581008229252818585e-132
6.023852548590654832e-132
4.256528599226523535e-132
3.051128650376428967e-132
2.222767734223160018e-132
1.651883848504970863e-132
1.249753769260729664e-132
9.594882988581492614e-133
7.433647087925388037e-133
5.770025180561521066e-133
4.454845262374457518e-133
3.399068193616386617e-133
