# bin_20_2
9.961159276480868083e-122
1.117758938780847637e-121
1.231601784074491040e-121
1.326543527724917366e-121
1.388465965456998924e-121
1.403418320153492106e-121
1.354963398732232312e-121
1.234542939197874212e-121
1.063612407591658316e-121
8.749200534607126921e-122
7.204255481792110177e-122
6.199185280013540128e-122
5.239025999814904007e-122
3.819059078062794285e-122
2.732189826936435934e-122
2.210931635099144868e-122
1.463172001725002567e-122
1.109287039756302932e-122
7.687993443641053029e-123
5.326807919277986120e-123
3.741098364015410944e-123
2.631350145409571965e-123
1.872059201162315632e-123
1.351227665830555304e-123
9.950873290978034005e-124
7.466963696992643357e-124
5.695432341241265507e-124
4.395195537160915576e-124
3.407724520504392376e-124
2.635163013731040034e-124
2.018424175627930862e-124
