# bin_16_16
1.032492244551233553e-05
1.165471589521467303e-05
1.293343748112133284e-05
1.405311456531399466e-05
1.487133501820468805e-05
1.521907815342122224e-05
1.496554847100532728e-05
1.391906287974022123e-05
1.223814290902147683e-05
1.018704073451876935e-05
8.333391657942768244e-06
7.063227510681439315e-06
6.100119448747736627e-06
4.713009255897907260e-06
3.253631026399546462e-06
2.622340818674113624e-06
1.822248281373946213e-06
1.348448293644361928e-06
9.075844650919167086e-07
6.418768947513498658e-07
4.470825670099805345e-07
3.112064115588542295e-07
2.178554741921594957e-07
1.539891118026907417e-07
1.108208324472659767e-07
8.133129230835207675e-08
6.084011249755865779e-08
4.629541332365127716e-08
3.563275319903107993e-08
2.754851457831266587e-08
2.123305789123742021e-08
