# bin_14_14
1.045982221849551440e-05
1.174676597565509682e-05
1.295606593506800078e-05
1.397202284234075190e-05
1.464694022298812652e-05
1.483034549774567984e-05
1.435590378706785870e-05
1.311598209834562962e-05
1.133162055235600209e-05
9.333210851881702360e-06
7.674517522689770050e-06
6.592202967717911700e-06
5.594472888806987223e-06
4.109896087149833480e-06
2.916206436411951695e-06
2.370632124779187165e-06
1.568777772929573939e-06
1.192562598167369985e-06
8.222891902216723470e-07
5.694127694453988822e-07
3.999748468468452273e-07
2.811576111915435048e-07
1.995797985534828528e-07
1.436314333541593842e-07
1.054592438142588201e-07
7.891573381903856224e-08
6.005481841754745129e-08
4.627473167127580047e-08
3.585646619875398142e-08
2.773566541042972204e-08
2.126721340699701127e-08
