# bin_3_1
1.528154146931255538e-07
1.537589957836906611e-07
1.477162495280077557e-07
1.340712543067496779e-07
1.151240952113453409e-07
9.464390383608099902e-08
7.803837631419730409e-08
6.700742426941372002e-08
5.621855253941166216e-08
4.114293874709192021e-08
2.994258323974156000e-08
2.399670431984016501e-08
1.658889102110578019e-08
1.263896833405258534e-08
9.156795363011482198e-09
6.735882437126215547e-09
5.050928085427305478e-09
3.850877576599798216e-09
2.990897969046662697e-09
2.359536227884159942e-09
1.882254379476712164e-09
1.506852406795246300e-09
1.201620404274492786e-09
9.477874234158869827e-10
7.346918384195770383e-10
5.567467606727508588e-10
4.108823172822116850e-10
2.947931180082685240e-10
2.057239297172420549e-10
1.399590722893564714e-10
9.313100191613165609e-11
