# bin_6_3
5.137122195615072578e-10
5.440641260399453759e-10
5.578427237274323091e-10
5.503565431926796015e-10
5.143973771916635189e-10
4.544732385739345670e-10
3.800132897458749558e-10
3.106190776683200197e-10
2.615259442837500000e-10
2.258633097744435832e-10
1.780557471359160473e-10
1.240251238597592949e-10
9.836976122680910113e-11
7.171581373767030518e-11
5.243336032451840038e-11
3.716795109127012564e-11
2.742764720089366340e-11
2.004018868492726847e-11
1.481594331638881746e-11
1.115967389579839028e-11
8.553925385903249246e-12
6.665877320699815492e-12
5.255178894281576430e-12
4.162840836745358179e-12
3.290155846879405619e-12
2.576520730210130804e-12
1.986514160548110798e-12
1.499999761768973817e-12
1.104777286797475984e-12
7.916759007016398706e-13
5.518588781851894982e-13
