# bin_5_2
2.881295789375939924e-10
3.002769650653857793e-10
3.022352561327960760e-10
2.903382723276539309e-10
2.633740902584713618e-10
2.259735796558906628e-10
1.856227925471163700e-10
1.530813634380299985e-10
1.316601942117004987e-10
1.104551917754712601e-10
8.038328991693254266e-11
5.851617877351309486e-11
4.697593682680630240e-11
3.213114410177208693e-11
2.448417321622679975e-11
1.763152869091351968e-11
1.282240734030471557e-11
9.505028328183661247e-12
7.151420731337514794e-12
5.481032782361012525e-12
4.271186573877490202e-12
3.373320272356858823e-12
2.681292120355848364e-12
2.129510336005941847e-12
1.678051110296212063e-12
1.303238949867315876e-12
9.919707978331205353e-13
7.367204813607977636e-13
5.323436583322869610e-13
3.740670475592249833e-13
2.559711675398928614e-13
