# bin_12_6
1.306912938014736599e-19
1.440795131463060159e-19
1.553430160015901027e-19
1.628502169105057465e-19
1.649225681455084629e-19
1.597475212089368633e-19
1.460725371065413613e-19
1.263182999580317636e-19
1.040810882077243143e-19
8.551265755217480636e-20
7.335247763166199941e-20
6.233769701054093744e-20
4.601861995871914415e-20
3.261946210225684152e-20
2.657676081127877132e-20
1.776581349747372345e-20
1.358587184229899216e-20
9.471423066387791280e-21
6.683739122748006125e-21
4.798619695720338957e-21
3.466530129130241857e-21
2.538401587757591053e-21
1.889560152011933245e-21
1.433951985637729384e-21
1.105057437350126588e-21
8.603708839961270050e-22
6.725398813873150835e-22
5.239548480708259895e-22
4.041396750617370417e-22
3.068525418444003519e-22
2.283192348406741791e-22
