# bin_19_6
1.580500748414778695e-60
1.773553854586533929e-60
1.954251726210523825e-60
2.104984629463593288e-60
2.203354364013907489e-60
2.227208568461656272e-60
2.150487310788104471e-60
1.959525279459836706e-60
1.688356411758628794e-60
1.388871537016074966e-60
1.143564719531605199e-60
9.839826852575740021e-61
8.317026274955400167e-61
6.064065080496900149e-61
4.337001907167861250e-61
3.510489249245267242e-61
2.322834360731032903e-61
1.761406516430529092e-61
1.220579170331826340e-61
8.456600137456518546e-62
5.939241734341866377e-62
4.177248309444370797e-62
2.971677244656345757e-62
2.144734862639216071e-62
1.579320213622215250e-62
1.185005586773151727e-62
9.038099852752230371e-63
6.974504396794822499e-63
5.407492713502548973e-63
4.181638008191294828e-63
3.203082456409624908e-63
