# bin_16_2
2.306639018277174281e-88
2.560805736897327297e-88
2.784896236308047430e-88
2.951065541195155140e-88
3.025720867174610981e-88
2.983645248293711169e-88
2.785125419498719700e-88
2.457221276675610993e-88
2.051181808386844117e-88
1.676808712239649651e-88
1.415728333938652145e-88
1.224253310721941654e-88
9.577028705720845754e-89
6.617053268607454584e-89
5.290128174063151288e-89
3.769523308053951783e-89
2.760516007603348888e-89
1.892500600504766675e-89
1.368309014734914512e-89
9.701866349186211529e-90
6.908751933243062163e-90
4.985694049099657449e-90
3.649978782502460761e-90
2.723619428752663099e-90
2.069380811882933276e-90
1.594658787988310934e-90
1.239971264380375820e-90
9.660482937064850181e-91
7.487379418499472885e-91
5.735545314901528720e-91
4.319852119544466122e-91
