# bin_12_8
4.364941065482358083e-14
4.829479931781424539e-14
5.230233286337528486e-14
5.513627146811011943e-14
5.618949888886882261e-14
5.493751953402911086e-14
5.076359351049793014e-14
4.435732271755323335e-14
3.676903096831754276e-14
3.010875671676948875e-14
2.563018541239488399e-14
2.202380685293692106e-14
1.674305972081988326e-14
1.165463096101782033e-14
9.468713695751849240e-15
6.485341719711557223e-15
4.896790971040761806e-15
3.362323489853676102e-15
2.394530016848335691e-15
1.712148324002023833e-15
1.230964942262382559e-15
8.947918262793195515e-16
6.603786764824158131e-16
4.969962355420979934e-16
3.803878583451179246e-16
2.947362541400506643e-16
2.298727470420927940e-16
1.791543853962611636e-16
1.385643395569674423e-16
1.057036343950593974e-16
7.915000236131649157e-17
