# bin_19_17
2.290065536436608872e-10
2.593552482921201452e-10
2.889678549744047515e-10
3.155351431445254338e-10
3.359611404109884173e-10
3.464057636571712792e-10
3.440172498684861607e-10
3.239386604580538977e-10
2.881139837523828374e-10
2.422078461055053300e-10
1.980556003469046648e-10
1.661510017315551141e-10
1.439869983929702162e-10
1.152180028187642574e-10
7.972935667027989090e-11
6.218892662767376815e-11
4.578044401718157555e-11
3.218101555836877890e-11
2.222687551332512007e-11
1.589543080944435758e-11
1.095364311194741664e-11
7.516928741622621360e-12
5.207669028140465518e-12
3.638670304118033514e-12
2.580080355448700338e-12
1.864769503885548908e-12
1.374656248538186850e-12
1.033320009040129166e-12
7.887547059957077333e-13
6.075976678529662700e-13
4.688102749312934775e-13
