# bin_7_17
2.125180341183666225e-07
2.308108357315156775e-07
2.442728552253002652e-07
2.501862930538992924e-07
2.463541908508225044e-07
2.297042974823052143e-07
2.024642529099170636e-07
1.690182459307104591e-07
1.382607285328064505e-07
1.167156700617679239e-07
1.006461505935263903e-07
7.868100712412999224e-08
5.482616858124434950e-08
4.361779108051889581e-08
3.133935029302781149e-08
2.297731084580603733e-08
1.613662988649012590e-08
1.174763241216733281e-08
8.478349167647806890e-09
6.173652819342342016e-09
4.568669436491143775e-09
3.438301254652364437e-09
2.634627333400416586e-09
2.048268179178383996e-09
1.606148642024074792e-09
1.262093064325170585e-09
9.867588582449722395e-10
7.625754762174155488e-10
5.792578166193220713e-10
4.305507572028437304e-10
3.121033831348912197e-10
