# bin_11_5
8.595813865751838349e-21
9.416917612175823827e-21
1.007414236161820964e-20
1.045664653870672063e-20
1.047119069634117976e-20
9.977570513894566696e-21
8.974940264341557844e-21
7.631447669989484077e-21
6.249791747581590211e-21
5.186733849823103728e-21
4.485118147265283541e-21
3.700295215143345330e-21
2.622386953714941774e-21
1.961994693601902902e-21
1.532190923003283966e-21
1.046716170058177727e-21
7.740668921288188109e-22
5.567409496606291884e-22
3.955543916730292698e-22
2.842586286647101992e-22
2.070694563893081342e-22
1.535140815634511769e-22
1.158539960758418109e-22
8.897842221251328835e-23
6.920152723683263633e-23
5.418256624050984382e-23
4.241666378997550177e-23
3.296470274159924969e-23
2.527687140446425863e-23
1.902502259192679684e-23
1.399906991456335431e-23
