# bin_18_17
1.355585640471177261e-09
1.533304307082024062e-09
1.705744356263876149e-09
1.859052063291764401e-09
1.974742784893851268e-09
2.030195418055763408e-09
2.008676319195901326e-09
1.882484951943015643e-09
1.666896305066230991e-09
1.395774104085177136e-09
1.141215942268663829e-09
9.611204864816935543e-10
8.322523984744353824e-10
6.572661862249404497e-10
4.535845817087510709e-10
3.588787523661648454e-10
2.584541107706900486e-10
1.853689995803958256e-10
1.262442759665278084e-10
9.020079798563420362e-11
6.238998331268024316e-11
4.302292116622654204e-11
2.993132965057684584e-11
2.100670153707107436e-11
1.498185071517959306e-11
1.089395649648068593e-11
8.078218448948005791e-12
6.103048591908969119e-12
4.675167086694861747e-12
3.607599243703826786e-12
2.783097384600012039e-12
