# bin_10_6
1.235703785523706189e-14
1.352018300290883681e-14
1.444083822045079625e-14
1.495868643133081620e-14
1.494390905013863645e-14
1.419267781883791451e-14
1.272692013139354853e-14
1.078780041838419575e-14
8.828867139204653819e-15
7.345168368317745142e-15
6.355391474962971506e-15
5.205829515097424042e-15
3.667923795752118878e-15
2.775021780684644838e-15
2.141476677407358983e-15
1.476825811010753223e-15
1.080511006077411331e-15
7.816097298933235658e-16
5.565011554862452432e-16
4.002661024252230914e-16
2.922882616902293305e-16
2.172137297035075432e-16
1.643355353637433092e-16
1.264753910449208192e-16
9.851096965323560006e-17
7.719191821579229695e-17
6.043037697650290179e-17
4.693184172903122451e-17
3.593956206753353108e-17
2.700125283418970341e-17
1.982363134759005997e-17
