# bin_9_12
7.054875749354387426e-08
7.761391483114217414e-08
8.346635429262856330e-08
8.721604630218580636e-08
8.800417856244461626e-08
8.479023030890985274e-08
7.712279594934196006e-08
6.633452875780894488e-08
5.454887233576068377e-08
4.495913573487859101e-08
3.867092330606076527e-08
3.255941923179838632e-08
2.372466050197921656e-08
1.711116696930323859e-08
1.375467087830982621e-08
9.259322469898137126e-09
7.006677900887833006e-09
4.932306820897483313e-09
3.489762335602136524e-09
2.505352804924788419e-09
1.813961770660737021e-09
1.333468979485297982e-09
9.970143679579854203e-10
7.595512928290833085e-10
5.870943866666858834e-10
4.579483866189398496e-10
3.581550944038640119e-10
2.788114420417680036e-10
2.146461715740522006e-10
1.625174115064069597e-10
1.204927259217846695e-10
