# bin_11_3
6.402665146621219952e-31
6.978919761820785894e-31
7.419109334188129104e-31
7.639384326160182818e-31
7.576647674747145928e-31
7.126385608798630422e-31
6.332652650624253059e-31
5.320756023683274564e-31
4.349331317259535341e-31
3.646201116711777484e-31
3.155752896868712845e-31
2.525164450598548563e-31
1.756975825260796292e-31
1.372323507574483371e-31
1.019201754433015148e-31
7.265107258665664298e-32
5.152722747925867569e-32
3.770535653753116630e-32
2.703446577155679257e-32
1.954221093064606220e-32
1.437713357721609760e-32
1.075833580431207227e-32
8.197229577219984196e-33
6.345176969277416160e-33
4.962016641294109076e-33
3.895664971828812322e-33
3.048827976865261921e-33
2.362356418744065606e-33
1.801728798641357035e-33
1.346186568589115399e-33
9.817387721614637339e-34
