# bin_9_14
1.038483603693525946e-07
1.142820014325132680e-07
1.229442572623081554e-07
1.285268883879874789e-07
1.297561728534273603e-07
1.251141060954843617e-07
1.138923681771471437e-07
9.804140438052677948e-08
8.065205396432270476e-08
6.644633050832386492e-08
5.712528126742269827e-08
4.815661705878092939e-08
3.516557203047172035e-08
2.530616280715605598e-08
2.036687960487221722e-08
1.371148106571980303e-08
1.038232717976519353e-08
7.298183319484430342e-09
5.163878783227644380e-09
3.706761903211048875e-09
2.682841883944766761e-09
1.971021930457299148e-09
1.472706620148333556e-09
1.121260253369380215e-09
8.662603063922111236e-10
6.754937880083260390e-10
5.282358425962870969e-10
4.112487195309942660e-10
3.166866865951648069e-10
2.398732340266165141e-10
1.779388642403640537e-10
