# bin_4_5
7.795280438800748962e-08
8.150272843273848326e-08
8.233737250427723117e-08
7.953978945613192570e-08
7.261085381412067174e-08
6.270219675602918077e-08
5.169943243685829205e-08
4.254200232697147832e-08
3.641427783908369192e-08
3.076208826289862131e-08
2.281301956084168355e-08
1.639545615476879671e-08
1.315847130172404536e-08
9.112843514954699227e-09
6.900130211799407076e-09
4.932618167941752732e-09
3.599225686663204508e-09
2.662019077306509583e-09
1.996945762857872154e-09
1.524910757075892892e-09
1.184086506336824822e-09
9.325694568403000204e-10
7.400227123783696368e-10
5.874514565011739327e-10
4.632357434267570307e-10
3.604236455241935938e-10
2.751129397211106908e-10
2.050673946465933626e-10
1.488074462744298733e-10
1.050218776572466897e-10
7.216421909588114010e-11
