# bin_15_5
3.277124524705047937e-36
3.637847259610721423e-36
3.955684945138829733e-36
4.191064166601997415e-36
4.296378121436823855e-36
4.235558751991813032e-36
3.952647335916253109e-36
3.486407468343029290e-36
2.909927919114324963e-36
2.379093876877012415e-36
2.009109375866705538e-36
1.736823305304373463e-36
1.357696520695674391e-36
9.386973855814199475e-37
7.503434874215962484e-37
5.342258186817730613e-37
3.913532892430342076e-37
2.686468732744399906e-37
1.940154015406360592e-37
1.376007434260631554e-37
9.801247274516393821e-38
7.073901963369439042e-38
5.179702693748065034e-38
3.865803766894305474e-38
2.937641767228651330e-38
2.263964637740368657e-38
1.760467101361772023e-38
1.371515508397579808e-38
1.062899632952454694e-38
8.141007528430657805e-39
6.130530978906878600e-39
