# bin_11_19
1.108192898988074762e-07
1.231512090005673326e-07
1.340903482757846070e-07
1.423076564817382650e-07
1.461905503399873493e-07
1.445099024415903602e-07
1.353280882118779406e-07
1.197564377270955444e-07
1.002560496006223149e-07
8.197776110920112985e-08
6.902705735952657051e-08
5.969997081573506224e-08
4.712688594750040075e-08
3.266113882564473147e-08
2.581921496171920638e-08
1.868616518852794368e-08
1.348190959293069001e-08
9.352174023585067462e-09
6.753134690450475356e-09
4.774861706209982674e-09
3.389328632536363044e-09
2.438956128011245997e-09
1.780769103612376489e-09
1.324753300578620095e-09
1.003781924797505788e-09
7.718071371230782617e-10
5.992667103236638471e-10
4.666205489985159479e-10
3.617636265739482240e-10
2.774170347942810454e-10
2.092952839631340935e-10
