# bin_18_7
1.030782936436667818e-36
1.155076169894127169e-36
1.270591271910715036e-36
1.365706986323174626e-36
1.425717381135967362e-36
1.436809436556446256e-36
1.381165241194333466e-36
1.252861790648084020e-36
1.074505973102073551e-36
8.823112332997649086e-37
7.283918165008510769e-37
6.283263966307400162e-37
5.269526162869314404e-37
3.796401919402708471e-37
2.756692976358923084e-37
2.205346583001454533e-37
1.467132451685102194e-37
1.102360819524428011e-37
7.704686011758940992e-38
5.349379726967341448e-38
3.755910863598914637e-38
2.647170711157726681e-38
1.890412538539441652e-38
1.370930668720136052e-38
1.014322756923366332e-38
7.643655837415219866e-39
5.850112185092691388e-39
4.524041699984655549e-39
3.509912455050977122e-39
2.712147042681341894e-39
2.073372466011683063e-39
