# bin_18_16
2.158400464517374869e-10
2.439628628040266522e-10
2.711644704482005569e-10
2.952215262831266609e-10
3.131781253560618282e-10
3.214512111932041298e-10
3.173653593751208515e-10
2.966357076208009685e-10
2.620132537326813723e-10
2.189296408688973076e-10
1.790170670139723336e-10
1.511007152515901429e-10
1.307459485794049426e-10
1.024738445711174110e-10
7.068338948804529205e-11
5.632443015150103457e-11
4.005903583883102543e-11
2.905646661403184292e-11
1.967619984099375970e-11
1.402367179068734579e-11
9.722154225120870297e-12
6.725363743388754587e-12
4.689347941863742074e-12
3.299331494108212111e-12
2.360614567233817506e-12
1.722189276605501974e-12
1.281106092265268909e-12
9.704238589381405187e-13
7.447113042772288774e-13
5.751037089927354878e-13
4.435599030045287217e-13
