# bin_11_18
1.015383452207549574e-07
1.128337233869083887e-07
1.228513602254156389e-07
1.303732656538029016e-07
1.339221319932172534e-07
1.323717090381733321e-07
1.239483327956660164e-07
1.096754936355651462e-07
9.180889267340346552e-08
7.507071674164891942e-08
6.321653102613073707e-08
5.467317877007247312e-08
4.314661056170951243e-08
2.990144543475082756e-08
2.364430562190066349e-08
1.710445542272613724e-08
1.234560344973182671e-08
8.562009610568275157e-09
6.182423072577929125e-09
4.371712986321417671e-09
3.103455425378817435e-09
2.233428695977178947e-09
1.630842816999862938e-09
1.213333358905649007e-09
9.194341877141810378e-10
7.069988349661019520e-10
5.489693786914831404e-10
4.274620555381656648e-10
3.314001268881971728e-10
2.541234454013533472e-10
1.917108530681806181e-10
