# bin_4_17
3.981663806905300267e-07
4.178288342677089804e-07
4.239031078748384698e-07
4.119979226710352398e-07
3.786493330637804510e-07
3.291626156427973958e-07
2.724428916762437103e-07
2.236727349041137648e-07
1.905964167561687535e-07
1.621984900981749418e-07
1.224303256635573055e-07
8.702766845076198010e-08
6.980737363917680672e-08
4.891195240123216118e-08
3.677626955465229566e-08
2.619353522296221971e-08
1.915319414155534062e-08
1.412054663814616410e-08
1.055053026623541431e-08
8.024267205837402394e-09
6.207344940464680159e-09
4.874174196688889921e-09
3.860875170416910817e-09
3.063288988931215983e-09
2.417387821270231237e-09
1.884536333731108764e-09
1.442774967825097722e-09
1.079549356954010691e-09
7.868149659181378952e-10
5.577983244430366088e-10
3.849098016122365932e-10
