# bin_4_15
3.739703866661385035e-07
3.924129457270559651e-07
3.980883527824585342e-07
3.868675601705022918e-07
3.555116491404603879e-07
3.090134672067623991e-07
2.557484658254971222e-07
2.099745408352769222e-07
1.789379426446317100e-07
1.522587706144401086e-07
1.148929606494257150e-07
8.168393616895408677e-08
6.552286346288267709e-08
4.590000859383931778e-08
3.451636024662622082e-08
2.458508194554333972e-08
1.797644947911712496e-08
1.325375332713907943e-08
9.903567443738513219e-09
7.532738785029698317e-09
5.827492042710113031e-09
4.576143078295881740e-09
3.624917061005225101e-09
2.876103341275994352e-09
2.269642644598496175e-09
1.769299368581915231e-09
1.354482213475165439e-09
1.013418601287740271e-09
7.385611290535790788e-10
5.235493968645293209e-10
3.612500452857430931e-10
