# bin_10_9
1.687651250866149344e-09
1.859649596080488586e-09
2.003851894939753258e-09
2.099138413433162676e-09
2.124100229787259617e-09
2.054991778628655956e-09
1.876938658341329743e-09
1.621224280155027865e-09
1.335351624181913872e-09
1.097973165105589419e-09
9.423363958218484444e-10
7.990417213736931292e-10
5.882925284966328846e-10
4.188407241749308142e-10
3.398616959207905285e-10
2.278872144097259077e-10
1.736529789142846854e-10
1.213178383899844392e-10
8.571699741045884026e-11
6.152740177866650710e-11
4.446712249012164664e-11
3.258919649621884000e-11
2.428262310237111116e-11
1.844287811667937689e-11
1.422176410141460741e-11
1.107691750564268504e-11
8.659359659099205822e-12
6.744878173969437152e-12
5.200180683508458690e-12
3.945837204631154913e-12
2.933626590316581026e-12
