# bin_13_9
2.371619830657000774e-14
2.637765173898783177e-14
2.875031229838379553e-14
3.055088814745506458e-14
3.143157710018535862e-14
3.113288409821094274e-14
2.922516193016901565e-14
2.592278550151854319e-14
2.174259376034067498e-14
1.777992679526745142e-14
1.494790067379671778e-14
1.294184890850855241e-14
1.027937240154026116e-14
7.119340582659594970e-15
5.605192928429307865e-15
4.093431148034843875e-15
2.931372768715970747e-15
2.036079949596507659e-15
1.475499055667009295e-15
1.041368986897107318e-15
7.374252408381245815e-16
5.298813297089726469e-16
3.862757151009556279e-16
2.868504430308502261e-16
2.170114462700739571e-16
1.666614025501699998e-16
1.293168613545146747e-16
1.006839404956310606e-16
7.809388545776585728e-17
5.994035929740545042e-17
4.527875566571613893e-17
