# bin_15_9
1.702292923395859257e-18
1.901220934592538760e-18
2.082840153181269348e-18
2.227417465061875628e-18
2.310162055852415884e-18
2.310851669742302065e-18
2.197695029469889370e-18
1.973246402904143680e-18
1.674472615902266230e-18
1.371192539725624129e-18
1.140819443971645360e-18
9.878891487543229350e-19
8.106467031323322974e-19
5.702172621961785479e-19
4.300947659511946642e-19
3.316414465010556782e-19
2.263583361489636554e-19
1.643882730955677736e-19
1.175108213964236550e-19
8.213651097288447103e-20
5.770549001785879249e-20
4.100115076712107463e-20
2.956623042392199123e-20
2.168671421804619589e-20
1.622195050342891519e-20
1.234225679009312374e-20
9.515625547017966972e-21
7.388749667113557223e-21
5.736320892721105140e-21
4.421348390140490886e-21
3.362633930818622093e-21
