# bin_19_16
3.240477269064187451e-12
3.669735446349791979e-12
4.088462950926851247e-12
4.463960351550697172e-12
4.752377593901474234e-12
4.899358466190507256e-12
4.864581932235183380e-12
4.579367129663052242e-12
4.072298212272333181e-12
3.423059164984823578e-12
2.799912340853428238e-12
2.350371724187595140e-12
2.036842233699297453e-12
1.627821493078841563e-12
1.126252271311669577e-12
8.801478784433682345e-13
6.464476808245309999e-13
4.555078778671580810e-13
3.139921650979990575e-13
2.246962260502737164e-13
1.549106604523979215e-13
1.063619363202493865e-13
7.373146778768562823e-14
5.155052347765290442e-14
3.658204715271901995e-14
2.646151089408023726e-14
1.952234912137615361e-14
1.468516448465302482e-14
1.121537899071829475e-14
8.642085720752628483e-15
6.668488769905154306e-15
