# bin_11_9
1.453230274783720235e-11
1.608788602005501065e-11
1.743475036822538232e-11
1.839493824563078654e-11
1.876480250199915176e-11
1.837151634368649386e-11
1.700299194414971619e-11
1.488146898943064422e-11
1.235059961855393748e-11
1.011340975714473869e-11
8.601524803922903480e-12
7.399505744032352941e-12
5.647537523857583371e-12
3.926634025174796937e-12
3.185785756156563804e-12
2.191943649707299368e-12
1.650493385986279376e-12
1.132056480444211289e-12
8.076428702129671813e-13
5.771048435603234101e-13
4.146114196730595985e-13
3.011463875779316510e-13
2.220483048558844466e-13
1.669543468747772212e-13
1.276822112805384554e-13
9.887775934089501647e-14
7.709864111255779730e-14
6.009256349792420577e-14
4.649484757355269722e-14
3.549016758643101521e-14
2.659610046126083316e-14
