# bin_8_7
1.022303750559192144e-10
1.115171135039406731e-10
1.186641342839437838e-10
1.223340405190731648e-10
1.215078935458262110e-10
1.145071838277689929e-10
1.019486587000637304e-10
8.581783432205816783e-11
7.018612956376557997e-11
5.877154062657183155e-11
5.086949370457347806e-11
4.088383478676708347e-11
2.851320022952521619e-11
2.214952175071290944e-11
1.656654901346570445e-11
1.173908419628027632e-11
8.372353947511389386e-12
6.116880069051670025e-12
4.380560886949280045e-12
3.163621351287497915e-12
2.324588691464574433e-12
1.737584407721876491e-12
1.322455411613779148e-12
1.022750647163798851e-12
7.993334363271836579e-13
6.274046150250960164e-13
4.910855883494579012e-13
3.806902842775484193e-13
2.905649469836421298e-13
2.173151727837603581e-13
1.586695713627033022e-13
