# bin_20_17
3.690211263698895109e-12
4.186556042033865007e-12
4.674702963779120471e-12
5.118057277470011136e-12
5.467412753884374722e-12
5.661040044562099212e-12
5.650708048004085426e-12
5.356720720099991506e-12
4.794838912764801974e-12
4.055629564115440425e-12
3.319692583936712154e-12
2.770892579296821592e-12
2.401669680703756482e-12
1.954165587214209724e-12
1.363465949352368199e-12
1.040655715170268344e-12
7.880782652931443863e-13
5.404340234471745403e-13
3.827366969019166454e-13
2.719237454913106674e-13
1.865660567244144376e-13
1.275373396202956030e-13
8.782651085550049201e-14
6.099538262757574708e-14
4.290912755951231633e-14
3.075140188670318616e-14
2.247726314889770390e-14
1.676845376973753638e-14
1.272743728148792783e-14
9.773441364693609838e-15
7.537547783307551766e-15
