# bin_8_5
2.774045586695790872e-13
3.003722081018547088e-13
3.166888631928073195e-13
3.228916128041473766e-13
3.159640454863856042e-13
2.923673402105464904e-13
2.558453127822375546e-13
2.123879732195390275e-13
1.739187404623336099e-13
1.477841838584242883e-13
1.269795598794731443e-13
9.712837014331396539e-14
6.782124331850590236e-14
5.487533963682308838e-14
3.822528883000749986e-14
2.876394608371329276e-14
2.004314694499069110e-14
1.452473245798430341e-14
1.054750865978830477e-14
7.730692349573452426e-15
5.752789503169996760e-15
4.352930109080724899e-15
3.353023664540753119e-15
2.617257049271256599e-15
2.057471325748356093e-15
1.618071450475036080e-15
1.263974511850128185e-15
9.745053943087945267e-16
7.375256180342283154e-16
5.455654610165907872e-16
3.932652319672094081e-16
