# bin_11_8
6.826484572008527391e-13
7.539805561579746445e-13
8.147875180354014619e-13
8.566170191882903463e-13
8.703408992944535296e-13
8.470803919819373738e-13
7.787542011764925530e-13
6.771166083492276892e-13
5.597237761160115647e-13
4.591954163322988787e-13
3.924981777684753131e-13
3.354924234806751553e-13
2.513360948797576000e-13
1.764954400895469898e-13
1.437419126265528729e-13
9.713740665197470961e-14
7.393291366863593435e-14
5.112669320733606674e-14
3.621532620517331020e-14
2.596433533000581334e-14
1.872338515853307608e-14
1.366267463422947297e-14
1.012855899087617128e-14
7.656171076900263099e-15
5.881232594943772207e-15
4.568862648979118704e-15
3.567953500524460059e-15
2.780494468309732912e-15
2.147709464127610995e-15
1.634544870241160737e-15
1.220032833517148879e-15
