# bin_8_3
5.390956565401235671e-19
5.786469759066175700e-19
6.034001097013993090e-19
6.075921773447723810e-19
5.837456805988853925e-19
5.295089963754074439e-19
4.542214464687075334e-19
3.731308006118316278e-19
3.079360295313180750e-19
2.651708418149318780e-19
2.223425121041918539e-19
1.611817816842833055e-19
1.173894454388968425e-19
9.412334201987232058e-20
6.388226877377324064e-20
4.850135318659500700e-20
3.467702859411608603e-20
2.490752297983807500e-20
1.820676254614095988e-20
1.347826187558227610e-20
1.015710492356371799e-20
7.788003675463466519e-21
6.067233011562390773e-21
4.773416014671650067e-21
3.767417081894853962e-21
2.962187089930224374e-21
2.304231392232591524e-21
1.762925515218708421e-21
1.320076234797691317e-21
9.638007253835537539e-22
6.848083726568458547e-22
