# bin_13_12
7.366714286808205136e-11
8.235329691528665185e-11
9.032448501356514379e-11
9.673324063877082272e-11
1.005128128642175131e-10
1.007583878741170400e-10
9.611307004688813175e-11
8.654238834340576444e-11
7.365466678777882468e-11
6.035460462482015443e-11
5.010278476839722728e-11
4.335752005804837128e-11
3.580861883742711267e-11
2.533619084311858088e-11
1.891255529162770522e-11
1.474510421048801872e-11
9.979105706708633301e-12
7.324902942122494177e-12
5.204217264078358198e-12
3.630533623329382690e-12
2.549508788743288625e-12
1.806996818775763824e-12
1.299593738113035402e-12
9.503806895687595557e-13
7.088676135942159841e-13
5.380064174099388312e-13
4.140382304292477174e-13
3.211921226855429738e-13
2.493498931935609758e-13
1.923416161692446957e-13
1.464992632496845683e-13
