# bin_19_11
6.370839086735332294e-08
5.936619336439968412e-08
5.388706079199348484e-08
4.758490162173318526e-08
4.088142426510652590e-08
3.424504927770679834e-08
2.809726394596574817e-08
2.269784712176437763e-08
1.810415425794494229e-08
1.421688639796976728e-08
1.092415685073589655e-08
8.223047077002811007e-09
6.155150233867649816e-09
4.625443731575506484e-09
3.460771140364585174e-09
2.600683793959448777e-09
1.970252746195204456e-09
1.504262100914097837e-09
1.157184673462956944e-09
8.953263097137121191e-10
6.943631599867080174e-10
5.376878536128349562e-10
4.140819069595798990e-10
3.159397326913918552e-10
2.380340925186583881e-10
1.766155291681827537e-10
1.287918012810748876e-10
9.217787311761374028e-11
6.470629493665735434e-11
4.454955037306590991e-11
3.010127412023652150e-11
