# bin_10_7
4.362441947124956479e-08
3.936808738504089881e-08
3.457161984333705907e-08
2.955414648416340204e-08
2.465653650426681583e-08
2.016899408412635764e-08
1.625537224671537764e-08
1.293524809888764493e-08
1.012976870043666809e-08
7.767521751471604989e-09
5.852594733772552945e-09
4.399101630650990171e-09
3.320761163684798270e-09
2.501240430987084542e-09
1.897612408977511921e-09
1.452122514645790179e-09
1.120961676759123588e-09
8.716135798034209159e-10
6.808763700694118177e-10
5.322479538542920758e-10
4.145839922649640015e-10
3.204528529617811293e-10
2.448616640205546102e-10
1.843708300012655410e-10
1.364554757495791206e-10
9.909054099581145398e-11
7.052632968632882279e-11
4.918215592908101975e-11
3.361825358561036214e-11
2.254915322974554218e-11
1.486586955522426402e-11
