# bin_13_5
3.906607823947708455e-08
3.483524361736641094e-08
3.021241055104127198e-08
2.551842564846678579e-08
2.107270848874682076e-08
1.710728755603434917e-08
1.371336345167506985e-08
1.084710173206916413e-08
8.413526311972979102e-09
6.381819791892302507e-09
4.792667092340555745e-09
3.619372038746258550e-09
2.731448584803631372e-09
2.064957880986035622e-09
1.578758239386864006e-09
1.216532023496301411e-09
9.460406734733552346e-10
7.404246852403710320e-10
5.810676669215025959e-10
4.552785148656884150e-10
3.545792669579775207e-10
2.733648688507751308e-10
2.078694852859611023e-10
1.554500573424593046e-10
1.140744904858929040e-10
8.202678714133998936e-11
5.775822675992545174e-11
3.983200451588093404e-11
2.692872419820534562e-11
1.787586710002301503e-11
1.167576283332605869e-11
