# bin_14_2
2.416568680437649571e-08
2.067316145646492131e-08
1.725076491571421108e-08
1.411494053798335309e-08
1.138848571183525896e-08
9.080842751632023101e-09
7.122662106903752105e-09
5.460823003511420467e-09
4.116589373142404589e-09
3.109288467853099178e-09
2.359406144418006800e-09
1.787750167045249523e-09
1.369961915387996969e-09
1.059424909951404588e-09
8.279523528261105851e-10
6.520608535847960293e-10
5.157135671711822550e-10
4.077344712566882575e-10
3.207139716705055943e-10
2.498505961230337362e-10
1.920149648641613381e-10
1.450993385265527153e-10
1.075455964138882304e-10
7.805347377649695536e-11
5.542712057245813106e-11
3.851584932202803752e-11
2.621659282417295619e-11
1.750952602855239473e-11
1.149961525087406971e-11
7.444502879452342943e-12
4.761627040974556092e-12
