# bin_16_6
4.500249322526506709e-08
4.060640676610826997e-08
3.563499364408634345e-08
3.042648840402929681e-08
2.534794436464178939e-08
2.071087082995634702e-08
1.668497152868630537e-08
1.327834568866613258e-08
1.039075540746621822e-08
7.946545477057160371e-09
5.972191374083831975e-09
4.492175944315810503e-09
3.391108607203390960e-09
2.550417386884839182e-09
1.937856451142295761e-09
1.483099294801300504e-09
1.146349796485367288e-09
8.925567647910553454e-10
6.981625312843505120e-10
5.464443216241687593e-10
4.260903724264351873e-10
3.296006342604523646e-10
2.519545116170388606e-10
1.897144644687677526e-10
1.403538281745705213e-10
1.018367210193640732e-10
7.239117481105550269e-11
5.040232191350291039e-11
3.438862609439069644e-11
2.302041930630539240e-11
1.514698302783601445e-11
