# bin_10_10
5.077134494058496583e-08
4.644387386922088073e-08
4.136091158936531659e-08
3.584491876402752480e-08
3.027181403186142385e-08
2.500292279334713605e-08
2.029759143438468670e-08
1.625672626647726989e-08
1.283990618253085474e-08
9.952662050531270470e-09
7.555689610552839661e-09
5.671139022176356962e-09
4.265810489766256220e-09
3.210741750039201080e-09
2.416528433013318019e-09
1.836108324667372958e-09
1.404981623420478916e-09
1.084378272953987574e-09
8.420049204572078344e-10
6.557690049659439548e-10
5.102615694772374844e-10
3.950467427356606663e-10
3.031225674332288386e-10
2.297110832157527816e-10
1.714356646452354991e-10
1.257273096868226473e-10
9.047297657847248696e-11
6.383078478545668002e-11
4.414935650353571649e-11
2.995429482216580533e-11
1.995951248143809075e-11
