# bin_11_3
2.862107985310831492e-08
2.485581333941408688e-08
2.101943046454137216e-08
1.737494365331837182e-08
1.411739708687179580e-08
1.132699022026593457e-08
8.970574734840590789e-09
6.968885671947844759e-09
5.294884792977481548e-09
3.983383735782478265e-09
3.014822251578410360e-09
2.282389589974869889e-09
1.732220548171381609e-09
1.330285778039854487e-09
1.030412137947195367e-09
8.057369395273666455e-10
6.340990754529720930e-10
5.002408678249115906e-10
3.938065122418621935e-10
3.079471302613261476e-10
2.381902230972959431e-10
1.815662183769824725e-10
1.360001986951795893e-10
9.988431369744889809e-11
7.183176410474002240e-11
5.055681497964253682e-11
3.483758331787573832e-11
2.353041684711928699e-11
1.560703186331909970e-11
1.018794113416681287e-11
6.560812179980957556e-12
