# bin_16_2
2.456151442489648462e-08
2.102441540347578342e-08
1.755198245054658686e-08
1.436635341943984245e-08
1.159490711078525639e-08
9.248897180123772308e-09
7.257547738399638252e-09
5.565701976727338129e-09
4.195380610094186166e-09
3.168264533990894676e-09
2.403896591610907618e-09
1.820885554206709861e-09
1.394897977541065741e-09
1.078358886763513376e-09
8.425339176008455309e-10
6.634410590493420047e-10
5.246994332256009336e-10
4.148814928634686397e-10
3.264079869749848385e-10
2.543681436990270102e-10
1.955642178821391831e-10
1.478472803811294050e-10
1.096339639689492951e-10
7.960679632436649105e-11
5.655582137742876911e-11
3.931657788000195072e-11
2.677150130113311053e-11
1.788576675118678746e-11
1.174977552020823024e-11
7.608043504579184593e-12
4.867030998517162717e-12
