# bin_7_7
3.857997634441014530e-08
3.448620595238749194e-08
3.000292785326935367e-08
2.543083299603609517e-08
2.106861399999403534e-08
1.714343492377924037e-08
1.375803358906002914e-08
1.089489265105834349e-08
8.477738034334393572e-09
6.463052050889080773e-09
4.863760849537765297e-09
3.665242694669346712e-09
2.769574872221118872e-09
2.092513976022531174e-09
1.596125867559702375e-09
1.227265259518815411e-09
9.520791151188958098e-10
7.432485379090797337e-10
5.820359274657433412e-10
4.553275449066058716e-10
3.543125807003068283e-10
2.731356270138338095e-10
2.078429509590952793e-10
1.556614374900279772e-10
1.144843629447811382e-10
8.256057140174863141e-11
5.833523493861473093e-11
4.038472454903935473e-11
2.741197644509641280e-11
1.826819268401538966e-11
1.197533294151626208e-11
