# bin_15_15
6.759475316499265589e-08
6.338496397223160961e-08
5.793483039682614886e-08
5.153913447418966268e-08
4.461193079328353214e-08
3.763120497647900391e-08
3.105067492343619911e-08
2.518768194581153522e-08
2.015727996802483019e-08
1.589964204758403967e-08
1.229711775307655222e-08
9.309404414597500169e-09
6.968204104132022399e-09
5.224058750365941255e-09
3.911893178661060860e-09
2.926953909407104601e-09
2.208851195557187544e-09
1.677251870983634618e-09
1.284092311654823630e-09
9.890827354489271972e-10
7.644366158818828061e-10
5.907124979653438230e-10
4.546243374589189175e-10
3.471667339382226267e-10
2.621472288610228429e-10
1.951879888115970487e-10
1.429923546894276828e-10
1.029091102847361817e-10
7.269236497043808832e-11
5.038605532278389590e-11
3.428255205546942316e-11
