# bin_6_2
2.085244293195556295e-08
1.773300944133898346e-08
1.472943466321813227e-08
1.201049516294973205e-08
9.660638219984824316e-09
7.674143336720301789e-09
5.993600221150411581e-09
4.582931385428158901e-09
3.457065849570271664e-09
2.615628507900038827e-09
1.986998411413581371e-09
1.510390414785243110e-09
1.161234885004600858e-09
9.009384808853797423e-10
7.058978250130729091e-10
5.568032680177081584e-10
4.404977196140513359e-10
3.479105734929809091e-10
2.730523671743124744e-10
2.120365325625399826e-10
1.623059486963494552e-10
1.220976564843303410e-10
9.006485913242237877e-11
6.505132373603668808e-11
4.597926993064166600e-11
3.181329903749492343e-11
2.157169019192369229e-11
1.436017216076432933e-11
9.405626594532310540e-12
6.075570802783834132e-12
3.879332966338863923e-12
