# bin_17_11
6.208635153507240050e-08
5.774437854801496987e-08
5.231319247948515001e-08
4.610797995563263781e-08
3.954496222304063183e-08
3.307939848058016586e-08
2.711258942030606060e-08
2.188422313029965489e-08
1.743902928951207040e-08
1.367785255046394271e-08
1.049782774699567798e-08
7.899616959430339495e-09
5.915700972756382659e-09
4.446227648645157913e-09
3.328373444227916334e-09
2.503827137454542852e-09
1.898652602365522163e-09
1.451128858941232412e-09
1.117333985104212531e-09
8.650637974296611305e-10
6.711253844719023110e-10
5.196952545848068570e-10
4.000917631590661352e-10
3.050695385135848532e-10
2.296377110704521602e-10
1.701976097223622245e-10
1.239564020404491400e-10
8.859815067035213279e-11
6.210804998824739655e-11
4.270302672453951261e-11
2.881687907297705808e-11
