# bin_8_8
1.923205519685432228e-10
2.104730599077650515e-10
2.248715151641077708e-10
2.330239619328342135e-10
2.328966587692615438e-10
2.213257424714862904e-10
1.985844703482891624e-10
1.684287603337021221e-10
1.378624123221384577e-10
1.146413216463552449e-10
9.918040059159202461e-11
8.134961704647211909e-11
5.738452925318367804e-11
4.332200309667104551e-11
3.350686619200352507e-11
2.306682593090776578e-11
1.691213807132849460e-11
1.221910043299233474e-11
8.696471056850627237e-12
6.254229631871012800e-12
4.564942544652364574e-12
3.390902714611629305e-12
2.564234303529534769e-12
1.972714821225471004e-12
1.536109502568454689e-12
1.203497647135206288e-12
9.421656636399666962e-13
7.318051025517904819e-13
5.605402348706027463e-13
4.212751606138206334e-13
3.094199272937843245e-13
