# bin_18_11
7.562841639926455471e-20
8.511108191600387776e-20
9.410920387747038994e-20
1.018039387270675416e-19
1.071377553931557717e-19
1.089500360278926892e-19
1.061589244045846380e-19
9.768533378476132905e-20
8.500485217523011788e-20
7.027739498090678505e-20
5.762758005574589309e-20
4.925530933887758050e-20
4.217500287316602507e-20
3.161500550494810212e-20
2.208405151932001660e-20
1.800555084455072235e-20
1.204547043208484566e-20
9.136278997816489409e-21
6.218181305412437385e-21
4.319715897136304616e-21
3.031718442568801052e-21
2.127785932071579299e-21
1.501907400263182120e-21
1.072845195651722658e-21
7.815119163512693825e-22
5.804368932160209425e-22
4.388834143746017527e-22
3.366711381277937140e-22
2.603220565783584484e-22
2.014233647873256527e-22
1.548252923707605381e-22
