# bin_17_9
8.671095388034591063e-24
9.720423660285687475e-24
1.069758294887723596e-23
1.150513090554643646e-23
1.201959671836007090e-23
1.212329954430475585e-23
1.166818972911800337e-23
1.059747341315544432e-23
9.100505615964824464e-24
7.476355496369603698e-24
6.167499211288337824e-24
5.316646297290374219e-24
4.468733688851764546e-24
3.230043002434568297e-24
2.335519383921510988e-24
1.874742743116465367e-24
1.245107840827552751e-24
9.381007945173045148e-25
6.540698354017234750e-25
4.538458601928874368e-25
3.186735935638748296e-25
2.244572745085856322e-25
1.601168016234506698e-25
1.159609341472669601e-25
8.568343138754979090e-26
6.449135697871449836e-26
4.931158991173596033e-26
3.811166402919354054e-26
2.956318772441706602e-26
2.284878138799515554e-26
1.747697484925360532e-26
