# bin_12_11
7.891246047376562827e-11
8.789398029740700207e-11
9.596915152544281925e-11
1.022046151571640594e-10
1.054408851154829311e-10
1.048052187051656852e-10
9.882716530671263344e-11
8.801952464366269024e-11
7.409875609894461828e-11
6.058653904867177887e-11
5.072888621425652144e-11
4.394605405293102004e-11
3.534535701477372467e-11
2.455667736647585454e-11
1.904994550258997909e-11
1.420288730685833009e-11
9.976705096152495603e-12
7.028687270078401830e-12
5.084929004704073202e-12
3.574956337572682692e-12
2.521023732531062479e-12
1.804157019885213458e-12
1.310049820064450732e-12
9.685323765573323654e-13
7.297979875533588341e-13
5.586629494263618078e-13
4.325598609930764974e-13
3.365164553512267519e-13
2.611400686404756377e-13
2.007599530236824091e-13
1.520353144097686343e-13
