# bin_8_6
1.250057408416779767e-11
1.358668819011880687e-11
1.439225438539955527e-11
1.475503160270692321e-11
1.455068523281429421e-11
1.358836701902832637e-11
1.199440091883355795e-11
1.001961287762062612e-11
8.190844380923681053e-12
6.906848297647232601e-12
5.967330426117265767e-12
4.683870428449374816e-12
3.251021236183625180e-12
2.588799901457725670e-12
1.866169552237239271e-12
1.366139596344988811e-12
9.545368764494976108e-13
6.977906600689455401e-13
5.032060705472622154e-13
3.659932307279889395e-13
2.706566335857315182e-13
2.035141537865742299e-13
1.558260788233598148e-13
1.210821296476044314e-13
9.492390151735621059e-14
7.459591939245957677e-14
5.834401740635030175e-14
4.511660309815916206e-14
3.429892538656891164e-14
2.551847772354650493e-14
1.851710051470165772e-14
