# bin_6_1
1.940040779693434607e-20
2.025630474735158499e-20
2.043170604716816065e-20
1.968910353159752260e-20
1.791902638921097638e-20
1.542581683024973870e-20
1.268993886673613097e-20
1.044805999351919598e-20
8.968987843423399368e-21
7.561615943895132619e-21
5.549737264337952896e-21
4.005274356430872179e-21
3.229184167046045468e-21
2.210090575598452790e-21
1.687186572392840311e-21
1.208775711110284551e-21
8.791995333228311828e-22
6.512635393230511298e-22
4.893192685427788776e-22
3.743167806123185567e-22
2.911636201783661485e-22
2.296504411171047154e-22
1.824047907851055328e-22
1.448526003807846475e-22
1.142020373821182822e-22
8.878949937153838550e-23
6.768913796816727578e-23
5.036960378454805526e-23
3.647570274919461550e-23
2.568645423053068906e-23
1.761215609285689235e-23
