# bin_17_14
2.471651152704460684e-12
2.786842649360440129e-12
3.088451057606822416e-12
3.350286411066281735e-12
3.538081878281429203e-12
3.612176103667602345e-12
3.540024370741814961e-12
3.279250057597307196e-12
2.872227016513805128e-12
2.384344215700003457e-12
1.951901390112072581e-12
1.659823726200698319e-12
1.429668082443558019e-12
1.092041544118194875e-12
7.563490526902123443e-13
6.131802930067393308e-13
4.191682934485472884e-13
3.138382086110171474e-13
2.117476210078804547e-13
1.485628883279263583e-13
1.038529941400650410e-13
7.258261009660960074e-14
5.096827095095019245e-14
3.616624221523444408e-14
2.614762984081793050e-14
1.927791993951410260e-14
1.448147735186926200e-14
1.105515038307763483e-14
8.525326975985071696e-15
6.594235426138650189e-15
5.077923408060413161e-15
