# bin_4_1
5.618144566298782826e-14
5.731373947135787065e-14
5.616322076069399387e-14
5.210687218804154374e-14
4.572288863338810591e-14
3.806588636032672531e-14
3.116428080050113087e-14
2.636410996627173368e-14
2.263079377988850199e-14
1.753747018915402531e-14
1.233988620810075675e-14
9.842300577631326510e-15
7.080126847454810408e-15
5.261098386137329690e-15
3.770626322898596199e-15
2.790957970860494471e-15
2.070901697486160102e-15
1.559507485645555281e-15
1.196919129449514017e-15
9.344932327554898951e-16
7.398934228711920437e-16
5.902210890611557862e-16
4.708550027199556562e-16
3.729541618699734433e-16
2.913316686626694376e-16
2.231174124789013601e-16
1.667485827471252544e-16
1.212664939350515942e-16
8.573985897856326661e-17
5.902258787978563018e-17
3.966886751512299331e-17
