# bin_16_13
2.095229333515693709e-12
2.356422816217599057e-12
2.603540726151512199e-12
2.813742039719898359e-12
2.957640658510516676e-12
3.003684658948753936e-12
2.920898541363514838e-12
2.681842349499691797e-12
2.328583886506472056e-12
1.922837836425374727e-12
1.577944630670621057e-12
1.350806908930731622e-12
1.153693935375245996e-12
8.595048751768067358e-13
6.029431216225709105e-13
4.915380168855086572e-13
3.274016060570002108e-13
2.487252805947619274e-13
1.699372475186491891e-13
1.178731750840707083e-13
8.276732757150824870e-14
5.812557178967143434e-14
4.109947990598919473e-14
2.942552272770533975e-14
2.148794952767935750e-14
1.599707911383972225e-14
1.212059058741468892e-14
9.311296226087124035e-15
7.204896586935335939e-15
5.574557206264722428e-15
4.281843090910902037e-15
