# bin_18_5
2.992066285245796257e-49
3.347616610105972312e-49
3.675360325362086376e-49
3.941125015763561986e-49
4.101850414157868305e-49
4.119534290637956249e-49
3.940267541043709494e-49
3.556669859544371746e-49
3.034807150679687608e-49
2.487764726764221786e-49
2.060415782835199557e-49
1.781359355152709013e-49
1.479875409817986386e-49
1.053235557160605299e-49
7.781403365078768039e-50
6.129136682132694492e-50
4.116345818138058267e-50
3.050840376140463425e-50
2.154121863330981920e-50
1.499802422465829148e-50
1.052944143117197744e-50
7.445158905961117894e-51
5.340348730597990354e-51
3.893407487399625496e-51
2.895534507110787130e-51
2.192024129166261527e-51
1.683687923308116595e-51
1.304749011340030515e-51
1.012755120144435958e-51
7.817496075004609133e-52
5.962513693310938929e-52
