# bin_6_2
2.080879636625600115e-16
2.188471718944912371e-16
2.225599382016561019e-16
2.170712471183622999e-16
2.001502728661087274e-16
1.745591758245276696e-16
1.445896528523596004e-16
1.184399137438514934e-16
1.007924540959347812e-16
8.633190625484690100e-17
6.559477939969160440e-17
4.609012712275935873e-17
3.734180671867729680e-17
2.599639713509072107e-17
1.971077558964045900e-17
1.391631610066441884e-17
1.016891396934822941e-17
7.499574911930831697e-18
5.600266084717420248e-18
4.252554544798683453e-18
3.284309138364122542e-18
2.576166441741557106e-18
2.039596798122611749e-18
1.618438649320280119e-18
1.278087612497302525e-18
9.975838619905935642e-19
7.649924308956320487e-19
5.734915632943988672e-19
4.188113320055092714e-19
2.974507266944829184e-19
2.055723004578141512e-19
