# bin_12_2
9.598650444973510775e-43
1.049363104972929752e-42
1.119684338649549800e-42
1.158329697479984238e-42
1.155416916482597443e-42
1.095018254093052150e-42
9.799665311944923883e-43
8.289779571580373901e-43
6.781648727295206390e-43
5.651017177388054610e-43
4.891280967466333527e-43
3.987654677838857847e-43
2.799237114777178110e-43
2.133290933347206604e-43
1.633382236709468037e-43
1.133571297152663726e-43
8.235542895434020153e-44
5.979071832371656103e-44
4.263079443023173008e-44
3.068215621206635886e-44
2.244115213271924243e-44
1.670311928816598391e-44
1.265732132788373069e-44
9.754297806551614459e-45
7.604821769946971966e-45
5.962027499218145871e-45
4.667438788975346297e-45
3.623224995383463558e-45
2.772247550742180539e-45
2.080323939681550554e-45
1.525099426530031222e-45
