# bin_18_10
5.211145434541779725e-23
5.858298031697229977e-23
6.469377883776037552e-23
6.987324317067239034e-23
7.338905883916400451e-23
7.446645905299945405e-23
7.231837140493386060e-23
6.630325561027899299e-23
5.748573175013684527e-23
4.743200826222126712e-23
3.894497362785281041e-23
3.337316876248426943e-23
2.845380314872647338e-23
2.111132646980874242e-23
1.485362280545989103e-23
1.210580564009530384e-23
8.042228532076232868e-24
6.114582399306641210e-24
4.188617350849821653e-24
2.902835531290915046e-24
2.038777843500862797e-24
1.432270753915633657e-24
1.013875921102250798e-24
7.269774485043049126e-25
5.317220288409070117e-25
3.964507152911412637e-25
3.007727541114960358e-25
2.312708666125684142e-25
1.790313447956148093e-25
1.385130264440676802e-25
1.063409728142640609e-25
