# bin_17_11
1.271962507599927544e-17
1.429227306148389436e-17
1.577384199826271518e-17
1.702438134219089568e-17
1.786473688997340859e-17
1.810869682131619768e-17
1.755937309204096091e-17
1.607237055040613246e-17
1.391178376137695817e-17
1.146916469071858099e-17
9.423527970612884569e-18
8.084348970058904674e-18
6.877616433610974543e-18
5.079247679860411789e-18
3.587917832499458068e-18
2.920534045362521471e-18
1.936755508038038230e-18
1.472376598808013553e-18
1.011690524522898524e-18
7.008666147008305684e-19
4.922842712629648862e-19
3.459439200621764861e-19
2.452083460447970696e-19
1.761266755088139479e-19
1.290563279921769325e-19
9.638952142511403445e-20
7.323397656111707259e-20
5.636753531014784474e-20
4.365505873411009784e-20
3.377170413617103917e-20
2.591237445164848036e-20
