# bin_18_9
8.670853334449969467e-27
9.737500081864073730e-27
1.073968495798136416e-26
1.158149414517409667e-26
1.214048401678952766e-26
1.229196965724070457e-26
1.189808376725574394e-26
1.087009727065631571e-26
9.390972047714318578e-27
7.734991606507244505e-27
6.360790131435707441e-27
5.463663199996663980e-27
4.635898806108965831e-27
3.405637281434131296e-27
2.417611837091991298e-27
1.963859904140720208e-27
1.300718347159693365e-27
9.880709698418193047e-28
6.812945010392208048e-28
4.719236110660161990e-28
3.314770204975896349e-28
2.330251721621691725e-28
1.654189533706543933e-28
1.190516615097883032e-28
8.741392182046927714e-29
6.541325537814339378e-29
4.977947269978379154e-29
3.835650492547561979e-29
2.971999889010040250e-29
2.298800711157632843e-29
1.762595936583997771e-29
