# bin_11_7
8.269356443624187712e-15
9.110104688864889315e-15
9.813817098045149347e-15
1.027690910229183119e-14
1.039507811673417860e-14
1.005082212506311667e-14
9.173816775286770099e-15
7.918581008107902127e-15
6.519817547366090422e-15
5.362142064594092825e-15
4.604385609252173137e-15
3.901137070513285618e-15
2.866431169731122779e-15
2.043848817636459611e-15
1.658269533308857060e-15
1.110571439384961199e-15
8.466549676262688776e-16
5.921839508764617090e-16
4.182726279648676070e-16
3.002639497275754167e-16
2.170357814321763996e-16
1.591354321306928862e-16
1.186398500611838728e-16
9.015501885000906569e-17
6.955015537254783350e-17
5.418636361604778254e-17
4.236554428724470291e-17
3.299786490542205708e-17
2.543614616682071344e-17
1.929477999599506769e-17
1.433929497347852696e-17
