# bin_2_1
2.582403656253453916e-10
2.553306263342115972e-10
2.396460783760148695e-10
2.126778415265456933e-10
1.787864997746106858e-10
1.463537193629404076e-10
1.226304714060694133e-10
1.055815673909949553e-10
8.437750978884399672e-11
5.974615556556611681e-11
4.633332552638476121e-11
3.480610420068920351e-11
2.513376397195241500e-11
1.844410181822372509e-11
1.368370164601486766e-11
1.017441586551729135e-11
7.699681885042893153e-12
5.941453150556244725e-12
4.666458326166286023e-12
3.714949319764511423e-12
2.978579524380525474e-12
2.386767810430385511e-12
1.897442866975465225e-12
1.486471152965696632e-12
1.140843385800439040e-12
8.538905100812193833e-13
6.216924665107613568e-13
4.400400411824450466e-13
3.033007416297877643e-13
2.041444157582149041e-13
1.346413827358022580e-13
