# bin_15_14
6.885417052470181061e-11
7.742571188915338173e-11
8.552959261981086416e-11
9.241398139656529890e-11
9.711249220151358420e-11
9.859298378953316913e-11
9.582963741789645090e-11
8.793998024493995081e-11
7.631574212435586352e-11
6.299977613124520853e-11
5.170934294324503507e-11
4.428273079352873416e-11
3.779761150377685073e-11
2.811713413037318565e-11
1.974450883185615959e-11
1.609597880032404796e-11
1.070975502653544690e-11
8.139277897561659395e-12
5.566275731856564259e-12
3.859488396129680511e-12
2.710328819026669850e-12
1.903669952384901936e-12
1.346607610917235225e-12
9.646427878079644422e-13
7.048435423512370587e-13
5.250274280492459928e-13
3.979928511704966982e-13
3.058509540422511091e-13
2.367011431143871724e-13
1.831378240492351726e-13
1.406447712688960002e-13
