# bin_18_4
5.586588426640369997e-57
6.245631085925156584e-57
6.850627859351010941e-57
7.337369993131416935e-57
7.625073640328117367e-57
7.644732572517409442e-57
7.294072622243930770e-57
6.568444679925634804e-57
5.590919092903810146e-57
4.580080950209324263e-57
3.799863230514475930e-57
3.287833571968448464e-57
2.717786338857060071e-57
1.923974607382234819e-57
1.433611213252994656e-57
1.119630216309201810e-57
7.565100015928212050e-58
5.562026736829428009e-58
3.947369697054940905e-58
2.752528257642646632e-58
1.932687562673287727e-58
1.369157578676322022e-58
9.842385549261675909e-59
7.193856072104274938e-59
5.363123905168254892e-59
4.068723209175524699e-59
3.130212977779840076e-59
2.427850904536364555e-59
1.884739124873696751e-59
1.453974661591924204e-59
1.107663502971293243e-59
