# bin_12_10
1.074709558742061853e-06
1.194861158534153494e-06
1.301738207152166679e-06
1.382477853490937672e-06
1.421329775313865478e-06
1.406590041477798779e-06
1.318927418426541145e-06
1.168542997783001835e-06
9.790451677814028360e-07
8.003161435840880797e-07
6.731895197068772216e-07
5.827492333222082865e-07
4.616939137356659622e-07
3.194557791994579066e-07
2.521602056062105271e-07
1.834148940387323724e-07
1.317913209969227741e-07
9.130601077441946664e-08
6.616158857412526601e-08
4.672680657644689896e-08
3.311322479569245925e-08
2.381010611575648558e-08
1.736848834403918405e-08
1.290771769145482542e-08
9.771795127267855651e-09
7.508678290080209842e-09
5.828166937110338583e-09
4.538167409208297263e-09
3.519491381837696872e-09
2.700451664400506217e-09
2.038900757651154202e-09
