# bin_17_10
1.668711349078235957e-15
1.872897885067899732e-15
2.064196325794109755e-15
2.224049422382134345e-15
2.328829484263958571e-15
2.354988999109007853e-15
2.275301263643120474e-15
2.074684717527116659e-15
1.788837656610753904e-15
1.472072062232872666e-15
1.211718340217466862e-15
1.042107812304040134e-15
8.816301355851419798e-16
6.441593209313611564e-16
4.598863011887877856e-16
3.724032460822793008e-16
2.466375309056312532e-16
1.870083618995542372e-16
1.294150733925701710e-16
8.967212601320667045e-17
6.297958925934674431e-17
4.429495232065989623e-17
3.149359088886545120e-17
2.271262318759338194e-17
1.671182768896204525e-17
1.253011544690284195e-17
9.550835516150984542e-18
7.366996369585409171e-18
5.710629218209893368e-18
4.416160485063520873e-18
3.383497323957076059e-18
