# bin_20_3
5.768347526323072177e-71
6.475004212430614374e-71
7.137477408934434544e-71
7.691694277295769928e-71
8.056027534350962696e-71
8.148736365712993726e-71
7.876240272314268352e-71
7.184889603812025817e-71
6.197699414179656725e-71
5.101254709007939380e-71
4.198134176218413999e-71
3.609491729004846065e-71
3.055640550410761662e-71
2.235322357356838957e-71
1.593863084919683299e-71
1.291526158457265673e-71
8.554104025030668253e-72
6.488457106222394462e-72
4.486528534780445663e-72
3.108555063081413431e-72
2.183286697599405501e-72
1.535406762087163606e-72
1.091289722624717004e-72
7.866604058629063307e-73
5.785520785901462211e-73
4.335975557830480744e-73
3.303834229898007525e-73
2.547801897441757835e-73
1.974778463543854898e-73
1.527211418242264559e-73
1.170288108712751547e-73
