# bin_12_2
5.646343658347501576e-38
6.173112053479877306e-38
6.587194183991631550e-38
6.815079502324002189e-38
6.798572400083555157e-38
6.443995460587412951e-38
5.767619592283476176e-38
4.879549422095165720e-38
3.991912051085229932e-38
3.326057613051980674e-38
2.878856990503883755e-38
2.347693004192850300e-38
1.648349346761612282e-38
1.255665008401613527e-38
9.618806127106275914e-39
6.672796092165478152e-39
4.849934738565246034e-39
3.520395441973835571e-39
2.509824264124255874e-39
1.806279458148379174e-39
1.320996787134521025e-39
9.831376590741288910e-40
7.449336156508739543e-40
5.740345887018006234e-40
4.475146631045908553e-40
3.508327418005871245e-40
2.746537184975818300e-40
2.132133639862008089e-40
1.631449157113297440e-40
1.224343686535806782e-40
8.976526509069726695e-41
