# bin_17_12
1.797119657190778348e-10
2.021788617523384239e-10
2.234659628146508040e-10
2.416206302479540611e-10
2.541260691667351625e-10
2.582504318316077963e-10
2.513794978708969811e-10
2.310548084153257856e-10
2.008364909477917444e-10
1.659380271142997163e-10
1.361211335004498982e-10
1.164385193399781517e-10
9.957454603259128989e-11
7.440820463103959925e-11
5.208452459694708045e-11
4.246838616293908584e-11
2.834329358500092514e-11
2.151830521068769805e-11
1.467400358081475449e-11
1.018512397996609634e-11
7.150236672592288206e-12
5.020008693572633156e-12
3.546532094363533787e-12
2.536320094645617787e-12
1.849912384295668213e-12
1.375614772314851736e-12
1.041233751254289486e-12
7.993380499530943458e-13
6.182998843004067615e-13
4.784022169122779450e-13
3.675941367088993530e-13
