# bin_7_2
5.985007390130311417e-15
6.347108835290909143e-15
6.518549359898428937e-15
6.444855288441576515e-15
6.040140132607302385e-15
5.350136498394897260e-15
4.483605770520784149e-15
3.664911049623216007e-15
3.078850550024847369e-15
2.660613406538409554e-15
2.112459901343159575e-15
1.473340551374653329e-15
1.159958800980962970e-15
8.548964497318149969e-16
6.192064310466589822e-16
4.413852673113186943e-16
3.255664813237619217e-16
2.373760380326027408e-16
1.751502077898819116e-16
1.316878277013332506e-16
1.007784615223305136e-16
7.841996765501800257e-17
6.176187026185599294e-17
4.889962387987551118e-17
3.864939403495572099e-17
3.028263062179240224e-17
2.337117025493631752e-17
1.767177542706585022e-17
1.303753774063176967e-17
9.359790336969106617e-18
6.536413477826554092e-18
