# bin_17_16
5.822238479936986427e-06
6.579084099098283199e-06
7.310265990342268860e-06
7.955631352526640958e-06
8.435318789465850141e-06
8.652873094781849320e-06
8.535983041965979125e-06
7.970376012831930957e-06
7.033489800535842288e-06
5.872197418753214762e-06
4.801844952746799231e-06
4.056471484063671827e-06
3.509029711687716724e-06
2.742209382214533670e-06
1.891246170463425253e-06
1.511104910862182180e-06
1.069531329271261798e-06
7.791853128204296200e-07
5.265355176666977722e-07
3.748590977503420879e-07
2.601115011831336152e-07
1.801610420757816170e-07
1.257255481243907837e-07
8.854166839554637341e-08
6.342700466952948125e-08
4.633099599142655598e-08
3.450574913413368326e-08
2.616344546418374005e-08
2.009134527488067242e-08
1.551995191529085604e-08
1.196892195370099824e-08
