# bin_5_5
-6.930730956114514874e-08
-7.384219920072687772e-08
-7.627264121379874465e-08
-7.594716997994336458e-08
-7.183504473566673138e-08
-6.418226590093333996e-08
-5.422509495076309777e-08
-4.437059345701652085e-08
-3.702426905689374483e-08
-3.201673556120430599e-08
-2.599163296926558244e-08
-1.829602214765068477e-08
-1.402064251746243006e-08
-1.069762890153590406e-08
-7.524793247093875275e-09
-5.492650034806855293e-09
-4.023731485446070399e-09
-2.915542765045535732e-09
-2.140529488651946499e-09
-1.599959097703478041e-09
-1.218029735330945595e-09
-9.431915880905798841e-10
-7.402988844636350120e-10
-5.850952297064257686e-10
-4.624432417003310809e-10
-3.629607213424340608e-10
-2.810363717870122553e-10
-2.134835669225758365e-10
-1.583939681135986764e-10
-1.144265508458070379e-10
-8.041480604256051576e-11
