# bin_18_12
-8.697551554344445555e-15
-9.801666002917543394e-15
-1.085523974046646066e-14
-1.176512572420697343e-14
-1.241003483034991754e-14
-1.265228297994824049e-14
-1.237308282778418021e-14
-1.143229632512116971e-14
-9.988610980110337418e-15
-8.279109908122398791e-15
-6.783643608336947957e-15
-5.783148453094973086e-15
-4.971436033525953547e-15
-3.767833365624295564e-15
-2.618145743730777364e-15
-2.130066084387143660e-15
-1.441283399006043939e-15
-1.086821439806005017e-15
-7.356625514183475921e-16
-5.136798730066307506e-16
-3.599552332690988610e-16
-2.522160505790667055e-16
-1.775485895990374372e-16
-1.263726809605764553e-16
-9.168407414935983386e-17
-6.782646759776173706e-17
-5.110658107957932717e-17
-3.910501050690693155e-17
-3.019732568619840879e-17
-2.336512836304552366e-17
-1.798158413527576162e-17
