# bin_6_8
-2.945721070681538144e-09
-3.202676955189386857e-09
-3.393667676961987637e-09
-3.480363145217256521e-09
-3.433344663549887922e-09
-3.207418604911019731e-09
-2.832164735868047025e-09
-2.366664375639066013e-09
-1.935236568438507843e-09
-1.632219697296452897e-09
-1.410582974965429041e-09
-1.107672212660741091e-09
-7.690248828055621550e-10
-6.124099298769894087e-10
-4.416867427146650194e-10
-3.233287893635400391e-10
-2.259873466395012860e-10
-1.652388880727768695e-10
-1.191764484192678288e-10
-8.668979855883550549e-11
-6.411534036153601664e-11
-4.821490773742931533e-11
-3.692029331050122416e-11
-2.869100169826244876e-11
-2.249517602353425494e-11
-1.768026650769752563e-11
-1.383071800879898989e-11
-1.069730526139444310e-11
-8.134312820405450648e-12
-6.053481912311486088e-12
-4.393753098251913422e-12
