# bin_1_14
-1.096179932469990112e-60
-1.207456059911632976e-60
-1.300407213403999263e-60
-1.361245857900267228e-60
-1.376251740488667520e-60
-1.329541918121187246e-60
-1.212408583680159908e-60
-1.045526827445466530e-60
-8.605788572987711771e-61
-7.083658085841165310e-61
-6.089028334509407822e-61
-5.151445601218656388e-61
-3.773437989414967828e-61
-2.699884774373616295e-61
-2.187974451212777304e-61
-1.464776127807953980e-61
-1.116344123377564419e-61
-7.827099916998157158e-62
-5.528997882447750451e-62
-3.970524341775158486e-62
-2.871792656180822878e-62
-2.107954029357734185e-62
-1.573451741360279752e-62
-1.196998047195873653e-62
-9.242579050725795298e-63
-7.205508098836187392e-63
-5.635538425041785124e-63
-4.389663242741726251e-63
-3.383073808659306767e-63
-2.565232258224954946e-63
-1.905305103584675735e-63
