# bin_19_3
-2.404162279971049375e-68
-2.693336436300926400e-68
-2.961524828713321339e-68
-3.181453010685505519e-68
-3.318635853733355716e-68
-3.341333191291941871e-68
-3.207135422842486274e-68
-2.904876029625972223e-68
-2.487482123857047159e-68
-2.041803013734197635e-68
-1.687969223295952317e-68
-1.457757446619215317e-68
-1.218856096856569599e-68
-8.743796197930255944e-69
-6.390104246559781586e-69
-5.086303622675404126e-69
-3.394714237566646694e-69
-2.539826651832192560e-69
-1.781952485429759495e-69
-1.238693285149726079e-69
-8.698575726256733401e-70
-6.138637086577845482e-70
-4.391596691361147538e-70
-3.191509444440709425e-70
-2.366145814999271041e-70
-1.786304622722933434e-70
-1.369128622949834298e-70
-1.059726576584692143e-70
-8.224302646089273485e-71
-6.353541287237055721e-71
-4.853865217784288830e-71
