# bin_19_19
-2.640480550382783427e-08
-2.998473945190372374e-08
-3.351898700706757978e-08
-3.674683060250633776e-08
-3.931783711840114337e-08
-4.079123572888682961e-08
-4.080914262942546878e-08
-3.880415251283121762e-08
-3.482865139768990138e-08
-2.954061460178867470e-08
-2.418943039414820403e-08
-2.014338620418003262e-08
-1.745884671996489757e-08
-1.430662063867936926e-08
-1.003109399740075117e-08
-7.578128515922731835e-09
-5.809543467695181298e-09
-3.945093186177437104e-09
-2.828753107687167207e-09
-1.998863260186974569e-09
-1.369054445557363802e-09
-9.354387826512606586e-10
-6.425260536794398151e-10
-4.450400986129372025e-10
-3.119864528819338885e-10
-2.227355925541081941e-10
-1.621631180941156172e-10
-1.205345378662447321e-10
-9.122518795994572301e-11
-6.993019168569576145e-11
-5.390664719641085799e-11
