# bin_20_7
-6.529012447695427463e-42
-7.347867918538902703e-42
-8.124530072461633045e-42
-8.788006429096788721e-42
-9.246680308956520456e-42
-9.400765191790472858e-42
-9.155191568649296638e-42
-8.419265118370764168e-42
-7.321876976707463069e-42
-6.052008280783017262e-42
-4.965512040120853006e-42
-4.248045114334854200e-42
-3.634777107665161908e-42
-2.718495240661449656e-42
-1.902482865829303382e-42
-1.551771117030105608e-42
-1.036221633936801572e-42
-7.868560484621753390e-43
-5.364994107174722250e-43
-3.724965443610631160e-43
-2.615643990737830265e-43
-1.836766029878671452e-43
-1.297712448615064673e-43
-9.280514491804330071e-44
-6.768537234168244184e-44
-5.032785294191380505e-44
-3.809164004289048225e-44
-2.924140469567008181e-44
-2.261935132884297807e-44
-1.750333712135214212e-44
-1.345173321111640562e-44
