# bin_3_9
-3.853865521201306763e-20
-4.161678265759554268e-20
-4.372639822033556852e-20
-4.440404909942579192e-20
-4.319587457869504802e-20
-3.969597637822600182e-20
-3.450298549390812900e-20
-2.851562979867181442e-20
-2.339008441396654415e-20
-1.998286282525274212e-20
-1.707315997091737579e-20
-1.281086263494448488e-20
-9.022280786524571054e-21
-7.346215395532990509e-21
-5.013805044877817095e-21
-3.826722060106544862e-21
-2.679830554134753580e-21
-1.928687285679637477e-21
-1.406389734413955541e-21
-1.035633303857202264e-21
-7.741105457552261155e-22
-5.884616008331417019e-22
-4.552028555669273489e-22
-3.564189698954546399e-22
-2.806872789280963229e-22
-2.208209663910224678e-22
-1.723187717354125577e-22
-1.325585792457507766e-22
-9.999465115799637883e-23
-7.366126009062182292e-23
-5.284790528854025691e-23
