# bin_2_14
-4.104861800137152492e-51
-4.526803822111378333e-51
-4.882274781758214786e-51
-5.119929676097000821e-51
-5.186846086503341026e-51
-5.026014443123758803e-51
-4.597868089831784165e-51
-3.977868744708578940e-51
-3.279149936922166150e-51
-2.695076953916328686e-51
-2.311950421054459286e-51
-1.965041722787628930e-51
-1.451980241697628207e-51
-1.029935361813496971e-51
-8.380950933025868188e-52
-5.616501956020026399e-52
-4.288522947669394875e-52
-2.989698980446686815e-52
-2.112039944154280576e-52
-1.516332349296696589e-52
-1.095608723982278148e-52
-8.023550520751402345e-53
-5.973031824745704113e-53
-4.532899343961251909e-53
-3.493280703540313792e-53
-2.719866655324045651e-53
-2.126216067499615086e-53
-1.656657066554824864e-53
-1.278037162801883084e-53
-9.705953216586222084e-54
-7.223797069795413143e-54
