# bin_9_8
-2.323471652222842083e-08
-2.551775319819858394e-08
-2.738159676830380589e-08
-2.852955624237390730e-08
-2.869280198825222608e-08
-2.750585936577295018e-08
-2.488757478702374082e-08
-2.129052357056332757e-08
-1.747033189667412035e-08
-1.444604403997042260e-08
-1.246931793927529924e-08
-1.040783681954099108e-08
-7.472412218441567956e-09
-5.482755306441611064e-09
-4.361816996568432144e-09
-2.943631623225903760e-09
-2.212399674623039144e-09
-1.574134451949686411e-09
-1.115005428013982745e-09
-8.009331217732271680e-10
-5.813827437212900687e-10
-4.292233302091320305e-10
-3.224778053099212080e-10
-2.467286949692383552e-10
-1.913518292777197962e-10
-1.495882350602161050e-10
-1.170880651239484595e-10
-9.110479789484941260e-11
-7.002291111662944313e-11
-5.287935239746716349e-11
-3.907111747270527838e-11
