# bin_20_9
-7.251699634237621691e-31
-8.173786500975254093e-31
-9.054379911743636251e-31
-9.815983075849916845e-31
-1.035755438470795029e-30
-1.056380378385289821e-30
-1.033649432673098847e-30
-9.556762412930970880e-31
-8.355216298537824152e-31
-6.928023652745328451e-31
-5.675705447614517605e-31
-4.836208977066013000e-31
-4.159774508422075860e-31
-3.158423961608756990e-31
-2.192921518293463116e-31
-1.783080568179865923e-31
-1.209079699762291761e-31
-9.105561430671545358e-32
-6.158157112383968572e-32
-4.304233561554333144e-32
-3.014942614585390499e-32
-2.111657164551138222e-32
-1.485757773593063185e-32
-1.056820024988776779e-32
-7.661627891682269099e-33
-5.663861282635061307e-33
-4.264912546012247123e-33
-3.261800661236353198e-33
-2.518128300437343607e-33
-1.948324917337032103e-33
-1.499674219785465026e-33
