# bin_16_2
-4.833961555854390318e-62
-5.367965153110987856e-62
-5.839139181521566684e-62
-6.189024084936928211e-62
-6.347180314271016530e-62
-6.260178673413882485e-62
-5.844930712955965245e-62
-5.157952750001904510e-62
-4.307027112047462173e-62
-3.522290370406202794e-62
-2.974815119246159760e-62
-2.572463699287540291e-62
-2.012631642643013512e-62
-1.391932335725234984e-62
-1.112269841502839870e-62
-7.928577424033542314e-63
-5.804463209905329755e-63
-3.987257712575847211e-63
-2.880691305785893211e-63
-2.043202384742568498e-63
-1.455396643369895877e-63
-1.050497851852725013e-63
-7.692573526279534133e-64
-5.741426281809421549e-64
-4.363064967157585025e-64
-3.362652679869749107e-64
-2.615017246083759147e-64
-2.037528999635739386e-64
-1.579344416636054414e-64
-1.209956752340497009e-64
-9.114206262118594547e-65
