# bin_17_20
-1.180004129891236764e-09
-1.339017424160051855e-09
-1.495467634531909780e-09
-1.637633178612802975e-09
-1.749748100211477508e-09
-1.812028328879808856e-09
-1.808983801789745115e-09
-1.715083226098878249e-09
-1.535200307318792860e-09
-1.298524736494599643e-09
-1.062812757556188005e-09
-8.871099119706914928e-10
-7.690939095691929879e-10
-6.259728590567710989e-10
-4.367386462643353254e-10
-3.333045404373735444e-10
-2.525218140644255802e-10
-1.731329582016933510e-10
-1.226718256669138146e-10
-8.715090769958962286e-11
-5.980130016960193701e-11
-4.088797382661729611e-11
-2.816128935044662491e-11
-1.956101368723356119e-11
-1.376284063484040906e-11
-9.864746718574255493e-12
-7.211382968596510146e-12
-5.380368755591634019e-12
-4.084102661071239218e-12
-3.136430433257236396e-12
-2.419093065976263779e-12
