# bin_9_16
-1.404733697515690581e-18
-1.572283832836506931e-18
-1.726944321071042557e-18
-1.852659938023537844e-18
-1.929177509681864682e-18
-1.938517907088244350e-18
-1.855328106282480444e-18
-1.675739362104953494e-18
-1.430761717471097278e-18
-1.173307152966286528e-18
-9.718032257228865833e-19
-8.403055266589775534e-19
-6.987379597520899553e-19
-4.978098663139975518e-19
-3.674497985635706782e-19
-2.898201072348210583e-19
-1.945470911939570608e-19
-1.443722931557055022e-19
-1.018905376296179766e-19
-7.094425088588242936e-20
-4.981847984967727707e-20
-3.522528226012330776e-20
-2.526478109253683022e-20
-1.841664916186800576e-20
-1.369425792208090802e-20
-1.036551558194121264e-20
-7.960940143038974829e-21
-6.169153140247420668e-21
-4.789002153343540733e-21
-3.697421146781710276e-21
-2.820946638747747114e-21
