# bin_18_13
-1.103650829641241269e-12
-1.245087399645875430e-12
-1.380682282875077127e-12
-1.498761969025954089e-12
-1.584010387588152749e-12
-1.618572000499934939e-12
-1.587984849676181042e-12
-1.472841495938059597e-12
-1.291583617531069097e-12
-1.073181869120014433e-12
-8.786277994967946966e-13
-7.467839103362119523e-13
-6.438405542312626142e-13
-4.932578652483514469e-13
-3.414314385853730067e-13
-2.765097692707010756e-13
-1.897813923924708988e-13
-1.417558048736689223e-13
-9.560208925160538116e-14
-6.721274928540619194e-14
-4.696100769352671574e-14
-3.280173209802674042e-14
-2.302359364009201826e-14
-1.632693797685082997e-14
-1.179465513132753057e-14
-8.688757918463530866e-15
-6.522035097390671241e-15
-4.976120698027644172e-15
-3.836303838104258911e-15
-2.967423694565440719e-15
-2.285858552728837797e-15
