# bin_9_7
-3.185667387173025860e-09
-3.488497831054944950e-09
-3.729739029598503081e-09
-3.868081623297330028e-09
-3.869447449710501805e-09
-3.681323721660373885e-09
-3.306581411886017959e-09
-2.807443782440739770e-09
-2.298918236407372388e-09
-1.910997725198336628e-09
-1.653544225611495503e-09
-1.359143266932240237e-09
-9.602752278459395524e-10
-7.231009101099809370e-10
-5.611137114333465506e-10
-3.853973036786922662e-10
-2.834132180669072179e-10
-2.045308304810244653e-10
-1.455168866725240275e-10
-1.046418639812793938e-10
-7.634312927697920011e-11
-5.668413223343540208e-11
-4.284498852175268999e-11
-3.294910730495166955e-11
-2.565081010771310933e-11
-2.009568255634549727e-11
-1.573452543641539395e-11
-1.222575595264176313e-11
-9.369510322823787888e-12
-7.046403794794115507e-12
-5.179507008384729905e-12
