# bin_18_3
-3.164305303989607866e-63
-3.536295574601465009e-63
-3.876850966637643988e-63
-4.149347575546501129e-63
-4.307726752622439419e-63
-4.313664409979695473e-63
-4.108352649439639221e-63
-3.693371532260448680e-63
-3.138156971105870644e-63
-2.570266189166287360e-63
-2.136302470490513015e-63
-1.849877820398815759e-63
-1.522759459675443207e-63
-1.073773038513450811e-63
-8.061313691812073660e-64
-6.249395320755360207e-64
-4.248133991727017700e-64
-3.101183125662475395e-64
-2.210875953592931785e-64
-1.544103099433923012e-64
-1.084722144572389640e-64
-7.699266386579356159e-65
-5.546060085479729527e-65
-4.062928172030086731e-65
-3.035521597425959117e-65
-2.307189099170611493e-65
-1.777492755369804952e-65
-1.379737533281376526e-65
-1.071260094865469706e-65
-8.260830868282589498e-66
-6.287820603159815066e-66
