# bin_15_15
-2.943001088583735236e-08
-3.314682332973315655e-08
-3.668444236198665178e-08
-3.972560496168767176e-08
-4.185882028254735441e-08
-4.262474248747689431e-08
-4.161071176807570405e-08
-3.836918380915369318e-08
-3.345740724752911361e-08
-2.769758829606854659e-08
-2.270659454151578885e-08
-1.938731686645222475e-08
-1.663494236405774630e-08
-1.253613192590027857e-08
-8.734891713379466433e-09
-7.117179641195577568e-09
-4.785861151334057256e-09
-3.621735683655956880e-09
-2.458586471626584580e-09
-1.711916027902296762e-09
-1.200901614375151816e-09
-8.424053161236444242e-10
-5.939412658331168415e-10
-4.236003816124765237e-10
-3.080216363981637763e-10
-2.283726373079236433e-10
-1.724132229636679091e-10
-1.321144505703406381e-10
-1.020996731641374621e-10
-7.900546049393190034e-11
-6.076728778691350390e-11
