# bin_19_18
-1.886117244650015134e-08
-2.140085593055235557e-08
-2.389852037472792212e-08
-2.616665788135588877e-08
-2.795305393350881981e-08
-2.894132587842867864e-08
-2.888483439047322562e-08
-2.737528809731929902e-08
-2.449560896073823375e-08
-2.071201949152239965e-08
-1.695140704653560441e-08
-1.415328453705988258e-08
-1.227069951307159574e-08
-9.978376276143250130e-09
-6.957720890252610075e-09
-5.316804982561597968e-09
-4.021983160078093104e-09
-2.761072204310664135e-09
-1.953331494566536324e-09
-1.388619937753633727e-09
-9.530753114472843911e-10
-6.517216869991411255e-10
-4.490275233217890757e-10
-3.120098003511304455e-10
-2.196272389680682023e-10
-1.575005273498755817e-10
-1.151958541279844972e-10
-8.598713202144961128e-11
-6.529431671234644827e-11
-5.015439891547578570e-11
-3.868579242275374690e-11
