# bin_5_9
-5.530020400497982042e-13
-6.015141432884111025e-13
-6.377465722200912535e-13
-6.544865253974088728e-13
-6.462351441349653381e-13
-6.043937629744361082e-13
-5.342483427585947772e-13
-4.468320937540047097e-13
-3.653557814382075792e-13
-3.078658259280116704e-13
-2.661660453130685907e-13
-2.096510563997254203e-13
-1.455673727302549753e-13
-1.156061184029950625e-13
-8.375813202082212532e-14
-6.107224797794237418e-14
-4.276300623925444494e-14
-3.127985603782417740e-14
-2.254058654985315309e-14
-1.638083533075588159e-14
-1.210563782478404343e-14
-9.096639650284350733e-15
-6.960504414641930705e-15
-5.405933435246438607e-15
-4.236970383506070825e-15
-3.329657737152439882e-15
-2.604990644460658201e-15
-2.015483589306921708e-15
-1.533382164004313457e-15
-1.141898944495321769e-15
-8.294700693967876815e-16
