# bin_17_1
-5.842839996281278661e-78
-6.504199453834822315e-78
-7.096413080636177122e-78
-7.549848364704204666e-78
-7.778435612962084360e-78
-7.717995630692956243e-78
-7.260584736455607234e-78
-6.452431033673983148e-78
-5.421000961283873092e-78
-4.432925934634075906e-78
-3.720736333305212361e-78
-3.223347612733694824e-78
-2.575131085607654825e-78
-1.785271494467542916e-78
-1.397125522192531681e-78
-1.029942498154548516e-78
-7.313353091488035049e-79
-5.109198957194725167e-79
-3.703096215708671958e-79
-2.609561208184803787e-79
-1.844569364614373080e-79
-1.323413028221351502e-79
-9.632921855771635402e-80
-7.140968712092263947e-80
-5.393940820033603956e-80
-4.137341275815524369e-80
-3.207825626365171752e-80
-2.497097185801429560e-80
-1.937556737994690527e-80
-1.488457951892610652e-80
-1.125817288221677763e-80
