# bin_4_5
-3.266902164662615927e-08
-3.458210719789937086e-08
-3.543660768929195900e-08
-3.492653449109913743e-08
-3.260650227994619777e-08
-2.877750475734448186e-08
-2.404791898663870574e-08
-1.966866549930429466e-08
-1.658326151048943696e-08
-1.430990022457603400e-08
-1.124018550483354352e-08
-7.844633105164593750e-09
-6.232339425588038800e-09
-4.523792399341004736e-09
-3.319847969237817711e-09
-2.355982089337907649e-09
-1.735226119511772874e-09
-1.269337030368749969e-09
-9.397210712797254879e-10
-7.084810343990839702e-10
-5.435480361179785252e-10
-4.239137075526102485e-10
-3.343898472970953494e-10
-2.649661323156312164e-10
-2.094310552768684557e-10
-1.639752948127190620e-10
-1.263771142840371321e-10
-9.537322608569073233e-11
-7.019689019408045835e-11
-5.026771575516968432e-11
-3.501802658005549649e-11
