# bin_10_13
-3.024747270108803059e-10
-3.370823590055334366e-10
-3.682703173763740617e-10
-3.924612032443141117e-10
-4.052018755440074633e-10
-4.031124312753457097e-10
-3.805263868292561100e-10
-3.392581830245444307e-10
-2.858865612875737922e-10
-2.338402487789438124e-10
-1.957228342977346060e-10
-1.695981658714364637e-10
-1.367100552236466041e-10
-9.510229260259048265e-11
-7.359658045927872249e-11
-5.506600225259400075e-11
-3.857643299626554445e-11
-2.726317220299450418e-11
-1.970879311535765845e-11
-1.385159474183721437e-11
-9.766048155604352734e-12
-6.985840189027253853e-12
-5.070483437829965885e-12
-3.746680037780109656e-12
-2.821779481533988332e-12
-2.159235697207701126e-12
-1.671455874826271544e-12
-1.300305737978400294e-12
-1.009248443272130809e-12
-7.762054924570936858e-13
-5.881585876654494334e-13
