# bin_16_6
-8.463760886624138912e-32
-9.437498861599520799e-32
-1.031786627037713427e-31
-1.100516389183644818e-31
-1.137486238723503643e-31
-1.133143500812081642e-31
-1.071536629892130352e-31
-9.568956119233781533e-32
-8.076041346028373933e-32
-6.606797939136372299e-32
-5.522007650830310739e-32
-4.785333900693141302e-32
-3.874737090937386743e-32
-2.700474118402559431e-32
-2.077837646140864267e-32
-1.566286284491968515e-32
-1.089866353344057351e-32
-7.748785381648603863e-33
-5.593168769625111362e-33
-3.925710783293910088e-33
-2.764386722553213853e-33
-1.974383919844790498e-33
-1.430956557522283705e-33
-1.055595377612837843e-33
-7.937977256911871773e-34
-6.066532986308364143e-34
-4.692077848468257650e-34
-3.648914833438836277e-34
-2.832546999023162953e-34
-2.179747805839471044e-34
-1.653200588033670067e-34
