# bin_11_16
-3.274500644706931545e-13
-3.674656892936684396e-13
-4.049038792700747335e-13
-4.361037158929717368e-13
-4.564083813289180444e-13
-4.612445893931736643e-13
-4.451533563941690840e-13
-4.054438400812400539e-13
-3.491755467739618740e-13
-2.872462949901973793e-13
-2.366905395417683483e-13
-2.037913695479843182e-13
-1.720599802939202377e-13
-1.252572884796665296e-13
-8.984906103843211889e-14
-7.256241748870713972e-14
-4.810411360537851277e-14
-3.640877356482585296e-14
-2.526942673139717668e-14
-1.752120242892897969e-14
-1.230751022417611786e-14
-8.662144162881536933e-15
-6.167321962643859278e-15
-4.455359176010562407e-15
-3.283760663084608463e-15
-2.465866932759532608e-15
-1.881925858795648570e-15
-1.452821008590334380e-15
-1.126582121420410984e-15
-8.711366390718565362e-16
-6.671264338865817074e-16
