# bin_11_15
-1.583431071049256535e-11
-1.773994605899530592e-11
-1.950784748691589668e-11
-2.095846957622597276e-11
-2.186474294497193305e-11
-2.201721474584446913e-11
-2.113713071046932979e-11
-1.914898613287052837e-11
-1.640101088179555602e-11
-1.346364883106936829e-11
-1.112916691135226565e-11
-9.610121018081777240e-12
-8.038006290841704939e-12
-5.769650804132653526e-12
-4.213511228235395178e-12
-3.355623583786261411e-12
-2.239102738860826800e-12
-1.675920089588936435e-12
-1.175360441158192933e-12
-8.169522589980997373e-13
-5.737089283009175199e-13
-4.048357533596714444e-13
-2.895708264292204931e-13
-2.103946117005331814e-13
-1.559509029290267545e-13
-1.177114531492685583e-13
-9.020708646219106325e-14
-6.981504116343128220e-14
-5.418024118374107501e-14
-4.185733436265816908e-14
-3.198014535188079631e-14
