# bin_6_11
-5.110212847279042964e-15
-5.617250480220857612e-15
-6.034082419605287120e-15
-6.295763706250890914e-15
-6.341752026638186209e-15
-6.093219194686329364e-15
-5.525529117301671136e-15
-4.737811737194133827e-15
-3.890658775096761108e-15
-3.212468663779760921e-15
-2.770137872926037026e-15
-2.322003597671961035e-15
-1.676063042067242452e-15
-1.220432061287092059e-15
-9.773226842400336723e-16
-6.569512428310313079e-16
-4.964793707510764878e-16
-3.517210834276386728e-16
-2.488556386902455724e-16
-1.787387907009858850e-16
-1.295760000451251686e-16
-9.550240583538356750e-17
-7.161989171954337268e-17
-5.470988615027597741e-17
-4.237982716846891375e-17
-3.310656909731979507e-17
-2.590970822665708614e-17
-2.016753356609888460e-17
-1.551364008035140826e-17
-1.172967920483273945e-17
-8.680033143113476132e-18
