# bin_15_9
-4.611152865191305941e-16
-5.151094200562752744e-16
-5.644287750509444467e-16
-6.037184283137576154e-16
-6.262497497152884789e-16
-6.265200116958209642e-16
-5.959105997089238789e-16
-5.350518104179420146e-16
-4.540363012029431191e-16
-3.717707634480277777e-16
-3.093093334241274397e-16
-2.679076483854919074e-16
-2.198974647680585955e-16
-1.546738788072558929e-16
-1.166544924782623333e-16
-8.998807457317720324e-17
-6.140900968965329620e-17
-4.461506638319695046e-17
-3.189094027851911622e-17
-2.229262370819506193e-17
-1.566430175330191081e-17
-1.113093475629000806e-17
-8.027397739835051223e-18
-5.888520699000906862e-18
-4.405006852618931025e-18
-3.351700207574481892e-18
-2.584247118215499620e-18
-2.006776330799869412e-18
-1.558123715511457644e-18
-1.201094502093968579e-18
-9.136325144023410321e-19
