# bin_8_5
-6.562451335540385275e-11
-7.107118876765414372e-11
-7.494453010745638981e-11
-7.642225604181515900e-11
-7.479251980978370644e-11
-6.921130980000728887e-11
-6.056536963239565609e-11
-5.027474532651990211e-11
-4.116674012723925184e-11
-3.498359515330704963e-11
-3.006715364693677819e-11
-2.300223843587070445e-11
-1.605814428018562082e-11
-1.299577273390927685e-11
-9.054022490840909438e-12
-6.813332295239643959e-12
-4.747472697535647715e-12
-3.441192001117343843e-12
-2.499107148942408603e-12
-1.831840989758334099e-12
-1.363276726023551342e-12
-1.031613136917537901e-12
-7.946942504113578165e-13
-6.203556789829839253e-13
-4.877133558492570119e-13
-3.835965718321454319e-13
-2.996913998434918227e-13
-2.310959241414275854e-13
-1.749320743723774716e-13
-1.294292058372015647e-13
-9.331861148058073191e-14
