# bin_15_13
-5.060755615252171194e-09
-5.685053142089978375e-09
-6.272113728976067898e-09
-6.765885002904458346e-09
-7.094739505032429217e-09
-7.185610512002839557e-09
-6.957757010423834410e-09
-6.358852060774356748e-09
-5.495516015568484212e-09
-4.527920930264711879e-09
-3.724474407103972083e-09
-3.199883732781205579e-09
-2.715970314423367367e-09
-1.996143027975071941e-09
-1.417240314563269126e-09
-1.151461395144499336e-09
-7.629927690010302105e-10
-5.796622820007922877e-10
-3.997431210409599089e-10
-2.769792224863990406e-10
-1.945915187836100702e-10
-1.368269653388590423e-10
-9.714603741483705023e-11
-6.992459116944402907e-11
-5.134696320064294611e-11
-3.842630604193884242e-11
-2.924388492943436663e-11
-2.253438538789838019e-11
-1.746162422241296041e-11
-1.350764575567864668e-11
-1.035836232061107744e-11
