# bin_5_10
-1.700783699846326073e-15
-1.857575326689094925e-15
-1.979537090859428012e-15
-2.044383485147173504e-15
-2.034952087004424644e-15
-1.922929539922508964e-15
-1.716206422113281637e-15
-1.447908489319417915e-15
-1.184313733164475712e-15
-9.896482028626497577e-16
-8.569547886081955244e-16
-6.934831328002868138e-16
-4.847620053436569451e-16
-3.735127312847530999e-16
-2.824595912791202414e-16
-1.982107002369347352e-16
-1.424988965178028450e-16
-1.039279910163469176e-16
-7.428623664444130675e-17
-5.355684210716758544e-17
-3.927749423584891319e-17
-2.930721974604786073e-17
-2.226468902499834480e-17
-1.719391352741176495e-17
-1.342506445280354358e-17
-1.053350186396103629e-17
-8.246906524735150754e-18
-6.398215789076620900e-18
-4.889897918448865293e-18
-3.663496662858795422e-18
-2.680325277869126409e-18
