# bin_13_11
-4.384032479690374398e-09
-4.893967699295181214e-09
-5.357964016087418014e-09
-5.724828068598536275e-09
-5.930354572955800246e-09
-5.923409993325401386e-09
-5.621572688495965043e-09
-5.037042790764110189e-09
-4.265410431384791449e-09
-3.491228745723803139e-09
-2.909644902859761699e-09
-2.520894546655212238e-09
-2.058788521940180773e-09
-1.442700135914713975e-09
-1.096386107181011296e-09
-8.385617119174734344e-10
-5.762766503453093039e-10
-4.152846582188289510e-10
-2.980399935470868413e-10
-2.086530030080647070e-10
-1.467084159921634911e-10
-1.044501251412543112e-10
-7.547156545781855910e-11
-5.548262687268966885e-11
-4.158931797688493134e-11
-3.169941046803861679e-11
-2.447150138057249169e-11
-1.901466741839628711e-11
-1.476299999997532595e-11
-1.137305183318150625e-11
-8.641555556486039547e-12
