# bin_14_18
-4.931387353346362942e-11
-5.569121502045616423e-11
-6.183274567287179734e-11
-6.722311173702672193e-11
-7.118131725218835427e-11
-7.289652502683811300e-11
-7.174193539114756652e-11
-6.679018833097873304e-11
-5.877815876934939083e-11
-4.896824593715983405e-11
-4.006763587444927537e-11
-3.394971389386306562e-11
-2.933386622614993810e-11
-2.271619420692472671e-11
-1.568664354946260636e-11
-1.262321559607585264e-11
-8.805030062571967672e-12
-6.496344225079428503e-12
-4.379377991860386790e-12
-3.101523939521468007e-12
-2.159406187629132067e-12
-1.502100663382754801e-12
-1.051284966079952042e-12
-7.428731390546761040e-13
-5.343641037193539106e-13
-3.919665031179025195e-13
-2.930639283422356942e-13
-2.229116888534592787e-13
-1.715299832328862658e-13
-1.326099642178140721e-13
-1.022291635945018881e-13
