# bin_8_17
-2.045784307697317650e-25
-2.291452602274028722e-25
-2.519085089885067018e-25
-2.705439279893068461e-25
-2.821143396468244784e-25
-2.839347122410437803e-25
-2.723783427535687323e-25
-2.465696753313705237e-25
-2.110182589909041527e-25
-1.731748217562112091e-25
-1.432150924562625137e-25
-1.237172992226736420e-25
-1.033344130732477949e-25
-7.402321091043382394e-26
-5.420328964955453145e-26
-4.307166497966684969e-26
-2.877435782113928890e-26
-2.149734217659238764e-26
-1.509979397586863599e-26
-1.049955357222802299e-26
-7.373041203721839399e-27
-5.204963016999485928e-27
-3.725505252557335851e-27
-2.709081508713837494e-27
-2.009667813928447888e-27
-1.517987166166737568e-27
-1.163959460834889190e-27
-9.011459762380603785e-28
-6.994057529682074762e-28
-5.402554943829727682e-28
-4.126301769034551918e-28
