# bin_20_15
-3.110377814008210639e-12
-3.523875414487285975e-12
-3.927741744878519905e-12
-4.290604106985906464e-12
-4.570347543712533529e-12
-4.714640715773093705e-12
-4.684565135885138387e-12
-4.413676056130967353e-12
-3.927722610751325284e-12
-3.303592573713589082e-12
-2.702141805106099754e-12
-2.266974151947292977e-12
-1.965211628622631023e-12
-1.574205351370994063e-12
-1.089715122021366981e-12
-8.495298458621542243e-13
-6.263450813541941012e-13
-4.398707470807569362e-13
-3.041086270348825505e-13
-2.175821015738572689e-13
-1.499468947500717421e-13
-1.028982392008143415e-13
-7.129280420467779210e-14
-4.981651368261829789e-14
-3.532281417056955541e-14
-2.552840874561246336e-14
-1.881739386848374580e-14
-1.414393454088370430e-14
-1.079607838686899804e-14
-8.316845588575889373e-15
-6.417925100759539573e-15
