# bin_3_13
-8.342897514787359443e-38
-9.178609638842454431e-38
-9.870278884823145054e-38
-1.031234333159932590e-37
-1.040365554042993285e-37
-1.001852865576852175e-37
-9.105860914956393601e-38
-7.826071605154116006e-38
-6.432473424884362489e-38
-5.304055632842233605e-38
-4.568182269398494608e-38
-3.844455407837304698e-38
-2.791371763782688653e-38
-2.017331125865901479e-38
-1.624605257812777457e-38
-1.089204033971904390e-38
-8.266878138325560365e-39
-5.831420228469092442e-39
-4.122230440635103310e-39
-2.960637620264823656e-39
-2.144050049523139526e-39
-1.577581865732809206e-39
-1.180832303162958122e-39
-9.005347927833920198e-40
-6.966904499196563741e-40
-5.438146640896381117e-40
-4.255030612142394164e-40
-3.313083335140537295e-40
-2.550587979284722689e-40
-1.930770445300543833e-40
-1.430965536213495529e-40
