# bin_8_18
-8.377316996800906713e-29
-9.401292780090642085e-29
-1.035943625097121714e-28
-1.115810572481550134e-28
-1.167817853960165848e-28
-1.180256924831280177e-28
-1.139169652685101730e-28
-1.037627740452223372e-28
-8.936912415771846821e-29
-7.352037818334992870e-29
-6.057750016410647465e-29
-5.215577748449854458e-29
-4.404148758060774546e-29
-3.206702525028449138e-29
-2.299567251810936946e-29
-1.857679606799683601e-29
-1.231246845955398695e-29
-9.321441142958076347e-30
-6.468630521546350041e-30
-4.484869014796561607e-30
-3.150339063646249364e-30
-2.217094977006525363e-30
-1.578426281800888959e-30
-1.140178684061758561e-30
-8.402828973063178972e-31
-6.309443684707173895e-31
-4.815022155126496104e-31
-3.717003194520217863e-31
-2.882306800635206096e-31
-2.228799840548871057e-31
-1.706904637813757710e-31
