# bin_12_1
-4.861769142438537395e-49
-5.307127394924496319e-49
-5.651807364666618529e-49
-5.832048039588503966e-49
-5.799146760127061302e-49
-5.472461758204833685e-49
-4.877949710719494884e-49
-4.110403341311331513e-49
-3.361648197326309980e-49
-2.812152219377973115e-49
-2.435013138538294134e-49
-1.963870427388170598e-49
-1.370706608786350549e-49
-1.060788788972581287e-49
-7.978032944821807542e-50
-5.625644354160380361e-50
-4.027080516905662313e-50
-2.940978374872853840e-50
-2.104288795766280288e-50
-1.518329909554762959e-50
-1.114679403855388766e-50
-8.325190012156688926e-51
-6.330823084253848910e-51
-4.892833581886682467e-51
-3.822403708320202438e-51
-2.999863409852973104e-51
-2.348517816566103957e-51
-1.821444206634915819e-51
-1.391251713350864476e-51
-1.041508490642409896e-51
-7.612818902298225623e-52
