# bin_20_16
2.743068922601748070e-13
3.113133668391263907e-13
3.477663214697475255e-13
3.809548949440465790e-13
4.072350222093751343e-13
4.220303189507545761e-13
4.216972782070175067e-13
4.003358296220304059e-13
3.587960438745339336e-13
3.038553122157552152e-13
2.486885050880805573e-13
2.072447414600897887e-13
1.795964483014270542e-13
1.466987626565142076e-13
1.026029274544850034e-13
7.783949513082822239e-14
5.935550504331859316e-14
4.046639838203018570e-14
2.886125090584521475e-14
2.044106537833620706e-14
1.401147511866700763e-14
9.576835044293928208e-15
6.586731083323457826e-15
4.569063642285968499e-15
3.208791127010984353e-15
2.295941591905181621e-15
1.675089949891515236e-15
1.247453030469437352e-15
9.454847917113460301e-16
7.253216653444508056e-16
5.591115866477374934e-16
