# bin_16_3
2.201279763168417075e-55
2.449968947340715305e-55
2.672546427516070956e-55
2.842840385045347599e-55
2.928516932881928252e-55
2.905454502836478973e-55
2.733106848389043534e-55
2.428804867741197747e-55
2.040381996668506351e-55
1.668027301747611998e-55
1.399371063095447707e-55
1.212012058640843363e-55
9.686956565033898151e-56
6.715324057287453480e-56
5.250046401613041790e-56
3.873889626018372024e-56
2.747555522665450707e-56
1.920794713958665239e-56
1.391905639206072938e-56
9.806354518341379949e-57
6.929989318292743254e-57
4.971042422918580618e-57
3.617145585946314569e-57
2.680512332235977389e-57
2.024160983586256399e-57
1.551892332686518717e-57
1.202632990613420504e-57
9.356649740146158437e-58
7.255471869304601506e-58
5.569760248098218904e-58
4.209382837803347286e-58
