# bin_17_17
8.459591127708020726e-11
9.581304567591913124e-11
1.067597609659601212e-10
1.165836438991453670e-10
1.241414035606672191e-10
1.280143084644576856e-10
1.271483010143897017e-10
1.197456860647930616e-10
1.065217274663380688e-10
8.955953901879717305e-11
7.323242648951203847e-11
6.142650488278574787e-11
5.323424492272625536e-11
4.261944583340712420e-11
2.949193654546051809e-11
2.299383048530190268e-11
1.694144112806841275e-11
1.190092305293366257e-11
8.224013867033956288e-12
5.883651494957122813e-12
4.055088548071806663e-12
2.783258673719293826e-12
1.928949799137437283e-12
1.348196855470319319e-12
9.563346440192221268e-13
6.915490239486369416e-13
5.099461785636985277e-13
3.834062136136295769e-13
2.926906035377544244e-13
2.254500268939328071e-13
1.739104378125165885e-13
