# bin_14_1
4.088634680611736011e-63
4.510681201639497785e-63
4.867523536275080357e-63
5.108284963065108424e-63
5.179678904427159820e-63
5.026254381710926365e-63
4.605457052891081609e-63
3.990840836997992894e-63
3.292114063196153047e-63
2.702895936237968790e-63
2.315040080970499705e-63
1.972006258799176059e-63
1.464417130803491554e-63
1.034055294395566073e-63
8.421985622706714082e-64
5.655928895440001096e-64
4.316492642009913922e-64
2.998897310546337265e-64
2.119662618307232602e-64
1.521052119041453792e-64
1.098135378682460816e-64
8.030297457425130501e-65
5.965173382968077184e-65
4.518825534942824237e-65
3.476648916394487003e-65
2.703071207977259778e-65
2.110944469479884980e-65
1.643696702807907095e-65
1.267605015055318722e-65
9.625755139966235541e-66
7.164826822867817502e-66
