# bin_9_9
1.566927897981064595e-10
1.728451018731652231e-10
1.864894664235011538e-10
1.956748003747625128e-10
1.983658891865936004e-10
1.924267873645158920e-10
1.762584661940433631e-10
1.526846868171940484e-10
1.259349070188836227e-10
1.034134482891902729e-10
8.859086494981832848e-11
7.542376797668318761e-11
5.596289785606320536e-11
3.955507514449769064e-11
3.219625860464096910e-11
2.162627867424932254e-11
1.649732757944580878e-11
1.146894993085848314e-11
8.107670086124204342e-12
5.817980958182884167e-12
4.200828539911181754e-12
3.072778244012007596e-12
2.283309056623808040e-12
1.730193779497136512e-12
1.331473470136691923e-12
1.035377259794063623e-12
8.086239523450645086e-13
6.296226789013236745e-13
4.855082357038734380e-13
3.686149594546941534e-13
2.743125401519585327e-13
