# bin_8_3
5.026003302135423585e-19
5.406386867133201368e-19
5.653080813216338871e-19
5.709925663389594856e-19
5.510834201627862436e-19
5.021932897049334412e-19
4.328114084512936665e-19
3.561472832668821847e-19
2.930670368611050920e-19
2.516557253766392925e-19
2.126851375134275137e-19
1.560953386465314605e-19
1.120265105860185300e-19
9.065746767808264422e-20
6.137936491452688236e-20
4.687473341481416941e-20
3.323090771234589072e-20
2.385044930880611777e-20
1.742141612679802004e-20
1.286682250085631005e-20
9.663827069897075663e-21
7.381106311067694972e-21
5.732582502145199704e-21
4.499525746190131830e-21
3.545975956627194860e-21
2.786654817833795624e-21
2.168479056870742004e-21
1.660927061443833784e-21
1.245888359014031450e-21
9.116913827087582989e-22
6.493839576627432520e-22
