# bin_13_4
1.578565707346911785e-33
1.742383275433328365e-33
1.881384313761735759e-33
1.975973028140106872e-33
2.005323497258491338e-33
1.948453694851788925e-33
1.787837781617005990e-33
1.551434903867128315e-33
1.280740307188283392e-33
1.050927478998451700e-33
8.992567190501621569e-34
7.673629363233465472e-34
5.720618004696285235e-34
4.026760302419808898e-34
3.281965461450544497e-34
2.208124175753072312e-34
1.684515483618610615e-34
1.167557333534872348e-34
8.257268224387331099e-35
5.923715147774365183e-35
4.274723288964356862e-35
3.122903116173196400e-35
2.317099813864663394e-35
1.753374244535007780e-35
1.347813779841711755e-35
1.047289869620992939e-35
8.176699539542120060e-36
6.367471621090280698e-36
4.912564158532254989e-36
3.732928462837948944e-36
2.781019570219073569e-36
