# bin_18_6
1.862203716148873863e-42
2.088457958497314602e-42
2.299589996345466079e-42
2.474747210287617691e-42
2.587458513802882241e-42
2.612185548770148792e-42
2.517398799554825490e-42
2.289541705377248321e-42
1.968846888657542967e-42
1.618388568798895892e-42
1.334028834213516967e-42
1.149058391363794301e-42
9.680648518907836283e-43
7.023244070231694535e-43
5.055532377427748967e-43
4.071603960801031859e-43
2.700820049428845977e-43
2.040113074110819715e-43
1.418873449306066398e-43
9.841267350126745432e-44
6.911878946922192208e-44
4.866434356298492380e-44
3.468476345510869961e-44
2.507975788326893491e-44
1.850784678368227099e-44
1.391146837427427350e-44
1.062377332050857962e-44
8.203211243948878753e-45
6.359344372860516860e-45
4.913535832342873451e-45
3.758204355764717098e-45
