# bin_13_7
1.411796992480190587e-19
1.566868106133624573e-19
1.703306491632190953e-19
1.804045559346215128e-19
1.848640937381359851e-19
1.821420150677056913e-19
1.698578304713959961e-19
1.497278371941911109e-19
1.249057965837953643e-19
1.021267418855108625e-19
8.629266491857930933e-20
7.457529697607843241e-20
5.818578685795760141e-20
4.023836102338695608e-20
3.221137378074143062e-20
2.286904444202832789e-20
1.679599589922954656e-20
1.152543310769593640e-20
8.317480006906842133e-21
5.903735768951930692e-21
4.209172670247911502e-21
3.040315057822346310e-21
2.227305282457876032e-21
1.663465469345929288e-21
1.264757974105507303e-21
9.749089929238376873e-22
7.580359535870815170e-22
5.903323060461786525e-22
4.571796215620936108e-22
3.498270599299821871e-22
2.631202707850933131e-22
