# bin_19_17
1.934180394245980332e-11
2.194807661057924298e-11
2.451364951421121291e-11
2.684714948792792467e-11
2.869128933323946877e-11
2.972309187948444074e-11
2.968729202197660919e-11
2.816723388985009075e-11
2.523104785415204801e-11
2.135584062298985737e-11
1.747690840270842478e-11
1.457108506647417657e-11
1.262796206727966145e-11
1.030118901761285697e-11
7.197527890986542775e-12
5.471357872785338019e-12
4.162475775409178375e-12
2.843106664052748954e-12
2.022975059033349774e-12
1.434369210623250607e-12
9.835548756783963179e-13
6.723320902920712327e-13
4.626627520091238051e-13
3.211163449092243184e-13
2.256785716047085235e-13
1.616025577327088276e-13
1.179974891062625361e-13
8.793862918881452925e-14
6.669007828588313164e-14
5.117900680754465143e-14
3.945539587242887797e-14
