# bin_16_2
1.733201502097717138e-64
1.927359727445687174e-64
2.100251743206311343e-64
2.231158491447503236e-64
2.294675229169689719e-64
2.271879710479638699e-64
2.131472990165686996e-64
1.889482926762500067e-64
1.583793919994415171e-64
1.294663941185368534e-64
1.088499301348609392e-64
9.423708938957079769e-65
7.477984836281107807e-65
5.175584917260118561e-65
4.078708878104586609e-65
2.974541613434052139e-65
2.132602915133889957e-65
1.479830054095366831e-65
1.072578248432832097e-65
7.573054383231492794e-66
5.364946630934024072e-66
3.856941247144397972e-66
2.812375067762062389e-66
2.089225350384969528e-66
1.581072243351076224e-66
1.214286352771289891e-66
9.420568947130770509e-67
7.332083973740573129e-67
5.683680260992821733e-67
4.359014742522621900e-67
3.289608249766691846e-67
