# bin_18_11
6.949247676840967823e-20
7.831980540454987150e-20
8.674983560312246137e-20
9.404217749279233482e-20
9.923158870834115928e-20
1.012149299737061127e-19
9.905506870164865004e-20
9.160951558246916783e-20
8.011412499946442344e-20
6.643538144594070078e-20
5.440374316691395778e-20
4.632152839914099545e-20
3.985046594788781042e-20
3.030108281595627327e-20
2.102020289802097427e-20
1.707552756869254727e-20
1.160263198307233816e-20
8.723419398725383938e-21
5.895609808153453976e-21
4.125003614193694579e-21
2.888024757868263997e-21
2.021857403915009352e-21
1.422325823029821633e-21
1.010934432852873759e-21
7.325672160425779621e-22
5.412745775210004455e-22
4.073312884251384249e-22
3.113547140433216691e-22
2.402468119527274656e-22
1.857963756024635474e-22
1.429483672367459862e-22
