# bin_18_13
3.494875876278226879e-15
3.947052951031258509e-15
4.382837110029078762e-15
4.765883513864393121e-15
5.048120747930638319e-15
5.172078312743376339e-15
5.093682932331930260e-15
4.746475936744605049e-15
4.180695348561943964e-15
3.485060967792935704e-15
2.850356964902543915e-15
2.411966878315894571e-15
2.084691291340854613e-15
1.619694383086456450e-15
1.117645965811432251e-15
8.969538841831716104e-16
6.290175332952046919e-16
4.619031021524273971e-16
3.115761765990126977e-16
2.211259387917831740e-16
1.537749698206155688e-16
1.068138967804307434e-16
7.470218063495235578e-17
5.272024958772541621e-17
3.787653624842428105e-17
2.774892540004948770e-17
2.071989611490629512e-17
1.574240486684517200e-17
1.210335841071800243e-17
9.351663782643506135e-18
7.206905410974366880e-18
