# bin_13_3
3.127494227840070969e-40
3.446200721315945113e-40
3.713338589962770944e-40
3.889766565388411812e-40
3.935934688824751331e-40
3.807432155577017645e-40
3.477044874439477542e-40
3.002845763697833460e-40
2.472967021080169691e-40
2.033306964859038205e-40
1.745414856088564684e-40
1.480105706699102259e-40
1.089029671118223591e-40
7.753564715103087886e-41
6.296938761153529163e-41
4.216490551333703533e-41
3.216837160257360549e-41
2.247976761218737238e-41
1.587674489182246274e-41
1.139824442849451414e-41
8.237642002016907935e-42
6.038130352373302604e-42
4.497880872227872532e-42
3.416079711023858320e-42
2.633627983966354294e-42
2.050460576309935231e-42
1.602172146809470318e-42
1.247188874642946990e-42
9.608470224650888089e-43
7.284528696849609508e-43
5.410632554584398093e-43
