# bin_13_5
6.442055267254516989e-28
7.123260696099604529e-28
7.708419634085342288e-28
8.118237438365051147e-28
8.264304094271978731e-28
8.066910160247154930e-28
7.440001509425001907e-28
6.489204765034707778e-28
5.372662712159088130e-28
4.401384026443144682e-28
3.752118574939748928e-28
3.219235735742510546e-28
2.434469829298951572e-28
1.698411881539375514e-28
1.382556098284573062e-28
9.411699396169157311e-29
7.136445577581897487e-29
4.909369379852225241e-29
3.487722186669625989e-29
2.497080015034136969e-29
1.797778321793480140e-29
1.308716320628965348e-29
9.669957020795682808e-30
7.287861460482088620e-30
5.583711171161392164e-30
4.328655934840134652e-30
3.376008990059000982e-30
2.629619263982297123e-30
2.031582094054023908e-30
1.547364549973323556e-30
1.156399657651800382e-30
