# bin_8_8
1.766117998391337434e-10
1.936642671144490918e-10
2.074207397245082791e-10
2.156147387665514796e-10
2.162840380427169185e-10
2.065845753314917873e-10
1.862682987202703941e-10
1.587701533660303575e-10
1.301175876324227938e-10
1.078059451708207765e-10
9.314158252070270875e-11
7.722054940670601121e-11
5.502314272692151320e-11
4.082281737802232694e-11
3.213502338228595431e-11
2.183502287054808409e-11
1.626165129842413755e-11
1.164111042851745480e-11
8.259557191376246696e-12
5.934005931358701902e-12
4.315329278804846172e-12
3.192994298553974155e-12
2.404003980639051116e-12
1.842759870546308569e-12
1.430740161688826133e-12
1.118795247046761774e-12
8.751979265500614042e-13
6.799843746588264662e-13
5.214656448383831948e-13
3.926635063007733795e-13
2.891389745364357788e-13
