# bin_19_15
2.080979962397791812e-13
2.357424445662055356e-13
2.627469305343703393e-13
2.870192750391857714e-13
3.057518091894947201e-13
3.154542968340990290e-13
3.135223937729502528e-13
2.955166672668889234e-13
2.630887218699675088e-13
2.213572753104650016e-13
1.810145657991441253e-13
1.517286939414530621e-13
1.315003505102787737e-13
1.055151002854841041e-13
7.307620355303683034e-14
5.681639549481761935e-14
4.202019625011199439e-14
2.941641654730859502e-14
2.039129238068101064e-14
1.458043018840735227e-14
1.004290344379056986e-14
6.888534284140957250e-15
4.770329081836651715e-15
3.331522199161614945e-15
2.360733835074493815e-15
1.705254339313425815e-15
1.256100885981297091e-15
9.435212403213998495e-16
7.197895515189821323e-16
5.542330441560124880e-16
4.275245660828536954e-16
