# bin_12_12
1.174565552358600140e-10
1.312729957870551987e-10
1.439339528658559019e-10
1.540859889871761536e-10
1.600267289985704583e-10
1.603248539373959397e-10
1.528127439896122345e-10
1.374835283027247048e-10
1.169064958595493914e-10
9.574886413849170511e-11
7.949748239660953290e-11
6.879867975924351039e-11
5.674919875168418077e-11
4.009723226914011853e-11
2.998159310265257582e-11
2.333049666186991505e-11
1.581009505871167862e-11
1.158400420683983685e-11
8.238699108276083300e-12
5.749685961234805848e-12
4.038598333413172443e-12
2.863964363153190300e-12
2.061105466089883579e-12
1.507986853447442940e-12
1.125495916522133077e-12
8.545039388001883717e-13
6.576717057755666208e-13
5.101102480134751480e-13
3.958296459048832832e-13
3.051065525508549455e-13
2.321616134497985406e-13
