# bin_11_8
6.369536854362532717e-13
7.047079846810625628e-13
7.631325374833509215e-13
8.044080096786335110e-13
8.197100927678728698e-13
8.013000196862395490e-13
7.403041399846028213e-13
6.467757520809714137e-13
5.361043327082894143e-13
4.390306179215296461e-13
3.737498578392329855e-13
3.210784044055540130e-13
2.440125622507553982e-13
1.699391381183712643e-13
1.380281096083787182e-13
9.457079861578291939e-14
7.138112021970847302e-14
4.904127974927505897e-14
3.493850038819374279e-14
2.498094169836318827e-14
1.795944133285727743e-14
1.305858534795975869e-14
9.636302079989172524e-15
7.252720570503253755e-15
5.550567918189864941e-15
4.299459523491338170e-15
3.351859385431686096e-15
2.610852732488002722e-15
2.017898746711433874e-15
1.538067945197879584e-15
1.150603135943991416e-15
