# bin_11_3
7.987572292898771361e-31
8.728741012089336091e-31
9.308800878523063703e-31
9.623583070613058970e-31
9.591588296458697981e-31
9.080062956567035272e-31
8.117978187860655573e-31
6.860202645596477101e-31
5.611366450499827053e-31
4.679937607386746122e-31
4.050958144911626923e-31
3.294183316261404918e-31
2.309010330873935890e-31
1.766109980168337405e-31
1.346583689608357194e-31
9.380437264711379543e-32
6.791400153488819028e-32
4.937755149634197236e-32
3.523474241712485534e-32
2.537195989762018750e-32
1.857111028393437606e-32
1.383088266646941331e-32
1.048550162328500280e-32
8.083444384739061817e-33
6.301874816140408629e-33
4.938737400139965346e-33
3.863686734721161167e-33
2.996262668017050219e-33
2.289562970232020980e-33
1.715464982502299538e-33
1.255431170033524165e-33
