# bin_13_1
2.831265459661558649e-57
3.110423426276673569e-57
3.339083865613079709e-57
3.481274941369960099e-57
3.503917871619190260e-57
3.363004829300839668e-57
3.046604760366694418e-57
2.609500103918162331e-57
2.141770207084311137e-57
1.768820947877927363e-57
1.525347959704409397e-57
1.276510692257470667e-57
9.195494596121583788e-58
6.711369222138709606e-58
5.361864982475253625e-58
3.608216436648975646e-58
2.721530773783355928e-58
1.930519798587327259e-58
1.366205315282580078e-58
9.811092913765470731e-59
7.113715882696316044e-59
5.244863811849598460e-59
3.933447864281735526e-59
3.005192061510756113e-59
2.327530805309795032e-59
1.817447145529134886e-59
1.421383590609977824e-59
1.105300135228823706e-59
8.491903449223351809e-60
6.411270383447996769e-60
4.736592589748449942e-60
