# bin_9_1
1.221084580217020088e-34
1.311814026405710569e-34
1.369439852935105013e-34
1.380676029139365769e-34
1.328937872662034875e-34
1.207686648513843634e-34
1.037886429481385975e-34
8.530322242897138114e-35
7.029855169695054392e-35
6.046057914573890060e-35
5.087308360785576949e-35
3.707098314877037283e-35
2.681892906652748137e-35
2.159908108998467842e-35
1.463568733476015220e-35
1.114464829609357712e-35
7.938420864859642502e-36
5.699219557467051288e-36
4.164293799823605659e-36
3.079014331564169696e-36
2.316589718493497876e-36
1.772651592475010260e-36
1.378773603040821370e-36
1.083257915298159832e-36
8.540513568141188676e-37
6.710577946782115792e-37
5.218240270726571413e-37
3.992134134692808836e-37
2.989829568694074430e-37
2.183693730244365898e-37
1.552243273536650582e-37
