# bin_6_4
2.886169687730053110e-08
2.519099655487604288e-08
2.141620342583338653e-08
1.778647299685565139e-08
1.450041049607034049e-08
1.165675670004187515e-08
9.251195309256494142e-09
7.220321011965847555e-09
5.520986741436095903e-09
4.162668677339321832e-09
3.142088605500912189e-09
2.381341618747782296e-09
1.804771136455326012e-09
1.381388276482791963e-09
1.066618169103008755e-09
8.312452388249640815e-10
6.521033077099746822e-10
5.132224981888251652e-10
4.034686784823659570e-10
3.154153575690661497e-10
2.441777499445230486e-10
1.864979387153803683e-10
1.401129524374797923e-10
1.033071444358747029e-10
7.463959899929544384e-11
5.280569865140992924e-11
3.658512969509992691e-11
2.484362389971355291e-11
1.656076473246150851e-11
1.085873713465452959e-11
7.019301770170677654e-12
