# bin_20_19
7.965508666900554948e-08
7.577242698836123686e-08
7.032881902556603434e-08
6.357256510934178235e-08
5.590800314265158247e-08
4.785549368207613524e-08
3.997019756019247899e-08
3.272424613077135348e-08
2.638640982934580100e-08
2.099274914776890204e-08
1.642377247844664179e-08
1.257052073294532823e-08
9.438791539661069432e-09
7.049290558116965291e-09
5.272707169546973125e-09
3.926424803035160227e-09
2.934321753849976499e-09
2.207922235964690798e-09
1.672853932327451324e-09
1.276384928018602509e-09
9.791568094612655537e-10
7.529640596147169982e-10
5.783782763895700513e-10
4.421453256907041112e-10
3.351835544407511914e-10
2.511890312647314554e-10
1.856176824679895492e-10
1.349879300135416942e-10
9.648343593060083141e-11
6.773102683476265925e-11
4.669286206524822660e-11
