# bin_9_1
1.760670420874766173e-08
1.476849441057418633e-08
1.213356418448878331e-08
9.818162752154251683e-09
7.849375394476837523e-09
6.182564128136511999e-09
4.768637131312671134e-09
3.610377861088930829e-09
2.726919548661881700e-09
2.072061022396188350e-09
1.574427257406170158e-09
1.206445353910223864e-09
9.345400571170888492e-10
7.312541057956918302e-10
5.769934968205362758e-10
4.574515103578056725e-10
3.627396875561849860e-10
2.862994355216731886e-10
2.238881411706254868e-10
1.727674115135476126e-10
1.311150238872702803e-10
9.760817048024460050e-11
7.115501027776559993e-11
5.075018010981703424e-11
3.541678481101812090e-11
2.420620578519178370e-11
1.622948211025535618e-11
1.069716294907272217e-11
6.947635859274663761e-12
4.456857249668240073e-12
2.830072022327083217e-12
