# bin_19_3
3.130856857267702406e-08
2.731428972854394191e-08
2.318850941736495215e-08
1.922564786773834956e-08
1.565670485894162247e-08
1.258864245734001573e-08
9.996084900815708848e-09
7.788487048455326797e-09
5.927802435807207854e-09
4.456926815499957280e-09
3.369481882053059313e-09
2.549039417257513305e-09
1.930100066474319951e-09
1.478967858996016244e-09
1.142907626130770584e-09
8.920829468490674154e-10
7.012299876423465784e-10
5.530220086548802249e-10
4.355997990650932921e-10
3.410952243209915461e-10
2.643761171377953363e-10
2.020560000356083314e-10
1.518053051231209885e-10
1.118563318130679133e-10
8.071116691418539456e-11
5.699328848099945143e-11
3.939436952273301502e-11
2.668252865621134388e-11
1.774062394043136678e-11
1.160422675438113088e-11
7.485198630702826760e-12
