# bin_14_7
4.779082043582524849e-08
4.340589272408492086e-08
3.835637496400311797e-08
3.297581059703492092e-08
2.763901860461322218e-08
2.268755794935789768e-08
1.833608943997912620e-08
1.463582531386545295e-08
1.150738202973837163e-08
8.856968157894031189e-09
6.680189854499702287e-09
5.013533727687946668e-09
3.781802193836362294e-09
2.843530299057639962e-09
2.149864207700948884e-09
1.640196970758639939e-09
1.262031886510203554e-09
9.787326430764600233e-10
7.632630663959080366e-10
5.962969378083639930e-10
4.647306334151883200e-10
3.598029588585240910e-10
2.756439958189592676e-10
2.082494612462030946e-10
1.547398778253091167e-10
1.128583954493710596e-10
8.069124460202258183e-11
5.652664801016593474e-11
3.880664882508731902e-11
2.613307840977022870e-11
1.728911694164359689e-11
