# bin_6_1
1.647527110699353979e-08
1.378991929783417694e-08
1.131138062588800203e-08
9.140583158303618724e-09
7.296630646892047168e-09
5.736893434152781481e-09
4.418683713923568767e-09
3.345035084127011971e-09
2.528394824579772066e-09
1.922245760842781433e-09
1.462176224803154430e-09
1.122109864811356585e-09
8.703733394131677303e-10
6.818370506906337578e-10
5.383888182172722915e-10
4.269221859738647303e-10
3.384020652849766317e-10
2.668495536793936891e-10
2.083980982247974463e-10
1.605435974421361001e-10
1.216046709687223240e-10
9.034289303613856887e-11
6.572195157172654902e-11
4.678076192216305341e-11
3.258557037597459998e-11
2.223389568758641042e-11
1.488558143259428794e-11
9.799513828949708969e-12
6.358363826473553767e-12
4.075656715086246569e-12
2.586446851012677430e-12
