# bin_9_6
3.947481162558070001e-08
3.532239090058188925e-08
3.075586739943267487e-08
2.608362193399377218e-08
2.161634658448881944e-08
1.759326680100765798e-08
1.412435042559026705e-08
1.119170313711029174e-08
8.712541174126663274e-09
6.640152711116039469e-09
4.993648886210663110e-09
3.763198349172839946e-09
2.842965792496348183e-09
2.146273014241430879e-09
1.636920328932742406e-09
1.258046700800570415e-09
9.758089789620785513e-10
7.617837435403714265e-10
5.966538969663019768e-10
4.669207689571657441e-10
3.635043355025347240e-10
2.803792638976125730e-10
2.134851940183669079e-10
1.599857992950194130e-10
1.177335029944495693e-10
8.494729118168608059e-11
6.004651026389677860e-11
4.158179576891329524e-11
2.822955827738951490e-11
1.881447271565908258e-11
1.233341590409879002e-11
