# bin_12_7
4.605970007846327629e-08
4.172938646190217370e-08
3.678617696784247637e-08
3.155745534222221394e-08
2.640374909220156004e-08
2.164514082649467590e-08
1.747525825751157395e-08
1.393238456561422316e-08
1.093768479141629270e-08
8.406783976494853323e-09
6.338553846515912554e-09
4.759925802129996309e-09
3.591424144195051675e-09
2.702269912016239331e-09
2.045711606265793934e-09
1.562531692323297907e-09
1.203739561766367401e-09
9.344475420606078382e-10
7.291839953618307930e-10
5.697900242437226851e-10
4.439695388629638749e-10
3.435081784420975931e-10
2.628966117440955221e-10
1.983622898106959599e-10
1.471712075501396270e-10
1.071617053588740957e-10
7.648756522988919143e-11
5.349121316418655951e-11
3.666374448254046537e-11
2.465386106504841658e-11
1.628961596097295704e-11
