# bin_4_3
2.244412026091154307e-08
1.924218561060537606e-08
1.609933864565135636e-08
1.320072421078907222e-08
1.065875447759547977e-08
8.497085978429502843e-09
6.674047541946613572e-09
5.142219940846146824e-09
3.895013840827053970e-09
2.939341913978658028e-09
2.230210671404342764e-09
1.693842766548220332e-09
1.295085167663472760e-09
1.000776885615496006e-09
7.802531408289704217e-10
6.130238917392427544e-10
4.836783074590008827e-10
3.815907869531189114e-10
2.996554144964116404e-10
2.332069516911386821e-10
1.791751351721312301e-10
1.354672759006551718e-10
1.005403179560163886e-10
7.312348379126966754e-11
5.207088941535505442e-11
3.630180899385111153e-11
2.479593545628870085e-11
1.661799237655389282e-11
1.094911001050605487e-11
7.108133506857952032e-12
4.557305476345837709e-12
