# bin_10_1
1.786997752301448900e-08
1.499619925540469446e-08
1.232487829109334311e-08
9.975828953992288325e-09
7.977993764741800321e-09
6.286267422825288871e-09
4.850067948250054489e-09
3.672120591511845320e-09
2.773114351896088104e-09
2.106921597622515925e-09
1.600546993064282568e-09
1.226069407232457926e-09
9.494710295038290143e-10
7.427529729588404987e-10
5.859764283838062287e-10
4.645553856860486733e-10
3.684028146420355917e-10
2.908252337134483966e-10
2.274925240664782739e-10
1.756117752398181147e-10
1.333279918955239326e-10
9.929873135431290849e-11
7.241923160160022240e-11
5.167382634521220234e-11
3.607558187932770185e-11
2.466514393959266911e-11
1.654219530041333105e-11
1.090603757529880169e-11
7.084754009218371322e-12
4.545559093305007074e-12
2.886761352594431879e-12
