# bin_17_6
4.570796297876091969e-08
4.128941075544066575e-08
3.627452902535064160e-08
3.100410097938545475e-08
2.585098943927223685e-08
2.113539518960265460e-08
1.703554209629943789e-08
1.356474471231816760e-08
1.062262031213143248e-08
8.129796600143627030e-09
6.111343674653478371e-09
4.595422098334023180e-09
3.468587461313362810e-09
2.607971692784725372e-09
1.980243105362608121e-09
1.514736660472530123e-09
1.170095319998846661e-09
9.105927228498414974e-10
7.120426225459788369e-10
5.572402113038323105e-10
4.345455587661568583e-10
3.362362360056069327e-10
2.571449869356510545e-10
1.937398690160721612e-10
1.434349709884708047e-10
1.041556025589857810e-10
7.410222089572431046e-11
5.163782592924500687e-11
3.526085511430729277e-11
2.362252253105754020e-11
1.555383125149389514e-11
