# bin_13_5
3.929606305183729821e-08
3.506056518312487274e-08
3.042586023816835914e-08
2.571321704737887365e-08
2.124357145608685954e-08
1.725199333413654355e-08
1.383291043840599096e-08
1.094499027332556098e-08
8.493475181346279410e-09
6.445656964180478124e-09
4.841025862897331560e-09
3.654965391541239502e-09
2.758444021189729283e-09
2.084827156780900802e-09
1.593407267325953402e-09
1.227365508146162234e-09
9.541574505853692034e-10
7.465606479572529256e-10
5.857697783924029002e-10
4.589269957576007539e-10
3.574351329417686146e-10
2.756093651313836369e-10
2.096306584466100988e-10
1.568220423847874739e-10
1.151303665712123884e-10
8.282617127417990273e-11
5.835160216877586890e-11
4.026285464820387110e-11
2.723434731201534267e-11
1.808763164524567309e-11
1.181924097323033088e-11
