# bin_11_4
3.366296594995813802e-08
2.965070742620481180e-08
2.541145645434364695e-08
2.124048355582809761e-08
1.739953752027009410e-08
1.404382456441885430e-08
1.119864164730479640e-08
8.791681528206481326e-09
6.753669747300165435e-09
5.093097924881066194e-09
3.835259422558059095e-09
2.903447751873265108e-09
2.192643836060510284e-09
1.670407313468679364e-09
1.284052343817583499e-09
9.966594055372917402e-10
7.795720021385370699e-10
6.127010150449037442e-10
4.818287316183850809e-10
3.774169298161986574e-10
2.931849695820801033e-10
2.249764576943746438e-10
1.699695308858982697e-10
1.261030223945501942e-10
9.170786919722337140e-11
6.530816317420955995e-11
4.553277873173306021e-11
3.109894269769140506e-11
2.083649680655310868e-11
1.372156978069837892e-11
8.901477007924344262e-12
