# bin_9_4
3.221308230200461937e-08
2.830396613825973110e-08
2.420497099567537870e-08
2.019744164845942388e-08
1.652405881482241332e-08
1.332297722293259873e-08
1.061055112414327526e-08
8.317161388482713810e-09
6.381423447893993546e-09
4.812126243326286192e-09
3.625935150480506423e-09
2.745781776414073685e-09
2.075513775257751924e-09
1.583129154333525848e-09
1.218391462600181311e-09
9.467075685502407228e-10
7.410789679480560176e-10
5.826604730735397581e-10
4.581655524829090730e-10
3.586936883072556575e-10
2.783857632028765639e-10
2.133567075800113612e-10
1.609534333897054484e-10
1.192191146229079681e-10
8.655358439199618964e-11
6.153266090394394645e-11
4.283076059550423651e-11
2.920995562492862131e-11
1.954530655746456799e-11
1.285704803889959011e-11
8.333095160103090431e-12
