# bin_3_7
-4.774655657379018493e-18
-5.083868022391377477e-18
-5.247372167951694642e-18
-5.220870806318549294e-18
-4.933242178553171966e-18
-4.403096390325337288e-18
-3.715683175516314437e-18
-3.037985051477679911e-18
-2.534622787614708393e-18
-2.191715246255063819e-18
-1.776975193679137398e-18
-1.248369691690037496e-18
-9.581552739099754853e-19
-7.296699356959845955e-19
-5.136504230119925979e-19
-3.741514955089568365e-19
-2.743686679022674162e-19
-1.988057786912474385e-19
-1.459263143817730558e-19
-1.090877699047124853e-19
-8.305808724124684189e-20
-6.432435552052619561e-20
-5.048977304395271913e-20
-3.990253756772990091e-20
-3.153279514965616758e-20
-2.474258693462313873e-20
-1.915073662437061059e-20
-1.454081358271349725e-20
-1.078293959617858301e-20
-7.785408511905484869e-21
-5.468170867212093205e-21
