# bin_20_11
-4.532140143125996525e-10
-5.035832083324715710e-10
-5.482317036382850637e-10
-5.817224234725405653e-10
-5.974635728564199912e-10
-5.904358611064651635e-10
-5.527298760913343041e-10
-4.889357812548277036e-10
-4.091404424713117241e-10
-3.344314984891191091e-10
-2.815670510508623282e-10
-2.435120405817418649e-10
-1.921536608927333801e-10
-1.331082113718818445e-10
-1.052444653624525554e-10
-7.613114522434816639e-11
-5.493656129096545122e-11
-3.809567147607064901e-11
-2.750548155887180099e-11
-1.944833458260800379e-11
-1.380517251393659792e-11
-9.934552470189691219e-12
-7.253791554117976931e-12
-5.396540362955323095e-12
-4.089250414924705891e-12
-3.144350869429774364e-12
-2.441464944251108888e-12
-1.901037808131267905e-12
-1.473793113087435260e-12
-1.130107054115927167e-12
-8.525369306405261817e-13
