# bin_12_13
-5.564113325926155628e-12
-6.209743413164973750e-12
-6.796860767405810521e-12
-7.260662504415623105e-12
-7.519983585546568639e-12
-7.509864072710330138e-12
-7.126623708447140037e-12
-6.384608315989421458e-12
-5.405613544637530316e-12
-4.422180748095749929e-12
-3.682385052398396447e-12
-3.188972863777443059e-12
-2.605897874012305978e-12
-1.826924718418448958e-12
-1.385445838018413981e-12
-1.061153621167136907e-12
-7.279839515820121557e-13
-5.254179953578585183e-13
-3.764414640439356886e-13
-2.633619957488453879e-13
-1.851214096492819673e-13
-1.317002869144976402e-13
-9.508946757954142547e-14
-6.984981235634888914e-14
-5.232110344396678539e-14
-3.985415313950115156e-14
-3.075138957120873904e-14
-2.388591652863441359e-14
-1.854131062140672499e-14
-1.428270516149720337e-14
-1.085263244220834526e-14
