# bin_20_15
-1.818926035606141266e-10
-2.047091134384477897e-10
-2.263642035950810323e-10
-2.448915183963019514e-10
-2.577490817062862995e-10
-2.621450833861119925e-10
-2.554836158622269681e-10
-2.351669930601836870e-10
-2.046888810396586962e-10
-1.692489573597043193e-10
-1.387445132581291465e-10
-1.185036424501576606e-10
-1.014758965368933032e-10
-7.619406844588124660e-11
-5.322035828059696155e-11
-4.329460663065146507e-11
-2.908741301928869115e-11
-2.198304533139662710e-11
-1.495509019428683351e-11
-1.041391563541907371e-11
-7.300053081036399732e-12
-5.117974076543263943e-12
-3.610368215291096685e-12
-2.577203257105871043e-12
-1.875821096374664282e-12
-1.392069957424619613e-12
-1.051796359964006355e-12
-8.063559530809388955e-13
-6.232382660758004955e-13
-4.821364701882052436e-13
-3.706063649741190665e-13
