# bin_3_8
-3.169793387130563223e-21
-3.398284067488631170e-21
-3.538338978201901001e-21
-3.556738973671780908e-21
-3.408928713099185624e-21
-3.084312422893606542e-21
-2.638679319821227297e-21
-2.164469697311452110e-21
-1.787516987626171719e-21
-1.540461844299004210e-21
-1.286925586137857358e-21
-9.279834162557579799e-22
-6.797354450659599671e-22
-5.424402600197870154e-22
-3.688477995304923272e-22
-2.790071324994026875e-22
-2.001422180707508223e-22
-1.438402442580780529e-22
-1.051587749270203305e-22
-7.791729662308578332e-23
-5.879126822011094098e-23
-4.513435381294541002e-23
-3.519566183456828107e-23
-2.770650604058129447e-23
-2.187108390484909698e-23
-1.719212433243440371e-23
-1.336495818263601396e-23
-1.021545282720748912e-23
-7.639961479358833758e-24
-5.570141222257067243e-24
-3.951910486061039758e-24
