# bin_18_3
-2.289966576331800746e-09
-2.357081274266636439e-09
-2.336809604445471887e-09
-2.200589403634211779e-09
-1.958793178492666939e-09
-1.651171364861869500e-09
-1.352125213384373211e-09
-1.130433551788835241e-09
-9.730858012594198115e-10
-7.826076460883207081e-10
-5.559610029967127351e-10
-4.268526098338338638e-10
-3.229390138846724477e-10
-2.307401599685817269e-10
-1.693979440605227699e-10
-1.243493505286926067e-10
-9.140410417878166684e-11
-6.827580462827860123e-11
-5.193324579783340220e-11
-4.022027546713514994e-11
-3.162941027908869034e-11
-2.512711938389687690e-11
-2.001840435971142400e-11
-1.587851087780602127e-11
-1.245362263136921751e-11
-9.598175334150645470e-12
-7.232414505119600191e-12
-5.309402025887345413e-12
-3.790522953624051510e-12
-2.633383780774669017e-12
-1.784161575134682859e-12
