# bin_16_16
-1.845422475723099563e-11
-2.079304942670906360e-11
-2.302428768390227861e-11
-2.495094669663966816e-11
-2.631647691785643956e-11
-2.682900901174007995e-11
-2.623927687472906105e-11
-2.424829764821890065e-11
-2.118797342696037180e-11
-1.755938315594006117e-11
-1.437740969909263341e-11
-1.224420133314894297e-11
-1.052711060757924826e-11
-7.991775073457787266e-12
-5.547081122602120202e-12
-4.505813620368065880e-12
-3.058188002655593457e-12
-2.299278104801709530e-12
-1.554916354910790670e-12
-1.087490787169338078e-12
-7.610796403611925125e-13
-5.325966696083918052e-13
-3.745663705380456708e-13
-2.663198108469132338e-13
-1.929909368958383217e-13
-1.426121247870813678e-13
-1.073491256783792989e-13
-8.207534626442338042e-14
-6.334659763785662385e-14
-4.900252192879752177e-14
-3.771231250230064774e-14
