# bin_19_10
-5.212166473495161924e-10
-5.765750994165415144e-10
-6.242761413416148948e-10
-6.579198597559745182e-10
-6.703118480591372265e-10
-6.551036124018148564e-10
-6.051336213260262057e-10
-5.285409789517378314e-10
-4.380794206131342412e-10
-3.587327875444314589e-10
-3.052776348379368257e-10
-2.620711532141282056e-10
-1.992458434219793342e-10
-1.389291631225911849e-10
-1.125277766407211328e-10
-7.735326164585093683e-11
-5.815510928498983215e-11
-4.003716151474462152e-11
-2.854777129686531221e-11
-2.039095615583958613e-11
-1.464462159687390308e-11
-1.064386164867752035e-11
-7.855323919848316256e-12
-5.911120804339985258e-12
-4.523562425060632126e-12
-3.504400520672525655e-12
-2.732650961598136675e-12
-2.129316047159896976e-12
-1.646587151644779910e-12
-1.255897741242212990e-12
-9.402795343417014788e-13
