# bin_4_11
-1.016246117785935715e-27
-1.110351189767890283e-27
-1.183903557931220545e-27
-1.223648527117949800e-27
-1.219242321677862247e-27
-1.153818657503291434e-27
-1.031103934391518552e-27
-8.709389573006074052e-28
-7.121070520525967726e-28
-5.938165545379270242e-28
-5.140209442165083560e-28
-4.178289609706383357e-28
-2.926606035243485818e-28
-2.239150372165349692e-28
-1.706332594148493326e-28
-1.188601514606222825e-28
-8.599798450447286839e-29
-6.253425441996571201e-29
-4.461859372489638391e-29
-3.212553447340487940e-29
-2.351601151230268958e-29
-1.751622119939777809e-29
-1.328376149946908957e-29
-1.024349402716715423e-29
-7.989575656190386132e-30
-6.264764404556567092e-30
-4.903998385912698945e-30
-3.805611728823035852e-30
-2.910243725902169254e-30
-2.182348304977193230e-30
-1.598562625754800603e-30
