# bin_18_11
-3.858704821542641580e-10
-4.287299235004962438e-10
-4.667079122826043109e-10
-4.951736338898686290e-10
-5.085163426182505455e-10
-5.024620397858196014e-10
-4.702881422605778281e-10
-4.159378553615909635e-10
-3.480041439396797681e-10
-2.844592837036265562e-10
-2.395301571101500126e-10
-2.071470763025406842e-10
-1.633766283172615575e-10
-1.131663229252174302e-10
-8.952169376830063610e-11
-6.470631553345337907e-11
-4.672511763975475478e-11
-3.238866610218341404e-11
-2.338395415295611158e-11
-1.653665563887914661e-11
-1.174032136574811105e-11
-8.449880569683429360e-12
-6.170662153434550749e-12
-4.591494162707421836e-12
-3.479735419324414185e-12
-2.675987524585286028e-12
-2.077951512647290768e-12
-1.618026778898301772e-12
-1.254356127479451978e-12
-9.617788775986366893e-13
-7.254804328291844228e-13
