# bin_11_13
-5.622809553999683715e-13
-6.267195658480072984e-13
-6.848947874868551386e-13
-7.301939007531172226e-13
-7.543745100843812112e-13
-7.511066728198768569e-13
-7.098862954689612829e-13
-6.335634205180274058e-13
-5.343980028427950791e-13
-4.369194276749714318e-13
-3.650008637072960572e-13
-3.161844433173092757e-13
-2.558926639786858196e-13
-1.783021000564700040e-13
-1.371078975439576383e-13
-1.033125492601938221e-13
-7.187032278130205851e-14
-5.110616032229003766e-14
-3.684657138324021546e-14
-2.585366322287699301e-14
-1.820427156010775366e-14
-1.299754503749738144e-14
-9.417107653743210595e-15
-6.944907302168056374e-15
-5.221214109753202837e-15
-3.989371935154373004e-15
-3.084875600283483626e-15
-2.398551723355662811e-15
-1.861554415945687281e-15
-1.432239909256506480e-15
-1.086030650089915056e-15
