# bin_15_16
-4.794802773280580407e-12
-5.398460632787896135e-12
-5.972448513566035488e-12
-6.465151397563647521e-12
-6.809689094098950179e-12
-6.931520307384016060e-12
-6.763791198407797365e-12
-6.234165759181065685e-12
-5.433420143247600432e-12
-4.495573327028493541e-12
-3.683327464154851522e-12
-3.143213480499176158e-12
-2.696243807789966151e-12
-2.031688670367717728e-12
-1.414850457182564791e-12
-1.151964094670899824e-12
-7.750641018965952668e-13
-5.858600559548780950e-13
-3.974798846817932542e-13
-2.768838699648374529e-13
-1.940911920600854489e-13
-1.360616097923678246e-13
-9.588458345790913593e-14
-6.835239809213558775e-14
-4.967867583846867705e-14
-3.681643179995288276e-14
-2.778427582227112057e-14
-2.128337879652658169e-14
-1.644401291628886443e-14
-1.272220648161594404e-14
-9.784068303030967640e-15
