# bin_20_1
-3.858828929971380783e-09
-3.722785940415509605e-09
-3.400937482464331091e-09
-2.941650726081710181e-09
-2.435186446440766573e-09
-2.007801282314072453e-09
-1.708280944444664841e-09
-1.433666441241623675e-09
-1.080426245380761868e-09
-7.848560584581041556e-10
-6.154827007429715178e-10
-4.433487979458008161e-10
-3.299168327464424241e-10
-2.412349560246811000e-10
-1.795761160281094024e-10
-1.353274767659864142e-10
-1.038324131495507864e-10
-8.116878769165616191e-11
-6.442385843980049309e-11
-5.164276535460195857e-11
-4.149927816216128428e-11
-3.317813070421188626e-11
-2.620626996710243692e-11
-2.032383610988704281e-11
-1.539892815265058379e-11
-1.136056312579073741e-11
-8.150644409343165980e-12
-5.690642091781220751e-12
-3.875407180976492540e-12
-2.582316249501866931e-12
-1.689267779572606825e-12
