# bin_19_12
-3.370510189173284568e-10
-3.759339880624681783e-10
-4.111748066212121059e-10
-4.388309650926395043e-10
-4.539818234703521036e-10
-4.527346376129040808e-10
-4.288500353183416204e-10
-3.835594182665989978e-10
-3.242413592829869394e-10
-2.652219082000884559e-10
-2.211789831896621424e-10
-1.915130257321645997e-10
-1.557829662576498523e-10
-1.090294605656192097e-10
-8.315661804652446295e-11
-6.321513672334929536e-11
-4.366730296468601504e-11
-3.132215430134632150e-11
-2.247622219991720094e-11
-1.574589973706617531e-11
-1.108180567151156281e-11
-7.896506553934918643e-12
-5.709764542861427576e-12
-4.201261783980927332e-12
-3.151815799229468933e-12
-2.403859437890094718e-12
-1.856398913137234644e-12
-1.442427938043400880e-12
-1.119484133420662437e-12
-8.618230691735165863e-13
-6.542139518368569930e-13
