# bin_11_19
-9.086811273553105931e-25
-1.023810270444358312e-24
-1.133626434157303096e-24
-1.228425493488473264e-24
-1.295573425865062605e-24
-1.320687575908140838e-24
-1.291518059058376517e-24
-1.193315302858406792e-24
-1.042553119643020914e-24
-8.638490291153449088e-25
-7.072849599727905111e-25
-6.024617408841388986e-25
-5.180179923234497144e-25
-3.930233032656377457e-25
-2.727225167442803335e-25
-2.217272264163299221e-25
-1.502345171101950004e-25
-1.131263791409856953e-25
-7.647163919266047957e-26
-5.343485710688041718e-26
-3.741374069685069380e-26
-2.619542044149673136e-26
-1.842545476735242591e-26
-1.310260255303420251e-26
-9.496935756235108485e-27
-7.019371627198918457e-27
-5.284847410905807062e-27
-4.041346709473464112e-27
-3.119573964998557528e-27
-2.413367016549428386e-27
-1.857350414162836304e-27
