# bin_14_5
-1.229303966692890333e-09
-1.308210346207330240e-09
-1.349545311235710178e-09
-1.341525055324948406e-09
-1.266669111290837572e-09
-1.129938634044578214e-09
-9.535772182775675513e-10
-7.802552195780520247e-10
-6.514386145901518685e-10
-5.623592612070207315e-10
-4.547028352986052274e-10
-3.209355855430567477e-10
-2.460153415324116083e-10
-1.867567300809035590e-10
-1.319869738599929597e-10
-9.629001595479995035e-11
-7.029541360429414751e-11
-5.097881863929079906e-11
-3.747814891942766507e-11
-2.802802445310848103e-11
-2.134271666998398268e-11
-1.652938846665302711e-11
-1.297330946556389665e-11
-1.025102808235315894e-11
-8.098493359935118585e-12
-6.352243023448903198e-12
-4.914605733398818894e-12
-3.729983127547627846e-12
-2.764946582450233912e-12
-1.995815202175665076e-12
-1.401644319686439481e-12
