# bin_11_3
-1.823445725003632592e-09
-1.876275546803225574e-09
-1.859368727189985247e-09
-1.750045668023332725e-09
-1.556951677965299809e-09
-1.311836149180974668e-09
-1.074196144416477187e-09
-8.984209119098185927e-10
-7.733309850871305528e-10
-6.211992448389543791e-10
-4.410783567102096722e-10
-3.391015294308218690e-10
-2.561422106971654784e-10
-1.832242330833710388e-10
-1.344056211374507444e-10
-9.870107606897837786e-11
-7.257153707247458275e-11
-5.422221869374688860e-11
-4.125607858206037793e-11
-3.196032645370262659e-11
-2.513987090257054424e-11
-1.997472520536943020e-11
-1.591443592728680286e-11
-1.262271918188352330e-11
-9.898740152056320083e-12
-7.627442686960978333e-12
-5.745805701101052593e-12
-4.216696105733848961e-12
-3.009397940402566774e-12
-2.090046956517424529e-12
-1.415644298909248335e-12
