# bin_3_3
-1.504950518102771153e-10
-1.534598861451223289e-10
-1.502817040845761399e-10
-1.393529814082296823e-10
-1.222088200723198075e-10
-1.017308161298701477e-10
-8.329987065544154357e-11
-7.045498648437829919e-11
-6.040147924297113493e-11
-4.678492465251898791e-11
-3.299621910201720353e-11
-2.623972206251959906e-11
-1.891317881126224065e-11
-1.402235142435675553e-11
-1.007770283709985116e-11
-7.451362203944150970e-12
-5.527892040266663230e-12
-4.163267032166420388e-12
-3.195229784934108142e-12
-2.494597777729748751e-12
-1.974919187677585505e-12
-1.575186813047700854e-12
-1.256390260033506964e-12
-9.949507039725992291e-13
-7.770330627008800068e-13
-5.949728229659802951e-13
-4.445890081787054988e-13
-3.232944529520510182e-13
-2.285777928518262076e-13
-1.573569420763960979e-13
-1.057659079009381971e-13
