# bin_13_11
-1.453758373307554192e-10
-1.614199180684588516e-10
-1.755810042257489248e-10
-1.861078095682054195e-10
-1.908931087304056866e-10
-1.883238865527583873e-10
-1.759154782310864092e-10
-1.552955701535852978e-10
-1.297220570259874402e-10
-1.060383165586344235e-10
-8.943668777787630266e-11
-7.730547599561385057e-11
-6.063821335770919516e-11
-4.197406095579565219e-11
-3.338428047020785379e-11
-2.392144342112908095e-11
-1.740719234465396806e-11
-1.201516526743752961e-11
-8.669910348674421218e-12
-6.141500257428230713e-12
-4.368291770651734041e-12
-3.149051847970491015e-12
-2.303358911693274508e-12
-1.716976124176438106e-12
-1.303311839757121717e-12
-1.003534261005961466e-12
-7.798766879359419656e-13
-6.074110325021862772e-13
-4.707616686605475248e-13
-3.606978297950497639e-13
-2.717849917353133001e-13
