# bin_4_7
-3.320771238108723624e-15
-3.553615442433775896e-15
-3.691415816510034687e-15
-3.700620001791767157e-15
-3.533450719109783214e-15
-3.185466912922302717e-15
-2.715254833062391178e-15
-2.225140004767964949e-15
-1.842412889029127749e-15
-1.589534870043220630e-15
-1.317973837863090681e-15
-9.434277698060741617e-16
-6.995082194268451478e-16
-5.517683811841801933e-16
-3.782648551860031668e-16
-2.834005845541361351e-16
-2.045656024122857345e-16
-1.473096287029390623e-16
-1.077772766294552920e-16
-8.003717618564700078e-17
-6.053479905812886575e-17
-4.658100852598836476e-17
-3.638795782159776867e-17
-2.867602432599148550e-17
-2.264388375718188210e-17
-1.779185203003286874e-17
-1.381564739677522692e-17
-1.054171126697188729e-17
-7.866539740074612892e-18
-5.720736096611544755e-18
-4.048047534154149924e-18
