# bin_10_16
-2.826686136312441707e-20
-3.165434606465022679e-20
-3.479192718640279924e-20
-3.735930565308792190e-20
-3.895201370768906967e-20
-3.919896707047978518e-20
-3.760368818292441416e-20
-3.403888984560440217e-20
-2.912827371224093096e-20
-2.389355423941271867e-20
-1.974252752427138339e-20
-1.704451672338254678e-20
-1.424583109557354835e-20
-1.021274433424968067e-20
-7.460246189454488844e-21
-5.936847645312201725e-21
-3.959920942042115354e-21
-2.961808192535504217e-21
-2.077345911808267866e-21
-1.443421449375100878e-21
-1.013266933562785217e-21
-7.148023028479135752e-22
-5.112113669436378059e-22
-3.713978005393962502e-22
-2.752760735485251557e-22
-2.077691651991210389e-22
-1.592141363237650755e-22
-1.232121845849184440e-22
-9.560615770290377030e-23
-7.384632694911401059e-23
-5.640552835904110113e-23
