# bin_10_13
-2.197711923644805850e-14
-2.445977402359667278e-14
-2.668209746018610244e-14
-2.838295472486993753e-14
-2.923973942253227804e-14
-2.901137294682402210e-14
-2.729357181731178326e-14
-2.425486138746595908e-14
-2.037570085828934407e-14
-1.665246967064825340e-14
-1.396352693475804343e-14
-1.209338641601728083e-14
-9.672784269521134795e-15
-6.706689942906894193e-15
-5.235455243100235336e-15
-3.868442604628486477e-15
-2.739028495246894267e-15
-1.917521493900788370e-15
-1.388095527164836500e-15
-9.774376380956057551e-16
-6.904298512493372450e-16
-4.949436684778672867e-16
-3.599772218137042665e-16
-2.666344245346640154e-16
-2.012548346475038731e-16
-1.542743533375133794e-16
-1.195589338414408452e-16
-9.304263916731791800e-17
-7.218471944381219847e-17
-5.545361362512380207e-17
-4.194768966230536594e-17
