# bin_1_13
-7.641490004296069042e-60
-8.373355032045334365e-60
-8.960369420859206258e-60
-9.304171621950989597e-60
-9.321239755145689898e-60
-8.887544014839269613e-60
-7.998833388568841490e-60
-6.804900735887000770e-60
-5.572039585032317268e-60
-4.620170527902360895e-60
-3.994112512156443145e-60
-3.301037408308311713e-60
-2.342666975734098468e-60
-1.747015853165943836e-60
-1.368537936441947356e-60
-9.324580861598390077e-61
-6.914681874699755049e-61
-4.964255533773261519e-61
-3.524510087197233270e-61
-2.532159940769478618e-61
-1.843151799530198193e-61
-1.365395223792596748e-61
-1.029604094445164501e-61
-7.902195424592557842e-62
-6.142640373184188402e-62
-4.807985191992871349e-62
-3.763595919287330029e-62
-2.925293012201742831e-62
-2.243767494466241859e-62
-1.689592650171236659e-62
-1.243990847819585929e-62
