# bin_18_4
-1.807738655401757808e-09
-1.896576978403340277e-09
-1.923632715745162451e-09
-1.868954018381647976e-09
-1.716948088768159656e-09
-1.491845532101142479e-09
-1.234216015800115713e-09
-1.013015437685510427e-09
-8.631970176877046286e-10
-7.344617626039304964e-10
-5.540423268608093744e-10
-3.937729472708957078e-10
-3.158859061282689680e-10
-2.212214541414539970e-10
-1.663577140733153634e-10
-1.184759561628846121e-10
-8.662685864317816064e-11
-6.386668322427707210e-11
-4.772217228120787307e-11
-3.629767838353534873e-11
-2.808022041185688072e-11
-2.205002936549333191e-11
-1.746601037829928785e-11
-1.385738342381038708e-11
-1.093482889116251415e-11
-8.523779092477986795e-12
-6.525007124505772345e-12
-4.881750704253763653e-12
-3.557585904842922813e-12
-2.521805974172736421e-12
-1.740001216245849590e-12
