# bin_5_14
-2.007344634919204287e-34
-2.221473762232659305e-34
-2.406487201497816463e-34
-2.537783417528975755e-34
-2.587273488319186298e-34
-2.531186464839866623e-34
-2.340436731045866530e-34
-2.046286592543799727e-34
-1.696525038227989538e-34
-1.388406914723894678e-34
-1.180892837936076146e-34
-1.015635533660596740e-34
-7.739162586727890638e-35
-5.377539795557308501e-35
-4.366726297565570564e-35
-2.997886223866078866e-35
-2.260023980109057967e-35
-1.549378939863160565e-35
-1.104646732051931780e-35
-7.893752011434457793e-36
-5.671882498283879353e-36
-4.119926427974083595e-36
-3.038095084707018266e-36
-2.284598254156565374e-36
-1.747386947385868228e-36
-1.353257900503261188e-36
-1.055166806929080771e-36
-8.223437215313138137e-37
-6.361570124736977197e-37
-4.854774406079890929e-37
-3.637158648034053352e-37
