# bin_16_11
-3.045284149508694558e-10
-3.383170695541115507e-10
-3.682379697091557138e-10
-3.906341586793028547e-10
-4.010798683669233877e-10
-3.962013140762462600e-10
-3.707094450576866079e-10
-3.277660271151305747e-10
-2.741595905779485049e-10
-2.240994652987144372e-10
-1.887551557770305947e-10
-1.632230147728173732e-10
-1.286177829398348733e-10
-8.907916203496127832e-11
-7.053066762336034168e-11
-5.090663374295048136e-11
-3.680678102278349098e-11
-2.549535925167538698e-11
-1.840569471406090435e-11
-1.301973298310163229e-11
-9.246254584936404440e-12
-6.656593506787432146e-12
-4.862385265369739088e-12
-3.619104961336733072e-12
-2.743522022705478493e-12
-2.110266630983425627e-12
-1.638875429257645797e-12
-1.276186936212955522e-12
-9.893053096860679443e-13
-7.584607321562544135e-13
-5.720130091176257853e-13
