# bin_19_17
-6.719412251741447943e-11
-7.594585228141309015e-11
-8.440993168839909417e-11
-9.189404639553927521e-11
-9.747838974581650666e-11
-1.000492309055323115e-10
-9.877138995536432567e-11
-9.231473849834814055e-11
-8.153044456979783277e-11
-6.811482119610356799e-11
-5.568170908011156311e-11
-4.698186222338725668e-11
-4.064724801602695168e-11
-3.187310690066420252e-11
-2.198775007117815489e-11
-1.749910588863353530e-11
-1.246004094910769268e-11
-9.023028423985274838e-12
-6.120568757186506515e-12
-4.359200415597076578e-12
-3.021548854360512010e-12
-2.089524488065434022e-12
-1.456519704529536189e-12
-1.024510333153664327e-12
-7.327812832440799873e-13
-5.344308416160224094e-13
-3.974301576687838250e-13
-3.009651859278860214e-13
-2.309130215199045504e-13
-1.782975835139829108e-13
-1.375076703868666671e-13
