# bin_11_2
-2.457985392247177630e-09
-2.465980880613702656e-09
-2.361152193156605067e-09
-2.137803383409573926e-09
-1.832095870958201801e-09
-1.507919962951994946e-09
-1.246937434993339838e-09
-1.067969990338206174e-09
-8.878413786220513636e-10
-6.521033991586413053e-10
-4.792539031551635833e-10
-3.766997959061569934e-10
-2.660105324211135311e-10
-1.993752930580901585e-10
-1.449932610085956702e-10
-1.071472769399741764e-10
-8.036378317009718228e-11
-6.131940345931036146e-11
-4.765508769407049607e-11
-3.760874237577317649e-11
-2.999629647763528930e-11
-2.400071983171055345e-11
-1.912208089868231437e-11
-1.506511069549979922e-11
-1.166268284503093963e-11
-8.826254262318345721e-12
-6.506468662809273741e-12
-4.664333912149041579e-12
-3.253385615691104098e-12
-2.212792472514882585e-12
-1.472268983997268928e-12
