# bin_14_17
-4.891084069799629338e-14
-5.510523020528982220e-14
-6.101256702870905464e-14
-6.611024806389763366e-14
-6.971807890524803962e-14
-7.106320625023155668e-14
-6.948401347787634952e-14
-6.419156701603460534e-14
-5.607353358508548885e-14
-4.645930383810622650e-14
-3.804145909248140502e-14
-3.240625294511782686e-14
-2.785810420694764752e-14
-2.112862621237374895e-14
-1.466662687833088749e-14
-1.192235296077516511e-14
-8.077967398225069538e-15
-6.081647412054569493e-15
-4.112767422563459168e-15
-2.873976446634925330e-15
-2.012156478013601486e-15
-1.408716003387559308e-15
-9.909719709805638164e-16
-7.047981712260859461e-16
-5.109239296769021072e-16
-3.776880642918181016e-16
-2.843938918250722654e-16
-2.174948061451380091e-16
-1.678926381391896069e-16
-1.298827976991520193e-16
-9.995285810474755447e-17
