# bin_4_4
-1.146898875109758045e-10
-1.194415747838062022e-10
-1.201195125858039563e-10
-1.152847266742240373e-10
-1.045158052588729257e-10
-8.962356757497522838e-11
-7.364082263492924619e-11
-6.076996259732675741e-11
-5.221103057194251211e-11
-4.368870505866392236e-11
-3.185387365041617236e-11
-2.324490806301574171e-11
-1.853220655786963992e-11
-1.278579387288153835e-11
-9.674374129343959648e-12
-6.969812521261982533e-12
-5.080424567318707623e-12
-3.766207403969533209e-12
-2.835139525816602659e-12
-2.173321844226136880e-12
-1.693686862880622668e-12
-1.337525936572321925e-12
-1.062937463618319372e-12
-8.439650896306663813e-13
-6.648170930636310611e-13
-5.161338906405100073e-13
-3.927175437916152653e-13
-2.915799010858213688e-13
-2.106569249174941613e-13
-1.480193497398664777e-13
-1.012963383234226950e-13
