# bin_1_1
-2.875604079210663060e-10
-2.716665750568632364e-10
-2.427886556891470724e-10
-2.056839997453775640e-10
-1.688441543517789142e-10
-1.407074572062923018e-10
-1.206157308927602895e-10
-9.787936053345620335e-11
-7.073965400862815303e-11
-5.345589501173690852e-11
-4.106382530488351887e-11
-2.942179544642333677e-11
-2.195311551264560550e-11
-1.621139726961694870e-11
-1.212266745162947576e-11
-9.233151359850158887e-12
-7.167010978106801857e-12
-5.661621854114944576e-12
-4.530200797331385168e-12
-3.648099182921132138e-12
-2.933424740332804149e-12
-2.337960415781843626e-12
-1.834658914606570080e-12
-1.409468206351431433e-12
-1.055592740857204719e-12
-7.689379437492780119e-13
-5.446940000781528777e-13
-3.758490708034989196e-13
-2.533348262758491529e-13
-1.673547297887285930e-13
-1.087114523650767761e-13
