# bin_18_15
-1.196401191971265596e-10
-1.346211450513368496e-10
-1.488268274829230102e-10
-1.609610160088454276e-10
-1.693502150078692956e-10
-1.721672951877711696e-10
-1.676899007875557517e-10
-1.542476565812080155e-10
-1.341649284489066339e-10
-1.108896509714545043e-10
-9.092197865242001817e-11
-7.769838279497625826e-11
-6.648850208707207748e-11
-4.982471871989138246e-11
-3.483899610159682517e-11
-2.835143461015251305e-11
-1.901079820611224707e-11
-1.438317069968160775e-11
-9.794033466150516873e-12
-6.814387656532701563e-12
-4.778398842127172869e-12
-3.351365213313531072e-12
-2.365438075397972996e-12
-1.689711909689133821e-12
-1.230816122414392323e-12
-9.140902231181131390e-13
-6.911087654503580246e-13
-5.300906836506128428e-13
-4.098153472826884195e-13
-3.170381691481828387e-13
-2.436505896211184973e-13
