# bin_20_4
3.681226781344257337e-08
3.255994234285959072e-08
2.800312785388048416e-08
2.346931036490074429e-08
1.926226915443570273e-08
1.557306201415915805e-08
1.244376956649755876e-08
9.793562361164781152e-09
7.535946975277745416e-09
5.681021926920674180e-09
4.273035758457591978e-09
3.232881123386860963e-09
2.436801054513227729e-09
1.852495606980403488e-09
1.421007857782789742e-09
1.100962391357849637e-09
8.600458868101352721e-10
6.755814956894675502e-10
5.314137017063715181e-10
4.166797529324745668e-10
3.242288321108072269e-10
2.493466081670151364e-10
1.888666903891379734e-10
1.405154716567049950e-10
1.024832028507704769e-10
7.318716015658294748e-11
5.116062734794518275e-11
3.502558851921514425e-11
2.351541837958211112e-11
1.551220118308560481e-11
1.007703175987845879e-11
