# bin_17_10
5.941589269861202866e-08
5.502093954618119487e-08
4.961413935753843510e-08
4.351927406651724137e-08
3.715092665521493392e-08
3.095008984229182702e-08
2.528718703540681110e-08
2.036281764480424104e-08
1.618954290488665178e-08
1.265643867810305203e-08
9.675368139670217818e-09
7.265084533329137285e-09
5.446578711850535654e-09
4.095573600090545323e-09
3.066743442427979122e-09
2.314223682556111086e-09
1.758555275144785060e-09
1.348159483453307609e-09
1.040848679338963465e-09
8.075521872408462191e-10
6.273761829404589542e-10
4.860770289494526478e-10
3.740805368014155535e-10
2.848921491644410284e-10
2.140274076781109231e-10
1.582109728763583687e-10
1.148607359225028472e-10
8.180261079023404658e-11
5.712325282235171522e-11
3.911985267247186088e-11
2.629546965630276996e-11
