# bin_9_1
1.731009747033771067e-08
1.450200553176528552e-08
1.190315990610254528e-08
9.624819487725010811e-09
7.689577395740180971e-09
6.051093365224649469e-09
4.662136671620498979e-09
3.527634688088401893e-09
2.664918757302339643e-09
2.025051214760452927e-09
1.538865359378599477e-09
1.179891208342863749e-09
9.144026112112852499e-10
7.158824424800643125e-10
5.650901009346844073e-10
4.481118273727837989e-10
3.553342303048628704e-10
2.803927786882675080e-10
2.191757614519941195e-10
1.690287104124132560e-10
1.281815168881561407e-10
9.534247020973322896e-11
6.943897896952137364e-11
4.947917817343455561e-11
3.449770493898933944e-11
2.355759065618186722e-11
1.578236876056064236e-11
1.039554523643898753e-11
6.748021985446432944e-12
4.326895913772256020e-12
2.746606892537378032e-12
