# bin_15_4
3.533555991115661165e-08
3.118981535183840881e-08
2.677712857210986869e-08
2.241056841679749320e-08
1.837439766112213634e-08
1.484242437510661765e-08
1.184790720228716413e-08
9.313056078100461207e-09
7.159411748317114622e-09
5.397080512504956153e-09
4.061481580011892300e-09
3.073538826361555992e-09
2.318473858250834765e-09
1.764281521000914577e-09
1.354631365742773330e-09
1.050439864414556989e-09
8.210935677207457864e-10
6.451690570051071926e-10
5.074496652937644026e-10
3.977152350342996321e-10
3.092389966225150604e-10
2.375793175015348648e-10
1.797391896810078801e-10
1.335497688506326971e-10
9.727065357276008272e-11
6.937142791491794606e-11
4.843166167350068809e-11
3.311904265849126034e-11
2.221304716992659326e-11
1.464068294417210451e-11
9.504323434514423655e-12
