# bin_16_7
4.895906774667004494e-08
4.452386718669412441e-08
3.939052517226477237e-08
3.389812966947662530e-08
2.843236858502733389e-08
2.334982298130799171e-08
1.887853144055446780e-08
1.507665496126469279e-08
1.186241934882033567e-08
9.135009137048742999e-09
6.888969570059953628e-09
5.167785323941150248e-09
3.897352921552894049e-09
2.928647511389526620e-09
2.212560171552828311e-09
1.686805961175724211e-09
1.297019171110955839e-09
1.005321416814450653e-09
7.837477735293176643e-10
6.122570110952365875e-10
4.772537438108682253e-10
3.696480541435931637e-10
2.833546299680505687e-10
2.142330332435943823e-10
1.593194021111731545e-10
1.163021054470405292e-10
8.322845006061327825e-11
5.835490518498378831e-11
4.009414668655706143e-11
2.701947361121510926e-11
1.788649282766723709e-11
