# bin_10_1
1.756850962459295894e-08
1.472512347554249523e-08
1.209037157176237866e-08
9.778978310899433798e-09
7.815264781961195137e-09
6.152334964900690435e-09
4.741500610729979283e-09
3.587727960571075143e-09
2.709885019668893023e-09
2.058986560427698823e-09
1.564281838293163912e-09
1.199000875931959338e-09
9.289495201999978115e-10
7.270950326421356339e-10
5.738560779933888048e-10
4.550484755857352514e-10
3.608661664452392578e-10
2.848141260149144158e-10
2.226962267653700549e-10
1.718055087840774109e-10
1.303403722357319673e-10
9.699020991006833994e-11
7.066990969111156582e-11
5.037751279227167444e-11
3.513773868424500524e-11
2.400298708753095993e-11
1.608556438935735014e-11
1.059789453025218610e-11
6.880764315393573427e-12
4.412718826209721688e-12
2.801432145253660807e-12
