# bin_18_7
5.007021093492582904e-08
4.559920327025789771e-08
4.039688980008862972e-08
3.480641601428760059e-08
2.922275514593126753e-08
2.401634039431920556e-08
1.942866733142774762e-08
1.552606961719338765e-08
1.222625399838141069e-08
9.422315484135730920e-09
7.106829218274850512e-09
5.329486377994929882e-09
4.018748000616185229e-09
3.018684038503241464e-09
2.278963193301361474e-09
1.736323539510488688e-09
1.334198238508348326e-09
1.033575646810754402e-09
8.054975809127125703e-10
6.291789403607272881e-10
4.905101255610568950e-10
3.800534669459140849e-10
2.914944490459498531e-10
2.205454948494635143e-10
1.641503832623232364e-10
1.199369901580980052e-10
8.590960441680637932e-11
6.029007263934161717e-11
4.145966391773311867e-11
2.796163511266612234e-11
1.852283111290874191e-11
