# bin_9_2
2.261978201773906695e-08
1.930146092703326324e-08
1.607477566820848410e-08
1.313338008083732674e-08
1.058204482593410351e-08
8.423477576922134483e-09
6.594804902525496898e-09
5.051120198474734669e-09
3.809455471495406558e-09
2.878784472447780169e-09
2.185028169597439079e-09
1.657949795780139538e-09
1.271836287139860326e-09
9.847666633653339804e-10
7.702488471683918612e-10
6.068899072800772958e-10
4.799611260041024603e-10
3.792534181147948372e-10
2.980086452350511258e-10
2.318415745499772301e-10
1.778820735951835781e-10
1.341774891025210626e-10
9.926548034338792554e-11
7.191251650329103078e-11
5.097911792802498192e-11
3.537086119374886291e-11
2.404432734624635180e-11
1.604128869678473387e-11
1.052614974848601734e-11
6.809669937838089039e-12
4.353319943591020209e-12
