# bin_20_5
4.198818985028060644e-08
3.758691739263573126e-08
3.271354116583751049e-08
2.771048895890705850e-08
2.293163471235222935e-08
1.864620963225848315e-08
1.497118823823700214e-08
1.186720830128581078e-08
9.225158941388009328e-09
7.003974907891569055e-09
5.255662513289870011e-09
3.965728104526239594e-09
2.990326908251848528e-09
2.255979067900616942e-09
1.721562558283426756e-09
1.323885757064558930e-09
1.027879272561111676e-09
8.036203658843675732e-10
6.304275970799062579e-10
4.941279741191295800e-10
3.852332803421181828e-10
2.974789571219147662e-10
2.266773493628280681e-10
1.699248425762485332e-10
1.250236527406749299e-10
9.014273973646836392e-11
6.364172003012977953e-11
4.399955816425114108e-11
2.981379396982342800e-11
1.983019163749743978e-11
1.297376986930464569e-11
