# bin_7_1
1.664091039632267708e-08
1.392421657071194561e-08
1.141835417864800884e-08
9.225607755235670353e-09
7.364095608791960951e-09
5.788916666731563888e-09
4.456614644965814581e-09
3.372016262332197678e-09
2.548473470164419455e-09
1.937171755774470909e-09
1.473046488846541172e-09
1.130404554124413056e-09
8.767317449994635205e-10
6.868461764556242399e-10
5.423896174867892304e-10
4.301485971001196085e-10
3.410086590465666772e-10
2.689432007316216480e-10
2.100591175297173107e-10
1.618378747854117471e-10
1.225909138077972542e-10
9.107545861724325776e-11
6.625134148357590844e-11
4.715283628774721828e-11
3.284026287883686809e-11
2.240418444995970252e-11
1.499720807964948990e-11
9.871537925870658258e-12
6.404270071079885030e-12
4.104647348647424765e-12
2.604630420223589161e-12
