# bin_15_10
5.761905830261613244e-08
5.323628659839641749e-08
4.789516750257441621e-08
4.191935341820513009e-08
3.571549683780314535e-08
2.970808310246019603e-08
2.424440196389616130e-08
1.950418647986961222e-08
1.548881407904490043e-08
1.209063263621329146e-08
9.231604281673488420e-09
6.931188470058663170e-09
5.199105924829227108e-09
3.910063477765947119e-09
2.930346027036012323e-09
2.213880315428559036e-09
1.684312410047486920e-09
1.292747870481952370e-09
9.990621424853843823e-10
7.756467671452092361e-10
6.027548712066464030e-10
4.669393906771945845e-10
3.591644520825274365e-10
2.732948566220179576e-10
2.050783078504312794e-10
1.513877103204110370e-10
1.097395848268394065e-10
7.802984939046031787e-11
5.440044336502659522e-11
3.719677275914460891e-11
2.496637401698967208e-11
