# bin_16_3
3.034603605584084966e-08
2.642281062410183971e-08
2.239278981784641831e-08
1.854003969388125931e-08
1.508228024831405023e-08
1.211549573661330733e-08
9.609576315650373284e-09
7.477226983486895113e-09
5.685429646095397909e-09
4.274918484008309016e-09
3.232938434665884754e-09
2.445863721621531353e-09
1.853485148172970903e-09
1.421301811629210221e-09
1.099289977771794787e-09
8.586187002037217404e-10
6.752350309870616223e-10
5.326035173338836307e-10
4.194447972826885588e-10
3.282877589230394939e-10
2.542584615545453138e-10
1.941349926894524739e-10
1.456889621455455291e-10
1.072164011312717691e-10
7.726346140981407270e-11
5.448900443442909026e-11
3.761774605619151582e-11
2.545117755790188474e-11
1.690573919887153072e-11
1.104926095547630710e-11
7.122597283796796421e-12
