# bin_20_9
5.836651803520914230e-08
5.390954987783675241e-08
4.846996176192660453e-08
4.238087464813636344e-08
3.606292899478164567e-08
2.995811031260715541e-08
2.442437747196126434e-08
1.964019562384774477e-08
1.559363565193102439e-08
1.216095806273191389e-08
9.265277496480596002e-09
6.945452033323175761e-09
5.213880916541973263e-09
3.920257984710013105e-09
2.936099665311281590e-09
2.220982549305654981e-09
1.690426994792709032e-09
1.298817564573448267e-09
1.004939444412378911e-09
7.810622410065291272e-10
6.075510321704507624e-10
4.710139321891700334e-10
3.624807901619436387e-10
2.758727125689928456e-10
2.069882444621025574e-10
1.527298910136963473e-10
1.106276744385170305e-10
7.857720759648822288e-11
5.470888235625524357e-11
3.735003541842709607e-11
2.502759853192700640e-11
