# bin_12_3
2.906012416356066581e-08
2.525337870075754970e-08
2.136709963319175433e-08
1.766930401783222255e-08
1.436053533646928424e-08
1.152490816839488743e-08
9.130296388898384067e-09
7.095824198150731554e-09
5.392822508193836459e-09
4.056563323829145411e-09
3.068964533569240746e-09
2.322838181549354754e-09
1.762110967832614956e-09
1.352471260392881232e-09
1.047061611408638164e-09
8.184082936265528513e-10
6.438704633238091414e-10
5.078777252468252214e-10
3.998325434370325838e-10
3.127224057276739313e-10
2.419682604163223251e-10
1.845329458227465581e-10
1.383003275787853748e-10
1.016375048509389112e-10
7.314122496834490472e-11
5.151313766345276648e-11
3.551980517686316488e-11
2.400586132173817564e-11
1.593108642195307989e-11
1.040438938185416628e-11
6.702847117655750730e-12
