# bin_13_15
3.006297734133026159e-08
3.363057586806776513e-08
3.691673343097767904e-08
3.957770804562354869e-08
4.118036535070249999e-08
4.134458720547865351e-08
3.952987959545145154e-08
3.567116515948381544e-08
3.042884601087332679e-08
2.494618707679621294e-08
2.066884959447828786e-08
1.786537256771266360e-08
1.482602878333847891e-08
1.055337849171759784e-08
7.805060601707741378e-09
6.135706252629248321e-09
4.129843339890567592e-09
3.054140568457407231e-09
2.157540668662586120e-09
1.502673529913069264e-09
1.055237553067917572e-09
7.465243112598862269e-10
5.356172093514754454e-10
3.905910970938012462e-10
2.905471424974568680e-10
2.199904198790522790e-10
1.689868231672550773e-10
1.309505346857757498e-10
1.016327082519268526e-10
7.843563524570550614e-11
5.980945304612935445e-11
