# bin_14_17
3.833708133389388000e-08
4.302638349352421385e-08
4.741869509732924197e-08
5.108772049206761504e-08
5.349045181453090940e-08
5.408631539896128284e-08
5.225177391073907019e-08
4.764510068674514353e-08
4.108095126016834357e-08
3.381186707714827624e-08
2.783713428267737007e-08
2.393602140306812565e-08
2.024051794120332801e-08
1.479573639078991724e-08
1.057280932814284524e-08
8.542834245529959054e-09
5.674080286984576939e-09
4.291802864943116702e-09
2.969913435018093163e-09
2.059624973525480146e-09
1.446348818015445429e-09
1.017590211622000165e-09
7.235243468747985709e-10
5.217818086232506484e-10
3.838942756105497886e-10
2.878051625725615969e-10
2.193456011594549969e-10
1.691656755936598097e-10
1.311104813060891512e-10
1.013757381452341215e-10
7.766086213272048293e-11
