# bin_17_15
2.027504098775595256e-10
2.286614863025539302e-10
2.534825559609308012e-10
2.750713209943416644e-10
2.906200153181078556e-10
2.968619934426850432e-10
2.911475347248054916e-10
2.699409995416145639e-10
2.366360934698552961e-10
1.965628515250244228e-10
1.608890099687126269e-10
1.367130144962894009e-10
1.178209842516500681e-10
9.022891288661422481e-11
6.245294749549507113e-11
5.055772569646696947e-11
3.469438427403326202e-11
2.590218055269171288e-11
1.747056619818558515e-11
1.227974740567767379e-11
8.576852390753876818e-12
5.988539895268210837e-12
4.202275300592567327e-12
2.979298642070231509e-12
2.151772739873478237e-12
1.584818969261466126e-12
1.189394673970816587e-12
9.073250986314869600e-13
6.993898601222016089e-13
5.409051568082162481e-13
4.166034973214951321e-13
