# bin_19_16
2.063740137622679859e-11
2.335563958253689956e-11
2.599946728859980340e-11
2.835922132312920660e-11
3.015447118132298226e-11
3.103977899365921336e-11
3.076036486429762421e-11
2.888638957743904283e-11
2.562654578869400097e-11
2.149378919792252113e-11
1.757361965059938706e-11
1.477561666980303757e-11
1.280015063122930746e-11
1.016658245745354707e-11
7.021265466224078831e-12
5.523460101574159876e-12
4.015519079324863861e-12
2.855353943106433693e-12
1.954710564692231965e-12
1.398281109968497353e-12
9.655606215329677162e-13
6.643309709561549248e-13
4.613772159321183756e-13
3.231965894911789572e-13
2.299368646748151320e-13
1.667713315723517559e-13
1.233618378918148341e-13
9.300528582651454532e-14
7.114309578377158330e-14
5.486141804490634517e-14
4.232861215876849203e-14
