# bin_3_16
4.876990299680649336e-07
5.021044307928656192e-07
4.979213120033130064e-07
4.690589444373506660e-07
4.176867469506812770e-07
3.522467705343621469e-07
2.885540866221501717e-07
2.412760371223337107e-07
2.076997105421596843e-07
1.670989840523431168e-07
1.187613939287055548e-07
9.117017745107530793e-08
6.899775790371656295e-08
4.929826058909102576e-08
3.619923162648577376e-08
2.657244432944502484e-08
1.953219150553560744e-08
1.458970643213909784e-08
1.109722052348643776e-08
8.594199793125065248e-09
6.758489733279450319e-09
5.369177886692172323e-09
4.277708415879278699e-09
3.393255293899603859e-09
2.661543685455879573e-09
2.051452035532615445e-09
1.545937708864416132e-09
1.134983474679705136e-09
8.103564162211080461e-10
5.630160085129759606e-10
3.814750222238695499e-10
