# bin_5_11
2.283784380569775068e-07
2.430425175649177810e-07
2.507265039754849539e-07
2.492405333163769188e-07
2.353360439093392690e-07
2.099491651018381748e-07
1.772063557805984817e-07
1.450440442295719873e-07
1.211453227539874837e-07
1.045833846401952779e-07
8.452526155107429321e-08
5.966417584064982307e-08
4.577410525384066718e-08
3.472090906548827734e-08
2.455933383488827689e-08
1.790837117013325084e-08
1.307790124856863062e-08
9.486117177341296925e-09
6.974914982411508709e-09
5.217122540382150014e-09
3.973412402888638127e-09
3.077831689105194675e-09
2.415999316919132102e-09
1.909216915039556768e-09
1.508397673503282407e-09
1.183158303754421377e-09
9.153556892524199726e-10
6.946644212328162338e-10
5.148793159418077173e-10
3.716016394227083805e-10
2.609329935083097369e-10
