# bin_13_5
5.160137487403084028e-28
5.693340028106298532e-28
6.144542869875221439e-28
6.449570934122248537e-28
6.540804545910381813e-28
6.349064533514966509e-28
5.819238164240618017e-28
5.044208872084933009e-28
4.161607613371875569e-28
3.416268597114748704e-28
2.925538499345676510e-28
2.493080838801758754e-28
1.852798799888656397e-28
1.307124989851447619e-28
1.065085817774262873e-28
7.151983231400964962e-29
5.459451038412950255e-29
3.790674217378128421e-29
2.678961201623920558e-29
1.922300973554134172e-29
1.387706263310660622e-29
1.014499355878966211e-29
7.537210446882821661e-30
5.709369595319493513e-30
4.393301266112191100e-30
3.417001137231453504e-30
2.669808177086890701e-30
2.080226135551030413e-30
1.605563184183081380e-30
1.220372409875011582e-30
9.093462945513048327e-31
