# bin_17_12
5.348348006084202331e-15
6.014005814866974427e-15
6.643271839046822558e-15
7.177732734906257571e-15
7.542314179608321212e-15
7.656909865418614596e-15
7.441728414008310159e-15
6.828510340896147702e-15
5.925416742638695302e-15
4.891349425316182746e-15
4.014912679473884115e-15
3.438451164898735384e-15
2.934538855532530773e-15
2.182497052835489924e-15
1.532961835967581515e-15
1.249522489269678475e-15
8.314102736101660078e-16
6.318012265454212180e-16
4.321418128058698964e-16
2.996462174678151047e-16
2.104225677486471890e-16
1.477953942132825249e-16
1.045530824972111968e-16
7.490283823536671999e-17
5.473449134910571975e-17
4.077412355921649043e-17
3.091053553648990683e-17
2.375526586352750702e-17
1.838474987755094026e-17
1.422430972139797292e-17
1.092351773063610319e-17
