# bin_15_9
2.602149452466555521e-18
2.904813508573114692e-18
3.180412899687411769e-18
3.398681235024400713e-18
3.521659520407674501e-18
3.518847836882297718e-18
3.341617689940126404e-18
2.995842559882865740e-18
2.538357878855031766e-18
2.077365054752794293e-18
1.729597976987594883e-18
1.497964342042367540e-18
1.225621755967935573e-18
8.599151021027558023e-19
6.512930235500890725e-19
4.997999120328047889e-19
3.423662835828440325e-19
2.474920172818287138e-19
1.772948061404149380e-19
1.240117008293623485e-19
8.714708300027516594e-20
6.198042967326040477e-20
4.473886965357674330e-20
3.285316175585864926e-20
2.460118689163124187e-20
1.873466779986002467e-20
1.445347825921571528e-20
1.122630878276851372e-20
8.715144876133744424e-21
6.714733481236276632e-21
5.103548746158101027e-21
