# bin_20_4
4.188087293346928657e-67
4.702151753785349837e-67
5.184579097585234004e-67
5.588939709116249622e-67
5.856026910076766703e-67
5.926081875507522321e-67
5.731789425064743075e-67
5.232367570946950629e-67
4.516700431720822535e-67
3.718852393774462490e-67
3.059379132376867643e-67
2.629229307460528519e-67
2.228199849620121038e-67
1.633235246293453473e-67
1.162108828228869716e-67
9.427997037063355513e-68
6.244131546740768826e-68
4.739732475658966485e-68
3.272999322903621655e-68
2.267434149500750124e-68
1.592570741742199311e-68
1.119769506411186961e-68
7.954056245520996521e-69
5.729312451354158825e-69
4.210351658446159559e-69
3.153172551929289497e-69
2.401141442227225191e-69
1.850943175888368946e-69
1.434418937654021458e-69
1.109401473980698732e-69
8.503594039551430475e-70
