# bin_20_10
5.167019677389583337e-29
5.826104317210383752e-29
6.456865174384543359e-29
7.004570701788052988e-29
7.397595102590402676e-29
7.552957944988670900e-29
7.402737092120416477e-29
6.858081921273251078e-29
6.007428455643539497e-29
4.987249282042104637e-29
4.082605326412730629e-29
3.471459018177757757e-29
2.990408561336786052e-29
2.284783184540999443e-29
1.582196953098212211e-29
1.282668729809437545e-29
8.770245305454723179e-30
6.565896851761848384e-30
4.429107916127796760e-30
3.107779890140177980e-30
2.172445270440194410e-30
1.518292774052313874e-30
1.066085840151108941e-30
7.564045757548651658e-31
5.468114943283162076e-31
4.031079588245136944e-31
3.027856622461124515e-31
2.311316870168077152e-31
1.782347226329182813e-31
1.378627619892309281e-31
1.061654620846169622e-31
