# bin_19_5
3.448916293522132242e-54
3.866395097801105432e-54
4.255217744636441750e-54
4.576636171800178351e-54
4.781546449211499685e-54
4.823097246574853183e-54
4.642464932042520958e-54
4.216857756157872708e-54
3.621552586541406874e-54
2.975345362652968716e-54
2.454332654196217179e-54
2.115614473035033184e-54
1.778491125385660373e-54
1.285857239572565542e-54
9.294616783279601356e-55
7.462438471593472899e-55
4.955888677165560943e-55
3.734474455786689053e-55
2.603290009858427096e-55
1.806320032920028483e-55
1.268352073501464789e-55
8.933423761929100919e-56
6.372224319030406157e-56
4.614524104223941563e-56
3.409367229839305874e-56
2.565925117980453399e-56
1.961841587164763261e-56
1.516199310325660544e-56
1.176102558106891700e-56
9.090011532288008753e-57
6.953207349791189600e-57
