# bin_9_11
5.049401510082101172e-08
5.553136052414006861e-08
5.969280258042132030e-08
6.234022593013463168e-08
6.286448223952547345e-08
6.051296548853750138e-08
5.498803271367379642e-08
4.724969770610733337e-08
3.883806735974656416e-08
3.202604453821569897e-08
2.756233747732799746e-08
2.317192927060269215e-08
1.684108515478676672e-08
1.217943225178611030e-08
9.775423079793149641e-09
6.580686153093139705e-09
4.975447535000706100e-09
3.508475249814010923e-09
2.482341468779246505e-09
1.782351037506715747e-09
1.291036938764178865e-09
9.497320190687802185e-10
7.106714753671446756e-10
5.417999974944714037e-10
4.190216250057134063e-10
3.269674476661831308e-10
2.557494089534100184e-10
1.990712666188852748e-10
1.532097060239799449e-10
1.159455522539906300e-10
8.590992140817500371e-11
