# bin_20_16
1.222056944423374090e-12
1.384597452520010905e-12
1.543499997680319229e-12
1.686494997166826102e-12
1.797114543242310832e-12
1.854859745700384941e-12
1.844390317370334594e-12
1.739574947252401716e-12
1.549553879095483306e-12
1.304493953765686713e-12
1.066812963134431847e-12
8.937696933995558885e-13
7.746499888439707161e-13
6.225773055117695950e-13
4.314629888027330467e-13
3.347650799298762720e-13
2.482547757252284889e-13
1.733445700878158639e-13
1.204218584947442642e-13
8.604956785601214611e-14
5.922683707827456432e-14
4.059001352869856529e-14
2.807807366249485312e-14
1.958842291737252360e-14
1.386173266249633381e-14
9.997435524835423321e-15
7.354382675609767899e-15
5.518104351344365195e-15
4.206465603720379159e-15
3.238082118170691874e-15
2.498359691985117873e-15
