# bin_11_15
6.758315774924651810e-08
7.508625756342407597e-08
8.173249571330873496e-08
8.671020969625711615e-08
8.903701009107240183e-08
8.796303189967188739e-08
8.231447609312703536e-08
7.279346040655851317e-08
6.090422031811471580e-08
4.980068347762413619e-08
4.195820342336019548e-08
3.628221235678461903e-08
2.858442414421466416e-08
1.980486814937749810e-08
1.568720686459932492e-08
1.131763373339819299e-08
8.188327167003891437e-09
5.671124962281207715e-09
4.094424878635338349e-09
2.896758082261718137e-09
2.057563190534129153e-09
1.481488435129676667e-09
1.082324178475091765e-09
8.056935382884167854e-10
6.108404029177800960e-10
4.698918015722951606e-10
3.649520269096730962e-10
2.841971478147858790e-10
2.203125035153897605e-10
1.689017350513055992e-10
1.273766220292265711e-10
