# bin_2_3
1.390628626733843985e-07
1.387569248421069662e-07
1.318640902731218606e-07
1.184767583192702941e-07
1.007903547957432014e-07
8.274924524195032656e-08
6.874607779775632945e-08
5.904958143512554801e-08
4.843605937464310935e-08
3.502187376920468486e-08
2.621833541805563683e-08
2.036222489866261225e-08
1.440826779464071174e-08
1.076610365375076384e-08
7.882017721077577509e-09
5.831397354647433547e-09
4.389488851472400466e-09
3.364180860866178418e-09
2.625567469573221707e-09
2.079425191975562076e-09
1.662284153485265594e-09
1.331093666232193357e-09
1.059838730990605508e-09
8.333107955382881094e-10
6.430444557473877492e-10
4.846247472839642376e-10
3.555539736693894633e-10
2.536306530051741339e-10
1.760844882354532458e-10
1.192695422029432568e-10
7.907947411579378922e-11
