# bin_16_10
7.864468065159371748e-18
8.807985378396820097e-18
9.682397142124117453e-18
1.039863555287375643e-17
1.084417549595196649e-17
1.091553045602095517e-17
1.047461672165683204e-17
9.485178234473847300e-18
8.120371053339721280e-18
6.663707280440927601e-18
5.507212799388222968e-18
4.754699156955657932e-18
3.974815926649898534e-18
2.851092963152823400e-18
2.082702409829543534e-18
1.657624113038562100e-18
1.105960970131300901e-18
8.273557666708391574e-19
5.802712356328273153e-19
4.032527454245033828e-19
2.831103425950964795e-19
1.997390141948746763e-19
1.428538041131126595e-19
1.037878860327857064e-19
7.692807360392938907e-20
5.806383559652648890e-20
4.449551971220591115e-20
3.443512625317668458e-20
2.672097006810095544e-20
2.064040119045869891e-20
1.576658522667734288e-20
