# bin_18_18
4.819178710917336414e-09
5.454194191754210624e-09
6.071972369150197324e-09
6.623573356145292629e-09
7.043542011220015632e-09
7.251246338909262262e-09
7.187035403703097982e-09
6.750569540311544967e-09
5.989946132900972770e-09
5.024962313972238490e-09
4.108640906357093388e-09
3.453890188561066975e-09
2.992019912597505927e-09
2.377732102579997078e-09
1.642744476198747285e-09
1.291180674126566642e-09
9.396061152152052920e-10
6.675086107779673109e-10
4.574949476943036448e-10
3.271186023947848829e-10
2.258562980822103061e-10
1.553776820895112597e-10
1.078853196275821836e-10
7.555859942507883140e-11
5.374140794891444191e-11
3.896718658212735422e-11
2.881615044570239889e-11
2.171965404998690341e-11
1.661094293004646612e-11
1.280792050314516253e-11
9.881709957483162798e-12
