# bin_7_9
7.066310267503770760e-08
7.666192250996812058e-08
8.102286128308360799e-08
8.284863562213255987e-08
8.139955439778413985e-08
7.569219487209803130e-08
6.654397842367878939e-08
5.543596736555159397e-08
4.535720869935617468e-08
3.837289025870414480e-08
3.305183587020363356e-08
2.564848021090015265e-08
1.787602727460726365e-08
1.430642663646273800e-08
1.017265597522416456e-08
7.523378751814658635e-09
5.265672706484092330e-09
3.829868735795387905e-09
2.769673737145471385e-09
2.021033661760425805e-09
1.498467774571181310e-09
1.129798973739049029e-09
8.672750366352256805e-10
6.751858321453529476e-10
5.299044853985884790e-10
4.165123112036437381e-10
3.255500763512234680e-10
2.513835457781772826e-10
1.907119158434050173e-10
1.415198914971427226e-10
1.023904322888619634e-10
