# bin_15_17
2.452233324813524770e-08
2.759045130345772166e-08
3.049853213706094597e-08
3.298048289469084870e-08
3.469299544190769644e-08
3.526301207030408538e-08
3.433431882204152177e-08
3.157085100458892085e-08
2.745234358214623648e-08
2.268992942183749606e-08
1.861351063102832228e-08
1.591581943354663107e-08
1.361096607564441897e-08
1.018403835173451359e-08
7.131020462757896296e-09
5.804356946190495647e-09
3.886520606770021385e-09
2.943280271477024411e-09
2.006549145335392870e-09
1.395022415084416792e-09
9.786938429429783409e-10
6.867408278134426847e-10
4.850121754535260007e-10
3.467258259196098919e-10
2.527689360916556989e-10
1.878712266547013217e-10
1.421401398745487186e-10
1.090788336942582632e-10
8.435327367161277475e-11
6.526007669091568124e-11
5.014569266691125776e-11
