# bin_9_2
6.315549235982607518e-28
6.788231834340706730e-28
7.091069295954839802e-28
7.154378597048647430e-28
6.893958524046160714e-28
6.271695100534387687e-28
5.395993651244262824e-28
4.436806211137977594e-28
3.653900656587528163e-28
3.140738474559579670e-28
2.647553987146380407e-28
1.934614090555591486e-28
1.394589610376944834e-28
1.125819797188262057e-28
7.621187378879550687e-29
5.812430149142643913e-29
4.132297128387942358e-29
2.965852844822331567e-29
2.167126189816367664e-29
1.602035737482256893e-29
1.204804686492918306e-29
9.218137538584699088e-30
7.169180613792329823e-30
5.634020095475280575e-30
4.444468091185034360e-30
3.495154962394586110e-30
2.720994479596759832e-30
2.084594556135728805e-30
1.563774086249239829e-30
1.144217534035316258e-30
8.149081462666474867e-31
