# bin_4_9
2.536611225268223621e-07
2.660380237134488572e-07
2.697301539801236275e-07
2.619123525108751664e-07
2.404645973288040256e-07
2.088262511786002360e-07
1.727390989435665202e-07
1.418632787244348349e-07
1.209687403626034882e-07
1.028356979692443775e-07
7.741506754405691200e-08
5.511340056474651907e-08
4.421907725986700350e-08
3.092377911810616989e-08
2.327945732415379438e-08
1.658740113979563483e-08
1.212534497742254872e-08
8.943813888288291286e-09
6.686686857292938811e-09
5.088721642106618137e-09
3.938756922765110605e-09
3.094248792438364589e-09
2.451667182395535241e-09
1.945363817935588025e-09
1.535012200857685312e-09
1.196308866333508606e-09
9.154658811233986359e-10
6.845979396340011358e-10
4.986295198421814827e-10
3.532541235030909160e-10
2.436071007939844642e-10
