# bin_18_3
-2.902157825378990346e-63
-3.247519327472395965e-63
-3.566088069182452282e-63
-3.824755918587366551e-63
-3.981772515056234396e-63
-4.000204163965580407e-63
-3.827710552012867711e-63
-3.456648935771222900e-63
-2.950738213584959124e-63
-2.419207052982138950e-63
-2.003062421110627187e-63
-1.731396701939767152e-63
-1.439627151130370825e-63
-1.025712012493582540e-63
-7.566457640261702140e-64
-5.968577456214497006e-64
-4.005204168356391319e-64
-2.972519378677026574e-64
-2.097117753364025907e-64
-1.459962845045503689e-64
-1.025151957350700002e-64
-7.247571950262680155e-65
-5.197717215403661940e-65
-3.787315112556850318e-65
-2.815731522781277181e-65
-2.130551486186494148e-65
-1.635592692261906256e-65
-1.266854024778312090e-65
-9.828715985888499006e-66
-7.583316793878355403e-66
-5.781249007693651799e-66
