# bin_10_20
-2.098128290862370803e-26
-2.369505524535014757e-26
-2.631002316043717405e-26
-2.860790655485129259e-26
-3.030005184416645965e-26
-3.104153039868249328e-26
-3.056767230879506387e-26
-2.848013001259879172e-26
-2.508209338234377027e-26
-2.090628874622941806e-26
-1.709890573159260061e-26
-1.447075019076210070e-26
-1.250677959760345464e-26
-9.713142275243710263e-27
-6.702293091159711128e-27
-5.380874313341882234e-27
-3.770900658659036119e-27
-2.770812494333164067e-27
-1.868512933470373432e-27
-1.325843495888210756e-27
-9.221431416832293027e-28
-6.406551967945264861e-28
-4.481081903314513367e-28
-3.162898561710990714e-28
-2.272762101945629334e-28
-1.665355790201438437e-28
-1.243717486423598737e-28
-9.450743901364668495e-29
-7.266779001193360879e-29
-5.614915471335361558e-29
-4.327116836004370511e-29
