# bin_16_3
-5.649023383878742199e-53
-6.287358504208541490e-53
-6.858743768432437947e-53
-7.296025677153738606e-53
-7.516225612360956653e-53
-7.457428760551373366e-53
-7.015541599358851033e-53
-6.234834077016437885e-53
-5.238044063798877845e-53
-4.282155898942296743e-53
-3.592262872354600187e-53
-3.111325171962339832e-53
-2.487165540327321816e-53
-1.724281603640670773e-53
-1.347754791021223814e-53
-9.947744584850095470e-54
-7.053500725788418558e-54
-4.932095706132095475e-54
-3.573944892741736323e-54
-2.517804223836106068e-54
-1.779188236601141558e-54
-1.276178401433503591e-54
-9.285519751109865598e-55
-6.880665361299692878e-55
-5.195568865073568208e-55
-3.983178685313581238e-55
-3.086656589757060173e-55
-2.401435334439639472e-55
-1.862170697554621530e-55
-1.429554389318409047e-55
-1.080434856063610336e-55
