# bin_14_11
-3.534600123697258172e-10
-3.958025498953880750e-10
-4.350065037348003932e-10
-4.670629945544835635e-10
-4.869073859654388482e-10
-4.899306649552820451e-10
-4.698691378856467864e-10
-4.252687375516766937e-10
-3.638710322391633839e-10
-2.985508598401928137e-10
-2.468280568388194360e-10
-2.131391166839725719e-10
-1.779938683752573681e-10
-1.275203481544147002e-10
-9.332703242836646132e-11
-7.414912993303613546e-11
-4.953550373076397469e-11
-3.699894471927867500e-11
-2.598166159961244639e-11
-1.806453310739375041e-11
-1.268498717235400516e-11
-8.954708464351848011e-12
-6.409327412240110428e-12
-4.658952557349666463e-12
-3.455801944169019879e-12
-2.609554338188824156e-12
-2.000153065512090015e-12
-1.547827321885201270e-12
-1.200640816992048630e-12
-9.268128265823409568e-13
-7.073216572534189606e-13
