# bin_13_4
-3.875544705396996218e-31
-4.277832920204228525e-31
-4.619234663059428438e-31
-4.851645466731341853e-31
-4.923907423686746554e-31
-4.784555678015161501e-31
-4.390441916066109776e-31
-3.810152653007001735e-31
-3.145468876072784563e-31
-2.580991751785300571e-31
-2.208398675659337488e-31
-1.884639983831389885e-31
-1.405238932372945906e-31
-9.890183707438114453e-32
-8.060983722957746480e-32
-5.424088511981264160e-32
-4.137704737280223948e-32
-2.867584106342836516e-32
-2.028109870657770687e-32
-1.454928331611159988e-32
-1.049893056271428401e-32
-7.669651402513549131e-33
-5.690340626243262074e-33
-4.305719842080344341e-33
-3.309656624144611865e-33
-2.571623761943853842e-33
-2.007766090549173871e-33
-1.563521311275526635e-33
-1.206293941454804244e-33
-9.166594106682558755e-34
-6.829363131465508109e-34
