# bin_17_1
-5.351836274282598873e-78
-5.965790499727990218e-78
-6.520288057915501688e-78
-6.952393188363390024e-78
-7.183586323516516835e-78
-7.153689089201332883e-78
-6.762312747992466991e-78
-6.036945910198225478e-78
-5.093403029204325292e-78
-4.165646361872392362e-78
-3.480867570394680523e-78
-3.015540281506197599e-78
-2.440710214776522950e-78
-1.700780673543148802e-78
-1.308470598956668012e-78
-9.859156782211251687e-79
-6.861306896825858693e-79
-4.877584980912420610e-79
-3.519623786831379793e-79
-2.470357697981409915e-79
-1.739758712240955723e-79
-1.242615990642781259e-79
-9.005880891365736162e-80
-6.643005225272607102e-80
-4.995546457421277232e-80
-3.816977465536619686e-80
-2.951189755137245952e-80
-2.294002278357736836e-80
-1.779646795865737136e-80
-1.368422775232490711e-80
-1.036891826942812816e-80
