# bin_1_4
-1.129113574593163682e-11
-1.155149938728619467e-11
-1.136312860485265816e-11
-1.059128524697545880e-11
-9.334952743613213580e-12
-7.798150401002475125e-12
-6.381067650108640811e-12
-5.379035181652775075e-12
-4.628450313405421389e-12
-3.630206087045558261e-12
-2.551391832035879080e-12
-2.018613346436061972e-12
-1.473415433795695777e-12
-1.082356268513898613e-12
-7.791192586320382209e-13
-5.766545412959290700e-13
-4.265321160296787888e-13
-3.201847206205993866e-13
-2.449825071017402785e-13
-1.907074582323359630e-13
-1.506168510600168518e-13
-1.199410210458495082e-13
-9.558732609839914072e-14
-7.569340596145488927e-14
-5.915381125004417547e-14
-4.534877278886080181e-14
-3.394017546605854805e-14
-2.472303076534430661e-14
-1.750741406220055382e-14
-1.206771737132640026e-14
-8.118266794715569754e-15
