# bin_2_9
-1.568192344072237282e-25
-1.690659092707106544e-25
-1.772806478628216195e-25
-1.796317013233036382e-25
-1.741886784293588444e-25
-1.595301588167895248e-25
-1.381878274548439615e-25
-1.139868612076375001e-25
-9.358617590407763563e-26
-8.010507378652668439e-26
-6.816848626767707243e-26
-5.070495784388623227e-26
-3.594231550079074087e-26
-2.922595906990615237e-26
-1.985511991913183447e-26
-1.517682190708902512e-26
-1.067350978321945225e-26
-7.668647836299734310e-27
-5.596095500348412269e-27
-4.125176751362045034e-27
-3.088612039943480591e-27
-2.351168003500097918e-27
-1.821005229222008910e-27
-1.426630880924524549e-27
-1.123288645709262233e-27
-8.828932190563179415e-28
-6.878314294254574769e-28
-5.279042882141823828e-28
-3.970823159887762659e-28
-2.915440329824013708e-28
-2.084224572172118327e-28
