# bin_17_3
-4.041588682402315412e-58
-4.510894260353827571e-58
-4.937761730723267425e-58
-5.275114702346097273e-58
-5.463929150192603015e-58
-5.457175046770560052e-58
-5.179084240284343725e-58
-4.640681772431615524e-58
-3.929712244165169617e-58
-3.215710122063767446e-58
-2.678643355159491389e-58
-2.320016887826219539e-58
-1.895637185020705106e-58
-1.328706575711450660e-58
-1.008458375605912051e-58
-7.721153920167456395e-59
-5.299924248424620308e-59
-3.823214781102536187e-59
-2.742059687849902396e-59
-1.919146672104567438e-59
-1.349208672563123899e-59
-9.602838198333467958e-60
-6.936606489954999211e-60
-5.097000584421833354e-60
-3.819483738847737229e-60
-2.909801472645300812e-60
-2.245149438253850564e-60
-1.743578092184226996e-60
-1.352919652342997762e-60
-1.041579607688041920e-60
-7.908526237758435482e-61
