# bin_19_19
-2.442367032863109003e-08
-2.775937213653583820e-08
-3.106832980759759428e-08
-3.411184025589939011e-08
-3.656997747112141124e-08
-3.803951066514222818e-08
-3.817259279999809053e-08
-3.645726232692811977e-08
-3.285859411875140489e-08
-2.798981043547583784e-08
-2.293614688079037459e-08
-1.902685557445762804e-08
-1.646912708781282966e-08
-1.362947791367150976e-08
-9.643611868504767865e-09
-7.166046975620840357e-09
-5.591244209050147010e-09
-3.746113487656465015e-09
-2.734935082732317430e-09
-1.913460967590009809e-09
-1.306975930177914798e-09
-8.930340777861204127e-10
-6.110297194242066087e-10
-4.214240082721219139e-10
-2.937385319708429343e-10
-2.084499715528237291e-10
-1.507851413641672825e-10
-1.113877782264802546e-10
-8.387903295039032381e-11
-6.407944464920903529e-11
-4.932045732726859667e-11
