# bin_17_11
-3.271793929255346015e-15
-3.681839455138788231e-15
-4.070809106841356501e-15
-4.403249272981774358e-15
-4.633401424297760413e-15
-4.711264286186707892e-15
-4.589527248628715155e-15
-4.222273758800063667e-15
-3.673365233424311913e-15
-3.036591682795015833e-15
-2.490195267943185389e-15
-2.128680136240647152e-15
-1.822238403205857844e-15
-1.365198250491972804e-15
-9.540806732091433467e-16
-7.778285120115567841e-16
-5.202400571030147606e-16
-3.946401877366934794e-16
-2.687428055431267814e-16
-1.867169869803641132e-16
-1.310769433553759906e-16
-9.202450273712849903e-17
-6.499986795763468630e-17
-4.644175355537847545e-17
-3.385194289434163736e-17
-2.515427817977848543e-17
-1.902471995099182793e-17
-1.459534294205050002e-17
-1.128388264377471536e-17
-8.727513021679249470e-18
-6.704418107873573349e-18
