# bin_4_5
-2.986076153815663092e-08
-3.167950919400403128e-08
-3.255184629742496845e-08
-3.220221427638211408e-08
-3.020480021629384075e-08
-2.677641409392217365e-08
-2.245904099330719495e-08
-1.836243804930818328e-08
-1.541612995751588358e-08
-1.331848097919648040e-08
-1.059696248793621943e-08
-7.405167968714656695e-09
-5.809121091417775153e-09
-4.297686332780627457e-09
-3.102474190977149069e-09
-2.220568548962933751e-09
-1.634898187792283909e-09
-1.191198697846540721e-09
-8.784377115887544828e-10
-6.598432014475011950e-10
-5.044353337804395111e-10
-3.920932256428227664e-10
-3.085022359575879612e-10
-2.440175058245726691e-10
-1.926994099306444207e-10
-1.508685256938047826e-10
-1.163543283343646742e-10
-8.792403124338345744e-11
-6.482934547179308704e-11
-4.651629406462264301e-11
-3.246670443166622787e-11
