# bin_5_17
-2.424583304129619030e-42
-2.710730537568216846e-42
-2.973440529028421704e-42
-3.184853973981780340e-42
-3.309903964619554443e-42
-3.318681387366665286e-42
-3.166673391215659230e-42
-2.851978408829412546e-42
-2.427728931007959507e-42
-1.988855171147531188e-42
-1.649955614999462153e-42
-1.427536138355868982e-42
-1.180275978378076898e-42
-8.357409447359546504e-43
-6.225398793390007568e-43
-4.863747843242320378e-43
-3.285886640258588360e-43
-2.416813950448551960e-43
-1.715050843786806425e-43
-1.196041606232723814e-43
-8.399510747470911951e-44
-5.950924321602590218e-44
-4.278440490477831962e-44
-3.126662730282250482e-44
-2.331062354843235710e-44
-1.768130577995099215e-44
-1.359889706871869287e-44
-1.054380044815114366e-44
-8.181421907262664376e-45
-6.308072620807688422e-45
-4.802552148698639993e-45
