# bin_5_19
-1.990672361314753543e-51
-2.235522782818765630e-51
-2.465534796847375690e-51
-2.658681888186021340e-51
-2.786846770742003782e-51
-2.821511839873025074e-51
-2.730766086152991942e-51
-2.494623065888581585e-51
-2.154946732206921070e-51
-1.774889919493632467e-51
-1.459641793464246391e-51
-1.253805459648574571e-51
-1.063704060880022061e-51
-7.812542692071827761e-52
-5.547980797605489318e-52
-4.505498542289216934e-52
-2.984855314027202709e-52
-2.267034082281016867e-52
-1.563602269833667148e-52
-1.083351334838366844e-52
-7.610659445052573806e-53
-5.351511851938315051e-53
-3.800566160936247485e-53
-2.735208642953542225e-53
-2.008993570014514010e-53
-1.503557200455756263e-53
-1.144149183315525848e-53
-8.814534631602362298e-54
-6.827584495598483553e-54
-5.278457295996465010e-54
-4.044683046391881417e-54
