# bin_12_14
-4.332592349877248622e-09
-4.858725518596859866e-09
-5.349555370641176783e-09
-5.756544097365455516e-09
-6.018086277237550337e-09
-6.074868903989730522e-09
-5.853419628107868647e-09
-5.322701502898631837e-09
-4.576351104774274903e-09
-3.761524295891328322e-09
-3.100944940444953613e-09
-2.671202747116868268e-09
-2.249730928211604137e-09
-1.631476688283335712e-09
-1.175075379607020900e-09
-9.458914984222052908e-10
-6.276318268051863348e-10
-4.738845205216777848e-10
-3.296917816665688545e-10
-2.286980875216696573e-10
-1.606227101027308277e-10
-1.131020146808452812e-10
-8.062465125203126164e-11
-5.830944842400886072e-11
-4.303835210161285626e-11
-3.235554917702060082e-11
-2.471242558272807686e-11
-1.908347043847798670e-11
-1.479437569524618066e-11
-1.143047545349964545e-11
-8.742097436796938297e-12
