# bin_12_5
-7.506463546109262552e-22
-8.273151364825412946e-22
-8.916780212681346796e-22
-9.343500348424196233e-22
-9.457872896432068029e-22
-9.154123729352864316e-22
-8.364633396535412630e-22
-7.228129896595638104e-22
-5.954312306449387194e-22
-4.894381080266089981e-22
-4.199825316857148589e-22
-3.564407055045593175e-22
-2.626789395204013747e-22
-1.867279458002772336e-22
-1.517561605499842407e-22
-1.016416063218775646e-22
-7.756709025801069892e-23
-5.414910508496721327e-23
-3.824505515805271457e-23
-2.745565243625846786e-23
-1.983902425547662521e-23
-1.453593380696425937e-23
-1.082277900952626804e-23
-8.216158952366226050e-24
-6.332061530608081770e-24
-4.928818037832782935e-24
-3.850914698346679195e-24
-2.997865436876546920e-24
-2.310010156769683433e-24
-1.751805153311001293e-24
-1.301651866886229692e-24
