# bin_8_3
-1.142519861319755569e-16
-1.229021836392258951e-16
-1.285145261781301520e-16
-1.298116973146377275e-16
-1.252924752679461554e-16
-1.141836345316004761e-16
-9.841413683083443928e-17
-8.098414694328000781e-17
-6.663844496600652229e-17
-5.722019705285748932e-17
-4.836345958189200237e-17
-3.550069744827286340e-17
-2.547414444696726308e-17
-2.061659805434258431e-17
-1.395853861548709700e-17
-1.066037543709829864e-17
-7.556726314854297182e-18
-5.423615778487203059e-18
-3.961614162180783249e-18
-2.925838573633419304e-18
-2.197416201165210632e-18
-1.678292788362533691e-18
-1.303415461373073019e-18
-1.023034131182473520e-18
-8.062226470472124831e-19
-6.335830472950801923e-19
-4.930395599773935001e-19
-3.776483697024627955e-19
-2.832894334230188066e-19
-2.073080839338946622e-19
-1.476687238361227163e-19
