# bin_17_8
-1.877992098608427032e-25
-2.106126587333228735e-25
-2.318993708134421345e-25
-2.495560745495677266e-25
-2.609129950604706026e-25
-2.633961584427007792e-25
-2.538237286019769546e-25
-2.308355689455142331e-25
-1.984903360276617419e-25
-1.631544390450998000e-25
-1.344917627922938760e-25
-1.158479408985898833e-25
-9.759060209272382792e-26
-7.078955405877189021e-26
-5.096614112828573802e-26
-4.104163224520634049e-26
-2.722517211777104587e-26
-2.056315379647488006e-26
-1.430305701685414194e-26
-9.920768309023272073e-27
-6.967691455240252177e-27
-4.905838103943187557e-27
-3.496738037886046335e-27
-2.528577427787480804e-27
-1.866109232715165847e-27
-1.402748768048528826e-27
-1.071289226271935863e-27
-8.272278566478541475e-28
-6.412956879693504163e-28
-4.954917266921065973e-28
-3.789761024756269003e-28
