# bin_2_18
-6.355108083665729019e-73
-7.107405380383236487e-73
-7.799275364526267605e-73
-8.357885915342240304e-73
-8.691502650544317345e-73
-8.720827473765090965e-73
-8.329912854161870203e-73
-7.509493217237196897e-73
-6.398964995524564875e-73
-5.243643350243753112e-73
-4.346995822367918661e-73
-3.759761050363406444e-73
-3.115035553126864613e-73
-2.210654343546328335e-73
-1.640846401823915961e-73
-1.286524493823276854e-73
-8.669584328255292762e-74
-6.398047815505536475e-74
-4.530543866205271238e-74
-3.157489308741904988e-74
-2.217287859957660002e-74
-1.569666224788709028e-74
-1.127489901948652043e-74
-8.230816112676722079e-75
-6.130201271310664848e-75
-4.645698783762322907e-75
-3.570667412179708814e-75
-2.767480782497976454e-75
-2.147317149848091731e-75
-1.656048405699675699e-75
-1.261430407828910912e-75
