# bin_2_17
-1.589312655877438537e-67
-1.772633618457720020e-67
-1.938730935387316547e-67
-2.068993190171749067e-67
-2.140141806666638783e-67
-2.134054425622346743e-67
-2.020873805114526801e-67
-1.807087633250087266e-67
-1.527112816962395094e-67
-1.249229925882294104e-67
-1.042393299930268389e-67
-9.029976547916083573e-68
-7.340314449253794114e-68
-5.127462476354102374e-68
-3.921062671546480586e-68
-2.976027748506856526e-68
-2.057975733040649446e-68
-1.472513708556153505e-68
-1.059946856721943526e-68
-7.429971251668530600e-69
-5.227876740588276348e-69
-3.728110825746143161e-69
-2.697985483131518762e-69
-1.986721124098631156e-69
-1.491697680108458219e-69
-1.138299874852275586e-69
-8.793174338818701754e-70
-6.832416155744709917e-70
-5.301069872601979886e-70
-4.078445292418480279e-70
-3.093206603882987306e-70
