# bin_13_13
-2.942877976062029442e-08
-3.299940912799177168e-08
-3.632886767162526293e-08
-3.908720255564636340e-08
-4.085577072691779723e-08
-4.123290995610127389e-08
-3.971800756478193290e-08
-3.610592884096366773e-08
-3.103348961325187140e-08
-2.550478626187372897e-08
-2.102942127869361698e-08
-1.811816328021882396e-08
-1.525150072119524043e-08
-1.105130659608182837e-08
-7.967665852201578394e-09
-6.408845747332428697e-09
-4.253856689259153438e-09
-3.209934422578406074e-09
-2.234520876591236718e-09
-1.550218777779493608e-09
-1.088756693473662483e-09
-7.667527680066164209e-10
-5.467185549353368354e-10
-3.955270569171369016e-10
-2.920327628396734213e-10
-2.196090854273060594e-10
-1.677714764312055876e-10
-1.295753219012067506e-10
-1.004571278447683824e-10
-7.761145912255942185e-11
-5.934980757271296530e-11
