# bin_2_8
-3.343287173438057427e-21
-3.580668391440487637e-21
-3.723339443890249822e-21
-3.737181685207445375e-21
-3.574006422579157031e-21
-3.227081067366684033e-21
-2.755076563743633141e-21
-2.259061391559631089e-21
-1.869073547695749144e-21
-1.612426754876298062e-21
-1.341050118343666073e-21
-9.621633012997367713e-22
-7.105320074761894209e-22
-5.632141236728257213e-22
-3.846774134572368582e-22
-2.894462713083117673e-22
-2.085426603787858780e-22
-1.500410143361509917e-22
-1.097154923981162603e-22
-8.137989821941512414e-23
-6.148184423429947833e-23
-4.724591915974326393e-23
-3.686884035450214547e-23
-2.902724400152329525e-23
-2.290354011105993945e-23
-1.798590389920902131e-23
-1.396076133794818185e-23
-1.064948446415283283e-23
-7.945400615587736525e-24
-5.777095025499261351e-24
-4.087031683700553766e-24
