# bin_11_7
-1.863704454711223708e-12
-2.057061773865556057e-12
-2.221099896109262123e-12
-2.332679789081849222e-12
-2.367240845605588864e-12
-2.299969602787640381e-12
-2.110300395693159168e-12
-1.831181237327814546e-12
-1.511711136713349903e-12
-1.240533891088333114e-12
-1.061483022087883154e-12
-9.056327719420106506e-13
-6.751244919490839426e-13
-4.753958880182830009e-13
-3.872704940970916362e-13
-2.607333496340702775e-13
-1.987785724670110245e-13
-1.378079755294508883e-13
-9.749707142802426926e-14
-6.993457499796994046e-14
-5.046304059587430988e-14
-3.686804701083770851e-14
-2.735714096738679893e-14
-2.070264977174882940e-14
-1.591480172055841123e-14
-1.236661343099609089e-14
-9.655300540837780171e-15
-7.518846294350604347e-15
-5.800731351759202067e-15
-4.407680074263490914e-15
-3.283573432841274244e-15
