# bin_3_4
-3.446839145130751568e-08
-3.598439316799292722e-08
-3.629155282582536757e-08
-3.496664628063705458e-08
-3.182421904499129447e-08
-2.739665673338816456e-08
-2.254472975886653915e-08
-1.856735168776420678e-08
-1.593255621138074653e-08
-1.342312264276355008e-08
-9.862560103005364652e-09
-7.124010889065346421e-09
-5.729575783723388709e-09
-3.935813885840600911e-09
-2.995994770150320701e-09
-2.147581838604067440e-09
-1.563646772476571885e-09
-1.158019353043364665e-09
-8.700026666060815631e-10
-6.653937290251987550e-10
-5.172813032134994831e-10
-4.077721495557418091e-10
-3.236485498021345377e-10
-2.567977717429797982e-10
-2.022685795739528166e-10
-1.570956084751065945e-10
-1.196273526681413890e-10
-8.891290099714114172e-11
-6.430924746599900327e-11
-4.523195227562548288e-11
-3.097639432400649582e-11
