# bin_6_12
-8.429131191406528736e-18
-9.310022065058211465e-18
-1.006093097991197023e-17
-1.057755036094345780e-17
-1.074695034013700032e-17
-1.046005874638629292e-17
-9.615938714880198073e-18
-8.360199417076555443e-18
-6.908678767636363776e-18
-5.665250995171998936e-18
-4.841124340762616880e-18
-4.139978711056220007e-18
-3.102577597924745192e-18
-2.175918172849933544e-18
-1.773616154690717238e-18
-1.197610151499626950e-18
-9.122035313999940310e-19
-6.303782951084726426e-19
-4.464054911577203219e-19
-3.200665159481156122e-19
-2.308024391261277686e-19
-1.683939741938756991e-19
-1.247515811747051805e-19
-9.426255101659048302e-20
-7.237331320831527754e-20
-5.618979800665504314e-20
-4.385424467130126255e-20
-3.415452173584384202e-20
-2.636445849618440668e-20
-2.005122020348277648e-20
-1.495550279730429878e-20
