# bin_12_1
-4.437659131850956839e-49
-4.852591187996661920e-49
-5.179272466184678965e-49
-5.359968027027742612e-49
-5.348769450799891759e-49
-5.072026142591443493e-49
-4.541780008055005234e-49
-3.844106610362158195e-49
-3.145166052490361949e-49
-2.619688972990373082e-49
-2.267222114437232037e-49
-1.850866599949363489e-49
-1.300681162255046767e-49
-9.892335847844869083e-50
-7.591267386881355875e-50
-5.259599556753233269e-50
-3.829367686075757415e-50
-2.777144294111118271e-50
-1.979408761773358410e-50
-1.424386933686123625e-50
-1.041235524373520605e-50
-7.745344385367801919e-51
-5.864534781961446218e-51
-4.516459572246386650e-51
-3.518521253794632022e-51
-2.756450229482425293e-51
-2.156505595406080424e-51
-1.673002717581006378e-51
-1.279298654960907706e-51
-9.594347439517941442e-52
-7.029627341982259953e-52
