# bin_15_4
-3.292734295854121986e-40
-3.657943633151794026e-40
-3.981194340818887915e-40
-4.222891186116378891e-40
-4.334998255422057091e-40
-4.281428081131683344e-40
-4.004504300631938931e-40
-3.539696930374499812e-40
-2.959645247284728170e-40
-2.419438231243492570e-40
-2.039325033261091041e-40
-1.764251970190405987e-40
-1.388066719475969726e-40
-9.597742424932701529e-41
-7.628440759793832958e-41
-5.487335369458124127e-41
-3.983867417192752684e-41
-2.745396198377267069e-41
-1.987133523935812025e-41
-1.406748510936107141e-41
-9.997495457648726609e-42
-7.205105280929637886e-42
-5.266410864480264191e-42
-3.923112240611576445e-42
-2.976143536094696503e-42
-2.290118698524656165e-42
-1.778830258216227327e-42
-1.384961409392255623e-42
-1.073115163573044433e-42
-8.220710094384069998e-43
-6.193396226312542442e-43
