# bin_11_13
-4.018943880734365257e-09
-4.492312217218687633e-09
-4.926416438069380608e-09
-5.274998616637467111e-09
-5.479859453515523359e-09
-5.491782601259012562e-09
-5.236759412379587770e-09
-4.713388443642075900e-09
-4.009655910887646032e-09
-3.284314125439313013e-09
-2.725984970947590133e-09
-2.358882886622537473e-09
-1.947556591976808793e-09
-1.377272934998404871e-09
-1.028260422147325646e-09
-8.014239363150923344e-10
-5.424340219285464485e-10
-3.980503970597888484e-10
-2.828459677921950240e-10
-1.973388750673787114e-10
-1.386031291193313838e-10
-9.825471639559992132e-11
-7.068384001119680911e-11
-5.169214262751924621e-11
-3.856465235973062901e-11
-2.926868069199624931e-11
-2.252071657224961258e-11
-1.746534189884966143e-11
-1.355248659261465058e-11
-1.044751527083059410e-11
-7.951443809213247993e-12
