# bin_7_16
-1.211886143233276664e-26
-1.354741527102810190e-26
-1.485807047028286359e-26
-1.591143438041943197e-26
-1.653209422811830506e-26
-1.657122953936640598e-26
-1.580584381528454130e-26
-1.422964454205564280e-26
-1.210806136886731019e-26
-9.918208721086291339e-27
-8.230522628404977045e-27
-7.121853436166808571e-27
-5.883395015323753956e-27
-4.162445429019413799e-27
-3.104919943812125593e-27
-2.422341719807893992e-27
-1.638213417392838374e-27
-1.203292421759534656e-27
-8.546127243580938345e-28
-5.961425603340665083e-28
-4.186719281649853944e-28
-2.967187052276900863e-28
-2.134038076096474398e-28
-1.560199650941223088e-28
-1.163658615255620832e-28
-8.829494508668095087e-29
-6.792630196570556020e-29
-5.267348491127067582e-29
-4.087240009850960984e-29
-3.151042260346884891e-29
-2.398527162295470750e-29
