# bin_2_19
-2.954363936635294755e-78
-3.312339243670751656e-78
-3.645888637789143379e-78
-3.921846837868355938e-78
-4.098156331258363146e-78
-4.134686163051406664e-78
-3.980923094546771300e-78
-3.617163960012807096e-78
-3.107474792276930088e-78
-2.553362985545441869e-78
-2.105890128267656271e-78
-1.814857608819616096e-78
-1.526479032267980164e-78
-1.104661115719453573e-78
-7.976900989016765906e-79
-6.408874729811479743e-79
-4.255791398408907923e-79
-3.208605731227659700e-79
-2.235621342904763991e-79
-1.551276228346566008e-79
-1.089456717226100581e-79
-7.673840831945023209e-80
-5.473786826788668089e-80
-3.962005875143617266e-80
-2.926721212788660268e-80
-2.201865601682158041e-80
-1.682721795104060139e-80
-1.299902037596540518e-80
-1.007853673480903591e-80
-7.785868142218542786e-81
-5.952654954711307054e-81
