# bin_8_15
-2.667641739120626854e-19
-2.979596339318224620e-19
-3.264498188722131356e-19
-3.491454922562683230e-19
-3.621658554494233319e-19
-3.623307360366556033e-19
-3.446711526953886743e-19
-3.095164019652160510e-19
-2.626815238223022097e-19
-2.150455693411257888e-19
-1.788077261201849436e-19
-1.548157433568087389e-19
-1.271631235610493908e-19
-8.949728733786254523e-20
-6.738057982458342173e-20
-5.205406877473028182e-20
-3.547079610680936427e-20
-2.580852638984158168e-20
-1.842956374255615259e-20
-1.287825573963314146e-20
-9.048150980752325093e-21
-6.426908382138417569e-21
-4.633196852266021713e-21
-3.396596436768874660e-21
-2.539814742327645676e-21
-1.931388210964245255e-21
-1.488265117320123352e-21
-1.155047710516787956e-21
-8.962963368352441888e-22
-6.905018228649658097e-22
-5.249044195502930363e-22
