# bin_19_17
-5.990425075886482477e-09
-6.797733004793634880e-09
-7.592493680777586135e-09
-8.315444319133780797e-09
-8.886911233611531530e-09
-9.206873019561461806e-09
-9.196216135793173316e-09
-8.725912201056478375e-09
-7.816782054050765291e-09
-6.616614136855078544e-09
-5.414870953810949532e-09
-4.514326191418630309e-09
-3.912296733287594950e-09
-3.191915056680040087e-09
-2.230460000332370857e-09
-1.695151772495528748e-09
-1.289968046958310933e-09
-8.809016266288572088e-10
-6.269594022433196003e-10
-4.444864168770956185e-10
-3.047742389089219821e-10
-2.083323203671664885e-10
-1.433543821314167019e-10
-9.949058406322902508e-11
-6.991570007699251280e-11
-5.006045373747566295e-11
-3.654943086858200357e-11
-2.723654272526638905e-11
-2.065408196936510300e-11
-1.584965545992648596e-11
-1.221883493128825566e-11
