# bin_10_13
-2.770942662087752589e-10
-3.092146472029994911e-10
-3.384013624789097480e-10
-3.614224466247101737e-10
-3.742291540014902944e-10
-3.736106224833219679e-10
-3.543763792270597134e-10
-3.173733160878427423e-10
-2.686181023003337726e-10
-2.197974743964699249e-10
-1.831687867081839699e-10
-1.586463938111283664e-10
-1.294523275925178046e-10
-9.067228313878152132e-11
-6.894577327112881618e-11
-5.266998355438400164e-11
-3.622502461895316120e-11
-2.607926082523019952e-11
-1.871818990845735931e-11
-1.310602758828360688e-11
-9.216691747462426147e-12
-6.563187238209603480e-12
-4.743126149018605541e-12
-3.487136882379740541e-12
-2.614422973397659653e-12
-1.992581779398539968e-12
-1.537888185003258100e-12
-1.194474565593499048e-12
-9.268161119098729330e-13
-7.134070364884960343e-13
-5.415192920377725787e-13
