# bin_12_3
-4.833207350098070115e-33
-5.304794223775258837e-33
-5.688168106471306384e-33
-5.921614737245092393e-33
-5.950081691178960072e-33
-5.696874109054303942e-33
-5.148456713933265782e-33
-4.398792772637763139e-33
-3.607304143218632968e-33
-2.983818844472716548e-33
-2.575952057189490474e-33
-2.145917773146287312e-33
-1.536723253394825339e-33
-1.130914292492380500e-33
-8.972213160134292058e-34
-6.062670818791042883e-34
-4.546380711317038953e-34
-3.240186542827105515e-34
-2.295785356310418848e-34
-1.648862787406837415e-34
-1.197178762573035903e-34
-8.842693752536124611e-35
-6.645081260708191115e-35
-5.085644141256008614e-35
-3.943950801491200503e-35
-3.082014413102954199e-35
-2.410773285590377210e-35
-1.873909812294402135e-35
-1.438397935155151705e-35
-1.084537781062267537e-35
-7.999106094507834710e-36
