# bin_12_10
-3.708672965349782885e-09
-4.130145097059595786e-09
-4.508695060097533971e-09
-4.800409683998412609e-09
-4.950809873097456622e-09
-4.918932235687533727e-09
-4.635842007731000617e-09
-4.126942497241464523e-09
-3.472618643329914910e-09
-2.839271466866526094e-09
-2.378331851077301590e-09
-2.060192619059468951e-09
-1.654764057617246764e-09
-1.149153190481009301e-09
-8.929547882015557404e-10
-6.643105160125159845e-10
-4.676319905980709603e-10
-3.289611541637690962e-10
-2.380969635473157574e-10
-1.674992322136026550e-10
-1.181945959153410610e-10
-8.464554026353733636e-11
-6.149889939733764051e-11
-4.549403980714891023e-11
-3.430039068370075804e-11
-2.626402216138670197e-11
-2.033601528682817760e-11
-1.581671252732420123e-11
-1.226722035899346922e-11
-9.423194607707682466e-12
-7.128822521445899101e-12
