# bin_2_11
-3.245970052406486677e-35
-3.538863042045650595e-35
-3.763027077786963622e-35
-3.875977603872505990e-35
-3.845607819483527796e-35
-3.618846753948186981e-35
-3.217376368304568132e-35
-2.704461283248973895e-35
-2.210815637492655064e-35
-1.852668215937243043e-35
-1.603501299290745727e-35
-1.284782250496518832e-35
-8.944739982829188044e-36
-6.974931409324678442e-36
-5.191408778053764382e-36
-3.693963933005245295e-36
-2.624621519799705140e-36
-1.919615259329627381e-36
-1.375874231463307244e-36
-9.942379734312955614e-37
-7.311036264961773680e-37
-5.467410399510753246e-37
-4.162913634697819966e-37
-3.220308014284317023e-37
-2.516470966079329345e-37
-1.974276874509409594e-37
-1.544080081802539994e-37
-1.195626042830314541e-37
-9.112822886882808281e-38
-6.804273874148195605e-38
-4.958894724569170301e-38
