# bin_4_19
-1.885639908144171534e-59
-2.116224476066947788e-59
-2.332156689603516172e-59
-2.512450936520652662e-59
-2.630392779294533556e-59
-2.659524229161262976e-59
-2.568771576958618429e-59
-2.341671179252983564e-59
-2.018452337884214146e-59
-1.660841212749476982e-59
-1.367307535194011938e-59
-1.176075483734565727e-59
-9.945471292583932700e-60
-7.261486378184674219e-60
-5.188913487947194395e-60
-4.199242130044348660e-60
-2.781976157889001782e-60
-2.108537619206856751e-60
-1.460062185473841663e-60
-1.011959120788903217e-60
-7.108385864566865453e-61
-5.000942636925100124e-61
-3.557608105254164468e-61
-2.566089721829730787e-61
-1.889037149134014939e-61
-1.416725847233865104e-61
-1.079934573852697447e-61
-8.329142862554630176e-62
-6.454369965739725759e-62
-4.988636040917086092e-62
-3.819350037899037559e-62
