# bin_5_8
-5.989961140972099734e-11
-6.499254191856438575e-11
-6.869886759274148841e-11
-7.025369766111870015e-11
-6.903795772364985171e-11
-6.420122298827796888e-11
-5.644651605379783159e-11
-4.701138006420401710e-11
-3.845105014756111038e-11
-3.253314681897124875e-11
-2.804663464831751491e-11
-2.176441883639558424e-11
-1.513484961449665855e-11
-1.214639568826219075e-11
-8.618284113646371616e-12
-6.390904002167142975e-12
-4.457148490883427786e-12
-3.245472738918283018e-12
-2.348034141910919218e-12
-1.713655991051631324e-12
-1.270648072713511574e-12
-9.576437689327678398e-13
-7.349299078577555006e-13
-5.719640596659197235e-13
-4.486757623215498082e-13
-3.524750180511840767e-13
-2.753260268863041801e-13
-2.124466986239746071e-13
-1.610384754839073394e-13
-1.193891868375195037e-13
-8.628866939219910962e-14
