# bin_13_6
-6.651630312017624777e-21
-7.368672929905784639e-21
-7.992229196260977368e-21
-8.441146114174855631e-21
-8.621149005332423279e-21
-8.455089450433973205e-21
-7.841055537798259393e-21
-6.875552573018802279e-21
-5.712746795128686229e-21
-4.674316846691677986e-21
-3.967659342623002161e-21
-3.418884983512304004e-21
-2.625741747161313454e-21
-1.820882359175356169e-21
-1.473071798562015927e-21
-1.021867549491933805e-21
-7.647790085727285761e-22
-5.237623718922803011e-22
-3.749865681197692335e-22
-2.674623315512372902e-22
-1.917708587190114695e-22
-1.390718344526912290e-22
-1.023178380240843731e-22
-7.677263231250161803e-23
-5.860386040081901526e-23
-4.530932163279208231e-23
-3.528936915843659848e-23
-2.748833042267946737e-23
-2.126450221738270446e-23
-1.623461616248852736e-23
-1.217204524244675041e-23
