# bin_10_9
-2.022578724763604133e-08
-2.237095010800437657e-08
-2.421722988412544772e-08
-2.551600379164985610e-08
-2.598830146067824507e-08
-2.538626704772152412e-08
-2.343365982638838901e-08
-2.045612040553029797e-08
-1.694595636876928081e-08
-1.387980005192126180e-08
-1.182422672399126028e-08
-1.015176828712786474e-08
-7.696038951524597996e-09
-5.364042074250740481e-09
-4.362102260194391371e-09
-2.978648766144262543e-09
-2.253775023018579949e-09
-1.549315675094231845e-09
-1.102148116172480690e-09
-7.886120405399512626e-10
-5.673958635900338469e-10
-4.128121351117174548e-10
-3.048302969719422203e-10
-2.295898880686620320e-10
-1.758100429966984286e-10
-1.362407649420486391e-10
-1.062372001636006076e-10
-8.275144668218557668e-11
-6.394529949113173231e-11
-4.872226887466210269e-11
-3.643008068209479858e-11
