# bin_5_1
1.555637794061727477e-08
1.298865025506710649e-08
1.063426687361467737e-08
8.580865421351443374e-09
6.839064257498490550e-09
5.366148638626085536e-09
4.125089147150165929e-09
3.121203515998499209e-09
2.361313727127459251e-09
1.796249611858360090e-09
1.367737170514930355e-09
1.051530263518451931e-09
8.168933546953007971e-10
6.408910353790593473e-10
5.065728561235918302e-10
4.018707786437703213e-10
3.184856118503426356e-10
2.509453089088233931e-10
1.957164730745652109e-10
1.505062573605390357e-10
1.137610399829590932e-10
8.431778643940887587e-11
6.118805866178064138e-11
4.344635397778380085e-11
3.019163938665378740e-11
2.055589043937576878e-11
1.373586625867126890e-11
9.027890675916061939e-12
5.849792955253122303e-12
3.745589748089941671e-12
2.374953665733475860e-12
