# bin_15_14
6.536564295682783562e-08
6.111290484388695625e-08
5.568135129718574817e-08
4.937245674351042680e-08
4.259946619946534639e-08
3.582981074754672023e-08
2.949570728859579909e-08
2.388482667819155634e-08
1.908592317029683257e-08
1.502568820946422822e-08
1.159216695811685034e-08
8.758621618223494674e-09
6.556291247915063448e-09
4.919614709686955798e-09
3.684381574154734877e-09
2.761409282940516627e-09
2.087821622200490797e-09
1.588826750923242111e-09
1.218864381285912168e-09
9.405524963967172872e-10
7.278997568679641610e-10
5.628916058346383922e-10
4.332520027454768125e-10
3.306636539668650846e-10
2.494030630015926364e-10
1.853935391093053521e-10
1.355342187552551529e-10
9.730462273970642613e-11
6.854917520589741062e-11
4.737973711577321848e-11
3.214444635405781319e-11
