# bin_20_1
1.881903698818692103e-08
1.580507109872460933e-08
1.299720514777570031e-08
1.052667858319281394e-08
8.425612842445968583e-09
6.643979968302143670e-09
5.126433734006166730e-09
3.879228865811616654e-09
2.928670992921881971e-09
2.224520304652695503e-09
1.688508408877153339e-09
1.292811850449012636e-09
1.000627880899675087e-09
7.825769986988912966e-10
6.173896480503320569e-10
4.895940292912369347e-10
3.884630693547774057e-10
3.068822946632010231e-10
2.402564256751677738e-10
1.856335621788136598e-10
1.410652591334537468e-10
1.051512220078055617e-10
7.674560546550852615e-11
5.479544467056092443e-11
3.827390384383217029e-11
2.617784751308874555e-11
1.756135568642678944e-11
1.158004870625556891e-11
7.523494319845947824e-12
4.827410572999362567e-12
3.065886402580895112e-12
