# bin_13_9
5.234514949918126611e-08
4.797606805740552133e-08
4.280382935812079772e-08
3.715520362607978336e-08
3.141787482922575047e-08
2.597254106641090318e-08
2.109905602005182802e-08
1.691201062506287068e-08
1.337217247059900263e-08
1.037581948748201450e-08
7.878063584023004708e-09
5.909490388875495428e-09
4.444752291859221651e-09
3.344327421651037876e-09
2.514410924417152504e-09
1.909427380475082090e-09
1.459813240639465524e-09
1.126030183629202064e-09
8.740515291894118939e-10
6.806867419554278868e-10
5.297793564634560314e-10
4.103706428582475481e-10
3.151166680687251207e-10
2.390216818984673479e-10
1.785699367786519670e-10
1.311023840887246055e-10
9.444296800074857893e-11
6.669954197007033745e-11
4.617537186986439792e-11
3.135272784978818017e-11
2.090386204790943522e-11
