# bin_10_2
2.286627485193268121e-08
1.952001725675044078e-08
1.626243088338429434e-08
1.329076831067772409e-08
1.071228669271175196e-08
8.530134788646412634e-09
6.680170431954771048e-09
5.116997114948558549e-09
3.859147822999965359e-09
2.916752775484717850e-09
2.213964195141569322e-09
1.679821536022301361e-09
1.288696816716574600e-09
9.978408030418293025e-10
7.805405191473798773e-10
6.150753250475879783e-10
4.865135013676287719e-10
3.845049490619962539e-10
3.021982328641514125e-10
2.351494086185928858e-10
1.804552775350058641e-10
1.361419227575511003e-10
1.007325740736129840e-10
7.298232989903327832e-11
5.174024594509697282e-11
3.589943129402303016e-11
2.440317922264811245e-11
1.628002539698441233e-11
1.068221496177669600e-11
6.910203431197127024e-12
4.417303505711162890e-12
