# bin_12_5
3.806731906691468147e-08
3.388695236211835297e-08
2.934338573562263463e-08
2.475116211409554622e-08
2.041833929994379992e-08
1.656365218620198575e-08
1.326812919318494984e-08
1.048484012290019705e-08
8.123466265674940170e-09
6.158327681620306382e-09
4.626678706056039064e-09
3.495230265440058408e-09
2.638363369852669926e-09
1.996648683170403417e-09
1.527685772560750276e-09
1.178324368281690215e-09
9.170241801490332468e-10
7.180918859651955632e-10
5.636708450370213151e-10
4.416075326546110243e-10
3.437939226482679456e-10
2.648688579303928407e-10
2.012261971016328203e-10
1.503187592478300762e-10
1.101756660836695970e-10
7.912246149283340709e-11
5.564194363994211421e-11
3.832541078989837870e-11
2.588093696665830767e-11
1.716323544574121263e-11
1.120084093000068070e-11
