# bin_20_18
7.756997432879204865e-08
7.361398359580221193e-08
6.814981232189935146e-08
6.143509697542339366e-08
5.387819744039497594e-08
4.599550335479984792e-08
3.832839399447459632e-08
3.132453571573279342e-08
2.522381671437771679e-08
2.004053129044520538e-08
1.564906648192590813e-08
1.195130863809200276e-08
8.963774444312729755e-09
6.698488162308529328e-09
5.012320467652775482e-09
3.733878866555622892e-09
2.795682439255996657e-09
2.106796595254708798e-09
1.599549493366103065e-09
1.222734049478122264e-09
9.394971180275962091e-10
7.233182026441886920e-10
5.559753408983368607e-10
4.250660267560854524e-10
3.220958210009413211e-10
2.411567052187257619e-10
1.779592759130056419e-10
1.291911165468428408e-10
9.214929630962964636e-11
6.453968038332330268e-11
4.438371636112346700e-11
