# bin_9_5
3.553769746102616602e-08
3.150227486071312602e-08
2.717387016013113259e-08
2.284827090837308199e-08
1.880327467949843067e-08
1.522522880408826655e-08
1.217283150180602324e-08
9.595631096696735516e-09
7.415927556623296476e-09
5.616393198082308377e-09
4.223222786463108920e-09
3.192589221618845268e-09
2.412007234211503745e-09
1.829388476312305661e-09
1.402321974178166057e-09
1.083868777214996661e-09
8.448627953204426949e-10
6.622468144485681524e-10
5.199777167632541274e-10
4.071807569205662340e-10
3.166179650209271227e-10
2.434956839450183926e-10
1.845692085225282067e-10
1.375153080038765170e-10
1.005064563849740253e-10
7.196891554200920316e-11
5.046702130537170838e-11
3.466785460537155962e-11
2.335451357182521059e-11
1.545545802349083334e-11
1.006875923726789704e-11
