# bin_12_3
2.882995423407500657e-08
2.504286899612247763e-08
2.118155583534990894e-08
1.751172466052282661e-08
1.423067432350291659e-08
1.141970475541325360e-08
9.045216521178993890e-09
7.027369732053539293e-09
5.339558082726503356e-09
4.017355130127137546e-09
3.040382689544797535e-09
2.301522065459834382e-09
1.746798399829081648e-09
1.341308833402115228e-09
1.038934529133892026e-09
8.123897065359991787e-10
6.393422302759371067e-10
5.044027649415625309e-10
3.971159330160991762e-10
3.105677421554277496e-10
2.402451665223694024e-10
1.831556214043636135e-10
1.372075271860195405e-10
1.007823356322760745e-10
7.248478170231597225e-11
5.102079552269233562e-11
3.515985691303987169e-11
2.374953825652148750e-11
1.575314680779060466e-11
1.028371633510770404e-11
6.622668591635940306e-12
