# bin_15_13
6.362372802454572488e-08
5.934007245470384667e-08
5.392618772857566023e-08
4.768866633795998890e-08
4.103974472584652737e-08
3.443786812085274650e-08
2.829752143623248876e-08
2.288274711904967266e-08
1.826240725014612969e-08
1.435395279254064954e-08
1.105105909244137061e-08
8.337306499131743821e-09
6.241960348287530504e-09
4.686823635179013790e-09
3.510312412238162794e-09
2.634832890634821767e-09
1.994925833054979515e-09
1.520837662667773706e-09
1.168534565464361477e-09
9.029588796694386994e-10
6.994939191149952434e-10
5.411942626738828604e-10
4.165477689270520502e-10
3.177532289819372036e-10
2.394351775846092294e-10
1.777428477938695004e-10
1.297221045586681102e-10
9.295086162005421133e-11
6.534280681558901564e-11
4.506302796656254261e-11
3.050417776759078504e-11
