# bin_17_9
5.593678449313193162e-08
5.151419411720833914e-08
4.618059440563091438e-08
4.026697233161598315e-08
3.418139391490143869e-08
2.834213797127745779e-08
2.307586612948089203e-08
1.853469158002972043e-08
1.469405355524200612e-08
1.143720564998777624e-08
8.701237863544540075e-09
6.523974527366816806e-09
4.902072157394297024e-09
3.686873058834053866e-09
2.765473209616571175e-09
2.095430740346312046e-09
1.597810161952438216e-09
1.229705505843080699e-09
9.528143106618802610e-10
7.412397219607834692e-10
5.767854677458726680e-10
4.470653467797447793e-10
3.437821765675168730e-10
2.613113494191553936e-10
1.957365606335349095e-10
1.441417017518696166e-10
1.041772604771783981e-10
7.382363234840091274e-11
5.127840663277988880e-11
3.492811267806818033e-11
2.335487427210817564e-11
