# bin_7_3
2.582205708054926931e-08
2.230892548267865850e-08
1.878487297737971880e-08
1.547785078135783065e-08
1.254506456111542550e-08
1.004036284066207215e-08
7.925913782423282130e-09
6.137069720612634134e-09
4.656988355701865517e-09
3.508002908618834426e-09
2.657694309630685487e-09
2.014450645866717453e-09
1.533499647166005624e-09
1.180564554873762963e-09
9.168923866592030235e-10
7.183778731267040221e-10
5.659710177647631376e-10
4.465353749816475141e-10
3.512020481511777316e-10
2.741231174876328347e-10
2.114705936312716935e-10
1.606795903783616569e-10
1.199187920288214914e-10
8.773454669394657082e-11
6.284935243615458707e-11
4.406933531812391195e-11
3.026239222562277767e-11
2.037772204790075142e-11
1.348069264386246920e-11
8.780947875562543851e-12
5.644944956182437570e-12
