# bin_16_19
-6.662573108029695980e-14
-7.539975059712838226e-14
-8.393279035781718834e-14
-9.154783826440437425e-14
-9.733942985665954971e-14
-1.001924487206328064e-13
-9.928447523987046560e-14
-9.322868930936249471e-14
-8.270177968666777921e-14
-6.936006091567080930e-14
-5.670950577891852490e-14
-4.768325743401233644e-14
-4.130747461164932655e-14
-3.280174292187035595e-14
-2.265278515363709243e-14
-1.782457304372529178e-14
-1.295409928740707863e-14
-9.214764929164506146e-15
-6.307319063668394386e-15
-4.512249959222728954e-15
-3.116542911682110809e-15
-2.144899318024653570e-15
-1.490138374405325971e-15
-1.044272577101430035e-15
-7.432970692893146225e-16
-5.393778406896781087e-16
-3.991750295620198081e-16
-3.010721249881212746e-16
-2.303704092124510290e-16
-1.776771524347678886e-16
-1.370904825284562954e-16
