# bin_5_11
-3.502714798919284037e-23
-3.837205536511500068e-23
-4.104876277797238979e-23
-4.260553948904327275e-23
-4.266270575820346598e-23
-4.064876386563822077e-23
-3.656161186913812438e-23
-3.108644425968103146e-23
-2.545780910557785530e-23
-2.112847110550748106e-23
-1.827061005994087994e-23
-1.507144444998416435e-23
-1.067988565819501358e-23
-7.992362633826829970e-24
-6.240260660404364550e-24
-4.264126445708443479e-24
-3.153014411150831213e-24
-2.268325164008089487e-24
-1.611945036099205888e-24
-1.158653277701851308e-24
-8.442700297988329522e-25
-6.261055405397679916e-25
-4.726546926615565530e-25
-3.631060516134462067e-25
-2.824571526729451966e-25
-2.211818263963429599e-25
-1.731577490936089553e-25
-1.345659174565636013e-25
-1.031712779522468916e-25
-7.763958393756543203e-26
-5.711574934224633535e-26
