# bin_16_18
-7.081646187554453608e-13
-8.004173243299429173e-13
-8.896393833134224147e-13
-9.685344066085095215e-13
-1.027402979279894230e-12
-1.054491524637450085e-12
-1.041019985591521594e-12
-9.729438025793214773e-13
-8.593195175656211931e-13
-7.179729321981393133e-13
-5.870821381627097837e-13
-4.955625350521983985e-13
-4.287930051648746974e-13
-3.359957476907884015e-13
-2.317613914624796867e-13
-1.847179847106829507e-13
-1.313300696783496847e-13
-9.529420184399320550e-14
-6.452750930590828512e-14
-4.599058059081919680e-14
-3.189112399357401153e-14
-2.206774018373120864e-14
-1.539213516534823571e-14
-1.083390481727892243e-14
-7.755008523480800661e-15
-5.660341996936042577e-15
-4.212497775831744294e-15
-3.192091316677469651e-15
-2.450255507656384300e-15
-1.892436262216910878e-15
-1.459558049184410665e-15
