# bin_14_19
-5.601211021751996290e-17
-6.328542145189712805e-17
-7.030830955066687320e-17
-7.650126616121447370e-17
-8.109550179184714348e-17
-8.316440646845950920e-17
-8.201062543520167962e-17
-7.654186369286077529e-17
-6.751635166073222806e-17
-5.634963818495099778e-17
-4.608050649535133648e-17
-3.894214648627357202e-17
-3.368020545539319154e-17
-2.628624543206043896e-17
-1.813145829405335806e-17
-1.450114452746340168e-17
-1.024285336879308433e-17
-7.475473117518685300e-18
-5.049932166201691536e-18
-3.592888751635747062e-18
-2.494533738667767142e-18
-1.729119225635203515e-18
-1.207414205819045357e-18
-8.509444296721482654e-19
-6.101135571775749793e-19
-4.460670208997167344e-19
-3.324968283819385024e-19
-2.522839048522313605e-19
-1.938208438802659427e-19
-1.497481118113993816e-19
-1.154755923305980617e-19
