# bin_15_11
-2.576713073440668732e-10
-2.862647378412171338e-10
-3.115855769703727487e-10
-3.305383998651139165e-10
-3.393786844562599124e-10
-3.352467486925606020e-10
-3.136740679199835205e-10
-2.773551969679930206e-10
-2.320284295532310245e-10
-1.897268991755341887e-10
-1.598665605143224138e-10
-1.382335905987719426e-10
-1.088637076155140768e-10
-7.542618464507690319e-11
-5.976665875215920898e-11
-4.309560649223230752e-11
-3.119864469190887056e-11
-2.160530143477446498e-11
-1.560010401596854888e-11
-1.104081534154988187e-11
-7.845691919371279244e-12
-5.651695219810281671e-12
-4.131040308290100940e-12
-3.076818045450101417e-12
-2.333830488631368852e-12
-1.796016049888920909e-12
-1.395288048067666598e-12
-1.086682267195554021e-12
-8.423997846233330110e-13
-6.457413392753149808e-13
-4.868754495686786655e-13
