# bin_15_7
-7.900907118089224736e-10
-8.579868128602679370e-10
-9.078808228199386394e-10
-9.296772658252332804e-10
-9.151959588289485139e-10
-8.530665976817062719e-10
-7.516726740004917909e-10
-6.273456446301771095e-10
-5.131935361910903405e-10
-4.333312093818717147e-10
-3.736162089375153715e-10
-2.918274460906222383e-10
-2.033623596136453665e-10
-1.619009714841428958e-10
-1.161928514975923451e-10
-8.528092855529815299e-11
-5.987641559876568146e-11
-4.359162610096031780e-11
-3.147367387878626834e-11
-2.292890856528359349e-11
-1.697605752631449708e-11
-1.278198199027328049e-11
-9.798717067256517930e-12
-7.620645443337258525e-12
-5.977135111545864249e-12
-4.697225340704645826e-12
-3.672351855410469697e-12
-2.837565003301400545e-12
-2.154850970659459006e-12
-1.601071661205103593e-12
-1.160097601793202261e-12
