# bin_10_15
-4.987414513728815950e-18
-5.574992808672595317e-18
-6.113978989347851944e-18
-6.546985369144061243e-18
-6.801828295569569359e-18
-6.817213318792495351e-18
-6.501641568747262574e-18
-5.852427966162748977e-18
-4.979341294369723940e-18
-4.078690457496803557e-18
-3.384976138568626740e-18
-2.929108665803372631e-18
-2.418984742698804323e-18
-1.711055182218424002e-18
-1.276881716328271495e-18
-9.956487951402534227e-19
-6.736189005063955072e-19
-4.945208021430148384e-19
-3.513026596980783859e-19
-2.450698807864593798e-19
-1.721183339616712087e-19
-1.220034240065815586e-19
-8.775895453114902805e-20
-6.418819613825216343e-20
-4.788506036251259668e-20
-3.634874345787019502e-20
-2.797616654972116113e-20
-2.170365547866986680e-20
-1.684880991394935047e-20
-1.299571661346741629e-20
-9.897108990027910191e-21
