# bin_7_3
-1.271144401250839540e-09
-1.307313044187643835e-09
-1.294688147794966684e-09
-1.217536564696858175e-09
-1.082380683772995631e-09
-9.114433690594374586e-10
-7.465153169241283338e-10
-6.249766685329916682e-10
-5.379154751990660234e-10
-4.310692482574568859e-10
-3.058884318852746399e-10
-2.358438045579016143e-10
-1.775788836902484138e-10
-1.273620090978358499e-10
-9.328756812290765253e-11
-6.857552633291216251e-11
-5.046311038358927147e-11
-3.773371385240112940e-11
-2.873665747695653036e-11
-2.228106864729411543e-11
-1.753939218220874059e-11
-1.394291076349281105e-11
-1.111145307776452367e-11
-8.812975072646009433e-12
-6.909166544227776732e-12
-5.321065278406707167e-12
-4.005507317906375771e-12
-2.937025863989205499e-12
-2.094225653825612556e-12
-1.453199842583478455e-12
-9.835403040269002461e-13
