# bin_15_16
-4.804286853603891955e-12
-5.409627666660191907e-12
-5.985442739855214995e-12
-6.480035400441995653e-12
-6.826391474033000822e-12
-6.949768376098938173e-12
-6.783108648750791870e-12
-6.253755621475507912e-12
-5.452334651986048444e-12
-4.512960226770341314e-12
-3.698735493380884054e-12
-3.156722721599697449e-12
-2.707831177730218316e-12
-2.041027782785516585e-12
-1.421951019306648322e-12
-1.157651124961647439e-12
-7.791897576096208750e-13
-5.889953052376676807e-13
-3.997707208452709916e-13
-2.785048518960752216e-13
-1.952963264607882490e-13
-1.369526741928305206e-13
-9.654915056952676798e-14
-6.885468406740937027e-14
-5.006471100548220541e-14
-3.711730572922225377e-14
-2.802107029987782745e-14
-2.147040478799215365e-14
-1.659120107444633096e-14
-1.283683352869816901e-14
-9.871867079273457280e-15
