# bin_6_15
-5.962979588943528944e-33
-6.628349855773988223e-33
-7.219515099508425241e-33
-7.665019681813049258e-33
-7.877511755842700005e-33
-7.792107953193718345e-33
-7.302044011798093065e-33
-6.465801070867403727e-33
-5.414477624301016471e-33
-4.425956009568934366e-33
-3.724750189726866719e-33
-3.224015445131270750e-33
-2.550010866843390311e-33
-1.763819269444924718e-33
-1.394863988977337824e-33
-1.011856833218446043e-33
-7.289996444108661408e-34
-5.042559332570898038e-34
-3.654442284477818812e-34
-2.582913114729932569e-34
-1.832089227524899672e-34
-1.318521249223361695e-34
-9.626823703133037018e-35
-7.161419257270106102e-35
-5.426417263091614702e-35
-4.172713959189021630e-35
-3.240403773625143952e-35
-2.523713066225536376e-35
-1.957116603355996103e-35
-1.501238887644759795e-35
-1.132934007403027739e-35
