# bin_12_17
-1.857291764774576271e-17
-2.088405719766586836e-17
-2.306862628939242158e-17
-2.492372994464595703e-17
-2.618863598931071940e-17
-2.658534314679730355e-17
-2.583647357213255624e-17
-2.370572759379182975e-17
-2.056903209885191840e-17
-1.697875933847179167e-17
-1.393683020267282379e-17
-1.193634895981836152e-17
-1.018613972805870474e-17
-7.574200203613958404e-18
-5.320903538665793630e-18
-4.337045332550781581e-18
-2.885582039072473811e-18
-2.192968216193562639e-18
-1.500293661710687093e-18
-1.040397323096983791e-18
-7.307321619251483966e-19
-5.133630479947760257e-19
-3.632744422759589050e-19
-2.603479853411760485e-19
-1.903187022675694682e-19
-1.418277737523114454e-19
-1.075511373173390778e-19
-8.267246317413732127e-20
-6.398885696923939559e-20
-4.950808551510399226e-20
-3.801573548331724822e-20
