# bin_5_17
-1.832888372522848735e-47
-2.045331796514791341e-47
-2.238385715186138244e-47
-2.390669982565228689e-47
-2.475396689075468070e-47
-2.471340554752436630e-47
-2.344143354783525519e-47
-2.099297946951451205e-47
-1.776754227957059499e-47
-1.453777743630293091e-47
-1.211494641392821741e-47
-1.049397809057903620e-47
-8.563443486170709043e-48
-5.996351504171066034e-48
-4.559954867705852208e-48
-3.483637491337063243e-48
-2.395361741903150704e-48
-1.724265069184359385e-48
-1.238003455490436275e-48
-8.667883493504862381e-49
-6.094656629625476003e-49
-4.340220779396812914e-49
-3.137009431213558919e-49
-2.306996273864690888e-49
-1.729921164752182752e-49
-1.318943767801257739e-49
-1.018403702577286878e-49
-7.913497641262959326e-50
-6.143340722227240407e-50
-4.731392924190520719e-50
-3.593572347182749366e-50
