# bin_8_13
-1.020836097336248383e-18
-1.132486351795788254e-18
-1.230475762471221280e-18
-1.302436583803297622e-18
-1.333628662176952816e-18
-1.312684304701048194e-18
-1.222658399899260056e-18
-1.076503530534040619e-18
-8.972228365182793326e-19
-7.336884136229860118e-19
-6.205647407508014310e-19
-5.360004345890641214e-19
-4.167394170861101497e-19
-2.883079254447090313e-19
-2.313925597796143700e-19
-1.634046122172205305e-19
-1.205509642615528231e-19
-8.264148172629563466e-20
-5.954350861931851124e-20
-4.231367846227929177e-20
-3.021178824420447740e-20
-2.184360014172377368e-20
-1.602512395131730719e-20
-1.198477321934486135e-20
-9.123770699906815878e-21
-7.041320058026292262e-21
-5.479991065482940742e-21
-4.270250268995736719e-21
-3.308240309648984386e-21
-2.531755499955120883e-21
-1.904182099753859566e-21
