# bin_8_10
-4.577114614777412917e-13
-5.033270400768837366e-13
-5.409828191743307241e-13
-5.648929607362705162e-13
-5.695522489818024802e-13
-5.480813993660347467e-13
-4.978287397918625059e-13
-4.275806011800206266e-13
-3.513270464645831008e-13
-2.897071462797879663e-13
-2.494549758186932331e-13
-2.096920676851747200e-13
-1.521330868578203147e-13
-1.100793446358438651e-13
-8.846973409883829940e-14
-5.940315951216215924e-14
-4.499890495773866936e-14
-3.176056031976040900e-14
-2.245903618342229603e-14
-1.613030533146274697e-14
-1.168553144868434895e-14
-8.600962224665815280e-15
-6.440094447314590549e-15
-4.912798279933796417e-15
-3.801447905652243465e-15
-2.967426191085185142e-15
-2.321559213642246476e-15
-1.807121767763703327e-15
-1.390624424686155925e-15
-1.052111482668059106e-15
-7.792567254240336051e-16
