# bin_20_13
-2.972435622077465922e-10
-3.326890695585265304e-10
-3.654277605403432736e-10
-3.920754264500003550e-10
-4.083615326061673667e-10
-4.104598996387594900e-10
-3.930958222568066450e-10
-3.553060881074206752e-10
-3.036044916088415900e-10
-2.490389860133129774e-10
-2.061122491953927000e-10
-1.780278510454849412e-10
-1.482150101844564764e-10
-1.059301091772505052e-10
-7.789559821163894415e-11
-6.155025579824221121e-11
-4.130299475294111236e-11
-3.068418798371845375e-11
-2.160536172608583018e-11
-1.503654134722382277e-11
-1.056082939962362717e-11
-7.465064630118350832e-12
-5.349591294382782433e-12
-3.895368199704925088e-12
-2.893495002165819843e-12
-2.188066476947000975e-12
-1.679118975623202268e-12
-1.300437477793272219e-12
-1.009165619661077371e-12
-7.790647769826140422e-13
-5.944494293040435042e-13
