# bin_1_20
-1.005350137413317061e-99
-1.127486063617375463e-99
-1.241465733285794227e-99
-1.336032163030787497e-99
-1.396898342352233070e-99
-1.410230860958326957e-99
-1.359123602364081157e-99
-1.236114665357862238e-99
-1.063013959570104908e-99
-8.738070858036039193e-100
-7.202670446993598464e-100
-6.203968543846509459e-100
-5.226710249007295787e-100
-3.792248378975861649e-100
-2.729593288002557224e-100
-2.198260197417843227e-100
-1.458297390583619104e-100
-1.101463555347180133e-100
-7.660022094929593176e-101
-5.312964732892296352e-101
-3.731532751092553351e-101
-2.627405132041138018e-101
-1.872533954060168454e-101
-1.354504553370019153e-101
-9.996440531094630827e-102
-7.515814085121517529e-102
-5.741669917915525396e-102
-4.435138989641659213e-102
-3.439708439929761344e-102
-2.658962632715249948e-102
-2.034830895016255069e-102
