# bin_5_14
-2.011329277891794296e-34
-2.226129886859224999e-34
-2.411846489585354179e-34
-2.543831726254011482e-34
-2.593922883428150908e-34
-2.538278465319493086e-34
-2.347687637917885760e-34
-2.053340166211943916e-34
-1.703039373568316427e-34
-1.394181493209283282e-34
-1.185937890248623147e-34
-1.019983036013681146e-34
-7.774712610317779640e-35
-5.404582571989736578e-35
-4.388283171585678285e-35
-3.013890583255017762e-35
-2.272143918213146513e-35
-1.558336516760113952e-35
-1.111191854532494977e-35
-7.942816494853610568e-36
-5.708797067127481630e-36
-4.148058625010623170e-36
-3.059848957638976729e-36
-2.301664931799296259e-36
-1.760911577985632472e-36
-1.364021006576099906e-36
-1.063709446864344875e-36
-8.290596603021552345e-37
-6.413555279557686374e-37
-4.894189683585946516e-37
-3.666309406148024949e-37
