# bin_19_2
-2.979844075261286065e-09
-2.991330470740021908e-09
-2.866465096288376916e-09
-2.597585964466976433e-09
-2.228145559973491834e-09
-1.834948211752653903e-09
-1.517281886985496904e-09
-1.299305142383294903e-09
-1.081236502280686464e-09
-7.953409787777339261e-10
-5.839550137625026907e-10
-4.593423143014093303e-10
-3.244684623871850687e-10
-2.432478043948538502e-10
-1.768709522150314544e-10
-1.307262357327306504e-10
-9.805120520508449610e-11
-7.481434840133805599e-11
-5.814261613574896274e-11
-4.588629582277505792e-11
-3.660035448493856880e-11
-2.928751582145464534e-11
-2.333714370322459496e-11
-1.838860218212429565e-11
-1.423784600515608300e-11
-1.077689073407279459e-11
-7.945679875039616271e-12
-5.696922292731687589e-12
-3.974143806993001499e-12
-2.703321816256352443e-12
-1.798801611785532935e-12
