# bin_3_9
-7.126645470340943287e-25
-7.687957032524897943e-25
-8.067858625969738904e-25
-8.181989275052599240e-25
-7.944773198644956275e-25
-7.286590912317157727e-25
-6.320872055925382903e-25
-5.217697898731577974e-25
-4.281249882609660778e-25
-3.660937690537012024e-25
-3.120980841598836275e-25
-2.330522901087884985e-25
-1.646391048594739198e-25
-1.340006554263699115e-25
-9.117761538217574712e-26
-6.967135602942437019e-26
-4.890291902037017640e-26
-3.516005289137526866e-26
-2.565444908407419165e-26
-1.890751173248023462e-26
-1.414993882586219624e-26
-1.077028016283914604e-26
-8.340463247038187929e-27
-6.535391014608273463e-27
-5.148485017735424946e-27
-4.049928312201317064e-27
-3.158648930020530329e-27
-2.427573509012178675e-27
-1.828922524846839667e-27
-1.345232363328146600e-27
-9.635239935819411030e-28
