# bin_6_3
-1.056362078683636376e-09
-1.085911071437430665e-09
-1.074784072747831976e-09
-1.009958608092116506e-09
-8.971756840893798255e-10
-7.549838365727786087e-10
-6.183234540018179691e-10
-5.179455826807721268e-10
-4.457635059929457667e-10
-3.565904428476564247e-10
-2.528534811571400156e-10
-1.953338493745685564e-10
-1.467354956385035252e-10
-1.054175292214553637e-10
-7.712321731120600345e-11
-5.672556080163086143e-11
-4.176022702215307452e-11
-3.123770462363822394e-11
-2.380008810878765051e-11
-1.846114376741083638e-11
-1.453753461077794122e-11
-1.155913858264946211e-11
-9.212486630618210445e-12
-7.306359629344352340e-12
-5.726880154167480132e-12
-4.409140316907152176e-12
-3.317674654401744893e-12
-2.431521358671749663e-12
-1.732925578202638191e-12
-1.201928846429008841e-12
-8.131426061783325513e-13
