# bin_12_5
-1.084835162640770483e-09
-1.154511903426288352e-09
-1.191038599156162682e-09
-1.184010919848179573e-09
-1.117998440294461145e-09
-9.974283483779184944e-10
-8.419011437231966711e-10
-6.891009481072275602e-10
-5.755381298168955098e-10
-4.968486497135613947e-10
-4.015940025557801489e-10
-2.835019286461193890e-10
-2.174788317739619949e-10
-1.649936122437755368e-10
-1.167054337254863014e-10
-8.511829919854846570e-11
-6.216534543845708559e-11
-4.510044595614876169e-11
-3.316914190452436054e-11
-2.481626965621224740e-11
-1.890517541164248897e-11
-1.464747557704306177e-11
-1.149993042239721329e-11
-9.088834101107997223e-12
-7.181154607756516811e-12
-5.632722528366150613e-12
-4.357484178833265742e-12
-3.306487066255093727e-12
-2.450318395667614369e-12
-1.768095985415887160e-12
-1.241265941776638573e-12
