# bin_3_10
-6.372814429583786556e-29
-6.912150210485956252e-29
-7.303069218087337095e-29
-7.464047235362376961e-29
-7.329711740009268112e-29
-6.809761083281783353e-29
-5.981848094628779004e-29
-4.977682305033960421e-29
-4.071032188601247078e-29
-3.447318176528036361e-29
-2.971747354362741398e-29
-2.299469689608728862e-29
-1.597961107985371867e-29
-1.286715308784757603e-29
-9.083096355179663081e-30
-6.769092072665293590e-30
-4.707543950850781850e-30
-3.426431112268960740e-30
-2.482180174166819658e-30
-1.814444493278560146e-30
-1.346933465480685998e-30
-1.016598032390843638e-30
-7.812378979985264264e-31
-6.087574965774612758e-31
-4.780858553170845250e-31
-3.759239317928504913e-31
-2.938472004598316792e-31
-2.268565450319979431e-31
-1.720243991413821949e-31
-1.275627778709268901e-31
-9.220650810046376800e-32
