# bin_2_3
-1.573953248819752884e-11
-1.592929059514247335e-11
-1.543435996881014534e-11
-1.413976649623576764e-11
-1.225555095209366396e-11
-1.012607238297292417e-11
-8.319257450705292215e-12
-7.099384778718067314e-12
-6.023226189916170935e-12
-4.519115806974697495e-12
-3.229649267654602699e-12
-2.594514354520938377e-12
-1.817096492990263685e-12
-1.375869669837634749e-12
-9.885633321236086335e-13
-7.292249321995967960e-13
-5.448182730079532038e-13
-4.134556675017321117e-13
-3.195965366963569691e-13
-2.510784895103778238e-13
-1.997096230248953775e-13
-1.596748834186532037e-13
-1.273748394650161714e-13
-1.006580638879274323e-13
-7.828497886336763942e-14
-5.959047938555801145e-14
-4.421095299267651880e-14
-3.189937342033294750e-14
-2.238227669315362955e-14
-1.530167650613686731e-14
-1.022411092555740303e-14
