# bin_5_7
-3.691870136593264018e-13
-3.969011936739379432e-13
-4.147161762570505716e-13
-4.185413776333459771e-13
-4.035041017418767130e-13
-3.673095271004013618e-13
-3.162230148111679879e-13
-2.601288618203982466e-13
-2.142047430387081517e-13
-1.840059996726928547e-13
-1.551792007371736470e-13
-1.136413596418368567e-13
-8.183786589998540043e-14
-6.601019904356971849e-14
-4.479358421380497992e-14
-3.411319749133401692e-14
-2.423106099873783474e-14
-1.740451377459352777e-14
-1.271715520639304023e-14
-9.401374982610687688e-15
-7.068699781459171699e-15
-5.406865009616501925e-15
-4.203995787938841789e-15
-3.303153381477032615e-15
-2.605420333020891148e-15
-2.048828494361198266e-15
-1.595077860933385615e-15
-1.222136644045116797e-15
-9.169441632646260195e-16
-6.710815980136558911e-16
-4.780736017012503666e-16
