# bin_17_11
-3.479148013793092691e-10
-3.865822072614080587e-10
-4.208563645017277214e-10
-4.465616256998367338e-10
-4.586383764513225879e-10
-4.532265994423866376e-10
-4.242655979631670731e-10
-3.753107523541564894e-10
-3.140984677746656621e-10
-2.568333650866901088e-10
-2.163260624692586882e-10
-1.870757443797308705e-10
-1.475222358241215718e-10
-1.022286763054668565e-10
-8.089850122764561740e-11
-5.845494772311849504e-11
-4.223989206842111356e-11
-2.928174841302322445e-11
-2.114532629463413370e-11
-1.495934024209102697e-11
-1.062552582646373272e-11
-7.651190438920757106e-12
-5.590366999205604116e-12
-4.161923228273769571e-12
-3.155689064227708195e-12
-2.427744676499794153e-12
-1.885705230707255542e-12
-1.468543309632085263e-12
-1.138493895933091755e-12
-8.728640272492140259e-13
-6.582931521206560387e-13
