# bin_3_20
-1.044931413608152039e-78
-1.172615905229550451e-78
-1.292152225792077568e-78
-1.391904597517101135e-78
-1.457067440707007789e-78
-1.472965598087409856e-78
-1.422448031496630796e-78
-1.296393310850744512e-78
-1.117219294670208175e-78
-9.191846318072647913e-79
-7.568110953353844153e-79
-6.510671949668592740e-79
-5.503756295112944436e-79
-4.015953144970548690e-79
-2.871531372754034290e-79
-2.323000283234069208e-79
-1.538959418317849235e-79
-1.166140152617806360e-79
-8.078089303871311051e-80
-5.598950700487846102e-80
-3.932876044524491787e-80
-2.767113358483817487e-80
-1.968693938555990675e-80
-1.420920284797249335e-80
-1.046345664394879123e-80
-7.851046022540185765e-81
-5.987910331778600427e-81
-4.620543954286145977e-81
-3.582206074839961895e-81
-2.769954844190212351e-81
-2.121614285297703604e-81
