# bin_10_3
2.813411642456248942e-08
2.441630845288045625e-08
2.063729545101081850e-08
1.705327041346322547e-08
1.385247771425752059e-08
1.111080854084337570e-08
8.795228774380388841e-09
6.829983812304699141e-09
5.189691988175606907e-09
3.905660888717736015e-09
2.956017411871866439e-09
2.238386322714372404e-09
1.699634194847038202e-09
1.305565621877942975e-09
1.011583365337425721e-09
7.911631813315197521e-10
6.226575511989650485e-10
4.911708664513232269e-10
3.865823257943965391e-10
3.021996988661879373e-10
2.336496337274420731e-10
1.780235276239067640e-10
1.332825803845830408e-10
9.784197328268039545e-11
7.033190754680022179e-11
4.948191147134868178e-11
3.408585604424585304e-11
2.301681575862851205e-11
1.526344709417530785e-11
9.962265966328860133e-12
6.414846261265861206e-12
