# bin_9_1
1.732395034372007460e-08
1.451713453783211952e-08
1.191828062104662438e-08
9.638924331469907909e-09
7.702115682653328289e-09
6.061906232624724491e-09
4.671279328559207024e-09
3.535200299300668470e-09
2.671014092858629577e-09
2.029925847798795628e-09
1.542756386000600973e-09
1.182989723348287388e-09
9.168829441798627577e-10
7.178745726152169258e-10
5.666958777518037112e-10
4.494068768937512118e-10
3.563750682672792564e-10
2.812229483173058188e-10
2.198300718160739300e-10
1.695363984384708313e-10
1.285681318221740651e-10
9.563079161687809211e-11
6.964928751784223952e-11
4.962916124433798713e-11
3.460231420388922251e-11
2.362901508296275178e-11
1.583017845977293842e-11
1.042697998786120495e-11
6.768368266054950828e-12
4.339890060551037708e-12
2.754813884379394369e-12
