# bin_17_5
4.097983089591689195e-08
3.664286552871306143e-08
3.186061614717247080e-08
2.696761163114567505e-08
2.230548255311542128e-08
1.813059648144471174e-08
1.455139103585272550e-08
1.152765171651494933e-08
8.955805337668776149e-09
6.798535470254393462e-09
5.103573935598589084e-09
3.852171682378506549e-09
2.905709765026852740e-09
2.193784019644582790e-09
1.675149456984292038e-09
1.289074851364023592e-09
1.001383895375851215e-09
7.831769572579244774e-10
6.144631150935130642e-10
4.815586128770454792e-10
3.753079897663381859e-10
2.896632772814613441e-10
2.205748535790667513e-10
1.652234334208476628e-10
1.214642448452779613e-10
8.750262402720474016e-11
6.172702415422457216e-11
4.264304668377728723e-11
2.887474412453227194e-11
1.919418517953615212e-11
1.255144119514213100e-11
