# bin_1_1
1.096309311853989539e-08
9.026797282606403690e-09
7.312576101786627808e-09
5.846676744980555252e-09
4.610001981426689413e-09
3.571193944304598406e-09
2.719583850613524222e-09
2.058318394178911538e-09
1.565805457178541146e-09
1.195465697022843678e-09
9.179544669108190158e-10
7.130056514059293781e-10
5.590290872368321786e-10
4.419113624223484171e-10
3.508587101168793369e-10
2.785444238865931985e-10
2.200712749896320035e-10
1.722627500015645661e-10
1.330659171596926465e-10
1.011050396460812558e-10
7.537530865703837025e-11
5.504342304456440382e-11
3.934038654483548672e-11
2.751959552545943161e-11
1.885763943339665555e-11
1.267777699541861778e-11
8.378839288278685799e-12
5.456174919923488557e-12
3.508713331110386619e-12
2.233069335245027210e-12
1.409290697267879130e-12
