# bin_12_12
5.793596546267244654e-08
5.360410381459248321e-08
4.830575779653413453e-08
4.235817863233372438e-08
3.616205381520629655e-08
3.013740436839571546e-08
2.463301527547939164e-08
1.983814681961959172e-08
1.576736163061113308e-08
1.232459254985980563e-08
9.430574702099149769e-09
7.092615494917873527e-09
5.318270995012972328e-09
3.998596548122030723e-09
2.998326228332014162e-09
2.261924414195860817e-09
1.719762599849729682e-09
1.318077664322104087e-09
1.017353125110989617e-09
7.889803297282711902e-10
6.125884573973286420e-10
4.742999415746845492e-10
3.647575923391810110e-10
2.776038707011856259e-10
2.084269582948344797e-10
1.539974205254093004e-10
1.117665608434220295e-10
7.958926715833384969e-11
5.558255088519004784e-11
3.807601271564262655e-11
2.560614915494016921e-11
