# bin_12_10
5.401950126951355525e-08
4.967032720730836487e-08
4.446896484606619923e-08
3.873807849977640918e-08
3.286789108523271206e-08
2.724953411588085649e-08
2.218416745333498702e-08
1.781040826293293639e-08
1.410806861886902709e-08
1.097676328239533036e-08
8.358938051032844063e-09
6.275529489354163168e-09
4.713816644613736028e-09
3.546642831790351434e-09
2.663498973817003758e-09
2.017826961618902838e-09
1.539442464500843991e-09
1.184751291037852788e-09
9.177059465456354245e-10
7.135766613260789251e-10
5.548771107798956599e-10
4.297294367061622112e-10
3.301572897796263668e-10
2.507322487540439670e-10
1.876576160607432538e-10
1.380961677352207312e-10
9.975641388139276686e-11
7.066981226894351508e-11
4.908491526756316942e-11
3.344000514153369761e-11
2.236840190552606831e-11
