# bin_15_14
6.594984831486270967e-08
6.170843604506688336e-08
5.627218116089454760e-08
4.994091222430315415e-08
4.312808369324758173e-08
3.630362632319587519e-08
2.990508733588470812e-08
2.422777412204629504e-08
1.936764405289765502e-08
1.525538447184428248e-08
1.177764502036682183e-08
8.903708158182264120e-09
6.664569229835611042e-09
4.999432699441211790e-09
3.743995819510798238e-09
2.804587515694501591e-09
2.119290759644099031e-09
1.611693033892776378e-09
1.235649452125952194e-09
9.529788716029929812e-10
7.372143339655098907e-10
5.699623402063146086e-10
4.386777227453901771e-10
3.348579727620574713e-10
2.526509879500704247e-10
1.879006782181643200e-10
1.374542024398407377e-10
9.875680779988563165e-11
6.963015716391678855e-11
4.816957563242296040e-11
3.270995369287671325e-11
