# bin_15_10
5.759867602072565322e-08
5.322578865702407622e-08
4.789419106666277997e-08
4.192675046095126865e-08
3.572941841708779407e-08
2.972613342401729212e-08
2.426407790862264794e-08
1.952342632589564421e-08
1.550631506257433515e-08
1.210592921187299476e-08
9.244673174976578241e-09
6.942104306700260125e-09
5.207946206537324621e-09
3.917084587419470551e-09
2.935900933506303195e-09
2.218242998977479557e-09
1.687739519911760650e-09
1.295440025216107794e-09
1.001181838728061099e-09
7.773162015699648024e-10
6.040667605755265290e-10
4.679651118556222510e-10
3.599598200256686969e-10
2.739047592271201889e-10
2.055395508283230336e-10
1.517308780523480009e-10
1.099902755468004383e-10
7.820941148549336536e-11
5.452644848933786133e-11
3.728339127430628613e-11
2.502473592543241263e-11
