# bin_6_3
2.503686439696584286e-08
2.159890664767571304e-08
1.816551265479599948e-08
1.495430715119599786e-08
1.211220271660172463e-08
9.686479460743055834e-09
7.639164984933940210e-09
5.909873092861760262e-09
4.483659162171499019e-09
3.378687963158507748e-09
2.560244295920585067e-09
1.941417346708558682e-09
1.479045331820076785e-09
1.139389420608078080e-09
8.854823445995119551e-10
6.940745183335098633e-10
5.469245368021318174e-10
4.314658884175423832e-10
3.392234217062601161e-10
2.646119184760078173e-10
2.039699147167770584e-10
1.548347672607888915e-10
1.154386455937598506e-10
8.436826392039820731e-11
6.037593225866345523e-11
4.229444656206221892e-11
2.901868179899225039e-11
1.952585910662979127e-11
1.290927203984466844e-11
8.404625513744611713e-12
5.400963610042377440e-12
