# bin_20_20
8.076678747649950230e-08
7.692376975287322148e-08
7.149167374643683374e-08
6.471363457417886133e-08
5.699173115467310845e-08
4.884854167276643890e-08
4.084685286825922322e-08
3.347200687704278077e-08
2.700803165018481899e-08
2.150226197295419205e-08
1.683826526422658107e-08
1.290163270408211220e-08
9.693059359925480196e-09
7.237510422262156138e-09
5.412378407316183166e-09
4.029826151237512182e-09
3.008954705591181234e-09
2.262413686686860762e-09
1.712428252414342626e-09
1.305410045151506026e-09
1.000645054197047144e-09
7.690444648635084782e-10
5.905367840712591430e-10
4.514112591490319724e-10
3.422761021512537667e-10
2.566164764174854962e-10
1.897512630843809038e-10
1.381082433753931757e-10
9.880962662027189961e-11
6.943882084601261872e-11
4.792507574213767934e-11
