# bin_20_4
8.227354015904307992e-62
9.238628397773527151e-62
1.018840702373450752e-61
1.098565607451578230e-61
1.151420133167266329e-61
1.165585198230121363e-61
1.127991463826241854e-61
1.030252574173659297e-61
8.897699775558763270e-62
7.326022827007903235e-62
6.022700972485193000e-62
5.172703041948699915e-62
4.388967585708724114e-62
3.223427109567748123e-62
2.287385325378481747e-62
1.858167976884202731e-62
1.230325732919746814e-62
9.345490951724241006e-63
6.442483780419096767e-63
4.462248614139536107e-63
3.133663406802066677e-63
2.202575031903980004e-63
1.563293570936075498e-63
1.124879126767170702e-63
8.257910304409030758e-64
6.178453308023343772e-64
4.701074017222672023e-64
3.621862282917441748e-64
2.806093449450090324e-64
2.170349129251750837e-64
1.664060044140113383e-64
