# bin_5_4
7.510361490223879256e-06
7.946830089749819050e-06
8.139562877203378410e-06
8.018589756327080376e-06
7.481991388804205476e-06
6.599535729978759692e-06
5.511390615254279100e-06
4.504944806833138181e-06
3.796539792301954878e-06
3.275278007864806829e-06
2.571785437012966903e-06
1.793636171371097939e-06
1.424625544184834449e-06
1.033791756072191253e-06
7.583664310199401129e-07
5.379988125217481602e-07
3.961637323595539522e-07
2.897251841721079771e-07
2.144381477246822489e-07
1.616359403846327906e-07
1.239803967988865188e-07
9.667201629418890127e-08
7.624042502444528442e-08
6.039876688905588818e-08
4.772878013738101432e-08
3.736079699229923733e-08
2.878747403019248991e-08
2.172012976450343689e-08
1.598310740820758654e-08
1.144318744801089830e-08
7.970202648253800694e-09
