# bin_15_9
1.265462035266473614e-13
1.413116837238668818e-13
1.547819740145629614e-13
1.654898022334688072e-13
1.715937057044995516e-13
1.715912463222961978e-13
1.631289517032085095e-13
1.463895021696726176e-13
1.241490951884453132e-13
1.015897237263652667e-13
8.447469319466603126e-14
7.314557401582501473e-14
6.002298344153711631e-14
4.219534656784350302e-14
3.180469268464319271e-14
2.453329723093606729e-14
1.672978641788551740e-14
1.215382229024824223e-14
8.682976678517616313e-15
6.067020848036154807e-15
4.261595579115632171e-15
3.027030698720335552e-15
2.182208156956182909e-15
1.600182463723220787e-15
1.196661113513203678e-15
9.102667227687636251e-16
7.016725919938557472e-16
5.447700123094528896e-16
4.229029120776552577e-16
3.259460298130781031e-16
2.478963896605519241e-16
