# bin_17_17
8.596522667560265647e-06
9.723198589960549971e-06
1.081625487889472609e-05
1.178784686857683728e-05
1.252076337742315232e-05
1.287146663828101062e-05
1.273429987961962099e-05
1.193312451187582001e-05
1.056467741980659070e-05
8.843899456361481342e-06
7.228113008334057992e-06
6.085508828750947918e-06
5.270070768364031468e-06
4.163339345330994551e-06
2.871117765535356469e-06
2.271237075245549218e-06
1.636574494258425881e-06
1.172963626010688722e-06
7.984530512148474811e-07
5.707663157523790220e-07
3.947072289770791020e-07
2.720915289741823142e-07
1.892722878881383291e-07
1.328112736642035540e-07
9.470091030176399736e-08
6.884842475324962971e-08
5.104510849212284637e-08
3.855986086399336347e-08
2.953660923138194821e-08
2.279200586680376643e-08
1.758398698243868393e-08
