# bin_13_4
1.076229872082798931e-28
1.185627752527321777e-28
1.277188724568142752e-28
1.337437211480382247e-28
1.352779124041367790e-28
1.307972812423523855e-28
1.193748555156671020e-28
1.030275841213643994e-28
8.480146946506877567e-29
6.971291507075946476e-29
5.985038598587031846e-29
5.073013841622611748e-29
3.728180863250125950e-29
2.654992798609594669e-29
2.156190737882934368e-29
1.442477920185997021e-29
1.100562801631840660e-29
7.693584593853578945e-30
5.432289993620874745e-30
3.899515164763624461e-30
2.818266047532538757e-30
2.066018852855750196e-30
1.539936113539104875e-30
1.169997000077752136e-30
9.024688623479968390e-31
7.030443391041219508e-31
5.496511904261965771e-31
4.281175056739113239e-31
3.300272745722334540e-31
2.503660454364262453e-31
1.860866277172501859e-31
