# bin_12_1
1.190133811956687270e-46
1.298644041294579974e-46
1.382416650232957756e-46
1.425881562544375297e-46
1.417182825761430300e-46
1.336666905778259205e-46
1.190781512899125799e-46
1.002786712390937273e-46
8.195970824896002187e-47
6.852789541831432433e-47
5.932146401748331550e-47
4.782993622483642352e-47
3.336136502669895188e-47
2.580718880490276699e-47
1.940602314974062032e-47
1.367599213049571439e-47
9.787762054136096622e-48
7.145367624350363161e-48
5.110844816122436764e-48
3.686496366299516175e-48
2.705631718426393118e-48
2.020164366162752899e-48
1.535802608696678269e-48
1.186670296157961099e-48
9.268444043776171245e-49
7.272375290942473893e-49
5.692128614882609922e-49
4.413687203660684394e-49
3.370513007353749299e-49
2.522674868270213845e-49
1.843575027783133746e-49
