# bin_12_2
5.665332909708796774e-38
6.193091093883908219e-38
6.607520853545843867e-38
6.834867834785238261e-38
6.816841170531828615e-38
6.459506298411689907e-38
5.779570231185150027e-38
4.887731770398684173e-38
3.997132245783963406e-38
3.329738423365351783e-38
2.881988793001509430e-38
2.349835436554522094e-38
1.649088704238114301e-38
1.256184370310617380e-38
9.621329098114198969e-39
6.673357571968683205e-39
4.849592750653904461e-39
3.519747160468285702e-39
2.509092329949630331e-39
1.805590536157870823e-39
1.320381291548957820e-39
9.825982952295178190e-40
7.444656823203219308e-40
5.736338784550928878e-40
4.471719575624832058e-40
3.505412969519969266e-40
2.744089032667047847e-40
2.130112667594231089e-40
1.629821555329879247e-40
1.223072840728379773e-40
8.966957559897786745e-41
