# bin_10_3
1.025439558516350097e-21
1.112808726023681714e-21
1.176522926554418138e-21
1.203393573441602682e-21
1.183050308188045486e-21
1.100580315317729064e-21
9.679143197814705496e-22
8.060504386987122674e-22
6.588808167614671429e-22
5.571401980758500840e-22
4.806839321199264441e-22
3.735108891022911475e-22
2.592379299061928680e-22
2.081260773197309735e-22
1.477856307385548398e-22
1.095615202664176076e-22
7.621835265416192451e-23
5.555468624107265263e-23
4.018118750987830769e-23
2.931906886824929907e-23
2.173280585044571829e-23
1.637849327222497498e-23
1.256882610529045927e-23
9.783143337408088044e-24
7.677665550047192235e-24
6.035310560318984811e-24
4.718282286220197085e-24
3.644526295191456685e-24
2.766008309004387427e-24
2.053467062467764121e-24
1.486336583418962072e-24
