# bin_16_1
7.571686008291585827e-70
8.398807875434266181e-70
9.124228472892602371e-70
9.656191297753184957e-70
9.885415229851046024e-70
9.727716057775650886e-70
9.057629261172672735e-70
7.971894513697622517e-70
6.641447518045101441e-70
5.429090929021665133e-70
4.591521220975881401e-70
3.965795431154853192e-70
3.082279278352343232e-70
2.131268071039801433e-70
1.710889761337457857e-70
1.207538930635824859e-70
8.909456903573706281e-71
6.104213411714302613e-71
4.397013377276496795e-71
3.123943235569582337e-71
2.229816780593574495e-71
1.611635429213491503e-71
1.181884334421140514e-71
8.835745053874990678e-72
6.724262301012261833e-72
5.188084648126748119e-72
4.036917183667444834e-72
3.145399941212632421e-72
2.436717917685707222e-72
1.864852487825172693e-72
1.402718358893638148e-72
