# bin_18_6
1.543703179146864503e-37
1.728508280240317736e-37
1.899580438995139589e-37
2.039411567903591658e-37
2.125900643643741240e-37
2.138857381225232475e-37
2.051079672043468031e-37
1.855972020636979567e-37
1.587629276240066877e-37
1.302135534105752966e-37
1.076156139022996432e-37
9.292637715234181587e-38
7.761688363541650062e-38
5.559049105281137795e-38
4.065921466897052831e-38
3.232261432596822852e-38
2.157157025148545206e-38
1.612025324949140427e-38
1.131454976330083246e-38
7.863213989201521993e-39
5.519750706315692353e-39
3.894603252415239940e-39
2.786180833284639157e-39
2.024926794770048368e-39
1.501396995853779496e-39
1.133570096115224442e-39
8.688785826667077713e-40
6.725056122683270636e-40
5.218479525233992180e-40
4.030471397833443106e-40
3.078066961754847008e-40
