# bin_12_5
2.071247590506789175e-19
2.278280721744211668e-19
2.449555568304129791e-19
2.558945237972686112e-19
2.581319572385833910e-19
2.485795555674369506e-19
2.259265838967798614e-19
1.941581980479178732e-19
1.595151283034564946e-19
1.314182291179206544e-19
1.131127369544663144e-19
9.525243006728171092e-20
6.921877364200017008e-20
4.990817039978318909e-20
4.023771064338901636e-20
2.694592661683285002e-20
2.046624268639730331e-20
1.441685489925005511e-20
1.018576907650798626e-20
7.313089730176227436e-21
5.293108200989113501e-21
3.892021632469957453e-21
2.911100565431200129e-21
2.218674226562991839e-21
1.715553521102669306e-21
1.338570498472650675e-21
1.047080070341225384e-21
8.151744613253999184e-22
6.275453206406243474e-22
4.750723528650338270e-22
3.521431328091059187e-22
