# bin_8_3
2.940193979307962374e-14
3.155136485985914011e-14
3.289157192669538454e-14
3.310821388528869719e-14
3.179570817916692545e-14
2.882501502493968296e-14
2.471047594118980961e-14
2.028397522024060926e-14
1.673052646637149855e-14
1.440487466412915994e-14
1.207775009358645223e-14
8.750593049864135579e-15
6.368656048674014308e-15
5.107915702230946332e-15
3.464146491411270124e-15
2.630460162474836245e-15
1.880187364566460950e-15
1.350263183873354962e-15
9.869085534236294698e-16
7.305159345831993536e-16
5.504744062637099535e-16
4.220406785138942040e-16
3.287646169087787761e-16
2.586351919188396885e-16
2.041097440131696179e-16
1.604702647628352294e-16
1.248166408699839473e-16
9.548829073547927870e-17
7.149790404888090656e-17
5.219994070483163994e-17
3.708928979730145142e-17
