# bin_19_6
8.836472197215835977e-42
9.914813676643325628e-42
1.092365731011998388e-41
1.176452524893288326e-41
1.231218857718251232e-41
1.244292340580145669e-41
1.201140701587314770e-41
1.094186854316312239e-41
9.424600561715503286e-42
7.750459401514485481e-42
6.380079969794787754e-42
5.488850569823152798e-42
4.638623173737821480e-42
3.381844868992924430e-42
2.418451597368291385e-42
1.956211978013558905e-42
1.295219379160765120e-42
9.813058068463668004e-43
6.798363840391982826e-43
4.710569187525552110e-43
3.307683776265458650e-43
2.326378625126590630e-43
1.654683199090689039e-43
1.193942641485956671e-43
8.789665369571836799e-44
6.593512328242387188e-44
5.027753894483859163e-44
3.879031276325500836e-44
3.007014849375496891e-44
2.325063258558073460e-44
1.780840274992990636e-44
