# bin_6_3
6.923264495443450081e-09
7.331858680588455320e-09
7.517570884081955083e-09
7.416009322896221733e-09
6.931758970825976465e-09
6.124230623721072323e-09
5.121836788358296847e-09
4.186554164707854311e-09
3.523214068270532441e-09
3.040641642175620485e-09
2.398680032833097902e-09
1.674293367529079300e-09
1.323393113989191741e-09
9.670509578200215591e-10
7.050098578365592818e-10
5.021916281829031100e-10
3.696026590254205645e-10
2.699406659674270852e-10
1.995367950888875698e-10
1.502258303995199813e-10
1.151102022623659261e-10
8.967121395221212351e-11
7.067350934495364074e-11
5.597056376124613991e-11
4.423016340048600351e-11
3.463413845641766503e-11
2.670345348421503402e-11
2.016567440650260630e-11
1.485537527057458792e-11
1.064842453517372797e-11
7.425425552355982901e-12
