# bin_20_11
5.198165779671119528e-20
5.866874240365641776e-20
6.509550491520004507e-20
7.071776175103688085e-20
7.481840869985560259e-20
7.654821584419084880e-20
7.524745697159441833e-20
6.995695404455786861e-20
6.148006132556315593e-20
5.115389419287084492e-20
4.183408129131325252e-20
3.545572119302396249e-20
3.061495885342829004e-20
2.364064611671497456e-20
1.631829140846249635e-20
1.315092879440135268e-20
9.134256950020733450e-21
6.757995422379248884e-21
4.550932059008033600e-21
3.217096881714805888e-21
2.240861489748920574e-21
1.559750859513383964e-21
1.091920207568337625e-21
7.718896583108637846e-22
5.555716291579987824e-22
4.077893131251077305e-22
3.050864542000261208e-22
2.321720386110940333e-22
1.787057465847322230e-22
1.381593499233417360e-22
1.064795124841882914e-22
