# bin_19_4
5.791357623339747067e-57
6.489183490415861630e-57
7.137495472785232175e-57
7.670988187012896439e-57
8.007047702196324074e-57
8.068141621536420083e-57
7.754254642087867600e-57
7.032237099962348999e-57
6.029323637267554111e-57
4.949146157286155009e-57
4.084537081433263961e-57
3.523056120581097065e-57
2.954754941696897800e-57
2.128341747636444065e-57
1.544695793602959798e-57
1.236053127052101418e-57
8.219013394555955619e-58
6.176143969705576377e-58
4.315674240558575759e-58
2.995696395857592669e-58
2.103040325220721179e-58
1.481911713589700346e-58
1.058062991558983928e-58
7.671264173622843124e-59
5.674541209656688865e-59
4.275296202596101857e-59
3.271538101702883724e-59
2.529621444027945535e-59
1.962391271097031784e-59
1.516288520094395972e-59
1.159155159308878966e-59
