# bin_19_17
2.072520027248273798e-06
2.348770507135156515e-06
2.619158930942399267e-06
2.862934733940844643e-06
3.052239871806752800e-06
3.152324596614733046e-06
3.137013680628536417e-06
2.961803700593406335e-06
2.640637102740030117e-06
2.224707394670438850e-06
1.818897384472812205e-06
1.521939458344208330e-06
1.319167265205186695e-06
1.063666629633738029e-06
7.378177006071200698e-07
5.699574541085402630e-07
4.250575987329368063e-07
2.951915083282995967e-07
2.060381593068107946e-07
1.470630864668623448e-07
1.011195856325344645e-07
6.922731656449344437e-08
4.782665954110333028e-08
3.332192463354504381e-08
2.354070472378422756e-08
1.694838969297733001e-08
1.244603769397310070e-08
9.324180224280165534e-09
7.099848951517420357e-09
5.462027529702398992e-09
4.213970891615938388e-09
