# bin_12_12
9.228687299842580125e-06
1.029711012497023383e-05
1.126741661140677922e-05
1.203191730927463514e-05
1.245576555986675816e-05
1.243226024282635851e-05
1.178868360327638877e-05
1.055351791530748707e-05
8.928367228883422389e-06
7.302760924045538937e-06
6.084677399214482529e-06
5.270337889494266464e-06
4.299471470953046887e-06
3.009335885349738396e-06
2.288555818728406006e-06
1.747715807787995670e-06
1.201709037715020036e-06
8.647312324471594500e-07
6.206580036823441815e-07
4.344449855531184921e-07
3.054013802508912101e-07
2.174187552560006280e-07
1.570888942448961747e-07
1.154834938321550427e-07
8.656732783122284424e-08
6.598222990455675303e-08
5.093565304311242079e-08
3.957355217990863034e-08
3.071916933692509243e-08
2.365881093201877969e-08
1.797029310508919620e-08
