# bin_11_4
1.724947649926193444e-20
1.885729900207493199e-20
2.012043553410591445e-20
2.081435753636582141e-20
2.076141651168703728e-20
1.967559086628679711e-20
1.760657746761375567e-20
1.489142557969839906e-20
1.217824000207981786e-20
1.014386041562730775e-20
8.779764731782308950e-21
7.160733816523917227e-21
5.026170968093599795e-21
3.827070873872191749e-21
2.932653565478036871e-21
2.033231047518578765e-21
1.478186312737057272e-21
1.072663114797585342e-21
7.645926208750134250e-22
5.501831411046067530e-22
4.022956210969344231e-22
2.993531723603081960e-22
2.267844515757169140e-22
1.747315705659004613e-22
1.362036954123691089e-22
1.067684145440446255e-22
8.358022989664533925e-23
6.488149970310748150e-23
4.964563653404173102e-23
3.725839614089331889e-23
2.731833807128382231e-23
