# bin_5_5
3.029305279535188251e-08
2.656453728085096376e-08
2.268771972740997564e-08
1.891834970204008054e-08
1.547094241103967309e-08
1.246524251128037682e-08
9.914900988930218710e-09
7.763646803795514084e-09
5.959838470592159964e-09
4.502172422086722328e-09
3.393446701351922780e-09
2.569666839344004275e-09
1.945860128464488602e-09
1.484282901492583165e-09
1.143082019237872851e-09
8.879383449474337125e-10
6.946563072279636640e-10
5.455668931732864212e-10
4.283456979840691323e-10
3.347283657266133865e-10
2.592471973662793627e-10
1.982535319291927035e-10
1.492284184413544580e-10
1.102971719485559112e-10
7.991674692758913567e-11
5.671359356042163451e-11
3.941622287701287565e-11
2.684695806668293062e-11
1.794491237804167991e-11
1.179341994298848474e-11
7.637395741881840776e-12
