# bin_13_13
6.223974893750667300e-08
5.795873350937164777e-08
5.258888802117807954e-08
4.643736625359377481e-08
3.991090419642133054e-08
3.345578936818689931e-08
2.746904986934365453e-08
2.219839406304993092e-08
1.770323210772066492e-08
1.390189664780875421e-08
1.069458430331950291e-08
8.066685446888234406e-09
6.040786211161422433e-09
4.535962924577356430e-09
3.398031909865335957e-09
2.551828244339922078e-09
1.932685326877232252e-09
1.473831670223237706e-09
1.132514912112376925e-09
8.749632190236440006e-10
6.774780923246853281e-10
5.237473654155961401e-10
4.026910201502610047e-10
3.067824230189162335e-10
2.308181147545403198e-10
1.710598189216372069e-10
1.246225691813251586e-10
8.913224372292049582e-11
6.254169749816559667e-11
4.305202801175809163e-11
2.909120206120214257e-11
