# bin_15_4
3.613972599697068926e-08
3.197195595309740597e-08
2.751045276367836522e-08
2.307071594677351241e-08
1.894555166761641908e-08
1.532124265395465201e-08
1.224277415898356276e-08
9.638078805589622020e-09
7.423821308980113556e-09
5.602831048496027345e-09
4.214117995152799474e-09
3.188293976199767560e-09
2.404596255787364806e-09
1.827035957027925299e-09
1.401162686972958127e-09
1.084779418783876946e-09
8.466715100764526219e-10
6.644174751560654985e-10
5.220758855335033624e-10
4.089151022092042632e-10
3.178516727213432946e-10
2.441981514150855059e-10
1.847946058972288823e-10
1.373692811748225851e-10
1.001127273697295918e-10
7.144646038763917668e-11
4.991404384425342627e-11
3.415337757966808578e-11
2.291752215331416648e-11
1.510942706391705903e-11
9.809605874547070837e-12
