# bin_14_6
4.473293478323838926e-08
4.037915099558650732e-08
3.545625719069732756e-08
3.029622736672283345e-08
2.525846729323084884e-08
2.064979833898900251e-08
1.664062005289234825e-08
1.324521963785697887e-08
1.037035944330443697e-08
7.940140856435453281e-09
5.972549605133309478e-09
4.490568697789508016e-09
3.389660231995372686e-09
2.549789573339363380e-09
1.935531516023890016e-09
1.480444534913430737e-09
1.143093404390925821e-09
8.889979630560114753e-10
6.945736013683612755e-10
5.430206010731557311e-10
4.229749579290872732e-10
3.268842257911860186e-10
2.496751256142226611e-10
1.878688838446134710e-10
1.389106536238446485e-10
1.007453717416746661e-10
7.159148179521822805e-11
4.983295654481967132e-11
3.399317031309323029e-11
2.275111706231477659e-11
1.496623944948075346e-11
