# bin_11_10
5.344836213514599881e-08
4.911703553359876499e-08
4.395124881965042407e-08
3.827139652791225823e-08
3.246267533357722146e-08
2.690891996389253453e-08
2.190389025069942527e-08
1.758222218260610190e-08
1.392363963987424017e-08
1.083119416370538784e-08
8.248776364281214339e-09
6.194265002066595795e-09
4.652658142500226117e-09
3.500563435762391129e-09
2.629295473800428273e-09
1.991573163807700537e-09
1.519206935111593349e-09
1.168749974545485258e-09
9.048442214459696455e-10
7.031054499082067976e-10
5.462883446485511743e-10
4.226793885463467103e-10
3.244035065580364431e-10
2.460863867648186855e-10
1.839628005455375997e-10
1.352122945494092111e-10
9.755253001375262907e-11
6.902317920510959590e-11
4.788288349686139326e-11
3.258250200490882792e-11
2.176999847897002372e-11
