# bin_19_1
1.930882783362668101e-08
1.624644121817098460e-08
1.337919694151331317e-08
1.084663392973414719e-08
8.689216317617488279e-09
6.861064253967051505e-09
5.303565426446743759e-09
4.017566010177308256e-09
3.031403589739932929e-09
2.301508693791240892e-09
1.746357436265815885e-09
1.335101878741186381e-09
1.032012433503768646e-09
8.058584431181454403e-10
6.348807532120727183e-10
5.029041271214373009e-10
3.987220788438017389e-10
3.148691549087822225e-10
2.465084601657287634e-10
1.905241349265938154e-10
1.448628751692300283e-10
1.080621172421647631e-10
7.893696461484042147e-11
5.640912535429871842e-11
3.943315601283885697e-11
2.698935840187316009e-11
1.811514937743953339e-11
1.194912342102166377e-11
7.764350063303821813e-12
4.981790472434657447e-12
3.163365839935487608e-12
