# bin_10_2
2.361272281073859972e-08
2.020571011692457953e-08
1.686812968697582541e-08
1.380677807182881036e-08
1.114036084370218187e-08
8.881344528138936656e-09
6.967522152446125902e-09
5.347738564079198361e-09
4.035731833946102919e-09
3.047431279518053976e-09
2.312487370101276492e-09
1.753080832320101085e-09
1.342522126198534754e-09
1.037847739987109788e-09
8.104164126108945971e-10
6.376392332276907673e-10
5.037755953866732427e-10
3.978592931954655015e-10
3.126082652134845566e-10
2.432873208760894739e-10
1.867956898538564667e-10
1.410364638257826437e-10
1.044574988328758516e-10
7.576481022815280444e-11
5.377352506415809743e-11
3.734981909798579700e-11
2.541233074481788376e-11
1.696530504002726790e-11
1.113723747740938696e-11
7.206406440481699897e-12
4.606895525127770658e-12
