# bin_12_12
5.889736087336658966e-08
5.458363384360719504e-08
4.927662674844301557e-08
4.329015354372397985e-08
3.702488802169178557e-08
3.090561016397290654e-08
2.529185020814145998e-08
2.038741810017835845e-08
1.621869979146243541e-08
1.269405066071666066e-08
9.728455965744741149e-09
7.322527669460680004e-09
5.488122070748209457e-09
4.124822003031318381e-09
3.091849711160361911e-09
2.329035525368431491e-09
1.768506170942860814e-09
1.353106775911435265e-09
1.042685318262742954e-09
8.074116192578824911e-10
6.261027314630691951e-10
4.842908072783003122e-10
3.721972994260913734e-10
2.831688340985348421e-10
2.125904332911111696e-10
1.571006203056446079e-10
1.140607795923752583e-10
8.126466193929308755e-11
5.678689598312916997e-11
3.892588729051713916e-11
2.619380744093552017e-11
