# bin_13_3
3.015091296008973835e-08
2.627593353262809970e-08
2.229045655790249532e-08
1.847225254949014755e-08
1.503703849913284831e-08
1.208344838817507635e-08
9.587948494883604706e-09
7.467673853294938837e-09
5.685712596463086342e-09
4.277034409565837778e-09
3.233333749412346487e-09
2.447205992031509669e-09
1.853810263385300507e-09
1.420754021308903097e-09
1.097966164709488856e-09
8.568062514562858019e-10
6.731277980039875938e-10
5.304121006566187402e-10
4.173315517698148279e-10
3.263636645912261472e-10
2.525897108294330812e-10
1.927459046886964844e-10
1.445754731051802516e-10
1.063548011609524923e-10
7.661800498740467080e-11
5.401914001244854394e-11
3.728376612550468494e-11
2.521812221251128735e-11
1.674528595392829175e-11
1.093991641051182581e-11
7.048702154683921199e-12
