# bin_15_12
6.319405543530173696e-08
5.891216445296697314e-08
5.351329658825676440e-08
4.730392719174614160e-08
4.069411968196374405e-08
3.413798180731759888e-08
2.804455341039535469e-08
2.267340228035399538e-08
1.809130851188240358e-08
1.421635667831798076e-08
1.094316899667801459e-08
8.254910757974610693e-09
6.179844084211912700e-09
4.640167313313356238e-09
3.475003918784722150e-09
2.608059759124421416e-09
1.974319976975521806e-09
1.504731090306371496e-09
1.155698588679616644e-09
8.925840705230433286e-10
6.910185750001545988e-10
5.342364403212592381e-10
4.108483835796390970e-10
3.131200570099073240e-10
2.357112544793367600e-10
1.747970921177687361e-10
1.274352407019083418e-10
9.121158602598842391e-11
6.404837355291777710e-11
4.412069551025711334e-11
2.983291120613759193e-11
