# bin_11_1
1.824273608164400216e-08
1.532365859309215760e-08
1.260339884210974186e-08
1.020703819219875106e-08
8.167362327322898241e-09
6.440156336645037793e-09
4.972786814484385782e-09
3.766537341204560098e-09
2.843584853801904605e-09
2.159805330780494425e-09
1.640155947037271072e-09
1.255352732922901191e-09
9.713645779340440169e-10
7.591883732404002464e-10
5.984528781998101873e-10
4.741217704246635025e-10
3.757963213282919840e-10
2.965612179132238166e-10
2.319370111203078520e-10
1.790311691891253060e-10
1.359250971902448422e-10
1.012369324827783976e-10
7.383491563424535417e-11
5.268297557110939034e-11
3.677657334907191203e-11
2.513958703312096180e-11
1.685543218703437068e-11
1.110821844191998347e-11
7.212695739001203682e-12
4.625176212105060560e-12
2.935619720062551056e-12
