# bin_13_5
3.991254031925545324e-08
3.566386113452585833e-08
3.099656017038049363e-08
2.623278430490765905e-08
2.169791414283031781e-08
1.763567873736731677e-08
1.414955694203342967e-08
1.120495496023849068e-08
8.706224646125944251e-09
6.614676814234996208e-09
4.967907355446158440e-09
3.748569538104437489e-09
2.829125163529446579e-09
2.136108772914878268e-09
1.630905973019661232e-09
1.254562256026850301e-09
9.740490926583440849e-10
7.611740879766161223e-10
5.965965298362701833e-10
4.670174002275445701e-10
3.635206765180128675e-10
2.802031318109137992e-10
2.130918595429090912e-10
1.594127810254590083e-10
1.170480383619922957e-10
8.422371492096024296e-11
5.935064672677076577e-11
4.096135594918906810e-11
2.771107547511226565e-11
1.840505655232737157e-11
1.202559902617468151e-11
