# bin_7_1
1.707511571106433266e-08
1.431299506493183405e-08
1.175371771698271106e-08
9.506530546605386857e-09
7.595809481776576969e-09
5.979163103564145912e-09
4.610506337147278923e-09
3.491601828704252489e-09
2.637879117723765427e-09
2.004606793279301847e-09
1.523840329027920303e-09
1.168008667198080205e-09
9.049409249705629838e-10
7.080736862379379207e-10
5.585558030288440161e-10
4.425983333819056594e-10
3.506872342152880223e-10
2.765097266140557380e-10
2.159778496339475824e-10
1.664436684305861733e-10
1.261361263097967587e-10
9.376174715359399957e-11
6.824696899129402602e-11
4.860196232344735611e-11
3.386698806609672121e-11
2.311365037610707420e-11
1.547574411708233301e-11
1.018722865879091248e-11
6.608503776898449906e-12
4.234599231256357245e-12
2.686183830422823589e-12
