# bin_19_10
6.182779669111529526e-08
5.745794630546556462e-08
5.200556223011417064e-08
4.578932058491311920e-08
3.922844444966379990e-08
3.278036861716908793e-08
2.684505736436408142e-08
2.165632138855009520e-08
1.725057019109014850e-08
1.352109509007643626e-08
1.036521143607622682e-08
7.791833789282627298e-09
5.836243834669022209e-09
4.387413961485533777e-09
3.282588554478206413e-09
2.471166590780115449e-09
1.873945071133990470e-09
1.432929667238078585e-09
1.103615084881956244e-09
8.545191600592800466e-10
6.628667794096650139e-10
5.131115316531014198e-10
3.947780316494381751e-10
3.007484436037135127e-10
2.261229888799774666e-10
1.673581092311158059e-10
1.216903141446798690e-10
8.681977321471900890e-11
6.074035367178536922e-11
4.167468836237537510e-11
2.806199023618084746e-11
