# bin_13_7
4.770354316776245030e-08
4.334301841775919616e-08
3.832012436622998916e-08
3.296463091452404832e-08
2.764699643264431711e-08
2.270586054648102414e-08
1.835672446712160888e-08
1.465502879889322948e-08
1.152658768690551304e-08
8.878660189303800795e-09
6.701614941091139803e-09
5.029055013002669660e-09
3.792385204788697967e-09
2.852023736592199463e-09
2.154692023961147958e-09
1.643021062168660301e-09
1.263002098506891152e-09
9.785429670854278808e-10
7.623364486857932080e-10
5.949671557616734986e-10
4.632458227045390490e-10
3.583350188332682806e-10
2.743011511965738092e-10
2.070877859033335610e-10
1.537808859677140473e-10
1.120982966564111182e-10
8.010997133140508945e-11
5.609595197252691639e-11
3.849606803030216032e-11
2.591404518748685102e-11
1.713731258819681251e-11
