# bin_4_3
2.278302322616716753e-08
1.955569809192373070e-08
1.637882256657415785e-08
1.344104007891000021e-08
1.085953364098130474e-08
8.662133487527685967e-09
6.808880206070985219e-09
5.251061773397433938e-09
3.979681623141585471e-09
3.002510761305522493e-09
2.277269190245096351e-09
1.729105226077093761e-09
1.320817249759815026e-09
1.019751693559331913e-09
7.942025958340012209e-10
6.233738654285956114e-10
4.914167947669991826e-10
3.874242202355902647e-10
3.040796251071898717e-10
2.365702376972916380e-10
1.817252509610697598e-10
1.373845895070435702e-10
1.019627731054756036e-10
7.416027968045608306e-11
5.281063354838185574e-11
3.681713714475676578e-11
2.514591865489321557e-11
1.684964377329654173e-11
1.109869026678419173e-11
7.202553947428786714e-12
4.615721867593249421e-12
