# bin_17_4
3.682383161545192440e-08
3.260854319028569445e-08
2.808183874458924318e-08
2.356559217386061926e-08
1.936150403310934230e-08
1.566398965390756947e-08
1.252249576910572274e-08
9.863976162703119894e-09
7.601387428668892974e-09
5.737113389895448773e-09
4.314123454889478923e-09
3.263592726622645815e-09
2.460582557993764854e-09
1.868695759570149910e-09
1.432483942002455137e-09
1.108569173728712707e-09
8.649743597410086608e-10
6.786779822635119946e-10
5.332921481690578296e-10
4.177787951263421577e-10
3.248512671000267729e-10
2.496907675417193192e-10
1.890552279576952201e-10
1.406221672374037748e-10
1.025486581364097843e-10
7.323125549731104882e-11
5.119178547964843569e-11
3.504692331481243527e-11
2.352842510573690522e-11
1.551849193056747760e-11
1.007852467547626178e-11
