# bin_19_16
7.496519838642020266e-08
7.094479224378978450e-08
6.548689180978211677e-08
5.885835956828083844e-08
5.146818685872510660e-08
4.382161435041088269e-08
3.643646869074806261e-08
2.972767903625611388e-08
2.390409318134832468e-08
1.896259474784391882e-08
1.477837237242601830e-08
1.126514717995831958e-08
8.443103050594390970e-09
6.312715357815645237e-09
4.724652298521657975e-09
3.521304708313566834e-09
2.640447367664611036e-09
1.992101556219094833e-09
1.514580206937896135e-09
1.159056502533996305e-09
8.911710847254950568e-10
6.862214494984822363e-10
5.272492061340081534e-10
4.027231115663088620e-10
3.047166182745928486e-10
2.277044989401132016e-10
1.676443717381016086e-10
1.213845374725376269e-10
8.633469263684022234e-11
6.028631740793021250e-11
4.133191699095921573e-11
