# bin_17_17
7.406108524734992056e-08
7.002259157039896451e-08
6.457146345799889539e-08
5.797739689911386398e-08
5.064916762393599926e-08
4.308774532712656925e-08
3.580228522414167993e-08
2.919571231227316805e-08
2.346627378061059966e-08
1.860535052079922264e-08
1.449013357221269601e-08
1.103960317620488657e-08
8.274001745894001074e-09
6.187718241867478755e-09
4.631223170704706510e-09
3.453123084145978777e-09
2.590632498370434080e-09
1.955631024884286649e-09
1.487662530421317114e-09
1.139027844550701713e-09
8.760923495879387842e-10
6.747460812504061078e-10
5.184440229201902777e-10
3.959357481846231256e-10
2.994857446272924079e-10
2.236936049085132931e-10
1.645977653165101161e-10
1.191008618501252655e-10
8.465056814667931553e-11
5.906710138135751692e-11
4.046659980460827362e-11
