# bin_14_9
5.486522422606237390e-08
5.049137604422302706e-08
4.523990038642195081e-08
3.943575200963146299e-08
3.347544057383081632e-08
2.776084359583683241e-08
2.260460128692707535e-08
1.815314469326672198e-08
1.438663322709994292e-08
1.119839561618121363e-08
8.526528396742535688e-09
6.397629157578035374e-09
4.805274137873347316e-09
3.614767690263813712e-09
2.712257614993489804e-09
2.054053506599643388e-09
1.565789349104576601e-09
1.204258594720902626e-09
9.322413180208231106e-10
7.244628220667443108e-10
5.630608428014641102e-10
4.358779558593752966e-10
3.347542967586604401e-10
2.541297932102074887e-10
1.901277495927409086e-10
1.398547438119076192e-10
1.009767701967408436e-10
7.149210776957789846e-11
4.962120507074178159e-11
3.377773390030312204e-11
2.257345920160413844e-11
