# bin_19_7
5.149132428155341254e-08
4.701819670473333200e-08
4.176957076013518014e-08
3.608767451866691449e-08
3.037304487698380482e-08
2.501047663289943466e-08
2.026192802539332970e-08
1.621253439386004822e-08
1.278893954900889303e-08
9.878396936048150564e-09
7.462329672973599112e-09
5.593824713953017272e-09
4.215954968533780713e-09
3.166773553212601694e-09
2.386420975019038820e-09
1.815728159728607591e-09
1.392382691753874044e-09
1.076661001534410307e-09
8.376936311451412594e-10
6.534683854813493859e-10
5.089897258237318198e-10
3.941913180470079596e-10
3.023273969162465617e-10
2.288155384654006225e-10
1.704119733321226362e-10
1.246187119395703831e-10
8.935323369907484639e-11
6.277459252187398192e-11
4.321428603170022775e-11
2.917326410821764031e-11
1.934091043736840445e-11
