# bin_19_11
6.460521940500020317e-08
6.029233140687115568e-08
5.481872341063494589e-08
4.849355666740017676e-08
4.173646313742902045e-08
3.501796965281970391e-08
2.876795133277219370e-08
2.326081184551772272e-08
1.856782193282734325e-08
1.459802086542632479e-08
1.123537611538333276e-08
8.467048988903226218e-09
6.335660388235418508e-09
4.758849447384008011e-09
3.560582662978845285e-09
2.671782100895260781e-09
2.021840688976826068e-09
1.540954573421033547e-09
1.183470757496453010e-09
9.142206969263391070e-10
7.080303594028580421e-10
5.476557754913739730e-10
4.214141976482887508e-10
3.213732872834893120e-10
2.420748739226265400e-10
1.796205821562946740e-10
1.310168959177627845e-10
9.381063703150662099e-11
6.588876549066996450e-11
4.539178100375078430e-11
3.068969228799395766e-11
