# bin_19_18
7.789490906304963641e-08
7.397261002321620509e-08
6.853772391678353204e-08
6.184405961117025385e-08
5.429551401618170009e-08
4.640425218534627787e-08
3.870918856058027443e-08
3.166099064109652492e-08
2.550825095786564284e-08
2.027628978068191357e-08
1.584628946408508807e-08
1.211636563494100558e-08
9.094240413313780438e-09
6.793750339455607934e-09
5.082323493056022411e-09
3.785619930699003912e-09
2.831234205033621138e-09
2.131579049294169164e-09
1.616071581894125513e-09
1.233598857206100958e-09
9.464896731224929553e-10
7.277205286344731108e-10
5.586935300921855253e-10
4.267265071541235642e-10
3.231094021542257961e-10
2.417837407845027764e-10
1.783629718640193930e-10
1.294668908855329778e-10
9.234972030633702400e-11
6.469225075425780917e-11
4.450216889463821180e-11
