# bin_6_6
1.734400283791915098e-08
1.856744756616455474e-08
1.929766579102356619e-08
1.935751002207654694e-08
1.849987548737960141e-08
1.669464413962948098e-08
1.424622769351720896e-08
1.168294621748217986e-08
9.672174090958986807e-09
8.341134105868808174e-09
6.924275945511239007e-09
4.968974407830907912e-09
3.676770879137988986e-09
2.903951159998406317e-09
1.991074625321432519e-09
1.493366807201603361e-09
1.076406731611043141e-09
7.752039951405930791e-10
5.672472571060652784e-10
4.211710590548260758e-10
3.184179395039498653e-10
2.449516749464392626e-10
1.912792752430221605e-10
1.507090961031465117e-10
1.189966004969566748e-10
9.349966290605716849e-11
7.261251118084896970e-11
5.541674004607986631e-11
4.136501942620052164e-11
3.009166852819637685e-11
2.130084640037834223e-11
