# bin_1_8
6.512809161195087587e-07
6.274511862762680389e-07
5.723679639224252904e-07
4.944113741252972951e-07
4.090748820029257286e-07
3.375853632311090304e-07
2.874966602200549850e-07
2.407976986966193243e-07
1.808449288609846181e-07
1.316980001520944197e-07
1.032646229957319077e-07
7.425849929213172332e-08
5.533507196726266824e-08
4.047093173131251044e-08
3.014000481325114102e-08
2.273539258745470504e-08
1.746179502599529420e-08
1.366307834182455775e-08
1.085321410499097461e-08
8.704193497579960888e-09
6.995591899464363350e-09
5.592011330463690503e-09
4.414875497035843948e-09
3.421357764161426352e-09
2.589835953135058956e-09
1.908606968765147594e-09
1.367823644079059852e-09
9.539985633928775412e-10
6.490836122275124476e-10
4.321639405958476215e-10
2.825212905214284263e-10
