# bin_11_16
8.347865013183094087e-08
9.267845600865314720e-08
1.007946659150606640e-07
1.068208331196987691e-07
1.095489291998547150e-07
1.080475673820969530e-07
1.009007268776528409e-07
8.905779473359222972e-08
7.439181596052667939e-08
6.083508661511654002e-08
5.134172063870913209e-08
4.436584151830883136e-08
3.475484058394617264e-08
2.407534852063810907e-08
1.916754534771286196e-08
1.370780464025736003e-08
9.994206804310750617e-09
6.898888689166611089e-09
4.975138656785601858e-09
3.526380015107416993e-09
2.510091566259662283e-09
1.810392491813891607e-09
1.325193338269020386e-09
9.884336453420376030e-10
7.506529717550602114e-10
5.782430221050941865e-10
4.494760550276295764e-10
3.500887303825173247e-10
2.712923920185771700e-10
2.078042045681960942e-10
1.565147972117009103e-10
