# bin_10_5
1.178279567278143544e-17
1.284520872303844448e-17
1.365838693835324723e-17
1.406802351353319490e-17
1.395780773709131921e-17
1.313487747170887983e-17
1.167746732872516201e-17
9.815776929254949641e-18
8.023967892384376510e-18
6.724082911647743597e-18
5.819878892299199117e-18
4.663074024532953077e-18
3.246017107047840593e-18
2.531358082569090999e-18
1.884026753032569472e-18
1.340490974339142724e-18
9.522470147117302952e-19
6.966147036964034675e-19
4.993186684730884046e-19
3.608482507889184205e-19
2.653953742152657793e-19
1.985550961693781971e-19
1.512503881493272594e-19
1.170439806231542165e-19
9.151633413187188305e-20
7.184254295205322371e-20
5.622359085603754163e-20
4.356581217305679039e-20
3.322979107634587062e-20
2.483126841120697829e-20
1.811168882489636697e-20
