# bin_7_17
2.202783325408268001e-07
2.390337214308894606e-07
2.527116639550463655e-07
2.585113231209392963e-07
2.541310756326840553e-07
2.364798133007699056e-07
2.080399120509411972e-07
1.734124370227558991e-07
1.418814984441737063e-07
1.199640896965944497e-07
1.033523164544472509e-07
8.036019313408721964e-08
5.601844685162582688e-08
4.474999239168351082e-08
3.191549673624341758e-08
2.354447814309814557e-08
1.650057177789992025e-08
1.200329279425051808e-08
8.676078774875156226e-09
6.327781359605796429e-09
4.689257914158853181e-09
3.534420156709632451e-09
2.711897456630471058e-09
2.110403245395756243e-09
1.655915036591399251e-09
1.301401786380401967e-09
1.017172842616171841e-09
7.855168867565539844e-10
5.960437766245536737e-10
4.424179016763788198e-10
3.201952637758143532e-10
