# bin_8_3
7.603088380599704392e-19
8.145514195829256255e-19
8.473883310003139864e-19
8.509686811407185799e-19
8.144506083884857133e-19
7.359082057462857336e-19
6.287465060675311637e-19
5.156500297363919745e-19
4.264058094418314443e-19
3.677607107805182065e-19
3.063161311676308281e-19
2.201023279882814423e-19
1.621384349932928104e-19
1.288164980972878396e-19
8.784085912053259410e-20
6.622072178518499556e-20
4.765197506314235610e-20
3.427608713053893448e-20
2.506747128307315247e-20
1.859269817274422067e-20
1.404515468105771813e-20
1.079673569921279966e-20
8.426613283727801323e-21
6.637529670978811731e-21
5.240831197263757905e-21
4.118979182745230143e-21
3.200400880210369064e-21
2.444178795860127267e-21
1.825940053229120915e-21
1.329505630329875371e-21
9.419348016134846174e-22
