# bin_20_1
2.950388592033576354e-97
3.306258334186208152e-97
3.637194571863704849e-97
3.909962398833578186e-97
4.082492061769268581e-97
4.115107873428996909e-97
3.957000163049618620e-97
3.590603323662772709e-97
3.080481085470368173e-97
2.529838647834044282e-97
2.088128708757481185e-97
1.800929166289014809e-97
1.511241827824842525e-97
1.089733249630356258e-97
7.904154138903945659e-98
6.328651456212624412e-98
4.208612930030171098e-98
3.164307951722653120e-98
2.210212186511774590e-98
1.534297806857888577e-98
1.077248797382753159e-98
7.591049479604974396e-99
5.418559539950217283e-99
3.928590456251111969e-99
2.905074302531184359e-99
2.188248753372053435e-99
1.674213886522896212e-99
1.294358799876945493e-99
1.004051246792966792e-99
7.758065166648605452e-100
5.931128019318663154e-100
