# bin_3_1
6.179002696333110615e-11
6.181630704922714056e-11
5.892396121691006696e-11
5.307859008740186759e-11
4.524162635747077911e-11
3.712014129338358679e-11
3.076367284057990355e-11
2.646890825182730493e-11
2.187652040928971730e-11
1.579161878298776270e-11
1.174906368541598886e-11
9.230550531610795530e-12
6.458948257375488742e-12
4.858731319052692762e-12
3.555412224891283270e-12
2.623357428940304705e-12
1.972059164331352331e-12
1.509493573914211453e-12
1.176909412835833051e-12
9.315143286530145785e-13
7.444591343957618553e-13
5.962604683917759595e-13
4.750473795423095393e-13
3.738700148484871385e-13
2.888521784441570384e-13
2.179791324800556629e-13
1.601292815977161892e-13
1.143533261173447201e-13
7.946162541895305914e-14
5.385938174736026594e-14
3.572858430707379351e-14
