# bin_11_19
1.155946425250035629e-07
1.283518362281622185e-07
1.396162144645358503e-07
1.479952507717636438e-07
1.518146201359873391e-07
1.497860698667253789e-07
1.399390388760936936e-07
1.235644019478936661e-07
1.032511835263897414e-07
8.443369537182776266e-08
7.123238997540540321e-08
6.156270109721346255e-08
4.828434134715199025e-08
3.344924604499510115e-08
2.660161224942565067e-08
1.905988802389799299e-08
1.387375342029138215e-08
9.583953145604156203e-09
6.913162128349047913e-09
4.898237057389533344e-09
3.485122057098950342e-09
2.512768341204380604e-09
1.838672380609929559e-09
1.370896129214285350e-09
1.040751080833503790e-09
8.014964968034078728e-10
6.229117644465555552e-10
4.851523406199326878e-10
3.759810274031395854e-10
2.880400980342064642e-10
2.169991397713381155e-10
