# bin_17_17
5.352150614163183064e-09
6.040363635035458933e-09
6.701905233254204754e-09
7.280733290382849294e-09
7.703001485133026640e-09
7.881418993298335660e-09
7.747639310747653777e-09
7.203416577750477355e-09
6.331388803629210706e-09
5.269573178023370999e-09
4.311328820101614130e-09
3.655070035631468154e-09
3.155188228092879587e-09
2.435764223923189075e-09
1.682916166292145445e-09
1.355928911110892597e-09
9.417065396107250206e-10
6.966605179021024538e-10
4.697695070200335680e-10
3.319495388381543069e-10
2.312569726231239133e-10
1.609784363400936785e-10
1.127021724993732875e-10
7.970732605690770890e-11
5.737959243613231265e-11
4.212225948309760584e-11
3.151951456437743046e-11
2.398852475262304058e-11
1.846424967216330851e-11
1.427391708503681221e-11
1.099941779196073254e-11
