# bin_15_7
1.085183170695353718e-25
1.207013516923611036e-25
1.315705434728806386e-25
1.398308528569254963e-25
1.438887865617088881e-25
1.425632785593368422e-25
1.338754311733719444e-25
1.187747598971597453e-25
9.963296091676942881e-26
8.144425862503405226e-26
6.842480987880306745e-26
5.925172474048649214e-26
4.713475015693966779e-26
3.263157346479705543e-26
2.565094724477187481e-26
1.878085383783974035e-26
1.341452463461918681e-26
9.326687873310234105e-27
6.761812454002085757e-27
4.769924510326124200e-27
3.375478428441339525e-27
2.424381520324753009e-27
1.766719373966516265e-27
1.311335722076408925e-27
9.915593305017707809e-28
7.612455879970266039e-28
5.905277402388654616e-28
4.597183429306234795e-28
3.565746638355646770e-28
2.737155724339577373e-28
2.068025061144062494e-28
