# bin_20_6
2.365932131464403704e-51
2.657397220604937713e-51
2.931572135261307658e-51
3.162343477985026729e-51
3.316336727319107486e-51
3.359276968879884142e-51
3.253964368517130030e-51
2.975081393584144450e-51
2.572227514739423582e-51
2.119429412931368897e-51
1.742279540296457938e-51
1.495809284538014683e-51
1.270597575659117362e-51
9.353935308626447332e-52
6.626423704000583173e-52
5.388084985451331197e-52
3.569719588785391946e-52
2.712995888497107050e-52
1.868027445982921637e-52
1.293898647885022442e-52
9.088128075080450464e-53
6.387566853318720003e-53
4.530719732808440400e-53
3.258669001204557901e-53
2.390239144557348629e-53
1.787058067175607645e-53
1.358965958558265381e-53
1.046558580912170759e-53
8.106839158568824420e-54
6.270424838306098651e-54
4.808817045611055753e-54
