# bin_13_16
4.442220146942225160e-08
4.966609183004487637e-08
5.448401279193492697e-08
5.836599586326726978e-08
6.067030025788063959e-08
6.084449589521273158e-08
5.808269900983024554e-08
5.233442334840597574e-08
4.457403175140361499e-08
3.652775943316308754e-08
3.029815389445541379e-08
2.620112454372830666e-08
2.167422915845412548e-08
1.537706089554553037e-08
1.143405875541740242e-08
8.940433558460000680e-09
6.040856977190630306e-09
4.445396459037547153e-09
3.150115171388663850e-09
2.196160020842106342e-09
1.542543550530537954e-09
1.092603022561691030e-09
7.849918297395108777e-10
5.734592084145218260e-10
4.272016311394846750e-10
3.239005120047755971e-10
2.490604956134733302e-10
1.930998059078423752e-10
1.498695602707357749e-10
1.156098002259606464e-10
8.808106361924128205e-11
