# bin_4_9
2.608722069850698182e-07
2.733656345758844759e-07
2.768879869072239950e-07
2.684921178719610679e-07
2.461314785025783261e-07
2.134280340892343797e-07
1.763942183947037557e-07
1.449388140100132913e-07
1.237153150918816847e-07
1.049994907957649316e-07
7.873527163330107104e-08
5.618929483433355648e-08
4.508941946188435845e-08
3.145220323665255948e-08
2.371541295425746491e-08
1.691192203680014821e-08
1.235818519173558393e-08
9.122931917639191296e-09
6.827342496910996253e-09
5.200662358198213142e-09
4.029513626060720576e-09
3.167729302842100317e-09
2.510907141348679985e-09
1.992597198663488573e-09
1.571931704548133994e-09
1.224434826936633887e-09
9.362484499329151046e-10
6.994347485586204092e-10
5.088489162699832996e-10
3.600666377832125712e-10
2.480255236877404527e-10
