# bin_18_20
1.989686828006595520e-08
2.251859481657275338e-08
2.507026340382048594e-08
2.734995952739604195e-08
2.908762152256566802e-08
2.995048959573304911e-08
2.969156559524211265e-08
2.789652270628702262e-08
2.476033762348324378e-08
2.077719514093758444e-08
1.698918648101424851e-08
1.427844336159506090e-08
1.236884002754503836e-08
9.837062123085575878e-09
6.799481028240241916e-09
5.338215970956698314e-09
3.890016509012130184e-09
2.760034323875864199e-09
1.894400711775240904e-09
1.353828060069176607e-09
9.345432252289257036e-10
6.428020360714414232e-10
4.461541918209454296e-10
3.124017555797781682e-10
2.221052570768246754e-10
1.609595845374603168e-10
1.189794611988217053e-10
8.964313424876526326e-11
6.853585118789890271e-11
5.283425889762529982e-11
4.076020775956462678e-11
