# bin_9_15
1.224004989843226587e-07
1.345940342444474733e-07
1.446621635128970952e-07
1.510573911046200994e-07
1.523056290543760394e-07
1.465810869466807901e-07
1.331770082296093813e-07
1.144164108085807636e-07
9.404614356197056984e-08
7.756226357476530158e-08
6.675295658938467703e-08
5.609784932667162200e-08
4.076094424290847450e-08
2.949915013437213528e-08
2.365691318116344654e-08
1.593912542254731057e-08
1.204168523564199512e-08
8.494794791391251847e-09
6.012467612814992740e-09
4.317497868112944032e-09
3.128175883888326351e-09
2.301660453457091179e-09
1.723066690715198003e-09
1.313835457984609308e-09
1.016273401498938429e-09
7.930950208206110675e-10
6.203418913124308087e-10
4.828180971609806949e-10
3.715242601425577839e-10
2.810938884465417996e-10
2.082153019117342661e-10
