# bin_5_2
3.137627328205702417e-13
3.258844732488365593e-13
3.267331941931018205e-13
3.121830741967822772e-13
2.817422276371284737e-13
2.404906036498433350e-13
1.972861298171903714e-13
1.632916245352640753e-13
1.406475198478377723e-13
1.167617280729393578e-13
8.414389273720825101e-14
6.226534742883384509e-14
4.921558936139740359e-14
3.402699979746867015e-14
2.561886603975831947e-14
1.860101539360632763e-14
1.356445318225408718e-14
1.006976331684106168e-14
7.600162870516070735e-15
5.842951113261441098e-15
4.566300832415129921e-15
3.613013979738749764e-15
2.874296188307837034e-15
2.282409724152250624e-15
1.796393082523642384e-15
1.392242298677948501e-15
1.056710489518033477e-15
7.821767105345109705e-16
5.631768032039475193e-16
3.943807436974820537e-16
2.690538326016823010e-16
