# bin_16_6
1.944743546935593467e-34
2.165491800642314261e-34
2.363734977794888931e-34
2.516435348742346602e-34
2.595003390357543733e-34
2.578038026235083474e-34
2.429337650833310840e-34
2.162308424844501359e-34
1.819206357678310965e-34
1.487357501141924397e-34
1.246057817497921759e-34
1.079447317651260255e-34
8.667059676178320694e-35
6.016312692768995004e-35
4.678122949355775868e-35
3.477826424230084885e-35
2.449345362412445550e-35
1.721301343908757308e-35
1.246379277758670707e-35
8.767688521230833794e-36
6.185834371051800455e-36
4.429805969520108023e-36
3.218860022769317330e-36
2.381510087620422844e-36
1.795505708480095265e-36
1.375209941578743081e-36
1.065161539967114445e-36
8.287463242825956410e-37
6.430472597124907303e-37
4.942140965658777762e-37
3.740943608947704976e-37
