# bin_2_9
5.000417616668451687e-07
5.013252167822429341e-07
4.795591652432938319e-07
4.337923089495628740e-07
3.714487323851878758e-07
3.056880989715433119e-07
2.530054635311980451e-07
2.168130861624965657e-07
1.799089414051321769e-07
1.318472372020699158e-07
9.717704873264510429e-08
7.626788738806502677e-08
5.386642446430256941e-08
4.036831556270467867e-08
2.938813409298996483e-08
2.172257143559417838e-08
1.630374891887568848e-08
1.245012227387648309e-08
9.682976995161980109e-09
7.647123173916282282e-09
6.101747623584241519e-09
4.883038439300900657e-09
3.890239965138340735e-09
3.063929459063899408e-09
2.370685457880753189e-09
1.792840172371136714e-09
1.320527603416611048e-09
9.458192586120134305e-10
6.591528416978468121e-10
4.479809777904863916e-10
2.978661859563943823e-10
