# bin_14_16
2.828040163685201274e-08
3.170700101951574924e-08
3.490147863165191362e-08
3.754665646857483612e-08
3.924012019294767772e-08
3.959532388100936304e-08
3.813519219962591128e-08
3.466305026332196982e-08
2.979057673692803016e-08
2.448531974489593404e-08
2.019272541919552621e-08
1.739574028361649087e-08
1.463576769788408513e-08
1.060666964879939369e-08
7.652443164073326135e-09
6.145617749832168184e-09
4.086365837695297281e-09
3.078006971349637968e-09
2.142943357345932813e-09
1.487059821219849098e-09
1.044227408847684326e-09
7.355346531608590313e-10
5.243031865545090076e-10
3.794552652315703508e-10
2.800914052123311263e-10
2.106300522563383135e-10
1.609333067262164874e-10
1.243106761998116397e-10
9.639661206416167976e-11
7.449775307624292031e-11
5.699178964116814660e-11
