# bin_12_16
6.271049959400242852e-08
6.988506241697017289e-08
7.635853703239865655e-08
8.139270966736476163e-08
8.406974186729165716e-08
8.367964364801122151e-08
7.906217190670692966e-08
7.054828673825775306e-08
5.950603164827185884e-08
4.867377725028725229e-08
4.069020136867014759e-08
3.523841811878213195e-08
2.847404842932469384e-08
1.985835200342476059e-08
1.529124796195910916e-08
1.149374732615939735e-08
8.019215045230607714e-09
5.697419161754369780e-09
4.104182767186786779e-09
2.881586170262812519e-09
2.031140265867093235e-09
1.451024485904188483e-09
1.051911839740039330e-09
7.762650698498023110e-10
5.838481413683825448e-10
4.462815869974984516e-10
3.451747604555233131e-10
2.683830584466840474e-10
2.082630530227294092e-10
1.601834800606927768e-10
1.214111661623606505e-10
