# bin_8_1
1.685677293451360549e-29
1.789796375956799209e-29
1.840876863530954646e-29
1.823591106236900497e-29
1.713273773571172291e-29
1.521090581731314703e-29
1.277306113137359993e-29
1.044147401759964047e-29
8.754823522716351204e-30
7.568848247746794599e-30
6.048124011572561080e-30
4.224029106185142049e-30
3.302823228071229774e-30
2.458156909765071346e-30
1.765370720450781150e-30
1.265474901632616540e-30
9.329353337732693512e-31
6.790609442138382113e-31
5.002487094943702004e-31
3.755545525246162845e-31
2.870477449073919194e-31
2.230991764642173490e-31
1.755528463252477156e-31
1.389353489849182561e-31
1.098121068973867768e-31
8.607516590054090266e-32
6.648123542333266999e-32
5.032325862524449493e-32
3.717542010938421207e-32
2.672674456921106701e-32
1.869092609289697977e-32
