# bin_19_15
9.380320639931072233e-13
1.059950157828597490e-12
1.177772543069263267e-12
1.281815073617062532e-12
1.359215765269724935e-12
1.394429359544060370e-12
1.375811676899520644e-12
1.284907645561414548e-12
1.134091483174648664e-12
9.470014514938093584e-13
7.743833785789533370e-13
6.540715987173197145e-13
5.658307495863023097e-13
4.424448966052459519e-13
3.051586238320914532e-13
2.436816292544632343e-13
1.726468715280520199e-13
1.256617326034023902e-13
8.495868656608755268e-14
6.049683354152279807e-14
4.197114015607329007e-14
2.906316866148067173e-14
2.027646816031133327e-14
1.427958182576900889e-14
1.022637897157816330e-14
7.467556691892750262e-15
5.560401590383069178e-15
4.215223674014365649e-15
3.236422144394314814e-15
2.499829004331290517e-15
1.927827629400732389e-15
