# bin_9_16
1.353755567302509380e-07
1.488695345539665216e-07
1.600160094030273037e-07
1.671038925429879204e-07
1.685005959152027886e-07
1.621898092528067178e-07
1.473793986969638820e-07
1.266365635225031797e-07
1.040969561454165996e-07
8.584477457620055433e-08
7.387534773176345570e-08
6.209777661655221114e-08
4.513724959024697407e-08
3.265261344482319072e-08
2.619285501887751405e-08
1.764672883805311599e-08
1.333407840988006427e-08
9.404085420519106921e-09
6.655942847738011079e-09
4.779489632105656296e-09
3.462675153218477443e-09
2.547511028282928416e-09
1.906890970965076788e-09
1.453848132333717676e-09
1.124483241062274222e-09
8.774960193601169344e-10
6.863473099013864467e-10
5.342002679452083322e-10
4.110821210236237292e-10
3.110459089755520679e-10
2.304233923736843840e-10
