# bin_2_13
5.928230781226642730e-07
5.945672356219172507e-07
5.690440146684840874e-07
5.150074029541235375e-07
4.412140041569794356e-07
3.631708163757060538e-07
3.004964485057868814e-07
2.574626940007938906e-07
2.138254206628348453e-07
1.568648855937873826e-07
1.154825212338984327e-07
9.070244138844209539e-08
6.405547589834786026e-08
4.801240426860031814e-08
3.493884055000420937e-08
2.582355298268640496e-08
1.937720566895822420e-08
1.479288540349577152e-08
1.150189672206445672e-08
9.081542794188394158e-09
7.245240228573453917e-09
5.797852513233559862e-09
4.619267496616363879e-09
3.638594356971148660e-09
2.815922646009302237e-09
2.130135360552333163e-09
1.569451713264965796e-09
1.124470288971439574e-09
7.838933421498598435e-10
5.329006101462850491e-10
3.544092277739179039e-10
