# bin_2_3
1.421742772275476047e-07
1.417513192266849978e-07
1.345701019507238246e-07
1.207833367638633429e-07
1.026516838727771900e-07
8.425401576676741307e-08
7.004162696590048808e-08
6.017597353485456418e-08
4.926278108816447200e-08
3.555684599719422577e-08
2.668818533737452643e-08
2.068247051481040642e-08
1.465004293755206844e-08
1.093702115350296585e-08
8.015538324773530455e-09
5.932286120252871262e-09
4.467798065841625442e-09
3.426388692888395533e-09
2.675711591673347819e-09
2.120280560891967110e-09
1.695378063854726209e-09
1.357688372484613439e-09
1.080862642598597099e-09
8.495420275888548416e-10
6.552232933142606436e-10
4.934727353865045213e-10
3.617730123627606670e-10
2.578677073233142036e-10
1.788960296606053323e-10
1.210956935352792654e-10
8.024615245951075580e-11
