# bin_19_13
1.323622304245607612e-16
1.493050907920574938e-16
1.655542463044161654e-16
1.797154790795319408e-16
1.899578995712657019e-16
1.941379187165431174e-16
1.905439738341048100e-16
1.768208023894544909e-16
1.551366195300547867e-16
1.289380206031175578e-16
1.055176196297406241e-16
8.960044218376993113e-17
7.727171152698451699e-17
5.932124771602714818e-17
4.102319053048572214e-17
3.317568728736150506e-17
2.283962166179129262e-17
1.701566757072510642e-17
1.146659141854287371e-17
8.072316913147461240e-18
5.634406234068427348e-18
3.931259994176297063e-18
2.756403392292126012e-18
1.952982246991665193e-18
1.409010076105300658e-18
1.036657794759245210e-18
7.773126925552993288e-19
5.925493795151557416e-19
4.565545515370199991e-19
3.530570308356729640e-19
2.719711245067171155e-19
