# bin_3_5
1.794949198786703202e-07
1.842086239921950591e-07
1.819351717624661630e-07
1.704986708511886143e-07
1.510632688060908688e-07
1.268283030746174251e-07
1.038520396406223520e-07
8.716733383617737884e-08
7.499297332128562861e-08
5.961274122712315573e-08
4.217529451190462625e-08
3.280125528706078494e-08
2.443586068827715815e-08
1.766270271232833320e-08
1.286809416931598505e-08
9.481668607889468732e-09
6.990126220273984809e-09
5.235150192871295569e-09
3.994303329793343293e-09
3.102439393681480084e-09
2.445796946538270469e-09
1.945907614287750115e-09
1.551153105891601275e-09
1.229860526243267859e-09
9.632842990635196007e-10
7.408095033796472886e-10
5.566299217403910335e-10
4.072902881799982831e-10
2.897845561488430602e-10
2.006689468212816928e-10
1.355671133040642625e-10
