# bin_13_6
2.790244719280170738e-23
3.081706377735768605e-23
3.330235994521738397e-23
3.501305893535406211e-23
3.557411510002956515e-23
3.462776820744678363e-23
3.183548794276708024e-23
2.768020624665640591e-23
2.287480132274008762e-23
1.875687788694761720e-23
1.602789347491200414e-23
1.370819861538626609e-23
1.027472984273225926e-23
7.203890452750668530e-24
5.873195456780832423e-24
3.965073239306702109e-24
3.020815789761775881e-24
2.087165308181768779e-24
1.477989523322632775e-24
1.059845275731460568e-24
7.644104964765222639e-25
5.576878444601559986e-25
4.134634683157919779e-25
3.124855629942158761e-25
2.400178350244059244e-25
1.864531744209499293e-25
1.456016515115860785e-25
1.134649946158336523e-25
8.764273472168722103e-26
6.670217970811115313e-26
4.978749109403395306e-26
