# bin_17_12
5.592455552144388380e-15
6.283501929796015649e-15
6.934594616154358797e-15
7.484210751567409079e-15
7.853584593852956870e-15
7.960822075339686142e-15
7.719430503437493736e-15
7.065855049565649345e-15
6.116110260929753684e-15
5.042351019530022898e-15
4.143021687225017398e-15
3.554196247101809377e-15
3.023727189193080533e-15
2.233210906033534092e-15
1.577527974035777275e-15
1.283994774461182869e-15
8.515987763205254437e-16
6.473504757894138679e-16
4.447870752173925229e-16
3.081494081250645841e-16
2.164360596216665421e-16
1.520931329774894697e-16
1.077849110115512867e-16
7.743326747389643129e-17
5.672877531846097611e-17
4.236492327984096562e-17
3.218555529078221355e-17
2.477055445542883925e-17
1.918235775500095975e-17
1.483837635202208740e-17
1.138435039559346375e-17
