# bin_20_16
1.281630438697525400e-12
1.451030854508780991e-12
1.616163136750254727e-12
1.764073974806825708e-12
1.877406721134254915e-12
1.934674194456155842e-12
1.919991932395821131e-12
1.806294256506552817e-12
1.605181222083570916e-12
1.348359840316299195e-12
1.102497919467796890e-12
9.255929295317529796e-13
8.020684523484530494e-13
6.402516991774105782e-13
4.426605256306130389e-13
3.463118925179271481e-13
2.538866615914127120e-13
1.791435086516575531e-13
1.233214901667846535e-13
8.823401786326229871e-14
6.084233327083196481e-14
4.178346830850652383e-14
2.896972724440626186e-14
2.025996031954626723e-14
1.438130314596972367e-14
1.040484108694885432e-14
7.678802433004595680e-15
5.777649027663149152e-15
4.413152094125413532e-15
3.400702492484921480e-15
2.623854893359613973e-15
