# bin_5_5
2.112137246527066213e-08
2.233652691509604933e-08
2.286498253514506059e-08
2.250548646500753032e-08
2.098073684534274557e-08
1.849195571940254882e-08
1.543958513991475976e-08
1.262923621408104029e-08
1.065373969393741335e-08
9.180241521544950749e-09
7.188582865558677630e-09
5.026057677551948551e-09
3.992680509969644443e-09
2.890651243951571946e-09
2.124191034147650393e-09
1.509758958911869428e-09
1.110155353597779047e-09
8.124457916833743614e-10
6.018639528721631433e-10
4.539694704021585683e-10
3.484849179678568764e-10
2.718827639493798698e-10
2.144898917483011047e-10
1.699451546569568197e-10
1.342790711595391655e-10
1.050718870861480586e-10
8.091513057624391919e-11
6.100588862432839264e-11
4.485438491502783626e-11
3.208620101561073358e-11
2.233019625654601390e-11
