# bin_20_19
1.386738901536107248e-09
1.573046317972452113e-09
1.756265164849865524e-09
1.922632961246303062e-09
2.053662707833283512e-09
2.126180300901286778e-09
2.122034603879815990e-09
2.011398492324513589e-09
1.800015147099702174e-09
1.522178541125645079e-09
1.245552408590117886e-09
1.039316758302671629e-09
9.007724665083628157e-10
7.330030233836016961e-10
5.113983646826928635e-10
3.900921467455584413e-10
2.955179053852607177e-10
2.025491603751249288e-10
1.435193763467690158e-10
1.018962725902906754e-10
6.989516418811438963e-11
4.777699608736471583e-11
3.289164510425740037e-11
2.283552171039031442e-11
1.605957865351942868e-11
1.150346563070573066e-11
8.405070384850713034e-12
6.268043654814455015e-12
4.755942108833729170e-12
3.651233425237388256e-12
2.815531673639500723e-12
