# bin_18_7
1.076242527898310669e-36
1.205053996485575282e-36
1.324323751493776340e-36
1.421843742419286692e-36
1.482201131182534419e-36
1.491321024814809202e-36
1.430207126869815845e-36
1.294322462708452140e-36
1.107379167155706733e-36
9.085298446066209955e-37
7.511441893361094776e-37
6.487103062928938178e-37
5.417037554651679219e-37
3.879377814135247906e-37
2.839936627111310455e-37
2.256269605327002157e-37
1.506850706437431669e-37
1.125574768064138046e-37
7.904107471927749822e-38
5.494685595601941760e-38
3.857535992477027740e-38
2.722526885988359550e-38
1.948022174195292277e-38
1.416437047113247287e-38
1.050395691100333039e-38
7.932380119740776821e-39
6.081275548860743345e-39
4.707224674092161208e-39
3.652691213623046743e-39
2.820929160494794569e-39
2.154030382877491827e-39
