# bin_8_6
9.789931233297200054e-11
1.061176789220090583e-10
1.120345515136972259e-10
1.144084867698839060e-10
1.122148134819149586e-10
1.041149932161428593e-10
9.133976195812567108e-11
7.594705465526062096e-11
6.213670524357698877e-11
5.266941979127928546e-11
4.534896320952826732e-11
3.496619437030188006e-11
2.434270787609000450e-11
1.961746376299624864e-11
1.380079514241504009e-11
1.030679551306183083e-11
7.175837560979712770e-12
5.215940068865379504e-12
3.780091464665966312e-12
2.764548817879778423e-12
2.053151728412072546e-12
1.550687629096030545e-12
1.192224040064630324e-12
9.292648679263391500e-13
7.298908715327748539e-13
5.738578877765637106e-13
4.484165445186692425e-13
3.460102690888289718e-13
2.622027610831871975e-13
1.942792846173929971e-13
1.403112001491272459e-13
