# bin_20_7
1.078257688578249968e-44
1.211942313000914133e-44
1.338119103221291688e-44
1.444968883756994872e-44
1.517330981809037331e-44
1.539230129459769741e-44
1.494295070683684746e-44
1.369476507951481981e-44
1.186888003994678434e-44
9.791181985474398962e-45
8.040499844995547775e-45
6.892024304692086017e-45
5.873316685082330463e-45
4.352910449678500812e-45
3.065308528493746894e-45
2.497812808043512394e-45
1.658409786013774587e-45
1.261044218819786409e-45
8.644594077324156125e-46
5.989986359918748076e-46
4.207095838318851570e-46
2.955697787510805327e-46
2.092547114690947224e-46
1.501332081945223336e-46
1.098394541036565234e-46
8.192183642248237855e-47
6.216991410590581546e-47
4.781155690443495201e-47
3.701316582050623850e-47
2.863383252957544984e-47
2.197859798909231312e-47
