# bin_11_15
7.043327610185949849e-08
7.818808863198304776e-08
8.502552914554054469e-08
9.009597493102944581e-08
9.238080522069027126e-08
9.109359018235321339e-08
8.504356079125972775e-08
7.504139019756743261e-08
6.266929566564928706e-08
5.124945894875894229e-08
4.326223516019889067e-08
3.738056723778828716e-08
2.925923427189513684e-08
2.026772715312913636e-08
1.614786702621310615e-08
1.153382098763175073e-08
8.418356161644616757e-09
5.808231763644246649e-09
4.187924819592547907e-09
2.969139488401050310e-09
2.114039637903672783e-09
1.525091244964171310e-09
1.116620864148948861e-09
8.330793379169515314e-10
6.328165549439138979e-10
4.875585356141320857e-10
3.790272890603801660e-10
2.952265241849808570e-10
2.287683591046676783e-10
1.752127648724575076e-10
1.319463491890397986e-10
