# bin_14_8
8.019880561490747935e-19
8.912081452065214837e-19
9.703692676413761984e-19
1.029847343455392470e-18
1.057907119301209269e-18
1.045816211860883667e-18
9.793163929498898724e-19
8.665707271711742975e-19
7.252375962195832710e-19
5.928406884461257089e-19
4.992282182601901334e-19
4.320389308000422196e-19
3.410147272123356804e-19
2.358257275309930643e-19
1.868725390418917816e-19
1.351079448915106287e-19
9.762957880767945903e-20
6.741655018402670918e-20
4.883378175675210148e-20
3.453180487169875341e-20
2.450779680893481428e-20
1.764269907079650204e-20
1.288663971187175451e-20
9.589734576352096101e-21
7.268080377682146505e-21
5.590170829523558284e-21
4.341560288887160713e-21
3.381123282869659743e-21
2.621552508069645964e-21
2.010307162031903337e-21
1.516518441727379210e-21
