# bin_4_15
3.730001430223761297e-07
3.914590607076959389e-07
3.971970219478794490e-07
3.860651389462853107e-07
3.548513832912893021e-07
3.084088579337913323e-07
2.554105139747754056e-07
2.097598442976255237e-07
1.787947095394934792e-07
1.521451176546929319e-07
1.148076244764667438e-07
8.165671706746962229e-08
6.550604239698177480e-08
4.588912156310241157e-08
3.451431005178335934e-08
2.458589612462336447e-08
1.797736790262361433e-08
1.325485875093109340e-08
9.904674688167425077e-09
7.533725050908387283e-09
5.828400650996396594e-09
4.577023737453243752e-09
3.625774384097729145e-09
2.876940841236632754e-09
2.270450570913983300e-09
1.770051442235261536e-09
1.355153356520819298e-09
1.013990186347042977e-09
7.390236117152622434e-10
5.239080632407921503e-10
3.615162759097792085e-10
