# bin_20_14
2.746207275087169925e-16
3.107061261319656333e-16
3.457573517562103718e-16
3.769725309468373796e-16
4.006074578899066112e-16
4.120686286661463624e-16
4.079529911600143963e-16
3.826057867908775871e-16
3.390298825483303821e-16
2.840898377773290084e-16
2.323398008429921276e-16
1.956439091733431625e-16
1.694602324876208782e-16
1.340349846118343311e-16
9.251781711084158726e-17
7.313610177547869166e-17
5.278811665703441965e-17
3.780112603775996842e-17
2.576078693167729421e-17
1.841998262475887205e-17
1.273815990217114511e-17
8.779902515249559631e-18
6.106722191566204216e-18
4.284329653789294597e-18
3.054118612371068516e-18
2.219652948363274471e-18
1.645135650588002841e-18
1.242399951996047291e-18
9.514944269202979172e-19
7.341772244685603714e-19
5.664524959465353156e-19
