# bin_14_17
3.822233877479087529e-08
4.290282616918469450e-08
4.728906928570649575e-08
5.095589829253618603e-08
5.336128032756468105e-08
5.396655216955046485e-08
5.214453823707143895e-08
4.755873182311255105e-08
4.099266285804199328e-08
3.376852331716399580e-08
2.781045235196878248e-08
2.391767664530683180e-08
2.022595484769952627e-08
1.478529656617618767e-08
1.057113287861033376e-08
8.540819339133313074e-09
5.673984689325174776e-09
4.291727693888972148e-09
2.970863812782542141e-09
2.060551910877358952e-09
1.447007253766145163e-09
1.018079924110969894e-09
7.239101363253480860e-10
5.220866439811064759e-10
3.841332440838727870e-10
2.879898995802286635e-10
2.194906654105014836e-10
1.692804742337145682e-10
1.312021702290182090e-10
1.014490114450176639e-10
7.771921837873485898e-11
