# bin_3_9
3.531774173475100274e-07
3.634912411045158019e-07
3.602965032545387316e-07
3.391946849463602719e-07
3.018572040120822366e-07
2.544167011682327821e-07
2.085012879284430879e-07
1.744946763847616899e-07
1.502177874681967176e-07
1.206277855711662021e-07
8.568289817487691444e-08
6.593654988475718274e-08
4.977107301797872717e-08
3.563600563074129139e-08
2.613253149093998772e-08
1.919638706701048665e-08
1.411755403327006073e-08
1.054966951170784395e-08
8.028314463004433283e-09
6.220451977672111191e-09
4.893853658320563807e-09
3.888972692601916316e-09
3.098856723723179701e-09
2.458146505514407367e-09
1.927811627998727712e-09
1.485517326572248898e-09
1.119045402209736864e-09
8.212097210914693616e-10
5.860559713062628180e-10
4.069976092815684544e-10
2.756569527277239371e-10
