# bin_11_7
2.374870285579174874e-14
2.614493006262159167e-14
2.813963156216027723e-14
2.943378935291488670e-14
2.973445162928062031e-14
2.869148665060187340e-14
2.613465852249686667e-14
2.249846621880640337e-14
1.852115382810107465e-14
1.525502651974026473e-14
1.312008765120912517e-14
1.107801522013185590e-14
8.089867695729512799e-15
5.809472517074262864e-15
4.695851222921280269e-15
3.146001297750593899e-15
2.393302234466042191e-15
1.681385192887998249e-15
1.187940534032328619e-15
8.528865866965598247e-16
6.169769366567481000e-16
4.531337714642432233e-16
3.384742373404576958e-16
2.576531450555972714e-16
1.990376573724557152e-16
1.552094401316856247e-16
1.213917153580014706e-16
9.453086680299925654e-17
7.281845031066578838e-17
5.517719059953395330e-17
4.094766169688020623e-17
