# bin_8_12
1.023407690572111452e-07
1.119386704797968512e-07
1.195128788380306020e-07
1.237363052981044959e-07
1.235271943645878163e-07
1.172207774755794196e-07
1.050564986310816635e-07
8.898668588451577995e-08
7.288745953378242218e-08
6.071294349078654730e-08
5.250509162289861796e-08
4.288245290528770265e-08
3.024785072863951834e-08
2.294582724308379846e-08
1.762258638197621642e-08
1.221944205952859909e-08
8.913806174732538049e-09
6.442796407357849937e-09
4.591886320378472040e-09
3.307110981546115946e-09
2.417080345411705863e-09
1.797282425989033770e-09
1.360533239123592436e-09
1.047537145541421850e-09
8.161266032196405836e-10
6.395429625097048546e-10
5.006022393981661945e-10
3.886651122134279360e-10
2.975033024362633397e-10
2.233916859162235815e-10
1.639088499919452265e-10
