# bin_19_17
2.283066489562022428e-10
2.585920679502153210e-10
2.881549410218869508e-10
3.146933136627871713e-10
3.351185517708806570e-10
3.455979432581974836e-10
3.432750823538646290e-10
3.233009274488490702e-10
2.876226598939164082e-10
2.418370694553580124e-10
1.978261934570033780e-10
1.660099826973837539e-10
1.438795922328412050e-10
1.151308570336530204e-10
7.968743253325910933e-11
6.218280570358369499e-11
4.576365480138107045e-11
3.218910506942780316e-11
2.222819182717986271e-11
1.589748479563932048e-11
1.095781973910040274e-11
7.521078675488128791e-12
5.211432806707770499e-12
3.641722555153396421e-12
2.582621212912986934e-12
1.866844331833664806e-12
1.376342816005953911e-12
1.034694383476749016e-12
7.898691506570836826e-13
6.084934226009127045e-13
4.695203181629303554e-13
