# bin_15_1
3.602431998431762798e-69
3.981251832586612872e-69
4.305468513255428498e-69
4.530565559296150837e-69
4.607676786865295313e-69
4.490953571081325177e-69
4.134914299120410601e-69
3.599235845915946152e-69
2.978886628995917277e-69
2.442300565314881133e-69
2.085475561403839599e-69
1.786075343344971765e-69
1.343499861742438672e-69
9.404208118701291192e-70
7.663682335428283888e-70
5.190143438101064210e-70
3.947870004396981780e-70
2.723085071698368407e-70
1.930599296693048215e-70
1.383472425013102184e-70
9.970939582789951422e-71
7.267683867074110794e-71
5.380619588361201700e-71
4.062136746330229024e-71
3.117214379185991597e-71
2.419913583971223372e-71
1.889203295188065826e-71
1.472397065528030447e-71
1.137832587626648325e-71
8.666212281596566039e-72
6.475011611987846539e-72
