# bin_1_4
4.203642187892075313e-07
4.045092751222949123e-07
3.685384348959586559e-07
3.179076017461269169e-07
2.629964898141837208e-07
2.172307925729970180e-07
1.851528212620217571e-07
1.547954295930160499e-07
1.159195375524243893e-07
8.462048649459045446e-08
6.632118489582950404e-08
4.763960478799041765e-08
3.553158157747556332e-08
2.599562713169670599e-08
1.936622659608113484e-08
1.461943145030386593e-08
1.123733495736088840e-08
8.799415771376305056e-09
6.993762201805750093e-09
5.611329205261534216e-09
4.510646047837460689e-09
3.605376586457647129e-09
2.845638436115154305e-09
2.204239797785666626e-09
1.667517276749158405e-09
1.228063420855922172e-09
8.795017810473824831e-10
6.130283110523203782e-10
4.168657295137073238e-10
2.774271490523732708e-10
1.812993236370266922e-10
