# bin_19_3
3.762955926786756704e-71
4.213782388568709193e-71
4.631210941450485574e-71
4.972511397293339520e-71
5.183683430121300371e-71
5.215679866926481715e-71
5.001483539791633734e-71
4.526469977084179247e-71
3.870289221715200887e-71
3.177683561483797076e-71
2.628602287187398771e-71
2.270714845324456121e-71
1.895207414376081389e-71
1.356543714381645957e-71
9.945069010495002418e-72
7.892827339563716439e-72
5.276466315820652880e-72
3.937450388036822850e-72
2.767311662579924470e-72
1.924220783979079003e-72
1.350928907394636854e-72
9.536259682959836690e-73
6.825742975088022945e-73
4.963775653354223464e-73
3.682472040945517017e-73
2.781640727043993513e-73
2.132945377750901542e-73
1.651287444512536486e-73
1.281489076222378143e-73
9.897183780692358735e-74
7.557375948707860669e-74
