# bin_3_6
2.337210519281088021e-07
2.403211639906210799e-07
2.379249833932160397e-07
2.236455044825489166e-07
1.987282686245783227e-07
1.672776529236358333e-07
1.370660359504835552e-07
1.148386429869327852e-07
9.884814400604243429e-08
7.909741355536522459e-08
5.610157068854030812e-08
4.334076836589187885e-08
3.256376547125683292e-08
2.339370222473876382e-08
1.711466159784840005e-08
1.258641130708927675e-08
9.263987097206467435e-09
6.927835172091113546e-09
5.276768441556403857e-09
4.091914076847549095e-09
3.221543545190174609e-09
2.561186078777480237e-09
2.041162082863488528e-09
1.618938975413641260e-09
1.269161118186617867e-09
9.773658136228106371e-10
7.356484053097979230e-10
5.393438566300810228e-10
3.845241455595661670e-10
2.667906319202177256e-10
1.805468937798000391e-10
