# bin_13_3
2.095641184836526194e-40
2.304194721033132477e-40
2.476134876892000546e-40
2.584910489648385735e-40
2.605508062088651070e-40
2.505844651465946622e-40
2.274856031632419960e-40
1.951507494334011751e-40
1.604163898031608328e-40
1.323747717049461022e-40
1.140720939425915033e-40
9.578564429822563484e-41
6.931946580915208570e-41
5.030347360434055581e-41
4.038491567882047876e-41
2.710767233655267570e-41
2.052585653447478466e-41
1.451185310228758457e-41
1.026106509486315399e-41
7.367945124556831378e-42
5.337208633309726673e-42
3.929697227793458676e-42
2.943729027493619332e-42
2.246504368130560811e-42
1.738860853182796464e-42
1.357673712227504417e-42
1.062293481591825044e-42
8.268963613117857303e-43
6.362483413332760020e-43
4.812754970749782699e-43
3.563627306787800751e-43
