# bin_6_14
2.219926041930953357e-07
2.389776038766527631e-07
2.501218994477320063e-07
2.529127503940864489e-07
2.445023929988299274e-07
2.232941694658330139e-07
1.927819169887402607e-07
1.590039800182284327e-07
1.308551225644058017e-07
1.121649392009946344e-07
9.487820293202702823e-08
7.011705057950198603e-08
5.025386836318112448e-08
4.047025685906714796e-08
2.768305517404419555e-08
2.098327913486606118e-08
1.485225542127016026e-08
1.069384069353232460e-08
7.802125826411701314e-09
5.757738684023619008e-09
4.319678336765407166e-09
3.296631104396543495e-09
2.558160846433716716e-09
2.007166875222519489e-09
1.582010001010804989e-09
1.244003012935743210e-09
9.691208572903916095e-10
7.434588375601251496e-10
5.587935513469975412e-10
4.098771370104394127e-10
2.927312595991892307e-10
