# bin_3_16
4.864790447438781239e-07
5.009370224493923587e-07
4.968511904465703093e-07
4.681363307705904835e-07
4.169390892648959528e-07
3.516554453865699098e-07
2.882161248101083372e-07
2.410650378296477782e-07
2.075413321633219600e-07
1.669716701190567957e-07
1.186928227263563277e-07
9.115126415341017193e-08
6.897277131980055303e-08
4.929724121706207460e-08
3.619560711482892059e-08
2.657248370729090721e-08
1.953366758344326007e-08
1.459128753583338845e-08
1.109877415663800923e-08
8.595694423715201859e-09
6.759989777828758624e-09
5.370653810709462133e-09
4.279141322462908620e-09
3.394620674190790524e-09
2.662801703602132586e-09
2.052565159463460487e-09
1.546879332028916724e-09
1.135744778987309703e-09
8.109460426438709827e-10
5.634550927566835979e-10
3.817906352594173001e-10
