# bin_13_7
2.000801044690317872e-19
2.216020446521693953e-19
2.402915760009228032e-19
2.537018054888290567e-19
2.590064065935440430e-19
2.538539567523406306e-19
2.352326852588531853e-19
2.060729393679014825e-19
1.712143550890730789e-19
1.401503395352589018e-19
1.190876969371350145e-19
1.025544676331042535e-19
7.854139110493567316e-20
5.453302554314006805e-20
4.418684171090747345e-20
3.053205295630112801e-20
2.292197180684890743e-20
1.570517166391881287e-20
1.122615867365196733e-20
8.013838058679461761e-21
5.751435825565666580e-21
4.173580150357821566e-21
3.074141035654835426e-21
2.308947181542073757e-21
1.764234089516561950e-21
1.365335784144169542e-21
1.064247820621225325e-21
8.295054690236093513e-22
6.420071039618311933e-22
4.903345682165289404e-22
3.677424055328705282e-22
