# bin_6_2
4.046156898864491353e-16
4.249440732948253493e-16
4.314754091074195647e-16
4.198164298534172567e-16
3.860608639106378150e-16
3.357019080890038465e-16
2.778063043502318844e-16
2.278291754246419981e-16
1.943242187018666903e-16
1.659712774902705147e-16
1.251366346226162523e-16
8.836861890874734518e-17
7.166284889474882187e-17
4.959604713536806330e-17
3.774771579597426297e-17
2.671361417024942010e-17
1.949096300726558776e-17
1.439212477745130150e-17
1.076350231468210356e-17
8.186718157157401293e-18
6.332876267986846064e-18
4.973902326356743067e-18
3.941125859656465159e-18
3.128219851214474532e-18
2.469780750204946202e-18
1.926312830839567663e-18
1.475455682291381141e-18
1.104421617057461549e-18
8.051185400798727522e-19
5.707843433061661366e-19
3.938068790076321751e-19
