# bin_13_1
1.876358733760773742e-57
2.056663197390906775e-57
2.201580613918123278e-57
2.286930598208406146e-57
2.292140489139960312e-57
2.186606002175951293e-57
1.969332629442908502e-57
1.675719709294566899e-57
1.373646789623064605e-57
1.139589422075273603e-57
9.853168912398765897e-58
8.145737625554937662e-58
5.784690159188603422e-58
4.315645292659690172e-58
3.380933026428647909e-58
2.304893224866178759e-58
1.709377966041908426e-58
1.227474857798785439e-58
8.716545125527881988e-59
6.263084232096364152e-59
4.559287125919924044e-59
3.377689239068361367e-59
2.547179911035521973e-59
1.955060642368884556e-59
1.519824894751223655e-59
1.189697177777484056e-59
9.313624951468192900e-60
7.239945889545220057e-60
5.553904103381203119e-60
4.182718442396527216e-60
3.079974299838023314e-60
