# bin_1_7
5.981351334365517894e-07
5.766455431061337021e-07
5.264249740080537106e-07
4.549772494563589469e-07
3.767558386025143184e-07
3.109618862630942424e-07
2.647970666721550939e-07
2.219292732555554643e-07
1.668921819393735721e-07
1.215033498003133047e-07
9.526608222924899787e-08
6.856369221207486714e-08
5.107051260263146137e-08
3.735469876127924796e-08
2.781686273755858350e-08
2.097754671194785011e-08
1.610731926874447840e-08
1.260033851192661172e-08
1.000682378117776981e-08
8.024902379052876257e-09
6.449978480682556296e-09
5.156634039844028077e-09
4.072210713291916623e-09
3.156925907553751017e-09
2.390686194226617405e-09
1.762669056570226930e-09
1.263843076117014979e-09
8.818817371986421738e-10
6.002664133899209491e-10
3.998056374796464381e-10
2.614471348653162488e-10
