# bin_18_7
1.027708387701473411e-36
1.151773316528144664e-36
1.267135367005304743e-36
1.362203568730058897e-36
1.422295106859408184e-36
1.433645022839038477e-36
1.378351595479180802e-36
1.250657379213483731e-36
1.072199640314157812e-36
8.811799684982081782e-37
7.277178824864786762e-37
6.278524446470542521e-37
5.265739106592996138e-37
3.793815822268243618e-37
2.756360547971926856e-37
2.204775891697167771e-37
1.467219671267768723e-37
1.102295895061858977e-37
7.706805283739066263e-38
5.351298276233652755e-38
3.757264196182846441e-38
2.648084065825412524e-38
1.891073712372155773e-38
1.371399674270761729e-38
1.014642936706886068e-38
7.645754247347682711e-39
5.851532453819488600e-39
4.525041064600877963e-39
3.510672319450131616e-39
2.712765887305220309e-39
2.073904971354427428e-39
