# bin_10_15
9.044625522107271397e-08
1.000641737756699921e-07
1.083558942950415803e-07
1.142094329807754188e-07
1.163783496737359292e-07
1.137452613718344913e-07
1.050799731766205771e-07
9.177087234119798088e-08
7.612576361936766009e-08
6.237871773845336675e-08
5.311851344316718239e-08
4.559059081247216608e-08
3.463347022261538678e-08
2.417943811915905148e-08
1.959383095169589380e-08
1.345612182260302685e-08
1.012851789627563360e-08
6.977242418170509146e-09
4.973250561797453936e-09
3.553872563936759414e-09
2.553598610767397957e-09
1.856777001830098381e-09
1.370960555901761781e-09
1.032120120835647702e-09
7.901523881288448723e-10
6.123226896911327242e-10
4.775784820667799028e-10
3.721769207952649668e-10
2.878074198344087774e-10
2.195045584419241882e-10
1.643183458671126811e-10
