# bin_17_5
4.933325238452889436e-45
5.505952417045082957e-45
6.026671122017238634e-45
6.437916399450784462e-45
6.667495007546177450e-45
6.658113104644724842e-45
6.317005553177281669e-45
5.659356985269430571e-45
4.789721686310933877e-45
3.921316242755503663e-45
3.268728981465579130e-45
2.831711955090076354e-45
2.311122821170026493e-45
1.618711000743319630e-45
1.231273743968166687e-45
9.406283983491179277e-46
6.469677528672385881e-46
4.656839212506379262e-46
3.343450535567097336e-46
2.340858531548605183e-46
1.645737382213814731e-46
1.171769706596381799e-46
8.467216640801141734e-47
6.225323349016899335e-47
4.666943923570272442e-47
3.557456547567127924e-47
2.746465189514748203e-47
2.134034411001755040e-47
1.656749639165127639e-47
1.276133284446733427e-47
9.694324766927784516e-48
