# bin_16_18
2.230967879287626376e-08
2.516576754084821896e-08
2.790403023690258445e-08
3.028889009190362943e-08
3.201130468929586342e-08
3.271191945571704590e-08
3.209593551663813182e-08
2.977446286913577984e-08
2.610982944477677094e-08
2.170880284847844119e-08
1.777345353258010691e-08
1.510121927558240533e-08
1.301497762831231669e-08
9.978674114168470551e-09
6.911555785442115015e-09
5.588563627858320850e-09
3.844427298480153332e-09
2.864335265960920783e-09
1.934371483017973208e-09
1.360932204038110723e-09
9.501281060243662447e-10
6.629926377572519462e-10
4.651438058483646580e-10
3.297055793738557600e-10
2.380525500302653559e-10
1.752697373312335963e-10
1.314948131796010825e-10
1.002822603257564052e-10
7.728566935838230727e-11
5.976783348054381756e-11
4.603488031426846935e-11
