# bin_10_16
1.028739683388405503e-07
1.138211036701908250e-07
1.232630134790971916e-07
1.299353433567286722e-07
1.324187736350426100e-07
1.294450856813825479e-07
1.196077227382093227e-07
1.044793422277400696e-07
8.667859415917591484e-08
7.102268275041662181e-08
6.046991246318363195e-08
5.190843981458964148e-08
3.945522451842655196e-08
2.753961203408228556e-08
2.231198100377527095e-08
1.533274755969273746e-08
1.153576621949564924e-08
7.945841449592082893e-09
5.664910717031101477e-09
4.047617964429025823e-09
2.907942943471335464e-09
2.114125852732445093e-09
1.560724167581805028e-09
1.174790083171782470e-09
8.992510009730468619e-10
6.967976571078662115e-10
5.434359975876894613e-10
4.234992746425241397e-10
3.275103331979103998e-10
2.498063298229768113e-10
1.870237788281828589e-10
