# bin_5_1
1.333219900513085749e-16
1.373965111967193594e-16
1.364696741716136739e-16
1.287150818911957060e-16
1.147288769563041441e-16
9.671715963138932510e-17
7.914874439885780982e-17
6.614567829068381663e-17
5.713347274858924491e-17
4.613265087767951956e-17
3.250469159874462495e-17
2.506822824806841330e-17
1.901954426893736249e-17
1.353969650125920675e-17
9.903244162578214323e-18
7.317421916608714938e-18
5.373474603497886006e-18
4.007310333640497663e-18
3.047245788383343771e-18
2.360105214436985591e-18
1.856467044344897919e-18
1.475420699928673694e-18
1.176084092709987102e-18
9.334724223170396699e-19
7.326516490735026953e-19
5.650611415013851833e-19
4.260406472766249416e-19
3.128915641934780623e-19
2.234123977046247742e-19
1.552003087241340732e-19
1.051291615197821683e-19
