# bin_4_20
4.255385808604813107e-07
4.466553765734855221e-07
4.532703228424464078e-07
4.406608651305741433e-07
4.051287277358466015e-07
3.521888239687742907e-07
2.917062598552756811e-07
2.395503884912292691e-07
2.041551313998431099e-07
1.737680204200927576e-07
1.312044353461047341e-07
9.328610628864224586e-08
7.483123694087305335e-08
5.244454335797495082e-08
3.943396250484493306e-08
2.808764471472607544e-08
2.053928887202359753e-08
1.514204838522593527e-08
1.131329058663393601e-08
8.603938431355669824e-09
6.655480823852542200e-09
5.225971072084124057e-09
4.139583268128666174e-09
3.284567626625491825e-09
2.592210126489419058e-09
2.021031894873757622e-09
1.547464213202236479e-09
1.158039794113335880e-09
8.441393065509937874e-10
5.985200047400227569e-10
4.130621831784396535e-10
