# bin_16_11
2.773410182402881562e-15
3.110281251731520004e-15
3.424588538494168431e-15
3.685228948762586002e-15
3.852710045941426835e-15
3.889069417291552589e-15
3.747042614847920797e-15
3.407227333668228094e-15
2.927572659821729145e-15
2.408160677057729811e-15
1.986240096928148112e-15
1.711600308544828114e-15
1.440907729060716132e-15
1.044169350070653226e-15
7.531348865773596057e-16
6.057736653720944588e-16
4.021298057787747015e-16
3.034344212630882624e-16
2.112642503258443753e-16
1.465550821815575917e-16
1.029128309688352812e-16
7.246149457874697015e-17
5.165236038628572161e-17
3.737241767024048502e-17
2.758785609835980074e-17
2.074600446342006273e-17
1.585145959278234655e-17
1.224569382648591249e-17
9.497634999113022285e-18
7.341690609218039633e-18
5.617980705698883733e-18
