# bin_4_11
3.043057534284650545e-07
3.192894762994078305e-07
3.238807732809470749e-07
3.146808300189906931e-07
2.891133899481730597e-07
2.511662341466183218e-07
2.079535624601003128e-07
1.708084912525213112e-07
1.456357736215369925e-07
1.238730151484867434e-07
9.336867515525406464e-08
6.645120616063957023e-08
5.331328277160220780e-08
3.731785994777970950e-08
2.808182872652260625e-08
2.000733439852792537e-08
1.462763762114890125e-08
1.078734459128945057e-08
8.062899164520132513e-09
6.134413277962128320e-09
4.746987313427819267e-09
3.728520380248134642e-09
2.953965533197221427e-09
2.343965856139669559e-09
1.849747613044831001e-09
1.441892676057173111e-09
1.103705513624978789e-09
8.256442772878323432e-10
6.015840768547146691e-10
4.263524075948241114e-10
2.941196276586305032e-10
