# bin_13_13
6.807300653702062605e-09
7.606994347176032430e-09
8.339260221949635912e-09
8.925466242497596992e-09
9.266723196643774856e-09
9.280406668842248714e-09
8.840615689361106841e-09
7.950582357280823471e-09
6.754701404034751160e-09
5.535456445086807244e-09
4.600263377213535975e-09
3.981895028616634372e-09
3.278694756661947881e-09
2.314429953593263300e-09
1.735728349279621281e-09
1.346321994520166232e-09
9.150643721688599862e-10
6.683914521447047434e-10
4.759847627048306122e-10
3.323439451057256850e-10
2.334791223121158745e-10
1.656621712465734086e-10
1.192760813906988391e-10
8.733537487464089907e-11
6.521897547139145634e-11
4.954884187426582935e-11
3.815953400848481458e-11
2.961287852050647874e-11
2.298862700690175779e-11
1.772615954477751544e-11
1.349256694080224312e-11
