# bin_20_13
1.004688996310676767e-18
1.135790526029244002e-18
1.262683686802049922e-18
1.375024970841004764e-18
1.459048904120156208e-18
1.498049184219705858e-18
1.479510749751390808e-18
1.383412647935598773e-18
1.222372220692807808e-18
1.021904453251471676e-18
8.357971130159949749e-19
7.055454132269552374e-19
6.106326972241627874e-19
4.788499949552467966e-19
3.303368333276066098e-19
2.632525026030254352e-19
1.873431631355065957e-19
1.358826874880954533e-19
9.199475647669770860e-20
6.559609744394513292e-20
4.547953400207037911e-20
3.146058949739312700e-20
2.193717420547292021e-20
1.543414312758698411e-20
1.104247356089266780e-20
8.055613907456427577e-21
5.992129449884583180e-21
4.538876586722210678e-21
3.483235185384521196e-21
2.690099725832952025e-21
2.075009603350622724e-21
