# bin_12_10
1.374198242386750081e-10
1.526135804604080073e-10
1.660355470578486410e-10
1.760283812964345716e-10
1.805931365682645450e-10
1.782054629289960788e-10
1.664992621804061730e-10
1.470182175007605362e-10
1.228604546067418324e-10
1.004773402766296187e-10
8.480434720449127672e-11
7.332929790854303631e-11
5.748655139836685431e-11
3.977710738552802408e-11
3.170805704859948711e-11
2.267989920149659214e-11
1.654760443636527059e-11
1.139088410283863705e-11
8.230005345171997310e-12
5.833305128073643136e-12
4.151328666537008812e-12
2.994388157794688782e-12
2.191285567788829167e-12
1.634324306331536168e-12
1.241185567414063680e-12
9.561122379553646755e-13
7.432887331635686815e-13
5.790600258985395541e-13
4.488555049684259123e-13
3.439296490535935802e-13
2.591400178658537398e-13
