# bin_11_13
3.799144960816661215e-08
4.219613154873878865e-08
4.591287179918941370e-08
4.868391061723066417e-08
4.995788783866379532e-08
4.930981337429417090e-08
4.608852029215974484e-08
4.071113218544715226e-08
3.403643701302737154e-08
2.783995204400438837e-08
2.348907046671694585e-08
2.030596641665514187e-08
1.593693510875900213e-08
1.104019359272152572e-08
8.780613903185578770e-09
6.295533687189987399e-09
4.581648181152687715e-09
3.163816986809513476e-09
2.283409093905310292e-09
1.617806063391394236e-09
1.150881460639738539e-09
8.297609493141407442e-10
6.069946435457511378e-10
4.525151133806953703e-10
3.435232542776858737e-10
2.645329138605446175e-10
2.055977989496564394e-10
1.601494035435192699e-10
1.241366676847081280e-10
9.512679191979275013e-11
7.168805857083366066e-11
