# bin_17_13
4.449609867141396125e-13
5.009317556889815831e-13
5.541250748093701765e-13
5.997348518871234910e-13
6.315405515145177874e-13
6.426734093692892793e-13
6.267731244110273611e-13
5.773425738328584690e-13
5.027433881864838477e-13
4.161756821926913876e-13
3.412709055839692432e-13
2.915710553636988872e-13
2.498770342249839964e-13
1.877608960037180112e-13
1.310628293853011365e-13
1.068023338581797029e-13
7.163650049643031634e-14
5.426911288446449270e-14
3.689691997223039695e-14
2.566499376292754946e-14
1.800505251440351280e-14
1.263220135905695800e-14
8.911217485026688085e-15
6.360540310358966179e-15
4.629278120876073916e-15
3.435244850562920590e-15
2.595505036927174127e-15
1.989940311398075395e-15
1.538238630161269176e-15
1.190214016063521500e-15
9.151115332405626144e-16
