# bin_9_1
1.063550975869388945e-34
1.139185881411998167e-34
1.184720250584438440e-34
1.189261755556666545e-34
1.137460265943494127e-34
1.027208359199423364e-34
8.766287797326781945e-35
7.192990470588733311e-35
5.953479979231214788e-35
5.137158602901221367e-35
4.271936023065914570e-35
3.063820449193806585e-35
2.264530341435728466e-35
1.794365699760390901e-35
1.225805579845195824e-35
9.220697768844346642e-36
6.645950630877836115e-36
4.782065592682191033e-36
3.497284464210826676e-36
2.594818417882733149e-36
1.961057545337741087e-36
1.507996870455718880e-36
1.177441102802109362e-36
9.276786450425742297e-37
7.325617070902797954e-37
5.757633473080457647e-37
4.473241873752192258e-37
3.415645155098143696e-37
2.551025302635266771e-37
1.856867404663392262e-37
1.315117845320195810e-37
