# bin_5_4
2.553712142107227188e-09
2.691466965026849493e-09
2.744002206963395732e-09
2.685518982833104406e-09
2.486454339855947870e-09
2.176754806742032606e-09
1.809171577579164819e-09
1.481532688265588930e-09
1.257063262327898462e-09
1.079261508300850211e-09
8.291839829192043113e-10
5.814267502323174234e-10
4.679700553686571575e-10
3.305743064117201734e-10
2.478398414924989932e-10
1.751456959806909752e-10
1.284317058963454340e-10
9.444294502604467290e-11
7.031024318200799342e-11
5.326288063481755152e-11
4.104472667129377550e-11
3.213391998446789803e-11
2.541020421683574687e-11
2.015385171956348385e-11
1.592025680849011843e-11
1.243887972248924819e-11
9.554436320751653414e-12
7.178358262746615263e-12
5.255799244515802891e-12
3.743002079045422197e-12
2.593681363553830816e-12
