# bin_12_2
6.231686942981903341e-43
6.810265355385160312e-43
7.263211672516028731e-43
7.509135031954354955e-43
7.484391584199192487e-43
7.085200818397709008e-43
6.334944002629219616e-43
5.352254169089441446e-43
4.379991347373137899e-43
3.654655333083064183e-43
3.164018864042528103e-43
2.571634574702096712e-43
1.802069727160943378e-43
1.380021750751428937e-43
1.051063949646950208e-43
7.329753900972842869e-44
5.300952225016198896e-44
3.856462678626824811e-44
2.752658735383975112e-44
1.982469716119848627e-44
1.451632074903030555e-44
1.081582009000659379e-44
8.204831590703924118e-45
6.328606414796319603e-45
4.937171800609151248e-45
3.872018558266258115e-45
3.031384788491895845e-45
2.352640391911677222e-45
1.799210877412832526e-45
1.349211556752157569e-45
9.882574395522502070e-46
