# bin_11_8
3.230074702736187123e-12
3.563911523968355506e-12
3.846387670891557478e-12
4.037270497885266829e-12
4.094411015633489708e-12
3.973866620976545417e-12
3.642102429503170636e-12
3.155421417563427697e-12
2.605356054525295771e-12
2.139820551525264078e-12
1.832999574409060355e-12
1.561166077403007397e-12
1.159586918303563139e-12
8.195442347424052951e-13
6.668555883887944866e-13
4.484568046303293825e-13
3.418838951895130561e-13
2.375749464820895570e-13
1.680252139259229649e-13
1.205384491124757168e-13
8.701502596825573601e-14
6.362571103330956815e-14
4.728180018645417834e-14
3.582226568912430108e-14
2.756866057114363934e-14
2.144410694427196919e-14
1.675544060857118816e-14
1.305499467793316106e-14
1.007545963364260931e-14
7.657491026977158695e-15
5.705137527744816179e-15
