# bin_12_13
1.923177149262233447e-08
2.143278068448181244e-08
2.341787867141113359e-08
2.496026527320150547e-08
2.577782220673030262e-08
2.565345883274267614e-08
2.422965314228999876e-08
2.161550591935513244e-08
1.822362650658468523e-08
1.491131042097684373e-08
1.247455179183765330e-08
1.080564398220051081e-08
8.720835243006216440e-09
6.076424152984715465e-09
4.690386788751820379e-09
3.517196139150254710e-09
2.459455386642598842e-09
1.743214023489785607e-09
1.257435259492665244e-09
8.833351792568840014e-10
6.227491349546842734e-10
4.451459347735244055e-10
3.228731416756532374e-10
2.384041933052889016e-10
1.794306691822439021e-10
1.372213522096984511e-10
1.061762359108736805e-10
8.257808024480414496e-11
6.408832533311650654e-11
4.929282474801257165e-11
3.735753797821513352e-11
