# bin_3_17
4.979691630135190556e-07
5.127843520997342922e-07
5.086217113722398225e-07
4.792506354723762794e-07
4.268587329958334534e-07
3.600370749557725624e-07
2.950872567060303135e-07
2.468031631085389595e-07
2.124824151728263854e-07
1.709663463474243887e-07
1.215381596524635307e-07
9.332468173407026878e-08
7.062788877142656758e-08
5.047479057465782946e-08
3.706300808219241939e-08
2.720827672010578784e-08
2.000051709038514189e-08
1.493966046573891629e-08
1.136343672710745064e-08
8.800431766135165889e-09
6.920843985889709394e-09
5.498369381709162392e-09
4.380877599576436721e-09
3.475341371499213800e-09
2.726155199092356782e-09
2.101442639720811558e-09
1.583757076181489797e-09
1.162856569024113072e-09
8.303307579466171253e-10
5.769411654361517550e-10
3.909389773824797012e-10
