# bin_15_9
2.594450955355946243e-18
2.896588391352961141e-18
3.171860858355135899e-18
3.390076571742984766e-18
3.513335502928964295e-18
3.511170520023269632e-18
3.334924604652944938e-18
2.990796226786728831e-18
2.533763334782849075e-18
2.074836929745398984e-18
1.728074547477277731e-18
1.496831185786910824e-18
1.224692065557093548e-18
8.593830453727559588e-19
6.512239101792374754e-19
4.996235261683465430e-19
3.424400701650048240e-19
2.474929934921174550e-19
1.773344974290965051e-19
1.240634201177615344e-19
8.719480851196444051e-20
6.202311592483612702e-20
4.477529408285476937e-20
3.288449505725434097e-20
2.462764513030363194e-20
1.875674725810509833e-20
1.447184978412094262e-20
1.124140772853103402e-20
8.727383938332840949e-21
6.724463299945685404e-21
5.111117382902969056e-21
