# bin_17_4
3.945535294698317415e-52
4.398725440616615034e-52
4.808696178810320604e-52
5.129274403398417789e-52
5.302785583012708022e-52
5.284603747852814266e-52
5.000929490039812808e-52
4.468772410964540765e-52
3.773932422624045675e-52
3.086124759136263569e-52
2.575269422158842505e-52
2.230444844606834706e-52
1.810858355765867238e-52
1.263698820459612138e-52
9.675177958277282344e-53
7.329131023051401840e-53
5.073319731892231720e-53
3.622903583634798685e-53
2.608965608188415429e-53
1.828547470529273691e-53
1.286165923203210893e-53
9.171217664969768425e-54
6.636793722537385065e-54
4.887864592265701220e-54
3.670161022969753111e-54
2.801382815278367257e-54
2.164686926572653400e-54
1.682512615027867101e-54
1.305843594967658544e-54
1.005008082495416589e-54
7.624934862867920677e-55
