# bin_12_12
1.261326253252177335e-10
1.407022507599239877e-10
1.539258307567323688e-10
1.643338714561824384e-10
1.700873658551288499e-10
1.697339145782182369e-10
1.609201109148524232e-10
1.440449204614464247e-10
1.218584036807526307e-10
9.967762467231364513e-11
8.305593961041159694e-11
7.192365354582534185e-11
5.864815365561117762e-11
4.104726977693492541e-11
3.122627989625267114e-11
2.383019267298325833e-11
1.639250127072063099e-11
1.178782304022252876e-11
8.462120966328221001e-12
5.923065819026850983e-12
4.163254324091117257e-12
2.963781977643357074e-12
2.141338309352852093e-12
1.574209248295046447e-12
1.180048151706198497e-12
8.994455588605366040e-13
6.943279240975990083e-13
5.394196694496510598e-13
4.186877779751303987e-13
3.224107861576574075e-13
2.448414807436723080e-13
