# bin_7_7
2.178693004471407546e-10
2.366449596087550896e-10
2.504910419857514000e-10
2.565948636287753573e-10
2.527845436652957029e-10
2.357916047253240115e-10
2.079028056598261139e-10
1.735136044493665043e-10
1.418188371564092058e-10
1.196405511202436022e-10
1.032966733625400987e-10
8.086558022111730283e-11
5.613203898818344568e-11
4.476413017704358799e-11
3.214949623212620230e-11
2.359710712184762859e-11
1.647617860090166421e-11
1.203023351447490798e-11
8.679899333195164505e-12
6.316787558333083716e-12
4.673050012702081044e-12
3.515119903102430162e-12
2.692466421203695062e-12
2.092676229990213187e-12
1.640739285637490696e-12
1.289256271442152168e-12
1.008081358117093719e-12
7.791746449767196080e-13
5.919874344536653792e-13
4.401173823947153271e-13
3.191073585223954791e-13
