# bin_11_3
8.604061071732518219e-31
9.380553975878792474e-31
9.975726825551130109e-31
1.027716908712071747e-30
1.020010292112371239e-30
9.603697182396915082e-31
8.541978843934540152e-31
7.183091305408620494e-31
5.870466168266624811e-31
4.914896562301751445e-31
4.253243743764945638e-31
3.414009257787422686e-31
2.377405863211766339e-31
1.849024071889622426e-31
1.380410314885604715e-31
9.789593454642585363e-32
6.968015075334067982e-32
5.094171259796154894e-32
3.648083212877646759e-32
2.634077385292662321e-32
1.935640450487786984e-32
1.446913374958772586e-32
1.101302474166123700e-32
8.517464199733376173e-33
6.656653591673838064e-33
5.224288786112221505e-33
4.088331381677298262e-33
3.168321567468042561e-33
2.417318377281352162e-33
1.807122383396226008e-33
1.318804618588134502e-33
