# bin_15_2
5.572823038585632291e-59
6.164273427908340337e-59
6.674046777330397744e-59
7.033884935133247724e-59
7.166412017494875903e-59
7.005129762564430324e-59
6.471364720481351597e-59
5.653385046643185607e-59
4.684889324984020625e-59
3.835008100657390735e-59
3.263629783776515769e-59
2.804102724643640304e-59
2.131393573857834717e-59
1.482813734447211167e-59
1.204802934070097306e-59
8.247334114310132790e-60
6.228495958157786306e-60
4.274112595596619075e-60
3.042881514959766273e-60
2.175568437560164231e-60
1.564060186780714139e-60
1.136726487828204936e-60
8.387923712858108786e-61
6.311869228787296588e-61
4.830417692441546079e-61
3.742403766052640924e-61
2.918537965385557504e-61
2.274374444705323088e-61
1.758871322650850780e-61
1.341558043580574051e-61
1.004380437394151131e-61
