# bin_8_1
1.849752447458914218e-29
1.966958342027814695e-29
2.026990085041784549e-29
2.012945864831708116e-29
1.897431757784982498e-29
1.689755049954345224e-29
1.422970383698453931e-29
1.163174369856183842e-29
9.722011479737737024e-30
8.405580523973769630e-30
6.775375724077106134e-30
4.746087208930595236e-30
3.670312667176173304e-30
2.769413258612742844e-30
1.964456937843315646e-30
1.421110324110906409e-30
1.044643755649906785e-30
7.581051204370479370e-31
5.570613176794354616e-31
4.170509596485307395e-31
3.179692939461399897e-31
2.465671560465342514e-31
1.937101031582080462e-31
1.531597353636900707e-31
1.210301306234535819e-31
9.491882324791758847e-32
7.339741927307556192e-32
5.565515007860315960e-32
4.120440460902711823e-32
2.969600872703602730e-32
2.081883568121722091e-32
