# bin_19_13
6.603234300007237040e-17
7.454590102161394266e-17
8.274177408077052693e-17
8.993353568984342312e-17
9.521431641903664379e-17
9.750145736515644630e-17
9.596897920166633786e-17
8.936976723468859017e-17
7.866688092554801662e-17
6.554063302124270081e-17
5.359137587314041117e-17
4.535106979551900553e-17
3.918158094990955388e-17
3.040078516263793563e-17
2.097319468833245436e-17
1.684197179322935857e-17
1.178619456930034440e-17
8.665390263331648261e-18
5.839823851670903994e-18
4.140199645734517986e-18
2.878596953163986992e-18
1.999183909046064255e-18
1.397384416487441174e-18
9.860227755956585133e-19
7.081340541895910496e-19
5.186196590305859738e-19
3.872084400564181838e-19
2.941833463564500550e-19
2.261951106864320979e-19
1.747998129185324029e-19
1.347436571596709628e-19
