# bin_18_14
1.651423496271345909e-13
1.863865181836534424e-13
2.068151581147790568e-13
2.247064913662787616e-13
2.377896645709241578e-13
2.433666311731746677e-13
2.393581560657499593e-13
2.226918882502013565e-13
1.958520983932035222e-13
1.630627496780805675e-13
1.333496284065568715e-13
1.129328740040026090e-13
9.752324178928559091e-14
7.546686702446273611e-14
5.208678856465772463e-14
4.190055224624755594e-14
2.920195663913240361e-14
2.154030801473054515e-14
1.451230441767504504e-14
1.027093518359913261e-14
7.147488954308140487e-15
4.969319392559259791e-15
3.475964090013770195e-15
2.454862280020920789e-15
1.764915612432884397e-15
1.293989367512655957e-15
9.670893567301443512e-16
7.353416292728373221e-16
5.656825812297212284e-16
4.372205124156498539e-16
3.369722485093738767e-16
