# bin_8_5
2.784427479117469958e-13
3.013673399641492193e-13
3.175932231724144687e-13
3.236511352211203301e-13
3.165431481974404451e-13
2.927289478825483989e-13
2.559945924359167955e-13
2.123667824544361044e-13
1.737999580686578302e-13
1.476265114686193764e-13
1.268082042351447311e-13
9.694129856696601528e-14
6.764670816647933136e-14
5.472897320141214243e-14
3.810040134194832567e-14
2.866585969131193722e-14
1.996556810776743240e-14
1.446500215312020301e-14
1.050153657960081792e-14
7.695295221141101008e-15
5.725311662325292589e-15
4.331310157609403313e-15
3.335780412147960040e-15
2.603333988705890757e-15
2.046134069370673233e-15
1.608815741419890423e-15
1.256450344452333190e-15
9.684581348961238842e-16
7.327548471282799060e-16
5.418950965668732823e-16
3.905235626498025982e-16
