# bin_17_12
2.143841270758673084e-15
2.411056640643250187e-15
2.664005973590895639e-15
2.879418826765041932e-15
3.027334814187252534e-15
3.075311334483885019e-15
2.992243098297119607e-15
2.749132740349282823e-15
2.388572948790170119e-15
1.972803238139082881e-15
1.617937280976287467e-15
1.383750629054977509e-15
1.182842192421113621e-15
8.833133025778184135e-16
6.182989019713881622e-16
5.040317256671343554e-16
3.361975095622598756e-16
2.552135008091147320e-16
1.740319924121386702e-16
1.207476460884007042e-16
8.474705273750504940e-17
5.948384413339033720e-17
4.201604094216927465e-17
3.004328319652340920e-17
2.190987646466102588e-17
1.629072267054054624e-17
1.232972719540106103e-17
9.464499431687600981e-18
7.320182326939026537e-18
5.663164212004976876e-18
4.350722822521972458e-18
