# bin_20_13
6.891928270616174455e-19
7.790148366188749685e-19
8.659577089143623830e-19
9.429568638843292840e-19
1.000610543613198750e-18
1.027474794159102968e-18
1.015091300343330471e-18
9.496297983435273660e-19
8.394636394819624068e-19
7.018585657947513385e-19
5.736888582134827254e-19
4.836171986148870844e-19
4.185395388622637071e-19
3.290514276062215673e-19
2.268749898305443223e-19
1.802501900870988718e-19
1.288588435576790273e-19
9.300727365056161537e-20
6.306377311227056084e-20
4.501156638817987811e-20
3.116336544132707332e-20
2.152040539709204380e-20
1.498710008984650015e-20
1.053017490576595821e-20
7.521717581704673982e-21
5.478355088981184250e-21
4.068912954227874682e-21
3.078238962088307791e-21
2.360243004386141673e-21
1.821995872524770304e-21
1.405343255408874022e-21
