# bin_4_3
1.688970121020560837e-10
1.757831750842426490e-10
1.766660648628545585e-10
1.693907592229763065e-10
1.533978891496133443e-10
1.313919542852663157e-10
1.078826604854100471e-10
8.905165461156983737e-11
7.658039108846927516e-11
6.401068353611684220e-11
4.648324885176412786e-11
3.400117465185489120e-11
2.712336679200805309e-11
1.865112744166249245e-11
1.413471103793451040e-11
1.020118293544949119e-11
7.428383042678890205e-12
5.508055559048140288e-12
4.148146438863824348e-12
3.181848503570431572e-12
2.481215642605403684e-12
1.960406186743811461e-12
1.558364958008001614e-12
1.237373881014943004e-12
9.745141104607342337e-13
7.562300370247144815e-13
5.750203762986147158e-13
4.265694129635404063e-13
3.078739804223098271e-13
2.161026212565596136e-13
1.477384173368063072e-13
