# bin_20_15
1.000001709638457481e-14
1.132263422859985233e-14
1.261265849266159816e-14
1.376943884024541559e-14
1.465811087394725023e-14
1.511140187128239737e-14
1.500544712552743144e-14
1.412856101646479004e-14
1.256490377261765153e-14
1.056160708004340371e-14
8.633797923356089973e-15
7.239711022407620117e-15
6.272622910097120632e-15
5.021040197216876638e-15
3.473590463411581257e-15
2.707209952860243266e-15
1.994364828359442506e-15
1.400275252934287861e-15
9.673351956948165900e-16
6.917777299124927308e-16
4.765002766041735018e-16
3.268183923977973969e-16
2.263161293005944956e-16
1.580565779639887792e-16
1.120158736185505517e-16
8.091961540572081404e-17
5.962427450117114291e-17
4.480217912057187020e-17
3.418911033232401351e-17
2.633253260830559277e-17
2.031646241200171737e-17
