# bin_13_8
1.317025686030088420e-16
1.461491729066394502e-16
1.588614973657170482e-16
1.682516830030372627e-16
1.724128774808569833e-16
1.699004839074791896e-16
1.584813362425782680e-16
1.397266831820875072e-16
1.165766369557844618e-16
9.528563528291894932e-17
8.045572229123372839e-17
6.952828979325932016e-17
5.431320916479952833e-17
3.754507276600394133e-17
3.001298809282132627e-17
2.134904521316087910e-17
1.564452689531853473e-17
1.073644921945708720e-17
7.749968081652172544e-18
5.496124954764916587e-18
3.914756081496418996e-18
2.825181865768250087e-18
2.068564871573863768e-18
1.543815574764091190e-18
1.173131317220261862e-18
9.040714059936939826e-19
7.029606748580400041e-19
5.475855504867234651e-19
4.242941004270156451e-19
3.249013361393784910e-19
2.445955436685261352e-19
