# bin_11_2
1.490203051867702493e-37
1.620780244580692407e-37
1.718449869712069116e-37
1.763815238332529357e-37
1.742271864979461437e-37
1.630477758928119004e-37
1.442029543577244606e-37
1.206494776931232371e-37
9.858712318141487607e-38
8.294857500473063503e-38
7.170809770702293146e-38
5.664059595764017886e-38
3.930245660615781806e-38
3.111241263621585257e-38
2.264222435504430519e-38
1.643022540249196868e-38
1.151803011848567993e-38
8.429152492796941367e-39
6.065554670819450340e-39
4.401064036220133265e-39
3.248500207111080313e-39
2.438218859327752077e-39
1.863545802173477747e-39
1.445988682795143574e-39
1.132517413025635487e-39
8.895936823041354444e-40
6.958314152141307898e-40
5.383546804417052694e-40
4.096432174359204837e-40
3.051527151435259895e-40
2.217586178940703449e-40
