# bin_15_3
3.167186181811002635e-50
3.507087313814457061e-50
3.802132433954382746e-50
4.013725009250146307e-50
4.097110265447939380e-50
4.015822191107533342e-50
3.721701460707425325e-50
3.261289730719007553e-50
2.708240381615897327e-50
2.215468903514091177e-50
1.880634904246340954e-50
1.619712198794242299e-50
1.242239146956906157e-50
8.614430446997556442e-51
6.971752137061746239e-51
4.826891997589376017e-51
3.616041335167112787e-51
2.475696040243687833e-51
1.770747792528221136e-51
1.263058628198885417e-51
9.057111480698839714e-52
6.567612295621631996e-52
4.833794133274008462e-52
3.627799256466908539e-52
2.770109850363094979e-52
2.142635886105137886e-52
1.669503888550045969e-52
1.300971883653096541e-52
1.006815634124409802e-52
7.689711278710386719e-53
5.767755919720900887e-53
