# bin_16_6
3.178668147704799703e-34
3.542230954235472276e-34
3.870305198918305054e-34
4.125570946599306843e-34
4.261496849547441360e-34
4.242543950554298850e-34
4.009292865079639518e-34
3.578063788723524964e-34
3.017920164595869889e-34
2.467465629658315633e-34
2.061295452103969364e-34
1.785367859849151337e-34
1.444654593288812044e-34
1.006211825970052999e-34
7.740124839122627025e-35
5.830212712613482758e-35
4.055759159928400081e-35
2.881480145260644236e-35
2.079128913073804057e-35
1.458654376497899330e-35
1.026687541898198454e-35
7.329886458682666025e-36
5.310429781655205466e-36
3.916150951319415491e-36
2.944081334069754658e-36
2.249433494842851570e-36
1.739393873542547660e-36
1.352363313937221509e-36
1.049519343332659219e-36
8.073872852373249617e-37
6.121254039674902602e-37
