# bin_8_6
1.237407696633938545e-11
1.344528028927226274e-11
1.423830017159000379e-11
1.459292889001486601e-11
1.438662491303015770e-11
1.343124790587337064e-11
1.185229476376425762e-11
9.898077897433920714e-12
8.089237487940778351e-12
6.819351074083876300e-12
5.890248130028709225e-12
4.622179306685980935e-12
3.207349461165049795e-12
2.553487930203768466e-12
1.840252421754092936e-12
1.346885176090002682e-12
9.408433152985965228e-13
6.876354402850066343e-13
4.957738799518887997e-13
3.605097320944441628e-13
2.665470502660641523e-13
2.003851725974510169e-13
1.534027287639671271e-13
1.191789384615018099e-13
9.341640248234167867e-14
7.339887006105905509e-14
5.739750850212063875e-14
4.437617104961226149e-14
3.372919468604351868e-14
2.508946169379936962e-14
1.820219973997605874e-14
