# bin_19_12
2.378866727915424371e-19
2.682984273780427576e-19
2.974519592032709090e-19
3.228466636549702229e-19
3.412003410174719503e-19
3.486672674901313611e-19
3.421930147867809894e-19
3.175443209235683350e-19
2.785952724723661786e-19
2.315242465535085333e-19
1.894070795828274628e-19
1.607534351674092247e-19
1.386214442806559187e-19
1.064753919332730746e-19
7.359639099429407407e-20
5.947892247345989553e-20
4.098347434434811799e-20
3.050047580590381141e-20
2.054538968555537647e-20
1.446758785148282154e-20
1.009311148849698624e-20
7.038349051778105313e-21
4.933229668892339066e-21
3.492671471524639927e-21
2.518619327838723192e-21
1.852187054275940059e-21
1.388151890667358986e-21
1.057834125511165189e-21
8.148817575167906947e-22
6.300936945494396413e-22
4.853852287936842464e-22
