# bin_13
0.000000000000000000e+00
0.000000000000000000e+00
0.000000000000000000e+00
0.000000000000000000e+00
0.000000000000000000e+00
0.000000000000000000e+00
0.000000000000000000e+00
0.000000000000000000e+00
2.342523140412202922e-278
1.460330145658769099e-238
3.085245743581505337e-204
1.400113949539668030e-174
6.348315413204745987e-149
1.041293548493705862e-126
1.824129051813312685e-107
8.522641228990284660e-91
2.310316513164735165e-76
7.050408253476662379e-64
4.272519369301562927e-53
8.373778493469860248e-44
8.084365338958177362e-36
5.533492852861800840e-29
3.683916896743468140e-23
3.142171896212540792e-18
4.368925076770624685e-14
1.223380242062639587e-10
8.312720652199017487e-08
1.617004709055980377e-05
1.043848462632985521e-03
2.555450562036473694e-02
2.679375387477018200e-01
1.344247730914420069e+00
3.560121988279109306e+00
5.398916530264941116e+00
4.985009850788283181e+00
2.928155977512235886e+00
1.131212932240330371e+00
2.959834950142609666e-01
5.399169368588638274e-02
7.070076061931183063e-03
6.842120642106612168e-04
5.033699891027251235e-05
2.891831482443869885e-06
1.330370702558168321e-07
5.016732266751537538e-09
1.584367791165711576e-10
4.274094243557714680e-12
1.002812623379441776e-13
2.080340453902092693e-15
3.873530116132789624e-17
6.562580160495284381e-19
1.024334164724576881e-20
1.489789714101304179e-22
2.039843279951704106e-24
2.654140847111024807e-26
3.309815995262543380e-28
3.986550781396560902e-30
4.670448501237756849e-32
5.356272715616351019e-34
6.048254258667453589e-36
6.760038031979539977e-38
7.514445410606510112e-40
8.343676305598783938e-42
9.290490912356711370e-44
1.041089041498664377e-45
1.177892474309527312e-47
1.349455309715419395e-49
1.569605459627418296e-51
1.857948693690957191e-53
2.242941094814121773e-55
2.766808038810058537e-57
0.000000000000000000e+00
0.000000000000000000e+00
0.000000000000000000e+00
0.000000000000000000e+00
0.000000000000000000e+00
0.000000000000000000e+00
0.000000000000000000e+00
0.000000000000000000e+00
0.000000000000000000e+00
0.000000000000000000e+00
0.000000000000000000e+00
