# bin_11
0.000000000000000000e+00
0.000000000000000000e+00
0.000000000000000000e+00
0.000000000000000000e+00
0.000000000000000000e+00
0.000000000000000000e+00
0.000000000000000000e+00
0.000000000000000000e+00
5.690654911601634799e-305
4.308698491707487382e-257
3.783956606646748461e-216
4.162390713484746752e-181
4.143835689812338360e-151
1.949139126403222404e-125
1.735747764084044220e-103
9.442359967623983537e-85
8.470746529544694154e-69
2.918923788289117175e-55
7.960157542565711889e-44
3.195038113436738107e-34
3.221550866438305115e-26
1.295789618950829335e-19
3.107164138783508475e-14
6.308117885237933454e-10
1.476031963883764044e-06
5.236872763851858990e-04
3.613664888046444479e-02
6.131360654300488378e-01
3.223746128359925134e+00
6.563330107114563994e+00
6.105551024140513761e+00
2.768308956900339179e+00
6.166212212110999680e-01
6.855929750766948105e-02
3.957949118527325644e-03
1.251177491472923249e-04
2.293660245709114650e-06
2.579953573163200069e-08
1.877959247341145861e-10
9.292057120742027058e-13
3.268979389275222045e-15
8.517776416863443103e-18
1.705761462802704778e-20
2.714612609857198519e-23
3.538372570658525957e-26
3.881795851174241074e-29
3.673352688702983968e-32
3.065579810277854423e-35
2.301737395077976693e-38
1.583110931787587326e-41
1.013743801786462909e-44
6.132815794630855289e-48
3.551667474879537066e-51
1.992526946977875554e-54
1.094516110434139879e-57
5.943872318525563135e-61
3.218921804345821438e-64
1.751983653844197901e-67
9.650946820240667196e-71
5.414526110868956962e-74
3.111357920178879353e-77
1.840479601298097476e-80
1.125807093315181923e-83
7.149878318266359627e-87
4.731441757448099574e-90
3.272904006912254541e-93
2.373257474842576370e-96
1.808471724794860075e-99
1.451399404451000687e-102
1.229150499546151499e-105
1.100253814157030407e-108
0.000000000000000000e+00
0.000000000000000000e+00
0.000000000000000000e+00
0.000000000000000000e+00
0.000000000000000000e+00
0.000000000000000000e+00
0.000000000000000000e+00
0.000000000000000000e+00
0.000000000000000000e+00
0.000000000000000000e+00
0.000000000000000000e+00
