# bin_3
0.000000000000000000e+00
1.656825118278481320e-175
4.240429118681111679e-133
9.471730983003866513e-100
1.669600744978478604e-73
5.826097139872511823e-53
4.882181552054191316e-37
7.066297064969736747e-25
8.575903443669224935e-16
3.140571265680204051e-09
9.955701325292747831e-05
6.668811135839509963e-02
2.128179391332432058e+00
7.729587509731465467e+00
7.602691357903776037e+00
2.304930404603423799e+00
1.650079869158496415e-01
2.802477367667319166e-03
1.318004291905087064e-05
2.057758899371670832e-08
1.265838600437841103e-11
3.573528241718389743e-15
5.287633379757812873e-19
4.599618045044662188e-23
2.596442589669019700e-27
1.035358202354329124e-31
3.136922811206315169e-36
7.687451490064754221e-41
1.607826996705373566e-45
3.005234918472308209e-50
5.222251478902702358e-55
8.727416521872225892e-60
1.443973373196192570e-64
2.424673933240375687e-69
4.220552571008805339e-74
7.754376211957031829e-79
1.527028235550607632e-83
3.265197468547144218e-88
7.664564914119085362e-93
1.993267742875440286e-97
5.787090936820126824e-102
1.887589780871205780e-106
6.952472639475466629e-111
2.903679140629438211e-115
1.379583185975629312e-119
7.475121832187896957e-124
4.627574495155989681e-128
3.277158387093998135e-132
2.656917547935703000e-136
2.466810524694491546e-140
2.622702802110509443e-144
3.191954848721103834e-148
4.444033732285648883e-152
7.071740754860230519e-156
1.284786459561937154e-159
2.661603932498138259e-163
6.278450666460895279e-167
1.683811421542438038e-170
5.125746746263809184e-174
1.768062718227878873e-177
6.898254754654259490e-181
3.038660266295309519e-184
1.508370703555430304e-187
8.421407256936345987e-191
5.278001094431650660e-194
3.706069586866683551e-197
2.909809496297089313e-200
2.549583571596924347e-203
2.488146766469007344e-206
2.699209876128738427e-209
3.248690731175759217e-212
0.000000000000000000e+00
0.000000000000000000e+00
0.000000000000000000e+00
0.000000000000000000e+00
0.000000000000000000e+00
0.000000000000000000e+00
0.000000000000000000e+00
0.000000000000000000e+00
0.000000000000000000e+00
0.000000000000000000e+00
0.000000000000000000e+00
