# bin_4_2
1.902767489810499604e-08
1.611765583946347538e-08
1.334735342465139557e-08
1.085885371133290661e-08
8.715823676770632762e-09
6.905145780235054230e-09
5.377005122032509738e-09
4.104738532344676430e-09
3.098561173761175915e-09
2.346929576356860082e-09
1.784162531115334841e-09
1.359407996875637441e-09
1.047351102440997007e-09
8.143720063954249378e-10
6.391056155378908265e-10
5.045897749364363837e-10
3.992190639835655964e-10
3.150558533240472804e-10
2.468743587087429714e-10
1.912777317733804233e-10
1.460134327200082091e-10
1.095021934077826220e-10
8.051043650879753595e-11
5.796003447511302074e-11
4.083850782516363170e-11
2.817508583095326660e-11
1.905632505882032362e-11
1.265842745924842366e-11
8.276347828765426644e-12
5.338546256533558328e-12
3.404973021309002886e-12
