# bin_14_8
5.137307074954921111e-08
4.697797361586627413e-08
4.180914519472714777e-08
3.619792831872329231e-08
3.053257125560539867e-08
2.518848611538470051e-08
2.043108483849772356e-08
1.635816897953800762e-08
1.291632854684699529e-08
9.999997706881591270e-09
7.575203305523740364e-09
5.679923439536192372e-09
4.276231014643338228e-09
3.216162475788325199e-09
2.420670070016894107e-09
1.840737056424406469e-09
1.409578073405289677e-09
1.088876879038387055e-09
8.464009676498005597e-10
6.598474948952086851e-10
5.138674770617358133e-10
3.980931557205786005e-10
3.055800403280600540e-10
2.315987327227867989e-10
1.728134789066635964e-10
1.266775881798999435e-10
9.108693028088484566e-11
6.419732041018361395e-11
4.434660057049147187e-11
3.004498659416925884e-11
1.998965716504927598e-11
