# bin_9_4
3.224232080833409099e-08
2.833111888554636931e-08
2.422940372195099391e-08
2.021870387946712777e-08
1.654195211995583132e-08
1.333764453009637686e-08
1.062233329885259904e-08
8.326533889045606815e-09
6.388761271166932479e-09
4.817667329006284633e-09
3.629935195711873473e-09
2.748681570457840983e-09
2.077629605759664258e-09
1.584621222094849697e-09
1.219475429558891589e-09
9.474968835279344567e-10
7.416684354060228874e-10
5.831122675014165309e-10
4.585207636557983972e-10
3.589789242836779818e-10
2.786190295842174960e-10
2.135482655156446986e-10
1.611099068751930549e-10
1.193456741158049277e-10
8.665431978074837791e-11
6.161119375914779067e-11
4.289053036079255908e-11
2.925426063908279733e-11
1.957726603879246726e-11
1.287950294481875459e-11
8.348491893908413353e-12
