# bin_12_12
5.843180014149092377e-08
5.410367506706747806e-08
4.879506293868646604e-08
4.282231143914733619e-08
3.658704432948112190e-08
3.051238068239000249e-08
2.495252411103529810e-08
2.010328162255865313e-08
1.598427965615598734e-08
1.250100368147645329e-08
9.571658043780383283e-09
7.200943999168095137e-09
5.398328861666546628e-09
4.058176264645449244e-09
3.042579974226260678e-09
2.293996995640321021e-09
1.743368326305872755e-09
1.335396697727303010e-09
1.030212929723505084e-09
7.986442376122319184e-10
6.199401914885378271e-10
4.799537418802526648e-10
3.691399005653107385e-10
2.810113159915849409e-10
2.110702684100862665e-10
1.560336424161149119e-10
1.133171972822512344e-10
8.075216179666326300e-11
5.643891360380770051e-11
3.869401386540594773e-11
2.604272321543499288e-11
