# bin_14_7
4.799892028177650100e-08
4.361120420961688266e-08
3.855277184856648484e-08
3.315726852725282014e-08
2.780050894809765671e-08
2.282609443021308855e-08
1.845140406294984155e-08
1.473018458391101068e-08
1.158423936452465866e-08
8.918931101494227197e-09
6.728230593975138836e-09
5.049027977652148317e-09
3.808147083279408975e-09
2.863253015455561763e-09
2.164128378697072116e-09
1.650746163524342553e-09
1.269785519241007313e-09
9.845163440914605712e-10
7.676362343926089561e-10
5.996498973063690135e-10
4.673331798087389665e-10
3.618419169196615332e-10
2.772477749661363766e-10
2.095078290425686168e-10
1.557200416693537220e-10
1.136126165233807421e-10
8.126213975040209538e-11
5.695036804009580977e-11
3.911431152332485711e-11
2.635136029873780789e-11
1.744042714481451400e-11
