# bin_19_19
7.889244635912065404e-08
7.498583579095827188e-08
6.953867455855670649e-08
6.280264226352707239e-08
5.518306817103847159e-08
4.719774466038681663e-08
3.939513060833344927e-08
3.223727423337266548e-08
2.598291530183197635e-08
2.066218688510544014e-08
1.615569318000350494e-08
1.235847099310584347e-08
9.277606134930097475e-09
6.929838421325245209e-09
5.183724756147228527e-09
3.860847003661245978e-09
2.886666395114338786e-09
2.172991595256198651e-09
1.647247329054057314e-09
1.257437090668275304e-09
9.649883293686115902e-10
7.422587340213275955e-10
5.702195032642816212e-10
4.358961576207876630e-10
3.303918671586796153e-10
2.475279017659732996e-10
1.828430106885625947e-10
1.329099573952608151e-10
9.495033450920831832e-11
6.661926666317618584e-11
4.590154861403739074e-11
