# bin_18_18
7.636897478530082751e-08
7.238140015195870323e-08
6.691850826689295523e-08
6.024287348690006296e-08
5.276366549313070782e-08
4.499204085400618205e-08
3.745755139038073278e-08
3.059117446576971460e-08
2.461796818189401788e-08
1.954467716323984905e-08
1.524799184995555410e-08
1.163636944744189126e-08
8.726207686521710536e-09
6.522282388800226260e-09
4.880638385058505610e-09
3.637145124796018186e-09
2.724953557573119831e-09
2.054781146448749607e-09
1.561111623669009216e-09
1.194078762457166204e-09
9.178975212744260234e-10
7.068746858660465669e-10
5.433662961940357250e-10
4.153689990024704588e-10
3.146463170577877234e-10
2.354664091094107696e-10
1.736570561824782966e-10
1.259828272994018203e-10
8.979599839657980825e-11
6.284519239647202147e-11
4.318729340411619592e-11
