# bin_8_6
3.819512969738281597e-08
3.409876040354175200e-08
2.962571013235847702e-08
2.507739999129996109e-08
2.075145547863011274e-08
1.687037282254090123e-08
1.353028921753699389e-08
1.070742413978594061e-08
8.322985417767781450e-09
6.336784135974414652e-09
4.766145723713275899e-09
3.593578523784115903e-09
2.715410282701321494e-09
2.052087571027327533e-09
1.566762401322926513e-09
1.205527008848463248e-09
9.359962303403265386e-10
7.312462300890876524e-10
5.729495247587276746e-10
4.483554223767799906e-10
3.489013033758912277e-10
2.689046353734026057e-10
2.045262395364471231e-10
1.530704126215813556e-10
1.124784372027671630e-10
8.102901296019843010e-11
5.718666425985067119e-11
3.954126070129399551e-11
2.680665420420010961e-11
1.784401742297327650e-11
1.168497558642809876e-11
