# bin_19_5
4.202982104208038407e-08
3.764388912844038075e-08
3.278231808113217482e-08
2.778558983929056266e-08
2.300639650335162004e-08
1.871487069560454682e-08
1.503056237224942737e-08
1.191777563613504841e-08
9.269066955708040037e-09
7.041526383206984390e-09
5.284898907350217612e-09
3.987328596051690013e-09
3.007271182649410265e-09
2.268451202602433797e-09
1.730831845184334674e-09
1.330692146137360753e-09
1.032944130897843494e-09
8.074104178174915183e-10
6.333011264062419088e-10
4.963387235032422945e-10
3.869570452615128349e-10
2.988377101236727639e-10
2.277528759451100989e-10
1.707751481023622254e-10
1.256911956863772366e-10
9.066003196609711656e-11
6.403537793292650925e-11
4.429254648301921908e-11
3.002646703858568919e-11
1.998058158559873200e-11
1.307743331318384031e-11
