# bin_7_1
1.676399957450601589e-08
1.403572606079880181e-08
1.151556993356534869e-08
9.307756055725369182e-09
7.432247984106382590e-09
5.844968873303218454e-09
4.501938007427928510e-09
3.407344738510588064e-09
2.575110673199504106e-09
1.957397207240609914e-09
1.488394740207589544e-09
1.141937617157109104e-09
8.855233050041792241e-10
6.935988356918064507e-10
5.476513417859158634e-10
4.342996874920982985e-10
3.443137672602888535e-10
2.715860660451178749e-10
2.121699245362530847e-10
1.635117635856552499e-10
1.239018601562386699e-10
9.208521639313700527e-11
6.701369250764825938e-11
4.771563260314544172e-11
3.324599543962130841e-11
2.268977435698634024e-11
1.519365979696485541e-11
1.000384144909692591e-11
6.491716150058219630e-12
4.161525533588246514e-12
2.641132387717817739e-12
