# bin_7_3
2.625031444617266702e-08
2.270682451394945945e-08
1.914104901071178863e-08
1.578508921940230614e-08
1.280215669407626987e-08
1.025150385405061040e-08
8.098155999019662812e-09
6.276195213786114295e-09
4.765746761520380765e-09
3.589272055875765590e-09
2.718046107892226317e-09
2.059928222874636129e-09
1.566891667349607799e-09
1.205426938859888752e-09
9.354562978510503775e-10
7.324562721863168396e-10
5.767964354863680911e-10
4.549790667142997520e-10
3.578619853428263954e-10
2.794094420270225387e-10
2.156687621388500072e-10
1.639933127615421439e-10
1.225048253962425229e-10
8.972064299178752246e-11
6.434472439236087820e-11
4.517013166391168596e-11
3.105347243960741098e-11
2.093257821088026952e-11
1.386090766542000857e-11
9.036015250394150539e-12
5.812903870350753633e-12
