# bin_13_1
1.828133706037589134e-08
1.534685986367048067e-08
1.261643244988254034e-08
1.021466904612682475e-08
8.171884806508257051e-09
6.440988101472116710e-09
4.969483930648385129e-09
3.761597614168920618e-09
2.840207823902621861e-09
2.157459350339583193e-09
1.638268757569727879e-09
1.254597296485040493e-09
9.712705911326144058e-10
7.596726056663646525e-10
5.992943738204385381e-10
4.751569686379691462e-10
3.768932235320139122e-10
2.976245083135929009e-10
2.329049306955466902e-10
1.798700712143862063e-10
1.366235530106318218e-10
1.017985640758778316e-10
7.427302525606031201e-11
5.301590543173173700e-11
3.702401285504905220e-11
2.532005641330945863e-11
1.698491550158514919e-11
1.119973865963308705e-11
7.276472605595651348e-12
4.669027490292183409e-12
2.965398461881932289e-12
