# bin_14_6
4.420732091579590528e-08
3.985583877006437126e-08
3.495186851255094412e-08
2.982785035238524669e-08
2.484109847601371821e-08
2.029205212025398620e-08
1.634281743193906888e-08
1.300012271600902198e-08
1.016867207384152946e-08
7.776779776667794258e-09
5.846958007717008669e-09
4.398215746782981302e-09
3.320273266856614452e-09
2.498534352129964223e-09
1.898644888078337054e-09
1.453639984604696375e-09
1.123740996817273698e-09
8.750054027772899699e-10
6.843948485305593916e-10
5.355701525915935534e-10
4.174905429704278093e-10
3.228308785833493403e-10
2.466783663606470458e-10
1.856625676468000220e-10
1.372999643554937788e-10
9.958455846384358470e-11
7.076905121455538018e-11
4.926217799694161286e-11
3.360626578534469603e-11
2.249545076658356478e-11
1.480164745781466543e-11
