# bin_17_10
5.989039023818397155e-08
5.551043559697231909e-08
5.010427812868297164e-08
4.399380685697854452e-08
3.759362850854538589e-08
3.134705423827660837e-08
2.562992427210358785e-08
2.065010678639393168e-08
1.642644023772907657e-08
1.285057465923915378e-08
9.831855779646230383e-09
7.385974035751760112e-09
5.536376255914082377e-09
4.163089504219565960e-09
3.117174483511418511e-09
2.351049876458123403e-09
1.785880937890085689e-09
1.368397979722294010e-09
1.055979405446132464e-09
8.189990994342774140e-10
6.361289718484986712e-10
4.928287227600396206e-10
3.793191877116611348e-10
2.889614873339177580e-10
2.171763029784002317e-10
1.606277926104636191e-10
1.166929391400360005e-10
8.316977855523685322e-11
5.812471137892698686e-11
3.983865510830870352e-11
2.680051341323103462e-11
