# bin_16_4
3.599123035177140823e-08
3.181316310040086407e-08
2.734869771659373626e-08
2.291539271116774378e-08
1.880543385904174796e-08
1.520134517900802792e-08
1.214276005897195865e-08
9.553273121720987601e-09
7.351077457343549653e-09
5.544062387654682483e-09
4.171108187298342594e-09
3.156271685517547325e-09
2.380441950661275792e-09
1.810249819967257765e-09
1.389219914544913579e-09
1.076626412649300442e-09
8.411737288441744003e-10
6.607654319543892444e-10
5.196869320613280531e-10
4.073745175584938425e-10
3.168711891561595973e-10
2.435822401839792382e-10
1.844142461827454922e-10
1.371392337975954325e-10
9.997768729622904467e-11
7.137111301287016547e-11
4.987596491579596403e-11
3.413824292852993250e-11
2.291597900185157483e-11
1.511518248949003989e-11
9.818491722865385189e-12
