# bin_20_8
5.530936737410997852e-08
5.082957510562063379e-08
4.545776787572704628e-08
3.953360699048372278e-08
3.347168279872034665e-08
2.769201846775056224e-08
2.251044605948956006e-08
1.806156648716460435e-08
1.430116452422144113e-08
1.110564395347993906e-08
8.425216142104570567e-09
6.312095485088927496e-09
4.748424162969386441e-09
3.568786322122083661e-09
2.679275649484918494e-09
2.032997821338953657e-09
1.552753286450699320e-09
1.196903387663216711e-09
9.288969281919605504e-10
7.235736983086773002e-10
5.635243985242302646e-10
4.369519876695466295e-10
3.359645521017625376e-10
2.552100226252314613e-10
1.909606110320973763e-10
1.404164956181300392e-10
1.012996193734918810e-10
7.163398066175873233e-11
4.964422403096405035e-11
3.373558203980663907e-11
2.250552065642567065e-11
