# bin_10_6
4.081260990595723165e-08
3.660517498268528543e-08
3.194451882834322257e-08
2.714556712273314967e-08
2.253193171048747484e-08
1.836004256425154089e-08
1.475475746864141347e-08
1.170557834215276036e-08
9.126527672812553132e-09
6.963703732831634992e-09
5.236690149436372866e-09
3.943886723396188098e-09
2.978744539376635401e-09
2.246453360037292516e-09
1.711251284456015109e-09
1.313545863331150668e-09
1.017733101879929569e-09
7.938334663052555061e-10
6.214685618168075255e-10
4.863253965971954710e-10
3.787624575506591574e-10
2.923820842611575312e-10
2.228776879343530274e-10
1.672598122853626490e-10
1.232847988800817632e-10
8.910740167785802848e-11
6.309992596526812377e-11
4.377338282463880464e-11
2.976694895035980004e-11
1.986907571202379190e-11
1.304185629082170875e-11
