# bin_19_1
1.897461945351031444e-08
1.594592644078685889e-08
1.311942462279040040e-08
1.062904430692685476e-08
8.509830392366817313e-09
6.713313776686315849e-09
5.183109209106031893e-09
3.923458441505529609e-09
2.961332716243376068e-09
2.248869252289662074e-09
1.706747320073529303e-09
1.306072342295404590e-09
1.010449159570396037e-09
7.898621960525647441e-10
6.228904525573908313e-10
4.938249586721610073e-10
3.917790155088789505e-10
3.095216641446862568e-10
2.423789087139334447e-10
1.873443043296820347e-10
1.424361905594928809e-10
1.062366667101358233e-10
7.758987026568227308e-11
5.543764123030409125e-11
3.875021855727590048e-11
2.652185298467054615e-11
1.780335440371590229e-11
1.174615359592963408e-11
7.635034085485920594e-12
4.900909190150058785e-12
3.113558227740079095e-12
