# bin_19_8
5.480142090923963954e-08
5.033255763725220070e-08
4.498694298045082646e-08
3.910316482928523348e-08
3.309241430825820811e-08
2.736895788500703036e-08
2.224212129722706447e-08
1.784175677983167283e-08
1.412246258702319143e-08
1.096296918432075053e-08
8.315528804745464199e-09
6.230518756621979631e-09
4.687491429460063514e-09
3.523283048081731347e-09
2.645904681278593231e-09
2.008188119980599896e-09
1.534277682212175439e-09
1.182963441318367944e-09
9.182514933411069099e-10
7.153503488326270129e-10
5.571165757184309494e-10
4.319375704531509328e-10
3.320436768410893447e-10
2.521631764420623892e-10
1.886188699296844240e-10
1.386436001080202070e-10
9.998175378441696207e-11
7.067433918554042798e-11
4.896060804120240287e-11
3.325934012387979994e-11
2.218086850115400916e-11
