# bin_18_17
7.501551159851714774e-08
7.098665483330445019e-08
6.551781018395372231e-08
5.887720559072877880e-08
5.147576911781489755e-08
4.382071273005309145e-08
3.643105364137815603e-08
2.972080488233787505e-08
2.389716294559360260e-08
1.895484821729914041e-08
1.476922721246546565e-08
1.125626763826983127e-08
8.436803213192607481e-09
6.308545139295173005e-09
4.721493317238693584e-09
3.519878825464988917e-09
2.640111218608849664e-09
1.992731065260381249e-09
1.515817806530780531e-09
1.160716102127285090e-09
8.930527530341555419e-10
6.881685283982276917e-10
5.291441593660547935e-10
4.044808428891767559e-10
3.062857602763819981e-10
2.290586546222816872e-10
1.687769045777381020e-10
1.223044928791920900e-10
8.706156754989213328e-11
6.084562874558322428e-11
4.175157012085519066e-11
