# bin_19_17
2.059768754536254554e-06
2.334711451628729682e-06
2.603994775803925928e-06
2.847021283610078691e-06
3.036111623872211377e-06
3.136708225455248923e-06
3.122702680291944051e-06
2.949753057577370670e-06
2.631612664815314654e-06
2.218714691445493236e-06
1.815312067775377614e-06
1.519585864601105397e-06
1.317173731186876396e-06
1.062332448858490071e-06
7.375469366671457407e-07
5.698606037529072174e-07
4.250719034204912442e-07
2.953390765658194178e-07
2.061839569352789716e-07
1.472150829551115370e-07
1.012438193422546424e-07
6.932793270106059828e-08
4.790379560873198758e-08
3.338305613429800010e-08
2.358852256833378280e-08
1.698556162282781577e-08
1.247511360030987743e-08
9.347069742027859063e-09
7.117923938144633409e-09
5.476293915814668352e-09
4.225149108632804450e-09
