# bin_19_2
8.943060520101288426e-76
1.001244300745637868e-75
1.100162195486563563e-75
1.180897130231869965e-75
1.230616254858999842e-75
1.237738696823488319e-75
1.186302244996519102e-75
1.073078154010906280e-75
9.176422965220344835e-76
7.529557440564548871e-76
6.230159047992463381e-76
5.382614824891004519e-76
4.487972797302510328e-76
3.209050677229637671e-76
2.356444103350920511e-76
1.866999040391908215e-76
1.249539894760242800e-76
9.310978775891591519e-77
6.550220005320819465e-77
4.556425159889708880e-77
3.199088552389136697e-77
2.259377885765097876e-77
1.618078438947599216e-77
1.177471705745447593e-77
8.740952384726855342e-78
6.606557807262885077e-78
5.068189247455586410e-78
3.924777768702063414e-78
3.046076175382020426e-78
2.352284510647858282e-78
1.795697646931826031e-78
