# bin_12_5
2.057591443803341665e-19
2.263796887734852597e-19
2.434669408396669629e-19
2.544252870390314897e-19
2.567565582068968732e-19
2.473765582956104418e-19
2.249802140016488856e-19
1.934877023564398455e-19
1.590885080916369180e-19
1.311360816491008016e-19
1.128839518834495284e-19
9.507653027998287551e-20
6.914386641114103359e-20
4.987973778805219497e-20
4.020879353634061230e-20
2.694779776920110819e-20
2.046720606326452904e-20
1.441934101931325209e-20
1.018942743457039714e-20
7.316696331954361909e-21
5.296265407202814153e-21
3.894368644939639746e-21
2.912914149590284131e-21
2.220056665610957723e-21
1.716638423214155036e-21
1.339456089326925931e-21
1.047825291689831808e-21
8.158135212732217492e-22
6.280931957593088129e-22
4.755338865170259255e-22
3.525197169149107702e-22
