# bin_8_5
1.560833249732149486e-08
1.690179731640204325e-08
1.782147554713494724e-08
1.817235089059896649e-08
1.778502457499672693e-08
1.645956458836699839e-08
1.440579393581684995e-08
1.196016529766035502e-08
9.793512058388925653e-09
8.320773197933740247e-09
7.150300150250839270e-09
5.471896191272836865e-09
3.820180454221321118e-09
3.090360551186987466e-09
2.153866593133108321e-09
1.620107992879572093e-09
1.128837235428595765e-09
8.181832454740535301e-10
5.940801151687128696e-10
4.353726723401546164e-10
3.239476772060044976e-10
2.450926096436487032e-10
1.887733785142461761e-10
1.473390048634336112e-10
1.158207245051368387e-10
9.108495001742453208e-11
7.115390168429289488e-11
5.486169070738050151e-11
4.152388009005864919e-11
3.071942534409247422e-11
2.214640715635856434e-11
