# bin_19_4
5.754452332140772360e-57
6.449079749636023609e-57
7.095005518418458252e-57
7.627387720931712131e-57
7.964109683127287254e-57
8.028071243304263230e-57
7.719364520618357053e-57
7.005030609256898279e-57
6.010293318652939089e-57
4.937307599625939178e-57
4.076919701269228581e-57
3.516916068264982919e-57
2.950089909363183708e-57
2.126517769155741083e-57
1.544225262639106241e-57
1.235440855051134578e-57
8.221939443124257119e-58
6.178359423714376499e-58
4.318050827522644258e-58
2.998416812654916968e-58
2.105425727554582708e-58
1.484017744980925082e-58
1.059755708396910528e-58
7.685188091886381476e-59
5.685859096091318415e-59
4.284509583464901199e-59
3.279053518739683240e-59
2.535729149815395951e-59
1.967320098946156867e-59
1.520214460229689965e-59
1.162227545100954190e-59
