# bin_4_4
1.890121010762872450e-05
1.985253784543289995e-05
2.016049748649557179e-05
1.962027045046012456e-05
1.805016154035957843e-05
1.570795566581381211e-05
1.299939097329584465e-05
1.066226238138431344e-05
9.089568754738779725e-06
7.761393356029436052e-06
5.860711727941836619e-06
4.140722766530134004e-06
3.350855338296376358e-06
2.327050851497842595e-06
1.765887836728803907e-06
1.250578846112606957e-06
9.133917371672774692e-07
6.740953601627992405e-07
5.038972522085166846e-07
3.831954619990058939e-07
2.963754590948794983e-07
2.327353867628233369e-07
1.843868525494049069e-07
1.463432955402744203e-07
1.155370888050076185e-07
9.011580832320919362e-08
6.902918491722268448e-08
5.167688406995327758e-08
3.767892401240210921e-08
2.671787099022259943e-08
1.843788044828401234e-08
