# bin_13_3
2.087494380642294870e-35
2.296259662365103766e-35
2.469000520615464523e-35
2.579358313066097079e-35
2.602115220378539280e-35
2.505807249834836295e-35
2.277791350219782658e-35
1.957930477879889394e-35
1.609504823817154020e-35
1.327087892904386298e-35
1.142698745521075830e-35
9.616210370952442678e-36
6.984082622762771723e-36
5.046344302439481520e-36
4.063366302354652271e-36
2.724408624774991764e-36
2.067538611288343252e-36
1.457975042526193766e-36
1.030450119945282692e-36
7.399388390916662605e-37
5.357278881206694530e-37
3.940702648173216584e-37
2.948820480949519866e-37
2.248261762812574625e-37
1.738951181998867511e-37
1.357113706437551578e-37
1.061697044326173111e-37
8.265585888841217816e-38
6.362550337005673865e-38
4.815869552458499560e-38
3.568866265176284731e-38
