# bin_8_8
1.135767154821703042e-05
1.243193407869492922e-05
1.328530520047213776e-05
1.377062463739539353e-05
1.376754607552377580e-05
1.308879153746765965e-05
1.174978337819934601e-05
9.970626840213620695e-06
8.164499349049052102e-06
6.790019241096112004e-06
5.874265938871028253e-06
4.820572867988078329e-06
3.402826540648730233e-06
2.567820120000098189e-06
1.987310030321477990e-06
1.367804880012392912e-06
1.003427280032977599e-06
7.248609780737787347e-07
5.158831844497700418e-07
3.710060575589744874e-07
2.707757940494239318e-07
2.011171334072561075e-07
1.520718269659329912e-07
1.169819342212186092e-07
9.108659914803564530e-08
7.136302804182367865e-08
5.586889383286415516e-08
4.339808405965229154e-08
3.324515866183625578e-08
2.498873515918438858e-08
1.835651118410877837e-08
