# bin_3_3
2.322935999895748080e-05
2.393870367318807446e-05
2.377476705869198138e-05
2.242567163170888650e-05
1.999187499401749006e-05
1.686329153610221292e-05
1.380260896399818619e-05
1.153356243548515781e-05
9.955137699509833627e-06
8.036799845635484815e-06
5.676203916312751864e-06
4.369723329525710246e-06
3.316693941343265063e-06
2.361459548713327075e-06
1.730185885031728913e-06
1.275713307179803930e-06
9.367833907593786593e-07
6.988968585597944688e-07
5.313827469811130676e-07
4.114897854586140796e-07
3.236232555852470759e-07
2.571579591657844275e-07
2.049576391681797040e-07
1.626594270960538684e-07
1.276555979488813624e-07
9.845063124624684831e-08
7.422931289800258842e-08
5.451836958391135453e-08
3.893209224998929754e-08
2.704945852782327054e-08
1.832561827308403971e-08
