# bin_18_8
2.372270878055911707e-26
2.661768444771047245e-26
2.932588148260934651e-26
3.158267952400386739e-26
3.305150549463502293e-26
3.340210705865312784e-26
3.223891169244846108e-26
2.936795805737471078e-26
2.529718653376699952e-26
2.081377653731812557e-26
1.714893540540011339e-26
1.476140979727053040e-26
1.246373770446614456e-26
9.077154523446169359e-27
6.508484001112316900e-27
5.256674794337877655e-27
3.484567799935530732e-27
2.637653194704664962e-27
1.829900780662671930e-27
1.268550317523065843e-27
8.909599402326067524e-28
6.269273577525931533e-28
4.462284652783013628e-28
3.222640201171954242e-28
2.374504433996450570e-28
1.782614684421981233e-28
1.360184250785094090e-28
1.049879309171686261e-28
8.140390018394610675e-29
6.294202633541387473e-29
4.819965801622664327e-29
