# bin_10_3
1.018526998199002529e-21
1.105605419591660614e-21
1.169284572985010167e-21
1.196465715004332134e-21
1.176783724539629317e-21
1.095407250040474217e-21
9.640651474196266181e-22
8.034858851353903174e-22
6.572159163930736505e-22
5.558793215409228927e-22
4.796163021702872362e-22
3.728994927268325451e-22
2.590403572860080425e-22
2.079240596352803542e-22
1.477400771214037473e-22
1.095226124668622457e-22
7.623327143987543608e-23
5.557307348316620996e-23
4.019866574161057332e-23
2.933522881846067641e-23
2.174684309353872230e-23
1.639089906341364924e-23
1.257955680580260890e-23
9.792418216917409742e-24
7.685723470265982389e-24
6.042289190917934539e-24
4.724252075653350349e-24
3.649530180415361380e-24
2.770078054001367421e-24
2.056656033275215260e-24
1.488736726761707838e-24
