# bin_19_19
8.605515846574084322e-06
9.770369293079793867e-06
1.092006064018502441e-05
1.196979061360358708e-05
1.280561028488830916e-05
1.328420928061515133e-05
1.328935653778939021e-05
1.263640827260340529e-05
1.134300839243303757e-05
9.621898827273148882e-06
7.879733349151433268e-06
6.561137773241058240e-06
5.685253752242126448e-06
4.658753542107614273e-06
3.267271452858445690e-06
2.467500691642907488e-06
1.891702556795412628e-06
1.284361375644391438e-06
9.209442859041520509e-07
6.506436688057008888e-07
4.455537670736993002e-07
3.043667187779995216e-07
2.090060764317586038e-07
1.447248069430787063e-07
1.014249724842542426e-07
7.238660249327664847e-08
5.268484891854452055e-08
3.914950357728947546e-08
2.962331700825473818e-08
2.270464746112624903e-08
1.750036915205010321e-08
