# bin_7_4
1.050200145838963632e-08
1.126268528363160969e-08
1.173141654729109986e-08
1.179795045637910513e-08
1.131490534500468888e-08
1.024672286815193843e-08
8.775057413224124138e-09
7.205552114171865868e-09
5.953815994436877842e-09
5.129255874005236789e-09
4.285867580256493592e-09
3.097113946259930041e-09
2.268086896707876600e-09
1.808558412343893356e-09
1.232499394441562435e-09
9.312947457757035496e-10
6.678707584611302126e-10
4.801979774296820924e-10
3.511318989203353186e-10
2.602341538074409835e-10
1.963375688462239992e-10
1.507101881696179802e-10
1.175105904252179401e-10
9.250047303201384019e-11
7.301822444076399652e-11
5.740030987436477914e-11
4.462722950257933533e-11
3.411583292408207359e-11
2.551944663287762139e-11
1.860991457287159404e-11
1.320678564687726518e-11
