# bin_10_8
8.672841246927365245e-07
9.552986785014679165e-07
1.028868758348823807e-06
1.077114228576850374e-06
1.089187215154136051e-06
1.052565691743206660e-06
9.602713434780599525e-07
8.285038593743953488e-07
6.821646572788876301e-07
5.613975685713017035e-07
4.823442215570373762e-07
4.082402315019409768e-07
2.994171982546212445e-07
2.140000599642098832e-07
1.734568954656812764e-07
1.161640617752601300e-07
8.852618371360847308e-08
6.201361925673598702e-08
4.379964841343284624e-08
3.144772348423056359e-08
2.273804646057824766e-08
1.668163171855434950e-08
1.244496118479209002e-08
9.462701675898947343e-09
7.303540038370350343e-09
5.692053952570843866e-09
4.450968012168317504e-09
3.466656286131889543e-09
2.671707043003977654e-09
2.025958353738369773e-09
1.504942209924654493e-09
