# bin_16_4
1.780421977935183341e-42
1.980468169635972780e-42
2.158938391064409609e-42
2.294579721040319281e-42
2.361258410769949835e-42
2.339525028750093163e-42
2.196974163663084609e-42
1.949385159651964165e-42
1.635492793106816899e-42
1.337390109079941488e-42
1.124031816506160150e-42
9.733038464723680514e-43
7.738606211173908883e-43
5.359468819944391343e-43
4.215940709277902412e-43
3.083810226949926104e-43
2.205167220844622292e-43
1.532476586185638870e-43
1.111009440153871868e-43
7.838605431028705808e-44
5.548338647392330606e-44
3.985656434221105379e-44
2.904613723548482801e-44
2.156251766052720923e-44
1.630780885938411953e-44
1.252116789982164071e-44
9.714071677097835827e-45
7.562893042781842463e-45
5.866361859798539517e-45
4.503309040887576217e-45
3.402489514387959380e-45
