# bin_4_19
-1.155874009032591404e-64
-1.295031587652212007e-64
-1.424241939788300026e-64
-1.530449272401771453e-64
-1.597134514065238430e-64
-1.608956582545770745e-64
-1.545677449488111704e-64
-1.401363531038163760e-64
-1.201230601200406911e-64
-9.864407187112733372e-65
-8.149977356638923804e-65
-7.033794223564908530e-65
-5.890369378137893391e-65
-4.235946343441282592e-65
-3.085698168952722044e-65
-2.462247210402348905e-65
-1.640920702141534440e-65
-1.230381527011513592e-65
-8.614714556386772137e-66
-5.984759227889734138e-66
-4.202146130962021764e-66
-2.963374712732948002e-66
-2.117841614753673890e-66
-1.537304250274246938e-66
-1.138440876580891339e-66
-8.585842448165597867e-67
-6.575381028148927434e-67
-5.086845678537140405e-67
-3.946996719191756419e-67
-3.049438342688943946e-67
-2.330380267913888842e-67
