# bin_3_17
-3.000694800562063021e-63
-3.342911830414157290e-63
-3.650943843884734408e-63
-3.889333001050413206e-63
-4.013976864855442818e-63
-3.991581146631400795e-63
-3.766040922321136477e-63
-3.356360845431901343e-63
-2.827317773561035463e-63
-2.312618612661743395e-63
-1.936245425988662335e-63
-1.677440426925662003e-63
-1.350502038676216747e-63
-9.389306106704822066e-64
-7.276945817816978340e-64
-5.433637602838088208e-64
-3.812621244402213899e-64
-2.689028555485798185e-64
-1.945422331138423971e-64
-1.367470571184445706e-64
-9.641233954610756520e-65
-6.898075027733701589e-65
-5.007823433570884807e-65
-3.701344834419403422e-65
-2.788293017614542721e-65
-2.134012683096646474e-65
-1.652105427377170970e-65
-1.285236494719882356e-65
-9.974153952837068376e-66
-7.669034951445162076e-66
-5.808945443281661105e-66
