# bin_5_8
-4.870703038917815651e-15
-5.265887304618170569e-15
-5.541305870580722383e-15
-5.637460561557440000e-15
-5.499000796206628498e-15
-5.069866030756680516e-15
-4.420873599825798737e-15
-3.661645288394684535e-15
-3.001162189665673293e-15
-2.557193879109706311e-15
-2.190327350992530118e-15
-1.658720702703846917e-15
-1.163609938822501839e-15
-9.442804300727341135e-16
-6.510339598413766648e-16
-4.933665396917620675e-16
-3.446370411345457253e-16
-2.488823428221671803e-16
-1.811081135608300632e-16
-1.330579426600548115e-16
-9.924273590222019215e-17
-7.527356522161251236e-17
-5.810908163126697901e-17
-4.543018477973919149e-17
-3.574529742437786853e-17
-2.811496051855020619e-17
-2.194871629162452408e-17
-1.690070776934617758e-17
-1.276746576284484976e-17
-9.422770174078995653e-18
-6.774794032550917175e-18
