# bin_18_11
-3.851257220173596692e-10
-4.279938296243055656e-10
-4.660243116068520843e-10
-4.945972744933654075e-10
-5.081116743345804834e-10
-5.022777464066837365e-10
-4.703752848588092334e-10
-4.163033376496059831e-10
-3.485773364087983068e-10
-2.851242968971293752e-10
-2.401706150999316986e-10
-2.077081328065104872e-10
-1.638896408661234110e-10
-1.136261239002957699e-10
-8.988014358986179937e-11
-6.499493083089654294e-11
-4.694141015205049965e-11
-3.255358915127215122e-11
-2.350750487799558586e-11
-1.662570796478236123e-11
-1.180509323913076960e-11
-8.497147761064516014e-12
-6.205788459432409055e-12
-4.617942323380547311e-12
-3.499946173998638959e-12
-2.691654177795537794e-12
-2.090220373288247635e-12
-1.627670279517034636e-12
-1.261913816435924881e-12
-9.676422766901030665e-13
-7.299569217224839215e-13
