# bin_6_15
-5.939680388192402296e-33
-6.603158708887763985e-33
-7.192990551423895830e-33
-7.638017188915091050e-33
-7.851236607607741527e-33
-7.767767242666082044e-33
-7.281209673627331333e-33
-6.449683345822338589e-33
-5.403041213569381650e-33
-4.418148617545067949e-33
-3.718854167934806975e-33
-3.218993533740646536e-33
-2.546567149029616858e-33
-1.762227496159761249e-33
-1.393543969480961473e-33
-1.011064822783723095e-33
-7.284342811333560591e-34
-5.039021019957448559e-34
-3.651652486949778155e-34
-2.580354628862131834e-34
-1.829793487911329351e-34
-1.316401502175755749e-34
-9.607653700018282962e-35
-7.144223453288858888e-35
-5.411284604038550640e-35
-4.159744570129020839e-35
-3.229627158434810231e-35
-2.515057605139240197e-35
-1.950420831919285730e-35
-1.496260588065144136e-35
-1.129385491701981940e-35
