# bin_3_5
-3.164578339037325348e-13
-3.315455314317824626e-13
-3.357213351046780813e-13
-3.253625262413958305e-13
-2.979705114251004374e-13
-2.581404337242655818e-13
-2.131090150498072079e-13
-1.750875885753358666e-13
-1.497101725319715645e-13
-1.271633147355428008e-13
-9.489225884079489771e-14
-6.761150343804704154e-14
-5.466723572990627663e-14
-3.770445637029263307e-14
-2.870926488477898694e-14
-2.042217394703546187e-14
-1.488638102142757805e-14
-1.100667075268597839e-14
-8.247716668978539166e-15
-6.288417319817103608e-15
-4.875795091534372488e-15
-3.836304733027233582e-15
-3.042839621151126765e-15
-2.415736888020925337e-15
-1.906147954273529309e-15
-1.484738876296596385e-15
-1.135009155709626170e-15
-8.475134526396992885e-16
-6.161416087072277601e-16
-4.356122293391088851e-16
-2.997864433635119326e-16
