# bin_8_11
-1.277530749248911744e-14
-1.409493287502054423e-14
-1.521128880571307950e-14
-1.596537409240340534e-14
-1.619066640071761564e-14
-1.571373986397405291e-14
-1.440211047988643791e-14
-1.248406748639246552e-14
-1.030289386866708121e-14
-8.462207963234051513e-15
-7.248411338185316536e-15
-6.172778049351036918e-15
-4.585473691153771460e-15
-3.240878249190627762e-15
-2.636704425665029486e-15
-1.773500235945009889e-15
-1.351877944864675216e-15
-9.394668450421285599e-16
-6.643752440855601580e-16
-4.766848479890304572e-16
-3.441413901868531471e-16
-2.516587841807921116e-16
-1.870303531352515576e-16
-1.417110976819104016e-16
-1.090675870182572325e-16
-8.484146736138743460e-17
-6.629255691301604177e-17
-5.165155634461121495e-17
-3.986203133189282151e-17
-3.029424636179895862e-17
-2.256898157650654979e-17
