# bin_1_7
-4.691974884783637424e-27
-4.943156822119102291e-27
-5.037199596871403226e-27
-4.926918813327747473e-27
-4.557899453660937213e-27
-3.988098352657872053e-27
-3.311000173942000962e-27
-2.710984451217501100e-27
-2.301998611306658555e-27
-1.976683123729701572e-27
-1.514749828508746441e-27
-1.060828747099206049e-27
-8.572241485548562443e-28
-6.021651989080815832e-28
-4.537546473102259640e-28
-3.199283778505665521e-28
-2.344647455819343235e-28
-1.726144664504063390e-28
-1.286443816649749255e-28
-9.752990429297882541e-29
-7.520911997272546482e-29
-5.891887819476990106e-29
-4.661202910267130387e-29
-3.697940417429269049e-29
-2.921272413757381416e-29
-2.282090967704871042e-29
-1.752286048912674051e-29
-1.315819470859614634e-29
-9.627581801863931475e-30
-6.851198327662207103e-30
-4.743774820679656276e-30
