# bin_4_17
-7.162938967472036365e-55
-7.986525466707863590e-55
-8.731403665739875113e-55
-9.313445599516006492e-55
-9.627547686662928461e-55
-9.592827239820106852e-55
-9.074546411464696593e-55
-8.107236426508526812e-55
-6.845405097970742001e-55
-5.600809649313686573e-55
-4.679389193146060943e-55
-4.054068798735123062e-55
-3.285534087421843904e-55
-2.291516980859210377e-55
-1.760428820692820232e-55
-1.329076329758157072e-55
-9.234183463216338398e-56
-6.574381125036996159e-56
-4.742255873504742424e-56
-3.326940603925165969e-56
-2.341861617382970740e-56
-1.671686526907805872e-56
-1.210954203996818495e-56
-8.928111309887588586e-57
-6.710430606040808958e-57
-5.126180865243152219e-57
-3.963496711288497955e-57
-3.081704217961495126e-57
-2.392038412643177012e-57
-1.840775167094601718e-57
-1.396213806065180779e-57
