# bin_9_9
-4.223264751842808393e-11
-4.635788107262205060e-11
-4.971445898946644703e-11
-5.176311980119355897e-11
-5.202128914794676433e-11
-4.982275534105570713e-11
-4.504660201525117998e-11
-3.850788276536790311e-11
-3.159769945283316573e-11
-2.614433845421096482e-11
-2.256414483397099506e-11
-1.879543806576200798e-11
-1.347894853964907420e-11
-9.917631793313796770e-12
-7.861904453327492339e-12
-5.321211777162381707e-12
-3.986355960826820498e-12
-2.839856744209376365e-12
-2.012583648875296072e-12
-1.445772961417442016e-12
-1.050034762451252932e-12
-7.755610955240800733e-13
-5.829604224864119969e-13
-4.461929894584482957e-13
-3.461309563778872088e-13
-2.706042433159387954e-13
-2.117829561414630109e-13
-1.647320294782264920e-13
-1.265495900478903057e-13
-9.550565475869213928e-14
-7.051366477644834033e-14
