# bin_18_20
-7.516947321793631724e-13
-8.528623862258273502e-13
-9.523948048209254251e-13
-1.042841685190023814e-12
-1.114186925718562431e-12
-1.153864272983363693e-12
-1.152009258507986412e-12
-1.092412780219284062e-12
-9.781090776819865526e-13
-8.275696607981321159e-13
-6.774393069752240313e-13
-5.653070033270779700e-13
-4.899551836011682065e-13
-3.989375967655873811e-13
-2.785228461045151223e-13
-2.123420346204286327e-13
-1.610026508791693084e-13
-1.103052710371104136e-13
-7.822332382877194837e-14
-5.553444951532921597e-14
-3.809473850404505834e-14
-2.604161395363651943e-14
-1.792790928944452043e-14
-1.244703611232644105e-14
-8.752831759850323461e-15
-6.270145330495127351e-15
-4.581042887439815296e-15
-3.416137195898682612e-15
-2.592034792839712655e-15
-1.990013629048146927e-15
-1.534634679317374792e-15
