# bin_14_14
-2.240227906858920446e-11
-2.511120273893661344e-11
-2.763264131028608343e-11
-2.971457960150899773e-11
-3.103756049814040182e-11
-3.129956112660097800e-11
-3.011492926823668332e-11
-2.734676085121690605e-11
-2.347992985194312724e-11
-1.929489741756354394e-11
-1.592733793293244304e-11
-1.373281341827491851e-11
-1.153097338232939701e-11
-8.329547564559200291e-12
-6.035505547355606428e-12
-4.834146185859676385e-12
-3.217408349203218655e-12
-2.419104845356861581e-12
-1.688547149314515750e-12
-1.172291252283019663e-12
-8.232161586551405228e-13
-5.801700730591580010e-13
-4.140664630768170622e-13
-3.000448548097587761e-13
-2.218162295985719020e-13
-1.670279242675659593e-13
-1.277553697207420187e-13
-9.875553340829531080e-14
-7.660519084895541653e-14
-5.919828288735316445e-14
-4.526904905514724012e-14
