# bin_14_3
-2.067486198968433698e-09
-2.128650031024567429e-09
-2.110995498889009648e-09
-1.988701298471840035e-09
-1.771124711882277890e-09
-1.493897930796539426e-09
-1.224176574155832354e-09
-1.023964344132373634e-09
-8.814786478124192550e-10
-7.089332431493736638e-10
-5.039433725401958065e-10
-3.871035252360183315e-10
-2.927955497301038290e-10
-2.093307024157123030e-10
-1.536696844283893650e-10
-1.128270751224355886e-10
-8.294676867725778789e-11
-6.196580592087843220e-11
-4.713940132530977350e-11
-3.651215341063661293e-11
-2.871707584511549432e-11
-2.281617569142951479e-11
-1.817927851344000394e-11
-1.442104608112866273e-11
-1.131128206921551490e-11
-8.718091762726728137e-12
-6.569297276048849194e-12
-4.822500703077799412e-12
-3.442781976024364564e-12
-2.391695045103488983e-12
-1.620346438186641112e-12
