# bin_19_7
-9.671214921031218918e-10
-1.050493774636041484e-09
-1.111922462578020070e-09
-1.139045819259818421e-09
-1.121818968703542168e-09
-1.046269814779981796e-09
-9.225049186769051362e-10
-7.703941834908355397e-10
-6.304091574618490010e-10
-5.322651690238409065e-10
-4.589859247389639028e-10
-3.588833634530083723e-10
-2.501852117847546213e-10
-1.990366251207086591e-10
-1.430329761087459277e-10
-1.048806259194001578e-10
-7.367104393205330136e-11
-5.363640912663473099e-11
-3.871298216242557650e-11
-2.819189096373224132e-11
-2.086416705804359743e-11
-1.570318799111813839e-11
-1.203351841169536743e-11
-9.355931542021357696e-12
-7.336884640041648935e-12
-5.765559027519195685e-12
-4.507988533421114262e-12
-3.483963996471654551e-12
-2.646535450031131908e-12
-1.967160837282733368e-12
-1.425995401082826024e-12
