# bin_8_18
-6.485830941091580772e-34
-7.275512743165934683e-34
-8.013322307881669697e-34
-8.626754598193882645e-34
-9.023681239576680368e-34
-9.114531868905773457e-34
-8.790141956669188031e-34
-8.000825614920752193e-34
-6.886045206316920839e-34
-5.663641841954083379e-34
-4.668492816974821735e-34
-4.020479161660079764e-34
-3.390131680256025029e-34
-2.463476528444910273e-34
-1.770983390325961915e-34
-1.427792472634592269e-34
-9.469932439735533312e-35
-7.159011500943872414e-35
-4.974264973488594067e-35
-3.449350093963826279e-35
-2.422486247263119008e-35
-1.705090949235742152e-35
-1.214450474771393217e-35
-8.778265167650877070e-36
-6.473570511225158325e-36
-4.863746374378196262e-36
-3.713555713148398385e-36
-2.867526924834350707e-36
-2.223690045261347283e-36
-1.719164517379287386e-36
-1.316048622076905344e-36
