# bin_20_10
-5.530593653168000573e-10
-6.119504301870905672e-10
-6.627721320102918254e-10
-6.987359761006899164e-10
-7.122049473227860112e-10
-6.964011906448214305e-10
-6.437068287929420532e-10
-5.626657514725771925e-10
-4.667503600444015221e-10
-3.824434503257931372e-10
-3.255163299037696512e-10
-2.794730483871599411e-10
-2.126455839722454221e-10
-1.483808612837084568e-10
-1.201522832157190098e-10
-8.266876171196001364e-11
-6.214007000922782637e-11
-4.280119503833522844e-11
-3.052306560887133173e-11
-2.180566457035291792e-11
-1.566243718206001201e-11
-1.138459744876372356e-11
-8.402630975048521605e-12
-6.323283649681494447e-12
-4.839201541508501393e-12
-3.749141905293834553e-12
-2.923704847306935120e-12
-2.278390171927461897e-12
-1.762049710761427896e-12
-1.344118204620739452e-12
-1.006447177867138061e-12
