# bin_19_10
-5.202312002179832274e-10
-5.756137464696569385e-10
-6.234005354713460656e-10
-6.572053147984000206e-10
-6.698471027785875901e-10
-6.549458166998659479e-10
-6.053480938200155610e-10
-5.291021896825044009e-10
-4.388894038526423373e-10
-3.596202360321987826e-10
-3.061060237192808228e-10
-2.627943254726764510e-10
-1.999177742504458753e-10
-1.395098631394086486e-10
-1.129768647226477496e-10
-7.771530119777089622e-11
-5.842549304477614100e-11
-4.024402230409169426e-11
-2.869733610164586197e-11
-2.050224126600005120e-11
-1.472694997576719543e-11
-1.070512988527368173e-11
-7.901560896059829582e-12
-5.946535882398098084e-12
-4.551087134799891954e-12
-3.526046021182620879e-12
-2.749775635646206991e-12
-2.142851331404622658e-12
-1.657202465547771862e-12
-1.264103554887919156e-12
-9.464970996093427490e-13
