# bin_5_17
-1.825371893531679547e-47
-2.037153695626711974e-47
-2.229706199346248116e-47
-2.381743315861839486e-47
-2.466577194884235682e-47
-2.463050939752916379e-47
-2.336860392524022115e-47
-2.093520092829314417e-47
-1.772507789096245079e-47
-1.450851516082385743e-47
-1.209326874771920125e-47
-1.047543413679595131e-47
-8.549676307664740373e-48
-5.989216266071405081e-48
-4.554830123892093872e-48
-3.479982724069893610e-48
-2.393185588816143478e-48
-1.722697975795154848e-48
-1.236909345276737811e-48
-8.659491513707779421e-49
-6.087716849023498216e-49
-4.334312905398214893e-49
-3.131898590387222792e-49
-2.302553350795001977e-49
-1.726078136219519688e-49
-1.315679230132604136e-49
-1.015700841992708928e-49
-7.891789763644879187e-50
-6.126525761467447068e-50
-4.718867094188169272e-50
-3.584628692086500390e-50
