# bin_8_19
-1.574926341698121502e-37
-1.769940119110273542e-37
-1.953800012549895981e-37
-2.109196272215357421e-37
-2.213951438869423004e-37
-2.244980279979030979e-37
-2.177828819332198441e-37
-1.994483420721798947e-37
-1.727372957033011269e-37
-1.424808856544874699e-37
-1.170893235040664271e-37
-1.004440362408023949e-37
-8.548282667505866203e-38
-6.319275347068451425e-38
-4.462720397909088942e-38
-3.633181618203963267e-38
-2.410728385915761132e-38
-1.832796541107559175e-38
-1.258981188864707962e-38
-8.722113578782315432e-39
-6.127078320678627977e-39
-4.305747476386008427e-39
-3.051401291052422652e-39
-2.191187616368979160e-39
-1.605126531821970144e-39
-1.198497775363271452e-39
-9.103627663860423199e-40
-7.005789982471705601e-40
-5.425363101482011352e-40
-4.197146812917598989e-40
-3.220713333540221238e-40
