# bin_2_17
-1.189970314790047203e-72
-1.324726164088602505e-72
-1.445513461237078148e-72
-1.538201013864290661e-72
-1.585298497526735010e-72
-1.573732693366191046e-72
-1.481485807867634060e-72
-1.317559774902127193e-72
-1.107717033202371539e-72
-9.059114015865328403e-73
-7.598589551541795450e-73
-6.581813023738633824e-73
-5.267970897545053741e-73
-3.654778839179722671e-73
-2.853157972125168886e-73
-2.109836620665453405e-73
-1.493621398510075653e-73
-1.045644248279210709e-73
-7.576224421046227386e-74
-5.334713395459460749e-74
-3.767715375082851276e-74
-2.700939690698580207e-74
-1.964427251311628684e-74
-1.454985511558748627e-74
-1.098158876734157559e-74
-8.417787041590176293e-75
-6.523605553204565843e-75
-5.076998370173099331e-75
-3.939197689044285285e-75
-3.026521304075946636e-75
-2.289725115357368047e-75
