# bin_15_4
-1.652575779326309485e-09
-1.734246340213688995e-09
-1.759564657920526616e-09
-1.710177782477170620e-09
-1.571872170778681380e-09
-1.366617267543018830e-09
-1.131415296639065660e-09
-9.292167827699010833e-10
-7.920113778577680460e-10
-6.738796949172723635e-10
-5.085099672196176650e-10
-3.617096796228698054e-10
-2.901336214056910937e-10
-2.032613993889418145e-10
-1.528705898908949572e-10
-1.089079947572075504e-10
-7.963348146137929639e-11
-5.871902572129830619e-11
-4.388143886217381399e-11
-3.338010525103033717e-11
-2.582643331311979753e-11
-2.028268263747999385e-11
-1.606795079250564880e-11
-1.274959691646786984e-11
-1.006167670858014468e-11
-7.843779328482731221e-12
-6.004797784584541705e-12
-4.492673565210066352e-12
-3.274045298813041342e-12
-2.320778182245642823e-12
-1.601255699484012697e-12
