# bin_8_6
-3.659287599034244969e-10
-3.934362552204299366e-10
-4.111428970561835031e-10
-4.149996375964920166e-10
-4.001865136661326185e-10
-3.644970989269544142e-10
-3.139945665201203952e-10
-2.585303543211440537e-10
-2.130173474320096846e-10
-1.828812852456153642e-10
-1.541174704054212838e-10
-1.131084535372182808e-10
-8.157382989536082208e-11
-6.553269115125283268e-11
-4.473845239962942030e-11
-3.390927567197570995e-11
-2.408869089874622818e-11
-1.733178245577244082e-11
-1.265745929150632859e-11
-9.355106508855103872e-12
-7.031523274095374788e-12
-5.376429343770672818e-12
-4.178695986953243372e-12
-3.282245891769005756e-12
-2.588368931237364690e-12
-2.035201373004423579e-12
-1.584485853706128485e-12
-1.214163680569819897e-12
-9.111689838687959223e-13
-6.670856813607023214e-13
-4.754442337934907798e-13
