# bin_6_4
-5.955500219857053376e-10
-6.238251798160234921e-10
-6.315753014490008743e-10
-6.119708998813540567e-10
-5.605666888760692716e-10
-4.857312373582910553e-10
-4.013391031675734405e-10
-3.299742258796853865e-10
-2.818965800445098072e-10
-2.389987724287921708e-10
-1.787470917943705558e-10
-1.278033483316426163e-10
-1.025892562395893117e-10
-7.141952438017416811e-11
-5.392791131458939252e-11
-3.847469633564187238e-11
-2.810381435471651122e-11
-2.075736158551107534e-11
-1.554377419876908388e-11
-1.184808987940923111e-11
-9.184464295519409284e-12
-7.224017598298851752e-12
-5.728150272093852924e-12
-4.546432399716065628e-12
-3.586617187313859634e-12
-2.793298425117768751e-12
-2.135206217634783814e-12
-1.594453044093835794e-12
-1.159397623978714600e-12
-8.199665425782859526e-13
-5.645358695084418975e-13
