# bin_2_19
-1.828063374057847691e-83
-2.046027078752780607e-83
-2.247316417917942382e-83
-2.411104823662333542e-83
-2.511113182312921358e-83
-2.523921317235050513e-83
-2.416656972571181818e-83
-2.183902912758400156e-83
-1.865696241149238452e-83
-1.530384389349122270e-83
-1.267104652234677211e-83
-1.095171195631811936e-83
-9.114092924647287286e-84
-6.501757933807478766e-84
-4.790588452194176582e-84
-3.783546136765654699e-84
-2.537402085325654651e-84
-1.885322497753116530e-84
-1.329006497942528314e-84
-9.249946380252377360e-85
-6.494333209306997882e-85
-4.589708922993774917e-85
-3.289792136428146304e-85
-2.396404624411130600e-85
-1.780717143202676850e-85
-1.347064289332128928e-85
-1.034085852204085987e-85
-8.010941921672491729e-86
-6.217853185896210097e-86
-4.800583584971123832e-86
-3.663003454471505379e-86
