# bin_18_17
-3.922653571405846778e-11
-4.432910071355324266e-11
-4.926047954563454168e-11
-5.361547086422946385e-11
-5.685620384553970866e-11
-5.833407333228340158e-11
-5.755698068661896235e-11
-5.375837801041828594e-11
-4.745678754152985670e-11
-3.963988507639912170e-11
-3.242822110798345165e-11
-2.739845591170943710e-11
-2.369632186148457644e-11
-1.852427881864172277e-11
-1.278937218525791737e-11
-1.020990533509538293e-11
-7.231714138237043023e-12
-5.264327470724087129e-12
-3.564503725766418923e-12
-2.536099996260656600e-12
-1.759935105777609061e-12
-1.219012973675062619e-12
-8.506900750804305171e-13
-5.991436285925293927e-13
-4.292085264212724444e-13
-3.135207547982255692e-13
-2.334948508166033842e-13
-1.770355907369191929e-13
-1.359404333951041432e-13
-1.050031458496516145e-13
-8.097334232316107178e-14
