# bin_17_7
-8.859914820217905459e-10
-9.623255587085104980e-10
-1.018540090323552387e-09
-1.043313782845144455e-09
-1.027439339129547995e-09
-9.581371681568012678e-10
-8.447062946576979900e-10
-7.053625529670847788e-10
-5.771989160549019440e-10
-4.873830679989106694e-10
-4.202628649027001380e-10
-3.285049142857003087e-10
-2.290096338073441308e-10
-1.822351961652599602e-10
-1.309026264538733677e-10
-9.602029017549190619e-11
-6.743783999458819240e-11
-4.909640941669678170e-11
-3.543915400850959348e-11
-2.581004947776639203e-11
-1.910293698897585668e-11
-1.437872392822181092e-11
-1.101939661182899794e-11
-8.567958414262550298e-12
-6.719203352122002009e-12
-5.280229246829320565e-12
-4.128466284397161466e-12
-3.190544588734031171e-12
-2.423516131653835134e-12
-1.801267597351799329e-12
-1.305634794433643069e-12
