# bin_19_20
-4.063155472744486112e-12
-4.612581128673079722e-12
-5.154553571420224566e-12
-5.648988447512124716e-12
-6.042024926030692239e-12
-6.265962167856951425e-12
-6.266163316622512595e-12
-5.955453202623202438e-12
-5.343543405877348890e-12
-4.530806828704335252e-12
-3.710237917856991039e-12
-3.090557248373097837e-12
-2.677992857868626674e-12
-2.191958385998837794e-12
-1.536245093870806777e-12
-1.162060104517181884e-12
-8.891582666443798733e-13
-6.046992813728579570e-13
-4.327726139957260442e-13
-3.059679074195831119e-13
-2.095873324699037357e-13
-1.432011551703756146e-13
-9.837917806515369067e-14
-6.815251338328810215e-14
-4.778995794586524591e-14
-3.412911303419499739e-14
-2.485617611695140112e-14
-1.848129631965981541e-14
-1.399065735680902344e-14
-1.072593656992474891e-14
-8.267855294072900162e-15
