# bin_4_7
-3.315381578212916041e-15
-3.548924695353111134e-15
-3.687889728159817961e-15
-3.698721486657531664e-15
-3.533550159795599404e-15
-3.187790895300435224e-15
-2.719347930713641321e-15
-2.230207096719875468e-15
-1.847437147493187812e-15
-1.593973426496124325e-15
-1.322070576677169855e-15
-9.471919888342652852e-16
-7.024381505395322152e-16
-5.541477347217333145e-16
-3.800874076293877851e-16
-2.848106713797244433e-16
-2.056048736204087045e-16
-1.480812282759008406e-16
-1.083535807380359622e-16
-8.047234450259603374e-17
-6.086682242529125705e-17
-4.683948548701881118e-17
-3.659221265816533206e-17
-2.883934669669036566e-17
-2.277509737183702155e-17
-1.789691873116629908e-17
-1.389884052914128125e-17
-1.060637862986732791e-17
-7.915593085407816280e-18
-5.756893361925442202e-18
-4.073912870313039956e-18
