# bin_8_10
-4.559126012681576547e-13
-5.014091692970841566e-13
-5.389985524168798776e-13
-5.629166976073324203e-13
-5.676840908691490413e-13
-5.464138504010911066e-13
-4.964835463561192030e-13
-4.265806319467284610e-13
-3.506450265269827123e-13
-2.892205840551400387e-13
-2.490523828553650065e-13
-2.093760935530655620e-13
-1.519593265596854511e-13
-1.099772292419793867e-13
-8.838089151848127396e-14
-5.936061138437989395e-14
-4.496368574933326022e-14
-3.173372551607657096e-14
-2.243817617543090539e-14
-1.611303970696721209e-14
-1.167070453763168659e-14
-8.587722864157260014e-15
-6.428439955396329238e-15
-4.902666995752543521e-15
-3.792854773164140833e-15
-2.960360105006693315e-15
-2.315949356703757932e-15
-1.802841656181970827e-15
-1.387497865374740834e-15
-1.049935411919044861e-15
-7.778229096823287252e-16
