# bin_4_16
-5.036121980717497226e-50
-5.599975433068872074e-50
-6.101943547858302582e-50
-6.481777536672265968e-50
-6.665640198149531678e-50
-6.598540912862896041e-50
-6.189663213031453999e-50
-5.486470652352349981e-50
-4.598837288752938440e-50
-3.760543148271753506e-50
-3.163467498059744226e-50
-2.738685399441632545e-50
-2.170906476317700406e-50
-1.502686330779334714e-50
-1.185879182955808308e-50
-8.631705987591814459e-51
-6.200456778462225601e-51
-4.296650716953760264e-51
-3.114430843111649497e-51
-2.199388530065375910e-51
-1.558488125408536427e-51
-1.120563404394047964e-51
-8.173611282658392689e-52
-6.073888306329883984e-52
-4.597884497257072249e-52
-3.532828559874905016e-52
-2.742082886443232043e-52
-2.135182791388374615e-52
-1.655985624279954280e-52
-1.270715809434803198e-52
-9.595190014662729397e-53
