# bin_16_7
-8.390955604199771733e-10
-9.113613131574995531e-10
-9.645618837906566171e-10
-9.879773897578998371e-10
-9.728846831204057030e-10
-9.071934816864413986e-10
-7.997360266383459182e-10
-6.677720440203080357e-10
-5.464415747662490083e-10
-4.614396771466657910e-10
-3.978796106288433242e-10
-3.109451302803289920e-10
-2.167694245301125720e-10
-1.725233949957602511e-10
-1.238908688309593368e-10
-9.089871273715350310e-11
-6.383483465731868564e-11
-4.647213410042865056e-11
-3.354676922632727107e-11
-2.443326354356105008e-11
-1.808488570942658261e-11
-1.361313835803793792e-11
-1.043319949707681978e-11
-8.112482975155523973e-12
-6.362162426225550281e-12
-4.999692022374031572e-12
-3.909089434494128986e-12
-3.020938127745689908e-12
-2.294603331529185615e-12
-1.705375625571076173e-12
-1.236062243038560422e-12
