# bin_2_14
-3.753285377024712920e-56
-4.136491481393795072e-56
-4.458133352132293245e-56
-4.671257501243244651e-56
-4.728220701387904561e-56
-4.575905077962627779e-56
-4.180983809733974191e-56
-3.612842269322258552e-56
-2.976752286412762360e-56
-2.447935078299449745e-56
-2.101289331631867212e-56
-1.782517024236065675e-56
-1.312670543194859009e-56
-9.342261173405790768e-57
-7.589557171205120009e-57
-5.082924626236786232e-57
-3.878526436468024603e-57
-2.709534945841955712e-57
-1.913440313497107265e-57
-1.373712436878860369e-57
-9.927435970606939814e-58
-7.275159078966552635e-58
-5.420497510108876311e-58
-4.116765436385497792e-58
-3.174494706452658311e-58
-2.472567839344430487e-58
-1.933028476692549803e-58
-1.505781692094938127e-58
-1.161050949557281128e-58
-8.810946825206747316e-59
-6.551505371720104496e-59
