# bin_16_12
-2.225104696626594764e-10
-2.481844642737617903e-10
-2.714535079463276228e-10
-2.897126053435450124e-10
-2.997097120386879416e-10
-2.988803700845887818e-10
-2.830908319623036383e-10
-2.532231759942089638e-10
-2.141023162364655096e-10
-1.752425190299639139e-10
-1.462707166796277495e-10
-1.266653953205318135e-10
-1.029230630815677462e-10
-7.202932881832946542e-11
-5.505622953119614066e-11
-4.176485226652279156e-11
-2.891822611585382019e-11
-2.070469170855391760e-11
-1.487486228190326084e-11
-1.042706285813511032e-11
-7.341263960283002102e-12
-5.234446340539270872e-12
-3.787295890113262956e-12
-2.788618694474057423e-12
-2.093334570124545107e-12
-1.597403771072720730e-12
-1.234089226617871778e-12
-9.591007810388494959e-13
-7.444068069768640917e-13
-5.730152067967388950e-13
-4.348799172863662217e-13
