# bin_17_16
-4.367319914680828772e-11
-4.924394802212571184e-11
-5.457545315010639718e-11
-5.920480611874148789e-11
-6.252643328394975783e-11
-6.384210368995764495e-11
-6.256927403209894189e-11
-5.796785868163199830e-11
-5.078205057718874900e-11
-4.217243354175064316e-11
-3.453853845385479644e-11
-2.937586516827475803e-11
-2.529309881228943473e-11
-1.932004038977116691e-11
-1.339619714942927181e-11
-1.085237943614917441e-11
-7.425559967244235531e-12
-5.554062184235447616e-12
-3.752964459238406595e-12
-2.633750150996202376e-12
-1.840936256144978848e-12
-1.286318296931708969e-12
-9.034359637577474351e-13
-6.412266500366793511e-13
-4.636957774043920164e-13
-3.419334209686102748e-13
-2.568962585166064534e-13
-1.961306175408631326e-13
-1.512513954822852926e-13
-1.169861138015616174e-13
-9.007776900333527605e-14
