# bin_14_1
-3.555892144886323621e-09
-3.431549777387419577e-09
-3.136190848661765248e-09
-2.714081904565093153e-09
-2.248251064253139922e-09
-1.854818726348346810e-09
-1.578562610951379735e-09
-1.324682264180740136e-09
-9.984697893872767783e-10
-7.258859650191130200e-10
-5.692068759686556687e-10
-4.100972683187023607e-10
-3.052325083323717320e-10
-2.232322185567359164e-10
-1.661902325336480257e-10
-1.252597557376027261e-10
-9.612321209270057329e-11
-7.515424708751658392e-11
-5.965979362615595608e-11
-4.783078732591820852e-11
-3.844064477191040933e-11
-3.073556912651757508e-11
-2.427828821126782170e-11
-1.882890994121161995e-11
-1.426596251924863357e-11
-1.052422251124290882e-11
-7.550144582621736870e-12
-5.271043896271290280e-12
-3.589432004605181372e-12
-2.391621821527251537e-12
-1.564434231409850077e-12
