# bin_13_20
-3.291054523416606619e-21
-3.720330751320507917e-21
-4.135761548121640422e-21
-4.503478717302428671e-21
-4.778423865318443929e-21
-4.905927030341117667e-21
-4.845086840846410576e-21
-4.530380889221276241e-21
-4.003464563380410986e-21
-3.346659366530791388e-21
-2.737362799881998790e-21
-2.310657351145046692e-21
-1.999637047973028992e-21
-1.568087985669487874e-21
-1.081930004765991041e-21
-8.620606466938477812e-22
-6.135294617451036773e-22
-4.449406474499670189e-22
-3.012799787781256443e-22
-2.148499210182902627e-22
-1.489355049955103606e-22
-1.030225607660413798e-22
-7.183408592872088847e-23
-5.054055562118831736e-23
-3.615933872259633976e-23
-2.637855306401759847e-23
-1.962145447804822440e-23
-1.486250992613158199e-23
-1.140556661067661088e-23
-8.808246805154546920e-24
-6.793987548486585539e-24
