# bin_6_13
-1.048865659310775909e-25
-1.159505982929987652e-25
-1.254404308477956607e-25
-1.320630164268099871e-25
-1.343865736846302328e-25
-1.310977283367104687e-25
-1.208295429554717943e-25
-1.053254583742839592e-25
-8.718658376272514501e-26
-7.146494286283492864e-26
-6.097513507860788062e-26
-5.226845816309564753e-26
-3.943167848105418808e-26
-2.755721215818546377e-26
-2.244470972098366475e-26
-1.524083666218056698e-26
-1.157540960162239309e-26
-7.974037665239216240e-27
-5.658079070856480368e-27
-4.053459416052913401e-27
-2.920168206381146204e-27
-2.127173153367243486e-27
-1.573694149379239298e-27
-1.187206973286132629e-27
-9.104992015678856533e-28
-7.065288456236374171e-28
-5.514701468859914812e-28
-4.298147616893761857e-28
-3.322284834375250763e-28
-2.531418070530533981e-28
-1.892397940448650377e-28
