# bin_17_15
6.232204773540170219e-11
7.030706389098851562e-11
7.796566566561359027e-11
8.464159120315231313e-11
8.947286921533563548e-11
9.144904438133165396e-11
8.976587696174299550e-11
8.331063035300326481e-11
7.310224745434854178e-11
6.076003806985805363e-11
4.972139090550922539e-11
4.221734643591712932e-11
3.641360567161303295e-11
2.796259883254335379e-11
1.933254408939671855e-11
1.563539291023821815e-11
1.076649259261200726e-11
8.021409790148942641e-12
5.402569777447895561e-12
3.804323060040565696e-12
2.655194843667268497e-12
1.852560637353672132e-12
1.298996715230427215e-12
9.200548884125200615e-13
6.637569828778078037e-13
4.883274500598893531e-13
3.661199626025104047e-13
2.790838709522881772e-13
2.150348097549602123e-13
1.662968867562463419e-13
1.281162602514953747e-13
