# bin_8_17
1.736136743912780463e-07
1.899680712943417425e-07
2.029213870724483380e-07
2.102253128356526477e-07
2.100408439640552680e-07
1.995335856453696709e-07
1.789807787560310048e-07
1.517725652178853577e-07
1.242447023870870319e-07
1.033532719846669101e-07
8.938693232071832818e-08
7.323432315910317438e-08
5.169025930475254295e-08
3.905190803513563639e-08
3.015060861089091217e-08
2.079952877748085120e-08
1.523114840846447322e-08
1.099969731457914302e-08
7.831276039214929920e-09
5.635049326238416853e-09
4.114386449936233062e-09
3.056755965105550537e-09
2.311927311060080044e-09
1.778813072464869401e-09
1.385195258092155596e-09
1.085240094260190109e-09
8.495127853664945656e-10
6.597461549454683830e-10
5.052517481691928031e-10
3.796400489458824996e-10
2.787746440720107022e-10
