# bin_20_18
8.322420215022810351e-11
9.444032433963421251e-11
1.054840918937265401e-10
1.155319271475338483e-10
1.234770723585469806e-10
1.279300459205226565e-10
1.277906677866389231e-10
1.212668489635334796e-10
1.086367377564244450e-10
9.196289077947811408e-11
7.525953599477796754e-11
6.273905728314182961e-11
5.437591836702952417e-11
4.437319938383134255e-11
3.100549557920587069e-11
2.355907537647847950e-11
1.793328433002077445e-11
1.224038324091214410e-11
8.712972939579540805e-12
6.176679311036742031e-12
4.233779777120771972e-12
2.892558165580532173e-12
1.989309118724323300e-12
1.379745818480407846e-12
9.690042308351441133e-13
6.932110130338248358e-13
5.057756311761775574e-13
3.766975634245717965e-13
2.855552829311524048e-13
2.191129065009590691e-13
1.689527622593952846e-13
