# bin_2_5
3.101938910135705595e-07
3.110800592357831146e-07
2.976179654971998869e-07
2.691803292538962809e-07
2.304120805133952037e-07
1.894718430113395250e-07
1.567503342951462396e-07
1.344863705036697418e-07
1.117375874925066869e-07
8.162914018525820312e-08
6.013955262670278730e-08
4.737101567408734426e-08
3.328727642586581300e-08
2.502483466602243071e-08
1.821356628264639188e-08
1.344941552045189370e-08
1.009506288462116784e-08
7.709856641256438560e-09
5.997237672930352692e-09
4.736838303117625766e-09
3.780539366124806215e-09
3.026124544714119526e-09
2.411353371338136561e-09
1.899533124467505912e-09
1.469961195208608547e-09
1.111751683336190895e-09
8.188576377189322449e-10
5.864368752087613925e-10
4.086255172269770988e-10
2.776600967422094191e-10
1.845842297159680169e-10
