# bin_18_7
6.725745295067194456e-50
7.536615251516782692e-50
8.290147426889599800e-50
8.910499332543950014e-50
9.301733319418058625e-50
9.373765360137760198e-50
9.010010610513901498e-50
8.172026009592831680e-50
7.007794438908032729e-50
5.753644111558226186e-50
4.749958838358423729e-50
4.098142023803947992e-50
3.436803493862427937e-50
2.474482915295150246e-50
1.797450613261963884e-50
1.438320014644653561e-50
9.562263972438926432e-51
7.188585161652540186e-51
5.025045540635233786e-51
3.488734819969874301e-51
2.449429698142721271e-51
1.726102174244888699e-51
1.232754167314326986e-51
8.941277400898096065e-52
6.616500478935860342e-52
4.986784466083115038e-52
3.817209269786560160e-52
2.952288232845242591e-52
2.290671255953032919e-52
1.770092091628704990e-52
1.353186843005810988e-52
