# bin_13_11
4.084365862270711278e-11
4.554702004583545980e-11
4.980493196359010957e-11
5.313847466879086176e-11
5.494885513645218532e-11
5.477297260900247691e-11
5.184260459206651385e-11
4.633476060017058490e-11
3.913691274753891459e-11
3.201196215467384640e-11
2.672227911038677427e-11
2.315154994286983581e-11
1.879773712029895223e-11
1.311718075123352509e-11
1.004927240717689225e-11
7.611575193203040571e-12
5.271248237770704926e-12
3.763655261153176925e-12
2.711868926619991245e-12
1.901227216672274346e-12
1.337531709704364836e-12
9.540302436244723779e-13
6.905966872940283035e-13
5.087571593256848299e-13
3.821109495799375685e-13
2.917260401165374658e-13
2.254661600425859249e-13
1.752726664117458172e-13
1.360526740988645133e-13
1.047227523296050859e-13
7.946238354390581424e-14
