# bin_17_7
5.238466343839656931e-44
5.857844917732447394e-44
6.427156534900109788e-44
6.886312937781214367e-44
7.159694275781254953e-44
7.182027016413468175e-44
6.857659034568109707e-44
6.179514589017727316e-44
5.263421286680189315e-44
4.312177047572218707e-44
3.575498779196029655e-44
3.093603937871796297e-44
2.561442222258943652e-44
1.815249887917146812e-44
1.349368987944410727e-44
1.056819172084537885e-44
7.123494943208402926e-45
5.252407558252152825e-45
3.722414193191684696e-45
2.594410456575629447e-45
1.821344167775143901e-45
1.289428319716308617e-45
9.263649773665377725e-46
6.766325316365452414e-46
5.041207659586552479e-46
3.822457806116001912e-46
2.939643127623763114e-46
2.279657520505080917e-46
1.769772900425009963e-46
1.365603972919022766e-46
1.040737360029423967e-46
