# bin_10_11
2.422853811183910004e-08
2.678095689771676103e-08
2.896852028108811719e-08
3.049247285125017632e-08
3.102236100148150435e-08
3.025577064569499169e-08
2.787844099038068838e-08
2.429307854803882320e-08
2.010353352840684245e-08
1.647506569437163784e-08
1.405388153597759036e-08
1.204388592665377621e-08
9.084953598050563653e-09
6.350358880682528596e-09
5.167531944581615479e-09
3.512875588289777171e-09
2.664389162519415666e-09
1.835719862835347192e-09
1.303496769008677369e-09
9.333406220757010515e-10
6.721015920571872600e-10
4.895209893802238070e-10
3.621101202173441571e-10
2.731418727870991054e-10
2.094521592922859725e-10
1.625100932354559128e-10
1.268299166225755168e-10
9.884092365629192323e-11
7.639333019574389453e-11
5.820417969555506977e-11
4.350941564158492736e-11
