# bin_7_10
9.773783629479141957e-08
1.061206930140169519e-07
1.122697541674855781e-07
1.149312199845229769e-07
1.131051840540777052e-07
1.053707670699130932e-07
9.280013607471534773e-08
7.739942280911194323e-08
6.330132671963793156e-08
5.347889205390106464e-08
4.612972048793319052e-08
3.597440317352260823e-08
2.502284030770197680e-08
1.998873641524480952e-08
1.429087507930263937e-08
1.052742271174180694e-08
7.362199625995073003e-09
5.364582212210386469e-09
3.875269236625634900e-09
2.824133209491715170e-09
2.091516602937365073e-09
1.575058201154797884e-09
1.207728913584717082e-09
9.394607444239051925e-10
7.369676268975806122e-10
5.792203856493464488e-10
4.528615344631760560e-10
3.499127365158667035e-10
2.657042994736900484e-10
1.973950355136771649e-10
1.430000901209275347e-10
