# bin_16_5
7.619485503049004068e-56
8.481273770534153601e-56
9.253193437034651252e-56
9.844696827190365957e-56
1.014361913150253610e-55
1.006703852126165945e-55
9.473372697526445302e-56
8.421112427526342398e-56
7.075970417324323386e-56
5.784243151690628370e-56
4.851293069842091945e-56
4.202684048462425039e-56
3.362528159758554843e-56
2.329738545783703226e-56
1.820434023720100023e-56
1.345276460365908775e-56
9.525380653839557766e-57
6.657152613218967732e-57
4.829749132432528387e-57
3.400884987113326306e-57
2.401202178644708862e-57
1.721684969810291062e-57
1.252358087473880869e-57
9.277212791880158135e-58
7.003138189963485982e-58
5.368931883330259084e-58
4.161289545311315313e-58
3.238752215066873654e-58
2.512962334803058468e-58
1.930666131813040646e-58
1.460538015454017584e-58
