# bin_20_14
3.148113848770569319e-19
3.561726990500617579e-19
3.963478449740110607e-19
4.321291158310962581e-19
4.592291567407982086e-19
4.723787468878170592e-19
4.677151126138683952e-19
4.387188119591128659e-19
3.887867346820676740e-19
3.257595598772101326e-19
2.663208601502271321e-19
2.241293155595181206e-19
1.941507341329042946e-19
1.537153108699137296e-19
1.060397569266002102e-19
8.375039322665563555e-20
6.055530339038379731e-20
4.328094458991714781e-20
2.949556640395922879e-20
2.111232805791919135e-20
1.459106685742728434e-20
1.004949077796932134e-20
6.987000351792687394e-21
4.899766414052224779e-21
3.490904046438295187e-21
2.535702474353251850e-21
1.878417017349232603e-21
1.417974743135456884e-21
1.085651250887302145e-21
8.375896735953623556e-22
6.462602361152330625e-22
