# bin_9_5
3.758089501771720985e-17
4.083093198833869168e-17
4.323157508545586151e-17
4.429423110852458533e-17
4.364782264191748386e-17
4.071955709366641144e-17
3.590841354162203727e-17
2.996726610960564423e-17
2.449437902064510992e-17
2.067284855873917936e-17
1.786249104488744435e-17
1.397954257938049396e-17
9.690403083444277272e-18
7.747811743439538183e-18
5.555776684792923512e-18
4.088168617564491817e-18
2.844209552632207407e-18
2.080398429147523414e-18
1.501725462390763547e-18
1.093371500331726163e-18
8.092298660554453048e-19
6.089109891861439251e-19
4.665746326556383105e-19
3.627576651661805713e-19
2.845019597697872500e-19
2.236165163991629403e-19
1.748898266412560706e-19
1.352057896239151400e-19
1.027424949877107643e-19
7.639513795489532073e-20
5.539440484955709977e-20
