# bin_15_18
3.477976776309924112e-08
3.914906038279709313e-08
4.329907633269661556e-08
4.685419469761802894e-08
4.932853781554305402e-08
5.018581862180608430e-08
4.893262815864229560e-08
4.506242182798896188e-08
3.924327082886251835e-08
3.246084295815460194e-08
2.661352210303149864e-08
2.273271851919192403e-08
1.947714896263711281e-08
1.463395795100845348e-08
1.021384963503687237e-08
8.319079682630689948e-09
5.582636332173697118e-09
4.225961088243987635e-09
2.873258516236904433e-09
1.998992222019031558e-09
1.402130154308897799e-09
9.835043120441594741e-10
6.937846267875509344e-10
4.951992954824214204e-10
3.604064584421917400e-10
2.674462354492780016e-10
2.020673842346872911e-10
1.549185902856656809e-10
1.197479061815571938e-10
9.264942389219918748e-11
7.122938761464576701e-11
