# bin_14_4
3.542696944058121154e-52
3.915039404682667997e-52
4.233664211078316437e-52
4.454845176357953032e-52
4.530326088120791185e-52
4.415786215536808609e-52
4.065560806056834354e-52
3.540022307174063809e-52
2.927544904853307336e-52
2.399137964739743984e-52
2.048117569836729380e-52
1.754930579539503568e-52
1.320450422387736269e-52
9.227825968687441031e-53
7.529391758030507419e-53
5.090829412980060310e-53
3.878095796429647271e-53
2.672124167786066851e-53
1.892613685648843194e-53
1.356846189286517273e-53
9.782228111069167464e-54
7.129179433682933688e-54
5.277058685160026960e-54
3.983386799043828355e-54
3.056470814163331881e-54
2.372603415038910742e-54
1.852223533258237356e-54
1.443591232326011804e-54
1.115613916893314067e-54
8.497463420898187140e-55
6.349407119902565984e-55
