# bin_6_15
2.366614751360953842e-07
2.548007642187933721e-07
2.667319663033170373e-07
2.697588173857889892e-07
2.608808196216979870e-07
2.382868263604282411e-07
2.058499743637748878e-07
1.696345387146819465e-07
1.394922095064358704e-07
1.195575261183769493e-07
1.012666114216488003e-07
7.485316631969497887e-08
5.349680495514763336e-08
4.322971183601109763e-08
2.945658694351247227e-08
2.240688859399094078e-08
1.583545639883414096e-08
1.138910745482195569e-08
8.311604869179710322e-09
6.133371029314831952e-09
4.600487673419466491e-09
3.510134358394555900e-09
2.723478335058776058e-09
2.136746321520656407e-09
1.684156284069708013e-09
1.324426780898791782e-09
1.031909887669862130e-09
7.917693006122151182e-10
5.952288944382029786e-10
4.366969230635765486e-10
3.119432886434823541e-10
