# bin_7_5
1.962252902235122979e-11
2.110713017732863990e-11
2.206989034928670614e-11
2.229091663535279198e-11
2.151358668505668288e-11
1.960331897370907432e-11
1.689395582132594892e-11
1.390013160693330529e-11
1.143735063952637187e-11
9.822252978250959330e-12
8.301662298050978002e-12
6.090822980134302986e-12
4.369762026212961120e-12
3.538640698821988942e-12
2.393109678709825381e-12
1.828995060957528644e-12
1.296597734547387543e-12
9.302387400886085749e-13
6.796033910340298982e-13
5.020334979291378202e-13
3.771414635708232517e-13
2.882309298252843452e-13
2.239620094835035747e-13
1.758981155644535098e-13
1.387224643554932368e-13
1.091015298817115561e-13
8.497102148073936037e-14
6.514291091236121407e-14
4.891304323630355353e-14
3.582978296617103647e-14
2.554839371734646234e-14
