# bin_2_11
5.403279323117478666e-07
5.425512164173607294e-07
5.199779458699634376e-07
4.711359407169577090e-07
4.039878316445122663e-07
3.324321032265189753e-07
2.747550807628922941e-07
2.355574189555555534e-07
1.962889027961471585e-07
1.439422391150582552e-07
1.056015358616564042e-07
8.340118740555542806e-08
5.858700019627075598e-08
4.407900247042398810e-08
3.202763645640751448e-08
2.364597944920868562e-08
1.773527957385956016e-08
1.353178480184425466e-08
1.051606927222433738e-08
8.299393708685566996e-09
6.620506865335033703e-09
5.298422358851494625e-09
4.222635547079880009e-09
3.327858029929961621e-09
2.577126630219435562e-09
1.950938769153783053e-09
1.438489575301045282e-09
1.031333925257575155e-09
7.193743725424222229e-10
4.892628593356473534e-10
3.255056331272310815e-10
