# bin_5_10
2.047472587643632825e-07
2.179431692347150125e-07
2.248850303349771996e-07
2.236355773395630205e-07
2.112246961935143080e-07
1.884798041746407052e-07
1.590803917911490300e-07
1.301639695653157911e-07
1.086859424384737513e-07
9.389661602228855399e-08
7.596978025572224515e-08
5.351860930235775644e-08
4.108548009833389560e-08
3.120234910003961949e-08
2.203730505826005638e-08
1.605856077922638861e-08
1.174720287662203068e-08
8.517935899788575934e-09
6.259599691478857734e-09
4.681269662530932422e-09
3.565117073427370927e-09
2.761546316739697795e-09
2.167809923720748804e-09
1.713229386941616586e-09
1.353723474751205606e-09
1.061999923919775357e-09
8.217624002775634566e-10
6.237459540296257533e-10
4.623879116214982062e-10
3.337505615241618831e-10
2.343623097269215279e-10
