# bin_7_20
2.404853383405604302e-07
2.612490153443469647e-07
2.765683907218999003e-07
2.833484323988486334e-07
2.791437309844414656e-07
2.603964029554070544e-07
2.296156621049421686e-07
1.917022854806842425e-07
1.567698242606054791e-07
1.323032879423427082e-07
1.141814392214302011e-07
8.936437573989110368e-08
6.215486004723242135e-08
4.950311073543470073e-08
3.557671235955075805e-08
2.609236420688698330e-08
1.827839455468074294e-08
1.332705337045945264e-08
9.617370946385881789e-09
7.001132720759891864e-09
5.180219648198797277e-09
3.897639173137412538e-09
2.986063414469983545e-09
2.321237575762213632e-09
1.820153928560363589e-09
1.430352616463978053e-09
1.118476654261214118e-09
8.645514473280556865e-10
6.568909696844009958e-10
4.883978751127776328e-10
3.541392586053397187e-10
