# bin_15_3
2.725363041738653109e-71
3.017767104636439210e-71
3.271317813461807479e-71
3.452687027076955191e-71
3.523351638844299973e-71
3.451642800320040721e-71
3.196499123628219047e-71
2.799191604215637477e-71
2.323307711197982180e-71
1.901283291215498936e-71
1.615815989976117647e-71
1.391452022319971891e-71
1.064190610227464826e-71
7.383457371416750566e-72
5.991373823909576063e-72
4.127940717393605825e-72
3.106660933338958946e-72
2.125743481097324682e-72
1.517771061426390035e-72
1.084083179712916518e-72
7.785579815155001405e-73
5.650657063622667288e-73
4.162741919953932570e-73
3.127225486044939103e-73
2.389903228655358212e-73
1.849778835217687838e-73
1.441937081214514254e-73
1.123848501582394907e-73
8.697134106656618052e-74
6.641156226179977121e-74
4.979482405183405175e-74
