# bin_13_12
8.672371602915106075e-10
9.683837467465459077e-10
1.060630341854491527e-09
1.133912393275113030e-09
1.175596745579945458e-09
1.175428056239838959e-09
1.117221111803398055e-09
1.002440020919665392e-09
8.500595104672587646e-10
6.957669307570860934e-10
5.788794110983135933e-10
5.013267990991722696e-10
4.110319610432659558e-10
2.887778179028570761e-10
2.180563920381242689e-10
1.679227968990033467e-10
1.146850272737426012e-10
8.318481609665052793e-11
5.949942241337632870e-11
4.159211417736584496e-11
2.921869278863822048e-11
2.076427644497775961e-11
1.497686305183587547e-11
1.098862227562882305e-11
8.221987452088311493e-12
6.257136784875434976e-12
4.824986457205821128e-12
3.746845283249639091e-12
2.908839405554226614e-12
2.241769822810609579e-12
1.704637978750612933e-12
