# bin_20_9
3.993063619068341849e-45
4.498604900900199284e-45
4.980631289450097760e-45
5.396429516794933279e-45
5.690439570415914235e-45
5.799571530147707033e-45
5.669710466451485745e-45
5.236614651326213003e-45
4.573686140123979644e-45
3.789335933762706313e-45
3.103839267810731982e-45
2.645692049094134514e-45
2.274053931652744943e-45
1.722410199181167378e-45
1.196134918682552479e-45
9.736427895204586280e-46
6.577133364892851879e-46
4.964924167222381675e-46
3.358381367312353042e-46
2.342367991557680097e-46
1.641709385490810954e-46
1.150591911350161205e-46
8.098189629645465978e-47
5.762918520610011626e-47
4.180546902891066424e-47
3.092457640362107074e-47
2.330029576676507996e-47
1.782815887573206134e-47
1.376679133576939431e-47
1.065158503314388726e-47
8.196704940530306199e-48
