# bin_19_6
7.840044886897790539e-66
8.795525706840282467e-66
9.688757375833851225e-66
1.043220010890374495e-65
1.091462560233431570e-65
1.102701187446819192e-65
1.063880021317234397e-65
9.686202698103810559e-66
8.338849430091650538e-66
6.857217519529323742e-66
5.648550697027681448e-66
4.862749037493181088e-66
4.104825819685621853e-66
2.986114852584281264e-66
2.141233770231785781e-66
1.730233172141641213e-66
1.145374575460361877e-66
8.675292006665048011e-67
6.020610634877545048e-67
4.172483319224625591e-67
2.930239623692730388e-67
2.061432746968662934e-67
1.467468478059253972e-67
1.060020460641479035e-67
7.812412724669862750e-68
5.866504591886808557e-68
4.477313359474032807e-68
3.456470905462091084e-68
2.680277275180194063e-68
2.072436526893774561e-68
1.586926757933652081e-68
