# bin_1_14
7.749079592671452478e-07
7.481085734135194253e-07
6.836778300048658416e-07
5.914500071640256979e-07
4.893264743066879945e-07
4.032249754822520952e-07
3.434982306343484372e-07
2.889363776896777094e-07
2.172605376658033300e-07
1.574084141920766276e-07
1.241528669567588165e-07
8.890823499712785347e-08
6.645295952179613457e-08
4.847397438253526549e-08
3.609062835251333720e-08
2.720594182062468006e-08
2.087739078612576355e-08
1.632452132494322129e-08
1.296039189757405043e-08
1.039272334989059823e-08
8.354180965664964963e-09
6.681102235591071156e-09
5.278537196773385348e-09
4.094391318329936043e-09
3.102419497348841852e-09
2.288623105962944918e-09
1.641636228933703276e-09
1.145832260876736485e-09
7.800793186665748531e-10
5.196326958157985085e-10
3.398313491840726319e-10
