# bin_1_12
7.414950941655060096e-07
7.157631703014554356e-07
6.540317813873818258e-07
5.657312055358293907e-07
4.680180448171805712e-07
3.856857203882236748e-07
3.285789272384161837e-07
2.763416494549790867e-07
2.077302779396816164e-07
1.505333336870110120e-07
1.187260143740428392e-07
8.501101860680039276e-08
6.354533038026835791e-08
4.635453021512679046e-08
3.451316389118226497e-08
2.601849562026741486e-08
1.996756058255634188e-08
1.561411100338687352e-08
1.239701787855124561e-08
9.941276680391448665e-09
7.991350013151876556e-09
6.390841550710285833e-09
5.049032225852544630e-09
3.916162442095333651e-09
2.967172033564371249e-09
2.188689292721415280e-09
1.569834765503343099e-09
1.095639172901588472e-09
7.458619344269891218e-10
4.968137942357677429e-10
3.248944399149093064e-10
