# bin_5_20
3.491043262685629581e-07
3.717447466225372172e-07
3.837676943492029917e-07
3.818583067176699484e-07
3.609471699412217011e-07
3.223178599857215753e-07
2.722337144119992302e-07
2.227726094244695347e-07
1.859037417722160177e-07
1.606020566687902316e-07
1.301745677490139805e-07
9.179562975001142551e-08
7.030242703144984721e-08
5.353987320583525722e-08
3.772944075771982248e-08
2.754627010300750202e-08
2.013475191300728606e-08
1.459234879969395765e-08
1.071963889495708354e-08
8.012686842783346079e-09
6.099293596159460642e-09
4.722379899926760965e-09
3.705841188676572461e-09
2.928201480616155523e-09
2.313672233037487592e-09
1.815303922272156385e-09
1.405021972777814628e-09
1.066862744071326706e-09
7.912475332757647735e-10
5.714237182902021688e-10
4.014750855526358185e-10
