# bin_3_3
2.939109097705764692e-08
3.001796015117576534e-08
2.946244794785703219e-08
2.738625125067510449e-08
2.407456591780369397e-08
2.006954491707626287e-08
1.642590304850795875e-08
1.387580231491114599e-08
1.192482186180780426e-08
9.286370666305261251e-09
6.527158494552697581e-09
5.192398716793427391e-09
3.754972314365214550e-09
2.779124846235599580e-09
1.993641651652273693e-09
1.475837522693844833e-09
1.093919074857093380e-09
8.229311968793395855e-10
6.309297476526773517e-10
4.921363905362832824e-10
3.893689092771128260e-10
3.104799776151372859e-10
2.476743156710934654e-10
1.962312397445280036e-10
1.533746896934837673e-10
1.175617541751335973e-10
8.795227656896598619e-11
6.403606986971529142e-11
4.532741803655769549e-11
3.123564453200051249e-11
2.101218909858598709e-11
