# bin_11_14
5.371380672316070975e-08
5.968349512467470152e-08
6.497471171750183173e-08
6.894251102904228183e-08
7.080341052585062063e-08
6.996734437050026878e-08
6.549048046578034085e-08
5.792815348444678294e-08
4.846931133752570072e-08
3.962640919893032148e-08
3.338032000192901949e-08
2.887660447599406959e-08
2.276545055342486148e-08
1.575621490682921268e-08
1.248724913694753538e-08
9.013889667386803022e-09
6.520495089056335627e-09
4.507663227317884482e-09
3.259652378911692388e-09
2.305719212585758501e-09
1.637164807305609374e-09
1.178729720122531832e-09
8.610148479382309227e-10
6.408610130938563398e-10
4.858208675320725540e-10
3.736987885990890848e-10
2.902437994003191238e-10
2.260349958556773869e-10
1.752445105644378188e-10
1.343701619742582688e-10
1.013519104282843379e-10
