# bin_8_20
2.014809153860490949e-07
2.204714708780319976e-07
2.355194461557250579e-07
2.440161850252735198e-07
2.438250219414726455e-07
2.316578310618392463e-07
2.078218068817328736e-07
1.762511674279181909e-07
1.442873472488746266e-07
1.200142310147077173e-07
1.037939187933623224e-07
8.506222925663717356e-08
6.005240157093725036e-08
4.534955961971764754e-08
3.502916983395519511e-08
2.415616002820316248e-08
1.769622541364483802e-08
1.277726284742263370e-08
9.096056217254964983e-09
6.544870548934364860e-09
4.778236529341863965e-09
3.549618801312042063e-09
2.684427607431114824e-09
2.065245540926057298e-09
1.608149353771175012e-09
1.259874720617322667e-09
9.862136589637095944e-10
7.659311939799472447e-10
5.866015924074583747e-10
4.407972173481949661e-10
3.237120603872383347e-10
