# bin_15_16
1.360063533988094825e-08
1.530167083363111023e-08
1.691372346564556920e-08
1.828910292388673334e-08
1.923737771698917650e-08
1.955155596697569356e-08
1.903420655761384258e-08
1.749834522534312961e-08
1.521251413129941019e-08
1.257052778604622463e-08
1.031139447743755576e-08
8.819168295556159239e-09
7.542963224027222748e-09
5.639483535587424565e-09
3.946824981475437592e-09
3.217340363015081530e-09
2.148756484358861704e-09
1.630645491721502771e-09
1.111670215124922237e-09
7.718433755095142385e-10
5.417966716756795140e-10
3.803484210666117917e-10
2.686716628337453289e-10
1.921080166940243746e-10
1.400896913245892529e-10
1.041521187423613105e-10
7.882159807514379836e-11
6.050237623423136348e-11
4.679618468315771145e-11
3.620760741307687766e-11
2.782241038195689289e-11
