# bin_15_1
-3.628793655251149906e-09
-3.500505233785704561e-09
-3.197603855576685621e-09
-2.765642857237879633e-09
-2.289489088147855755e-09
-1.887747752043439612e-09
-1.606083079883660945e-09
-1.347660057729401766e-09
-1.015494064136128953e-09
-7.378030289519315893e-10
-5.785210599806895210e-10
-4.167234230672773409e-10
-3.101122556441019606e-10
-2.267764457508639993e-10
-1.688218561720153397e-10
-1.272373886924330549e-10
-9.763691006840545672e-11
-7.633401777726113682e-11
-6.059175893730416387e-11
-4.857335010845561963e-11
-3.903309682041800742e-11
-3.120542124704171096e-11
-2.464630152985332409e-11
-1.911197541587869039e-11
-1.447878616603256664e-11
-1.068011923559354286e-11
-7.661281992226228688e-12
-5.348193325722175077e-12
-3.641711554029761336e-12
-2.426314514155912358e-12
-1.587057897255995434e-12
