# bin_9_16
-2.133846412217057301e-23
-2.386555298817249408e-23
-2.619085518663341805e-23
-2.807030962256426237e-23
-2.919674625265189724e-23
-2.930203123556631900e-23
-2.800067357171250744e-23
-2.525082407189965547e-23
-2.152442645794817287e-23
-1.763542964627813396e-23
-1.460898949739067190e-23
-1.263145137262670579e-23
-1.047817473031999214e-23
-7.444277992449082901e-24
-5.511116650894568981e-24
-4.330734372718588483e-24
-2.912326804593311566e-24
-2.153736495054639333e-24
-1.522570257469759281e-24
-1.060409136716745304e-24
-7.444069546050383177e-25
-5.265929032868262215e-25
-3.779210337577842250e-25
-2.756978135277167080e-25
-2.051642204831108875e-25
-1.554011015891886575e-25
-1.194105127417750458e-25
-9.255342352905813760e-26
-7.183901305017132178e-26
-5.544044867411351762e-26
-4.226863054887890238e-26
