# bin_15_14
-5.541154206398571368e-11
-6.213947662789558669e-11
-6.841684958122417483e-11
-7.362390565498867233e-11
-7.697410840154372597e-11
-7.770459585483993952e-11
-7.489192948844223672e-11
-6.811875919074313887e-11
-5.858334542077027753e-11
-4.815255394221330208e-11
-3.967683639257020713e-11
-3.415772313867419194e-11
-2.878307376485978777e-11
-2.090673245918218737e-11
-1.503098844923467928e-11
-1.210028273555150112e-11
-8.034836884947856542e-12
-6.063569566019884466e-12
-4.212670000961072459e-12
-2.921773408233056594e-12
-2.051691584931707820e-12
-1.444482598654525511e-12
-1.028901045280475363e-12
-7.437356860779668226e-13
-5.484997380202636729e-13
-4.121183274083952288e-13
-3.146577484153434917e-13
-2.429565597706287030e-13
-1.883827376030740715e-13
-1.456159029757487257e-13
-1.114483160474454724e-13
