# bin_2_12
-2.569141097081141381e-45
-2.806795616551852717e-45
-2.992433066489824754e-45
-3.092569247958052351e-45
-3.081131161052877526e-45
-2.915507110970767464e-45
-2.605250124732952089e-45
-2.200495692033451238e-45
-1.799243702493430654e-45
-1.500422398341293605e-45
-1.298673116011040524e-45
-1.055405988016234534e-45
-7.392353408506908717e-46
-5.656926577933255109e-46
-4.309521839391559331e-46
-3.002649185140483120e-46
-2.171913015095147097e-46
-1.579663588715373719e-46
-1.127177201314042543e-46
-8.116233748420760332e-47
-5.941812848372953009e-47
-4.426431666956328097e-47
-3.357278513284996425e-47
-2.589160110973047234e-47
-2.019599986216174716e-47
-1.583649627402567789e-47
-1.239651263930882766e-47
-9.619480524531326918e-48
-7.355632199552742104e-48
-5.515255303562556267e-48
-4.039352497353501143e-48
