# bin_18_12
-3.032010992786465863e-10
-3.381562865055703477e-10
-3.698283584020491201e-10
-3.946724478467309904e-10
-4.082659466514641360e-10
-4.071159515610602541e-10
-3.856142743378498225e-10
-3.448784569787944335e-10
-2.915430741056445734e-10
-2.384833443254021560e-10
-1.988828168008079873e-10
-1.721897207776768210e-10
-1.400458342998394620e-10
-9.801920582847684442e-11
-7.476324137149025004e-11
-5.682538626024521665e-11
-3.925759338937032410e-11
-2.815545577746096658e-11
-2.020736905695422900e-11
-1.415712731887233442e-11
-9.964204375285618027e-12
-7.100983220742634415e-12
-5.135318734742788562e-12
-3.779156370642608576e-12
-2.835572148382295066e-12
-2.162942090025088438e-12
-1.670497581763324557e-12
-1.298040980474985435e-12
-1.007422731764881687e-12
-7.755212299476017176e-13
-5.886567273264850200e-13
