# bin_17_17
-1.691220552500897189e-11
-1.909889009739243881e-11
-2.120594502670198034e-11
-2.305764385045523135e-11
-2.442161354772989713e-11
-2.501989758619757087e-11
-2.464078054093688077e-11
-2.296186253244570059e-11
-2.022412700403589182e-11
-1.685820504412361511e-11
-1.378410224762784420e-11
-1.165864686190509438e-11
-1.007552428719949990e-11
-7.833746938361255432e-12
-5.404987613781038832e-12
-4.332314649043577671e-12
-3.042723007361850400e-12
-2.229826302946258899e-12
-1.505589658688987326e-12
-1.068512754450360367e-12
-7.425338503342545460e-13
-5.153094716804998189e-13
-3.600865311144041256e-13
-2.540060834460186739e-13
-1.823307255407138715e-13
-1.334667446522532855e-13
-9.959824228465461443e-14
-7.563849215124418685e-14
-5.814217640815311560e-14
-4.492780464993802080e-14
-3.463682007105496995e-14
