# bin_10_17
-9.024016016004278505e-23
-1.012345132834266907e-22
-1.115119001852992464e-22
-1.200660753838373776e-22
-1.256186217974012660e-22
-1.269124906453300900e-22
-1.224594408255499867e-22
-1.115091566260104370e-22
-9.600993684586026501e-23
-7.894478383998272797e-23
-6.500138995103205499e-23
-5.593042494670510310e-23
-4.723077096067459565e-23
-3.439840000944369345e-23
-2.463268196462517461e-23
-1.990319965675299463e-23
-1.318449136234157747e-23
-9.981773950439025793e-24
-6.919950509636057398e-24
-4.795800861317716721e-24
-3.367858127266229426e-24
-2.369397325742093017e-24
-1.686052614070309836e-24
-1.217293810002515849e-24
-8.966936581289708097e-25
-6.730255565635761870e-25
-5.134375678899214400e-25
-3.962488732446478259e-25
-3.072089598103210338e-25
-2.375258184759768934e-25
-1.818917435506941893e-25
