# bin_17_20
-7.634645380526946348e-14
-8.654968309352239618e-14
-9.655141885343492557e-14
-1.055899934095546857e-13
-1.126429787963268935e-13
-1.164329862038184538e-13
-1.159860209189937763e-13
-1.096618635360544447e-13
-9.790147214943065669e-14
-8.259159986961836376e-14
-6.754000781969881641e-14
-5.644577130481825781e-14
-4.891913122062282459e-14
-3.958373322569172630e-14
-2.751516486426211638e-14
-2.114815554876845490e-14
-1.586952413944556016e-14
-1.096141673806348722e-14
-7.695695547161645339e-15
-5.482680524752606992e-15
-3.766019726075562597e-15
-2.576514190799195148e-15
-1.777601797907670699e-15
-1.236933958239873868e-15
-8.723856491637242710e-16
-6.269668142414083693e-16
-4.595890555702963537e-16
-3.437549746499627996e-16
-2.614317806307596361e-16
-2.009831675181998943e-16
-1.550377263438046740e-16
