# bin_10_8
-2.434303641471080069e-10
-2.660119475025108395e-10
-2.836928356019576265e-10
-2.933163959494328354e-10
-2.923573387118057842e-10
-2.768619814752946072e-10
-2.476055159659516512e-10
-2.093592081425044752e-10
-1.712705693491718639e-10
-1.427517630935997916e-10
-1.234559696048812502e-10
-1.004537424835027598e-10
-7.062916924468489565e-11
-5.383141670558026074e-11
-4.111109894198747964e-11
-2.861421154058934549e-11
-2.077750847456936395e-11
-1.505039681022455856e-11
-1.073543228102432139e-11
-7.735158540997411208e-12
-5.659478138901118112e-12
-4.213053021910716122e-12
-3.193013671487386863e-12
-2.460846850277125861e-12
-1.918512834808142739e-12
-1.503855874979330842e-12
-1.177021194162282135e-12
-9.134019357398544038e-13
-6.986113446767629368e-13
-5.240297569484393209e-13
-3.840139814253061205e-13
