# bin_8_4
-9.805927041118191352e-10
-1.027957028093488522e-09
-1.041670834746641278e-09
-1.010788084117511642e-09
-9.273014079727848057e-10
-8.046647562602513082e-10
-6.652069503561333908e-10
-5.462339423737842535e-10
-4.658484877272006989e-10
-3.957749362039273438e-10
-2.975058119016335181e-10
-2.118904515747993160e-10
-1.700123556219766046e-10
-1.187703828361892764e-10
-8.945174544353263324e-11
-6.374540986953778414e-11
-4.658853517566733701e-11
-3.437189585963836728e-11
-2.570479894384975572e-11
-1.956761137136991632e-11
-1.514960781954500848e-11
-1.190370489506142504e-11
-9.432531339619982687e-12
-7.484426410003662814e-12
-5.904902588402480192e-12
-4.600919972633310387e-12
-3.519719402274668256e-12
-2.631106512089538773e-12
-1.915585344164747730e-12
-1.356529810548113025e-12
-9.351095086293235979e-13
