# bin_18_15
-1.198815434114837578e-10
-1.348890530708840034e-10
-1.491188461610904684e-10
-1.612730356663848989e-10
-1.696762469698361748e-10
-1.724987713706182414e-10
-1.680202506141382884e-10
-1.545631399446564056e-10
-1.344539715600358190e-10
-1.111391687000999646e-10
-9.112581687803695743e-11
-7.786220290506996287e-11
-6.662680598633130388e-11
-4.994365034918087122e-11
-3.491920433979657384e-11
-2.841171260252687703e-11
-1.905744730680398039e-11
-1.441510663065598843e-11
-9.815942377845506995e-12
-6.828765867453699766e-12
-4.789188863123042558e-12
-3.359111287780556953e-12
-2.371007652840382186e-12
-1.693729241013984267e-12
-1.233772941719636300e-12
-9.163151259873544549e-13
-6.928081136745453510e-13
-5.314046170808940968e-13
-4.108362094896704138e-13
-3.178296534117478558e-13
-2.442583225337591393e-13
