# bin_10_5
-8.927138808168633209e-10
-9.496996161323521280e-10
-9.793189263284433307e-10
-9.730490700956330995e-10
-9.182198144394690840e-10
-8.186691296114990936e-10
-6.905688082972051764e-10
-5.650296820503769246e-10
-4.719331643287752743e-10
-4.073655684933336566e-10
-3.289416783411968061e-10
-2.320319630094705472e-10
-1.781494602916220323e-10
-1.349729879288672685e-10
-9.553300778050966326e-11
-6.960952306899220922e-11
-5.084587448429422870e-11
-3.688678501816272795e-11
-2.712574787166098811e-11
-2.029389959127758154e-11
-1.545928116862363322e-11
-1.197706415006234736e-11
-9.402760111777258490e-12
-7.430728119341405975e-12
-5.870454105460563582e-12
-4.604080968425923986e-12
-3.561257113866523034e-12
-2.701945619593221685e-12
-2.002058654364871828e-12
-1.444470415563196261e-12
-1.013960033147100840e-12
