# bin_11_2
-2.462753168895827886e-09
-2.470892333553110246e-09
-2.366106491833523674e-09
-2.142575046685823051e-09
-1.836481986503792333e-09
-1.511665851791131334e-09
-1.249942853709924079e-09
-1.070401768791096804e-09
-8.899962602941723243e-10
-6.539051741376806326e-10
-4.804431810603032163e-10
-3.776676075878537073e-10
-2.667083777947036301e-10
-1.998963333812963726e-10
-1.453658934076308694e-10
-1.074210458896242618e-10
-8.056782034545788957e-11
-6.147344912314864887e-11
-4.777347826746158554e-11
-3.770118716633920009e-11
-3.006941897141877721e-11
-2.405888918084843008e-11
-1.916823004282615763e-11
-1.510135025202039249e-11
-1.169066356482422104e-11
-8.847377276334503501e-12
-6.521985698393802358e-12
-4.675415610876257156e-12
-3.261074114827532267e-12
-2.217990247277867013e-12
-1.475702867460561642e-12
