# bin_9_15
-9.614788991691040562e-21
-1.073151262421945560e-20
-1.174768374992466703e-20
-1.255150914453735624e-20
-1.300288592781825998e-20
-1.298952472902222155e-20
-1.233203854076205430e-20
-1.105271046993972476e-20
-9.361895855309622291e-21
-7.659198915159150856e-21
-6.375385004096474145e-21
-5.520806014295770778e-21
-4.516489629833386559e-21
-3.167908000722448090e-21
-2.398720500864066743e-21
-1.840743578781411121e-21
-1.260505355200533968e-21
-9.111787192188247286e-22
-6.526846037671253640e-22
-4.564850459624677794e-22
-3.207665877752787446e-22
-2.281286914698866100e-22
-1.646689654480059186e-22
-1.209218231945970716e-22
-9.055076410793607341e-23
-6.895870698029551831e-23
-5.320031849686798177e-23
-4.132090650277123633e-23
-3.207660684891515353e-23
-2.471242747851566898e-23
-1.878125111699961101e-23
