# bin_13_18
-3.301587159053688292e-17
-3.721409980333147263e-17
-4.122595944228063431e-17
-4.470085062474572059e-17
-4.718100919575453225e-17
-4.813951683147743329e-17
-4.714016698670105358e-17
-4.362648755104747001e-17
-3.817578357085227661e-17
-3.166701523615059633e-17
-2.591925967197379835e-17
-2.204786417426423062e-17
-1.897917528079202530e-17
-1.446740604234326225e-17
-1.002290982207172079e-17
-8.131539363888471279e-18
-5.543768559132476206e-18
-4.157005105994270333e-18
-2.806213395807592237e-18
-1.966125060364583260e-18
-1.375118226340799249e-18
-9.615738952597206671e-19
-6.755785553463430121e-19
-4.796959068810415993e-19
-3.470867777182149033e-19
-2.561030265603629371e-19
-1.925233674370390138e-19
-1.470535547686463184e-19
-1.134380632891510591e-19
-8.774764666642259165e-20
-6.755741022707937503e-20
