# bin_3_10
-6.371531074767510698e-29
-6.909745149613817372e-29
-7.299355713378506489e-29
-7.458942473239030930e-29
-7.323413815698494227e-29
-6.802534918725827484e-29
-5.974153532610904991e-29
-4.969926992191935618e-29
-4.063427210651017546e-29
-3.439986200020771553e-29
-2.965261075486059251e-29
-2.294491632297877669e-29
-1.593824044983434149e-29
-1.283056427269565791e-29
-9.057759748705766347e-30
-6.746862802609849684e-30
-4.690979470211996455e-30
-3.413703108279786631e-30
-2.471968957070332463e-30
-1.806191095078768955e-30
-1.340224772847212864e-30
-1.011087406927970253e-30
-7.766824074060573118e-31
-6.049998830984276901e-31
-4.750102297867710160e-31
-3.734419331131800508e-31
-2.918845401177770654e-31
-2.253429710538181609e-31
-1.708916176735656171e-31
-1.267433886208234817e-31
-9.163458197403602731e-32
