# bin_16_8
-6.645039896830487092e-10
-7.267982672193552976e-10
-7.759741226847674062e-10
-8.034410749955008614e-10
-8.021723615482891663e-10
-7.614320034605756907e-10
-6.824945136786986434e-10
-5.783620238372313658e-10
-4.733660937485604842e-10
-3.938606388487964356e-10
-3.404790325739516824e-10
-2.784852551413501679e-10
-1.965990800579031441e-10
-1.486715174967408849e-10
-1.144946100473881908e-10
-7.917379211988109017e-11
-5.788448900970414498e-11
-4.178140580497502668e-11
-2.975823102974246384e-11
-2.142462663406959581e-11
-1.564960188967650340e-11
-1.162988820522822213e-11
-8.798277829600114464e-12
-6.770689407512330083e-12
-5.272884997533174246e-12
-4.130890803112378569e-12
-3.233078019940698683e-12
-2.510195432418232607e-12
-1.921708300047115898e-12
-1.443358129454803150e-12
-1.059410913563497135e-12
