# bin_14_8
-5.567167332186072525e-10
-6.088442965164546482e-10
-6.499566314193407859e-10
-6.728541712403587486e-10
-6.716627123066134147e-10
-6.373821215493600130e-10
-5.711603994309836393e-10
-4.838928975753007371e-10
-3.960253684188249020e-10
-3.295741548232475621e-10
-2.849194651015079647e-10
-2.329058393873589701e-10
-1.643465134912072513e-10
-1.243911139875110782e-10
-9.570626706814366410e-11
-6.622942997054463562e-11
-4.838385140667558551e-11
-3.493767080605858480e-11
-2.488800666455160177e-11
-1.791985696181750390e-11
-1.309196937802046176e-11
-9.731092836739507099e-12
-7.363293408390469955e-12
-5.667359887147717724e-12
-4.414168905269875728e-12
-3.458377474838497639e-12
-2.706734443270648491e-12
-2.101420298279933571e-12
-1.608595969357717365e-12
-1.208007553427588687e-12
-8.865047334504797736e-13
