# bin_19_2
-2.978088796266213867e-09
-2.989050883164821896e-09
-2.863759489957632684e-09
-2.594583965578478557e-09
-2.225045233870985995e-09
-1.831866803020129905e-09
-1.514285678692223872e-09
-1.296516344532999199e-09
-1.078919554493486514e-09
-7.935519162678140019e-10
-5.823852533971689725e-10
-4.581177966618635632e-10
-3.235157152404369758e-10
-2.425019540060934968e-10
-1.762805003468046116e-10
-1.302575700497874622e-10
-9.767257980836489636e-11
-7.450288161307699909e-11
-5.788322748163581179e-11
-4.566887693924927114e-11
-3.641880683453860150e-11
-2.913758612982976283e-11
-2.321553169039139963e-11
-1.829236221347163055e-11
-1.416396019514262689e-11
-1.072207575057834047e-11
-7.906410897054147454e-12
-5.669697505012154444e-12
-3.955781992234265110e-12
-2.691213723138580614e-12
-1.790958986749824425e-12
