# bin_9_2
-2.227988920640375957e-09
-2.234842085986765870e-09
-2.139397671633618882e-09
-1.936659661569767889e-09
-1.659469659081386559e-09
-1.365796380074795100e-09
-1.129519887838544561e-09
-9.673939120748177008e-10
-8.039311157887795155e-10
-5.902882596977352165e-10
-4.340028560599644888e-10
-3.410180394127768657e-10
-2.408294530921825047e-10
-1.804870863044542674e-10
-1.312825580250299954e-10
-9.701772977152234884e-11
-7.277564415820034613e-11
-5.553781268364938292e-11
-4.316792112866095835e-11
-3.407145810673637475e-11
-2.717691709290342772e-11
-2.174525820068207054e-11
-1.732445740340263248e-11
-1.364766553571877439e-11
-1.056393838972840457e-11
-7.993347096052309209e-12
-5.891302461327714988e-12
-4.222464505761092778e-12
-2.944595757211335705e-12
-2.002410442699765168e-12
-1.332086043561622308e-12
