# bin_8
0.000000000000000000e+00
0.000000000000000000e+00
4.598763031490322833e-320
1.558230667600982477e-264
2.038572010922960598e-218
5.553574364073260199e-180
7.149926011885467137e-148
5.240002008127666228e-121
1.623411470742007908e-98
1.084057079956497669e-79
5.918239307514757211e-64
7.921962252081519418e-51
6.461108848412900820e-40
6.856912424487727720e-31
1.788198138089860508e-23
1.957701792796383868e-17
1.416024146833873139e-12
9.957825486951761379e-09
9.485160546878518932e-06
1.632040474882901849e-03
6.542751042743194523e-02
7.701212572857979444e-01
3.296274880748849334e+00
6.184599986484486500e+00
5.805971285115560931e+00
2.919052292291664852e+00
8.135702943253860786e-01
1.300890112578850510e-01
1.246817821288621377e-02
7.527915123612003920e-04
3.012100889469057874e-05
8.384825144473048533e-07
1.698743508116026993e-08
2.609825939780811077e-10
3.155295374688806263e-12
3.103491469061043792e-14
2.558294942890207188e-16
1.814918410866817486e-18
1.134576920153612899e-20
6.382952118063718541e-23
3.292729636545152061e-25
1.583714305750963925e-27
7.208145721034591313e-30
3.145738910284555374e-32
1.331878268687419092e-34
5.528050243896959025e-37
2.270185573725108267e-39
9.300294431588211792e-42
3.828581500542998298e-44
1.593982556407821684e-46
6.750083330867774953e-49
2.922138518082177542e-51
1.298930004385878741e-53
5.951948112443645014e-56
2.821032842133978831e-58
1.387182082361368313e-60
7.095264157885593156e-63
3.783526874352796790e-65
2.107496956133487904e-67
1.228306722358369068e-69
7.501287621248262033e-72
4.805913246169248455e-74
3.233417355101774542e-76
2.286385822054270971e-78
1.700297899175131333e-80
1.330488125564771134e-82
1.095906890187751899e-84
9.504483175791871944e-87
8.680519665209927660e-89
8.349393575501723502e-91
8.457646241642365209e-93
0.000000000000000000e+00
0.000000000000000000e+00
0.000000000000000000e+00
0.000000000000000000e+00
0.000000000000000000e+00
0.000000000000000000e+00
0.000000000000000000e+00
0.000000000000000000e+00
0.000000000000000000e+00
0.000000000000000000e+00
0.000000000000000000e+00
