# bin_4_4
3.706273490330908743e-10
3.891830987199939401e-10
3.950966509118017348e-10
3.843654646866479565e-10
3.534382084799528573e-10
3.074151207442884658e-10
2.542818703708888456e-10
2.085152090840499136e-10
1.777616130203434821e-10
1.517552398849050490e-10
1.145039094087099083e-10
8.089260501017224320e-11
6.547183577179395642e-11
4.543681518580060176e-11
3.448866578205323164e-11
2.442321154361778679e-11
1.783590632559911906e-11
1.316342988367499337e-11
9.840423500106398317e-12
7.483762331378692768e-12
5.788478319522047114e-12
4.545675637177918144e-12
3.601340418133786108e-12
2.858174724678681155e-12
2.256337939406997933e-12
1.759697801372288200e-12
1.347768392007181647e-12
1.008832328772984014e-12
7.354609213836366473e-13
5.214393582421939037e-13
3.597984367517759563e-13
