# bin_18_9
8.497513650942452717e-27
9.542831939449948803e-27
1.052497481492284780e-26
1.134994515255960374e-26
1.189774715421194240e-26
1.204619067606118677e-26
1.166016084295491339e-26
1.065271129592752441e-26
9.203149946547336703e-27
7.580283302232556644e-27
6.233572907271875550e-27
5.354395197789567337e-27
4.543172917812076753e-27
3.337501293671721031e-27
2.369255373529168748e-27
1.924574662895300802e-27
1.274697807530069599e-27
9.683037132056338220e-28
6.676668182376471514e-28
4.624839401741735159e-28
3.248466241110052731e-28
2.283641533553479640e-28
1.621104436486608006e-28
1.166707571395089663e-28
8.566590568376740834e-29
6.410530395548962867e-29
4.878419694083406661e-29
3.758965527813469074e-29
2.912582922432118746e-29
2.252842205922416853e-29
1.727356251582220380e-29
