# bin_7_5
1.165876541549033969e-11
1.256121318314889202e-11
1.316107780068944842e-11
1.332356189062139563e-11
1.290325834714956060e-11
1.180100366290894508e-11
1.020803832114767654e-11
8.414626676421762885e-12
6.912662172583863384e-12
5.922041203952015687e-12
5.030025379987834754e-12
3.727888212170376563e-12
2.650634813192751986e-12
2.153014491789787431e-12
1.460777791852389413e-12
1.116439068443930354e-12
7.869210153401361666e-13
5.651437053890200646e-13
4.125425205473585761e-13
3.043073686997783012e-13
2.280722415580048389e-13
1.738738049274840793e-13
1.348254957798300019e-13
1.057406858056323995e-13
8.333510176741389118e-14
6.554645753935476166e-14
5.109101531054695367e-14
3.922601370610064821e-14
2.951226201628378206e-14
2.167142554101207345e-14
1.549444029024332191e-14
