# bin_12_5
3.299342880412834814e-24
3.629391149981875908e-24
3.902560653668912976e-24
4.077227856577233105e-24
4.113350944561085929e-24
3.961662573244760227e-24
3.601324743694895944e-24
3.095697534331556265e-24
2.544187247156187432e-24
2.096762816313471850e-24
1.804941591691802107e-24
1.519745642948162190e-24
1.104442913792741107e-24
7.968497456682494373e-25
6.422281670733919176e-25
4.302893611078457506e-25
3.267533489718965697e-25
2.302420398553985371e-25
1.626925777143504577e-25
1.168180418643892363e-25
8.456095156163510022e-26
6.218455110649653288e-26
4.651803682620465108e-26
3.545720021707222328e-26
2.741915306166775077e-26
2.139544867928275227e-26
1.673708374080648585e-26
1.303047938636288284e-26
1.003126330557106128e-26
7.593856130148504475e-27
5.628656960285015511e-27
