# bin_3_2
2.034462203781893492e-10
2.072667547994701644e-10
2.027284406589929626e-10
1.876677659690883375e-10
1.643229313539608720e-10
1.365847539238836667e-10
1.118511835375344011e-10
9.478596755691539477e-11
8.126677449102836358e-11
6.260401027184039431e-11
4.408135429634239578e-11
3.530362959964089220e-11
2.520438580877638569e-11
1.884365629025436198e-11
1.348073534670272349e-11
9.971730127151290011e-12
7.410583830436292682e-12
5.589272242367495596e-12
4.295249412168283170e-12
3.357137972680961200e-12
2.660324292716247561e-12
2.123157145329669178e-12
1.693881960536038127e-12
1.341254155641945652e-12
1.046994869629860414e-12
8.010467665187814307e-13
5.979300163893096017e-13
4.342457359524924010e-13
3.066117432195198845e-13
2.108057451035226733e-13
1.415303153069500735e-13
