# bin_18_5
2.934951517098632586e-49
3.283712885918629489e-49
3.605197569472159479e-49
3.865885325677236502e-49
4.023537678746535757e-49
4.040878579078540276e-49
3.865027201941424742e-49
3.488747997182154302e-49
2.976845540326445280e-49
2.440249707511589134e-49
2.021065569852937379e-49
1.747339995907061676e-49
1.451608027256255218e-49
1.033113098580486615e-49
7.632786756541710401e-50
6.012038369568426171e-50
4.037719629634051677e-50
2.992548767866398564e-50
2.112971974418010726e-50
1.471153598354717581e-50
1.032831144173593573e-50
7.302954231918494339e-51
5.238355593243568756e-51
3.819056612024060355e-51
2.840245198726306295e-51
2.150171866311798685e-51
1.651543546962206601e-51
1.279840229792807592e-51
9.934209775440014326e-52
7.668252717567672182e-52
5.848670568180297857e-52
