# bin_20_4
1.007744130158173119e-66
1.131673424163249029e-66
1.248093618233084341e-66
1.345854049675472450e-66
1.410721895043907866e-66
1.428221622664769154e-66
1.382307102959076214e-66
1.262738625166455188e-66
1.090793041617847328e-66
8.984037891279920384e-67
7.388375693126506923e-67
6.346733650117668796e-67
5.384216007106716363e-67
3.954202444946645512e-67
2.808028534924628467e-67
2.280434666782885244e-67
1.510528743391678951e-67
1.147245814444640496e-67
7.912052532223911131e-68
5.480842497695186708e-68
3.849676384821087322e-68
2.706375604330155686e-68
1.921361302481711895e-68
1.382958868511450679e-68
1.015557748741709245e-68
7.600393571702273503e-69
5.784402205536185764e-69
4.457292825486062002e-69
3.453735887779723302e-69
2.671371874608569018e-69
2.048166579091027758e-69
