# bin_14_7
1.944608051844782485e-22
2.160013205822857236e-22
2.350545836612630373e-22
2.492804273831928459e-22
2.558411699196848128e-22
2.526122575849940095e-22
2.361931466346787728e-22
2.087063151601881092e-22
1.744570746686729271e-22
1.426154089241096215e-22
1.202448136274682600e-22
1.040176532796268327e-22
8.175495586654179007e-23
5.652124533052776285e-23
4.496843565736754623e-23
3.229121787937783242e-23
2.347679898640285643e-23
1.616217815792720649e-23
1.169447038441756166e-23
8.279746849483972844e-24
5.885184668464903862e-24
4.241359010143659193e-24
3.100943731586896703e-24
2.310452294822105515e-24
1.753123639061098554e-24
1.349532943159057256e-24
1.048673979413219459e-24
8.168406138006031665e-25
6.332330557812854497e-25
4.853627442009724547e-25
3.658886266727695981e-25
