# bin_8_2
1.588809133974817424e-23
1.697533562988594739e-23
1.759780874764512497e-23
1.760050847149582171e-23
1.674845910194504410e-23
1.504943604125878358e-23
1.278501785038264606e-23
1.046894231394097528e-23
8.691713285639545664e-24
7.509869145577721910e-24
6.183371121926231993e-24
4.390472090072318439e-24
3.296795607076896674e-24
2.572729630934460697e-24
1.776010622793413444e-24
1.319221420119134795e-24
9.586566316956958758e-25
6.915964575653251447e-25
5.062976530278488957e-25
3.767680269733509373e-25
2.856523089409549774e-25
2.203365848772597496e-25
1.724398233661014132e-25
1.360531279168666736e-25
1.074810154057395530e-25
8.442372583796585511e-26
6.549024079575061179e-26
4.988958521223481025e-26
3.714931405197515455e-26
2.694737510668208421e-26
1.901690400457063357e-26
