# bin_18_11
7.407534288215154811e-20
8.336323348929640533e-20
9.217651256141763715e-20
9.971314684743163892e-20
1.049373222779443417e-19
1.067122675837962014e-19
1.039783186425776770e-19
9.567861193091357574e-20
8.325847621950588579e-20
6.883351761917102824e-20
5.644363009554536715e-20
4.824343018836392013e-20
4.130849598475120426e-20
3.096530508081782654e-20
2.163028115113410998e-20
1.763559263302959807e-20
1.179792174230531457e-20
8.948535931979377329e-21
6.090420878823657321e-21
4.230954520541177467e-21
2.969424545053759977e-21
2.084066827622664437e-21
1.471050106538407974e-21
1.050805065944381065e-21
7.654583463017991085e-22
5.685148261819611232e-22
4.298695437880001894e-22
3.297569134093093935e-22
2.549759672003150247e-22
1.972868409556300541e-22
1.516456380624943083e-22
