# bin_18_14
1.643592207209554631e-13
1.855566991195487413e-13
2.059545579833924163e-13
2.238369758331021474e-13
2.369389426301347697e-13
2.425669679667769006e-13
2.386413327518879599e-13
2.220895225524212564e-13
1.953786960846350352e-13
1.627153557160883194e-13
1.331032916221557923e-13
1.127554385032033699e-13
9.739586348453437277e-14
7.538818197314477061e-14
5.204669406629300390e-14
4.187834663586245769e-14
2.919414120340449539e-14
2.153972140521858805e-14
1.451594652389153779e-14
1.027616654458468182e-14
7.153062654627024822e-15
4.974585814210655726e-15
3.480637063601293043e-15
2.458858029747756837e-15
1.768260580684508764e-15
1.296754134981794928e-15
9.693562041258347637e-16
7.371896666548321900e-16
5.671811656008204919e-16
4.384282843674255746e-16
3.379383468343885794e-16
