# bin_7_3
5.017029714271381295e-16
5.350039350723889312e-16
5.532626598383090098e-16
5.517422003417057175e-16
5.229487441568106157e-16
4.681370450162552579e-16
3.962097566343238897e-16
3.241906071320003688e-16
2.699500257584048828e-16
2.333937027451591412e-16
1.904990853178599955e-16
1.343868837456869469e-16
1.022317486971876777e-16
7.867007432866037851e-17
5.491313220817370680e-17
4.032308118705622862e-17
2.947591129574855527e-17
2.131835443448021497e-17
1.562742283959236726e-17
1.166040962854664786e-17
8.862874980224262361e-18
6.852763163340960296e-18
5.372641842792746328e-18
4.243359366727986525e-18
3.353055251816042335e-18
2.632296833079416918e-18
2.039388217518635341e-18
1.550649911664623969e-18
1.151907408072503372e-18
8.333042932678914525e-19
5.864300829405850180e-19
