# bin_10_7
5.183927538562059009e-13
5.693612141084762306e-13
6.110324458206073240e-13
6.368120801785512759e-13
6.406677804036367812e-13
6.145516048693832126e-13
5.564135776087024723e-13
4.763194027077994550e-13
3.908900669847247830e-13
3.229542320508025389e-13
2.785458681537618104e-13
2.328194666397901697e-13
1.675308487988914727e-13
1.224995672296098097e-13
9.766726775866998204e-14
6.582067782880612220e-14
4.954926497739742553e-14
3.518408925218798016e-14
2.490610693956724836e-14
1.788649742806139752e-14
1.297511278026535054e-14
9.570688265214198254e-15
7.183552714157379063e-15
5.491502533868299091e-15
4.256081870305528970e-15
3.325588858136947472e-15
2.602415765916781176e-15
2.024831753469745812e-15
1.556500524955454852e-15
1.175765835747574227e-15
8.691100147143850533e-16
