# bin_18_16
1.990669186793452991e-11
2.251807708980278727e-11
2.505263532113318135e-11
2.730710398604168191e-11
2.901011947961138700e-11
2.982912158293658121e-11
2.951901341532066226e-11
2.767121647271670533e-11
2.450753655642980660e-11
2.052470403411301435e-11
1.678070875416245320e-11
1.412972124083573346e-11
1.223687460348287948e-11
9.670587662139816317e-12
6.672330181170784136e-12
5.277319823012006980e-12
3.804533045571929606e-12
2.726389701394440202e-12
1.856576744284111178e-12
1.327397547583040024e-12
9.179144909487573414e-13
6.327600644507421566e-13
4.401453833229915645e-13
3.088413639555228423e-13
2.202046457894405237e-13
1.600762532489640446e-13
1.186710420379317038e-13
8.963703148491780460e-14
6.865688343690967257e-14
5.297752349968780634e-14
4.087209496173434086e-14
