# bin_14_11
1.409378848266019148e-12
1.575708717621696589e-12
1.728434032690911713e-12
1.851361841478244528e-12
1.924116479586746859e-12
1.929262425751399465e-12
1.841034964747538096e-12
1.658133968779986300e-12
1.411595328234528924e-12
1.156452681832232074e-12
9.593673799039809338e-13
8.300154190025379909e-13
6.862851565694315937e-13
4.860484018218315931e-13
3.619725967118982556e-13
2.828230972701204810e-13
1.910526272908053475e-13
1.405205865340684496e-13
9.969131874479121454e-14
6.950886070290427530e-14
4.880646223271035279e-14
3.457166199729272583e-14
2.484824206317878806e-14
1.815819986843252937e-14
1.353464195193491706e-14
1.026628602399971229e-14
7.897147095795185870e-15
6.124653240536278732e-15
4.754420488103716006e-15
3.667861424280928185e-15
2.794419430523324665e-15
