# bin_9_3
1.639688925413926270e-22
1.770091992788283716e-22
1.859218249097603848e-22
1.887412602568727931e-22
1.835425630219736806e-22
1.686123444094528208e-22
1.465040073856948101e-22
1.210424796647417362e-22
9.926023339616801998e-23
8.478236783181952026e-23
7.241433533183698766e-23
5.431355633202940903e-23
3.824586168296796463e-23
3.113501689894689217e-23
2.124188653933757369e-23
1.621077103442920528e-23
1.135074150818743442e-23
8.167266577931426123e-24
5.954652009619423470e-24
4.384299824589675200e-24
3.276799335715395122e-24
2.490706334518235762e-24
1.926494339385228423e-24
1.508260445974763661e-24
1.187629799355785711e-24
9.341752243181188805e-25
7.288457664762964817e-25
5.605478597168999984e-25
4.227404248357491884e-25
3.113323053814940837e-25
2.233067521550896011e-25
