# bin_2_15
6.093667143163751715e-07
6.119911265702940727e-07
5.866845617915125163e-07
5.317213745460435554e-07
4.560594847474573982e-07
3.753192987893451824e-07
3.101557756348676507e-07
2.658781085888009391e-07
2.216537759866812958e-07
1.626357859072574817e-07
1.192398504800990019e-07
9.421001718791565232e-08
6.617676164288349243e-08
4.979513560629954326e-08
3.617177242576158212e-08
2.670488581084807990e-08
2.002729747830648547e-08
1.527832732499423795e-08
1.187169084307111854e-08
9.368138310766658282e-09
7.472479552959593180e-09
5.980097648733625498e-09
4.766008998191971631e-09
3.756346671898375383e-09
2.909269420945384025e-09
2.202689715130381079e-09
1.624375335796109569e-09
1.164800299800293001e-09
8.125971168785465444e-10
5.527423871151918899e-10
3.677811883646697943e-10
