# bin_13_8
3.746069625611496280e-19
4.156323086203779237e-19
4.516665262664897622e-19
4.781730830107369843e-19
4.897240561282037631e-19
4.821845778480430569e-19
4.492666095664802809e-19
3.956880363857117135e-19
3.298361624749142487e-19
2.696790077557674026e-19
2.280432109553709844e-19
1.970565895290868193e-19
1.533369481039758356e-19
1.059855109547887984e-19
8.509069404970287253e-20
6.013030998843059820e-20
4.435540274939624660e-20
3.034640648906907792e-20
2.188728507444426081e-20
1.554588580599903741e-20
1.109397560636662972e-20
8.016868009921790015e-21
5.877556333775142721e-21
4.392863454972551001e-21
3.342330100164754318e-21
2.578365173535247239e-21
2.006153945354867751e-21
1.563192656216549985e-21
1.211168420277135137e-21
9.271247359819684873e-22
6.975625766480422805e-22
