# bin_19_1
9.389702968264620863e-136
1.050518040490677469e-135
1.153324574497303816e-135
1.236663573394213168e-135
1.287023199878287279e-135
1.292486772393914304e-135
1.236099195081448694e-135
1.115590684818689735e-135
9.517483060433597051e-136
7.800981396867231233e-136
6.461129657861966910e-136
5.587131769462491706e-136
4.640920033336599674e-136
3.300794695880976761e-136
2.439998029256209723e-136
1.921569075344081063e-136
1.290273099638594514e-136
9.563249368199941141e-137
6.754323241909410329e-137
4.702911351231849750e-137
3.301469807933539181e-137
2.334406072119287711e-137
1.674680374833909864e-137
1.221165926022896844e-137
9.083555425690635056e-138
6.877808269664937402e-138
5.283652457843241865e-138
4.094958961052912288e-138
3.178746940051892979e-138
2.453726571797151857e-138
1.871430035056269896e-138
