# bin_10_3
2.756758047527610359e-34
2.990162088427640529e-34
3.159389386327678525e-34
3.229049400387899638e-34
3.171125421245644126e-34
2.946156787359968158e-34
2.587978464032502397e-34
2.153195712157672223e-34
1.760722476128573980e-34
1.491076797593895005e-34
1.285929754133337248e-34
9.948126464957398417e-35
6.905516115926795232e-35
5.568682904437938213e-35
3.925491647556087429e-35
2.930197848125678801e-35
2.032755251031966864e-35
1.479943920603781319e-35
1.072059616573087538e-35
7.836250201239376879e-36
5.815487376707811596e-36
4.387618999233536459e-36
3.370818700099184521e-36
2.626014935127299232e-36
2.062037045153020335e-36
1.621321454581536816e-36
1.267375871551763708e-36
9.785480075324989193e-37
7.421548527867591431e-37
5.504578731886042687e-37
3.979852220950592459e-37
