# bin_18_1
3.777718954209732414e-127
4.215207033635714998e-127
4.612564344165721528e-127
4.925688891672464656e-127
5.099304047067154238e-127
5.089921833003253232e-127
4.826401939155626946e-127
4.320958040246874934e-127
3.655753130705697155e-127
2.990884395462551936e-127
2.493024147941508760e-127
2.159813644860509520e-127
1.761444394568111687e-127
1.232176991607828825e-127
9.381768758636462106e-128
7.159052099851014058e-128
4.925527074080370153e-128
3.540601707849644381e-128
2.544680797203404687e-128
1.781676543619940195e-128
1.252263551169059035e-128
8.917691885611747507e-129
6.445447398478017935e-129
4.740079483168629231e-129
3.554415884946821932e-129
2.710028517064589985e-129
2.092560205165721061e-129
1.626055569579649544e-129
1.262342196679979133e-129
9.722128337090529912e-130
7.384018001229899722e-130
