# bin_14_17
3.832829060226543013e-08
4.302681130914182128e-08
4.743304157581244346e-08
5.112160499451485543e-08
5.355029077056481079e-08
5.417454195493988535e-08
5.237562079173451702e-08
4.779198399623140179e-08
4.123751245763312608e-08
3.394851250157910126e-08
2.793631421614487187e-08
2.401337031852568120e-08
2.033397861947210799e-08
1.488926041448822937e-08
1.061162064680813005e-08
8.595561976397761786e-09
5.699201763699764546e-09
4.320251043552772088e-09
2.985590738447964960e-09
2.069188411586757528e-09
1.453219874369952279e-09
1.022028556769625855e-09
7.262373003461057419e-10
5.233431663058122441e-10
3.847602588921327001e-10
2.882632465001569494e-10
2.195801774414441382e-10
1.692956604976914927e-10
1.312032737106186560e-10
1.014645997645225373e-10
7.775663060374821222e-11
