# bin_16_13
1.256151364598741424e-12
1.412054526335046904e-12
1.559222843938704535e-12
1.683891413707184493e-12
1.768402127573706068e-12
1.794116188096153120e-12
1.741996844579565870e-12
1.596717192398056978e-12
1.384035921869717228e-12
1.141811221462862871e-12
9.375664684666445896e-13
8.035797111818667222e-13
6.849688681853431199e-13
5.078491419685607424e-13
3.574361803383061630e-13
2.913800908929657938e-13
1.934153584570402732e-13
1.471210874723594043e-13
1.008252945971910046e-13
6.985343442582947736e-14
4.906614877024533277e-14
3.447284855852403052e-14
2.440778531331629533e-14
1.750585333171846688e-14
1.280789356525615664e-14
9.552307825099410281e-15
7.248840429784900892e-15
5.574847697779611232e-15
4.316057874446616200e-15
3.339312395401726415e-15
2.563541186180484220e-15
