# bin_9_18
1.516166245472026462e-07
1.669101228754082296e-07
1.796418115428356400e-07
1.879054726457204852e-07
1.898238621587932620e-07
1.831974110446767838e-07
1.669040101546864605e-07
1.437962146029483148e-07
1.183137842878552207e-07
9.741287977423853671e-08
8.372640666581322122e-08
7.070899546228391080e-08
5.171936446923972735e-08
3.710073895625841327e-08
2.995956853951083256e-08
2.011361324306250630e-08
1.527746704686180504e-08
1.072182630629047451e-08
7.579615248887898336e-09
5.441218089921528606e-09
3.936354088545314570e-09
2.890162270593848529e-09
2.158018686889015194e-09
1.642108198320483875e-09
1.268130834124692718e-09
9.886397618640885021e-10
7.731052922872545228e-10
6.019974730617710796e-10
4.637379955925512506e-10
3.514273306169153252e-10
2.608450452687446595e-10
