# bin_12_11
8.945040455284910593e-10
9.951608854688095931e-10
1.085047422085399020e-09
1.153499807435264864e-09
1.187373777967138805e-09
1.176937267193321701e-09
1.105797460509611607e-09
9.815393263886773220e-10
8.237022844042582192e-10
6.733261454484287567e-10
5.654442641982840790e-10
4.896955775527330443e-10
3.901201133216020835e-10
2.701207264534361255e-10
2.120229634494431506e-10
1.555984962311789080e-10
1.108895804099488320e-10
7.719034458684199182e-11
5.597652999733703781e-11
3.946686499246391951e-11
2.791049116788977883e-11
2.003707260900608023e-11
1.459301367303723646e-11
1.082549458681431450e-11
8.182246023939230857e-12
6.279223102098396209e-12
4.869944276289943122e-12
3.791077221579712021e-12
2.940898704262072114e-12
2.258153986805991736e-12
1.706820532349985319e-12
