# bin_18_16
6.924884706934877400e-11
7.829228820481683222e-11
8.704939025632634949e-11
9.480903420747211469e-11
1.006241255001179677e-10
1.033413685718766576e-10
1.021076046279457189e-10
9.552861716595945805e-11
8.445227621833022415e-11
7.061466487149392502e-11
5.773473007544328636e-11
4.869296581621303876e-11
4.215132917141048872e-11
3.312572173838970598e-11
2.284085521315902640e-11
1.816623424303891271e-11
1.297530475846827502e-11
9.377981537951177820e-12
6.354497092840165317e-12
4.537050028048688403e-12
3.142575159488500103e-12
2.171286180032326875e-12
1.512874899878106774e-12
1.063504665407885718e-12
7.600864912560729108e-13
5.539004074518061124e-13
4.116013269918171296e-13
3.115174364277462843e-13
2.389304611129663299e-13
1.844791788767683046e-13
1.423059206000628919e-13
