# bin_9_12
7.059688596672160101e-08
7.769009953144214735e-08
8.357908698884029603e-08
8.737470589264400567e-08
8.821092934570961735e-08
8.505163403687967753e-08
7.741115507768948861e-08
6.662681212083022726e-08
5.479527460942400932e-08
4.513764034196890733e-08
3.881890749130626594e-08
3.273445320025592906e-08
2.388007214424063762e-08
1.717783438812391997e-08
1.385039656228937583e-08
9.298363158442004228e-09
7.056699357993836260e-09
4.961235299623212069e-09
3.507326298086749632e-09
2.518076561477865319e-09
1.822370475060202754e-09
1.338985448876746985e-09
1.000611796210373018e-09
7.619629312735494463e-10
5.887750034326796693e-10
4.591852859300195628e-10
3.591259087251591234e-10
2.796129523421161910e-10
2.153268749600673456e-10
1.630978846752042995e-10
1.209814035629006405e-10
