# bin_9_3
3.800655697189172204e-28
4.100060704777144143e-28
4.302734575402542988e-28
4.363631892993730977e-28
4.237112273650789693e-28
3.885679654661380005e-28
3.370401349475008564e-28
2.781541255460278626e-28
2.281956998312389346e-28
1.951789330485589965e-28
1.664609599091303183e-28
1.242231036152076906e-28
8.766552848804826929e-29
7.150431679468765189e-29
4.850027245183802436e-29
3.715681449670228344e-29
2.606764517571682177e-29
1.871726169856253385e-29
1.366060998226523487e-29
1.006836735017964253e-29
7.533611101761005897e-30
5.733210118033426581e-30
4.439297055352083469e-30
3.478293532705615552e-30
2.740093945172435146e-30
2.155487743688955027e-30
1.681234013024974810e-30
1.292239884040461272e-30
9.736909172157938062e-31
7.162820009143078501e-31
5.131051340424863238e-31
