# bin_18_9
5.714313769860654087e-35
6.415885797358491073e-35
7.074382130928652611e-35
7.626453048022901004e-35
7.991322573568967958e-35
8.087427404737236438e-35
7.822821612697889934e-35
7.141453503384442118e-35
6.164883263881594535e-35
5.075654922053430644e-35
4.175136031499132541e-35
3.588255857153754601e-35
3.041752824511872849e-35
2.229453356068830222e-35
1.585319932332732177e-35
1.287621376816174764e-35
8.516222218436751685e-36
6.471809705964929220e-36
4.469153609066828848e-36
3.094738256125339980e-36
2.173769491910723489e-36
1.528165431634663959e-36
1.085447623467629843e-36
7.818134773372419346e-37
5.745278065424494570e-37
4.302669560520467346e-37
3.276526849722434237e-37
2.525833630784657136e-37
1.957541282565887072e-37
1.514090140558576436e-37
1.160631459673264531e-37
