# bin_17_16
8.067671225840096515e-10
9.109032626186520626e-10
1.011151086018603175e-09
1.099098126882194767e-09
1.163630699169395541e-09
1.191502331607357213e-09
1.172546014561498716e-09
1.091576153594720438e-09
9.605876806757452391e-10
8.001598791174404092e-10
6.544930968591096391e-10
5.542925745500594999e-10
4.789079513901757864e-10
3.710234939990700836e-10
2.560550739210302872e-10
2.059649176950085958e-10
1.437607178772671968e-10
1.059876064709883059e-10
7.138514843763346337e-11
5.057765399207231813e-11
3.519468113384523967e-11
2.446831648450506989e-11
1.711609064612677363e-11
1.208777538883777822e-11
8.689679960859011156e-12
6.370303184753131752e-12
4.760413627632883155e-12
3.619377478514331388e-12
2.784301309165341430e-12
2.152207281719759445e-12
1.659060116732978913e-12
