# bin_18_2
1.815671626005007039e-110
2.026852059036816340e-110
2.219142795530543429e-110
2.371422597304095293e-110
2.457188271552291817e-110
2.455218913988082591e-110
2.331440229598944440e-110
2.090059263240224169e-110
1.770686029279270712e-110
1.448986231741295600e-110
1.206422659799426753e-110
1.045025753942649715e-110
8.550856102538670230e-111
5.995799521491267849e-111
4.542594475478717744e-111
3.485914350895452462e-111
2.387134174904974483e-111
1.725343893243241840e-111
1.236741678796984167e-111
8.650603123599413136e-112
6.077515276131358676e-112
4.322485360691626104e-112
3.120359089314751393e-112
2.291601803886796063e-112
1.716181922937273250e-112
1.307066692759850464e-112
1.008478063540978937e-112
7.833683493386473113e-113
6.081746833549150269e-113
4.685926121223147215e-113
3.561560089599648150e-113
