# bin_19_19
3.776344145639213711e-09
4.282956636109254854e-09
4.780528046815211572e-09
5.231508859480914955e-09
5.585435461621385399e-09
5.779095588786672483e-09
5.763633908500663305e-09
5.457601428284517380e-09
4.879401664741414859e-09
4.122266805109173994e-09
3.372554296826405803e-09
2.816413810012520218e-09
2.441219976503496267e-09
1.981838919804377162e-09
1.380221197872511923e-09
1.056611743806644265e-09
7.971348179662542303e-10
5.482033349138268025e-10
3.867892132541482391e-10
2.751703672911074015e-10
1.888803383255855005e-10
1.291425513273209117e-10
8.899828600753079017e-11
6.185552293000315007e-11
4.355791119405399192e-11
3.125106709157890795e-11
2.286860365196843884e-11
1.707829649234535749e-11
1.297311582927179936e-11
9.966866516973697216e-12
7.687587400803616947e-12
