# bin_16_3
2.704131738374727981e-79
3.003683509880275117e-79
3.268649159530336135e-79
3.466478964134762481e-79
3.557643213051732973e-79
3.512768451730803673e-79
3.284348073069928472e-79
2.902023387822736725e-79
2.425528879116422053e-79
1.982639678299300431e-79
1.671701023884982931e-79
1.446389803899200356e-79
1.136688563638864840e-79
7.853155763406351986e-80
6.253425462472050184e-80
4.488551541910897989e-80
3.265632719545655624e-80
2.244285833363779452e-80
1.625526745977885596e-80
1.150856351759534150e-80
8.179991786317284033e-81
5.895883873479102412e-81
4.310824652651738644e-81
3.212162315528204663e-81
2.437510527748451890e-81
1.876506159101785259e-81
1.458269308585302153e-81
1.135949907197560905e-81
8.806482247889951124e-82
6.750152945858211211e-82
5.088583866801289743e-82
