# bin_5_4
1.455096984414935960e-09
1.534649046353592001e-09
1.565772905925617253e-09
1.534281511691933325e-09
1.422364333999641283e-09
1.247002172560335221e-09
1.036562261456217681e-09
8.481222551711084915e-10
7.187441298955463566e-10
6.181335945647013755e-10
4.766512387075840032e-10
3.331013495320876921e-10
2.682175720202342333e-10
1.898806259563778103e-10
1.422103100512811175e-10
1.002317966057995401e-10
7.359326115713583354e-11
5.408763832830936564e-11
4.023819362111012005e-11
3.045845935850331479e-11
2.345297591528218378e-11
1.834974852354481744e-11
1.450460582632315490e-11
1.150269706443834567e-11
9.087566341968685463e-12
7.102978928827962338e-12
5.459033437853544970e-12
4.104463576348223322e-12
3.007694295280416546e-12
2.143750208582610095e-12
1.486610544483453915e-12
