# bin_3_13
4.447427068307256238e-07
4.579673454101828728e-07
4.543158418727822812e-07
4.280600641974242193e-07
3.812060163448849336e-07
3.213795590309992071e-07
2.631169526076177587e-07
2.199714691734146555e-07
1.895882990601671220e-07
1.526434830490783901e-07
1.081359156520254411e-07
8.318195678634189427e-08
6.296663693767125666e-08
4.495089475758456992e-08
3.296427419345253586e-08
2.424260779640896558e-08
1.781382026975836004e-08
1.330207487829509967e-08
1.011755941009603072e-08
7.836214800342863522e-09
6.163326999320306032e-09
4.897187939227314508e-09
3.902349878813265642e-09
3.096040555837265271e-09
2.428805086558167912e-09
1.872297648593488879e-09
1.411025453227339907e-09
1.035924128973657115e-09
7.395503101115550567e-10
5.137335125169899032e-10
3.480126455086215364e-10
