# bin_14_19
5.813298745921158120e-08
6.526874917327632868e-08
7.196534738983361057e-08
7.757848732411075287e-08
8.128634549518346630e-08
8.225912099014216219e-08
7.956438967489679930e-08
7.263688840529068825e-08
6.270626399971489128e-08
5.163466949439343367e-08
4.248047678632702245e-08
3.650354218313643775e-08
3.093233198443204588e-08
2.268096771192717122e-08
1.614312916988770991e-08
1.308453321393345322e-08
8.677390051515093759e-09
6.579878592414690294e-09
4.542984421090091910e-09
3.148584927849812797e-09
2.211285151517419641e-09
1.554967947101309972e-09
1.104496812933381924e-09
7.955139385037498521e-10
5.845486087149362727e-10
4.377285897294957811e-10
3.332956471872252002e-10
2.568995551314244666e-10
1.990730979955870775e-10
1.539579938763031231e-10
1.180063911641412284e-10
