# bin_3_5
1.750798749387075047e-07
1.799708251251892373e-07
1.781410185647913975e-07
1.673630254099588370e-07
1.486323081237850601e-07
1.249913131480852692e-07
1.023034802869768607e-07
8.571178318579953617e-08
7.385951149456264645e-08
5.906919636822596192e-08
4.172592402794602052e-08
3.234750859389793336e-08
2.425834558812790239e-08
1.744096990360505078e-08
1.272407711569460076e-08
9.378434096634398038e-09
6.903121700909628770e-09
5.161917065309103283e-09
3.932732318604016828e-09
3.050675219963107188e-09
2.402587229883285993e-09
1.910597301324883572e-09
1.522921307777435791e-09
1.207974797949885995e-09
9.469467572386539427e-10
7.291205552455552361e-10
5.486475545637362894e-10
4.020869992003598275e-10
2.865258578544672566e-10
1.986914681548842271e-10
1.343918478440687203e-10
