# bin_16_7
2.234487218944240721e-38
2.493184509371824803e-38
2.728112524175409320e-38
2.913178825593730154e-38
3.015678824537767272e-38
3.009927732589405325e-38
2.853811952754692406e-38
2.554709497833518204e-38
2.161195044944505411e-38
1.768097234660876536e-38
1.473892909021151312e-38
1.276931782553126776e-38
1.041192404700702553e-38
7.281740662220666490e-39
5.546313754403034488e-39
4.230721400082529099e-39
2.911579403225088560e-39
2.092096088300903510e-39
1.504019979877298929e-39
1.053117651149457120e-39
7.401844224167979017e-40
5.271492930324193149e-40
3.810420913761685554e-40
2.802516971495966330e-40
2.101703314636029310e-40
1.602550945748500101e-40
1.237490360730929890e-40
9.616409504715054523e-41
7.465446661287586505e-41
5.749492016942925848e-41
4.366572088503297417e-41
