# bin_12_7
1.009404684900014674e-19
1.114720694110018675e-19
1.204412050583223974e-19
1.265979172165565993e-19
1.285887560348140548e-19
1.251131300101663344e-19
1.149598676463549258e-19
9.990042961071614737e-20
8.252289445579971423e-20
6.767121165061744267e-20
5.785400540806478037e-20
4.946604284614503158e-20
3.701302421999872624e-20
2.595624951487535572e-20
2.119002616642327949e-20
1.426188793487349759e-20
1.088893142217905280e-20
7.526907125664419311e-21
5.322100693494089920e-21
3.818184707593161410e-21
2.754884471075401140e-21
2.010549206323366681e-21
1.490685419288947945e-21
1.127043324613803033e-21
8.659248210677033726e-22
6.728018600144713253e-22
5.254638230935185462e-22
4.095071867751662942e-22
3.163028926221697779e-22
2.407062927953759807e-22
1.796409153051454788e-22
