# bin_14_18
4.869541800772124250e-08
5.466975265161210942e-08
6.027491175816956618e-08
6.497092171145041945e-08
6.806920316103036744e-08
6.887588446661048272e-08
6.660802073901966617e-08
6.079743382643713677e-08
5.247564857322163241e-08
4.320658652838483498e-08
3.554966903050253761e-08
3.055153982203995289e-08
2.588183960655355172e-08
1.896792673963139077e-08
1.350716430249166740e-08
1.094537604533880714e-08
7.258170473703250168e-09
5.503082402999192628e-09
3.800830251685569997e-09
2.634212836274794573e-09
1.850039418539991947e-09
1.301003089960367365e-09
9.242427044361957202e-10
6.658150742391889104e-10
4.893426416646555515e-10
3.665033583662789493e-10
2.791064946941998374e-10
2.151534630546671167e-10
1.667309446005289156e-10
1.289432041922649348e-10
9.882607873985482627e-11
