# bin_16_20
4.054225188241716358e-08
4.575091995251573482e-08
5.075362674977824448e-08
5.512495324956316404e-08
5.830505525818456856e-08
5.963438731722916883e-08
5.859255546157465100e-08
5.444346300750822434e-08
4.782494447484620216e-08
3.978692216278409459e-08
3.255481544628262807e-08
2.761330552099469787e-08
2.382851034114023695e-08
1.836295136441303051e-08
1.269187523817820719e-08
1.023698038601273946e-08
7.090521708330128314e-09
5.256388399051358449e-09
3.544464498165887224e-09
2.501552050009428765e-09
1.743755814139642883e-09
1.214674501536061464e-09
8.509080385518461820e-10
6.020111978505037035e-10
4.337052817823086530e-10
3.186293641127282098e-10
2.385772487925354252e-10
1.816700806013645435e-10
1.398824156877593372e-10
1.081507158620881144e-10
8.333391132007823642e-11
