# bin_12_12
6.306486432703781512e-09
7.024468091474848362e-09
7.670102857513801689e-09
8.168813045180821951e-09
8.427931749955011312e-09
8.377698231114604270e-09
7.900513759481114820e-09
7.037082368003628411e-09
5.924542381970762927e-09
4.844189533502865642e-09
4.055740555441401760e-09
3.513502172295191968e-09
2.826552912248502583e-09
1.963870098090056295e-09
1.523066503220205352e-09
1.135981818006872622e-09
7.976484985767885743e-10
5.621133448984745885e-10
4.066633969198479410e-10
2.858851319935574411e-10
2.015840389105674314e-10
1.442518755464069711e-10
1.047383664507260421e-10
7.742797384265626741e-11
5.833855754307452561e-11
4.465583354495877158e-11
3.457471933932645109e-11
2.689759251988916214e-11
2.087302039007801064e-11
1.604731208927909445e-11
1.215318892582553072e-11
