# bin_15_5
4.036819144800871432e-49
4.481132778390545852e-49
4.872598119217346715e-49
5.162454005443825295e-49
5.291949420493675741e-49
5.216907432360091794e-49
4.868102926335070263e-49
4.293582602969404341e-49
3.583100791093781593e-49
2.929185711697474336e-49
2.473835506766589412e-49
2.139028468295712463e-49
1.671635838773049258e-49
1.154962041272489333e-49
9.241916370606479272e-50
6.574877115253929410e-50
4.822023398605266335e-50
3.303648220643972504e-50
2.387803931900522142e-50
1.693565098650648310e-50
1.206477116673091397e-50
8.708763767802655113e-51
6.377281213894588884e-51
4.760149724730228229e-51
3.617660219947211085e-51
2.788321436636213500e-51
2.168400286997540470e-51
1.689427866236667319e-51
1.309321767098329996e-51
1.002846951012035225e-51
7.551728746821488997e-52
