# bin_13_19
7.356880282987107866e-08
8.235572215458659375e-08
9.047881560900905553e-08
9.710160502253702023e-08
1.011683368661855510e-07
1.017268606698548470e-07
9.747203043256482752e-08
8.813908468385107682e-08
7.534576310083873542e-08
6.180510457184042289e-08
5.113097139675295598e-08
4.416619932050271594e-08
3.681280559246387944e-08
2.632227199510697495e-08
1.932535606700009138e-08
1.530353993088855842e-08
1.024705692070297149e-08
7.629492544314111711e-09
5.367053500075483405e-09
3.733157326729705318e-09
2.621069899928589804e-09
1.851295903002217026e-09
1.325778167091916960e-09
9.646844012239646547e-10
7.160795405081834661e-10
5.411824529274988341e-10
4.151286198991432608e-10
3.214430294940254403e-10
2.494523179362748933e-10
1.926177311119717867e-10
1.470291500309220492e-10
