# bin_1_11
7.212438563691509643e-07
6.961589101952891880e-07
6.360635745483950046e-07
5.501432670656930901e-07
4.551031934732876871e-07
3.750553327686120751e-07
3.195364695445149885e-07
2.687080954210645253e-07
2.019540703803203598e-07
1.463664076784804276e-07
1.154368464932348163e-07
8.264894970530882528e-08
6.178304174620240453e-08
4.506995364799627262e-08
3.355707649143870735e-08
2.529879489982147413e-08
1.941612050326980557e-08
1.518353757553590873e-08
1.205556186643680902e-08
9.667658850169314499e-09
7.771441385500108502e-09
6.214917118119645868e-09
4.909931290936478033e-09
3.808139491689351840e-09
2.885199735063951073e-09
2.128120284678395297e-09
1.526316526149761910e-09
1.065217579814135765e-09
7.251230753900098916e-10
4.829834560163322164e-10
3.158413086193635010e-10
