# bin_9
0.000000000000000000e+00
0.000000000000000000e+00
0.000000000000000000e+00
4.757852169451204220e-321
1.070982180594622246e-267
5.303075865474146873e-223
1.917769499955127513e-185
8.166229898841443644e-154
3.856907020733639647e-127
1.252382445771884671e-104
1.246351540734012666e-85
1.303969766832037488e-69
3.987857486731445492e-56
8.367118038887027429e-45
2.463212902482158048e-35
1.859436050152495007e-27
5.997131258769585637e-21
1.275917908605300640e-15
2.595976815987339612e-11
6.951522566186003694e-08
3.231214203875899446e-05
3.323078889018133125e-03
9.390030221081287209e-02
8.884784394586296985e-01
3.375683003264779103e+00
6.018342471360146995e+00
5.624806215034965362e+00
2.932503951830129019e+00
8.841803159108170274e-01
1.594732128065437793e-01
1.790233744534827989e-02
1.307037608208997531e-03
6.490289529441700873e-05
2.288713563314072159e-06
5.967544425881259051e-08
1.193880049119732003e-09
1.895371460838539024e-11
2.461402013419029007e-13
2.687102676986936041e-15
2.527209025135342674e-17
2.093098131346005283e-19
1.556926119189614816e-21
1.058564172376138461e-23
6.683008442994394015e-26
3.973237878119923266e-28
2.252678034735367211e-30
1.231740746422942660e-32
6.560973346855395806e-35
3.435124552775627708e-37
1.782049614157013856e-39
9.225763470167505694e-42
4.796835780740531263e-44
2.519063508243286415e-46
1.342902327278550745e-48
7.299869842505562146e-51
4.062329182615758921e-53
2.322469084880091817e-55
1.368316216124473578e-57
8.330491777408599385e-60
5.253434783286948423e-62
3.438862200158102795e-64
2.340869780737037092e-66
1.659651305860135662e-68
1.227223864066180840e-70
9.475494353003966592e-73
7.646751417000377045e-75
6.455125116835611652e-77
5.703969364866945975e-79
5.278732570144083273e-81
5.118536153506955134e-83
5.201910578113237368e-85
0.000000000000000000e+00
0.000000000000000000e+00
0.000000000000000000e+00
0.000000000000000000e+00
0.000000000000000000e+00
0.000000000000000000e+00
0.000000000000000000e+00
0.000000000000000000e+00
0.000000000000000000e+00
0.000000000000000000e+00
0.000000000000000000e+00
