# bin_2
0.000000000000000000e+00
5.695225685642628847e-78
7.971419832214176132e-57
1.181381560703414955e-40
2.735166525346781703e-28
6.015118294263964741e-19
4.990714561077725596e-12
4.636756399822172249e-07
1.159477411340636586e-03
1.618114348375896128e-01
2.407254892873949004e+00
7.173000658171893029e+00
7.162257628727169312e+00
2.710125080472863157e+00
3.657243002741448201e-01
1.828334655558308888e-02
3.789916547792100362e-04
3.705965886421083256e-06
1.931424215314182423e-08
5.980095576156642818e-11
1.208747993412353222e-13
1.729588874618206925e-16
1.877648119005154859e-19
1.640644754038744462e-22
1.213421509473168509e-25
7.929118007614353735e-29
4.747867794895094388e-32
2.687248332082243973e-35
1.476055958968892784e-38
8.046423438909369029e-42
4.436549219704747929e-45
2.514186659797552632e-48
1.484354232283342862e-51
9.234383578478456407e-55
6.111487379393496841e-58
4.337116797366417170e-61
3.322167239639085637e-64
2.761506426445479460e-67
2.501905137437158747e-70
2.479196419980371212e-73
2.694344852647701721e-76
3.218115077086064551e-79
4.230741914015665299e-82
6.128425429671141264e-85
9.787445546123305051e-88
1.723827917699561631e-90
3.348158953049581261e-93
7.169288572033943100e-96
1.691521622440738370e-98
4.394426186121197934e-101
1.255949461567545170e-103
3.945039735649678540e-106
1.360363217399948840e-108
5.143482274211895568e-111
2.129608946372588005e-113
9.642668030622509994e-116
4.768067557018806906e-118
2.571058103880751693e-120
1.509627139507200312e-122
9.637645463143319241e-125
6.679824173258177560e-127
5.018781460800706081e-129
4.081467304339149601e-131
3.587286317289682518e-133
3.402493869247658894e-135
3.477480033708194434e-137
3.824089562575756844e-139
4.518086279551456152e-141
5.726887902917216180e-143
7.776848498179006812e-145
1.129799975973687826e-146
0.000000000000000000e+00
0.000000000000000000e+00
0.000000000000000000e+00
0.000000000000000000e+00
0.000000000000000000e+00
0.000000000000000000e+00
0.000000000000000000e+00
0.000000000000000000e+00
0.000000000000000000e+00
0.000000000000000000e+00
0.000000000000000000e+00
