# bin_12_18
-1.929176758579277185e-19
-2.172865796212845567e-19
-2.404960540000226266e-19
-2.604765968493733933e-19
-2.745407335975856064e-19
-2.796636611641985777e-19
-2.731916102367002470e-19
-2.521117846075657973e-19
-2.200111957718307492e-19
-1.822021065904121847e-19
-1.492840138794981789e-19
-1.273216354135652728e-19
-1.093295438891056591e-19
-8.262281220379694097e-20
-5.746656745419330944e-20
-4.677711753463928057e-20
-3.155011579754889327e-20
-2.382609150637221012e-20
-1.614415525356361178e-20
-1.125479104698984907e-20
-7.888709711547162028e-21
-5.529064597955863422e-21
-3.893976200206992535e-21
-2.773450685875885073e-21
-2.013783771632393022e-21
-1.490976333612414445e-21
-1.124257390743514079e-21
-8.606952220008894400e-22
-6.648009966908788438e-22
-5.143530801615467805e-22
-3.956945776722248241e-22
