# bin_16_10
-3.989707409561719397e-10
-4.414460524062170060e-10
-4.780991669455389707e-10
-5.040344743280512500e-10
-5.137292861915242690e-10
-5.023395343762557126e-10
-4.643171181537663192e-10
-4.058237356513476488e-10
-3.365679262418205254e-10
-2.756712969940081706e-10
-2.345605862276897140e-10
-2.014268768235094580e-10
-1.533295177648982562e-10
-1.069087617630193769e-10
-8.656175619297487980e-11
-5.958151813620582150e-11
-4.476466560270842280e-11
-3.081746933088057113e-11
-2.198215104306618819e-11
-1.569979380285960726e-11
-1.127365753124962825e-11
-8.192208479750190301e-12
-6.044549534607388034e-12
-4.547382248790982682e-12
-3.479215509654352509e-12
-2.694961074406009472e-12
-2.101350579727862727e-12
-1.637456946291716627e-12
-1.266385892232653561e-12
-9.660884343331829314e-13
-7.234757154657331117e-13
