# bin_13_9
-3.495637405059329175e-10
-3.847252720536540721e-10
-4.139407723835745332e-10
-4.328089437195657008e-10
-4.370305497350152333e-10
-4.215113299814482055e-10
-3.838119986794711972e-10
-3.304887913939372647e-10
-2.719013659537815801e-10
-2.239748326829048823e-10
-1.925271579437396020e-10
-1.623759787958441714e-10
-1.186555211714590053e-10
-8.531640911725633887e-11
-6.870406083558595380e-11
-4.624425179940300704e-11
-3.503051859845552743e-11
-2.461190936784551205e-11
-1.741328005225299717e-11
-1.249938795903809944e-11
-9.045517080128211161e-12
-6.644168825201909698e-12
-4.963235888767890783e-12
-3.778033455257411521e-12
-2.918356936976846578e-12
-2.275451629109437819e-12
-1.779347645779690126e-12
-1.385330690059206855e-12
-1.066891792257325459e-12
-8.082302663894523444e-13
-5.996592617797328551e-13
