# bin_12_1
-3.359862612279864308e-09
-3.249010271750673891e-09
-2.975657053536576309e-09
-2.580128252377531447e-09
-2.138895863066171474e-09
-1.762474226366177411e-09
-1.498276600277962952e-09
-1.261053517676787634e-09
-9.547659871014004452e-10
-6.917263826485946358e-10
-5.427950216421109613e-10
-3.917742740110841233e-10
-2.911753506420640414e-10
-2.128752302660291871e-10
-1.583859926997221308e-10
-1.192304670924154643e-10
-9.137853340970638160e-11
-7.135832821404321076e-11
-5.659118665867985840e-11
-4.534252088531532740e-11
-3.643387558594050658e-11
-2.913745761454758823e-11
-2.302979536280518565e-11
-1.787732059787427987e-11
-1.356102042954622478e-11
-1.001739468111222239e-11
-7.196182802667609956e-12
-5.030206668801787772e-12
-3.429196551515196162e-12
-2.286972299366613520e-12
-1.497113285239914919e-12
