# bin_1_7
-5.416380133932764167e-27
-5.709673125292341063e-27
-5.822117654017583096e-27
-5.700382319448582815e-27
-5.279428482823638649e-27
-4.624146647192065585e-27
-3.841211318210909428e-27
-3.143257350131625808e-27
-2.665754158251810055e-27
-2.291316920342271255e-27
-1.762208529265593350e-27
-1.232048902766233128e-27
-9.938787912685611284e-28
-7.011235540710563666e-28
-5.265267979859324294e-28
-3.710671798880252005e-28
-2.722541262239862241e-28
-2.002306080895655551e-28
-1.490629394022363940e-28
-1.129054096425736301e-28
-8.698856486339556196e-29
-6.809505451376033153e-29
-5.384387913062499140e-29
-4.270634337666788878e-29
-3.373795037897515589e-29
-2.636390111416662463e-29
-2.025413455816088969e-29
-1.522034228412890295e-29
-1.114625758947829030e-29
-7.939326278239523799e-30
-5.502140693202160323e-30
