# bin_15_6
-9.994464564218454328e-10
-1.076246042632404506e-09
-1.126901991317907455e-09
-1.140004151331416547e-09
-1.102970296370814401e-09
-1.008083367905344820e-09
-8.714069166785117987e-10
-7.185282242473420038e-10
-5.908768066184268094e-10
-5.060709615778319501e-10
-4.286589722392255419e-10
-3.176114590897694121e-10
-2.269869774428077627e-10
-1.829794672367714615e-10
-1.252302016741924951e-10
-9.492755895195844387e-11
-6.708688364276646092e-11
-4.831332054268993823e-11
-3.523822895878912317e-11
-2.599086587957361281e-11
-1.948661679572215528e-11
-1.486136035151440877e-11
-1.152561711359894243e-11
-9.039453636824891675e-12
-7.123147237887474357e-12
-5.601123557777885088e-12
-4.364213814422796500e-12
-3.349137218931011407e-12
-2.518483351267934899e-12
-1.848442318169172266e-12
-1.321033989385916014e-12
