# bin_5_8
-5.015915070810548037e-15
-5.424872238569914025e-15
-5.711267751727919964e-15
-5.813307540779673278e-15
-5.675182457114639874e-15
-5.236888239861211071e-15
-4.570165759003388476e-15
-3.786492072892787792e-15
-3.101552458306194182e-15
-2.640118759624403030e-15
-2.263771378684532089e-15
-1.719344819841896072e-15
-1.203651716632751003e-15
-9.761732037200397128e-16
-6.748406216063129137e-16
-5.104317399997437933e-16
-3.560953940399601230e-16
-2.574144814804942679e-16
-1.871901255782915386e-16
-1.374240516125750490e-16
-1.024183488963141216e-16
-7.761778117225588148e-17
-5.987417314669829727e-17
-4.678428954092280626e-17
-3.679861717961419278e-17
-2.894101028767121159e-17
-2.259711671930168320e-17
-1.740635549263227587e-17
-1.315671145868773037e-17
-9.716953300501160388e-18
-6.991977342177070366e-18
