# bin_7_16
-1.426270486493458107e-31
-1.591673799660895881e-31
-1.742028141984425710e-31
-1.860703682072039199e-31
-1.926860669401337073e-31
-1.923953871319530660e-31
-1.825255333539316182e-31
-1.634880606353465341e-31
-1.383925237951189828e-31
-1.132392461490013774e-31
-9.435434771521224303e-32
-8.172882106832532450e-32
-6.672069276107013766e-32
-4.673235425794370123e-32
-3.551580368975987190e-32
-2.715074759370798186e-32
-1.865675337094008460e-32
-1.343731734620821398e-32
-9.643734730977455645e-33
-6.750007269548713408e-33
-4.744738441373150651e-33
-3.377427268581971120e-33
-2.439979746168912489e-33
-1.793481937140859729e-33
-1.344213349875102213e-33
-1.024449893530072071e-33
-7.907810428530594217e-34
-6.143797509548927536e-34
-4.769425828288486772e-34
-3.673655485929158801e-34
-2.790798060050045314e-34
