# bin_10_13
-2.178322636525199868e-14
-2.425117178198993443e-14
-2.646405581141341658e-14
-2.816344120804343931e-14
-2.902947928489215823e-14
-2.882217176995641937e-14
-2.713931866040521067e-14
-2.413927046751322545e-14
-2.029703912513756938e-14
-1.659477752314003863e-14
-1.391086716926054002e-14
-1.204865594288889578e-14
-9.653878530480603315e-15
-6.700429545168910877e-15
-5.220594159976965198e-15
-3.868213942411763026e-15
-2.732768072900271951e-15
-1.917186732373354392e-15
-1.387476256960537173e-15
-9.765710735073339754e-16
-6.895316874165488469e-16
-4.940462868303690991e-16
-3.591543667049217181e-16
-2.658761862485413367e-16
-2.005787278779773332e-16
-1.536915489073173838e-16
-1.190747090310633213e-16
-9.265699492928558114e-17
-7.189127705885109676e-17
-5.524113731899620165e-17
-4.180190651378055270e-17
