# bin_16_13
-1.527375624663472739e-10
-1.709263601551610048e-10
-1.877132826875881052e-10
-2.013572501108146132e-10
-2.096621608264168754e-10
-2.106719323070505146e-10
-2.016645636178779475e-10
-1.821914154599068524e-10
-1.556036343289007135e-10
-1.276152351521691182e-10
-1.056501108541597065e-10
-9.127642582371219718e-11
-7.592431076076690280e-11
-5.419565057784077565e-11
-3.991755666269171596e-11
-3.149828334958279125e-11
-2.115038693021906917e-11
-1.569386868319932856e-11
-1.106008614926466852e-11
-7.697990177560828895e-12
-5.405587452800310441e-12
-3.821155812502633259e-12
-2.738731001335240110e-12
-1.994685237215270875e-12
-1.481983065598036421e-12
-1.120898479935025701e-12
-8.603143319782496020e-13
-6.663568086623842819e-13
-5.171194320348013353e-13
-3.991926075840724172e-13
-3.045639122001273920e-13
