# bin_9_16
-2.294272263424834148e-23
-2.566714743880132677e-23
-2.817752328585011955e-23
-3.021166246736672211e-23
-3.143923127783984156e-23
-3.156961085948062640e-23
-3.018878573092937192e-23
-2.724374267601478791e-23
-2.324094578707121455e-23
-1.905042964153399767e-23
-1.578049779675897636e-23
-1.364427264974037917e-23
-1.132975159567246565e-23
-8.059415685259072762e-24
-5.959124870548029510e-24
-4.690044636230185960e-24
-3.151628191895999543e-24
-2.334073476146620493e-24
-1.648815346929252214e-24
-1.148141839054831691e-24
-8.060633355923595348e-25
-5.700487982112400240e-25
-4.089711468723119284e-25
-2.982301196463122757e-25
-2.218426918545644707e-25
-1.679748884031658973e-25
-1.290396330638046708e-25
-1.000051390851562433e-25
-7.762530983072815925e-26
-5.991591628973679269e-26
-4.569362245037394066e-26
