# bin_3_5
-3.192322138929913960e-13
-3.346209516351133068e-13
-3.390219757304215163e-13
-3.288489315787378992e-13
-3.014262007960693385e-13
-2.613497148871722405e-13
-2.158078698259563661e-13
-1.771731906208317503e-13
-1.513642429536487526e-13
-1.287465370987931208e-13
-9.633688173519364653e-14
-6.846172354006767307e-14
-5.538244159302366323e-14
-3.824544114426140599e-14
-2.910169861125608014e-14
-2.067374939283967566e-14
-1.507630100166767471e-14
-1.114106138048824513e-14
-8.342572743135974231e-15
-6.356192306432363172e-15
-4.924945964382756203e-15
-3.872858100193677117e-15
-3.070781262491215979e-15
-2.437615828720416255e-15
-1.923594513081778745e-15
-1.498782994712249301e-15
-1.146302976894531867e-15
-8.564901869595990269e-16
-6.231251283472301239e-16
-4.408799866580986804e-16
-3.036247480416658427e-16
