# bin_18_4
-1.788536702728416261e-09
-1.878273600832076982e-09
-1.907236264487979679e-09
-1.855961284437416170e-09
-1.708053901497119477e-09
-1.486805286043246955e-09
-1.231553337774372067e-09
-1.010640069473683007e-09
-8.604149935252191165e-10
-7.332750775230733940e-10
-5.554133287395846735e-10
-3.939834288130089997e-10
-3.159708552197190017e-10
-2.219053964132845767e-10
-1.666109666926971578e-10
-1.185944892489511990e-10
-8.675015401060476177e-11
-6.391495062791683872e-11
-4.771765807740234955e-11
-3.626276160600306032e-11
-2.803066943980894041e-11
-2.199713786352098977e-11
-1.741778537014746610e-11
-1.381810897651437725e-11
-1.090615904099432342e-11
-8.505485988169367281e-12
-6.515564828565898189e-12
-4.878949584632156830e-12
-3.559049618669275824e-12
-2.525366183437652189e-12
-1.744090115717472632e-12
