# bin_4_17
-1.013077462221800211e-54
-1.129640733367417491e-54
-1.235113156855788809e-54
-1.317608407920282109e-54
-1.362273803997182956e-54
-1.357635613035522365e-54
-1.284668675635596804e-54
-1.147909977855814978e-54
-9.693799608407494069e-55
-7.928956429665836661e-55
-6.620211393406087168e-55
-5.735355343437552893e-55
-4.653566951933417010e-55
-3.246676614638646710e-55
-2.489406404803647785e-55
-1.883430059135127609e-55
-1.305744878306966272e-55
-9.314175371935704248e-56
-6.712446029087346293e-56
-4.706894082382600719e-56
-3.312089257847532198e-56
-2.363016809003711679e-56
-1.710878404082860145e-56
-1.260693567208597452e-56
-9.470714577021364755e-57
-7.231778689822493201e-57
-5.589866705093163260e-57
-4.345623418909673004e-57
-3.373117791678562038e-57
-2.596119389574027302e-57
-1.969622894529137019e-57
