# bin_20_6
-1.219424025711879860e-09
-1.313291689419173628e-09
-1.375322027638297720e-09
-1.391562889467503258e-09
-1.346710110255569309e-09
-1.231201051476499166e-09
-1.064573907291870874e-09
-8.779311334499691804e-10
-7.218750452463454970e-10
-6.181574702649837560e-10
-5.237921550427897347e-10
-3.883867000154752283e-10
-2.773965312784073201e-10
-2.236581152629099070e-10
-1.531139430716982156e-10
-1.160569422466013880e-10
-8.199077887850812860e-11
-5.905200244648019443e-11
-4.306657707152778213e-11
-3.176010785950301724e-11
-2.380778393805524540e-11
-1.815346885905263305e-11
-1.407655268040888491e-11
-1.103892203650977428e-11
-8.698273195479687045e-12
-6.839726434522372686e-12
-5.329622634890455973e-12
-4.090454289691437980e-12
-3.076408077425525710e-12
-2.258351841073872828e-12
-1.614315109746636372e-12
