# bin_6_2
-1.655644296755108398e-09
-1.662275437546367987e-09
-1.593167789642981061e-09
-1.443940773647358609e-09
-1.238717210283522171e-09
-1.020092512365886431e-09
-8.433850969101756060e-10
-7.222907253614167352e-10
-6.013186811896115152e-10
-4.422801856634821834e-10
-3.245939380760525872e-10
-2.554872616418683773e-10
-1.803424275400096179e-10
-1.352376673230825498e-10
-9.830673859063855670e-11
-7.263541852571485677e-11
-5.446305060174099729e-11
-4.154162566060791208e-11
-3.227391965745830113e-11
-2.546363518641689946e-11
-2.030680474382754372e-11
-1.624800370877282549e-11
-1.294700750087860066e-11
-1.020271246976366770e-11
-7.901181066535778132e-12
-5.982046688176916517e-12
-4.411761044816608779e-12
-3.164081351242173204e-12
-2.207844355393072694e-12
-1.502188912339181894e-12
-9.997587289375164794e-13
