# bin_8_10
-4.620663782369930035e-13
-5.082491674376690775e-13
-5.464505889994159125e-13
-5.708375965330253849e-13
-5.758137925448311851e-13
-5.544851054013117781e-13
-5.039935573803542112e-13
-4.331825816797368917e-13
-3.560288895522562160e-13
-2.934690634898009430e-13
-2.526032460427367607e-13
-2.125891120186086751e-13
-1.545040683660211331e-13
-1.115514638027864683e-13
-8.978937205635012783e-14
-6.024769480378969463e-14
-4.568800408981321365e-14
-3.220118281669502252e-14
-2.276221801570554899e-14
-1.634427354615012073e-14
-1.183403432845707913e-14
-8.703556744217755629e-15
-6.511445914813501130e-15
-4.963527570553636841e-15
-3.838463505593451990e-15
-2.995207413695056512e-15
-2.342996736208359194e-15
-1.824005775444548564e-15
-1.404058894979117257e-15
-1.062793505077284328e-15
-7.876685737640769253e-16
