# bin_3_4
-1.302154847475387369e-11
-1.349507311695741212e-11
-1.349488604850362200e-11
-1.284762596799551207e-11
-1.155434266557563093e-11
-9.828921772052696005e-12
-8.055984045086094076e-12
-6.683994629492996611e-12
-5.762339506221687824e-12
-4.748963070271190747e-12
-3.400643263710664253e-12
-2.543678639245479878e-12
-1.990180601220615915e-12
-1.385199073826912353e-12
-1.035922836257267470e-12
-7.554544660798446570e-13
-5.517798577432408562e-13
-4.100783186416343358e-13
-3.100683859528780548e-13
-2.388479793431274869e-13
-1.869755441211161967e-13
-1.481245252285591473e-13
-1.179042598084636361e-13
-9.361552331375453232e-14
-7.362890525661269045e-14
-5.699231519063223732e-14
-4.318294214548486386e-14
-3.189947796892497762e-14
-2.291875857033715872e-14
-1.601657692905353434e-14
-1.090699921548438197e-14
