# bin_2_8
-7.750998014754756783e-26
-8.279050507516481253e-26
-8.579531405892306707e-26
-8.577174282744325611e-26
-8.157155388013501009e-26
-7.325515715916278281e-26
-6.219768025271963773e-26
-5.092357081410923383e-26
-4.229690715798762889e-26
-3.655012334714240426e-26
-3.005617437491520342e-26
-2.131852745605779196e-26
-1.603961009191023051e-26
-1.249200866178450953e-26
-8.636589106060465287e-27
-6.404305489609502838e-27
-4.658529536851984995e-27
-3.361995257692058382e-27
-2.461657162402076056e-27
-1.832610419583603302e-27
-1.389957928013511047e-27
-1.072536248977607436e-27
-8.396217477138913172e-28
-6.625630503204648432e-28
-5.234450595724761726e-28
-4.111231093897738800e-28
-3.188636373320151135e-28
-2.428386374961631540e-28
-1.807610115358450464e-28
-1.310671515531325626e-28
-9.245591674502810267e-29
