# bin_16_15
-4.866129029313508099e-11
-5.473400352740951699e-11
-6.048247536203990132e-11
-6.537705142042972817e-11
-6.873559770017324420e-11
-6.982345185013031808e-11
-6.792454880190813635e-11
-6.239517052585418887e-11
-5.420178556894783458e-11
-4.477287905354019450e-11
-3.674037182346519660e-11
-3.143875371869551415e-11
-2.685806812464826750e-11
-2.003869045562950485e-11
-1.405468552686797941e-11
-1.144394901393366976e-11
-7.642874566294804490e-12
-5.795596017749103772e-12
-3.957154891968891273e-12
-2.748161383857598897e-12
-1.928799796824530678e-12
-1.354061458446328933e-12
-9.570631572906458865e-13
-6.848853108732263823e-13
-4.998532054638869749e-13
-3.719180153865433882e-13
-2.816517774474791330e-13
-2.162871667833603845e-13
-1.673190376790570999e-13
-1.294482295780157814e-13
-9.943807280110571490e-14
