# bin_4_10
-6.159185558472370606e-24
-6.703162266139733031e-24
-7.112260727775510217e-24
-7.306036208275531799e-24
-7.223919345562278763e-24
-6.768269263042121626e-24
-5.992642088932008168e-24
-5.018827054850303714e-24
-4.102201011142547140e-24
-3.449934200429219857e-24
-2.983797448563424933e-24
-2.363029409744285577e-24
-1.640653402680099654e-24
-1.295920867580419418e-24
-9.468552243688989515e-25
-6.849541710420613654e-25
-4.811904689788899687e-25
-3.522712246465884902e-25
-2.533647286713565822e-25
-1.837363835915488143e-25
-1.355613653223335011e-25
-1.017079732195447839e-25
-7.770385692306864764e-26
-6.027519876725930137e-26
-4.720181492344912988e-26
-3.707894117865006207e-26
-2.901008360571765905e-26
-2.245441542506763937e-26
-1.709608379600106340e-26
-1.274445015707688764e-26
-9.269051567022648995e-27
