# bin_4_4
-1.131519069958859144e-10
-1.179682224292339479e-10
-1.187870828277085799e-10
-1.142076767124002311e-10
-1.037313979553180743e-10
-8.912161505523182532e-11
-7.330020502269180369e-11
-6.045245105458857761e-11
-5.190311603839881495e-11
-4.354587551812699232e-11
-3.187524792770584342e-11
-2.316867499623595353e-11
-1.852107847277493020e-11
-1.277339536631080152e-11
-9.678926398920740719e-12
-6.958681806822631959e-12
-5.071807678196376788e-12
-3.758234994180155816e-12
-2.826954042474357337e-12
-2.165140436614664765e-12
-1.685944841348068796e-12
-1.330651449632481007e-12
-1.057183439299902109e-12
-8.394212227720785560e-13
-6.614516265898478044e-13
-5.138224344620675424e-13
-3.912748170975225623e-13
-2.907897190833678779e-13
-2.103070457605991468e-13
-1.479259288055324597e-13
-1.013271496001014328e-13
