# bin_4_6
-3.451129017186635505e-13
-3.670271527460521476e-13
-3.782776687818476117e-13
-3.756642496790673685e-13
-3.541263737522383894e-13
-3.153951946580005117e-13
-2.656735449103287088e-13
-2.172721788845271313e-13
-1.816859670185675710e-13
-1.570491105808580184e-13
-1.265227831650382439e-13
-8.876315527850282262e-14
-6.862958144054242684e-14
-5.175597198712015242e-14
-3.674756379306607476e-14
-2.661388584606793446e-14
-1.954111240145523981e-14
-1.418677333487603857e-14
-1.043085835356485568e-14
-7.811197770744582938e-15
-5.956601684115437142e-15
-4.619788097701882938e-15
-3.629920524368311277e-15
-2.870355654838736279e-15
-2.268411797256718242e-15
-1.779151881018664552e-15
-1.375855640970830638e-15
-1.043348166141127944e-15
-7.725081476340049283e-16
-5.568086450035914046e-16
-3.904160440629296471e-16
