# bin_14_11
-2.027879503381396706e-10
-2.253010850805081832e-10
-2.452429083598795268e-10
-2.601778566303392112e-10
-2.671575354759624808e-10
-2.639337161126023258e-10
-2.469819458216059206e-10
-2.184114756728781119e-10
-1.827344415002318112e-10
-1.494178522036828993e-10
-1.258894601761372703e-10
-1.088622242974500936e-10
-8.576290706355257163e-11
-5.941498527485695062e-11
-4.706822925572102269e-11
-3.395464912141921673e-11
-2.456858490082510570e-11
-1.701218686752553565e-11
-1.228413040961847061e-11
-8.690956438792089560e-12
-6.173123930757575404e-12
-4.444878650578822024e-12
-3.247327099495191624e-12
-2.417391382567621825e-12
-1.832790973770540681e-12
-1.409906892347389883e-12
-1.095051707810106296e-12
-8.527524409119559134e-13
-6.610658725003341738e-13
-5.068038152581127864e-13
-3.822027379519670561e-13
