# bin_8_1
-2.890853586658193910e-09
-2.793912605735975932e-09
-2.557287262782855364e-09
-2.216072900527889579e-09
-1.836511930104080636e-09
-1.513617951510429688e-09
-1.287121983355052555e-09
-1.082587332168949435e-09
-8.185767528863231648e-10
-5.934837606033679772e-10
-4.657169891226582789e-10
-3.358992108069685521e-10
-2.497710604748743328e-10
-1.826072074697575501e-10
-1.358830720424365267e-10
-1.023219421363144003e-10
-7.844494303984877299e-11
-6.127686867586567363e-11
-4.860779389553243331e-11
-3.895196531281403479e-11
-3.130028928964662628e-11
-2.503042763924697461e-11
-1.978054331635831282e-11
-1.535130915446762698e-11
-1.164131693434691611e-11
-8.596372310539674617e-12
-6.173197338345019994e-12
-4.313709779793381671e-12
-2.939890492559099014e-12
-1.960167781657302692e-12
-1.282921323727305390e-12
