# bin_2_5
-1.409742239506844490e-15
-1.467056128475431367e-15
-1.474167798759468749e-15
-1.412970421264873662e-15
-1.279176647124199901e-15
-1.095335388275337076e-15
-8.994870760192971178e-16
-7.430154252222704617e-16
-6.391907088156522681e-16
-5.337386622032804383e-16
-3.872824437535018598e-16
-2.838607126805700261e-16
-2.260814508239814885e-16
-1.556866892798084514e-16
-1.178323188481087674e-16
-8.513644448227077337e-17
-6.202044019714465005e-17
-4.600119836583678324e-17
-3.466008237671421951e-17
-2.659751172529963923e-17
-2.074894143750189347e-17
-1.639873280437403847e-17
-1.303847717857324678e-17
-1.035412951696205608e-17
-8.154911784221670145e-18
-6.328075505411649633e-18
-4.811267155479009285e-18
-3.568659688429133765e-18
-2.575251797952745673e-18
-1.807358962524152060e-18
-1.235466631592594568e-18
