# bin_20_15
-1.806270649195958792e-10
-2.033298860702593086e-10
-2.248984479806944083e-10
-2.433835983494371376e-10
-2.562624945080261637e-10
-2.607510714388866354e-10
-2.542843405558434232e-10
-2.342362007051222944e-10
-2.040392774992309421e-10
-1.688210219750867161e-10
-1.384178343593387114e-10
-1.181988053910334961e-10
-1.012628604370911062e-10
-7.615325097317386008e-11
-5.317368688705861191e-11
-4.324665580879035893e-11
-2.909822522216508136e-11
-2.197821546179066822e-11
-1.494634108904029807e-11
-1.041262041497858324e-11
-7.299083210102750079e-12
-5.116794809154089159e-12
-3.608661516718459321e-12
-2.575081856121409392e-12
-1.873504878936566299e-12
-1.389785686340158902e-12
-1.049696239164281242e-12
-8.045431890086779224e-13
-6.217648926157936790e-13
-4.810100001549899251e-13
-3.697992581056988484e-13
