# bin_4_8
-1.196571989502496554e-17
-1.289054062736373205e-17
-1.350431480763900948e-17
-1.366897223018752138e-17
-1.323475191838977883e-17
-1.210119994711134598e-17
-1.046510017003515312e-17
-8.625459066606357387e-18
-7.086593277525445777e-18
-6.072099451173007922e-18
-5.155774153711987462e-18
-3.818456408218653513e-18
-2.716824506435778829e-18
-2.206180231379955483e-18
-1.496684184785814484e-18
-1.143783601099357622e-18
-8.065072663947839385e-19
-5.792126782377059453e-19
-4.228182663609225710e-19
-3.119079118580005179e-19
-2.338040899198294380e-19
-1.782731317494127959e-19
-1.382555893591606046e-19
-1.084409597524687895e-19
-8.546707281541426904e-20
-6.722291740841797204e-20
-5.239488605590647545e-20
-4.022317895049881821e-20
-3.025846643181511491e-20
-2.221575966807707026e-20
-1.588079468244792736e-20
