# bin_2_12
-3.487332060602569758e-45
-3.811725546760698977e-45
-4.066141924631460018e-45
-4.205131620389230640e-45
-4.192956676775178144e-45
-3.971704670438862989e-45
-3.552682115889579300e-45
-3.003846583009293012e-45
-2.457167816195124216e-45
-2.048327372352173355e-45
-1.773040677254151938e-45
-1.443747339001822138e-45
-1.012684899773189208e-45
-7.731105015752854677e-46
-5.907618806797076445e-46
-4.106884843990315667e-46
-2.978552422388318919e-46
-2.164143315865873965e-46
-1.543619327842349078e-46
-1.111233511650514403e-46
-8.131150880668235796e-47
-6.054551381073522432e-47
-4.589955002377977322e-47
-3.538452383115912887e-47
-2.759396975566993230e-47
-2.163594783292758200e-47
-1.693799562015746728e-47
-1.314710655467638060e-47
-1.005714199573348567e-47
-7.544748909523094723e-48
-5.529084358467636074e-48
