# bin_9_2
-2.193412033522185013e-09
-2.203865396325372078e-09
-2.114448627206452843e-09
-1.918481136179245604e-09
-1.647547189035197271e-09
-1.357367699845533253e-09
-1.121627868309585494e-09
-9.601422784800886892e-10
-8.006704226417855370e-10
-5.902593577645766850e-10
-4.322198378621998831e-10
-3.406091976621232311e-10
-2.404809503367121647e-10
-1.803468353475771491e-10
-1.309984577588689044e-10
-9.678114320863490121e-11
-7.253205468490513723e-11
-5.529045045949046006e-11
-4.293077271154195238e-11
-3.385527593214423534e-11
-2.699039996347638954e-11
-2.159315097317016066e-11
-1.720755425055509933e-11
-1.356374494086043754e-11
-1.050852057992073193e-11
-7.960540065899670677e-12
-5.874672229483152232e-12
-4.216094417654811645e-12
-2.943789786695676511e-12
-2.004047499895080842e-12
-1.334397224450731740e-12
