# bin_6_7
-8.780037755897765588e-12
-9.476775012373667431e-12
-9.951937299081899554e-12
-1.010071938174705401e-11
-9.819476053771300004e-12
-9.018677990856855383e-12
-7.834253476852883817e-12
-6.473126846762054912e-12
-5.309878267998123518e-12
-4.535327471629820998e-12
-3.870478915723153747e-12
-2.902221998445980943e-12
-2.047153590166788155e-12
-1.662832475976593452e-12
-1.137292798823238133e-12
-8.657698719051592578e-13
-6.068641858405568396e-13
-4.370380398502741731e-13
-3.185222532491799119e-13
-2.344770635015576943e-13
-1.752660197296587098e-13
-1.332381522008699876e-13
-1.030625937457187319e-13
-8.068966033635001247e-14
-6.353459195429357751e-14
-4.997175776593596345e-14
-3.898369993830748433e-14
-2.997769004348024743e-14
-2.260422851673940316e-14
-1.664443890255409627e-14
-1.193673398611283294e-14
