# bin_18_13
-2.302445657969360877e-10
-2.577185719669359293e-10
-2.831037924303589650e-10
-3.037803229298664278e-10
-3.164414864689627973e-10
-3.181166685688070242e-10
-3.047256633135818192e-10
-2.754892478959698134e-10
-2.354528996459277611e-10
-1.931479556664402025e-10
-1.598317965583026675e-10
-1.380441902372482445e-10
-1.149771446258976028e-10
-8.221194257674767819e-11
-6.040925509991496945e-11
-4.776660070798403052e-11
-3.203552333519620941e-11
-2.381349874418717398e-11
-1.675880205152625204e-11
-1.166027445675849706e-11
-8.187841753981702719e-12
-5.785447311656015074e-12
-4.144064052462514997e-12
-3.016007602614447323e-12
-2.239188974013861050e-12
-1.692535406762263855e-12
-1.298414547957521551e-12
-1.005396041762707540e-12
-7.801728578822644659e-13
-6.023419448936409594e-13
-4.597013409957579779e-13
