# bin_10_8
-2.405677923052955566e-10
-2.630062215813461674e-10
-2.806442429054388060e-10
-2.903616557058999066e-10
-2.896410219403930319e-10
-2.745696409807808279e-10
-2.458033481453000786e-10
-2.080469776015178328e-10
-1.702720337116645310e-10
-1.418729038862192579e-10
-1.227033076847344529e-10
-1.000292278769424304e-10
-7.042917879047050484e-11
-5.355930913671059123e-11
-4.102035137905891486e-11
-2.849311941133153522e-11
-2.073697785258574996e-11
-1.500785668087394153e-11
-1.070071596240081927e-11
-7.708172102940072792e-12
-5.636865856328722132e-12
-4.194060641249185593e-12
-3.176945635890801316e-12
-2.447406916096420355e-12
-1.907489490888699759e-12
-1.495052572277643438e-12
-1.170223345737835118e-12
-9.083534259008909878e-13
-6.950248628177809213e-13
-5.216075055472590879e-13
-3.824705299299942144e-13
