# bin_9_1
-3.036911156724609008e-09
-2.935637935648815255e-09
-2.687574892696452587e-09
-2.329446068818722934e-09
-1.930679545688470009e-09
-1.591116123599887819e-09
-1.352879203632416359e-09
-1.138164805990077630e-09
-8.609884483673105592e-10
-6.240782214820444188e-10
-4.897204287600329901e-10
-3.532996770183563770e-10
-2.626650763912007602e-10
-1.920331960840143742e-10
-1.428908728393329004e-10
-1.075875508448042459e-10
-8.247268800624185452e-11
-6.441641050907812754e-11
-5.109396125163668552e-11
-4.094209546734983142e-11
-3.289897735002404329e-11
-2.630942820576421484e-11
-2.079241691528831983e-11
-1.613795304910174775e-11
-1.223914598762113966e-11
-9.038903387845959530e-12
-6.491772800312319564e-12
-4.536839369319802357e-12
-3.092268906871564923e-12
-2.061940390395396917e-12
-1.349624424432309125e-12
