# bin_11_19
-8.548813706509395950e-20
-9.619328195290878005e-20
-1.063471557531168469e-19
-1.150232215406999276e-19
-1.210254104255316428e-19
-1.230445610259184008e-19
-1.198545800199909254e-19
-1.102472239717440648e-19
-9.590103952189688862e-20
-7.926916334011258276e-20
-6.500831111063178047e-20
-5.557987092805680872e-20
-4.757319848566511826e-20
-3.562296304861270610e-20
-2.489744903989512277e-20
-2.030305237849819731e-20
-1.356676988701281978e-20
-1.029498363721178467e-20
-7.009728780419601842e-21
-4.866246586081541875e-21
-3.414848198162563109e-21
-2.396248928591426244e-21
-1.690782885329170468e-21
-1.208303151860030172e-21
-8.800965608229807406e-22
-6.537108202983980005e-22
-4.944297770223687021e-22
-3.793980340299766621e-22
-2.934702483923075825e-22
-2.271757396529906677e-22
-1.747117324108208816e-22
