# bin_16_2
-5.424670348782398868e-62
-6.010413611103257744e-62
-6.520539921278371390e-62
-6.888918411142350080e-62
-7.038254141923055768e-62
-6.906566695154564216e-62
-6.409085103059070013e-62
-5.623271898716501325e-62
-4.674222180693262866e-62
-3.824099822434003494e-62
-3.244421680924852650e-62
-2.796911642427013905e-62
-2.151701663194571933e-62
-1.491195175197914293e-62
-1.205283284669175080e-62
-8.378290092267773113e-63
-6.259499281178068610e-63
-4.284102175486644070e-63
-3.069300492315806843e-63
-2.187702013655764839e-63
-1.567500484995289152e-63
-1.135794052112464117e-63
-8.357267932473240638e-64
-6.268277910742258075e-64
-4.784435304483502841e-64
-3.700824014158521443e-64
-2.884660163028883835e-64
-2.249565594999314043e-64
-1.742905775794227667e-64
-1.333140277905973063e-64
-1.001706736347249364e-64
