# bin_14_5
-2.269917657373737761e-29
-2.508215947656268319e-29
-2.712047210195166792e-29
-2.853381119611534537e-29
-2.901375987108549168e-29
-2.827519349603783263e-29
-2.602897806726823541e-29
-2.266080933025168678e-29
-1.874043771406029698e-29
-1.536027917587011739e-29
-1.311329087669809645e-29
-1.123114315312857379e-29
-8.448035262439126811e-30
-5.908992706274491010e-30
-4.816351343717131181e-30
-3.260059062400968375e-30
-2.480078350993689806e-30
-1.709742549838787095e-30
-1.211666430760840993e-30
-8.682430533453299060e-31
-6.257184354945746255e-31
-4.559477318803700286e-31
-3.376846251619643640e-31
-2.549387434293916606e-31
-1.956781649097031153e-31
-1.519738890691854768e-31
-1.187068185290676834e-31
-9.257669664097432203e-32
-7.159651773903605101e-32
-5.457952031005442210e-32
-4.082016506875952562e-32
