# bin_17_14
-7.990197700564972698e-10
-8.994399537998149608e-10
-9.948623275175328096e-10
-1.076665847549758145e-09
-1.133691815741829388e-09
-1.153570741629375993e-09
-1.125063784036821018e-09
-1.036338476664665094e-09
-9.027427035428767670e-10
-7.467898425336966853e-10
-6.121825686785324651e-10
-5.228521338379201243e-10
-4.481770603197959149e-10
-3.369306336744184903e-10
-2.349610517882189595e-10
-1.914816735397650478e-10
-1.284331250976594800e-10
-9.727649358981128449e-11
-6.608285727935381531e-11
-4.594761670963312344e-11
-3.222588800991399166e-11
-2.260053137310824320e-11
-1.592954100719204802e-11
-1.136771633162760962e-11
-8.267039370270740578e-12
-6.131197856835967538e-12
-4.631140272752084332e-12
-3.550270445577748895e-12
-2.744806625873642843e-12
-2.124713717197777069e-12
-1.634714194212811194e-12
