# bin_9_13
-7.005922214355764118e-12
-7.776567647016468289e-12
-8.455516001688759110e-12
-8.958151625238761848e-12
-9.182724344759641143e-12
-9.052121794084664059e-12
-8.446825499993135465e-12
-7.449914591887518169e-12
-6.217803229326699728e-12
-5.083650618562463661e-12
-4.293384283372547750e-12
-3.711231400009663766e-12
-2.900434137424430060e-12
-2.005531830633165081e-12
-1.603104764603222048e-12
-1.140992122347458748e-12
-8.359192139442857094e-13
-5.738914384207604812e-13
-4.143308026616903750e-13
-2.938502491547263745e-13
-2.093125106698834734e-13
-1.510560689401956184e-13
-1.106527218863822977e-13
-8.260165706332692088e-14
-6.278555441187674466e-14
-4.841187786603051826e-14
-3.766631839546534250e-14
-2.936281358526006348e-14
-2.277210821265442968e-14
-1.745585158494532913e-14
-1.315675001085140718e-14
