# bin_10_17
-6.549089151845385143e-18
-7.337633578804953381e-18
-8.070089206491738175e-18
-8.672548144053822441e-18
-9.051532707135174017e-18
-9.119523239316119050e-18
-8.763069818234130740e-18
-7.945958670944651479e-18
-6.812050230787444574e-18
-5.592774311706066514e-18
-4.618237184025238019e-18
-3.984668819972884729e-18
-3.339508622418732385e-18
-2.403326003019468509e-18
-1.747437869416341439e-18
-1.396433036591844655e-18
-9.293486585371122209e-19
-6.976402321045602145e-19
-4.878948235416533976e-19
-3.387377427834912316e-19
-2.377718701998387906e-19
-1.675710526410378386e-19
-1.196562583356905596e-19
-8.682212309570974501e-20
-6.424367099028138277e-20
-4.842966810860005155e-20
-3.708347022595945521e-20
-2.869095754134856001e-20
-2.227082430020080679e-20
-1.721843795094287248e-20
-1.317092661635059276e-20
