# bin_2_10
-3.840247670560380357e-30
-4.145633076802562709e-30
-4.354429153616188656e-30
-4.420487096157145830e-30
-4.298961186099170005e-30
-3.949376832502542524e-30
-3.431651388904553782e-30
-2.835222421978157745e-30
-2.324916373423259187e-30
-1.985788963830295449e-30
-1.696245544361171542e-30
-1.272206893243781278e-30
-8.956948082261862223e-31
-7.292407142434671824e-31
-4.973812393417118235e-31
-3.796496743868235564e-31
-2.657469109393294642e-31
-1.911929395248110026e-31
-1.394116334448361153e-31
-1.026663836210290239e-31
-7.674012813737699813e-32
-5.836953642187525929e-32
-4.516655353553836329e-32
-3.538252688237990568e-32
-2.788270499239030243e-32
-2.195084313430167301e-32
-1.714235751287065570e-32
-1.319797228025501312e-32
-9.964799823510555985e-33
-7.347729763065253946e-33
-5.277037892340023949e-33
