# bin_7_4
-5.050107919628724129e-11
-5.401084050612125285e-11
-5.606446148061430992e-11
-5.615732716157311601e-11
-5.355626786571189782e-11
-4.822732565243342658e-11
-4.106330444183213214e-11
-3.364811999910494071e-11
-2.789434477412166505e-11
-2.407918670920570740e-11
-1.990997943805447317e-11
-1.421023403404158213e-11
-1.058879278577219797e-11
-8.317638986931892829e-12
-5.717646260392240644e-12
-4.269581133209245656e-12
-3.090013024142461502e-12
-2.226911896787334036e-12
-1.630148418774051621e-12
-1.211966941928668236e-12
-9.178992144917555008e-13
-7.075302535578080787e-13
-5.534444522709729320e-13
-4.367081209994669248e-13
-3.452182943734630436e-13
-2.714722437351737429e-13
-2.109384145415635159e-13
-1.610294847395938164e-13
-1.202069503200170959e-13
-8.743977435120464317e-14
-6.188829859111556974e-14
