# bin_12_11
-2.311776253897607649e-08
-2.570098107986615117e-08
-2.799875224681929472e-08
-2.973434277228070802e-08
-3.056881030712528553e-08
-3.025078010397463766e-08
-2.836405351954062054e-08
-2.512887548875071879e-08
-2.105267113413684658e-08
-1.720921087371852460e-08
-1.447641205154588464e-08
-1.253178134622629610e-08
-9.926905944948949752e-09
-6.867577263939409382e-09
-5.422153559947114697e-09
-3.942591505157186354e-09
-2.833571532106621149e-09
-1.962194790798377626e-09
-1.421854551031672077e-09
-1.004116988456024037e-09
-7.115427975097759390e-10
-5.115974967203160360e-10
-3.732860774111632951e-10
-2.774642715818351537e-10
-2.100898018985431156e-10
-1.615060700966433749e-10
-1.254249432307739900e-10
-9.772186127126672923e-11
-7.583995482012046372e-11
-5.823759734275376359e-11
-4.400995409800701276e-11
