# bin_13_17
-3.885578289628957869e-11
-4.368979460396979890e-11
-4.825964072340108103e-11
-5.214095949722778346e-11
-5.478828879561705418e-11
-5.561925427310936336e-11
-5.405543370512470957e-11
-4.959963487261037735e-11
-4.303862662090527383e-11
-3.552717883554221800e-11
-2.916169109669342602e-11
-2.497569968021804646e-11
-2.131537368663474403e-11
-1.585065734274991573e-11
-1.113319126064477410e-11
-9.075347113143790114e-12
-6.036625034206463120e-12
-4.587661915343280840e-12
-3.137454960827777007e-12
-2.174739258127158219e-12
-1.526825462060010873e-12
-1.072089913828319665e-12
-7.579622363611312427e-13
-5.430831885112917778e-13
-3.966763716092615214e-13
-2.954371712428998521e-13
-2.239734044744558824e-13
-1.721495077972481983e-13
-1.332711407032307414e-13
-1.031629073920233283e-13
-7.927565304080592961e-14
