# bin_16_8
-3.570969052657296639e-22
-3.983322291346171284e-22
-4.357334260653949494e-22
-4.651234497686353246e-22
-4.812744318236919989e-22
-4.800959782097624051e-22
-4.548803903631333286e-22
-4.069461410620190120e-22
-3.440599408088826524e-22
-2.814686666437171494e-22
-2.347701308462755088e-22
-2.033828206569703752e-22
-1.655359097714951400e-22
-1.156929762284118603e-22
-8.831893955512942305e-23
-6.716834770686933883e-23
-4.634897779184140741e-23
-3.321571906295990290e-23
-2.389044823867238042e-23
-1.673420087827002988e-23
-1.176587604817422332e-23
-8.383616338387897100e-24
-6.062729655875031639e-24
-4.462395856038711883e-24
-3.348198079316046179e-24
-2.554852621902941782e-24
-1.974214375406124253e-24
-1.535040197747748928e-24
-1.192328245649154671e-24
-9.187253350463604441e-25
-6.980816159147879243e-25
