# bin_19_2
-3.604365614305917562e-78
-4.027706722863395754e-78
-4.415469545342489625e-78
-4.726083508766339589e-78
-4.907296725639122404e-78
-4.915230127595027172e-78
-4.683452064628048463e-78
-4.212135484574293055e-78
-3.580499847482215358e-78
-2.932220096333935056e-78
-2.435142744756705779e-78
-2.107766439949063063e-78
-1.737379333959113638e-78
-1.226482125001780126e-78
-9.181701770609405607e-79
-7.135550177694541399e-79
-4.838406978502852116e-79
-3.540282117322123738e-79
-2.519195480833190339e-79
-1.757817452375106287e-79
-1.234143614060994552e-79
-8.750707581198520318e-80
-6.296336290631281115e-80
-4.608649817106152949e-80
-3.439542909473130887e-80
-2.612634970014108777e-80
-2.012217156430741038e-80
-1.561992670922334508e-80
-1.213270767001586935e-80
-9.362981168641353781e-81
-7.134083725829634714e-81
