# bin_20_9
-8.099978080158398629e-31
-9.112035463522738370e-31
-1.007089804561682732e-30
-1.088854123046921643e-30
-1.145150926681698490e-30
-1.163663360066591443e-30
-1.132628154411367381e-30
-1.040952247930601646e-30
-9.047269729637333362e-31
-7.474688918043990083e-31
-6.131692237014887411e-31
-5.245590883594353736e-31
-4.485680736878808952e-31
-3.350868535412621110e-31
-2.345576666820480555e-31
-1.912962532109844278e-31
-1.275845550391970245e-31
-9.689279991740023330e-32
-6.607053888324540130e-32
-4.583473807539766677e-32
-3.217137246806929643e-32
-2.258095724421366444e-32
-1.594368742314951735e-32
-1.140404440805390246e-32
-8.314332143331294285e-33
-6.181358574369011404e-33
-4.678975571222347067e-33
-3.592445616278202815e-33
-2.779627319216905337e-33
-2.151713862636687285e-33
-1.654359367036075826e-33
