# bin_14_12
-5.285432401171682681e-09
-5.907689114432069148e-09
-6.478421140034566804e-09
-6.936792856898705818e-09
-7.206302178271243820e-09
-7.222015225896478882e-09
-6.886949391646678016e-09
-6.198548314200447534e-09
-5.273166096052113744e-09
-4.319211114139482894e-09
-3.584910856505334674e-09
-3.102347035358261301e-09
-2.561475611545379162e-09
-1.811148730029628394e-09
-1.352136623878806523e-09
-1.053841352532220887e-09
-7.130319950070999628e-10
-5.231808373634460310e-10
-3.716741979462396460e-10
-2.592115151724335063e-10
-1.819741860218081958e-10
-1.289457966516681194e-10
-9.271383797775284933e-11
-6.780920155150152262e-11
-5.056898483748766543e-11
-3.838621335036652763e-11
-2.955007952133912213e-11
-2.293244225976018320e-11
-1.781231265933932146e-11
-1.374878374051463596e-11
-1.047983090206889009e-11
