# bin_6_13
-8.166581154843121420e-21
-9.012423526770216512e-21
-9.729525380130826310e-21
-1.021643312310925522e-20
-1.036538528757168898e-20
-1.006824682545443625e-20
-9.234612464045703534e-21
-8.010419604650511821e-21
-6.611200033666765463e-21
-5.425510067333895589e-21
-4.643946862913788085e-21
-3.961173111774201197e-21
-2.949479076724520503e-21
-2.077189838388635296e-21
-1.693383057704467027e-21
-1.137772185672487888e-21
-8.684419407558559102e-22
-6.021588612472508539e-22
-4.255813800704588076e-22
-3.053121721719969623e-22
-2.203429188395832033e-22
-1.609687649591147398e-22
-1.195744583174400112e-22
-9.053292828479197812e-23
-6.965364708311668810e-23
-5.418583337072335354e-23
-4.235641913620097623e-23
-3.302768357663129636e-23
-2.551810736654431400e-23
-1.942106696418336127e-23
-1.449310325049481336e-23
