# bin_5_11
-2.070896028439235203e-18
-2.264955210816968928e-18
-2.418078992425346137e-18
-2.503348041397567239e-18
-2.499215340488792327e-18
-2.371358626359914472e-18
-2.124539144608603148e-18
-1.799135985618373588e-18
-1.472089565866220130e-18
-1.225562787271199231e-18
-1.060674542392079453e-18
-8.670801499140573753e-19
-6.096740125983168495e-19
-4.627915316342190739e-19
-3.559180393070567864e-19
-2.460362725765467499e-19
-1.794378917463151493e-19
-1.300332678105886267e-19
-9.262884989082550389e-20
-6.663023691755601147e-20
-4.869083736630468190e-20
-3.621447097846692501e-20
-2.742942892299860556e-20
-2.112862028174317422e-20
-1.647323233424892655e-20
-1.291988907401316054e-20
-1.012218492982459671e-20
-7.866529401544893138e-21
-6.027769544225193667e-21
-4.531210931055241292e-21
-3.328442545507671251e-21
