# bin_13_13
-3.589740393733477889e-08
-4.011970764172247131e-08
-4.399034531893802027e-08
-4.709580576017007026e-08
-4.891617969509376559e-08
-4.901203541815475207e-08
-4.672356865336025019e-08
-4.204088585249951802e-08
-3.575372707124304063e-08
-2.928356268967042719e-08
-2.431071082437942031e-08
-2.103977379850207765e-08
-1.736022182506498787e-08
-1.226737536582830084e-08
-9.168198021133395958e-09
-7.137564000223456167e-09
-4.833424114569352684e-09
-3.542616841863171287e-09
-2.518328230924090718e-09
-1.756675603802597274e-09
-1.233289320347771399e-09
-8.741269001061967598e-10
-6.286863721571287237e-10
-4.599535300971800809e-10
-3.431164128129235569e-10
-2.605235190963695056e-10
-2.005927737666736628e-10
-1.556869461688413557e-10
-1.209278529888331757e-10
-9.333323751749692541e-11
-7.113139471756088747e-11
