# bin_16_10
-1.502091650823886347e-15
-1.679998946435059547e-15
-1.843732617727501969e-15
-1.976093075255589324e-15
-2.055424679771037584e-15
-2.062842683452165880e-15
-1.971122766040940091e-15
-1.777518770401414597e-15
-1.515183745108629516e-15
-1.241713000565066853e-15
-1.029126700594369441e-15
-8.900723010905833054e-16
-7.379668250840667556e-16
-5.240105321772374737e-16
-3.884833909977847351e-16
-3.049476783308256225e-16
-2.052561334481077509e-16
-1.516322295693285413e-16
-1.072709632973929314e-16
-7.471702796110128053e-17
-5.244444205058717146e-17
-3.710171647168183406e-17
-2.662760631923507723e-17
-1.943480510479658428e-17
-1.446444087126648978e-17
-1.096046873135637317e-17
-8.426330337422703216e-18
-6.534554020432764703e-18
-5.075080639587533895e-18
-3.919196481003264209e-18
-2.990226062904627647e-18
