# bin_10_1
-1.276422244393183187e-37
-1.373960787603898686e-37
-1.437938269457292641e-37
-1.453825621763944130e-37
-1.405302781644947129e-37
-1.282609608497998859e-37
-1.107169664261812471e-37
-9.116672437485642347e-38
-7.495717379427776107e-38
-6.430576689987455162e-38
-5.447566672529695136e-38
-4.013930660979732288e-38
-2.867655358061272776e-38
-2.326259813449125174e-38
-1.574292972773502789e-38
-1.203817552126354765e-38
-8.510571121596079351e-39
-6.107270265660699229e-39
-4.460623373795247012e-39
-3.293469939777003249e-39
-2.471950640848999131e-39
-1.888431854125582576e-39
-1.466684893581793649e-39
-1.151964140500688560e-39
-9.089652283548168670e-40
-7.155329210570461209e-40
-5.580220769752308877e-40
-4.285459875791916197e-40
-3.224390718965581623e-40
-2.367429220561289963e-40
-1.692287796718540109e-40
