# bin_20_20
-2.882715962691932438e-08
-3.273218875110563739e-08
-3.658972821615753873e-08
-4.011579184766263311e-08
-4.292940754116381203e-08
-4.455156411992217110e-08
-4.458861293122539360e-08
-4.242633412673619246e-08
-3.810260456222341265e-08
-3.233769683779299951e-08
-2.647706848001756281e-08
-2.202619160952806156e-08
-1.908313559323268959e-08
-1.566676645415699263e-08
-1.100043346157956501e-08
-8.281045083968673263e-09
-6.370201829300954079e-09
-4.311688887984915489e-09
-3.102216434321492288e-09
-2.186967434686796122e-09
-1.496147108530880494e-09
-1.021420697997753896e-09
-7.004087082138976541e-10
-4.841789739075004418e-10
-3.387317526097380483e-10
-2.411977768525076037e-10
-1.751911844524757080e-10
-1.299454739195258074e-10
-9.818775043828908485e-11
-7.519811631562048935e-11
-5.795814187504736289e-11
