# bin_15_4
-4.038708329056110144e-40
-4.470046934989220205e-40
-4.843106290024719728e-40
-5.108399986296890540e-40
-5.209289451009685682e-40
-5.098101563117932896e-40
-4.715841926352363165e-40
-4.125050146104545948e-40
-3.421528549561032687e-40
-2.800910401856719932e-40
-2.382399040417632530e-40
-2.049289936332889051e-40
-1.562441525321082405e-40
-1.085842052309194381e-40
-8.816165630673903605e-41
-6.055227753406639076e-41
-4.564232605305870680e-41
-3.128772443664472786e-41
-2.230686737625861268e-41
-1.593992494985338415e-41
-1.145299461302151339e-41
-8.317386829083533168e-42
-6.135789637256701906e-42
-4.614242253953856824e-42
-3.529978813428579407e-42
-2.735078465413366408e-42
-2.133831464178883891e-42
-1.664184278643381897e-42
-1.288509365799923460e-42
-9.842925471150766694e-43
-7.382423559747942944e-43
