# bin_9_16
-1.573228542903148838e-18
-1.757215482147037636e-18
-1.925325075830724961e-18
-2.059346092494346519e-18
-2.136407480047630638e-18
-2.137671982767253013e-18
-2.033930413624932579e-18
-1.826757408345049532e-18
-1.550633815770706690e-18
-1.269470891622723913e-18
-1.055396713415854483e-18
-9.138105731072067410e-19
-7.509074780320328970e-19
-5.285905108478499460e-19
-3.977007727598955955e-19
-3.074356796665983123e-19
-2.093145013761577279e-19
-1.523705798033082875e-19
-1.087458927003452096e-19
-7.595145909564683084e-20
-5.333597952565182851e-20
-3.786394771592141981e-20
-2.727973095107088394e-20
-1.999662117648391737e-20
-1.494494273884104075e-20
-1.136579759367169893e-20
-8.761659259461904859e-21
-6.804513217635400139e-21
-5.285581795408643159e-21
-4.077469379198449370e-21
-3.104655313166470561e-21
