# bin_13_11
-4.914415840838449863e-09
-5.474333562287276189e-09
-5.978202070740904240e-09
-6.367948355191788784e-09
-6.571354126591704496e-09
-6.533976317790129461e-09
-6.164001009971576384e-09
-5.492183350694457192e-09
-4.625292310762776756e-09
-3.781970051303088985e-09
-3.165554661162639749e-09
-2.742400132441265505e-09
-2.208214180741164351e-09
-1.534674665707303152e-09
-1.188858447859604083e-09
-8.880004758190277971e-10
-6.226134107175072941e-10
-4.392042934101071094e-10
-3.176498581999246865e-10
-2.232196478936303986e-10
-1.573341748686639854e-10
-1.125415773887937247e-10
-8.169488978539119203e-11
-6.038135974595702608e-11
-4.548242110868053615e-11
-3.481828043772025501e-11
-2.696554955393097198e-11
-2.098784105037162963e-11
-1.629829881260967520e-11
-1.254151506625943697e-11
-9.508328369385186867e-12
