# bin_18_18
-3.001649141143602018e-08
-3.396786717533919245e-08
-3.781084630411747600e-08
-4.124042509399176258e-08
-4.384859454146518358e-08
-4.513264688897691786e-08
-4.472298118822500802e-08
-4.199365678086026004e-08
-3.725057897074043332e-08
-3.123954958000102521e-08
-2.554123856649173742e-08
-2.147718283605848676e-08
-1.860646556720089657e-08
-1.477344045255754976e-08
-1.019968589938223122e-08
-8.028398821016429841e-09
-5.832803486504178803e-09
-4.149652730978707277e-09
-2.837956786422186143e-09
-2.030476014605641575e-09
-1.401827269142840238e-09
-9.641915449084537639e-10
-6.693782015640601546e-10
-4.688336494317980035e-10
-3.334355636057070283e-10
-2.417286223809084466e-10
-1.787826674745048918e-10
-1.347832272011521857e-10
-1.031108097374788350e-10
-7.953644063091208629e-11
-6.139551204735908529e-11
