# bin_19_19
-2.936533522517389485e-08
-3.329021313539912392e-08
-3.713838656364734329e-08
-4.061671536167270306e-08
-4.333144233841590189e-08
-4.479032208409435360e-08
-4.461867639505251376e-08
-4.218375324030995037e-08
-3.765994913843977431e-08
-3.177100842257781849e-08
-2.598821176923450491e-08
-2.173091593193443168e-08
-1.883653239472340332e-08
-1.523249811758136853e-08
-1.058478209941222052e-08
-8.147121608054250159e-09
-6.105149033804540068e-09
-4.222639521989599889e-09
-2.959872931491425317e-09
-2.110049266423255339e-09
-1.449474424151774180e-09
-9.913788362860113124e-10
-6.839041724578155592e-10
-4.757969620421696080e-10
-3.355292601661417492e-10
-2.410369809411487466e-10
-1.766676642728920972e-10
-1.321376133962323676e-10
-1.004998812591011868e-10
-7.728032460164507186e-11
-5.963683820004190584e-11
