# bin_9_18
1.522453260382713730e-07
1.675257120630946123e-07
1.802151438046891535e-07
1.884015600170797450e-07
1.902145258366073055e-07
1.834508861764305070e-07
1.670386729964731362e-07
1.438287545975381135e-07
1.183137139222875375e-07
9.742108137638549446e-08
8.370585907747586696e-08
7.060392896619991322e-08
5.161789011742670275e-08
3.708136354682699363e-08
2.986145214452883838e-08
2.009926865691289789e-08
1.522250611079027971e-08
1.068804042747386019e-08
7.560903408973625517e-09
5.425831785372620524e-09
3.925328173833625257e-09
2.882188687231626778e-09
2.152190434043197046e-09
1.637686585294305428e-09
1.264663482710031092e-09
9.858250901073483389e-10
7.707503845759239486e-10
5.999952923226919382e-10
4.620317855103884252e-10
3.499900356824008949e-10
2.596610381532367623e-10
