# bin_9_5
6.014036166480595777e-15
6.530928379245891671e-15
6.911217490898248278e-15
7.077310451952473869e-15
6.969211290834371142e-15
6.497178755704865979e-15
5.725779661796043590e-15
4.776542158057455771e-15
3.904064188602884554e-15
3.295038785212776115e-15
2.844549594275969773e-15
2.223409460844920193e-15
1.543133071315365932e-15
1.232494027104463664e-15
8.829663874867186272e-16
6.495519639821805149e-16
4.530223095462400005e-16
3.306749136418712892e-16
2.387040255272167253e-16
1.738139124783336333e-16
1.286339103995192639e-16
9.679423924258061721e-17
7.416800468540850249e-17
5.766201632307528295e-17
4.521733433170761908e-17
3.553305880706375637e-17
2.778215282878929899e-17
2.147026409755493791e-17
1.630826698241073801e-17
1.212056887147353332e-17
8.784655403453651221e-18
