# bin_13_18
6.449573214675733001e-08
7.216198962755120699e-08
7.923509103608249878e-08
8.498159794494534374e-08
8.847691045126983556e-08
8.889554117026752565e-08
8.509611982584996814e-08
7.688071081831179929e-08
6.566355457975340308e-08
5.384389053668350349e-08
4.455536305284232661e-08
3.847710449972780093e-08
3.201527147351294026e-08
2.286569737997079810e-08
1.681936714952854047e-08
1.328021705177749798e-08
8.911177174184745018e-09
6.615398390215357082e-09
4.657966313681641213e-09
3.240711915890231648e-09
2.275079457290563327e-09
1.607540737366196960e-09
1.151562229805495003e-09
8.382301021079625061e-10
6.224390289530509343e-10
4.705557914461263005e-10
3.610199279660703128e-10
2.795492356547786837e-10
2.169034696652031143e-10
1.674256691506494011e-10
1.277353779786938410e-10
