# bin_11_14
5.387869661235831143e-08
5.983366171161608873e-08
6.509845109421929943e-08
6.902657642951529046e-08
7.083752886596313822e-08
6.993611071331636932e-08
6.539474822438213462e-08
5.778805916474696525e-08
4.831683093396945812e-08
3.949715806391355625e-08
3.328132424733619751e-08
2.876820264712485502e-08
2.262894189781499912e-08
1.567153045631277743e-08
1.242679728588587274e-08
8.944386384735006787e-09
6.481832718786529205e-09
4.483386734229227932e-09
3.235841687936809871e-09
2.289733907636072448e-09
1.626757276457341315e-09
1.171515186395991215e-09
8.560403859567454602e-10
6.374159097596713959e-10
4.833755555753342970e-10
3.719032070776239983e-10
2.888661581292248165e-10
2.249315520195011544e-10
1.743328341912237640e-10
1.336062477961614458e-10
1.007134635365902888e-10
