# bin_18_2
1.180160741902364739e-75
1.316994916131747309e-75
1.441458411257282192e-75
1.539843397306419398e-75
1.594974697631354035e-75
1.593095181223794365e-75
1.512232055276558561e-75
1.355205730378047599e-75
1.147791765086026210e-75
9.390543665397090072e-76
7.817084288535295643e-76
6.768500327938931215e-76
5.534973252030125637e-76
3.881552674577087777e-76
2.940373117149754430e-76
2.254844931720380914e-76
1.544794082963320967e-76
1.115955531268322530e-76
7.994332266648628933e-77
5.590954162843698869e-77
3.928213526298497235e-77
2.793536218499598619e-77
2.016281240879663690e-77
1.480559873988030158e-77
1.108652075109703863e-77
8.442617946748219933e-78
6.513124740624499709e-78
5.058539345650814231e-78
3.926571052218032622e-78
3.024785534830279323e-78
2.298484760142270314e-78
