# bin_2_14
5.967801469035021204e-07
5.988576770201906129e-07
5.736290095129298941e-07
5.196123652784732334e-07
4.455348344264724124e-07
3.667954833252886584e-07
3.032362205003221459e-07
2.596222711850533765e-07
2.159561078735857850e-07
1.587722652720735164e-07
1.165744655223435545e-07
9.166472696407310705e-08
6.472899446926906567e-08
4.851230115531902655e-08
3.526538216358865876e-08
2.605545489557966771e-08
1.953611582500841373e-08
1.490106666275109779e-08
1.157649833733917828e-08
9.133255949610653847e-09
7.282890011670010766e-09
5.826310509921335032e-09
4.641610562504918038e-09
3.656764004205617564e-09
2.830977819765392850e-09
2.142618742290841925e-09
1.579623313843750761e-09
1.132500199175510030e-09
7.899810626633036749e-10
5.373315898324452556e-10
3.575169167527504618e-10
