# bin_18_18
4.842363204207383464e-09
5.478836870621283353e-09
6.097623786167391404e-09
6.649606849900918221e-09
7.069152940453684994e-09
7.275479648603104198e-09
7.208945499834883398e-09
6.769176317018528121e-09
6.004715212615329084e-09
5.035904095754006245e-09
4.116413512536557183e-09
3.459458365350950421e-09
2.996044478634283478e-09
2.380299825639552978e-09
1.644064134009278255e-09
1.291898066177328253e-09
9.398870121303836769e-10
6.675400562437584776e-10
4.573915262536491693e-10
3.269629581266544729e-10
2.256883387222957217e-10
1.552188375648622812e-10
1.077447806864133820e-10
7.543912311082186292e-11
5.364218086704490837e-11
3.888589185046581848e-11
2.875009921205370172e-11
2.166626889861057820e-11
1.656797820963058278e-11
1.277350468818613736e-11
9.854302712217296966e-12
