# bin_3_8
3.224324671534319301e-07
3.316319243812599622e-07
3.284869534782484176e-07
3.090082345800553473e-07
2.747869173686599473e-07
2.314447687843228607e-07
1.895228473199916005e-07
1.585577852960446296e-07
1.364459781003979179e-07
1.094665723756729485e-07
7.769885826024994746e-08
5.980489214306233334e-08
4.509992127934027407e-08
3.229581764656583636e-08
2.367021858526440578e-08
1.738758653260679019e-08
1.278689333918877143e-08
9.555382923827781099e-09
7.272037185356769840e-09
5.634702074386300053e-09
4.432995800680290086e-09
3.522464441224086875e-09
2.806344815608401777e-09
2.225545801048973726e-09
1.744808444472069444e-09
1.343961119239407638e-09
1.011956933904773147e-09
7.422712443863056313e-10
5.294691295652884479e-10
3.675316718300681043e-10
2.488222206465532555e-10
