# bin_20_7
1.036095688941504513e-44
1.165139756011775233e-44
1.287247339196153263e-44
1.391161802019444517e-44
1.462398217933789041e-44
1.485313819695125822e-44
1.444814776408145716e-44
1.327036187462776712e-44
1.152650799270580871e-44
9.518524655779126402e-45
7.807059244401570454e-45
6.678475405088385483e-45
5.707028600508497943e-45
4.258278519463897435e-45
2.982177005518286899e-45
2.431288292160069101e-45
1.620501794996202600e-45
1.230587730371780590e-45
8.395709357277573061e-46
5.823458810572945647e-46
4.087664314913752016e-46
2.869475732348514047e-46
2.027340824223733850e-46
1.450106007329058323e-46
1.057903132332031045e-46
7.868543675758155089e-47
5.957131560987192908e-47
4.573786019379190996e-47
3.537943544095625593e-47
2.737115628989879681e-47
2.102609297658944611e-47
