# bin_16_3
1.218649402075236367e-55
1.353213934247506257e-55
1.472107410919545360e-55
1.560689593311741484e-55
1.601229083428792642e-55
1.580468141039128877e-55
1.477208874160002295e-55
1.304840152990855892e-55
1.090343791564837260e-55
8.910931674319421244e-56
7.511561400433356758e-56
6.495984756867546098e-56
5.103338626854807160e-56
3.527325753649004738e-56
2.806119718893923002e-56
2.013940975598579993e-56
1.464245270582772537e-56
1.007708781548946262e-56
7.289174291159781420e-57
5.159859158700505664e-57
3.667014479861589986e-57
2.642304383079231624e-57
1.931543291762346879e-57
1.438970357354021968e-57
1.091736208592364983e-57
8.403129693929306055e-58
6.529014845260855671e-58
5.084939539834283017e-58
3.941315913222775095e-58
3.020361855341323864e-58
2.276371023266158857e-58
