# bin_14_12
1.646566540304314552e-10
1.841250832688573256e-10
2.020332000267859547e-10
2.164997949150478208e-10
2.251573941923268942e-10
2.259406849314304739e-10
2.158838815358755373e-10
1.946749201635471084e-10
1.659439629722569739e-10
1.359722006418097218e-10
1.126454821956119002e-10
9.737799224702617588e-11
8.074887450848069387e-11
5.737542128024741472e-11
4.248467460345704828e-11
3.336596802887907471e-11
2.244967185409191735e-11
1.659125604742399546e-11
1.172888415297316821e-11
8.167928067595178932e-12
5.733435634241398474e-12
4.055438844055339378e-12
2.910055013147895849e-12
2.122631780633423522e-12
1.579369423499884367e-12
1.196137809076601499e-12
9.190124021376399944e-13
7.122369150258734853e-13
5.527713517854196205e-13
4.265408730778324562e-13
3.251583970437328627e-13
