# bin_8_17
1.743265750296109650e-07
1.906579760180628763e-07
2.035537986636507171e-07
2.107637462645312471e-07
2.104431729140455245e-07
1.997827566432260714e-07
1.791006157893571138e-07
1.518027169718059048e-07
1.242536552840048678e-07
1.033694834139154569e-07
8.934580073330207222e-08
7.309563583204094814e-08
5.161807303029230644e-08
3.901374575489587558e-08
3.005713485732683157e-08
2.077617101177992391e-08
1.519408606066179436e-08
1.096341352168215558e-08
7.806853834482926095e-09
5.619504966533112236e-09
4.103681443293825178e-09
3.048821085203833017e-09
2.305936793480242456e-09
1.774141043649683318e-09
1.381425831289635259e-09
1.082099971461583151e-09
8.468391679954258766e-10
6.574550357137205198e-10
5.033011727277816668e-10
3.780100377396142492e-10
2.774531315404118673e-10
