# bin_17_16
1.384010528555349062e-09
1.561686409790250928e-09
1.732369419194947489e-09
1.881590343068081732e-09
1.990297340075668603e-09
2.035969329193560595e-09
2.001042454848047569e-09
1.860170290938856662e-09
1.634697242133013691e-09
1.360252242358170520e-09
1.112548725719593838e-09
9.428444584443365575e-10
8.137626105481221700e-10
6.282540695578076613e-10
4.338894253152395764e-10
3.494694127172068783e-10
2.427410955114462886e-10
1.794933323562644180e-10
1.209744925827372953e-10
8.548130770030992180e-11
5.952967317190728452e-11
4.142322117804295831e-11
2.899325484411925137e-11
2.049235126993246816e-11
1.474687399969633670e-11
1.082229992646677863e-11
8.095343965818511274e-12
6.159608466665401427e-12
4.740390976617327037e-12
3.664270121616318919e-12
2.823587308038944427e-12
