# bin_7_19
2.329771000317668600e-07
2.529692081793478516e-07
2.676612294733396007e-07
2.740802058342962508e-07
2.698291615261713632e-07
2.515491048012498948e-07
2.216793751535326028e-07
1.850228859060369794e-07
1.513094372559264974e-07
1.276849705067036772e-07
1.100826555680804599e-07
8.606327538946877937e-08
5.995413817678429245e-08
4.767521408186709470e-08
3.426148789938648996e-08
2.510532790793057008e-08
1.762950459244194217e-08
1.283237884683864923e-08
9.258549978965821945e-09
6.739860793106738109e-09
4.986376238899568649e-09
3.751733193384114765e-09
2.874128282600922270e-09
2.234000878934172125e-09
1.751462334714851640e-09
1.376042999646564606e-09
1.075676305399773218e-09
8.311614881192222478e-10
6.312606300257965207e-10
4.691376150347081055e-10
3.400326683863668906e-10
