# bin_3_14
4.623178239053797704e-07
4.757992622251295868e-07
4.716530021415643010e-07
4.441296180606081566e-07
3.953269191278172461e-07
3.332598517880428165e-07
2.729217226479316436e-07
2.281651514950464179e-07
1.963627315050046693e-07
1.578955214857246737e-07
1.121799540382009687e-07
8.612769584975566262e-08
6.514493906080996014e-08
4.654954510315558370e-08
3.416898584801062672e-08
2.508115612490309276e-08
1.843502408889483761e-08
1.376957711083222897e-08
1.047321839407140036e-08
8.110767914577957583e-09
6.378067035421354436e-09
5.066566098168836165e-09
4.036114171736159667e-09
3.201060929254974050e-09
2.510244287561970438e-09
1.934335175415974111e-09
1.457263145751346804e-09
1.069557499431044501e-09
7.634100048073399934e-10
5.302412810077033056e-10
3.591684273102012233e-10
