# bin_11_9
1.251738610755414343e-10
1.383348409043132961e-10
1.496101292929137064e-10
1.574600423192194964e-10
1.601788081146268052e-10
1.562171620592548064e-10
1.439454389279096215e-10
1.254354618829221610e-10
1.037929393025007203e-10
8.502907155420226309e-11
7.249665059715676740e-11
6.212947306039638152e-11
4.689411005905833698e-11
3.275706086260959281e-11
2.664258439585280749e-11
1.812417877589703590e-11
1.373586306901653225e-11
9.457562697881219558e-12
6.716654190274498732e-12
4.807572853823582919e-12
3.460739944838034343e-12
2.519630948876261791e-12
1.863076129693905007e-12
1.404794513786846752e-12
1.076882545062943443e-12
8.353157334058581301e-13
6.517926967376038405e-13
5.078895353182018857e-13
3.925121534554423894e-13
2.990414849046618152e-13
2.235385700711815243e-13
