# bin_10_20
1.429206961576852107e-07
1.580834436360911897e-07
1.711499349104958778e-07
1.803695015940693728e-07
1.837713309339655443e-07
1.796248562122601857e-07
1.659604156167188210e-07
1.449941431479502362e-07
1.202073345608873303e-07
9.843380916514268036e-08
8.373930521854838468e-08
7.188293596031810980e-08
5.468610367857130962e-08
3.812729424454198757e-08
3.086545453477705496e-08
2.123350100480549237e-08
1.595247167252314387e-08
1.098133791146111947e-08
7.830401719126910841e-09
5.591697958934406957e-09
4.014769370507867047e-09
2.917147247267064279e-09
2.152272476766469030e-09
1.619121667145052583e-09
1.238749656404112105e-09
9.594699159893830073e-10
7.480646257318166405e-10
5.828437055540169204e-10
4.506794897737488781e-10
3.437293870674673840e-10
2.573382161252627173e-10
