# bin_17_13
4.484086035241534259e-13
5.046065793674495657e-13
5.579514233903621397e-13
6.036080421854550913e-13
6.353272390988826704e-13
6.462079164292336595e-13
6.299351377876084976e-13
5.799773386667727835e-13
5.049693030263288434e-13
4.175732051341317784e-13
3.422355116163104392e-13
2.922477180292061410e-13
2.503745475197128916e-13
1.880878153000694407e-13
1.311915057358036806e-13
1.068744423498784523e-13
7.166283587429172191e-14
5.426498600050526756e-14
3.687458674531609194e-14
2.563861814958457916e-14
1.798140899487479420e-14
1.261106185419347958e-14
8.893097404403361385e-15
6.345260128391459822e-15
4.616544468238052993e-15
3.424769047812792429e-15
2.586921194049748428e-15
1.982936514349590168e-15
1.532552111890146858e-15
1.185631236625915960e-15
9.114536057255569785e-16
