# bin_12_11
1.560533671754025527e-09
1.734907419623839661e-09
1.890092074323213928e-09
2.007474596940558472e-09
2.064254176894368371e-09
2.043438929582321889e-09
1.916998264553348446e-09
1.699161640733245588e-09
1.424192265436757028e-09
1.163955796020194900e-09
9.781760184100958730e-10
8.465593331317694239e-10
6.719331957680883184e-10
4.651904859329084736e-10
3.661147061319217679e-10
2.671848202463965466e-10
1.912936303089631074e-10
1.328873377839825528e-10
9.621029569626973457e-11
6.789000371696096024e-11
4.806768086409562848e-11
3.453112313631647436e-11
2.516737042827646429e-11
1.868617789020449432e-11
1.413455492473613807e-11
1.085351880701532574e-11
8.420183746655696987e-12
6.554625231864748055e-12
5.082910013371176488e-12
3.900390364914673000e-12
2.945533525007474803e-12
