# bin_19_17
2.301111981992412631e-10
2.605303512546104123e-10
2.901922893322218724e-10
3.167793238895067788e-10
3.371869480722817530e-10
3.475677512379486577e-10
3.450702393863184388e-10
3.248354619006025821e-10
2.888277840747312056e-10
2.427380647399784057e-10
1.984324998069911839e-10
1.664206076059591197e-10
1.441819954242863798e-10
1.153434743458103915e-10
7.979412730284099488e-11
6.222387191133395947e-11
4.579453141809998120e-11
3.218269989427697981e-11
2.222206900662075107e-11
1.588805102734169472e-11
1.094563637268948313e-11
7.509353756974664393e-12
5.200976767095313912e-12
3.632994550111704172e-12
2.575380899207365076e-12
1.860932150183800761e-12
1.371548772568483048e-12
1.030815850388207283e-12
7.867439244153206136e-13
6.059893084198662304e-13
4.675302314143364734e-13
