# bin_6_12
1.897663221754807522e-07
2.041681836726305121e-07
2.135561153425437273e-07
2.157929400803722030e-07
2.084644747205838772e-07
1.902264017169263284e-07
1.641727119187683075e-07
1.352466918294451394e-07
1.112541915135642182e-07
9.533737585961630898e-08
8.058843540918092713e-08
5.949462699933584801e-08
4.263846968161821397e-08
3.432332749552873066e-08
2.346360610958105374e-08
1.778106930266419271e-08
1.258547992269141277e-08
9.058879208217665296e-09
6.608775592729961963e-09
4.877017654973775247e-09
3.659067166956356953e-09
2.792603569792666387e-09
2.167070385538624035e-09
1.700231539283893681e-09
1.339913944190202458e-09
1.053396626981923777e-09
8.203761279353052245e-10
6.291064878963391744e-10
4.726359435651513785e-10
3.465160953319176822e-10
2.473602429451336050e-10
