# bin_12_13
1.937623007353310873e-08
2.158471325299848320e-08
2.357360063993959690e-08
2.511491023500330375e-08
2.592546398902309610e-08
2.578831080377500963e-08
2.434547650402056627e-08
2.170648848963283734e-08
1.829405457552696071e-08
1.495780569403910484e-08
1.250601935279251377e-08
1.082889034414412326e-08
8.737437415623040848e-09
6.085157133248217022e-09
4.693843507631712545e-09
3.519839014700496070e-09
2.459222166033645452e-09
1.742922396840236188e-09
1.256748564315075785e-09
8.824218294145610842e-10
6.218390638108400507e-10
4.443069711939701616e-10
3.221407026254167757e-10
2.377719215469648184e-10
1.788936881556887281e-10
1.367699027003238495e-10
1.057990667329831096e-10
8.226583983055503063e-11
6.383252311532039316e-11
4.908611411832874989e-11
3.719330347125821401e-11
