# bin_2_20
6.640042784182878159e-07
6.664484182599616848e-07
6.385461152402298723e-07
5.785786953542963731e-07
4.962284269396954913e-07
4.085730094636733740e-07
3.377249105017059851e-07
2.891199782225989984e-07
2.406010543882014290e-07
1.769907187342548341e-07
1.298729455978327837e-07
1.021587846844868804e-07
7.213867509111981474e-08
5.406900923279142033e-08
3.929666744803694669e-08
2.903293857568469131e-08
2.176587697536675490e-08
1.659925818091805321e-08
1.289392161464702542e-08
1.017138304863476096e-08
8.110054846551824437e-09
6.487861957528114270e-09
5.168762212602605476e-09
4.072351539994651180e-09
3.153068381837394344e-09
2.386738773328204282e-09
1.759889106680625092e-09
1.261956638559985857e-09
8.804260562968739603e-10
5.989362376829129410e-10
3.985537303450024068e-10
