# bin_6_14
2.235078584143289518e-07
2.405023448298739613e-07
2.516030958002402601e-07
2.542869376568344938e-07
2.457195301095209317e-07
2.242886817540523788e-07
1.936274479533357385e-07
1.595351231409915209e-07
1.312167974074181173e-07
1.124232823303157750e-07
9.506916937416626296e-08
7.023963365649445190e-08
5.030502670987832294e-08
4.050464109366527300e-08
2.769605806094528178e-08
2.098813560134333398e-08
1.484973017012531073e-08
1.068955458955805615e-08
7.797663236077634537e-09
5.753468823745950789e-09
4.315812988765559175e-09
3.293180577596003961e-09
2.555095105291393817e-09
2.004437757113639804e-09
1.579565230115778408e-09
1.241812342197563865e-09
9.671773357236153067e-10
7.417690370465235791e-10
5.573675917580335565e-10
4.087182916071507124e-10
2.918262106585541433e-10
