# bin_2_8
4.573276421393883794e-07
4.586446599319615484e-07
4.389622893798539895e-07
3.972901769824293995e-07
3.403739522571231102e-07
2.801304568522437029e-07
2.316914576306745241e-07
1.984310099715963599e-07
1.648316117850420155e-07
1.209791505756056357e-07
8.898754863876807682e-08
6.989541921042298475e-08
4.935804624787906260e-08
3.698523584305686420e-08
2.690271717710971739e-08
1.987883957077737062e-08
1.491060709036694821e-08
1.137826799294485788e-08
8.843581071753654940e-09
6.979722232264855851e-09
5.566985135262861419e-09
4.453960882895007223e-09
3.548065420737130008e-09
2.794652061775835734e-09
2.162819854433752331e-09
1.636206061710100278e-09
1.205672499332051867e-09
8.639504051143321231e-10
6.023582235960204827e-10
4.095363567053237301e-10
2.723884501948141135e-10
