# bin_18_8
1.823353722883018715e-31
2.045796496296821301e-31
2.253719128452552150e-31
2.426702866811763345e-31
2.538794652537945971e-31
2.564681870968762524e-31
2.473741723621781893e-31
2.251688572729907384e-31
1.937975041494936953e-31
1.593823409832405287e-31
1.313738184857213924e-31
1.131560591446041725e-31
9.544314977321889871e-32
6.936252853813823603e-32
4.985095446300985409e-32
4.021019226092976729e-32
2.666382023978075919e-32
2.016417811426698978e-32
1.401108413593829958e-32
9.716627708325453991e-33
6.824997877467386159e-33
4.804371854242439917e-33
3.422334607792057842e-33
2.473918732075970348e-33
1.824534294803049391e-33
1.370897354769264152e-33
1.046756940193296256e-33
8.083282431584493843e-34
6.268818327223801270e-34
4.846993999818542824e-34
3.710955574019512009e-34
