# bin_4_12
3.244818026292843113e-07
3.405291496129020054e-07
3.454916540799805267e-07
3.357638255254977998e-07
3.085500847224902855e-07
2.681948751532046196e-07
2.219913353924205872e-07
1.823257471943800288e-07
1.554463188596801450e-07
1.322629298529762913e-07
9.975485151718031587e-08
7.096893347340344543e-08
5.694274340154858469e-08
3.987766516357434134e-08
3.000311247082596698e-08
2.137733571979167879e-08
1.563252478649955460e-08
1.152923775555043888e-08
8.617862252610247574e-09
6.556974085316006829e-09
5.074212946302002741e-09
3.985736130046704952e-09
3.157978666408881353e-09
2.506102874801384781e-09
1.977960009502848224e-09
1.542093580359389731e-09
1.180638829849057662e-09
8.833909101983315520e-10
6.438127584084544195e-10
4.563893678166592532e-10
3.149143052987863211e-10
