# bin_7_18
2.217930249323983709e-07
2.409601640559338416e-07
2.550962783410230342e-07
2.613574851537414444e-07
2.574418465605307569e-07
2.401266479701240201e-07
2.117235302818498025e-07
1.768064222915711841e-07
1.446713233047471211e-07
1.221541113985062927e-07
1.053651314374682606e-07
8.240435634339858736e-08
5.743543399978066860e-08
4.569724271745340350e-08
3.284882868100228368e-08
2.408433211058582812e-08
1.691927308417027459e-08
1.232005353538092122e-08
8.892787673674226699e-09
6.476319821640995900e-09
4.793254938632009375e-09
3.607733967992812757e-09
2.764741523019860906e-09
2.149653760460202466e-09
1.685854487925763828e-09
1.324916962399613231e-09
1.036058744674861906e-09
8.008396962789149914e-10
6.084646187617185745e-10
4.523712450997162341e-10
3.280028544821815810e-10
