# bin_5_19
3.392000755206496864e-07
3.612133318206466562e-07
3.729072975641616994e-07
3.710084740870045325e-07
3.506675243005907850e-07
3.131470221714475867e-07
2.645584892555804452e-07
2.166236763914040358e-07
1.808809667331837775e-07
1.561887444176697437e-07
1.264763905269559376e-07
8.938035566438518240e-08
6.843987262541332288e-08
5.205471763396583050e-08
3.675714539064218469e-08
2.685173132636231548e-08
1.959920569758186658e-08
1.421286627406799369e-08
1.044886178011980461e-08
7.813389882691444631e-09
5.949091657390945924e-09
4.606997422601675758e-09
3.615805371603005303e-09
2.857322331844649629e-09
2.257781582795768356e-09
1.771490287069133343e-09
1.371122787713605513e-09
1.041126889594529198e-09
7.721732872507247235e-10
5.576847036568178679e-10
3.918709093627635612e-10
