# bin_10_7
2.350016367222567622e-12
2.578797898299396508e-12
2.764320044779183433e-12
2.876437705617186938e-12
2.888559984436145180e-12
2.763183300468505963e-12
2.495043824586864508e-12
2.129948636472212991e-12
1.746736490431080249e-12
1.446456896055751117e-12
1.249414955627628841e-12
1.038477773063036196e-12
7.422502335566743466e-13
5.485100963077628212e-13
4.334277050870106055e-13
2.938792220122387360e-13
2.195659556338214594e-13
1.568459100569382130e-13
1.112304100763091266e-13
7.991938293227545119e-14
5.809231769528072254e-14
4.295591253398067716e-14
3.232715412705087740e-14
2.476898034920566790e-14
1.923013838566256429e-14
1.504221500153653718e-14
1.177517287659259842e-14
9.158575696672289470e-15
7.033582670099627324e-15
5.305456093526605779e-15
3.914418816131749187e-15
