# bin_18_1
2.476207845692763778e-86
2.763663368092777519e-86
3.024923274352596697e-86
3.231025694725345638e-86
3.345670935955264861e-86
3.340160920631298495e-86
3.167888242349523298e-86
2.836760835521441032e-86
2.400717425937180092e-86
1.964777743853036912e-86
1.638323541103199150e-86
1.419521637252175175e-86
1.157552709402423794e-86
8.102932673766287807e-87
6.171798962976723067e-87
4.708274590544079488e-87
3.242622165911320231e-87
2.330979108742321182e-87
1.674793547727678807e-87
1.173006570185528755e-87
8.249275226906520685e-88
5.876330256758897768e-88
4.248209486957794013e-88
3.124896990998404990e-88
2.343676706817364710e-88
1.787168290664390285e-88
1.380110297847192112e-88
1.072514883195213915e-88
8.326704643037886180e-89
6.413412383711576607e-89
4.871483103892477284e-89
