# bin_7_4
7.669789882583070734e-13
8.211516724346716400e-13
8.534398369828148677e-13
8.560489984627909563e-13
8.179094299864039352e-13
7.378773792551510451e-13
6.294378514718841547e-13
5.161742736828446817e-13
4.275814000820281369e-13
3.689905400719638597e-13
3.061194269727333024e-13
2.193168124360326159e-13
1.626253844142111035e-13
1.283413896052103075e-13
8.801502569850059264e-14
6.597185281225190878e-14
4.762570543260074168e-14
3.430400669583970937e-14
2.510378675112208504e-14
1.864574906483756317e-14
1.410432495003395759e-14
1.085464278192041354e-14
8.480601959516224179e-15
6.684392315781521456e-15
5.279376845210508308e-15
4.149132397988919026e-15
3.222746459988478295e-15
2.459769616989802831e-15
1.836112431267716166e-15
1.335665007339459883e-15
9.454009835474090411e-16
