# bin_2_18
6.413891364051539546e-07
6.440862036638797903e-07
6.174291153175913603e-07
5.597214395314271649e-07
4.802914293070977411e-07
3.956596021242102575e-07
3.272393460180386989e-07
2.802922645760445395e-07
2.333374058400532438e-07
1.717055869677780459e-07
1.260719303682053047e-07
9.919622759576603641e-08
7.007788732688858385e-08
5.254159653498962775e-08
3.820264280366135946e-08
2.823457332426781060e-08
2.117490246389206712e-08
1.615424636166882369e-08
1.255252884842279603e-08
9.905406428975422702e-09
7.900594903349026641e-09
6.322409065263451813e-09
5.038671493462395395e-09
3.971248723433395937e-09
3.075886126543017151e-09
2.329150254783191376e-09
1.718040078278638116e-09
1.232388860175563512e-09
8.601037649464584376e-10
5.853153205108989426e-10
3.896191748923940805e-10
