# bin_3_9
3.527767196725906107e-07
3.631188617432413772e-07
3.599674096417069045e-07
3.389193302578325128e-07
3.016456837922939342e-07
2.542771248933825580e-07
2.083405614355983613e-07
1.743551636429315814e-07
1.501182795390407571e-07
1.205762970961068191e-07
8.565125363848747502e-08
6.590234385388367389e-08
4.976290654295543490e-08
3.562551142659347679e-08
2.613189366464008638e-08
1.919748254189485811e-08
1.411983621808826859e-08
1.055279903884649670e-08
8.031730900561785309e-09
6.223858540222083686e-09
4.897056150420521724e-09
3.891924863645482646e-09
3.101537739297904695e-09
2.460543360407421131e-09
1.929919313358087677e-09
1.487330530956966652e-09
1.120561665081964685e-09
8.224369708702816350e-10
5.870151786784861613e-10
4.077219421080396222e-10
2.761863363600374536e-10
