# bin_6_3
4.933859230276787579e-13
5.216204346035526701e-13
5.337182034106711912e-13
5.249620114784764400e-13
4.888954320302969353e-13
4.304878870557172325e-13
3.591159055748312412e-13
2.938099622975330711e-13
2.481962022272399108e-13
2.138901110275806693e-13
1.669257108399781114e-13
1.166225454520971207e-13
9.304430186180104413e-14
6.696999961940432882e-14
4.947349808705627650e-14
3.506903421993720928e-14
2.578963690038270688e-14
1.889697213103621405e-14
1.401387599867376663e-14
1.058053512619057081e-14
8.128183678270833859e-15
6.346545195452787060e-15
5.010065336886327184e-15
3.971176023644694266e-15
3.138423064072844743e-15
2.455844809629019234e-15
1.890947247945445883e-15
1.425238881131299179e-15
1.047440790127870973e-15
7.488890254075838255e-16
5.209080141593730368e-16
