# bin_7_14
1.740612737070630526e-07
1.890762982044308865e-07
2.001327119583764539e-07
2.050007056499535126e-07
2.018708062547264506e-07
1.882261403428061046e-07
1.659059246222402158e-07
1.385072964328099859e-07
1.133361252240110118e-07
9.572332260572175043e-08
8.255480925319924011e-08
6.450278780325917149e-08
4.495909274614626287e-08
3.579858524636605606e-08
2.569851088338417683e-08
1.886305572735757050e-08
1.324538743064515066e-08
9.643735717385244028e-09
6.962824451227734887e-09
5.072176325832255594e-09
3.754952858026525798e-09
2.826917210215698279e-09
2.166883000540225860e-09
1.685109738749008711e-09
1.321689080229554665e-09
1.038758399553322413e-09
8.122571594414471286e-10
6.277818085529974194e-10
4.768994097099149302e-10
3.544811902579012427e-10
2.569608799774514712e-10
