# bin_20_15
2.824994943963824965e-14
3.199274684602202100e-14
3.564184218784662879e-14
3.891110270478746613e-14
4.141689630624302828e-14
4.268427997710126144e-14
4.236178516183016608e-14
3.985154132359939764e-14
3.541338286293160026e-14
2.974748619121540039e-14
2.432974283361657964e-14
2.043692980689576114e-14
1.771351113955238766e-14
1.413055300230673842e-14
9.769897586720864662e-15
7.653419350649370325e-15
5.603617547417353584e-15
3.960617714919738601e-15
2.724151203750821876e-15
1.949739584002334004e-15
1.345196522408412541e-15
9.244100440840941888e-16
6.413689073393827985e-16
4.488082504825460278e-16
3.188309126552517501e-16
2.308808522166099151e-16
1.705173515618862332e-16
1.283843643326731067e-16
9.811490621692087802e-17
7.563048145170122724e-17
5.836250667208766263e-17
