# bin_1_1
6.215745040340043028e-08
5.876105513588424169e-08
5.255248854995958303e-08
4.455451412993303583e-08
3.659792425599789760e-08
3.051113484385431458e-08
2.616186897697605386e-08
2.124293405960741167e-08
1.536391480410719371e-08
1.161082982097417778e-08
8.923354311092556874e-09
6.394971339667497864e-09
4.772945235750648327e-09
3.525032081426890628e-09
2.636321238346439893e-09
2.008161060563557312e-09
1.558948876316644610e-09
1.231648626619535223e-09
9.856637240785427536e-10
7.938854193775335647e-10
6.385013033063420502e-10
5.090179312253308150e-10
3.995494258412322949e-10
3.070410032500237648e-10
2.300206927166184722e-10
1.676067846720543997e-10
1.187627263588327807e-10
8.197133043310175961e-11
5.526554093487542876e-11
3.651707656678893690e-11
2.372565447166531642e-11
