# bin_20_13
1.002951026773622711e-18
1.134026872027342220e-18
1.260925310810052938e-18
1.373309728062932918e-18
1.457418991733443384e-18
1.496536812889329943e-18
1.478197139058352224e-18
1.382322181902240133e-18
1.221557863733098040e-18
1.021120162948997306e-18
8.351654735385772757e-19
7.050065328539556179e-19
6.102751521266201817e-19
4.787013949523178954e-19
3.302227357651895656e-19
2.631372984042359338e-19
1.873507266549497679e-19
1.358467641789241661e-19
9.199969203668598736e-20
6.562235040876525592e-20
4.549824633054355755e-20
3.147629663059826479e-20
2.195168368394732390e-20
1.544742089402307702e-20
1.105380115051375217e-20
8.065190143171655242e-21
6.000099952254653129e-21
4.545420798709026638e-21
3.488564750237366280e-21
2.694414735810548141e-21
2.078486942949077075e-21
