# bin_13_10
5.816473319819964435e-12
6.476269337350532594e-12
7.067848517159890042e-12
7.522004105127103334e-12
7.753107661715111554e-12
7.696929299721965129e-12
7.245883493244117276e-12
6.443652087782774102e-12
5.417127139016496233e-12
4.430115984367941816e-12
3.716214927158330293e-12
3.219427658757578039e-12
2.576710620861811882e-12
1.788023948797895076e-12
1.395772723875150464e-12
1.032139136300620009e-12
7.308342921210364930e-13
5.119932159076125983e-13
3.707447360656764433e-13
2.611205509980184673e-13
1.844907719591916996e-13
1.322791989297316197e-13
9.622649842297739445e-14
7.128521524599318613e-14
5.381224279849987057e-14
4.125502258427302199e-14
3.197546233004602638e-14
2.488735277962329239e-14
1.931165034021032420e-14
1.483881323812621438e-14
1.122766205412774262e-14
