# bin_10_18
1.240228534601714482e-07
1.372535480701970027e-07
1.486757357423642048e-07
1.567639173405075129e-07
1.597993115500084336e-07
1.562643100613165183e-07
1.444386953805321382e-07
1.262451592735894426e-07
1.047130072868546343e-07
8.579697986170987144e-08
7.303695345279658518e-08
6.272075413163184883e-08
4.772003764255259788e-08
3.329352269521630725e-08
2.696856632742824424e-08
1.855291997516840370e-08
1.394921290635848417e-08
9.607651625978975812e-09
6.852652965544486864e-09
4.895964695379887705e-09
3.516995714137342224e-09
2.556643830631053891e-09
1.887122069707153984e-09
1.420220266381638045e-09
1.086955080520601567e-09
8.421575911226456317e-10
6.567833221287776209e-10
5.118604921249003725e-10
3.959019078577375885e-10
3.020409320036956554e-10
2.261986622552643647e-10
