# bin_8_13
1.198191002464465004e-07
1.310916072835089393e-07
1.400018388717616307e-07
1.449949590742048962e-07
1.447989897619541902e-07
1.374655345308809688e-07
1.232385857276312516e-07
1.044580679907288703e-07
8.553903215854543616e-08
7.123056478202922123e-08
6.160535530306366905e-08
5.036282225899012594e-08
3.554837141774695261e-08
2.693151382204897874e-08
2.071607496289252793e-08
1.434862071147026193e-08
1.048077908859953416e-08
7.572060519702549832e-09
5.396137022209667734e-09
3.886522529799205045e-09
2.840343063953032578e-09
2.111823245710343143e-09
1.598442803504964202e-09
1.230606399167383821e-09
9.587203202212296128e-10
7.513040187974486514e-10
5.881465711504480726e-10
4.567197365645225956e-10
3.496879736285833840e-10
2.626624293564107492e-10
1.927952567429685055e-10
