# bin_14_12
1.631506285971118548e-10
1.825471958279520056e-10
2.004188095246334827e-10
2.148954178165439615e-10
2.236195629884688297e-10
2.245284645055072535e-10
2.146592039913219620e-10
1.936823632789352005e-10
1.651929444333782180e-10
1.354334164031805990e-10
1.122616340311809432e-10
9.709802195008873754e-11
8.055836459688979796e-11
5.727055016164123168e-11
4.242869893243793065e-11
3.333703614333887092e-11
2.244241792473602076e-11
1.659346353803355803e-11
1.173625735461314831e-11
8.177305646175646692e-12
5.742983989294039346e-12
4.064277905519822398e-12
2.917834457458259899e-12
2.129286847618750890e-12
1.584971122800231809e-12
1.200809171752596087e-12
9.228854294174188209e-13
7.154338718607337855e-13
5.553975571925084309e-13
4.286844789101352170e-13
3.268916358791943881e-13
