# bin_5_15
2.956285770263574755e-07
3.147804328487144093e-07
3.249277519230714453e-07
3.232198442695174880e-07
3.054320486114618816e-07
2.726945300135632839e-07
2.303373141017080707e-07
1.885973982002698950e-07
1.575047356170553740e-07
1.360044217404357533e-07
1.100763429199373996e-07
7.776941634616697339e-08
5.958763510959285171e-08
4.528781276483017443e-08
3.199746225881820974e-08
2.336342924931735846e-08
1.705660955220825021e-08
1.237069988959445074e-08
9.095479285995382545e-09
6.802306025735662000e-09
5.179956762071524961e-09
4.011890326712794079e-09
3.149028231621415869e-09
2.488590565399216720e-09
1.966437096976808293e-09
1.542844111208981051e-09
1.194065298312597815e-09
9.065864020459909814e-10
6.722991135572549764e-10
4.854803284772096934e-10
3.410828313273867765e-10
