# bin_11_20
1.187689584006278065e-07
1.320273264452710984e-07
1.438014100501607452e-07
1.526644500081583178e-07
1.568833335220136267e-07
1.551347184112262392e-07
1.453315269628906383e-07
1.286554357004756532e-07
1.077437361452117654e-07
8.812507300936661285e-08
7.421865148504913145e-08
6.420795068720001939e-08
5.070949750194300003e-08
3.515461830742435815e-08
2.779072099945226506e-08
2.012493719285102510e-08
1.451896217508666035e-08
1.007594307346331680e-08
7.277567091826902197e-09
5.146585078650730397e-09
3.653823552797292805e-09
2.629741387603417312e-09
1.920378130485976968e-09
1.428802757215729248e-09
1.082750541154951070e-09
8.326200106471931509e-10
6.465605458113613382e-10
5.035140709504146897e-10
3.904298847212126501e-10
2.994579508788659445e-10
2.259748140894170832e-10
