# bin_17_15
2.017924901798156863e-10
2.276474380944681534e-10
2.524321601143584247e-10
2.740116541279214694e-10
2.895852494988319623e-10
2.958915600144374240e-10
2.902804352326737350e-10
2.692151778058073284e-10
2.360676693960335115e-10
1.961470279742152352e-10
1.605940652433786880e-10
1.364999418884872380e-10
1.176685771700648622e-10
9.013582913144453219e-11
6.240544615816143307e-11
5.053128714886660143e-11
3.468543705491110013e-11
2.590168617026398779e-11
1.747515487494857535e-11
1.228627469010802514e-11
8.583841620937172805e-12
5.995190727423670333e-12
4.208227009889289169e-12
2.984440113193797555e-12
2.156123257185510947e-12
1.588453400051563186e-12
1.192403993496556921e-12
9.097987230180087021e-13
7.014079965812769613e-13
5.425376066800713751e-13
4.179106914143088553e-13
