# bin_20_16
1.216179100702242876e-12
1.378339362469585358e-12
1.536972828123606132e-12
1.679855123394324176e-12
1.790564114457280124e-12
1.848640625237513164e-12
1.838744014667646377e-12
1.734754945084001283e-12
1.545708467458316891e-12
1.301630742057284538e-12
1.064775012104493144e-12
8.923116192715629095e-13
7.735933488010295242e-13
6.218920466128338885e-13
4.311068945398020271e-13
3.345727769505515032e-13
2.481748516113821791e-13
1.733339723277840718e-13
1.204472390397453168e-13
8.608992460076240254e-14
5.927154785090575124e-14
4.063305103911509298e-14
2.811672328355051232e-14
1.962176795048331744e-14
1.388983110092445991e-14
1.002078449893204354e-14
7.373606245051690316e-15
5.533821286336438668e-15
4.219228132373849773e-15
3.248362237205295947e-15
2.506561481987142177e-15
