# bin_11_17
9.093117571343063401e-08
1.010714838285512813e-07
1.100709233124383385e-07
1.168364606045693318e-07
1.200418212007213145e-07
1.186736634763120136e-07
1.111387977225919670e-07
9.835653961714301118e-08
8.234805185046835769e-08
6.735376177021148143e-08
5.674007288952214514e-08
4.908299758105325212e-08
3.873031675586435414e-08
2.684670180667624721e-08
2.124173580354172042e-08
1.536100302096071570e-08
1.109571213107397089e-08
7.694865628900465306e-09
5.557389928896689413e-09
3.931156999899561428e-09
2.791746932684125995e-09
2.009805558762143013e-09
1.468049190390860233e-09
1.092577288588039597e-09
8.281717508015068750e-10
6.369827209651156941e-10
4.947047096247645594e-10
3.852709917832343303e-10
2.987303780388408445e-10
2.290984191373103929e-10
1.728505347338779361e-10
