# bin_4_5
7.765916469761574651e-08
8.121915961409887545e-08
8.207456450661795499e-08
7.930866821017433718e-08
7.242050244749885216e-08
6.255548005300806378e-08
5.159287407334585050e-08
4.246592334117576207e-08
3.635855073640306293e-08
3.072240574706179975e-08
2.278914232645850726e-08
1.638228506238230458e-08
1.315037733671330948e-08
9.109380220689273866e-09
6.898702158152479152e-09
4.932597319401657829e-09
3.599865859320337188e-09
2.662944231796498909e-09
1.997962848641600352e-09
1.525921802100242796e-09
1.185050290216620205e-09
9.334686461052158126e-10
7.408524252149136500e-10
5.882091577652625523e-10
4.639177319132682469e-10
3.610247599859929038e-10
2.756278767422517019e-10
2.054935211312663670e-10
1.491470492839112816e-10
1.052825156695801603e-10
7.235729599280072318e-11
