# bin_15_18
3.464115803172771979e-08
3.899519012344347199e-08
4.312926159631453908e-08
4.666784611732115902e-08
4.912535448966575501e-08
4.997004291908496807e-08
4.870127070019811214e-08
4.482897690079761869e-08
3.902182419557713524e-08
3.227629493311358212e-08
2.647902226013966900e-08
2.263455045565206258e-08
1.937688452533476205e-08
1.453392996306787342e-08
1.016714213718590108e-08
8.274799117667290922e-09
5.553750650545796492e-09
4.202117701702414269e-09
2.862360972908176376e-09
1.992285918461001907e-09
1.397572681181451843e-09
9.805128715333255969e-10
6.922398392625965985e-10
4.945976960503726542e-10
3.603338440717578733e-10
2.676443632467005537e-10
2.023777459086321444e-10
1.552424775127322456e-10
1.200322369891651911e-10
9.287147990170055687e-11
7.138645037185411140e-11
