# bin_13_18
6.390461376747139518e-08
7.154222680774122517e-08
7.860044786467055147e-08
8.435022822516957828e-08
8.787092797033237658e-08
8.833821462853467277e-08
8.461175736518072777e-08
7.648726495235463200e-08
6.536512043614495586e-08
5.362952505418455396e-08
4.440273559493863309e-08
3.836583475234044832e-08
3.193920576448357277e-08
2.282350881782170756e-08
1.679697819056501031e-08
1.326853467314594551e-08
8.908194572562037176e-09
6.616198972630295925e-09
4.660865734239143535e-09
3.244424409531552988e-09
2.278871035597838759e-09
1.611057091944780285e-09
1.154660357877669173e-09
8.408819582966850267e-10
6.246716061319778391e-10
4.724173518415331635e-10
3.625626764294726457e-10
2.808217591302337521e-10
2.179477872393843920e-10
1.682771163530499931e-10
1.284230808316995278e-10
