# bin_2_16
6.195767081175756535e-07
6.221422682128607091e-07
5.963412024998700064e-07
5.405557747907112258e-07
4.638054027026537648e-07
3.820656357547422234e-07
3.160110171996656424e-07
2.706839591192980267e-07
2.253060303081600316e-07
1.657656596853013075e-07
1.217340851877699600e-07
9.577190186014154025e-08
6.765895745328675689e-08
5.072695753156347797e-08
3.688566719064066644e-08
2.726153142847239946e-08
2.044598024925783476e-08
1.559892456893458892e-08
1.212159118923873394e-08
9.565725617056367921e-09
7.629858762587806230e-09
6.105809110437210859e-09
4.866016123941717656e-09
3.835083516020413312e-09
2.970314210380729099e-09
2.249103206765176675e-09
1.658907234304997886e-09
1.189906033290122855e-09
8.304112511935760411e-10
5.650831021704264216e-10
3.761369435804285571e-10
