# bin_5_11
2.274791138627001530e-07
2.421555005206025702e-07
2.498837352705335430e-07
2.484744362182297790e-07
2.346799872267713005e-07
2.094234546060317063e-07
1.768125390480169528e-07
1.447619592387672518e-07
1.209423583587108831e-07
1.044344557826719065e-07
8.442529945767120048e-08
5.960893814461359233e-08
4.574199656238874190e-08
3.470380877514235193e-08
2.455292048681123150e-08
1.790743365019726230e-08
1.307977694272395343e-08
9.489397883720492539e-09
6.978676082216409408e-09
5.220886460850568420e-09
3.976965568802728114e-09
3.081093138809321986e-09
2.418949808291066762e-09
1.911863292421523295e-09
1.510749992873724437e-09
1.185222399711086189e-09
9.171326007021902280e-10
6.961538460294887094e-10
5.160875673964760648e-10
3.725466577631286037e-10
2.616460375703130399e-10
