# bin_14_17
3.815919314795507284e-08
4.283920339966061042e-08
4.722619632740367664e-08
5.089521540130819537e-08
5.330449101681302803e-08
5.391403600559880883e-08
5.210050705967753042e-08
4.752093134626162963e-08
4.098569762157191425e-08
3.374308670862333735e-08
2.778831807229580312e-08
2.390053504016751409e-08
2.021580385178039544e-08
1.478159119406483187e-08
1.056548607523498513e-08
8.538874249142083024e-09
5.672975142420391941e-09
4.291921681834561529e-09
2.970740748360501403e-09
2.060713719781918006e-09
1.447466535775502027e-09
1.018621743361121282e-09
7.244237100081844873e-10
5.225411194034366827e-10
3.845240095236416345e-10
2.883223950802168340e-10
2.197684272311015557e-10
1.695105874180431755e-10
1.313914167918415064e-10
1.016040482432800873e-10
7.784557062468857884e-11
