# bin_10_8
1.135108206534562946e-10
1.248637514203589664e-10
1.342498987534851605e-10
1.402315984672193415e-10
1.414377497362553859e-10
1.361570440254944798e-10
1.237195132708211397e-10
1.063016278895143711e-10
8.737199277685642146e-11
7.206438654178994332e-11
6.206563905821100828e-11
5.219336436593714805e-11
3.788419028269255242e-11
2.741085032221765629e-11
2.203835209265220722e-11
1.479909632099801388e-11
1.121371297387581428e-11
7.914272162608091259e-12
5.596621117858398735e-12
4.019569109380110504e-12
2.911725342979053221e-12
2.142820980095677041e-12
1.604187487203271591e-12
1.223554794413071808e-12
9.466681345514900480e-13
7.389556060905774985e-13
5.781651228087195573e-13
4.501315317416513840e-13
3.464856460283484143e-13
2.622396126317215250e-13
1.943158589671229973e-13
