# bin_20_10
5.142627843823487268e-29
5.800290256124261142e-29
6.430134577109228886e-29
6.977614945800018420e-29
7.371285761949876308e-29
7.528298747112603572e-29
7.380721283823869081e-29
6.839671214312692771e-29
5.993023508195160449e-29
4.976721330181487799e-29
4.075139908580907143e-29
3.466065257207439915e-29
2.986557272857377571e-29
2.282439817034258030e-29
1.581002220219420373e-29
1.282005168526776068e-29
8.768027094431012494e-30
6.565791542047423808e-30
4.430261999163450576e-30
3.109409515347269609e-30
2.174180185649800311e-30
1.519933803778663923e-30
1.067545109647014396e-30
7.576571181158656209e-31
5.478647372918427184e-31
4.039826964661850535e-31
3.035062416957941696e-31
2.317215666804274085e-31
1.787146342563696369e-31
1.382504542585931193e-31
1.064760033696340798e-31
