# bin_2_3
1.385911268427625319e-07
1.383257269891621138e-07
1.314916430518863788e-07
1.181754103082094312e-07
1.005620822896221942e-07
8.258460309922334247e-08
6.862768210001031369e-08
5.896252738625121419e-08
4.837587568531889172e-08
3.498690986872941992e-08
2.619804422466369849e-08
2.035027659502380294e-08
1.440306484188841213e-08
1.076416699071122653e-08
7.882080086446562708e-09
5.832522601394174912e-09
4.391117503781206010e-09
3.366007510712288859e-09
2.627434041677454143e-09
2.081250482115223758e-09
1.664021476219823256e-09
1.332714310617499024e-09
1.061319232534942647e-09
8.346300172979950156e-10
6.441854466368064893e-10
4.855784895810266988e-10
3.563228344162174171e-10
2.542285142382639655e-10
1.765334531855780025e-10
1.195958422736069931e-10
7.930963413714152177e-11
