# bin_1_12
7.380816513584626583e-07
7.122388165163092741e-07
6.508488659219940861e-07
5.631507841667510836e-07
4.664280266320104186e-07
3.848206776307147035e-07
3.275717059301463663e-07
2.748944874075869266e-07
2.071441268058094674e-07
1.506099170252649414e-07
1.181203040566504825e-07
8.509498540836304808e-08
6.334762085160526138e-08
4.633333574871480852e-08
3.449865445494571614e-08
2.600620057060786987e-08
1.996006606291034725e-08
1.560816279866714616e-08
1.239187731291637066e-08
9.936057257817635647e-09
7.986261385526180706e-09
6.386132258537692626e-09
5.044967764857566191e-09
3.913006840123803192e-09
2.965064192051770997e-09
2.187630216774015847e-09
1.569617121688315124e-09
1.095955609700206269e-09
7.464175786742679822e-10
4.974033497990518677e-10
3.254109933905107412e-10
