# bin_11_18
1.010834333035522313e-07
1.123608775482915470e-07
1.223722116720736631e-07
1.299026945520433442e-07
1.334776804129020157e-07
1.319707724519613796e-07
1.236086632157028432e-07
1.094063496255173566e-07
9.160969252752775750e-08
7.492892370872574892e-08
6.311439663181063592e-08
5.459896945294563890e-08
4.309904604135886099e-08
2.987654491530370058e-08
2.363010805108854921e-08
1.709837884988639615e-08
1.234414913193018984e-08
8.563229084721417117e-09
6.184727352204162935e-09
4.374415711951082485e-09
3.106140664437678642e-09
2.235892118577771869e-09
1.633010608184149707e-09
1.215196525738598492e-09
9.210149758578676079e-10
7.083303646208800116e-10
5.500855425307708661e-10
4.283934714124094029e-10
3.321725899744334604e-10
2.547580814908892277e-10
1.922246130376317322e-10
