# bin_18_2
1.169445706644366198e-75
1.305797419258478983e-75
1.430037402704430138e-75
1.528536473523362465e-75
1.584189022481070218e-75
1.583245789045631618e-75
1.503756164031693069e-75
1.348388638003551029e-75
1.142673561361051334e-75
9.353971016440807250e-76
7.790965017115554666e-76
6.749467012796122897e-76
5.522257918732437896e-76
3.874707771281150983e-76
2.936642085010575597e-76
2.253013700980580161e-76
1.544330281907035405e-76
1.116128611515528719e-76
7.999160157735187184e-77
5.596928530724659974e-77
3.934185791685500173e-77
2.798964678781270259e-77
2.020976577981275988e-77
1.484511476818869185e-77
1.111931930209299590e-77
8.469678782514613287e-78
6.535424948272382550e-78
5.076934851023235558e-78
3.941759977630867921e-78
3.037310037638964079e-78
2.308747669424476402e-78
