# bin_1_2
1.949683427963834730e-07
1.864082183747248156e-07
1.686507059849007227e-07
1.445389027160631082e-07
1.191507904879679106e-07
9.869656827754771750e-08
8.439126611828934539e-08
6.991270077468118862e-08
5.159109593377022191e-08
3.806178328510519598e-08
2.975077039811556919e-08
2.124855325304954154e-08
1.590982250414373103e-08
1.165995012931874398e-08
8.698040326768917037e-09
6.589854771688055907e-09
5.084839189159306462e-09
3.995750447537420987e-09
3.184676676816796319e-09
2.559535372078711379e-09
2.058403207592633800e-09
1.644062958069523157e-09
1.295226576468688364e-09
1.000482591343834109e-09
7.542071833325330248e-10
5.532707677517220721e-10
3.946616412938877279e-10
2.740688940693549695e-10
1.857639718799312239e-10
1.232907115830526254e-10
8.039274113655143311e-11
