# bin_4_11
3.039382024791609231e-07
3.189435664234759097e-07
3.235609889178797929e-07
3.144084464966576051e-07
2.888824421524768833e-07
2.510627271100738558e-07
2.077926451312516951e-07
1.706721638365437580e-07
1.455254069932523984e-07
1.238025558987054120e-07
9.333773454033715302e-08
6.641828030724877685e-08
5.329339822974696732e-08
3.731164053589110514e-08
2.807742830643720863e-08
2.000647087220183468e-08
1.462941569200862630e-08
1.079021360467700948e-08
8.066170825866684614e-09
6.137760423032388207e-09
4.750194078464033643e-09
3.731473009943680278e-09
2.956640819363780825e-09
2.346354640753113061e-09
1.851848305639149398e-09
1.443711016763884327e-09
1.105244337150107500e-09
8.269092383759650949e-10
6.025911972324922649e-10
4.271259044431010765e-10
2.946947065790893541e-10
