# bin_2_13
5.767495962424504126e-07
5.790569552825564440e-07
5.549366322334174813e-07
5.029254021331201358e-07
4.314363060681601567e-07
3.553748871625614825e-07
2.939650218032857823e-07
2.518187592452904042e-07
2.095370191420558906e-07
1.541030550413082099e-07
1.132170472558234176e-07
8.904849274885418126e-08
6.290956839966437667e-08
4.716404878206822020e-08
3.429988327982564085e-08
2.535103582897701829e-08
1.901479546453214096e-08
1.450859128573073557e-08
1.127547690388835920e-08
8.898787380671122598e-09
7.098288288217492299e-09
5.680531045254758424e-09
4.527020019987256490e-09
3.567733166163976277e-09
2.763031543043707798e-09
2.091936744179674225e-09
1.542804273674433355e-09
1.106494154344462645e-09
7.721122071512571330e-10
5.253586474605913128e-10
3.496655872831971328e-10
