# bin_1_14
7.713550741183006626e-07
7.444612534524467545e-07
6.804062463948462915e-07
5.888179891584449362e-07
4.877259660945282069e-07
4.023675615428426793e-07
3.424820589380730885e-07
2.874649729401151891e-07
2.166902953794667649e-07
1.575166014718609341e-07
1.235409164013594092e-07
8.901410545190688977e-08
6.625805753444449579e-08
4.846111400834718172e-08
3.608173184476051209e-08
2.719735414645153564e-08
2.087248536882733708e-08
1.632033198608916452e-08
1.295646307091255183e-08
1.038834254598250713e-08
8.349708114398665012e-09
6.676879844531703108e-09
5.274887714605191270e-09
4.091611205505195172e-09
3.100660204308410322e-09
2.287885985911129362e-09
1.641705266813347417e-09
1.146390744641210531e-09
7.808278115865715468e-10
5.203678640328419557e-10
3.404529651567272260e-10
