# bin_9_1
1.062164482112263782e-34
1.137854171372608628e-34
1.183482539122767067e-34
1.188136546296970740e-34
1.136518361259017534e-34
1.026353710135937141e-34
8.764005752743029973e-35
7.187644118960123913e-35
5.948643298851529535e-35
5.133530024979011704e-35
4.269888349050382331e-35
3.062933048005980944e-35
2.263231901975727807e-35
1.794000745334493110e-35
1.225419048919536002e-35
9.220793548262643913e-36
6.645711428264767031e-36
4.782412251228853531e-36
3.498089229494230206e-36
2.595775837925923976e-36
1.962002628840200119e-36
1.508867266504509666e-36
1.178227883485955945e-36
9.283836834307825211e-37
7.331874534624350247e-37
5.763153887231084105e-37
4.478065530784841038e-37
3.419786279198642629e-37
2.554487281224105569e-37
1.859666479256758734e-37
1.317301135941481555e-37
