# bin_19_16
2.053858844250253060e-11
2.325058514134541344e-11
2.589008467981397968e-11
2.824818165682577309e-11
3.004520708295538581e-11
3.093636783630011247e-11
3.066684447301036322e-11
2.880694998164633133e-11
2.556347124177516125e-11
2.144703887066141670e-11
1.754038399639186433e-11
1.475177440864977352e-11
1.278288304868765887e-11
1.015554317282985004e-11
7.015578117275366992e-12
5.520343933637564275e-12
4.014288029868089095e-12
2.855206266354490979e-12
1.955162791498890687e-12
1.398970705608354473e-12
9.663171101559147547e-13
6.650588234091838798e-13
4.620327180378042130e-13
3.237645342288087696e-13
2.304178600364829344e-13
1.671730674214025970e-13
1.236941693927051332e-13
9.327810585313175234e-14
7.136533157779303310e-14
5.504081156829359487e-14
4.247188246178527402e-14
