# bin_16_9
5.007903814055971494e-21
5.603475426023584611e-21
6.152717447393209179e-21
6.598474608879071602e-21
6.868712552124518331e-21
6.899633674854348829e-21
6.601181780209614560e-21
5.960103141446274189e-21
5.086980908541631295e-21
4.170352755126921568e-21
3.453327830446337516e-21
2.985324037084193579e-21
2.481412320273839916e-21
1.767118936343194305e-21
1.304336606289999929e-21
1.028315842654193100e-21
6.901912480524914080e-22
5.119681922845785305e-22
3.612831818329585896e-22
2.515008048952070681e-22
1.765656032738237415e-22
1.248205462968347348e-22
8.951047383513676922e-23
6.523912161494919070e-23
4.850486248191116808e-23
3.671086662136984466e-23
2.819217990747478567e-23
2.184477871845611610e-23
1.695573115243429630e-23
1.308900687156235896e-23
9.984436970715684861e-24
