# bin_13_4
1.664525434166229522e-33
1.833850696929231324e-33
1.975629292971266102e-33
2.069016892668761870e-33
2.092986880754792841e-33
2.023920938035704475e-33
1.847510685293113581e-33
1.594890878638670286e-33
1.313176963025863283e-33
1.079898329676834287e-33
9.272684320260593180e-34
7.858604561879152940e-34
5.775407583322438849e-34
4.115641938396596077e-34
3.341540159451768192e-34
2.236290580697591477e-34
1.706016598780294681e-34
1.193008592900515923e-34
8.424026003938889763e-35
6.047675355473587481e-35
4.371161785833738770e-35
3.204734719763642248e-35
2.388970358124733687e-35
1.815239874528377709e-35
1.400281828022142510e-35
1.090919244338080702e-35
8.529319154944103580e-36
6.643527446456610631e-36
5.121368827099253528e-36
3.885121171574351894e-36
2.887547713934643338e-36
