# bin_17_9
8.335381347133023960e-24
9.344073025212685413e-24
1.028338503295859060e-23
1.105964690901778104e-23
1.155416767682435555e-23
1.165382680930269435e-23
1.121630090429414752e-23
1.018701448457699108e-23
8.747994316750134080e-24
7.186745954248448254e-24
5.928603012862475809e-24
5.110717826390815320e-24
4.295620253590298693e-24
3.104884794178717208e-24
2.245049862696053515e-24
1.802105178444436057e-24
1.196870721656166879e-24
9.017509192294044529e-25
6.287300978792620229e-25
4.362638462556719183e-25
3.063280985312116581e-25
2.157621102971071289e-25
1.539145787144386142e-25
1.114695519039297709e-25
8.236507133011156604e-26
6.199394438269601229e-26
4.740214463107058926e-26
3.663596762338967197e-26
2.841850837584122752e-26
2.196407076353939927e-26
1.680023052889247835e-26
