# bin_18_3
1.142089560608424259e-65
1.275952370381405849e-65
1.398384534232643258e-65
1.496186922831599756e-65
1.552775018553294930e-65
1.554384513747910039e-65
1.479869172974343600e-65
1.329917241747437700e-65
1.129592946803904861e-65
9.249019806331442132e-66
7.685675085775128040e-66
6.653544393850177551e-66
5.474743537995592704e-66
3.858962483762911371e-66
2.897075546292136320e-66
2.244822758334571607e-66
1.525862148653355515e-66
1.113370164660759733e-66
7.936675680620653523e-67
5.542026012059977505e-67
3.892395485521070084e-67
2.762358622777348264e-67
1.989559580849571150e-67
1.457359297711961241e-67
1.088743068444138837e-67
8.274567990304484196e-68
6.374407993638308389e-68
4.947559492137285942e-68
3.840953014920683480e-68
2.961421466147588204e-68
2.253674308466707559e-68
