# bin_16_7
4.808349800098815327e-29
5.366427086933724025e-29
5.873969482040005992e-29
6.274950581569291782e-29
6.499141030738005895e-29
6.490615341670715110e-29
6.159302942952459598e-29
5.518270537854411880e-29
4.672386452658874445e-29
3.823323088108569236e-29
3.185025681544647577e-29
2.758777398963948463e-29
2.253584449065485257e-29
1.579126162611079200e-29
1.198999807197643196e-29
9.175749334033429351e-30
6.299512180889471097e-30
4.541724943349362515e-30
3.258050047006398225e-30
2.280022064151889968e-30
1.602542544083874936e-30
1.140477025259942389e-30
8.237468516593679456e-31
6.053395469400343514e-31
4.535990034086215054e-31
3.456307468992953863e-31
2.667595744146608892e-31
2.072404449849658157e-31
1.608827406652156077e-31
1.239299171695117114e-31
9.415943591643907538e-32
