# bin_11_1
1.124162907711438960e-45
1.220252443154117635e-45
1.290516461323306025e-45
1.320478639653211249e-45
1.298777338599551539e-45
1.208964846125624095e-45
1.063909218401937099e-45
8.865463699806054012e-46
7.249020378022272846e-46
6.128952889475701561e-46
5.288658597944091056e-46
4.114090042135863414e-46
2.856471083948437384e-46
2.291569763814571087e-46
1.629711462809162692e-46
1.206905208867951445e-46
8.400746138948676507e-47
6.125200201811153468e-47
4.429275377162554516e-47
3.231167970581236211e-47
2.394707944300401800e-47
1.804445352899615975e-47
1.384509372228470118e-47
1.077534497910260123e-47
8.455914967333585464e-48
6.647209937205529115e-48
5.197101806592016322e-48
4.014955660725160777e-48
3.047722505697992495e-48
2.263116360573738205e-48
1.638485084501453733e-48
