# bin_19_1
1.654415824204513428e-91
1.851351847809657344e-91
2.033063501652538003e-91
2.180684226914967167e-91
2.270429687992846683e-91
2.281150259210060332e-91
2.183173783174349097e-91
1.971780108365190712e-91
1.683483349193520156e-91
1.380290814436883097e-91
1.142736295087789098e-91
9.877189965904176314e-92
8.214948861599182026e-92
5.854976763823164111e-92
4.316745392391874025e-92
3.406681178431505785e-92
2.285130448191254524e-92
1.696566209811201070e-92
1.196423298150148805e-92
8.327187003020787469e-93
5.846174785430935693e-93
4.132025076617272804e-93
2.962295049035953422e-93
2.158321406370284488e-93
1.604174536441528502e-93
1.213767273281097806e-93
9.319051929086034117e-94
7.219947333322006528e-94
5.603893647148040465e-94
4.326220206319954881e-94
3.300568366563154901e-94
