# bin_9_4
2.072638284866849148e-18
2.245582170420514622e-18
2.369340519644963495e-18
2.417701946876270494e-18
2.368850164769520095e-18
2.194920988932656980e-18
1.923162707691450228e-18
1.597347366998072839e-18
1.306978776408495679e-18
1.109139128151017160e-18
9.545671641275879275e-19
7.331108619256541854e-19
5.103916183226444410e-19
4.127478880948599214e-19
2.884481603594070650e-19
2.166395319172024395e-19
1.506025653121680995e-19
1.092633491422857784e-19
7.929180039769723273e-20
5.807303069223701418e-20
4.316897171568076467e-20
3.262685714372509431e-20
2.510660365773833124e-20
1.958270600038534038e-20
1.538766883863681376e-20
1.210042637887215524e-20
9.454784933258584605e-21
7.293480766618779480e-21
5.524264090024905343e-21
4.090553812023969886e-21
2.951962610469998558e-21
