# bin_8_3
5.319501636327825799e-19
5.708916433832220570e-19
5.952066024523446198e-19
5.992052901223093850e-19
5.755417529025024534e-19
5.218810048720667003e-19
4.475090146916220126e-19
3.674704524096491190e-19
3.031914462603182574e-19
2.610733511059384442e-19
2.188768771839157427e-19
1.586025973352811185e-19
1.154928040360799480e-19
9.260340640158247377e-20
6.283036178686605809e-20
4.770132552764035972e-20
3.410394043957771731e-20
2.449421537138473040e-20
1.790380413629902818e-20
1.325355809588628012e-20
9.987790271796901840e-21
7.658112185281833602e-21
5.965975830696541170e-21
4.693640137342271635e-21
3.704314876690696283e-21
2.912429428737222701e-21
2.265396070186998030e-21
1.733108286857685236e-21
1.297672598697036681e-21
9.473930515213296091e-22
6.731188912521534147e-22
