# bin_14_2
1.606138358377556806e-53
1.770676242121264345e-53
1.909105638951686941e-53
2.001375166589072624e-53
2.026855968942009604e-53
1.963312434495706731e-53
1.795424812483940070e-53
1.552769209820795708e-53
1.279616405585642079e-53
1.051433850195510050e-53
9.017649785921062106e-54
7.661886017024668900e-54
5.658872477597253665e-54
4.013657274409617357e-54
3.265158043881996397e-54
2.187434035563137148e-54
1.669871930274314043e-54
1.163984776656169187e-54
8.220715653716975923e-55
5.900712213493907880e-55
4.262603488153746623e-55
3.121132875506481686e-55
2.323146450330876452e-55
1.762792356304047906e-55
1.358328469300568012e-55
1.057460158043155581e-55
8.265380197126655200e-56
6.438976116944899478e-56
4.966427562523845138e-56
3.770885342646703881e-56
2.805866692255732970e-56
