# bin_18_4
5.377268041665304440e-57
6.011610126445121049e-57
6.593927975596154820e-57
7.062418210706326496e-57
7.339323298678690707e-57
7.358225074727529959e-57
7.020679323957440853e-57
6.322225812372430951e-57
5.381321635767810612e-57
4.408374469876589383e-57
3.657417255748053653e-57
3.164585977891085804e-57
2.615885929197155111e-57
1.851822541345557202e-57
1.379867088760713803e-57
1.077641835169322263e-57
7.281467449508992897e-58
5.353422941072186779e-58
3.799354541645017960e-58
2.649322870410907757e-58
1.860222600263706598e-58
1.317826031442339330e-58
9.473415223333101776e-59
6.924202011366354335e-59
5.162113381550219355e-59
3.916240630249439812e-59
3.012910811682638280e-59
2.336872851949049238e-59
1.814113698867607349e-59
1.399490077931950270e-59
1.066150753661712259e-59
