# bin_3_1
9.784285819610985071e-12
9.843972689616517337e-12
9.457088916763051207e-12
8.585095193314846143e-12
7.373504458246092217e-12
6.064496703098013509e-12
5.001772733894007060e-12
4.292201831892959931e-12
3.598680524408056619e-12
2.638070876351268180e-12
1.921190114641458605e-12
1.535236997327922596e-12
1.065593590651501949e-12
8.093572445831750677e-13
5.864997512130330367e-13
4.318223607073238391e-13
3.237328943201860665e-13
2.467960946168153930e-13
1.916502833834288364e-13
1.511679991021372309e-13
1.205689900023012552e-13
9.650912136524211718e-14
7.695248095694174193e-14
6.069363105655810908e-14
4.704768435300445656e-14
3.565472689289500358e-14
2.631682507166190649e-14
1.888500127642535842e-14
1.318201750350351748e-14
8.970122512558544371e-15
5.970121366537127639e-15
