# bin_20_3
7.006516828420107200e-76
7.864532075725413426e-76
8.668735883058476706e-76
9.341273253016715041e-76
9.782976944124996804e-76
9.894693763309533031e-76
9.562551883856744387e-76
8.721980748017843940e-76
7.522541200754974852e-76
6.191324660091559446e-76
5.095574564790227449e-76
4.381479273218789434e-76
3.708389745374324689e-76
2.711790020995676487e-76
1.934392634463193179e-76
1.567096380023415117e-76
1.037935916405641884e-76
7.871828977118468665e-77
5.444484795123429819e-77
3.772384860658207026e-77
2.649508977146635019e-77
1.863346695694524558e-77
1.324522201789776528e-77
9.549268068914660784e-78
7.024089075398064775e-78
5.264950272691659151e-78
4.012131534328194460e-78
3.094245535464127164e-78
2.398390739194359589e-78
1.854784692502690422e-78
1.421225115493350671e-78
