# bin_5_1
7.496146602292585500e-17
7.738284553198409678e-17
7.702627008205401777e-17
7.285665324059018679e-17
6.511017608361481841e-17
5.503082469759598682e-17
4.502752557401522039e-17
3.753169798567243379e-17
3.241572525621846380e-17
2.636209274694604768e-17
1.863139927500162605e-17
1.423591961013439823e-17
1.091979432787998430e-17
7.702483603745931077e-18
5.673760966728566789e-18
4.181723077921686689e-18
3.064393411738001930e-18
2.281597509292726309e-18
1.731796062005125751e-18
1.339122393772361108e-18
1.051869556066900268e-18
8.352149525239424336e-19
6.655211530142300466e-19
5.283230866588397239e-19
4.149493605535340748e-19
3.203967636339549037e-19
2.419374878654944862e-19
1.779955124643407536e-19
1.273252079315043491e-19
8.860281399012143204e-20
6.010775430559916665e-20
