# bin_13_9
7.591100539349235560e-14
8.435007151361858359e-14
9.183248137763068131e-14
9.744796515408053705e-14
1.000878132602788263e-13
9.892678012259702491e-14
9.261951448209242487e-14
8.193891962178700773e-14
6.855988301454326526e-14
5.602810669503935133e-14
4.716630629339003519e-14
4.081154140435427107e-14
3.221537950975570020e-14
2.227727650659737511e-14
1.764079333207099519e-14
1.275916407458487664e-14
9.212556686157540336e-15
6.366057151861929136e-15
4.609412464525189001e-15
3.258690448773656976e-15
2.312431944190837003e-15
1.664492294304634037e-15
1.215529798265524910e-15
9.044705371020632425e-16
6.855012900128527734e-16
5.272109070677979762e-16
4.094425228830110920e-16
3.188697688766412989e-16
2.472428260920806315e-16
1.896058841027797950e-16
1.430448124806614441e-16
