# bin_5_13
2.675341941448962958e-07
2.847117366826440856e-07
2.937196529237458830e-07
2.919970680764087503e-07
2.757413424109479378e-07
2.460148490846553095e-07
2.076537858928006276e-07
1.699202484816666637e-07
1.418471729674240708e-07
1.224382580354823264e-07
9.903105182201727991e-08
6.991711882572610599e-08
5.356733368365031329e-08
4.068507752854573154e-08
2.874139101542924906e-08
2.097541851081024173e-08
1.531103927295304177e-08
1.110266403097432463e-08
8.161930585827798703e-09
6.103510311019275613e-09
4.647411013191057180e-09
3.599071854174035915e-09
2.824644821631498619e-09
2.231856782184327067e-09
1.763171570891772444e-09
1.382977442983893469e-09
1.069988688429614874e-09
8.120896361875175090e-10
6.019958077193461475e-10
4.345480485040699830e-10
3.051872718556087840e-10
