# bin_18_14
6.423185413416495111e-13
7.246990546767978878e-13
8.037581679161359592e-13
8.727512085305064361e-13
9.228118644270229040e-13
9.435095147035509975e-13
9.266330361296967546e-13
8.605686880203757561e-13
7.555596234272363752e-13
6.282319711115827415e-13
5.138806508434688601e-13
4.358818174413818900e-13
3.760848358048343597e-13
2.895534206475138718e-13
2.000415950281235054e-13
1.614501942099734286e-13
1.116548187176043237e-13
8.286399522683254200e-14
5.583693621977161330e-14
3.938791748025639176e-14
2.746183186936300156e-14
1.913613663392817152e-14
1.340810166315788829e-14
9.488469200062883537e-15
6.838064929634192209e-15
5.025566149242288092e-15
3.764274057285401817e-15
2.867229882657748389e-15
2.208141207723638717e-15
1.707369853202773107e-15
1.315538712165130429e-15
