# bin_8_10
5.945747455865185842e-08
6.497629345965319182e-08
6.929943021404726604e-08
7.165598317211289388e-08
7.142859111611999412e-08
6.765159765173234535e-08
6.051019921073242476e-08
5.116967357214506622e-08
4.186124692027115384e-08
3.488732203858032918e-08
3.017123447556713904e-08
2.455716162076717796e-08
1.726946276630682528e-08
1.315665881560169876e-08
1.005265864369439587e-08
6.994065151574652165e-09
5.080535587947253201e-09
3.679522127770150512e-09
2.624366256333449963e-09
1.890818512746239294e-09
1.383297534514964709e-09
1.029663299557728609e-09
7.802912738975901286e-10
6.013202138477329338e-10
4.687717738939348987e-10
3.674435639977894525e-10
2.875872363925566216e-10
2.231824702178036244e-10
1.707092538704926937e-10
1.280587695512886090e-10
9.385110981074831241e-11
