# bin_13_15
3.015277256356526395e-08
3.372679419011643453e-08
3.701710699146903908e-08
3.967910175430824051e-08
4.127886256501333170e-08
4.143600176769332150e-08
3.960973384405872299e-08
3.573508457128030158e-08
3.047583480452972839e-08
2.497705183908842238e-08
2.068796431330611988e-08
1.787877767147260310e-08
1.483738410782457848e-08
1.056027096892045067e-08
7.806001242226975631e-09
6.137590005664114384e-09
4.129272451206031924e-09
3.054242768997338941e-09
2.156957133789100766e-09
1.502069315165553286e-09
1.054731576395488044e-09
7.461094614093746206e-10
5.352722404411320126e-10
3.903020847436712755e-10
2.903110583728825580e-10
2.197981935383762825e-10
1.688290231593903741e-10
1.308215913999937458e-10
1.015278713012787239e-10
7.835148835010332735e-11
5.974299207616322401e-11
