# bin_12_6
4.530864569362098397e-20
4.992012717948492787e-20
5.378371604033265608e-20
5.633304062952113060e-20
5.699385558657132713e-20
5.513006956695488897e-20
5.034009916624106094e-20
4.346961897877163960e-20
3.578998555376775694e-20
2.941580520933055098e-20
2.524398931453548576e-20
2.140952352043458215e-20
1.575668523711092291e-20
1.120780363118081712e-20
9.104633805675743693e-21
6.094518161358984888e-21
4.649809102303873031e-21
3.247540016564758172e-21
2.293119384338925766e-21
1.646183932473052038e-21
1.189642260974935046e-21
8.718415641451698192e-22
6.496054340757843493e-22
4.933874299316419188e-22
3.804702039215338094e-22
2.963405931385047132e-22
2.316645730913944804e-22
1.804443209096935583e-22
1.391158118527092938e-22
1.055553356558391726e-22
7.847388766950440937e-23
