# bin_2_3
1.393919384785629695e-07
1.390605363248115006e-07
1.321272868393359665e-07
1.186867730502997344e-07
1.009438500946351322e-07
8.285038943339974569e-08
6.880980773965452107e-08
5.909520871134814322e-08
4.847388901776192572e-08
3.504459791047125589e-08
2.622493756060939937e-08
2.036954931319201870e-08
1.440985750329656676e-08
1.076766200576061217e-08
7.882237011164126002e-09
5.831294348049172046e-09
4.389305935423603121e-09
3.363942687756642810e-09
2.625290783587068209e-09
2.079102365975306818e-09
1.661935468148922233e-09
1.330730279101711035e-09
1.059475424246345544e-09
8.329649496677879418e-10
6.427316580246209023e-10
4.843561992250952364e-10
3.553338792959580620e-10
2.534585249773233261e-10
1.759550372368989732e-10
1.191758036070929607e-10
7.901381259714129372e-11
