# bin_20_12
1.259555640396672156e-21
1.422418018136093364e-21
1.579347460348162175e-21
1.717258540652056469e-21
1.818842621612552673e-21
1.863372362231319809e-21
1.835136209091918020e-21
1.710052103207851457e-21
1.506131301650947688e-21
1.255358982991967498e-21
1.026383458306282574e-21
8.681550330005104463e-22
7.503865836253016434e-22
5.833345052154352103e-22
4.023165368747545934e-22
3.226786470324295518e-22
2.265007766122714770e-22
1.661291865944287520e-22
1.120310749739245258e-22
7.953425335650417724e-23
5.527209526298673237e-23
3.836438301994251459e-23
2.680974995576816951e-23
1.891202785927389232e-23
1.357622520791274273e-23
9.938503948342312704e-24
7.417062899066365344e-24
5.633249566457181769e-24
4.330542403206146989e-24
3.346548712203865190e-24
2.580143006116583674e-24
