# bin_1_7
6.008049687842106860e-07
5.790137246243656711e-07
5.283692460525040026e-07
4.565463494571566380e-07
3.777556567768706480e-07
3.115897545631292687e-07
2.652245622623968512e-07
2.222705131925968420e-07
1.671313369187189510e-07
1.215929229633425391e-07
9.532421121351254616e-08
6.859706133988986201e-08
5.108189662255672284e-08
3.735942229857921258e-08
2.781779965597152058e-08
2.097637871431679768e-08
1.610512453399158365e-08
1.259755113992378348e-08
1.000356480041558218e-08
8.021324005915946317e-09
6.446265783763301346e-09
5.152951833956294606e-09
4.068725893253356319e-09
3.153786018220360386e-09
2.387991388580742458e-09
1.760456453108833060e-09
1.262104639532152855e-09
8.805679217718358946e-10
5.993098328222894188e-10
3.991319133134431957e-10
2.609865303510756099e-10
