# bin_3_2
3.468428640904949576e-09
3.509788340893981013e-09
3.400350161254744934e-09
3.114704360581349557e-09
2.699217179307228753e-09
2.229665753179018570e-09
1.831215304825991684e-09
1.562298652938875374e-09
1.325569382504116561e-09
9.946959053047812577e-10
7.104593536788009313e-10
5.707239494064907633e-10
3.996935785853211463e-10
3.025651837407556318e-10
2.173258636665226831e-10
1.602840535940479204e-10
1.197182200766382139e-10
9.082394677341005294e-11
7.018367202307825863e-11
5.512045944139787544e-11
4.383240481418330170e-11
3.503934058451581543e-11
2.794845905169541824e-11
2.208568811477005330e-11
1.717758226940939007e-11
1.307710408811000937e-11
9.703725382211062149e-12
7.002889834527112645e-12
4.914565304505658696e-12
3.360450620172400513e-12
2.245689286429836990e-12
