# bin_20_17
2.434137022768208976e-11
2.759495989124928753e-11
3.078457309486615132e-11
3.366741086138631068e-11
3.591754635994296065e-11
3.712773554413916539e-11
3.698724511693817977e-11
3.497308612752316598e-11
3.122463610547890904e-11
2.634347579162251463e-11
2.154279276471582634e-11
1.800305441489490379e-11
1.560246403023251801e-11
1.262732178455029795e-11
8.778296625225074650e-12
6.745287218117235547e-12
5.063245394257135452e-12
3.496329892587149299e-12
2.455397454079456832e-12
1.749138856085928143e-12
1.201413125570191402e-12
8.219135820754090465e-13
5.670188957319186981e-13
3.945288330500561027e-13
2.782279696076126253e-13
1.999373825134770187e-13
1.465466589511657926e-13
1.096014748194812238e-13
8.334824421840475609e-14
6.407388167711383589e-14
4.942601650680327358e-14
