# bin_3_7
2.827406055778252040e-07
2.907592274553852870e-07
2.879302325799807761e-07
2.707550152587477532e-07
2.406757709190369054e-07
2.026371354518656638e-07
1.659207102498711733e-07
1.388560916755558870e-07
1.195028767449473800e-07
9.579666972309740036e-08
6.796732021356662420e-08
5.236793002170790629e-08
3.945040874343331055e-08
2.827399513948549204e-08
2.071289075412338187e-08
1.522101684696553493e-08
1.119696605421388555e-08
8.369735152116347174e-09
6.371819523974106491e-09
4.938702563291950273e-09
3.886467483721803693e-09
3.088805553395936274e-09
2.461158092481013868e-09
1.951910226937564089e-09
1.530275301046287692e-09
1.178649544352192674e-09
8.873964738925932085e-10
6.508255179244114349e-10
4.641799680757152287e-10
3.221743932506350343e-10
2.180963583992348254e-10
