# bin_15_6
1.573082825858226110e-30
1.748423388842069140e-30
1.904134277123791693e-30
2.021379290917629535e-30
2.077139129593477463e-30
2.054366728467889517e-30
1.924907606513401848e-30
1.704181923142773548e-30
1.426786023479935716e-30
1.165934216221478373e-30
9.808853593959793479e-31
8.489567015979687623e-31
6.716190216359169564e-31
4.644136569360438244e-31
3.670604083400437216e-31
2.664062369947405805e-31
1.917623479863155346e-31
1.326649594201575689e-31
9.613610110332090145e-32
6.791714801071268970e-32
4.815318931274528920e-32
3.464032953474923947e-32
2.528131469011957541e-32
1.879877361745549584e-32
1.423900092268294123e-32
1.094586688430423202e-32
8.498355536809739032e-33
6.617968289471914550e-33
5.132058274786698676e-33
3.936872705793401265e-33
2.971411421418278432e-33
