# bin_11_13
3.821481595499276139e-08
4.243304320015763488e-08
4.615703888109270440e-08
4.892693647535705862e-08
5.018907920161805699e-08
4.952072855887858862e-08
4.626748589099847600e-08
4.085351584389129940e-08
3.413331188311936507e-08
2.790208600676001602e-08
2.352826821944857472e-08
2.033637554274669543e-08
1.596141158312773761e-08
1.105005164532959477e-08
8.782793682030307244e-09
6.299640081876712251e-09
4.579985902410506831e-09
3.162946695429499453e-09
2.282779913313510236e-09
1.616725265834049686e-09
1.149772892701238425e-09
8.287856413927043568e-10
6.061852663509621842e-10
4.518324387410362695e-10
3.429559913094339886e-10
2.640620735683453218e-10
2.052066811281360397e-10
1.598272968676245442e-10
1.238743120830366444e-10
9.491693747115996003e-11
7.152399991675605642e-11
