# bin_13_2
2.694630333730141992e-48
2.957103570346729502e-48
3.170310453389545446e-48
3.299889636680556765e-48
3.315136341577443700e-48
3.173563029943950122e-48
2.867354557484556630e-48
2.449283450558939021e-48
2.007930293543348818e-48
1.660310771756118357e-48
1.433156714166930079e-48
1.193927773311535220e-48
8.548564160639495294e-49
6.287293217852299257e-49
4.989178749387828733e-49
3.369285580024166329e-49
2.527123194714526023e-49
1.800380186594517514e-49
1.275394411560089033e-49
9.159387974516670081e-50
6.650273251329172246e-50
4.912050244190414658e-50
3.692480269670166790e-50
2.826472417877047248e-50
2.192802937889963735e-50
1.714421530083442160e-50
1.341779829664060788e-50
1.043650155782291836e-50
8.016904934542628229e-51
6.049645765153817342e-51
4.465987064663457727e-51
