# bin_9_20
1.697738147390066357e-07
1.868502250303282839e-07
2.010421804772587544e-07
2.102155058903901937e-07
2.122785236736999445e-07
2.047756066715960195e-07
1.864908740851650253e-07
1.606055216565562926e-07
1.321195922569241745e-07
1.087781887853765489e-07
9.346258808296568164e-08
7.886752304445818391e-08
5.769033307949538481e-08
4.141911014255167175e-08
3.336977316069818827e-08
2.246158567313661959e-08
1.701653312204000028e-08
1.194433963836279055e-08
8.450631740723889021e-09
6.065241125796501706e-09
4.388295521519662031e-09
3.222193499732586461e-09
2.406035460180258513e-09
1.830825749947535516e-09
1.413815503709990244e-09
1.102118759585017934e-09
8.617278613350895277e-10
6.708917360028268542e-10
5.167089862422360567e-10
3.914883786929332745e-10
2.905194084430611646e-10
