# bin_20_16
1.225813545955590296e-12
1.388696260622517703e-12
1.547868294159379856e-12
1.691021504772363064e-12
1.801648848198228207e-12
1.859215144128501826e-12
1.848389356351155338e-12
1.742998092717370276e-12
1.552242336670470116e-12
1.306413593036339363e-12
1.068046136359600532e-12
8.945369804617114340e-13
7.752203625467977127e-13
6.230512664241394516e-13
4.316833816593413297e-13
3.347894596012935946e-13
2.483412433302705546e-13
1.733005944266086420e-13
1.204180661168460906e-13
8.603767774888914682e-14
5.920661186027018992e-14
4.057131944272406296e-14
2.806174662516010986e-14
1.957608656583681456e-14
1.385216498601326949e-14
9.990260030626534577e-15
7.348988739059179792e-15
5.513994279572552078e-15
4.203310637436049751e-15
3.235638172131968570e-15
2.496461087448423233e-15
