# bin_12_7
1.034687770740535374e-16
1.142363880193316311e-16
1.233931051333851402e-16
1.296580053740856903e-16
1.316513532127798882e-16
1.280354987462894969e-16
1.175953987999280105e-16
1.021440255619812516e-16
8.435235270816849880e-17
6.916547067706033293e-17
5.912002721313064031e-17
5.051460742812630000e-17
3.778243749333293543e-17
2.651930442461290708e-17
2.161454154599234935e-17
1.457296915164442577e-17
1.110421455779717887e-17
7.679464638182744315e-18
5.434538894640750614e-18
3.897019700681256810e-18
2.810713658880534423e-18
2.051382217601872738e-18
1.521074458443593164e-18
1.150055375289271569e-18
8.836086497616680917e-19
6.865121922733857703e-19
5.361215235736238209e-19
4.177560631382363588e-19
3.226192257388819687e-19
2.454656636170511654e-19
1.831550676519690305e-19
