# bin_20_18
2.429857091993436812e-10
2.756392416291488294e-10
3.077453884006940925e-10
3.368939576139866898e-10
3.598494058091439804e-10
3.725573193427267391e-10
3.718394822644766580e-10
3.524790422141878828e-10
3.154395726715288833e-10
2.667485108802962731e-10
2.182102526804433006e-10
1.819826792786717750e-10
1.576993966166855799e-10
1.284141863359242751e-10
8.960976912786475553e-11
6.825682123712135107e-11
5.178053426319665625e-11
3.543638314188132923e-11
2.514235863892098152e-11
1.784043530596892154e-11
1.223361136610483493e-11
8.360964939827368753e-12
5.754252139793197966e-12
3.994029440926644736e-12
2.807801200053842367e-12
2.010874986530850824e-12
1.468825170127302320e-12
1.095092364732827128e-12
8.307825241826478761e-13
6.377580854011487565e-13
4.917930602202499618e-13
