# bin_17_16
1.381649878634954876e-09
1.559294947408710346e-09
1.729990800076614281e-09
1.879276364443441438e-09
1.988106240006247565e-09
2.033957597955984113e-09
1.999287762641944545e-09
1.858691952705975708e-09
1.633488835573528151e-09
1.359256371450268346e-09
1.111695149759901006e-09
9.421266721019538098e-10
8.133024150736659946e-10
6.280774995727346359e-10
4.337136300968974193e-10
3.493225716196463797e-10
2.427422046424412862e-10
1.794559961076939353e-10
1.209746027063317262e-10
8.550914838318877876e-11
5.955542704203199607e-11
4.144684129218393027e-11
2.901638298682902254e-11
2.051357861535219098e-11
1.476551858515906702e-11
1.083844937370159197e-11
8.109034220467112289e-12
6.171041194051737564e-12
4.749816555678388592e-12
3.671949439110402713e-12
2.829772524050604473e-12
