# bin_16_18
2.244545144968830110e-08
2.531302053689630652e-08
2.805978177781898749e-08
3.044883123176647780e-08
3.216974041472472100e-08
3.286150161922912359e-08
3.223155710152614472e-08
2.988840611944095605e-08
2.620322585825350870e-08
2.176716447769361245e-08
1.781135974321102878e-08
1.512554964745933340e-08
1.303419304301020862e-08
9.993734934061239489e-09
6.916257081335260669e-09
5.590030429306281704e-09
3.846237013793469588e-09
2.863456191602905773e-09
1.933282711249761176e-09
1.360160230286283877e-09
9.493349160116773997e-10
6.622470081179068341e-10
4.645411215961630263e-10
3.292209137433671366e-10
2.376599931066441303e-10
1.749569557472938767e-10
1.312441967408063316e-10
1.000808764427941182e-10
7.712387871482382055e-11
5.963860482697899600e-11
4.593275635230619224e-11
