# bin_19_8
4.538683903922278310e-35
5.099690881981884092e-35
5.628179173137694688e-35
6.074271281117230777e-35
6.374131246926708750e-35
6.461218860869611370e-35
6.265865645480185039e-35
5.735742643403261859e-35
4.965053005378414714e-35
4.092695522027954639e-35
3.361186569173499812e-35
2.882280622628545202e-35
2.453039138319718255e-35
1.813144039692695824e-35
1.279103493138098966e-35
1.041521116434987852e-35
6.907363837400174049e-36
5.251290609261967169e-36
3.604973973634691965e-36
2.497076913350815511e-36
1.753930009832140490e-36
1.232428137041337300e-36
8.732814015527801642e-37
6.269985015290534492e-37
4.592473360403959365e-37
3.428777431408057464e-37
2.604272777376568794e-37
2.004049573454152018e-37
1.551904713064281205e-37
1.200551188456280624e-37
9.212378167880477868e-38
