# bin_6_19
2.808675085160375775e-07
3.023110712390251596e-07
3.163649504507402895e-07
3.198450141290652830e-07
3.092001196231728836e-07
2.823485845641862352e-07
2.438452894367295128e-07
2.009424330456818196e-07
1.652428636564973050e-07
1.415524733115488206e-07
1.197847478039081630e-07
8.859862034566919205e-08
6.338958072732952220e-08
5.106500439448299225e-08
3.493041385755523231e-08
2.647261033812366725e-08
1.872180637245175719e-08
1.347990804598181490e-08
9.833427244524897295e-09
7.255086440489915791e-09
5.441570147670704377e-09
4.151583265138775900e-09
3.220747757243069489e-09
2.526505304427416758e-09
1.991014931425440204e-09
1.565449400399939988e-09
1.219475549423153026e-09
9.355207271842685474e-10
7.031902308765144081e-10
5.158498540732487697e-10
3.684698486713685664e-10
