# bin_5_8
1.452331995396856078e-07
1.544374066870697814e-07
1.591681198526715607e-07
1.580435944183957808e-07
1.490056547308901386e-07
1.327377148400180341e-07
1.118774771798930556e-07
9.152785620454449842e-08
7.649844964309943076e-08
6.603447810062843502e-08
5.321229514664141932e-08
3.749263313007996386e-08
2.886287841535944966e-08
2.180051158190636142e-08
1.546702232423643591e-08
1.124755273385398343e-08
8.222882558117363262e-09
5.968671260747195200e-09
4.391034945744683293e-09
3.286972003809802916e-09
2.505302357075371206e-09
1.941995644096311438e-09
1.525168963098865009e-09
1.205553183587592682e-09
9.524510363534057383e-10
7.468846522000829255e-10
5.775447433608946696e-10
4.379967234825002301e-10
3.243660912131282925e-10
2.338848186386967569e-10
1.640753077997927681e-10
