# bin_19_9
3.531511987722024789e-30
3.971584196692442010e-30
4.387892600170923844e-30
4.741979414891525203e-30
4.984379575471620372e-30
5.061855243068777213e-30
4.922630422430419605e-30
4.519919148575640797e-30
3.924628620499322304e-30
3.240228474378564062e-30
2.657886261927007152e-30
2.274369269683408282e-30
1.943111887031693980e-30
1.448637797181246787e-30
1.015053076340840214e-30
8.276791166367734783e-31
5.513521193222705687e-31
4.188302910700150864e-31
2.859391974661813541e-31
1.983040952812158336e-31
1.392454096773293396e-31
9.778110676689406296e-32
6.912076280145043853e-32
4.947015068715712070e-32
3.611300434009736075e-32
2.687652913189080340e-32
2.035815492613176124e-32
1.563658175601330610e-32
1.209804765447462905e-32
9.360376667392672955e-33
7.190234514281706834e-33
