# bin_6_11
1.691013439798021590e-07
1.819404954894273851e-07
1.903043827568977533e-07
1.922893675612564882e-07
1.857369846756544509e-07
1.694584699964036490e-07
1.462210044157115522e-07
1.204421599230929674e-07
9.908245721151549920e-08
8.492367669668544872e-08
7.177947388315859040e-08
5.296972304586031415e-08
3.797405759301394846e-08
3.056931892513310011e-08
2.089495477927317490e-08
1.583662838140716570e-08
1.121256361402390338e-08
8.071163523249736653e-09
5.889501257301987280e-09
4.347286803003625568e-09
3.262468175115505477e-09
2.490521330812992530e-09
1.933068046284516885e-09
1.516902000707998590e-09
1.195591200331373076e-09
9.400210438061631320e-10
7.321263565761343721e-10
5.614543703375234876e-10
4.218185840375174557e-10
3.092593073059402143e-10
2.207619568418310542e-10
