# bin_19_6
5.086060570689580299e-47
5.705226890463311340e-47
6.283766386467073314e-47
6.764922436326594773e-47
7.076614033965374193e-47
7.148190636956553853e-47
6.895474875932178051e-47
6.277084263580104207e-47
5.403017592820853247e-47
4.442095827662025478e-47
3.658074402516769450e-47
3.148151975374665683e-47
2.657273900129632499e-47
1.933756358628177882e-47
1.385997876720690666e-47
1.119262747517473112e-47
7.415083503679765486e-48
5.611780305997809679e-48
3.892455653654314812e-48
2.697828057664102736e-48
1.894504299799959941e-48
1.332942481394710335e-48
9.487231341237495868e-49
6.851531646724995449e-49
5.048480974738019159e-49
3.790200727616872607e-49
2.892087341751556645e-49
2.232290497123675577e-49
1.730760301325078590e-49
1.338123366565200130e-49
1.024584330589220041e-49
