# bin_7_20
2.411680579257433525e-07
2.619050326441609582e-07
2.771577680491109486e-07
2.838441842301414090e-07
2.794824679278367281e-07
2.605815046212803739e-07
2.296612429684975897e-07
1.916933101332868886e-07
1.567583420605369713e-07
1.322780594631459596e-07
1.140642876563742783e-07
8.921079912808738528e-08
6.214189983352646999e-08
4.940669441219860008e-08
3.552595461498952388e-08
2.602250345820643787e-08
1.827924875329980890e-08
1.330763948057428206e-08
9.601755539751716492e-09
6.990094543489763915e-09
5.171871664308382008e-09
3.891579862779115218e-09
2.981426590478516147e-09
2.317546889545828343e-09
1.817091533051430578e-09
1.427728274350404579e-09
1.116205916365114896e-09
8.625989610546961422e-10
6.552466477179388198e-10
4.870544396565904030e-10
3.530879322868027898e-10
