# bin_15_12
9.543506908948580647e-12
1.069401603694302092e-11
1.176327164332662182e-11
1.264381507615007077e-11
1.319969313429714017e-11
1.330284275062512545e-11
1.278950557285034173e-11
1.160296346717901827e-11
9.952427458289594522e-12
8.171235909627843009e-12
6.742428377032356360e-12
5.813550512816482509e-12
4.878246256129919668e-12
3.518145632508226945e-12
2.550232098780582831e-12
2.041791774278283039e-12
1.357799067740848738e-12
1.020693366562447655e-12
7.126581233899479107e-13
4.946814884374546519e-13
3.473157689193810928e-13
2.447540388963613508e-13
1.747145015944212687e-13
1.266390301585395486e-13
9.365214067237601590e-14
7.054265389133832014e-14
5.397006530476678376e-14
4.172568822110015737e-14
3.236794177168796198e-14
2.501081358697967483e-14
1.912202292677860930e-14
