# bin_17_1
1.077734565388741029e-80
1.198822466837799090e-80
1.306872398736721186e-80
1.389043421796882540e-80
1.429528216237856637e-80
1.416618778524890383e-80
1.330642060753370214e-80
1.180786284696087589e-80
9.906270139130214313e-81
8.095504181097565781e-81
6.796757656361303404e-81
5.885180593944922449e-81
4.687604820222162752e-81
3.245692261823388957e-81
2.546483518065382664e-81
1.868793006574088208e-81
1.331490484668776086e-81
9.273082047199273027e-82
6.721018882771884871e-82
4.738377942488263384e-82
3.351420703125212501e-82
2.406010716512813114e-82
1.752459291027392669e-82
1.300146948841651386e-82
9.827929302728106887e-83
7.542767728314490811e-83
5.850147007481283858e-83
4.554144371439594802e-83
3.532712091085746925e-83
2.712389939406013855e-83
2.049962884606836787e-83
