# bin_18_18
4.833953799245678089e-09
5.470291048892967292e-09
6.089095142867186525e-09
6.641276424704395987e-09
7.061227017120296829e-09
7.268172098049269458e-09
7.202516658944714068e-09
6.763740990290267311e-09
6.000237809879358517e-09
5.032247071218226778e-09
4.113295544019326263e-09
3.456799475995100483e-09
2.994224935887294503e-09
2.379540188729761241e-09
1.643512412682837302e-09
1.291282583389594479e-09
9.399256658008178529e-10
6.673451285172696476e-10
4.574548575794713616e-10
3.270867384820930836e-10
2.257845248147849964e-10
1.553070757120296293e-10
1.078251130484242715e-10
7.551366877220168209e-11
5.370712391001131373e-11
3.894189180222238552e-11
2.879741485011652477e-11
2.170558609506222932e-11
1.660026693330276820e-11
1.279971637314983026e-11
9.875359518935059815e-12
