# bin_7_2
1.458099463826545021e-19
1.544378457135431033e-19
1.583710435379047747e-19
1.562784345697282309e-19
1.461150963846289361e-19
1.291293704386681410e-19
1.079975162973852557e-19
8.825471570035941109e-20
7.425263275635442356e-20
6.412018860846382805e-20
5.061893655083415937e-20
3.527283130379736159e-20
2.791485427378109035e-20
2.040300128130827431e-20
1.487989273464994695e-20
1.056650746765527954e-20
7.792824900814634167e-21
5.690350957869498687e-21
4.205001207584379688e-21
3.165704963776969597e-21
2.425491127883866916e-21
1.889357491055219474e-21
1.489053442023294181e-21
1.179297676311015993e-21
9.319835416598681966e-22
7.298486569339119128e-22
5.627848101110534235e-22
4.250454840993316032e-22
3.131469881413075102e-22
2.244774154507556760e-22
1.565353596442454453e-22
