# bin_12
0.000000000000000000e+00
0.000000000000000000e+00
0.000000000000000000e+00
0.000000000000000000e+00
0.000000000000000000e+00
0.000000000000000000e+00
3.354705735262064035e-321
1.231323811437201683e-273
5.649980074616034747e-233
4.143921007443069192e-198
3.677254278184114425e-168
2.104949470226030763e-142
3.127232559792318532e-120
3.863300090199546966e-101
1.056244814449527971e-84
1.461200500525159845e-70
2.063212706482481206e-58
5.407139679362836954e-48
4.387092837910515022e-39
1.710029644736743679e-31
4.676754289891058527e-25
1.245399278124495248e-19
4.292064779399282124e-15
2.453278019848066360e-11
2.890071815560690201e-08
8.497576562844126000e-06
7.392225296125011979e-04
2.216812211542363090e-02
2.633705636660106375e-01
1.407613871189548060e+00
3.789377349894903713e+00
5.638813665084836835e+00
4.964612464331006336e+00
2.708399821080964553e+00
9.472135175740216129e-01
2.189866173560325591e-01
3.453112395684209551e-02
3.835511937968789226e-03
3.099142930368143246e-04
1.879369470196253552e-05
8.809603315547770450e-07
3.281122734773801238e-08
9.959415025109735838e-10
2.521706768006705234e-11
5.440361018150629125e-13
1.019598159442992669e-14
1.689381856282425597e-16
2.514483167159347138e-18
3.410924092114373756e-20
4.272585048402667126e-22
5.001074680368629411e-24
5.529210434444181115e-26
5.830724678438667238e-28
5.916625576382443862e-30
5.823542969859519519e-32
5.600182638349499141e-34
5.296144145574082253e-36
4.954838625935400268e-38
4.610351699873243403e-40
4.287182289405214026e-42
4.001639036265872117e-44
3.763927901732346145e-46
3.580327965037894468e-48
3.455171867982584923e-50
3.392573406373571423e-52
3.397986997614188258e-54
3.479774735634586353e-56
3.651033921345550261e-58
3.932039610046028822e-60
4.353827598607178585e-62
4.963748442763185376e-64
0.000000000000000000e+00
0.000000000000000000e+00
0.000000000000000000e+00
0.000000000000000000e+00
0.000000000000000000e+00
0.000000000000000000e+00
0.000000000000000000e+00
0.000000000000000000e+00
0.000000000000000000e+00
0.000000000000000000e+00
0.000000000000000000e+00
