# bin_11_8
4.424278145117575303e-08
4.886308805490024902e-08
5.280038186494293813e-08
5.550697002201458386e-08
5.638995879729226476e-08
5.487885873184066089e-08
5.044502390392238334e-08
4.385295012456903897e-08
3.623901646973381021e-08
2.972006646825356294e-08
2.539762614277117859e-08
2.171208655332136153e-08
1.626768963359850895e-08
1.141604009081075528e-08
9.298312645988209945e-09
6.283270125219095737e-09
4.781728814731759786e-09
3.305138512749370310e-09
2.341434289176700242e-09
1.678350531597083500e-09
1.210101711117287283e-09
8.828630668945261825e-10
6.543626801765257699e-10
4.945414367121954320e-10
3.798317351707839438e-10
2.950370602523254284e-10
2.303832546191387315e-10
1.795290293542383665e-10
1.386708295731012094e-10
1.055401214992318211e-10
7.878013791116281892e-11
