# bin_16_15
5.717493328154172955e-06
6.445968781752339674e-06
7.142749877584436437e-06
7.747184047387716164e-06
8.179968975637075753e-06
8.349523142636812651e-06
8.180308644104621133e-06
7.575015984778664538e-06
6.632546525417304040e-06
5.504602834344453255e-06
4.506542724636441439e-06
3.833304316115154328e-06
3.300968557597305192e-06
2.518852773873892183e-06
1.745083454825185363e-06
1.415484258327504979e-06
9.662165942924434308e-07
7.241705648029664154e-07
4.887124824265809764e-07
3.426422555997897777e-07
2.396002444454976005e-07
1.675149477431434508e-07
1.176634051373809615e-07
8.352090123607897020e-08
6.040894994406607255e-08
4.455585850379066597e-08
3.348244954107684061e-08
2.556769063307006384e-08
1.972015476444829040e-08
1.525390629309734030e-08
1.174540714772064778e-08
