# bin_15_4
9.405080466760611918e-38
1.043038100275382289e-37
1.132841052037254500e-37
1.198503228991238674e-37
1.226484560969252468e-37
1.206252959885592699e-37
1.122419687967065704e-37
9.873359924422119262e-38
8.222962706335419032e-38
6.724844558153633271e-38
5.692667417908277050e-38
4.914874549683941062e-38
3.810530440191375792e-38
2.636801667049167931e-38
2.120847281605949188e-38
1.491094469084232058e-38
1.104049416885637730e-38
7.560503816679934991e-39
5.439426284204090006e-39
3.868017368306113215e-39
2.763878985767374880e-39
1.999055671657720431e-39
1.467106834285738305e-39
1.097695295651912223e-39
8.359622753408547145e-40
6.453308679537176281e-40
5.023011449963140089e-40
3.914034914989807752e-40
3.031743538038966853e-40
2.319460482529737092e-40
1.743816570463477237e-40
