# bin_19_9
4.627128575650214400e-25
5.205464813371765665e-25
5.753370559156606083e-25
6.220555289016339654e-25
6.542211020869844082e-25
6.648037664300784972e-25
6.470661971635013424e-25
5.946938255371793592e-25
5.168698971504929890e-25
4.270294815874998218e-25
3.503040013993609886e-25
2.996739655089201711e-25
2.562539121456959557e-25
1.914361877906970119e-25
1.340133656264373204e-25
1.092870190193553091e-25
7.290861782507266653e-26
5.536650325735958216e-26
3.776106391798156563e-26
2.620455171370037455e-26
1.839751114475503631e-26
1.291715292149800006e-26
9.126236168328913790e-27
6.527165271310318079e-27
4.761122472977747631e-27
3.540716701639902831e-27
2.680244853696236562e-27
2.057689659470459739e-27
1.591697922247461403e-27
1.231558022591317660e-27
9.462793986916335446e-28
