# bin_15_2
3.665019927271200234e-54
4.055361251069064753e-54
4.392264210864664392e-54
4.630760443549953159e-54
4.719773081963187860e-54
4.615442445468339201e-54
4.265585171294614082e-54
3.727980891330974641e-54
3.090487411225494575e-54
2.530476516987968845e-54
2.153814263336310163e-54
1.851239975056017035e-54
1.408028637985807476e-54
9.796671775197202540e-55
7.960477014680014023e-55
5.453073293491289476e-55
4.117750212135394782e-55
2.825926842415442715e-55
2.012625861319744723e-55
1.439069859169267597e-55
1.034618867118276812e-55
7.519533587749291293e-56
5.548562542589031840e-56
4.175079858345953628e-56
3.195033832050826405e-56
2.475357818679488529e-56
1.930505597638221785e-56
1.504574537713090688e-56
1.163753875184741977e-56
8.878502875776621542e-57
6.648973649800676298e-57
