# bin_11_1
6.524266533512071624e-41
7.082317677994425048e-41
7.490628368396612661e-41
7.665148622322999402e-41
7.539998426901316623e-41
7.019526807637327167e-41
6.178072517763613624e-41
5.148640604177268782e-41
4.209829576353905738e-41
3.558971815838323554e-41
3.071217326454334317e-41
2.390005615631465180e-41
1.659344270644522777e-41
1.330825343634823761e-41
9.469610999975021368e-42
7.009702889884432108e-42
4.879663890417138801e-42
3.558335802873106054e-42
2.572835594650107733e-42
1.876662904477656447e-42
1.390723732768049343e-42
1.047838269112251866e-42
8.039136958828879070e-43
6.256285178826157717e-43
4.909402358363622817e-43
3.859243958860996475e-43
3.017387603034204568e-43
2.331139845745450637e-43
1.769660818919716768e-43
1.314184710330302429e-43
9.515518791178572387e-44
