# bin_20_20
8.707780558300339113e-06
9.900730135720313082e-06
1.108653915410066141e-05
1.218022295534945977e-05
1.306816592364569389e-05
1.360708394592243859e-05
1.367022282277527908e-05
1.307767573872870587e-05
1.180495028029403871e-05
1.007243770365813654e-05
8.257445896383830826e-06
6.842179431244760263e-06
5.919396564104018454e-06
4.914900287709580709e-06
3.490022498391560589e-06
2.578878061616586545e-06
2.023795183105842696e-06
1.350467154110964593e-06
9.915513478694235989e-07
6.912240183033027340e-07
4.715997996473845021e-07
3.221730563726612511e-07
2.200628286319854049e-07
1.514385336627667897e-07
1.052859685247457620e-07
7.447871848320387864e-08
5.370577021914741220e-08
3.955597268753863313e-08
2.971479220515710881e-08
2.266515383293261868e-08
1.743524505911107993e-08
