# bin_16_12
6.852018276887977244e-09
7.697114124958554713e-09
8.492229046866317502e-09
9.161778686014252068e-09
9.609132406083340404e-09
9.734836324612290859e-09
9.431464958977598340e-09
8.624973916592625440e-09
7.458705614560752403e-09
6.146443235648371628e-09
5.052293785454726764e-09
4.336875245547462286e-09
3.684750152047873133e-09
2.714414040933952820e-09
1.922106803877501256e-09
1.562808798043208446e-09
1.035941692885348379e-09
7.871436606886166946e-10
5.417592058867249748e-10
3.753107989046498794e-10
2.636142278493835089e-10
1.852872054042938007e-10
1.314282057344436846e-10
9.449110616175580871e-11
6.930602928743030203e-11
5.181079596155735682e-11
3.939468256948771867e-11
3.033735662460568401e-11
2.350053772360359215e-11
1.817861693501917770e-11
1.394332054513409381e-11
