# bin_16_3
1.630932124650221806e-50
1.812194502177167923e-50
1.972853153342560424e-50
2.093318653448793505e-50
2.149747539426012325e-50
2.124359480002148823e-50
1.988317657709191708e-50
1.758607483548193613e-50
1.471217890532259251e-50
1.202654795051666084e-50
1.013147832712621338e-50
8.766735738572032566e-51
6.910274574236561774e-51
4.778256420152954468e-51
3.791272222649923372e-51
2.735027696696113942e-51
1.980179369355874927e-51
1.365965222480624994e-51
9.890749138985086390e-52
6.996376120000777275e-52
4.967473544406510558e-52
3.577113531961368859e-52
2.613175648462092032e-52
1.945247177641688558e-52
1.474820581699865250e-52
1.134578629254367816e-52
8.812955922396035878e-53
6.863882379356324717e-53
5.321839063227220080e-53
4.080652617656506818e-53
3.077913276757189654e-53
