# bin_12_6
2.339563851347184897e-15
2.579354790451041399e-15
2.781163585529727749e-15
2.915788888145011131e-15
2.953147786006651082e-15
2.860906148022345512e-15
2.616590099497334051e-15
2.263238355780783336e-15
1.865213172347704497e-15
1.532513004699474149e-15
1.314259929329081880e-15
1.116871085096549618e-15
8.251700700573533857e-16
5.850689945761548399e-16
4.760389160317002359e-16
3.189248714810968752e-16
2.434849765071567292e-16
1.696835762527613585e-16
1.198403511248647219e-16
8.601971345346300010e-17
6.213780343467767612e-17
4.549443257007611419e-17
3.385955622141750776e-17
2.569025768522358634e-17
1.979441694197653730e-17
1.540930338034007816e-17
1.204413684375979700e-17
9.382877704314865614e-18
7.237370167803777462e-18
5.495491068256798723e-18
4.089444203344818898e-18
