# bin_18_5
2.239632023758692146e-44
2.505870432222750665e-44
2.751339406482979657e-44
2.950468633419914300e-44
3.071034253607964983e-44
3.084549958509885871e-44
2.950700697870385607e-44
2.663772371325967101e-44
2.273217078889631965e-44
1.863527215262267431e-44
1.543275506923177588e-44
1.334194624612075067e-44
1.108671442688473730e-44
7.892793263470458540e-45
5.828671218847667555e-45
4.593007433898252234e-45
3.083784750473569433e-45
2.286461140311391681e-45
1.613981687297318065e-45
1.123644187306456342e-45
7.888583126144313677e-46
5.577337584143692912e-46
4.000118050411683031e-46
2.915914202262171006e-46
2.168290815554965643e-46
1.641288076945578190e-46
1.260559950537396104e-46
9.768056896455424344e-47
7.581981567141691792e-47
5.852747740489653875e-47
4.464245809660999482e-47
