# bin_19_19
8.631954655145151852e-06
9.799563822803060507e-06
1.095163762312046513e-05
1.200304443068919653e-05
1.283946613905235738e-05
1.331723094674017590e-05
1.331978391981772872e-05
1.266248250100734912e-05
1.136257905309938364e-05
9.635203683711607208e-06
7.887652836410318326e-06
6.566150178170154759e-06
5.689471361943626988e-06
4.661650498370711152e-06
3.268005199323932716e-06
2.467675558823120954e-06
1.891778400103331914e-06
1.284050226965311767e-06
9.207054197708780109e-07
6.503371393425665771e-07
4.452813025229095289e-07
3.041539805878454366e-07
2.088362068826305235e-07
1.445920500282042894e-07
1.013215907123794916e-07
7.230672132799685333e-08
5.262280859540529888e-08
3.910097097766556219e-08
2.958520347412078789e-08
2.267467947643094259e-08
1.747693797283350769e-08
