# bin_15_3
2.106632622734408382e-45
2.333500696510877747e-45
2.530693922054097180e-45
2.672496408915735347e-45
2.729035656202125365e-45
2.675976980537508504e-45
2.481044900432730994e-45
2.175022103695883639e-45
1.806867834950375225e-45
1.478483997070533307e-45
1.255237614375618183e-45
1.081461865251897131e-45
8.299603654498787486e-46
5.756313937733226115e-46
4.658709531475470833e-46
3.227930420890316018e-46
2.417708778512612999e-46
1.655551149677766008e-46
1.184603176505840319e-46
8.450136328076791072e-47
6.059527794245807768e-47
4.394062757351558579e-47
3.234005313111606019e-47
2.427043519597486084e-47
1.853169630152305387e-47
1.433382219080318579e-47
1.116908244893367575e-47
8.704456419745522470e-48
6.737467449301368751e-48
5.147045966317819645e-48
3.861711472592000814e-48
