# bin_15_13
1.451051772373915848e-06
1.629613036511702444e-06
1.797412475784991573e-06
1.938405281376285426e-06
2.032104057552738329e-06
2.057618050735882364e-06
1.991920087824540474e-06
1.820057808313955088e-06
1.572606256915955193e-06
1.295389839631046328e-06
1.065197828279141976e-06
9.148748603163398991e-07
7.763926671581017360e-07
5.705798107813602762e-07
4.049221878766651189e-07
3.289394597958800740e-07
2.179133197776741768e-07
1.655241180394058239e-07
1.141047516944390602e-07
7.904298436585651560e-08
5.551856649029956510e-08
3.902832016456123665e-08
2.770228241702917673e-08
1.993441926920443440e-08
1.463467330367320977e-08
1.094980004445595469e-08
8.331781207442793636e-09
6.419330371712893553e-09
4.973724434471244307e-09
3.847122207645044474e-09
2.949895136539343682e-09
