# bin_18_5
2.246347739900184590e-44
2.513382311663148615e-44
2.759584318209838896e-44
2.959306574639451610e-44
3.080228618402481945e-44
3.093778989222778353e-44
2.959522558373319611e-44
2.671729305233728906e-44
2.280000628787732658e-44
1.869082588650531809e-44
1.547871586720917481e-44
1.338163712997636523e-44
1.111967382649432663e-44
7.916316171011096613e-45
5.846132423613057824e-45
4.606853728268928633e-45
3.093273340586066357e-45
2.293643519545883085e-45
1.619222670904001931e-45
1.127462793802109461e-45
7.916893256936900073e-46
5.598662362849320059e-46
4.016491796086759355e-46
2.928702154459567949e-46
2.178418831959818285e-46
1.649368838247797987e-46
1.267007924815365163e-46
9.819140992841124647e-47
7.621877116845364906e-47
5.883289239089263457e-47
4.487064005679450409e-47
