# bin_17_10
1.673715989820894891e-15
1.878513378917175613e-15
2.070383550054065057e-15
2.230713387245825955e-15
2.335804343311245049e-15
2.362038463159882049e-15
2.282107871810967380e-15
2.080886590281130699e-15
1.794180610797112180e-15
1.476465131370393977e-15
1.215331467499596006e-15
1.045212685821799386e-15
8.842554910872557458e-16
6.460803600660171786e-16
4.612639549452145991e-16
3.735240174086076239e-16
2.473925241803809167e-16
1.875900883283134329e-16
1.298301275229331313e-16
8.997164935035359108e-17
6.320028941277989832e-17
4.445936757291392870e-17
3.161820957615534469e-17
2.280871367745175516e-17
1.678714136072813828e-17
1.258976484444149744e-17
9.598246440031628989e-18
7.404542897168446504e-18
5.740031392569591910e-18
4.438785121508156859e-18
3.400517287940546215e-18
