# bin_20_5
1.571196581888394320e-53
1.765450805748976989e-53
1.948451400064844180e-53
2.102909980404666283e-53
2.206696057406260698e-53
2.236810119772220055e-53
2.168928081541627725e-53
1.985225149653550262e-53
1.718328592198640219e-53
1.416612620996024846e-53
1.163947252439709620e-53
9.985446114191097788e-54
8.494807317702311999e-54
6.273374943011861442e-54
4.431600500053807849e-54
3.607315067706061323e-54
2.392259997054339423e-54
1.818767276190731286e-54
1.249845770926542132e-54
8.659605560219797366e-55
6.083507934387637364e-55
4.276021194208570454e-55
3.031694716081005108e-55
2.178250612624815804e-55
1.596607546483235555e-55
1.192825573287230244e-55
9.064967512891838238e-56
6.978406795696357738e-56
5.405015657369738092e-56
4.181310016153799832e-56
3.207966295700522332e-56
