# bin_20_19
6.261966257856276860e-06
7.114630004447768327e-06
7.959164388042501523e-06
8.734165260336600658e-06
9.357334577054338573e-06
9.725065191551935889e-06
9.749430861588826200e-06
9.298548902725519864e-06
8.369375595396253402e-06
7.119506597088060385e-06
5.832056597301869443e-06
4.842920525095964237e-06
4.193675997403314142e-06
3.460458554243194118e-06
2.441227224540625652e-06
1.822808105194368660e-06
1.414915824299838664e-06
9.514050637615882392e-07
6.909642683582934661e-07
4.848252545079076601e-07
3.313624919407555089e-07
2.263471218405787653e-07
1.550081191852177719e-07
1.070125852240122858e-07
7.470800917245360774e-08
5.309385058228089215e-08
3.847352404602364578e-08
2.847086967252233768e-08
2.147123374820067874e-08
1.642088055288458666e-08
1.264661493917416243e-08
