# bin_20_8
1.461540785880846837e-33
1.645625299998909468e-33
1.820698987107715701e-33
1.971025628637707689e-33
2.076215282341550196e-33
2.113531810499271891e-33
2.062577165430705020e-33
1.901258990700195741e-33
1.657322285649727411e-33
1.371560589981864727e-33
1.124091235036758074e-33
9.595426392000875265e-34
8.230854528911224693e-34
6.200325086085087864e-34
4.319119242893246816e-34
3.518874318583230208e-34
2.365028108283167662e-34
1.789814389517171053e-34
1.214842355879311782e-34
8.456655827751251756e-35
5.932291615387068426e-35
4.161567188691541146e-35
2.934352388857020666e-35
2.093085556837557856e-35
1.522290682689138231e-35
1.128900100512851617e-35
8.524517858505480014e-36
6.532993551599155584e-36
5.049048587553506456e-36
3.906773249177921274e-36
3.004395939738181464e-36
