# bin_17_16
5.839700491311591606e-06
6.598813309031994266e-06
7.332182332842347734e-06
7.979475036672019079e-06
8.460590488666261031e-06
8.678784613999733301e-06
8.561530392660214988e-06
7.994214971850714828e-06
7.054510702649701411e-06
5.889732907690836428e-06
4.816171694868361836e-06
4.068563941682715179e-06
3.519482134292108760e-06
2.750377101813842181e-06
1.896891981532733987e-06
1.515630041526407858e-06
1.072763608790817108e-06
7.815740183654950810e-07
5.281949659502362138e-07
3.760809902469832215e-07
2.610006970599553826e-07
1.808151046950271689e-07
1.262152928137470896e-07
8.891486275066182807e-08
6.371692236873081506e-08
4.655975862592718932e-08
3.468795655244095493e-08
2.630895772560655273e-08
2.020694797980370394e-08
1.561064176056738858e-08
1.203872020297253105e-08
