# bin_14_7
1.345624494376808462e-17
1.494743452460859337e-17
1.626678110547371250e-17
1.725238947470047011e-17
1.770784746415380435e-17
1.748619446430990408e-17
1.635177388505203597e-17
1.445059040664324378e-17
1.208043783340474176e-17
9.875430208340851971e-18
8.325399430386619541e-18
7.202113887351633875e-18
5.662799233374175178e-18
3.915123444765177525e-18
3.113847479374712272e-18
2.237493110802929917e-18
1.625988499830888411e-18
1.119838448036106386e-18
8.105070171364809038e-19
5.739215479920159063e-19
4.080126251422279187e-19
2.941297926867034613e-19
2.151133416054006203e-19
1.603271802786769168e-19
1.216887270884571420e-19
9.369756454745839019e-20
7.282202135776739154e-20
5.672906139609161877e-20
4.397919378344496026e-20
3.370846974186320763e-20
2.540903398968163163e-20
