# bin_8_2
8.530588669575702540e-19
9.114838767106162711e-19
9.449723232113847858e-19
9.451928938729461462e-19
8.995365349772509113e-19
8.083702418499205849e-19
6.868126609258441813e-19
5.624055902364914344e-19
4.668891863898226028e-19
4.033896703894125287e-19
3.322163247258049553e-19
2.359461391886183997e-19
1.771073814336185156e-19
1.382659090121736394e-19
9.542988184421026657e-20
7.091367047444004400e-20
5.152807844555509932e-20
3.717753991023028883e-20
2.722153277246442800e-20
2.026055604388593694e-20
1.536342446053647274e-20
1.185233473138643332e-20
9.277072944062901859e-21
7.320195029325212737e-21
5.783202920731030218e-21
4.542610835945026610e-21
3.523744587069753178e-21
2.684155625244682455e-21
1.998495801333511956e-21
1.449477267371565392e-21
1.022756135294948573e-21
