# bin_12_11
5.552012554762598973e-06
6.184192628409365049e-06
6.752721882825863182e-06
7.191952698230893627e-06
7.420311691980118000e-06
7.376346645136365222e-06
6.956556231260261636e-06
6.196582979121789233e-06
5.217184349191618839e-06
4.265842224853852147e-06
3.571347789106807083e-06
3.093832216281315208e-06
2.489232083077377143e-06
1.729720490959944911e-06
1.341237990627434705e-06
1.000617289868042893e-06
7.025515692697786454e-07
4.952583851260234351e-07
3.583038834035576536e-07
2.519351282063326998e-07
1.776967987917786999e-07
1.271959699090785503e-07
9.238599736314893171e-08
6.832067720805061452e-08
5.149384570011353204e-08
3.942769242631996922e-08
3.053312871974590551e-08
2.375622173353540151e-08
1.843582600283773034e-08
1.417293380951272527e-08
1.073249182025970066e-08
