# bin_13_10
8.158959665605084868e-08
9.090034563779208655e-08
9.928462028501220369e-08
1.057792940356442894e-07
1.091863267431586769e-07
1.085976980381474328e-07
1.024908740152654335e-07
9.135557890490201859e-08
7.696660569573897955e-08
6.293706256019637312e-08
5.265988343465507812e-08
4.561885973896211566e-08
3.677024043761845529e-08
2.557495266111499597e-08
1.978214614647187036e-08
1.480316292481837894e-08
1.036553807917951820e-08
7.326672722625695854e-09
5.295636266327690576e-09
3.721501891963499676e-09
2.623781438998254102e-09
1.876879613931694871e-09
1.362392020566040510e-09
1.006806571219667869e-09
7.583555568031536516e-10
5.803512379915191451e-10
4.492670396875125555e-10
3.494971342112399515e-10
2.712372767046198361e-10
2.085669907290037517e-10
1.579968511749910879e-10
