# bin_15_1
4.330838887879980149e-64
4.787662452623249719e-64
5.179504190749248903e-64
5.452994294031502094e-64
5.548835373279420185e-64
5.413367920471500449e-64
4.989470553383206677e-64
4.349091246641110473e-64
3.599383385306188327e-64
2.949202656469384327e-64
2.515389032691020558e-64
2.156784501206041603e-64
1.628058711953214863e-64
1.136878327978371665e-64
9.258176392777248761e-65
6.290896940613331305e-65
4.775346218115592486e-65
3.287870577325983599e-65
2.334171461954190538e-65
1.671905848033447693e-65
1.204332098521868872e-65
8.771991885833010455e-66
6.488834480911168468e-66
4.894668568489186039e-66
3.753476088425116192e-66
2.912370228997474659e-66
2.273054117941137291e-66
1.771534225634123508e-66
1.369284906303101133e-66
1.043319069239636629e-66
7.799543903805035100e-67
