# bin_20_14
1.319424348819189228e-11
1.493154889291314575e-11
1.662098555357958058e-11
1.812846407358530064e-11
1.927463475151303628e-11
1.983859892661724562e-11
1.965773605757883228e-11
1.845726321850322926e-11
1.637187010658080444e-11
1.372955902863674698e-11
1.122516002301173550e-11
9.439106251293524293e-12
8.177213868629089925e-12
6.492038216937140644e-12
4.482460367700745503e-12
3.528485894075753959e-12
2.563329683261547509e-12
1.824119887505930055e-12
1.247837504527227986e-12
8.929520303688612087e-13
6.167785470878101784e-13
4.245007116293647040e-13
2.949478625713950152e-13
2.067160206142125143e-13
1.471556752902060270e-13
1.067985270158254491e-13
7.904849524327325624e-14
5.962850566319038215e-14
4.563016997329184368e-14
3.519526488702625610e-14
2.715632587698500517e-14
