# bin_3_2
9.985926086729165289e-06
1.017420214489959227e-05
9.952461052656255466e-06
9.214206276957815663e-06
8.068942962371028105e-06
6.707415512519480949e-06
5.492640238662093677e-06
4.654141756584135415e-06
3.990619620185680614e-06
3.075228517817009239e-06
2.165265319681142311e-06
1.733821861562405126e-06
1.238392015123070728e-06
9.256705588319029427e-07
6.623604108480835476e-07
4.900539033897154593e-07
3.642431273477347639e-07
2.747730261013543046e-07
2.112000610915997789e-07
1.651039563147034910e-07
1.308548377406703389e-07
1.044443830716756948e-07
8.333204735931269287e-08
6.598470751453915112e-08
5.150606917544531590e-08
3.940337888667890693e-08
2.940838347824318701e-08
2.135464788811480781e-08
1.507577959449596471e-08
1.036364531302213609e-08
6.957071600990379562e-09
