# bin_8_7
6.030383682877708874e-06
6.577713854121363940e-06
6.998687791424987642e-06
7.214417655155833841e-06
7.164910617517181881e-06
6.751233437398733035e-06
6.009381071273279149e-06
5.057251402893244049e-06
4.134624485313179386e-06
3.461141156403617122e-06
2.995736345275570721e-06
2.408045867136841252e-06
1.678928948881280721e-06
1.303666606737012787e-06
9.754776544829373805e-07
6.908432251578708575e-07
4.928849143877167205e-07
3.600677491377899809e-07
2.578622275055974464e-07
1.862378081320701131e-07
1.368572152059812388e-07
1.023081895707723866e-07
7.787267961020440014e-08
6.022924063944477269e-08
4.707444447805711480e-08
3.694939262306641935e-08
2.892032150623387642e-08
2.241758527595272251e-08
1.710878773329574816e-08
1.279425530038925691e-08
9.340281374956666855e-09
