# bin_15_5
3.818815657182690405e-31
4.240587252138392688e-31
4.612987494986103048e-31
4.889985417811550734e-31
5.015963023331028508e-31
4.949075610411135050e-31
4.623251496756642626e-31
4.081808275295670168e-31
3.409571697157348456e-31
2.787375474639428243e-31
2.351871282568979435e-31
2.033880172254547913e-31
1.594553110296210091e-31
1.102387107853186927e-31
8.790417959379703551e-32
6.287569457880675995e-32
4.587942420293316760e-32
3.154386292252769314e-32
2.280974757751424398e-32
1.616646981427990557e-32
1.150600816895967960e-32
8.301026293411965693e-33
6.075914594057492753e-33
4.532563400230700901e-33
3.442962937404100572e-33
2.652643481537969725e-33
2.062414159826499145e-33
1.606795813274206121e-33
1.245464629603779479e-33
9.542329789963800243e-34
7.188805148429863441e-34
