# bin_20_17
3.824902494124708819e-07
4.339137794798698363e-07
4.844801488736007333e-07
5.303944964824914376e-07
5.665573006339558920e-07
5.865743990453246406e-07
5.854447865452301090e-07
5.549292154946575711e-07
4.966118580727529979e-07
4.199550207018422858e-07
3.436278734617444213e-07
2.867235478816186971e-07
2.485108988641834800e-07
2.022433009615503686e-07
1.410807359839391036e-07
1.076168750208898574e-07
8.153701023694918926e-08
5.587743298518357434e-08
3.959404844862139774e-08
2.812100290426317315e-08
1.929224014443477310e-08
1.318876848254152483e-08
9.082327524961252010e-09
6.307990403304790419e-09
4.437883507968061126e-09
3.180811860290460660e-09
2.325235559437589766e-09
1.734852276597635208e-09
1.316882817841567168e-09
1.011288855928557487e-09
7.799428515255346439e-10
