# bin_17_15
1.745995353631965639e-06
1.970863855590898564e-06
2.187098347858711655e-06
2.376438458839700376e-06
2.514803894431684396e-06
2.573640823173827019e-06
2.530774306688643450e-06
2.353862902601713493e-06
2.069630644971505965e-06
1.722881268716082157e-06
1.409437685994612153e-06
1.194558244331635323e-06
1.031543278170576623e-06
7.971032019956315655e-07
5.504455023875131772e-07
4.434266575599388497e-07
3.083054026079805388e-07
2.279791786698534706e-07
1.536051365647572803e-07
1.086342139688918553e-07
7.567402111868604806e-08
5.267673247348529943e-08
3.688389535137161120e-08
2.607895120487137825e-08
1.877376730845386543e-08
1.378212779162830848e-08
1.031243839418558609e-08
7.848580515045421025e-09
6.041525336672554984e-09
4.670891519322889737e-09
3.599837607574375316e-09
