# bin_15_8
7.900754525726584447e-17
8.810558417319346485e-17
9.634194204063743145e-17
1.027902314499393702e-16
1.062924381789688488e-16
1.059517865762379015e-16
1.002843455224919070e-16
8.963106991664233144e-17
7.570963308647545369e-17
6.192783241680530976e-17
5.169448802336944186e-17
4.478451247612943116e-17
3.636141255481926838e-17
2.537823157362121313e-17
1.944126122404028163e-17
1.472579668493561565e-17
1.019985024523689094e-17
7.283844494734387685e-18
5.247993731600142643e-18
3.680004148228269137e-18
2.589810626034508161e-18
1.847827754683569493e-18
1.338030350256324539e-18
9.860589967284800813e-19
7.408383930581943740e-19
5.657555935293255680e-19
4.373403624499586135e-19
3.400142800740550356e-19
2.639340372549205246e-19
2.031423488198611601e-19
1.541219315631824874e-19
