# bin_10_6
2.707513661150752429e-10
2.965260925633974734e-10
3.171035809107966245e-10
3.289874039040295685e-10
3.292624368645406316e-10
3.135021607048023521e-10
2.817984404530639110e-10
2.394428235545879821e-10
1.960644783083729642e-10
1.628069365422676532e-10
1.407992591253422774e-10
1.159693217130397728e-10
8.208522738382871163e-11
6.156981759350448518e-11
4.795035120048818099e-11
3.283381129871875313e-11
2.422195902369603434e-11
1.744632188488209635e-11
1.240354445877994505e-11
8.917275525833400610e-12
6.501176382708178564e-12
4.823654221181370346e-12
3.643306857163187762e-12
2.800083093773608462e-12
2.178826287060003926e-12
1.706429159091903948e-12
1.335916174666531951e-12
1.038023051653553429e-12
7.956274135698615246e-13
5.985045406164014618e-13
4.400844699728627248e-13
