# bin_19_12
2.794425222520249931e-23
3.152534860135388238e-23
3.496034847671870364e-23
3.795508393795340343e-23
4.012308600009986656e-23
4.101076414724008908e-23
4.025842741876474349e-23
3.736543993151700715e-23
3.278898677042624332e-23
2.725296621897346619e-23
2.230089737900043235e-23
1.893489382301756412e-23
1.633418071928237300e-23
1.254441508325551506e-23
8.670758573426275996e-24
7.014093581049311368e-24
4.828937556603579383e-24
3.599137046869481354e-24
2.422753746766183844e-24
1.705944323628893999e-24
1.190754636241991063e-24
8.309300762118860646e-25
5.826208878320723863e-25
4.126335833340900037e-25
2.976723014026464238e-25
2.189887390337238715e-25
1.641801259066637431e-25
1.251490689415615565e-25
9.642881406954825509e-26
7.457549508223000130e-26
5.745616366968561056e-26
