# bin_18_7
1.623316297942199574e-49
1.819439017929442716e-49
2.001906943094108608e-49
2.152449259080804717e-49
2.247935880162056603e-49
2.266464503168721569e-49
2.180092957577159399e-49
1.978780715461790227e-49
1.698154541286609721e-49
1.394643103664854373e-49
1.150850897046996176e-49
9.925294606804143692e-50
8.334474915597278174e-50
6.012404969622996315e-50
4.356312417523936743e-50
3.493118931899550396e-50
2.319818967622699020e-50
1.746873490886775015e-50
1.219394699321078395e-50
8.462596667216782227e-51
5.941739023373005905e-51
4.185425954339248482e-51
2.987223602601836306e-51
2.164921038833061158e-51
1.600766503518500928e-51
1.205619427388123836e-51
9.223332157443156975e-52
7.130978283057415475e-52
5.532311300583683523e-52
4.275575154430663186e-52
3.269614479509178472e-52
