# bin_7_6
1.014722031352474405e-10
1.098108498857806452e-10
1.156939648660366890e-10
1.178556277992893067e-10
1.151956963091287918e-10
1.064331260588760367e-10
9.300014919750935680e-11
7.709518172297901728e-11
6.311396984989581869e-11
5.368181512442218443e-11
4.611079784311303937e-11
3.513092327713319196e-11
2.451771305245605382e-11
1.990925718190931436e-11
1.377273990536426110e-11
1.042444989560569793e-11
7.251364341956914967e-12
5.243814143576418307e-12
3.813084221920792059e-12
2.798932050133394225e-12
2.084446314693454339e-12
1.578396810951118234e-12
1.216746686766921832e-12
9.502943849608369256e-13
7.472984996579503143e-13
5.877544071461255045e-13
4.590527988197008596e-13
3.537831219016591242e-13
2.675914706894462297e-13
1.977925180040852361e-13
1.424488231575587771e-13
