# bin_15_15
1.207766852157557822e-10
1.359980215326582867e-10
1.504786833326882450e-10
1.629191708734364914e-10
1.716351065188454658e-10
1.747425827541205957e-10
1.705648068192123549e-10
1.572563441020247066e-10
1.371085860463647174e-10
1.134760876984173762e-10
9.299193556414097037e-11
7.937112591023201752e-11
6.810730083036124156e-11
5.133076286970766666e-11
3.573427577031057040e-11
2.912403774214603467e-11
1.956917701108837218e-11
1.481559516233571744e-11
1.004927116905909869e-11
6.992520383880493917e-12
4.905176241817131707e-12
3.440812710635344773e-12
2.425087742028066267e-12
1.728870529232393786e-12
1.256681078584564029e-12
9.314161134001842100e-13
7.029952929364499374e-13
5.385775544607810883e-13
4.161701837863168921e-13
3.220168193638178517e-13
2.476748663325963933e-13
