# bin_20_12
8.700531445589666823e-27
9.828680109983416478e-27
1.091715077995751715e-26
1.187576510189699340e-26
1.258497263752232152e-26
1.290091404115425742e-26
1.271537673313664300e-26
1.185964523928586137e-26
1.045477726947915013e-26
8.720669629216460002e-27
7.131342932259233305e-27
6.030033811475400927e-27
5.214829272315528068e-27
4.061919236578018304e-27
2.800790588497687013e-27
2.244838367608107443e-27
1.580151467991326227e-27
1.157078153668419828e-27
7.798160972123446228e-28
5.545328204056498387e-28
3.851628919670330766e-28
2.671615085146671214e-28
1.866115822008159503e-28
1.315557263028991264e-28
9.436574114737449833e-29
6.902470761223613989e-29
5.147402478086283820e-29
3.907141154832882010e-29
3.002540534726650125e-29
2.320102708375666140e-29
1.789079471099100624e-29
