# bin_12_11
7.416511262674653968e-11
8.261299404429335939e-11
9.021184179226786588e-11
9.608475452399045503e-11
9.914080089948174540e-11
9.856240837686067023e-11
9.296002247208343443e-11
8.280976056033337473e-11
6.972124378579772900e-11
5.700464338595915404e-11
4.772194616478362882e-11
4.134645769615428727e-11
3.327700909557336484e-11
2.311159596446735688e-11
1.792265536637534646e-11
1.337562815996198630e-11
9.385532485380458851e-12
6.612637745574890176e-12
4.787711848993487056e-12
3.365353808039426702e-12
2.372156330820452907e-12
1.697410676216870448e-12
1.232372605209542113e-12
9.109534427157346803e-13
6.863140297736190586e-13
5.253210125310445226e-13
4.067235519290081472e-13
3.164193141382335616e-13
2.455592020232365309e-13
1.888008198404974162e-13
1.429974844007878841e-13
