# bin_13_12
7.129796156978470920e-11
7.970333915537962430e-11
8.741644549593931888e-11
9.361735391732308434e-11
9.727461018268359038e-11
9.751024017596570915e-11
9.301484177681774043e-11
8.373986416254771007e-11
7.125746872098108460e-11
5.836665228612636926e-11
4.843035839908638015e-11
4.191272085336213946e-11
3.463169415231645287e-11
2.449574797842945987e-11
1.826986459196423892e-11
1.425829758497964950e-11
9.636667274520423880e-12
7.080851071011108782e-12
5.028478233704867267e-12
3.506829692544700849e-12
2.462072641065833184e-12
1.744399678303860071e-12
1.254269353777138205e-12
9.170023278153707682e-13
6.838197696032588911e-13
5.189021665868802690e-13
3.992869652382474468e-13
3.097322662547807339e-13
2.404558749654438625e-13
1.854931472378337328e-13
1.412979668319579682e-13
