# bin_19_10
3.888118635730972635e-33
4.377969946541042409e-33
4.843908530973490474e-33
5.244080975959563227e-33
5.524255298944320512e-33
5.623815026470882561e-33
5.488735035044805468e-33
5.059746843699387525e-33
4.410881550138393326e-33
3.650232811555009097e-33
2.991365058626441397e-33
2.553525373464855040e-33
2.190972026873096457e-33
1.650578721116409317e-33
1.149147221393436647e-33
9.368464910308844986e-34
6.290258718270666763e-34
4.764757405623842705e-34
3.232321661496249460e-34
2.248201352194838398e-34
1.577348473008785390e-34
1.106627234914419014e-34
7.800251795007102842e-35
5.561521729101029168e-35
4.043117704096277825e-35
2.997049095948147227e-35
2.262328358575367732e-35
1.733371637633017967e-35
1.339484178065909619e-35
1.036452930084729321e-35
7.971489904678820488e-36
