# bin_11_3
8.198910913150042113e-41
8.941729010855228109e-41
9.512167314823093827e-41
9.802619295591061260e-41
9.732629856997684880e-41
9.166298810419501441e-41
8.155236724713690567e-41
6.859008832587911470e-41
5.606475749015392193e-41
4.695172500209036665e-41
4.065101210123068550e-41
3.264587749451639613e-41
2.271557775321198025e-41
1.768278773859585345e-41
1.320577414757090681e-41
9.364157456346581970e-42
6.658521860431890177e-42
4.876770031194323926e-42
3.492854335029868752e-42
2.521356202412884114e-42
1.853275785380857126e-42
1.385626999699751034e-42
1.054847418842722770e-42
8.159642879741115596e-43
6.378175686686703375e-43
5.006712954290392811e-43
3.918880922671182281e-43
3.037673665994021447e-43
2.318172656269153925e-43
1.733403484267553450e-43
1.265270211746585918e-43
