# bin_6_5
-2.619377565915519589e-10
-2.782446380894713857e-10
-2.863643811461141101e-10
-2.838618462089935232e-10
-2.669687179786941085e-10
-2.372587144986361418e-10
-1.994815489788903263e-10
-1.631362512999134135e-10
-1.366660974672584506e-10
-1.180761405595157348e-10
-9.457068096611025687e-11
-6.627693177312007677e-11
-5.155259273187303938e-11
-3.854163018692140305e-11
-2.757074714389809037e-11
-1.987646500164499563e-11
-1.460065098472699307e-11
-1.061771987638552838e-11
-7.819091727151545386e-12
-5.864051530820071781e-12
-4.477703081169776967e-12
-3.477048634063071859e-12
-2.734358502641177210e-12
-2.163115059254821574e-12
-1.709459282849582176e-12
-1.340151644849967289e-12
-1.035508587006673693e-12
-7.843465256275961262e-13
-5.799267903257990173e-13
-4.173658253052030200e-13
-2.922054214192988159e-13
