# bin_2_19
-2.956178963582626125e-121
-3.308461350189525628e-121
-3.633708283336173563e-121
-3.898241299603224306e-121
-4.059606647811169630e-121
-4.079840617296861994e-121
-3.905971487525594177e-121
-3.528783806073713770e-121
-3.013738748283446487e-121
-2.470981024274546093e-121
-2.045120797598772596e-121
-1.767765716851887160e-121
-1.471437805218341500e-121
-1.049065417349440743e-121
-7.726569807875218942e-122
-6.106500107154209405e-122
-4.090489593321049891e-122
-3.041785109731959413e-122
-2.143577755762386288e-122
-1.491583621209485293e-122
-1.047094766200734518e-122
-7.397993077616955831e-123
-5.302214193406886813e-123
-3.862063086649078909e-123
-2.869700041644550897e-123
-2.170811552731392213e-123
-1.666452529583573171e-123
-1.291017566974926665e-123
-1.002090674901013876e-123
-7.737163634018128827e-124
-5.903992301743355095e-124
