# bin_4_6
-7.486086514925755532e-14
-7.961631816974826293e-14
-8.205512987218408513e-14
-8.149310513008058008e-14
-7.681566213299448240e-14
-6.840678000374160636e-14
-5.760494411942889159e-14
-4.709683497587781802e-14
-3.938415358226520951e-14
-3.406267987182959639e-14
-2.744493249969551506e-14
-1.921595973126312646e-14
-1.488140149173415344e-14
-1.121871359609054712e-14
-7.965957429105405152e-15
-5.757004470595778770e-15
-4.236306551444528399e-15
-3.075524807105096478e-15
-2.260395054285304160e-15
-1.692960465994965132e-15
-1.291215730559543857e-15
-1.001607284355120030e-15
-7.871183682841351914e-16
-6.224950180144678349e-16
-4.920021383327801615e-16
-3.859113226358069426e-16
-2.984417594771907207e-16
-2.263128160167236334e-16
-1.675537455070913736e-16
-1.207533453229717627e-16
-8.465257371342145414e-17
