# bin_2_2
-1.815132854701417802e-10
-1.802187713831713020e-10
-1.700680150067500637e-10
-1.517188240290524316e-10
-1.281480653628674675e-10
-1.049609308877671455e-10
-8.759776897619977587e-11
-7.543812209186788245e-11
-6.103748854853475560e-11
-4.346361339106240675e-11
-3.322599741200056922e-11
-2.537828602436742880e-11
-1.810167440119550022e-11
-1.340370517762586636e-11
-9.900684551609981427e-12
-7.339336920449858729e-12
-5.540130531053797692e-12
-4.262634035532362587e-12
-3.339341405467159974e-12
-2.653085434395338876e-12
-2.124942564079191890e-12
-1.702576094917891145e-12
-1.354649454645976812e-12
-1.063039572227506307e-12
-8.178350494745332603e-13
-6.139387126834601893e-13
-4.484262438912150799e-13
-3.184102396651262592e-13
-2.201037975727487701e-13
-1.485171710662696100e-13
-9.815593198097793382e-14
