# bin_7_18
-2.404516031955715003e-52
-2.694375600201384101e-52
-2.963721270945600852e-52
-3.185435745572951975e-52
-3.325218327783623349e-52
-3.350876350203450670e-52
-3.220713761568692065e-52
-2.921049542607837522e-52
-2.504795846157024153e-52
-2.056492698896014117e-52
-1.697792841390710487e-52
-1.464843617165892640e-52
-1.228364197840605078e-52
-8.843223029882383584e-53
-6.424575503847520399e-53
-5.140347428313984733e-53
-3.417625999796342421e-53
-2.569009976411016851e-53
-1.795961167833706031e-53
-1.246907534890087144e-53
-8.754479224108380431e-54
-6.169381182435056509e-54
-4.406228243283880244e-54
-3.196016926342992083e-54
-2.365137770694301278e-54
-1.782647435279159344e-54
-1.364596367991512612e-54
-1.055419646503725544e-54
-8.189015287142369729e-55
-6.327929352341273830e-55
-4.837441248474284935e-55
