# bin_3_3
-1.326762439952840664e-10
-1.355003405943902874e-10
-1.329850963318618994e-10
-1.236052202866839274e-10
-1.086510875459769783e-10
-9.057150880150395226e-11
-7.412881022257865573e-11
-6.262370620318788922e-11
-5.381662528749309536e-11
-4.190182575673198453e-11
-2.945242517349108765e-11
-2.343236519493478406e-11
-1.694186460150853076e-11
-1.254112939918767507e-11
-8.996053698701904352e-12
-6.659474294908846062e-12
-4.936345768124320509e-12
-3.713662863944971628e-12
-2.847324289864357325e-12
-2.221038311990835427e-12
-1.757290013938337924e-12
-1.401271021464269111e-12
-1.117816514698193283e-12
-8.856323624551763270e-13
-6.921973236182982749e-13
-5.305533273838881752e-13
-3.969114853104408244e-13
-2.889702322815207415e-13
-2.045367766010987364e-13
-1.409432661485570825e-13
-9.480930337899445907e-14
