# bin_13_13
-2.090723863659033529e-11
-2.336941992525468717e-11
-2.562748117272791302e-11
-2.744077434078832656e-11
-2.850664012915990934e-11
-2.856851111284825197e-11
-2.724241551989384517e-11
-2.451887907543965912e-11
-2.085815285919378734e-11
-1.708460892990544400e-11
-1.418012403946370484e-11
-1.227126615261159890e-11
-1.013146726792931938e-11
-7.163854298172222129e-12
-5.348618027343855801e-12
-4.168632631776717639e-12
-2.820937897946715873e-12
-2.069979460482522767e-12
-1.470753014471283371e-12
-1.025928131627956900e-12
-7.203926711223955464e-13
-5.105647543199544983e-13
-3.672041629456827028e-13
-2.685410140639838810e-13
-2.003073549430822691e-13
-1.520323644504040975e-13
-1.170037032956979367e-13
-9.076634184048799892e-14
-7.046249786556806922e-14
-5.435005021963470421e-14
-4.139333379931141925e-14
