# bin_5_17
-3.393968807525541507e-65
-3.787400210280147097e-65
-4.144944630628934632e-65
-4.427011004213348491e-65
-4.583958938150313885e-65
-4.576603219258787073e-65
-4.341037716459423642e-65
-3.887568059816606691e-65
-3.290038896271612007e-65
-2.691794326123698406e-65
-2.243147538256743319e-65
-1.943312106572446557e-65
-1.586079214733459939e-65
-1.110014449434714214e-65
-8.442436237901893186e-66
-6.450503172944458700e-66
-4.433105465158107698e-66
-3.190497217270899483e-66
-2.291891351671014714e-66
-1.604322865443011884e-66
-1.127453578335192148e-66
-8.026597387597279850e-67
-5.799850446622407226e-67
-4.264011352916920255e-67
-3.196536050188864530e-67
-2.436596927165677536e-67
-1.881121579786690533e-67
-1.461647593874370541e-67
-1.134727724388244873e-67
-8.740142063568554148e-68
-6.639275352745857086e-68
