# bin_15_13
-1.083883742569626670e-10
-1.212852126860140507e-10
-1.331823616387253058e-10
-1.428433280467945409e-10
-1.487091863823764178e-10
-1.493966889521438702e-10
-1.429627116288777457e-10
-1.291087561349527977e-10
-1.102222913506836402e-10
-9.037434101222389311e-11
-7.482945905192722537e-11
-6.467360469765260166e-11
-5.377228387080105650e-11
-3.832683562307914100e-11
-2.826616629608666344e-11
-2.229351516523174231e-11
-1.496425611000601983e-11
-1.110208232571114593e-11
-7.830678750495080114e-12
-5.450697205978987269e-12
-3.826944471939333998e-12
-2.705275386823762202e-12
-1.939573898951907854e-12
-1.413248933374531463e-12
-1.050449391317281696e-12
-7.948271149211322136e-13
-6.102562772052074090e-13
-4.727875959033407360e-13
-3.669465726642622339e-13
-2.832660899558291897e-13
-2.160941561550892210e-13
