# bin_5_12
-3.196553261271982549e-33
-3.514776696102193373e-33
-3.777261957440152354e-33
-3.943607475891071327e-33
-3.975467259243360179e-33
-3.824329057114322859e-33
-3.472066363607035842e-33
-2.980693114921964641e-33
-2.448131043171959713e-33
-2.018830750095176947e-33
-1.739364259847452905e-33
-1.461814821727445632e-33
-1.058382656643364636e-33
-7.664813171090147882e-34
-6.166909381569422039e-34
-4.130083851054061940e-34
-3.133849727205651929e-34
-2.213463236484366956e-34
-1.564201053503611766e-34
-1.123110763878071435e-34
-8.131903546499047651e-35
-5.985350685273793242e-35
-4.482125923535713906e-35
-3.419605456997774718e-35
-2.646355522982948973e-35
-2.065985707178193696e-35
-1.616456003107732380e-35
-1.258321579089760208e-35
-9.683175854439890508e-36
-7.325862031140741826e-36
-5.425651228507155608e-36
