# bin_18_15
-1.191678840426920391e-10
-1.341351609122837321e-10
-1.483496308537200464e-10
-1.605239164195373122e-10
-1.689930299335948004e-10
-1.719207268856734278e-10
-1.676143254603956612e-10
-1.543433939484607944e-10
-1.344002400584466228e-10
-1.111660122472890311e-10
-9.114363446447497975e-11
-7.785816998783595370e-11
-6.670188736123443621e-11
-5.010309679750569927e-11
-3.497478067841958174e-11
-2.848763959243710800e-11
-1.911253332228974944e-11
-1.446959220666363454e-11
-9.839346883840491471e-12
-6.844785426996089148e-12
-4.801234448925234571e-12
-3.367893861358193799e-12
-2.375950341505229914e-12
-1.696026229525786280e-12
-1.234494206375260437e-12
-9.161686109456088123e-13
-6.922649333582624901e-13
-5.307701513170056844e-13
-4.102842187540601285e-13
-3.174387604442830080e-13
-2.440418977634587951e-13
