# bin_13_15
-1.786363858959056420e-13
-2.004829368150809468e-13
-2.209447626684334035e-13
-2.380341094301016650e-13
-2.492208947205411336e-13
-2.519895334639767800e-13
-2.434162798796969702e-13
-2.219069383011370801e-13
-1.912915673663809697e-13
-1.573995126295266562e-13
-1.295717493804335904e-13
-1.114518418562155762e-13
-9.426472615905733170e-14
-6.883101109380518854e-14
-4.916190345930415857e-14
-3.981011507036711951e-14
-2.635423960419194348e-14
-1.998518215667348230e-14
-1.383627299942306791e-14
-9.586089180878419182e-15
-6.732622295360792353e-15
-4.735225870293195328e-15
-3.367249500593117821e-15
-2.428900085727607897e-15
-1.787558043847119780e-15
-1.340537788153240422e-15
-1.021973770066970179e-15
-7.883879124164081164e-16
-6.111630184358122854e-16
-4.726214392410621797e-16
-3.620801451935291575e-16
