# bin_13_19
-3.447061077185022477e-22
-3.891648038581826350e-22
-4.319457455832717607e-22
-4.694509224552170558e-22
-4.969293705659464382e-22
-5.087246147532006727e-22
-5.004900729945872811e-22
-4.657627253111427802e-22
-4.097376458504499584e-22
-3.412062607208603179e-22
-2.790955465825414420e-22
-2.364416444137148479e-22
-2.042676247578776019e-22
-1.580806765313639810e-22
-1.090930717636734491e-22
-8.783815417413492788e-23
-6.119385275694206049e-23
-4.519430196521497970e-23
-3.041680549928096444e-23
-2.153772291186207561e-23
-1.499298849708333464e-23
-1.042934440179370944e-23
-7.297693104650012118e-24
-5.155518174487455703e-24
-3.707809650072324724e-24
-2.719353199817709750e-24
-2.032973137533741515e-24
-1.546217250347265641e-24
-1.189744457796579972e-24
-9.197405774841504005e-25
-7.089735158926149391e-25
