# bin_2_14
-8.233266394130683048e-79
-9.073216451018812242e-79
-9.777889874772252253e-79
-1.024431987712435881e-78
-1.036778766535535904e-78
-1.003239661548152264e-78
-9.163838295437080666e-79
-7.916014770240832640e-79
-6.519117855766974502e-79
-5.358737888133770367e-79
-4.599925335028291602e-79
-3.903286890412725781e-79
-2.872957510425815399e-79
-2.042319344195134857e-79
-1.661919924667202929e-79
-1.110375280860597269e-79
-8.487235690877133756e-80
-5.928204452231227307e-80
-4.183257504752381040e-80
-3.003502738400855530e-80
-2.170254424879678925e-80
-1.590366445951417072e-80
-1.184890728398224094e-80
-8.999113470628447739e-81
-6.939482984087484479e-81
-5.405202203300173493e-81
-4.225854402798337244e-81
-3.291911870740714570e-81
-2.538307905618033237e-81
-1.926278270071190727e-81
-1.432317528575312418e-81
