# bin_18_11
-3.853839154200428671e-10
-4.283096006672513615e-10
-4.664077867779352903e-10
-4.950573070064111899e-10
-5.086317682876765295e-10
-5.028983114838179958e-10
-4.710432010394465784e-10
-4.169182382875702420e-10
-3.490377752880910638e-10
-2.853575404200157280e-10
-2.402421446761774855e-10
-2.078610972758635452e-10
-1.641818561588424403e-10
-1.136631804753928977e-10
-8.990743006660807817e-11
-6.509762625246742627e-11
-4.696127272353742416e-11
-3.251655069103830305e-11
-2.351814699961101488e-11
-1.662584201949117233e-11
-1.179723133168870296e-11
-8.489061414920464754e-12
-6.197482482723618204e-12
-4.609968750269960249e-12
-3.492767325968502018e-12
-2.685496180375765245e-12
-2.085189142856985862e-12
-1.623752402678061852e-12
-1.259006201017244676e-12
-9.655919384084816382e-13
-7.285921230737074331e-13
