# bin_4_15
-8.486829481446363026e-62
-9.408581827157240046e-62
-1.021402317581031533e-61
-1.079995684206726879e-61
-1.104445507240172290e-61
-1.085219050327130239e-61
-1.008617111336414740e-61
-8.862666713843527377e-62
-7.374203056783745272e-62
-6.031063582210151130e-62
-5.110498188043172909e-62
-4.410771834219544216e-62
-3.407878352354940457e-62
-2.358030936636763410e-62
-1.902616693098768561e-62
-1.330015890686300590e-62
-9.899814816220813776e-63
-6.765067662547136580e-63
-4.860210221318917360e-63
-3.460213909913782621e-63
-2.476202283564536369e-63
-1.792603640824602493e-63
-1.316813719035940006e-63
-9.862723056581710001e-64
-7.517925408992228687e-64
-5.807660876617469908e-64
-4.522408520827775393e-64
-3.524364741936132609e-64
-2.729427351852211050e-64
-2.087265410466579321e-64
-1.568242452435849230e-64
