# bin_3_19
-7.647669544204496551e-106
-8.562970661239692116e-106
-9.410081128525671721e-106
-1.010220306174726123e-105
-1.052979914302186096e-105
-1.059307398958369934e-105
-1.015655060591510211e-105
-9.188993363474980304e-106
-7.859576251059300200e-106
-6.447174681008939384e-106
-5.330898874557234696e-106
-4.605036086769852994e-106
-3.843955543501597852e-106
-2.750171951519766974e-106
-2.015236973822109363e-106
-1.600309495875618542e-106
-1.068691738278033504e-106
-7.981400347404924053e-107
-5.607438052021319223e-107
-3.898503958855538702e-107
-2.736828291265216559e-107
-1.931643699085660888e-107
-1.382605242473754876e-107
-1.005504654144636897e-107
-7.460123645717724979e-108
-5.635744089431041381e-108
-4.321878305410833572e-108
-3.346216673108167843e-108
-2.597018654571476687e-108
-2.005805702613401266e-108
-1.531621225412621148e-108
