# bin_12_13
-3.188337073575353507e-12
-3.560130013881720501e-12
-3.899174109873099129e-12
-4.168462319075139856e-12
-4.321544889267927888e-12
-4.320742726911220175e-12
-4.106540190582319013e-12
-3.684440927297374728e-12
-3.124195791172375309e-12
-2.557101703854832756e-12
-2.127609246709635497e-12
-1.842589261937274144e-12
-1.510520159393943063e-12
-1.061132578337042496e-12
-8.014239376596150441e-13
-6.170296923173272908e-13
-4.214844309097107204e-13
-3.056505143659972914e-13
-2.186464597472492573e-13
-1.528473014009318277e-13
-1.073775739941656735e-13
-7.631175895223770093e-14
-5.504495596800469991e-14
-4.038916071825447645e-14
-3.022190621366793692e-14
-2.300067863996555903e-14
-1.773680929782204231e-14
-1.377374905966322384e-14
-1.069315076529689064e-14
-8.240806510799227849e-15
-6.266111652227024614e-15
