# bin_10_4
-1.244278856636247350e-09
-1.305626614829482595e-09
-1.324438031969386283e-09
-1.287003943159096413e-09
-1.182295852042213871e-09
-1.027325262505336501e-09
-8.497056099626568710e-10
-6.973704756496312451e-10
-5.946643840210938703e-10
-5.064402321643464569e-10
-3.814878258248152093e-10
-2.707108616128149870e-10
-2.180666274776449766e-10
-1.519443283281034759e-10
-1.148131652147720439e-10
-8.159149704376700926e-11
-5.962307599018347462e-11
-4.398862450426441231e-11
-3.288516166623780033e-11
-2.502063597699402630e-11
-1.936171017440041119e-11
-1.520872191878603157e-11
-1.205029252581560148e-11
-9.562740559524883798e-12
-7.547141847510178629e-12
-5.883524600697568303e-12
-4.503865243623374475e-12
-3.369261141633292652e-12
-2.454831022908564837e-12
-1.739582240481429159e-12
-1.199847374460635105e-12
