# bin_7_16
-8.261916257795191129e-41
-9.218316160308097614e-41
-1.008677717897747122e-40
-1.077081350785392055e-40
-1.114949329407337328e-40
-1.112788948501125212e-40
-1.055027637663168712e-40
-9.444153540006405694e-41
-7.989109021471466532e-41
-6.535935062399321339e-41
-5.448564245031917141e-41
-4.720471190212457341e-41
-3.848629298877876907e-41
-2.691415316116434788e-41
-2.050281149172581527e-41
-1.563690705101174481e-41
-1.076281970248231203e-41
-7.732299269265057501e-42
-5.559219641843673369e-42
-3.892691640964229015e-42
-2.736020603962939827e-42
-1.948631278926096578e-42
-1.408591091081161826e-42
-1.036044093927464070e-42
-7.769950252201833989e-43
-5.924788675865074726e-43
-4.575229566546951423e-43
-3.555401612451922382e-43
-2.760136530363525452e-43
-2.125682829059569056e-43
-1.614358543194055960e-43
