# bin_8_4
-9.776600500145692647e-10
-1.025563581314872598e-09
-1.039991322588616781e-09
-1.010109556510922236e-09
-9.274309990035757318e-10
-8.054407921862961226e-10
-6.659762734182892844e-10
-5.466736607852843319e-10
-4.663350758072096252e-10
-3.969301972622265651e-10
-2.985712445827102811e-10
-2.120488698814483592e-10
-1.708350707400966264e-10
-1.189095307665946019e-10
-8.991021306689404743e-11
-6.391395672183304628e-11
-4.669464899325528337e-11
-3.445913042632705726e-11
-2.576919605241201811e-11
-1.961267209022461729e-11
-1.518141243272953089e-11
-1.192794181810509538e-11
-9.452211922056052961e-12
-7.501314347063097819e-12
-5.919877056245517283e-12
-4.614255311192866709e-12
-3.531405527134652699e-12
-2.640986460717783649e-12
-1.923547268185658911e-12
-1.362611966487718088e-12
-9.395240933644938081e-13
