# bin_17_4
-1.760593681089443470e-09
-1.847976562842261284e-09
-1.875277091369338179e-09
-1.823217716550783212e-09
-1.675848813083889829e-09
-1.457010783793153618e-09
-1.205502640707473927e-09
-9.891990986479685106e-10
-8.431777010648605897e-10
-7.185094965823305004e-10
-5.420581184540566016e-10
-3.843114593646429640e-10
-3.095318662145348180e-10
-2.159171433117666746e-10
-1.630384327960828733e-10
-1.158245513283472672e-10
-8.465933866824840509e-11
-6.244275794904024150e-11
-4.666542933060263264e-11
-3.549331023692606922e-11
-2.745697439890963014e-11
-2.156204491858240777e-11
-1.708154873701649045e-11
-1.355475043830383419e-11
-1.069838591443887832e-11
-8.341500302188011184e-12
-6.387060852785155629e-12
-4.779585556519552527e-12
-3.483676964849467406e-12
-2.469595784000001616e-12
-1.703970733508805562e-12
