# bin_6_16
-7.649065107455244240e-49
-8.524046931032883564e-49
-9.313061494026806501e-49
-9.925943452812402019e-49
-1.025021324225539174e-48
-1.020095158327634167e-48
-9.634036791007725646e-49
-8.592871449057798186e-49
-7.243174418283910357e-49
-5.922716378159643689e-49
-4.952860334462005282e-49
-4.291531557516580997e-49
-3.466060340008180528e-49
-2.410462849673550627e-49
-1.861032702827379682e-49
-1.396934291265055094e-49
-9.749925472068617858e-50
-6.901485808665706111e-50
-4.991655901932341148e-50
-3.505125952471955569e-50
-2.468158094165917616e-50
-1.764041696386801340e-50
-1.279345063744259570e-50
-9.444861961731487573e-51
-7.107637819194589837e-51
-5.435265688009413475e-51
-4.205555035895677948e-51
-3.270998497895621429e-51
-2.538792471897742305e-51
-1.952859004856576251e-51
-1.480145876594967788e-51
