# bin_5_7
-8.378647296863128012e-14
-9.012336253894561712e-14
-9.423121863320864075e-14
-9.517158609569028395e-14
-9.184797244581814596e-14
-8.368793372736089974e-14
-7.211749696423833731e-14
-5.933591850206613623e-14
-4.882430763486346907e-14
-4.193106420783230514e-14
-3.543677212522055423e-14
-2.599579690763150574e-14
-1.865308135104937465e-14
-1.510407501118171364e-14
-1.021457087612313093e-14
-7.806416018942399699e-15
-5.534573906538531603e-15
-3.970763148148052076e-15
-2.900935737887483091e-15
-2.143009895147021691e-15
-1.609943742909166771e-15
-1.230446503730540127e-15
-9.561131269755971190e-16
-7.509390711587527551e-16
-5.922351655039928965e-16
-4.657760514670690493e-16
-3.627533600573377773e-16
-2.780980918818378179e-16
-2.088057078496797970e-16
-1.529487654827928343e-16
-1.090556616336502329e-16
