# bin_10_5
-8.898670799074745430e-10
-9.471688583828892369e-10
-9.772733275234314036e-10
-9.717644558124396916e-10
-9.177364425848538418e-10
-8.188300039684082473e-10
-6.910407237914485390e-10
-5.654212028253074168e-10
-4.721613422927294093e-10
-4.079130215129205800e-10
-3.299504310675144608e-10
-2.324110928313920077e-10
-1.784768557315023509e-10
-1.354914513616897178e-10
-9.572377892867075257e-11
-6.973545825345922732e-11
-5.101826944107059473e-11
-3.699616836437607080e-11
-2.718890578476645798e-11
-2.033477182954146071e-11
-1.548738852129517139e-11
-1.199730761100111494e-11
-9.418293170636240247e-12
-7.443502917259209104e-12
-5.881572336474980328e-12
-4.614030063450814545e-12
-3.570150523026589386e-12
-2.709724777735713497e-12
-2.008609290628450647e-12
-1.449703454641620150e-12
-1.017917634677962691e-12
