# bin_9_19
-2.206613094271342914e-42
-2.481799776811239744e-42
-2.742217399545630159e-42
-2.963814836248921464e-42
-3.115652362175696546e-42
-3.164419003694210485e-42
-3.077629786753866554e-42
-2.826008227471203632e-42
-2.454005543255872252e-42
-2.026355048788273858e-42
-1.662645069477927003e-42
-1.423309566047845578e-42
-1.216084179813750723e-42
-9.061496254662027348e-43
-6.350746825138313354e-43
-5.183437820598354426e-43
-3.447632007132563150e-43
-2.622557877477238278e-43
-1.791285472136835913e-43
-1.241470266614193617e-43
-8.719970620371798483e-44
-6.124964781227487376e-44
-4.330468812058606218e-44
-3.100017674483143401e-44
-2.263546382368347425e-44
-1.684984530244771150e-44
-1.276594241920785407e-44
-9.806901918958836829e-45
-7.588590276827672712e-45
-5.871806652006340312e-45
-4.510570276810185571e-45
