# bin_9_13
-4.460360341401054781e-18
-4.957471834559082349e-18
-5.398818677086939895e-18
-5.730900653869732190e-18
-5.888322767295183472e-18
-5.822773729937541975e-18
-5.454371183916275920e-18
-4.827852166266256126e-18
-4.041272614853458317e-18
-3.303218694177451704e-18
-2.780843203376159165e-18
-2.407172471868537308e-18
-1.901798371517322380e-18
-1.314497082544850451e-18
-1.041333575842282482e-18
-7.538571371488829222e-19
-5.441550620525185000e-19
-3.755080177199246217e-19
-2.723008870367501939e-19
-1.924704511275529491e-19
-1.365200265838740239e-19
-9.825489950017444960e-20
-7.173353765059651462e-20
-5.336185160356223438e-20
-4.043283941586847978e-20
-3.109064445347505916e-20
-2.414359769774799164e-20
-1.880314474444361159e-20
-1.458111300921244061e-20
-1.118411421635226636e-20
-8.439764488988591373e-21
