# bin_1_4
-2.227458184075265487e-17
-2.266957429340619672e-17
-2.214349807846438919e-17
-2.046055677983447243e-17
-1.788433064504290056e-17
-1.483924992061279235e-17
-1.215020268676099334e-17
-1.031427415239896386e-17
-8.843627460986165306e-18
-6.774806804988128462e-18
-4.762983321945445078e-18
-3.839886528937716333e-18
-2.714934959538235973e-18
-2.047828458545364773e-18
-1.457660903164216516e-18
-1.077880806964144030e-18
-8.025210414396500160e-19
-6.063498429994692248e-19
-4.665174058794237381e-19
-3.649784917077736003e-19
-2.894640255726158910e-19
-2.311328108339991290e-19
-1.844316864153833187e-19
-1.460126607174026672e-19
-1.139223756948457281e-19
-8.709250301982662047e-20
-6.494096621446750436e-20
-4.710572953692709819e-20
-3.321795847815700656e-20
-2.281063733921068724e-20
-1.529813168830423077e-20
