# bin_11_17
-2.938678601715394338e-23
-3.301051576827083755e-23
-3.641968477332519037e-23
-3.928996417560755635e-23
-4.120686894919993423e-23
-4.174427804673073984e-23
-4.044022743034366079e-23
-3.697740305138378299e-23
-3.197315976892530297e-23
-2.634442965917730932e-23
-2.165374187125066079e-23
-1.859025076526139772e-23
-1.579588503519203786e-23
-1.163059667580341841e-23
-8.233000335012078827e-24
-6.701317906300022859e-24
-4.434853441848282951e-24
-3.373804326818792829e-24
-2.322777686658921848e-24
-1.608207557205389732e-24
-1.129725042182316628e-24
-7.940013204106517681e-25
-5.632532642929322717e-25
-4.050066068576429157e-25
-2.971082087456241349e-25
-2.221452555541608614e-25
-1.689367866503951079e-25
-1.301140485796367528e-25
-1.008017931761504744e-25
-7.797872873640802189e-26
-5.981169282529125876e-26
