# bin_17_13
-1.944452229269418313e-10
-2.176421989630839054e-10
-2.390725930517175280e-10
-2.565232688663140194e-10
-2.672018843902257570e-10
-2.686027506930136034e-10
-2.572650372317902038e-10
-2.325399289204999138e-10
-1.987054455262544823e-10
-1.629733845522084537e-10
-1.348620922170060573e-10
-1.165125148544230150e-10
-9.703959072930859369e-11
-6.931837686799456250e-11
-5.096312328562565046e-11
-4.030704646655784271e-11
-2.700951132103688443e-11
-2.008803907961389549e-11
-1.414273256594686255e-11
-9.839421746312027248e-12
-6.908302334488886162e-12
-4.880677529891498973e-12
-3.496466284518591284e-12
-2.545237842750594906e-12
-1.890095760975174705e-12
-1.428978178692628759e-12
-1.096449346809899073e-12
-8.491450777635827152e-13
-6.589945908984889392e-13
-5.088084569747156814e-13
-3.883125188452823090e-13
