# bin_8_1
-2.936085086095698604e-09
-2.832670453298761168e-09
-2.586869815137475644e-09
-2.236370965502794973e-09
-1.849577868883941407e-09
-1.524547590732956356e-09
-1.299195803821263334e-09
-1.091867865938751536e-09
-8.197360528902959151e-10
-5.945428286653935976e-10
-4.688441868727124392e-10
-3.355149075089656095e-10
-2.508875300704721771e-10
-1.830416928964947965e-10
-1.362925739828675658e-10
-1.027762519113951277e-10
-7.889850374912652075e-11
-6.171401594878162686e-11
-4.900962998692061395e-11
-3.930668242005389743e-11
-3.159800389861407250e-11
-2.526793792040164631e-11
-1.995963387301161377e-11
-1.547759497383279619e-11
-1.172351356433147767e-11
-8.644845848305930361e-12
-6.198450257922137989e-12
-4.324768294965953060e-12
-2.943309721124465110e-12
-1.960073444115481268e-12
-1.281564382695304602e-12
