# bin_18_1
-3.781602393639668673e-09
-3.651111265956952811e-09
-3.336944082942501299e-09
-2.887028003786252877e-09
-2.388632445779831021e-09
-1.968263487377689414e-09
-1.676649158960832204e-09
-1.410480083680293861e-09
-1.060778588171753474e-09
-7.684487610134945941e-10
-6.061180310907996455e-10
-4.340849094444254527e-10
-3.244341826997780300e-10
-2.366520874966918961e-10
-1.761942354133552931e-10
-1.328137743799836113e-10
-1.019145319640843532e-10
-7.968607357346088587e-11
-6.326243042440777716e-11
-5.072808120612333328e-11
-4.077752404948706161e-11
-3.261139000872761379e-11
-2.576586903091864307e-11
-1.998644593180488491e-11
-1.514486936578663243e-11
-1.117274990034431511e-11
-8.014634842129714253e-12
-5.594320462324113655e-12
-3.808747272887594725e-12
-2.537196958630489885e-12
-1.659330163753809163e-12
