# bin_10_10
-3.095357759816069695e-11
-3.417750159745772889e-11
-3.692002172423489572e-11
-3.879751036224160436e-11
-3.939724176587609694e-11
-3.831653330464279877e-11
-3.519429637367833292e-11
-3.057238434371750420e-11
-2.525263938507286849e-11
-2.071410338494431351e-11
-1.771163080512900830e-11
-1.513088002472318233e-11
-1.131245190390477173e-11
-7.947012681887831997e-12
-6.476617797990154540e-12
-4.366473271516305369e-12
-3.327661522116366445e-12
-2.302446712820930598e-12
-1.629538390448878103e-12
-1.168575311383928957e-12
-8.429395606811718943e-13
-6.153259006067646668e-13
-4.563558307993359100e-13
-3.451098835851621841e-13
-2.651977945063993265e-13
-2.060703930938255238e-13
-1.609420419002410712e-13
-1.254149721435310392e-13
-9.685474288349055489e-14
-7.369046395251103223e-14
-5.498141115538101227e-14
