# bin_6_4
-5.952723899154888694e-10
-6.238953222414207393e-10
-6.320375364738984374e-10
-6.129893921629720862e-10
-5.619078611033387443e-10
-4.872196523152255856e-10
-4.024776802702312151e-10
-3.305491401900571595e-10
-2.822883307243224812e-10
-2.398740157631608840e-10
-1.796568283463955373e-10
-1.279190996201372659e-10
-1.030971653714544203e-10
-7.153330863804031846e-11
-5.419540331931096131e-11
-3.856179207186207924e-11
-2.815338166383384923e-11
-2.079236722333199252e-11
-1.556375961182508776e-11
-1.185674909898652505e-11
-9.186143221292185641e-12
-7.222719522758615870e-12
-5.726093244880753821e-12
-4.544852061054477994e-12
-3.586082072397156234e-12
-2.793893886864724225e-12
-2.136726207263323670e-12
-1.596515405306465934e-12
-1.161598368445988391e-12
-8.219767340144690390e-13
-5.661809550756639057e-13
