# bin_1_17
-8.341265539958128222e-121
-9.279918038689332799e-121
-1.011814038576948190e-120
-1.075647580394509276e-120
-1.107222871516676600e-120
-1.097498535337490660e-120
-1.031140118729538137e-120
-9.152467322711305271e-121
-7.680189984446410934e-121
-6.277735208031172491e-121
-5.272014156355912819e-121
-4.566219588770962210e-121
-3.637664845212221238e-121
-2.517607923173775652e-121
-1.977019853599072700e-121
-1.450690601843133119e-121
-1.034016664691651931e-121
-7.191461193519924364e-122
-5.219056710523131469e-122
-3.679723602876729760e-122
-2.601938424418597486e-122
-1.868113425878311478e-122
-1.360614915981474150e-122
-1.009397829283815737e-122
-7.629767806753929720e-123
-5.855557689913141759e-123
-4.541595516951788503e-123
-3.535614681118963879e-123
-2.742803526904158039e-123
-2.106077230351235927e-123
-1.591875317997366458e-123
