# bin_19
0.000000000000000000e+00
0.000000000000000000e+00
0.000000000000000000e+00
0.000000000000000000e+00
0.000000000000000000e+00
0.000000000000000000e+00
0.000000000000000000e+00
0.000000000000000000e+00
0.000000000000000000e+00
0.000000000000000000e+00
0.000000000000000000e+00
0.000000000000000000e+00
0.000000000000000000e+00
0.000000000000000000e+00
7.112405429112585018e-290
9.290644151611765592e-256
1.579736680179195498e-225
1.046785943751906112e-198
6.934617358908803945e-175
1.035013701727110371e-153
7.031381038107384368e-135
4.004423633253587382e-118
3.254799971208358855e-103
6.010759527115329969e-90
3.790802558760143661e-78
1.168034671965155603e-67
2.410656108191082908e-58
4.403601326653072106e-50
9.112560837347078303e-43
2.659107582221527673e-36
1.329479640381960037e-30
1.354808492744017272e-25
3.286121880759616995e-21
2.179768445229000197e-17
4.479066426693791925e-14
3.189500670486947407e-11
8.709117670777856216e-09
9.994243179842924409e-07
5.238907443376937219e-05
1.353571204991635456e-03
1.848050022739208473e-02
1.421064191982022440e-01
6.521246302529349892e-01
1.880855351222525451e+00
3.567133731346268100e+00
4.622940445786415609e+00
4.227897537391261729e+00
2.803430194368091488e+00
1.379678464607954291e+00
5.146709637622525202e-01
1.484059050778265831e-01
3.369930897482074916e-02
6.134360245623396782e-03
9.105173433571368954e-04
1.119995272230658466e-04
1.159361112435489787e-05
1.024651733619048570e-06
7.837560261850627581e-08
5.254617741729640100e-09
3.124590858202441162e-10
1.666157828378269798e-11
8.049152719600324547e-13
3.556440940675805472e-14
1.449882520978489404e-15
5.498469385286815328e-17
1.954435196832406160e-18
6.557024572278990659e-20
2.089816928393548859e-21
6.365402762947234710e-23
1.863227129249849140e-24
5.268099521655879998e-26
0.000000000000000000e+00
0.000000000000000000e+00
0.000000000000000000e+00
0.000000000000000000e+00
0.000000000000000000e+00
0.000000000000000000e+00
0.000000000000000000e+00
0.000000000000000000e+00
0.000000000000000000e+00
0.000000000000000000e+00
0.000000000000000000e+00
