# bin_4
0.000000000000000000e+00
1.098968063882000058e-154
1.479431530706881538e-120
2.337884750508112821e-93
1.417966247895702530e-71
3.759674673055366059e-54
2.848326254066530045e-40
2.718832117717307895e-29
1.072699492862884175e-20
4.572150096891616759e-14
4.612274255744758546e-09
2.103598235768342696e-05
7.466615133042591931e-03
3.300781524517404919e-01
2.798702603013789592e+00
6.865707978425567681e+00
6.642400738483617673e+00
2.798830590146250685e+00
5.127836997472047242e-01
4.227917351975301469e-02
1.692926207883606359e-03
3.603320752858382784e-05
4.455773625363271370e-07
3.473159653392648113e-09
1.835168853226245644e-11
7.006900664738566964e-14
2.044100895396081894e-16
4.782831746271188341e-19
9.362279146414049526e-22
1.590284699796556868e-24
2.419559642329071808e-27
3.389227567983391988e-30
4.476169015805956029e-33
5.689893727028489305e-36
7.086588873216049719e-39
8.782102696273280303e-42
1.097401308970774814e-44
1.398677549259728680e-47
1.836276207717857639e-50
2.504388042129639388e-53
3.573977767267934013e-56
5.369912417172824988e-59
8.539243291969152315e-62
1.443523667917216819e-64
2.603660153825353854e-67
5.026095692940162568e-70
1.041007803095092631e-72
2.318114325296561680e-75
5.558663273092336074e-78
1.437131612099375223e-80
4.009668381602261088e-83
1.208030530375976373e-85
3.931596897638825004e-88
1.382457310041770137e-90
5.251873485190104928e-93
2.155129568605200940e-95
9.549575464001025106e-98
4.567175219029246922e-100
2.356239141348718713e-102
1.310432217730008925e-104
7.850813859538716315e-107
5.062583652819437387e-109
3.510873669243243398e-111
2.616081159324212573e-113
2.092525819191138401e-115
1.794943303427132591e-117
1.649515819091766990e-119
1.622351203470481935e-121
1.705949191813271963e-123
1.915867989229695874e-125
2.295544382724046332e-127
0.000000000000000000e+00
0.000000000000000000e+00
0.000000000000000000e+00
0.000000000000000000e+00
0.000000000000000000e+00
0.000000000000000000e+00
0.000000000000000000e+00
0.000000000000000000e+00
0.000000000000000000e+00
0.000000000000000000e+00
0.000000000000000000e+00
