# bin_6_3
2.507547928975409769e-08
2.162843324703904758e-08
1.818700603607643480e-08
1.496922555838128001e-08
1.212213279222269595e-08
9.692911865621757872e-09
7.643258413057941638e-09
5.912353760136845822e-09
4.484982596829315338e-09
3.379222403860751958e-09
2.560378168562748166e-09
1.941373334283598678e-09
1.478891500960006287e-09
1.139205309677879359e-09
8.852924945306139828e-10
6.938954792181957024e-10
5.467621566385877866e-10
4.313217680691952119e-10
3.390976919406622855e-10
2.645041133574921131e-10
2.038792138838844923e-10
1.547599062127653563e-10
1.153780948243150956e-10
8.432035040406702220e-11
6.033891384420986498e-11
4.226657416402826070e-11
2.899825680390264322e-11
1.951128986715648409e-11
1.289914246197611610e-11
8.397746950735392336e-12
5.396388796804872616e-12
