# bin_16_15
6.906582586611280609e-08
6.486487560750853567e-08
5.938505953052994219e-08
5.291818513539680100e-08
4.587997767176377196e-08
3.875612717435543623e-08
3.201433038353274390e-08
2.599011432933415204e-08
2.081387564393859371e-08
1.643287218538444775e-08
1.272538513996784201e-08
9.642842101181331389e-09
7.217100822964539793e-09
5.407611786760708624e-09
4.048719789379744149e-09
3.026548812250258344e-09
2.281536280842366341e-09
1.730378933754876960e-09
1.323254012307547324e-09
1.018200087081664662e-09
7.863385448775662340e-10
6.073653632176553986e-10
4.673901327076171606e-10
3.569969720820344918e-10
2.697152484531982185e-10
2.009852382757133082e-10
1.473920187218677343e-10
1.062047063322383417e-10
7.512153501485433713e-11
5.214412018933688003e-11
3.553018228448198597e-11
