# bin_10_5
3.690909473251918161e-08
3.279310727187854985e-08
2.834752402539499796e-08
2.387750624822239489e-08
1.967625021593848065e-08
1.594737555515498981e-08
1.276215240704591718e-08
1.007322512189849422e-08
7.796639286565421621e-09
5.908938011550478191e-09
4.440539707761142410e-09
3.354739603128579692e-09
2.533326558198379075e-09
1.918579753416668413e-09
1.468888001413652768e-09
1.133713262687244545e-09
8.827290908024981535e-10
6.913868755075744274e-10
5.426685454274769938e-10
4.249983455712708871e-10
3.306579353591812370e-10
2.545373400132985536e-10
1.931865495670283021e-10
1.441572050204987814e-10
1.055417516653905867e-10
7.571155627417264210e-11
5.318856569379017597e-11
3.660186428241873023e-11
2.469756918676807166e-11
1.636785311589012235e-11
1.067627469521894816e-11
