# bin_19_8
5.444555079992096690e-08
4.996051472376911661e-08
4.461166891757000911e-08
3.873922260945130793e-08
3.275404649275277281e-08
2.706767965692415276e-08
2.198384420293645162e-08
1.762602681315808484e-08
1.394405831250234796e-08
1.081633258497235919e-08
8.198528892140303402e-09
6.142084143780562182e-09
4.621892053598112707e-09
3.473547158429654299e-09
2.609551485522865671e-09
1.981346356075700394e-09
1.514549994227640767e-09
1.168264405229497264e-09
9.071967777725753437e-10
7.069243545549303405e-10
5.506102741982741222e-10
4.268631039087850313e-10
3.280622605479995965e-10
2.490401067638759084e-10
1.861826537286707915e-10
1.367631438161490861e-10
9.855201460099757140e-11
6.960733292008074084e-11
4.818096385550634193e-11
3.270241695398797523e-11
2.179213308326326706e-11
