# bin_2_1
1.278617406181402301e-08
1.059556890556559635e-08
8.625135146361891294e-09
6.925312490845555263e-09
5.488402322199157871e-09
4.277875418679421853e-09
3.272092634491984826e-09
2.475215775743753613e-09
1.877503902400976702e-09
1.430850716150703623e-09
1.093905949625300367e-09
8.454076271638965698e-10
6.598242812741295019e-10
5.196820820895867191e-10
4.117118411258406819e-10
3.267399300389430420e-10
2.585319053945585791e-10
2.030118291588879487e-10
1.575484101681377343e-10
1.204074064205910358e-10
9.037021562723303679e-11
6.647538939060901245e-11
4.786853494160908737e-11
3.373333059357932024e-11
2.327694568692873084e-11
1.574768400268979878e-11
1.046507539101848204e-11
6.846364412321608932e-12
4.419468042199862150e-12
2.821246957671224307e-12
1.784686267596959106e-12
