# bin_4_2
1.891577659555720998e-08
1.601241152021621992e-08
1.325261430609377911e-08
1.077679952891093196e-08
8.646657850064765489e-09
6.847648236860831422e-09
5.329756497225270331e-09
4.066932501655289433e-09
3.069603446518231874e-09
2.325206625991627672e-09
1.767676085036449996e-09
1.347070145724546634e-09
1.038117991585294404e-09
8.073871552024453033e-10
6.337559267456741428e-10
5.004323032191123271e-10
3.959406272605311952e-10
3.124421840261310779e-10
2.447790075364421455e-10
1.895987191489971102e-10
1.446775690940944027e-10
1.084526350761274094e-10
7.969974025471075196e-11
5.734662074812018388e-11
4.038496893129366701e-11
2.784784312339710249e-11
1.882593043945879094e-11
1.249998143049446344e-11
8.169693287464509163e-12
5.268091109240800403e-12
3.359170973375861029e-12
