# bin_13_4
3.455286485952586408e-08
3.046200865654205435e-08
2.612500734935759387e-08
2.184700587485285299e-08
1.790153358879282500e-08
1.445296673831061340e-08
1.152987130547865544e-08
9.056324596656326923e-09
6.958295640489639913e-09
5.245640842021252338e-09
3.948743124201346280e-09
2.988709270846357106e-09
2.255635936835285132e-09
1.717527086590000477e-09
1.319538912523838973e-09
1.023778183785234849e-09
8.005651082127413421e-10
6.291484601592689834e-10
4.948185976360145086e-10
3.877037831039355888e-10
3.013070907311463699e-10
2.313343314401823438e-10
1.748792269390124590e-10
1.298281403455352538e-10
9.447625673381344432e-11
6.731927394132740794e-11
4.695966316092485835e-11
3.208795833934884275e-11
2.150709071061363138e-11
1.416733523119844900e-11
9.192736848108222656e-12
