# bin_1_1
1.097594744162098376e-08
9.035692761188421285e-09
7.318503848171609791e-09
5.850517176885571550e-09
4.612405713907381510e-09
3.572606045617809818e-09
2.720292889983559550e-09
2.058551792449994825e-09
1.565788418407547475e-09
1.195326234681370779e-09
9.177509903365948099e-10
7.127860332761281969e-10
5.588130739972639558e-10
4.417108246721834347e-10
3.506791731791032450e-10
2.783877050917233385e-10
2.199373066308764887e-10
1.721504454411005367e-10
1.329736827011022348e-10
1.010309354286782382e-10
7.531715863429921145e-11
5.499889425141525166e-11
3.930711061204527853e-11
2.749531714408762478e-11
1.884033332093396205e-11
1.266571638812433659e-11
8.370611053922823088e-12
5.450669629495463312e-12
3.505092744469856079e-12
2.230722957676397337e-12
1.407788454695877999e-12
