# bin_8_2
2.218244083989038925e-08
1.891264333803861098e-08
1.574093459526546712e-08
1.285444864509078273e-08
1.035272735412598689e-08
8.236495280384163673e-09
6.444574165682567575e-09
4.934332241710969237e-09
3.721804454127302330e-09
2.813256532167388477e-09
2.135697782151680834e-09
1.621307249249741612e-09
1.244351464953803370e-09
9.639615042816451637e-10
7.542696550465446626e-10
5.944416880215149255e-10
4.701379169097035143e-10
3.714347036766573782e-10
2.917671935372578333e-10
2.268748578776626633e-10
1.739653119698172937e-10
1.311321986644659718e-10
9.694080714594205787e-11
7.017565770840244348e-11
4.971154486182997565e-11
3.446791888593882360e-11
2.341623179568338151e-11
1.561399008474429933e-11
1.024119732070711407e-11
6.622901187383739382e-12
4.232674131040430217e-12
