# bin_11_9
5.036434116772317736e-08
4.601550722394731713e-08
4.092557598529768766e-08
3.541931794899487529e-08
2.987285392332604028e-08
2.464510647253826461e-08
1.998919425854026369e-08
1.599850194470864383e-08
1.262633017307326042e-08
9.776655460373851378e-09
7.413763725769002308e-09
5.562560427588516972e-09
4.185596344657465185e-09
3.150037091952526412e-09
2.371694398878366108e-09
1.803325075393621234e-09
1.380830521313424795e-09
1.066476637160543880e-09
8.286358825829852976e-10
6.456517589872288245e-10
5.025073301074400616e-10
3.890418083057868474e-10
2.984420867705943577e-10
2.260578371350678967e-10
1.685960568198942784e-10
1.235404362533342864e-10
8.881177248271174462e-11
6.259063465786282035e-11
4.324191305227797303e-11
2.930457455595693230e-11
1.950465103441915681e-11
