# bin_12_2
2.373197215260287326e-08
2.028835902376973441e-08
1.692126175266324993e-08
1.383997549885923090e-08
1.116199668728245698e-08
8.895291086785281555e-09
6.973384907538682644e-09
5.345781052676140258e-09
4.031174472041623723e-09
3.044761943885723628e-09
2.310268028101147593e-09
1.751391003825603829e-09
1.342177859910641531e-09
1.038232181410940617e-09
8.114350519203633980e-10
6.390348035492330660e-10
5.053332056433948937e-10
3.994176436341117125e-10
3.140559070674763230e-10
2.445566874644360003e-10
1.878578685534446227e-10
1.418901849700113787e-10
1.051190590635678486e-10
7.626107671930544688e-11
5.413558207353370910e-11
3.760813569363907124e-11
2.559363080610983179e-11
1.709111353783124331e-11
1.122381124305319901e-11
7.265552927459473268e-12
4.647018909005979300e-12
