# bin_20_9
5.845900351091860577e-08
5.399581841653809090e-08
4.854871686777719007e-08
4.245110453678303040e-08
3.612398457008383339e-08
3.000978418117104927e-08
2.446700676068302238e-08
1.967461674146017602e-08
1.562105222211904928e-08
1.218261375155173699e-08
9.282160916390580534e-09
6.958316407411402741e-09
5.223537966886786434e-09
3.927607307812745094e-09
2.941679452593117284e-09
2.225223808501937973e-09
1.693679234682949831e-09
1.301319875666636407e-09
1.006872971360106460e-09
7.825563197161623612e-10
6.087010427690091839e-10
4.718924009625634549e-10
3.631443930660176420e-10
2.763669708791044910e-10
2.073503310112628949e-10
1.529904117328642815e-10
1.108116127111143672e-10
7.870461122955380266e-11
5.479546813809909758e-11
3.740780193091528499e-11
2.506547747826747459e-11
