# bin_10_9
4.878322742141929652e-08
4.445675997910201164e-08
3.943662836859400854e-08
3.404591291234189833e-08
2.865196275929391477e-08
2.359738362685291576e-08
1.911470321892756410e-08
1.528059184108401150e-08
1.204149242709949555e-08
9.306800620969034673e-09
7.048901674818157210e-09
5.290011947687698713e-09
3.982918604266112564e-09
2.998197422273139402e-09
2.260396174855658836e-09
1.720939472328396142e-09
1.319740170561065201e-09
1.020616885425519302e-09
7.938291034858253973e-10
6.189158449034361430e-10
4.817683641676642303e-10
3.728612530738896257e-10
2.858056530475795429e-10
2.162323244720636359e-10
1.610272342317107167e-10
1.177888078437489925e-10
8.451522585316969590e-11
5.944365393506747842e-11
4.098561804752330582e-11
2.772214240247449285e-11
1.841874633576643296e-11
