# bin_12_3
2.911588978691430255e-08
2.530310747048448300e-08
2.141025312735718633e-08
1.770571739935606878e-08
1.439048710941520125e-08
1.154906837906180878e-08
9.149581146248375800e-09
7.111106994436740685e-09
5.404732087014737649e-09
4.065605523916983389e-09
3.075802158458102017e-09
2.328101871383614786e-09
1.766130311749549775e-09
1.355580608506882555e-09
1.049479724769650356e-09
8.203037666197116334e-10
6.453627327256472766e-10
5.090521740929885851e-10
4.007523782812741354e-10
3.134360678715069372e-10
2.425145730349930951e-10
1.849441076293472722e-10
1.386037331520161200e-10
1.018566332630746084e-10
7.329598142786297961e-11
5.162001096578511351e-11
3.559204210929758387e-11
2.405372395052555986e-11
1.596223635453766966e-11
1.042435101885718056e-11
6.715472820832824295e-12
