# bin_19_19
7.851482060451278410e-08
7.457121265576191082e-08
6.909765358140869535e-08
6.234937064824080308e-08
5.473423368611350596e-08
4.677087582094412626e-08
3.900618003507512131e-08
3.189714641772346101e-08
2.569512194692556600e-08
2.042321350992661787e-08
1.595865362764642707e-08
1.219845093674984219e-08
9.153044902911295639e-09
6.837172734018625642e-09
5.114584088030037683e-09
3.809346624555384260e-09
2.849500998393782798e-09
2.145815389438593633e-09
1.627537656937251146e-09
1.243007189470033783e-09
9.543208279634509792e-10
7.342795320637462969e-10
5.641785492832086696e-10
4.312739365743820145e-10
3.268309828760020616e-10
2.447800204492212587e-10
1.807287188680673253e-10
1.312956817673163718e-10
9.373248401429039322e-11
6.571442724764241888e-11
4.524113031044888742e-11
