# bin_14_12
6.109251909465523576e-08
5.676109840087500434e-08
5.137393186329148841e-08
4.524482533912636234e-08
3.878315034056354480e-08
3.243179710434900664e-08
2.657628206796881859e-08
2.144522334765691035e-08
1.708022153535855746e-08
1.338925537197474233e-08
1.027684862226590680e-08
7.738891943157828472e-09
5.796463280923718577e-09
4.355027812930194230e-09
3.262638670034915589e-09
2.454374125999178910e-09
1.861754539826105404e-09
1.422813443969374433e-09
1.095508111044426295e-09
8.479869410704762492e-10
6.576441719747520384e-10
5.090211463459006106e-10
3.916606823392616537e-10
2.984666475520890217e-10
2.245357448005025964e-10
1.663241451872655568e-10
1.210767990643381895e-10
8.650687547940298593e-11
6.062647577472973849e-11
4.167943811931908803e-11
2.812674958958129027e-11
