# bin_15_11
6.016840912832182663e-08
5.581038441616306111e-08
5.042198059890799940e-08
4.432109241124492482e-08
3.791816247104406916e-08
3.165297756000482981e-08
2.590213279849486736e-08
2.088017167772433961e-08
1.661556125041653966e-08
1.300861349835441526e-08
9.967238951108819150e-09
7.496275613261500131e-09
5.616518866405030137e-09
4.221867706262653603e-09
3.162441833310605294e-09
2.382282763083711600e-09
1.808703658996627164e-09
1.384296418352316235e-09
1.067158699404523082e-09
8.269180541810881895e-10
6.417997812030427445e-10
4.969617440811175515e-10
3.823941538317289399e-10
2.913028421597018390e-10
2.189925803847848540e-10
1.620530426265151879e-10
1.178151916142748786e-10
8.404885463327919613e-11
5.880456932687673077e-11
4.035462163692036702e-11
2.718315505864649373e-11
