# bin_15_13
6.432647735435639191e-08
6.003577988537981101e-08
5.459747839868823987e-08
4.831779995153702850e-08
4.161057318773940731e-08
3.493810183502615002e-08
2.872127232599964191e-08
2.323200337979558441e-08
1.854576197329731579e-08
1.458271245705038539e-08
1.123389705544911282e-08
8.478528015303424770e-09
6.346150537569151489e-09
4.763321379699060519e-09
3.567166196593526542e-09
2.675723506467090575e-09
2.024706709847725724e-09
1.542401694253144179e-09
1.184339957671603719e-09
9.146509313824260609e-10
7.082492857841624946e-10
5.478318513711457810e-10
4.216322897284500847e-10
3.216746921195727638e-10
2.424632590570831747e-10
1.800730207660476129e-10
1.315007321293507762e-10
9.429169054133658846e-11
6.633765744808583017e-11
4.578762161510889459e-11
3.102136935439008374e-11
