# bin_17_10
5.950906825341576272e-08
5.510794383907743967e-08
4.969367062539846726e-08
4.359031496172849022e-08
3.721282060830610053e-08
3.100261118660476774e-08
2.533063273295004225e-08
2.039797914393992020e-08
1.621757592346708636e-08
1.267858076118371856e-08
9.692651484989172538e-09
7.278303604540092350e-09
5.456513467209750800e-09
4.103106645869178801e-09
3.072476119351254867e-09
2.318568133207003979e-09
1.761887977265180939e-09
1.350717593818055068e-09
1.042822194415397009e-09
8.090760056106839235e-10
6.285484630702284239e-10
4.869723140370852511e-10
3.747569621316540640e-10
2.853962999541065474e-10
2.143971583508889868e-10
1.584774097787829490e-10
1.150492038429595010e-10
8.193343339701668883e-11
5.721237232988350695e-11
3.917945524029207387e-11
2.633464728551332293e-11
