# bin_8_3
2.690407082896025827e-08
2.329150171417581704e-08
1.964576970832282703e-08
1.620769568518346069e-08
1.314873524438650086e-08
1.053296358627982556e-08
8.324983844677095154e-09
6.454880674858002200e-09
4.901239130959360740e-09
3.689862914358969946e-09
2.793646678091794272e-09
2.116397370693544953e-09
1.608888870848296409e-09
1.237131554425860189e-09
9.595996725773378864e-10
7.511048166865445128e-10
5.913863944307522217e-10
4.665006712550756412e-10
3.670011136520089252e-10
2.866495350697757704e-10
2.213646461949615384e-10
1.684205492903647956e-10
1.258894605897096112e-10
9.225685125320203851e-11
6.620297218692482536e-11
4.649971585133494362e-11
3.198244643790884014e-11
2.156708707111234712e-11
1.428542567588780711e-11
9.314939629544038011e-12
5.993374788894569437e-12
