# bin_19_16
7.424893395825267505e-08
7.016800546412159364e-08
6.466754540211700445e-08
5.802136901114436191e-08
5.064400084636538609e-08
4.304291544860966560e-08
3.573302790280212433e-08
2.911819882363707007e-08
2.339225223373639546e-08
1.853832869811213978e-08
1.442740475229350538e-08
1.098032633023971266e-08
8.223881578198280215e-09
6.151232459047866584e-09
4.604069949051596264e-09
3.432781716863808421e-09
2.577438286296769242e-09
1.946906220567792040e-09
1.482562793874617094e-09
1.136385981376067601e-09
8.750509999172352039e-10
6.746921710838200385e-10
5.189385981503747648e-10
3.966765337100215447e-10
3.002822918150224859e-10
2.244360397901741259e-10
1.652307393558575208e-10
1.196067558933852103e-10
8.503459414533333803e-11
5.934624383278036992e-11
4.066223018330516861e-11
