# bin_4_4
2.573758804396992327e-08
2.681035921948331144e-08
2.697013220465168500e-08
2.589425308358232408e-08
2.348561611017418361e-08
2.014910388554966656e-08
1.656290138512397640e-08
1.367064433899255911e-08
1.174526967953300085e-08
9.830881845050634331e-09
7.172420418046759541e-09
5.233415479917521856e-09
4.173119474571469981e-09
2.879792937510157307e-09
2.179228324723569076e-09
1.569881664734604926e-09
1.144341268631845616e-09
8.483174330727542400e-10
6.385733015106417118e-10
4.894803669506958069e-10
3.814400184167270017e-10
3.012224887582437515e-10
2.393863490748033572e-10
1.900800528358080890e-10
1.497429674306759851e-10
1.162646921202934145e-10
8.847342393533504409e-11
6.569613468418784621e-11
4.746870915388691353e-11
3.335773425943954999e-11
2.283036788398728522e-11
