# bin_14_13
1.467540899530122905e-09
1.643381943628804459e-09
1.806229486994839475e-09
1.939444527197489949e-09
2.022009828208146465e-09
2.034705674691492407e-09
1.951707475851225198e-09
1.766675932096051280e-09
1.511879503062607888e-09
1.240574103929036619e-09
1.025578717032000042e-09
8.855152084323891574e-10
7.396346941291290375e-10
5.301503659581546815e-10
3.877946123254303910e-10
3.081772616404259305e-10
2.058642998775835519e-10
1.537735614291415440e-10
1.079374069199534996e-10
7.503012525561679989e-11
5.267828824089834259e-11
3.717879356501426938e-11
2.659971383758581732e-11
1.933322694766042895e-11
1.433534628529090571e-11
1.082363053531348891e-11
8.296407578259094441e-12
6.421396073387107098e-12
4.982868290489871358e-12
3.848526801861157318e-12
2.939160162698278850e-12
