# bin_1_14
7.738223591913270718e-07
7.466315038479858680e-07
6.821983118358897210e-07
5.902046777275515414e-07
4.887399230680626505e-07
4.030953206742000236e-07
3.430145337150352285e-07
2.878452970469746603e-07
2.169272993226784919e-07
1.576529021630449791e-07
1.236252919397125862e-07
8.905727626968959605e-08
6.627897265202314431e-08
4.846838924405557916e-08
3.608174686384605845e-08
2.719341836976217621e-08
2.086654134228921693e-08
1.631343678863484163e-08
1.294915780210061162e-08
1.038094751862070273e-08
8.342440182868867056e-09
6.669926099254265184e-09
5.268428364915205953e-09
4.085810715948733933e-09
3.095642532201545515e-09
2.283713888903749451e-09
1.638371115366626406e-09
1.143826961160291076e-09
7.789267873505917707e-10
5.190042304658304747e-10
3.395030509307007736e-10
