# bin_13_13
6.827539847165872151e-09
7.628645989323195695e-09
8.361806591023353531e-09
8.948192767254856408e-09
9.288765224519736968e-09
9.300748605943962026e-09
8.858437452923216870e-09
7.964098768995243493e-09
6.767611158484120140e-09
5.542302702108565078e-09
4.604361987136229565e-09
3.984904852354001399e-09
3.281151231026586443e-09
2.315904329702353005e-09
1.735913830994099618e-09
1.346765449524454786e-09
9.148961534528322306e-10
6.684025221634262114e-10
4.758738291177695173e-10
3.322133369423919268e-10
2.333648399306218916e-10
1.655650848244289016e-10
1.191951400015094739e-10
8.726739098061393584e-11
6.516283902471277212e-11
4.950293405244510964e-11
3.812183381742134652e-11
2.958212277276606098e-11
2.296372876132552069e-11
1.770629602372643864e-11
1.347699293826302039e-11
