# bin_4_18
4.085524060828072461e-07
4.287384944365947180e-07
4.349839801968543011e-07
4.227850229926732587e-07
3.885810852322252738e-07
3.378115521900106631e-07
2.796089034398724596e-07
2.295526267260159314e-07
1.956007672245626825e-07
1.664650727024066757e-07
1.256657082416186178e-07
8.932144310751308649e-08
7.164648162760412856e-08
5.020481676023491306e-08
3.774632616614725696e-08
2.688395704391733209e-08
1.965830685915103206e-08
1.449261402599771475e-08
1.082823633082949487e-08
8.235253701400265002e-09
6.370395184841191869e-09
5.002102786166448558e-09
3.962159183303479741e-09
3.143637630074619242e-09
2.480806808800332817e-09
1.934001310801671587e-09
1.480674257992575103e-09
1.107935704144150959e-09
8.075277220875926032e-10
5.724995328666346480e-10
3.950656530815319395e-10
