# bin_3_19
5.191456217140547405e-07
5.345229616545304086e-07
5.301239401686743661e-07
4.994607564472609146e-07
4.448154899476980254e-07
3.751677205582476831e-07
3.073343079362390621e-07
2.569548008744782733e-07
2.211990522284161433e-07
1.780126536299136065e-07
1.265337107237910764e-07
9.710477998230491694e-08
7.351782380842137728e-08
5.251302038180700451e-08
3.856746786870599631e-08
2.830813622904026470e-08
2.080658084775947728e-08
1.554065414927473277e-08
1.181964377061143741e-08
9.153032887973773145e-09
7.197522758630717545e-09
5.717744762872193447e-09
4.555355067133265416e-09
3.613534000651176910e-09
2.834416919712378289e-09
2.184815098471302811e-09
1.646552560950004417e-09
1.208948930250904185e-09
8.632381101777273712e-10
5.998042100754611796e-10
4.064292830449504861e-10
