# bin_10_1
3.665121576331847065e-40
3.952015081663788511e-40
4.144957015665330518e-40
4.200926240158083771e-40
4.075261028460727612e-40
3.733787140887035022e-40
3.235588154975985862e-40
2.669415896391543914e-40
2.191185145280806377e-40
1.875059861670144115e-40
1.596543566259105411e-40
1.188808206456961064e-40
8.415707264706014883e-41
6.847853712539350248e-41
4.651367959845308176e-41
3.556335319709680624e-41
2.499658019558018320e-41
1.795878634400830701e-41
1.310513439393080549e-41
9.660497706689426369e-42
7.232503394350510405e-42
5.507421422860291761e-42
4.266479325851915082e-42
3.343913898561975246e-42
2.634551491907310885e-42
2.072306083695856030e-42
1.615942170432273271e-42
1.241546348759256793e-42
9.349945057016214841e-43
6.873854257890905887e-43
4.920835049623400400e-43
