# bin_1_20
8.394112646237143548e-07
8.101307281077869106e-07
7.404292730908028088e-07
6.407575311905782495e-07
5.306757174516408916e-07
4.376359190038714826e-07
3.723577006201151518e-07
3.125779087404306665e-07
2.357052289222172181e-07
1.712356634661711808e-07
1.342835564045497026e-07
9.676171753393295789e-08
7.199949233292793414e-08
5.264987775415969761e-08
3.919232450325257048e-08
2.953356247163615493e-08
2.265882831639354958e-08
1.771217276594794430e-08
1.405787453443322826e-08
1.126899982210525023e-08
9.055946533894468057e-09
7.240614255462424064e-09
5.719639512514446254e-09
4.436248776646018572e-09
3.361640845902815449e-09
2.480344938856583919e-09
1.779727838786392771e-09
1.242704219184951894e-09
8.463740675076797705e-10
5.640084134931318720e-10
3.689761724911553317e-10
