# bin_20_6
2.263327554436846349e-51
2.544172585856317353e-51
2.809250534731513350e-51
3.033756411924343053e-51
3.185870909827433935e-51
3.232038020527691812e-51
3.137916988675852147e-51
2.876043361874406390e-51
2.492799954875445048e-51
2.056514056372388711e-51
1.688755201751100788e-51
1.447446697147909492e-51
1.233593433547436021e-51
9.144858577463587991e-52
6.438797775435229900e-52
5.246575894854154938e-52
3.484223236031668568e-52
2.649083496881678108e-52
1.815691939533481665e-52
1.258223479790218810e-52
8.837102677531894713e-53
6.208495963252603360e-53
4.395886820414458371e-53
3.152943662200693244e-53
2.306854778173416365e-53
1.720509982490952111e-53
1.305626027500683251e-53
1.004101539210362525e-53
7.773552656698865990e-54
6.014111407693194482e-54
4.616719628647439812e-54
