# bin_12_14
3.368627329182029294e-08
3.755548361060874001e-08
4.105312340376802610e-08
4.378361329140155778e-08
4.525409601552021805e-08
4.508083146639050296e-08
4.263866310502625942e-08
3.808449556918395331e-08
3.215365222239550107e-08
2.630300245703509398e-08
2.196988717439726579e-08
1.902705984345846940e-08
1.541547505149489019e-08
1.076348680644613893e-08
8.259766726234983649e-09
6.235788583904383805e-09
4.333645452971008200e-09
3.089556398308109921e-09
2.223354072116217845e-09
1.559686558544528974e-09
1.098534155223656952e-09
7.840037960674134373e-10
5.677874530983901431e-10
4.185222370650216548e-10
3.144934694561673833e-10
2.401924120210893279e-10
1.856738595507881387e-10
1.443387918570653000e-10
1.120205514072737930e-10
8.619648100261024723e-11
6.537648890580369024e-11
