# bin_3_4
1.024192791517314786e-07
1.049632907319449972e-07
1.034812787203894527e-07
9.675057933400872736e-08
8.552810139947088153e-08
7.166312793399359338e-08
5.867195366923870582e-08
4.933226365931303805e-08
4.242796306519187020e-08
3.353776589201891355e-08
2.368160412706585697e-08
1.852869345052031885e-08
1.369869468012055138e-08
9.957957843840346162e-09
7.226329315995973593e-09
5.332728661659353132e-09
3.936474710021483789e-09
2.951273830117224919e-09
2.254622828135538010e-09
1.753164149289883903e-09
1.383432576870767434e-09
1.101384323106495596e-09
8.781349720680074265e-10
6.961224913146655466e-10
5.449424974810664479e-10
4.187253014287190321e-10
3.142690657395412538e-10
2.296569919108387773e-10
1.631821196238022978e-10
1.128578849179729308e-10
7.616060991412881848e-11
