# bin_8_6
9.469561934880743777e-11
1.027335378107674331e-10
1.085752624086272160e-10
1.110109761439501006e-10
1.090653926122909094e-10
1.013961846323222711e-10
8.912383280611395112e-11
7.421038418914823399e-11
6.069878242674525917e-11
5.136783350483302169e-11
4.427776040440173255e-11
3.433063585822019422e-11
2.387373238589315204e-11
1.917146186618652452e-11
1.358794079026367425e-11
1.008602787785207470e-11
7.028183368683313989e-12
5.117847396247656469e-12
3.703212184604631153e-12
2.703582552146247665e-12
2.005246698211068320e-12
1.512233491834145200e-12
1.161185094350442670e-12
9.042337130216285535e-13
7.098211529264259214e-13
5.580205072094559697e-13
4.361954347083235846e-13
3.368311634119959626e-13
2.555263967895539318e-13
1.895957795847688856e-13
1.371471930698104748e-13
