# bin_18_4
2.538476019373572701e-57
2.837238439849743588e-57
3.111135298554849927e-57
3.330932525165518978e-57
3.459867145197377214e-57
3.466862731802389534e-57
3.305241080318884995e-57
2.974208093195701191e-57
2.529620535196552822e-57
2.071871311158534341e-57
1.719908393676794914e-57
1.488463489417455797e-57
1.228375656415689716e-57
8.681905583621492631e-58
6.486762930973247996e-58
5.051832506872374094e-58
3.420563571183052841e-58
2.508091026527135230e-58
1.782880550918125457e-58
1.243833331818406504e-58
8.734232630942124549e-59
6.191415981690415218e-59
4.453868642987783806e-59
3.257940067648697574e-59
2.430682152330936219e-59
1.845244188322603621e-59
1.420310352241942971e-59
1.101908844171597372e-59
8.554334777711744437e-60
6.597928903195163799e-60
5.024521298732876385e-60
