# bin_17_16
1.377453119283854402e-09
1.554740039492710936e-09
1.725167840006711788e-09
1.874317143919959576e-09
1.983184945498360370e-09
2.029287734062684499e-09
1.995057833802246927e-09
1.855146002347203277e-09
1.630752084796184622e-09
1.357359489356467915e-09
1.110497639557149910e-09
9.413663762003938648e-10
8.127026593476446880e-10
6.276011455004855438e-10
4.335567538963568286e-10
3.492851531644974050e-10
2.426768495667427120e-10
1.794888616426445024e-10
1.210050368525619594e-10
8.552501993845640071e-11
5.957621431149525618e-11
4.146717864159008525e-11
2.903224946730405629e-11
2.052569612885796579e-11
1.477479075138515829e-11
1.084537878054176324e-11
8.114271277116890338e-12
6.175042879614928236e-12
4.752909583166537646e-12
3.674361052900524880e-12
2.831660002861229929e-12
