# bin_9_9
1.048046168485524130e-08
1.150321163890878446e-08
1.233489889638170700e-08
1.284175601100776234e-08
1.290386895844152839e-08
1.235671057835830469e-08
1.116932458258386262e-08
9.545498756395110110e-09
7.829767085255510386e-09
6.476477246945702906e-09
5.589132069930709593e-09
4.655859191237554426e-09
3.338302726026065831e-09
2.455076866769849037e-09
1.946743612322641676e-09
1.316983997988080617e-09
9.868066718000884054e-10
7.028262404036278903e-10
4.980193286639720125e-10
3.577425827342147671e-10
2.597969857703219055e-10
1.918749435885811363e-10
1.442142657079037648e-10
1.103739218196273268e-10
8.561752267294533144e-11
6.693276834681707243e-11
5.238197803322276153e-11
4.074362927709367342e-11
3.129951492912179717e-11
2.362141633479298565e-11
1.744038585469178277e-11
