# bin_5_15
2.967980970062411932e-07
3.159342939316969139e-07
3.260244580369376001e-07
3.242172259523360498e-07
3.062866710262920807e-07
2.733797503247265147e-07
2.308509133228844421e-07
1.889653551348909653e-07
1.577694146341283649e-07
1.361986479028881303e-07
1.102068949527469221e-07
7.784164682718704749e-08
5.962954782798109487e-08
4.531021684297764081e-08
3.200585706324519692e-08
2.336469773271705691e-08
1.705419056087538894e-08
1.236644100338705445e-08
9.090591047048238720e-09
6.797412546655900263e-09
5.175337565571431098e-09
4.007651098913173028e-09
3.145194000307047795e-09
2.485152077082236615e-09
1.963380831543133632e-09
1.540162073179986163e-09
1.191755840414278836e-09
9.046498248994119628e-10
6.707273462293394693e-10
4.842503467471053813e-10
3.401543123367906358e-10
