# bin_18_2
1.174791589933545218e-75
1.311384886386397332e-75
1.435737313185354045e-75
1.534180373925915391e-75
1.589573650850042096e-75
1.588163858440749888e-75
1.507989201243542541e-75
1.351793927127544870e-75
1.145230807464693853e-75
9.372248190496621049e-76
7.804020907078325007e-76
6.758983113411750658e-76
5.528617329052411359e-76
3.878131550711473029e-76
2.938509001177071443e-76
2.253929585369810027e-76
1.544560644765172378e-76
1.116039238636847210e-76
7.996710577631688180e-77
5.593897535192539222e-77
3.931150791437575693e-77
2.796200191662042382e-77
2.018579916263340078e-77
1.482489639695159938e-77
1.110250236180905809e-77
8.455779792030579728e-78
6.523958121034182853e-78
5.067472210568721676e-78
3.933950533359935130e-78
3.030878845476441293e-78
2.303487821933734069e-78
