# bin_19_2
5.065307394872766795e-81
5.668815348541775578e-81
6.225954436572499976e-81
6.679007354092619194e-81
6.955197075221799222e-81
6.989548382184811540e-81
6.691414164378817604e-81
6.045297405975917203e-81
5.163007437809456739e-81
4.233538203091157800e-81
3.504189749505670726e-81
3.028487810013188606e-81
2.520358995631719735e-81
1.797561436865507964e-81
1.323894438374789931e-81
1.045864196408147026e-81
7.010545304608466711e-82
5.209855709432191193e-82
3.671668128905781865e-82
2.555047241639240853e-82
1.793791404853152308e-82
1.267559684466997014e-82
9.084871478016472199e-83
6.617162789842500118e-83
4.916747014728489288e-83
3.719189246464367233e-83
2.854950461588617284e-83
2.211639031587582854e-83
1.716583058539938193e-83
1.325309002474381738e-83
1.011259719182295802e-83
