# bin_7_14
1.747892133456145584e-07
1.898119410336097416e-07
2.008529884115552449e-07
2.056787537144304975e-07
2.024798899804344342e-07
1.887397392724941395e-07
1.663111869335795701e-07
1.388063098464265394e-07
1.135491252782185561e-07
9.587740892421742486e-08
8.266684103356083565e-08
6.457431873632118347e-08
4.499720361497631136e-08
3.582123562789476292e-08
2.570878842732688844e-08
1.886665561290687848e-08
1.324487768529706268e-08
9.641484483036958241e-09
6.959845943095620685e-09
5.069070695555462582e-09
3.752017746907053549e-09
2.824264269156154306e-09
2.164536728802102023e-09
1.683051658696898381e-09
1.319888092157811729e-09
1.037185363714318700e-09
8.108903165098337841e-10
6.266078726279020313e-10
4.759109996890632956e-10
3.536724997425636613e-10
2.563218949344710250e-10
