0.0649724362054
0.068386365693
0.0689171571333
0.0673265549686
0.0642548936588
0.0602178354801
0.0556173219167
0.0507576006994
0.0458620929743
0.0410891602224
0.0365459683004
0.0323002240743
0.0283898491979
0.0248307898074
0.021623211444
0.0187563346066
0.0162121499698
0.0139682258248
0.0119997906079
0.0102812441759
