# bin_9_17
-2.541248981658155144e-21
-2.846557825457299430e-21
-3.129850703522028968e-21
-3.362399151382182208e-21
-3.507890019727123971e-21
-3.532628761288460233e-21
-3.392263949408145877e-21
-3.073919160753415037e-21
-2.633453184867572545e-21
-2.161560837454564060e-21
-1.785638117176406820e-21
-1.541176251613860305e-21
-1.290083953501978137e-21
-9.268881591213496233e-22
-6.754876878216337272e-22
-5.387855236227246631e-22
-3.589922019353642356e-22
-2.690755498735151282e-22
-1.884563129826936865e-22
-1.309147068678868273e-22
-9.191184155116824910e-23
-6.481563397179909594e-23
-4.632289533353111794e-23
-3.363547909384691878e-23
-2.490929588054968245e-23
-1.878807926281330180e-23
-1.438993779927883420e-23
-1.113229286015495825e-23
-8.637162448612613049e-24
-6.672117991368114000e-24
-5.097796243799014140e-24
