# bin_6_17
-8.442274655729583273e-36
-9.425252595552159912e-36
-1.032127077393248466e-35
-1.103226620483952323e-35
-1.143519529622741995e-35
-1.143056173586066122e-35
-1.086073805018781740e-35
-9.741878110330268235e-36
-8.258367561815888657e-36
-6.759126636071781180e-36
-5.625230011633172330e-36
-4.871660739466594736e-36
-3.991022365186122975e-36
-2.802498084073749569e-36
-2.118697304200231209e-36
-1.629383949629510904e-36
-1.114136590417356665e-36
-8.070633428928318861e-37
-5.776444807486406962e-37
-4.039162644945356819e-37
-2.838107720869088327e-37
-2.017735829844138735e-37
-1.455878600803644740e-37
-1.068735274623515441e-37
-7.998902110048968484e-38
-6.089389653961202487e-38
-4.696696434996543015e-38
-3.647479269140413642e-38
-2.831534958335373836e-38
-2.181804540141811413e-38
-1.658575142411959426e-38
