# bin_4_13
-4.525902764684211851e-31
-4.982200667442865943e-31
-5.362101866238110690e-31
-5.608723822749203120e-31
-5.665998418966160206e-31
-5.467995365316174666e-31
-4.980883492783145858e-31
-4.290580399341363848e-31
-3.529293287523674468e-31
-2.905380292934234834e-31
-2.498025919637544801e-31
-2.110395573896140266e-31
-1.542060749894658816e-31
-1.105605504629958175e-31
-8.947680546586830813e-32
-5.988094210748566785e-32
-4.560489307734457488e-32
-3.201637067605013262e-32
-2.261443916796392072e-32
-1.623959958043995342e-32
-1.174801091511177206e-32
-8.627259605314120234e-33
-6.445146074182231214e-33
-4.905672695383528051e-33
-3.789577232154579403e-33
-2.955135332836537627e-33
-2.311218713858942454e-33
-1.799768959209690710e-33
-1.386354571090301472e-33
-1.050454196423690110e-33
-7.795230953593020388e-34
