# bin_16_12
-2.550217723308974713e-11
-2.862412466393008509e-11
-3.155098510374129292e-11
-3.399948590899182425e-11
-3.560874529237962751e-11
-3.601741227739571075e-11
-3.481189497454927689e-11
-3.175534833717981874e-11
-2.739135464461148403e-11
-2.254542495753813520e-11
-1.855448255692181281e-11
-1.595307337612478946e-11
-1.350462378095924786e-11
-9.878497496599700552e-12
-7.044399352488734211e-12
-5.707654949649845570e-12
-3.780516636845075921e-12
-2.867374011937238114e-12
-1.982790778929144986e-12
-1.373806056827071089e-12
-9.648686233329868306e-13
-6.785445389286765754e-13
-4.822034428785448016e-13
-3.476663841254125934e-13
-2.556532412990674100e-13
-1.915857762664454803e-13
-1.459738009033641090e-13
-1.125602387912962358e-13
-8.723653799066874196e-14
-6.745896074571487898e-14
-5.168811722785520548e-14
