# bin_18_18
-2.881910516097915283e-08
-3.263721782190890055e-08
-3.636368328859299460e-08
-3.970806086118159358e-08
-4.228083205854037193e-08
-4.359850514471657484e-08
-4.330270008316934224e-08
-4.078058423708716835e-08
-3.627513446887217820e-08
-3.049791484244971012e-08
-2.493802213689373776e-08
-2.091883911719801162e-08
-1.812946929405846303e-08
-1.451283293867085278e-08
-1.004141720319601846e-08
-7.830458852230870865e-09
-5.767888098595670491e-09
-4.052077553671213235e-09
-2.798878747153666726e-09
-2.002343071702539286e-09
-1.379649472808216972e-09
-9.465321252787243938e-10
-6.556479309341153035e-10
-4.580715666940475349e-10
-3.247425274599114119e-10
-2.346331507664753954e-10
-1.729303984079218972e-10
-1.299663689378319057e-10
-9.919086326581298674e-11
-7.640315697427952571e-11
-5.895033546761129443e-11
