# bin_17_16
-2.033887743855248454e-08
-2.296473844361458688e-08
-2.549383843907377341e-08
-2.771435546724125392e-08
-2.934626731271945805e-08
-3.005533401944990874e-08
-2.958564829037699410e-08
-2.755247379968190237e-08
-2.425437764013166790e-08
-2.020944078256535614e-08
-1.652997205779889867e-08
-1.399514003536143240e-08
-1.209328155283636004e-08
-9.378961844447241822e-09
-6.472620852092729097e-09
-5.201679560085741692e-09
-3.637053356806304090e-09
-2.677218655517358760e-09
-1.804338278439192060e-09
-1.279019683541441460e-09
-8.897353752360923856e-10
-6.182893093526772688e-10
-4.323332248384901827e-10
-3.052874361897095628e-10
-2.193623894649199992e-10
-1.607319503329348182e-10
-1.200664367656944064e-10
-9.125622299678054924e-11
-7.018399687964732489e-11
-5.424458745717534120e-11
-4.181549709430663786e-11
