# bin_1_5
-1.768538844985021455e-14
-1.824176319016023919e-14
-1.813987456944673184e-14
-1.713563364912435381e-14
-1.529483987521192026e-14
-1.291179749930814862e-14
-1.056267081905383389e-14
-8.813009787580680395e-15
-7.612331801415539952e-15
-6.172476717943831946e-15
-4.354506391352213782e-15
-3.340818686286711773e-15
-2.551107404064822976e-15
-1.805923458637642872e-15
-1.325795832950430829e-15
-9.787109978426092921e-16
-7.178019491225420205e-16
-5.347434642330611994e-16
-4.062038516260757996e-16
-3.143169400172461820e-16
-2.470474406556842816e-16
-1.962238746551694519e-16
-1.563742416874253839e-16
-1.241204143050407164e-16
-9.744715929653520263e-17
-7.519701276156308087e-17
-5.673801961984187529e-17
-4.170468047057752580e-17
-2.980404912227148225e-17
-2.072096952632222189e-17
-1.404550707617834334e-17
