# bin_7_8
-2.627986376752247776e-08
-2.863969316628727327e-08
-3.043990848737482061e-08
-3.133662460546908733e-08
-3.107033033395733647e-08
-2.921396293391967839e-08
-2.595223522290965901e-08
-2.179995392011951423e-08
-1.782041578984167311e-08
-1.494362233934666072e-08
-1.293191980137166448e-08
-1.033835769404760950e-08
-7.194203627870522436e-09
-5.623320240378772423e-09
-4.170694668345402736e-09
-2.976932731649708270e-09
-2.110700300805993884e-09
-1.543912657498527614e-09
-1.107379967848655042e-09
-8.008724223490497054e-10
-5.893686391736308965e-10
-4.411812022325635654e-10
-3.362606499309074495e-10
-2.603288727930023780e-10
-2.036095377063631998e-10
-1.598564015832403335e-10
-1.250938250800159811e-10
-9.690849326511755837e-11
-7.388922191505083191e-11
-5.518728814388210651e-11
-4.022981130916849955e-11
