# bin_1_9
-3.216038123913160146e-32
-3.444074964517088354e-32
-3.581052808844540470e-32
-3.594034344152109867e-32
-3.436855540834177302e-32
-3.102793271069857482e-32
-2.648665865603346386e-32
-2.171625970073229982e-32
-1.796789055240991467e-32
-1.550213359717073157e-32
-1.289113062724465717e-32
-9.244501765303735605e-33
-6.829516867484961249e-33
-5.412840145378162447e-33
-3.696407131480352966e-33
-2.781242268459497673e-33
-2.004381216399289196e-33
-1.442296520379661999e-33
-1.054933927144270989e-33
-7.828188598892258407e-34
-5.916750433084200176e-34
-4.550758077783682888e-34
-3.553247888828523104e-34
-2.799577653617130167e-34
-2.210675984177705109e-34
-1.737308688317157773e-34
-1.349536725859680167e-34
-1.030254984945066465e-34
-7.692704169444516839e-35
-5.597907620223527310e-35
-3.963559520768695580e-35
