# bin_13_6
-7.767713101485171993e-21
-8.582460365290994816e-21
-9.279073408104169515e-21
-9.761609353053992723e-21
-9.924741652554955963e-21
-9.670470585651795679e-21
-8.900662613159197445e-21
-7.747555473971366915e-21
-6.406603057500468585e-21
-5.251371488808979052e-21
-4.483690333949630129e-21
-3.839410448286447500e-21
-2.886746814663976893e-21
-2.019956621748494685e-21
-1.646474958178192877e-21
-1.114319698958501683e-21
-8.479047277632024072e-22
-5.848404712174913086e-22
-4.145317133937916278e-22
-2.971339156290298872e-22
-2.142052041023831734e-22
-1.561546117480541904e-22
-1.156650126469059786e-22
-8.733953231722294216e-23
-6.703583788397337775e-23
-5.204895935808749885e-23
-4.063565188411664915e-23
-3.166822759327684097e-23
-2.446854173437236760e-23
-1.863174184075172234e-23
-1.391650343680935470e-23
