# bin_15_7
-3.664542424470425630e-23
-4.077167884807031913e-23
-4.445949033087984139e-23
-4.727236704725072626e-23
-4.867183638355354502e-23
-4.825845400385103564e-23
-4.535940236104860540e-23
-4.027769705902529653e-23
-3.381262604469901366e-23
-2.764061768427236109e-23
-2.320452738289665356e-23
-2.009665405982149627e-23
-1.602711166040125457e-23
-1.110174826885745090e-23
-8.702562590868663701e-24
-6.397928157230201207e-24
-4.552497407593533021e-24
-3.173445158594802241e-24
-2.300631950638262493e-24
-1.621672052707868519e-24
-1.146577215928118548e-24
-8.228761610243538124e-25
-5.991960765437161008e-25
-4.443696337739417630e-25
-3.357476839024076023e-25
-2.576023880252989736e-25
-1.997522618134207048e-25
-1.554827742421831998e-25
-1.206112837450464594e-25
-9.261448428413795230e-26
-7.000878055326491969e-26
