# bin_8_3
-1.327323695944062106e-16
-1.423294814154209341e-16
-1.482368093240589879e-16
-1.490578169105034482e-16
-1.429291683496610424e-16
-1.293838728786601242e-16
-1.107524766058252002e-16
-9.088629811419061832e-17
-7.506498761521681600e-17
-6.469101946679566207e-17
-5.407311863680472989e-17
-3.902036465423608315e-17
-2.856768953608070503e-17
-2.281455947112524653e-17
-1.550938796079930891e-17
-1.174025370876333126e-17
-8.420126836811140495e-18
-6.051502527167448263e-18
-4.424579150260322967e-18
-3.278445354549597450e-18
-2.473529164960120672e-18
-1.899136066607753181e-18
-1.480834066824441382e-18
-1.165735228721390566e-18
-9.202390724819741651e-19
-7.233820457168399242e-19
-5.623613544612174427e-19
-4.298469844236519010e-19
-3.214766952299642343e-19
-2.343786084684903420e-19
-1.662811831315878568e-19
