# bin_20_10
-2.436134463662622916e-26
-2.745217775926987887e-26
-3.040350907542286814e-26
-3.295572620494698219e-26
-3.477031821009616185e-26
-3.546021073459573813e-26
-3.469875206934988806e-26
-3.208448502853613375e-26
-2.805328682697846861e-26
-2.326037709675573657e-26
-1.904862470202523960e-26
-1.622187155502822832e-26
-1.395408641554155364e-26
-1.060384356089624280e-26
-7.356882102877690756e-27
-5.978330756170777148e-27
-4.058083306510607802e-27
-3.053022514291361377e-27
-2.063137615920822532e-27
-1.442576005202971056e-27
-1.009935898624096222e-27
-7.069793557184329026e-28
-4.970660231031324151e-28
-3.534149943778316796e-28
-2.560135689198379978e-28
-1.891202405967072080e-28
-1.423258528434622586e-28
-1.087978258908401414e-28
-8.396383553808976603e-29
-6.495233946620056062e-29
-4.999220062880797287e-29
