# bin_11_11
-3.848361832555224915e-08
-4.274304767071833370e-08
-4.651051564025291461e-08
-4.932287052910710710e-08
-5.061877345050244233e-08
-4.997737939674231455e-08
-4.672651997273339200e-08
-4.128696848462996772e-08
-3.451090905650099317e-08
-2.821256620029570708e-08
-2.378822225006217407e-08
-2.057681980996093708e-08
-1.617081225059832312e-08
-1.118119450817614778e-08
-8.895515435805960472e-09
-6.387052116189481787e-09
-4.644029641684377736e-09
-3.198137054257026884e-09
-2.313726426150839977e-09
-1.638382585305630538e-09
-1.164761406346670067e-09
-8.395071473618973265e-10
-6.139737619964831261e-10
-4.575335934978311250e-10
-3.471975541687459020e-10
-2.673033703470266856e-10
-2.077227584025378907e-10
-1.617975622549665341e-10
-1.254200451151499633e-10
-9.612053002937214532e-11
-7.244787491114500865e-11
