# bin_7_17
-3.430688898228916718e-30
-3.834205730071661996e-30
-4.204169307966923050e-30
-4.501069063174990806e-30
-4.675221546655763065e-30
-4.684632237514086366e-30
-4.466196542293048192e-30
-4.018861275830480847e-30
-3.418057447604605109e-30
-2.799509271896779685e-30
-2.323943020984462003e-30
-2.011269388954009254e-30
-1.659849404929935884e-30
-1.173048031331956010e-30
-8.765037738108440746e-31
-6.826232771888575788e-31
-4.621803617992866453e-31
-3.389046385961588643e-31
-2.409291480898446163e-31
-1.680926314077078148e-31
-1.180383157912660052e-31
-8.367881531912193118e-32
-6.019652706946885584e-32
-4.404105246038800244e-32
-3.285665637540126034e-32
-2.494423361204000917e-32
-1.920051344479310636e-32
-1.489585866187954800e-32
-1.156341357478451097e-32
-8.918173510070724854e-33
-6.790774627073097735e-33
