# bin_5_12
-8.765376300595852264e-22
-9.634256614809812262e-22
-1.034913371143157098e-21
-1.079900304089327512e-21
-1.087960077029375699e-21
-1.045718503031491372e-21
-9.486524449610972406e-22
-8.137358837119635097e-22
-6.682112529452154904e-22
-5.513550844638804930e-22
-4.751553053767958436e-22
-3.986785408639638210e-22
-2.881759809727613063e-22
-2.093162223885825920e-22
-1.678968464043001284e-22
-1.127184720028016250e-22
-8.529963883795377653e-23
-6.034407418479870638e-23
-4.267673457128906186e-23
-3.064868951259517507e-23
-2.220918741490882330e-23
-1.635885342284248624e-23
-1.226267705405282898e-23
-9.361757527806806501e-24
-7.248773547331997590e-24
-5.660916005869390134e-24
-4.429361015830398840e-24
-3.447310203278540412e-24
-2.651703930145357156e-24
-2.004960606729157645e-24
-1.483793756740451054e-24
