# bin_19_4
-2.196244629185971138e-59
-2.459100038800483071e-59
-2.702481830822888283e-59
-2.901477258534528823e-59
-3.024633018584189373e-59
-3.043229962028984087e-59
-2.918504468609532929e-59
-2.641208151295279281e-59
-2.259723241136740795e-59
-1.853955803848934431e-59
-1.532801792179734268e-59
-1.323764860884063480e-59
-1.105389416846423312e-59
-7.916263525399725245e-60
-5.795232981149024070e-60
-4.604039317983573208e-60
-3.074945778889038945e-60
-2.296799516765581499e-60
-1.612891528792375434e-60
-1.121240121153958215e-60
-7.871707509904046746e-61
-5.555687725644496888e-61
-3.975234791396118982e-61
-2.890473047292386732e-61
-2.143518303746834305e-61
-1.618750306658173305e-61
-1.241001416047698953e-61
-9.606006401998389609e-62
-7.454016740902023163e-62
-5.756629812125721426e-62
-4.395680683432971694e-62
