# bin_8_2
-3.878769240683701110e-21
-4.140715816400085247e-21
-4.288057498678745180e-21
-4.283485824027655982e-21
-4.069285857547377295e-21
-3.650634735783489009e-21
-3.096322171916723797e-21
-2.534458053127411859e-21
-2.106784426328874801e-21
-1.820986139305328560e-21
-1.494016879579683346e-21
-1.057563690664027673e-21
-7.986042319880427000e-22
-6.197091015954303908e-22
-4.296507608958535349e-22
-3.176407086342508088e-22
-2.314820478477256107e-22
-1.671814262702868187e-22
-1.224586842657101763e-22
-9.123965902667903928e-23
-6.925506207272708791e-23
-5.348291444247436246e-23
-4.188882259008570573e-23
-3.306581248653052288e-23
-2.612465495797719475e-23
-2.051445580613146022e-23
-1.590382068349235240e-23
-1.210408484810083047e-23
-9.002460278471638650e-24
-6.521391724359065893e-24
-4.595736945236784851e-24
