# bin_11_15
-1.693551530447756847e-11
-1.895295247437570376e-11
-2.081602386503309906e-11
-2.233182950641269335e-11
-2.325712188931482178e-11
-2.337425627541196631e-11
-2.238061576591674786e-11
-2.022274728597821435e-11
-1.727400633194461798e-11
-1.416511535980357728e-11
-1.172370369409902430e-11
-1.013142307437251708e-11
-8.434083665492287131e-12
-6.017661492790439674e-12
-4.429589298862792973e-12
-3.501077843598394544e-12
-2.346107518531174749e-12
-1.744284985810252940e-12
-1.228905277273462050e-12
-8.551039520952233690e-13
-6.003403396754737398e-13
-4.241833809486453387e-13
-3.039535973546871452e-13
-2.213840720980531747e-13
-1.644457432961427119e-13
-1.243691992616932111e-13
-9.545488730470009654e-14
-7.393546379358606965e-14
-5.738018923244295372e-14
-4.429869197484973860e-14
-3.380069169424485293e-14
