# bin_9_16
-1.502262864171001394e-18
-1.679602211566037993e-18
-1.842532683409635015e-18
-1.973807126973837484e-18
-2.051722165992137174e-18
-2.057628442497587541e-18
-1.964091746890581476e-18
-1.769429950103925274e-18
-1.506732975615177081e-18
-1.234443094739873351e-18
-1.023838886052994753e-18
-8.857832133577815293e-19
-7.328762787198679305e-19
-5.192598735714324547e-19
-3.863483882469823257e-19
-3.022037688723565418e-19
-2.039547930839803578e-19
-1.501803066468980331e-19
-1.064914075766988250e-19
-7.423925747036034433e-20
-5.212630767647409481e-20
-3.691624236365917903e-20
-2.652715100598710616e-20
-1.938347449422057891e-20
-1.444345597866987006e-20
-1.095369104276942650e-20
-8.424823385739622794e-21
-6.533247526018065332e-21
-5.071417564633580303e-21
-3.912476345327642015e-21
-2.980934271416076649e-21
