# bin_1_6
-4.532219785657561808e-18
-4.728202322929099899e-18
-4.764665089890111493e-18
-4.585293904902119550e-18
-4.167233122728605089e-18
-3.582308903999869536e-18
-2.945158529225105767e-18
-2.426554974165173851e-18
-2.084702893054935053e-18
-1.753852556850186780e-18
-1.282704241504248240e-18
-9.292507442819947927e-19
-7.476401923285797557e-19
-5.117664393747551537e-19
-3.903257826013008533e-19
-2.802731861748873077e-19
-2.038830693081324447e-19
-1.511025953666309341e-19
-1.136258845310087647e-19
-8.700212794466153927e-20
-6.774449381119338786e-20
-5.346570906749533837e-20
-4.248156981129539146e-20
-3.373767261986159812e-20
-2.659151621117741870e-20
-2.066260226711549173e-20
-1.573936548625480176e-20
-1.170029282351343980e-20
-8.463316283159652165e-21
-5.953189820109522908e-21
-4.077596519195373830e-21
