# bin_6_8
-3.133916573130702524e-09
-3.403366631644349947e-09
-3.601514395945424158e-09
-3.687869222943998918e-09
-3.630974685680710923e-09
-3.384171554307813100e-09
-2.981710884862250592e-09
-2.487034526305726970e-09
-2.033374881899845481e-09
-1.717390919431753560e-09
-1.482694499085591706e-09
-1.157499610326364011e-09
-8.035263668692729378e-10
-6.427852021112014249e-10
-4.596312781037428417e-10
-3.388642774851725135e-10
-2.361625546739795280e-10
-1.724158004863673009e-10
-1.245449001362212424e-10
-9.075430462726487482e-11
-6.720448540365453151e-11
-5.060701349812062471e-11
-3.879931352683000282e-11
-3.017734453455260859e-11
-2.367279945123650854e-11
-1.860633413149919069e-11
-1.454834736433953133e-11
-1.124228184404694460e-11
-8.537813870535311388e-12
-6.343650634248016465e-12
-4.596012504431967636e-12
