# bin_3_17
-4.715354221877791040e-58
-5.249988560612105658e-58
-5.729794425566860527e-58
-6.098869509047458958e-58
-6.287897269275887536e-58
-6.245059572052410809e-58
-5.882744266038285869e-58
-5.234376650322402064e-58
-4.402465700027858177e-58
-3.599317329755751312e-58
-3.016264073755050857e-58
-2.612868346529983946e-58
-2.095937424052286015e-58
-1.454475127706348473e-58
-1.132240878792293850e-58
-8.404275973981251812e-59
-5.927407547398459943e-59
-4.160792929271136104e-59
-3.013313638806505971e-59
-2.120313607839231531e-59
-1.496371194214040937e-59
-1.071903696626408680e-59
-7.791096514960986194e-60
-5.766196372285272709e-60
-4.348622501020703726e-60
-3.331478455780412838e-60
-2.580778422708778417e-60
-2.008079974006675123e-60
-1.558062448095749577e-60
-1.197299713057742410e-60
-9.061195583597133809e-61
