# bin_16_6
-9.048787996922023321e-32
-1.007864082276107224e-31
-1.100495489213903488e-31
-1.172073787554380087e-31
-1.209298813095626723e-31
-1.202168722503038990e-31
-1.133782445175982297e-31
-1.009953356671672375e-31
-8.503265795108148301e-32
-6.952619310993512066e-32
-5.820681830865586773e-32
-5.042659082475346276e-32
-4.057716222747004327e-32
-2.819087665772514537e-32
-2.186001685528407563e-32
-1.631039869644138173e-32
-1.144892585648728563e-32
-8.069020287349081936e-33
-5.838833727484438583e-33
-4.104658854421666588e-33
-2.894122524942867314e-33
-2.071020054213038778e-33
-1.503815379792670463e-33
-1.111735402954633681e-33
-8.375687386772848754e-34
-6.411290732052633813e-34
-4.963865741995532976e-34
-3.861517746739379813e-34
-2.996485176689742607e-34
-2.303599521115159429e-34
-1.744484080222678449e-34
