# bin_3_13
-8.899527157212784182e-38
-9.779838050467156854e-38
-1.050303015959929567e-37
-1.095628920660055588e-37
-1.103429617367182594e-37
-1.060058512581862721e-37
-9.611807483031682945e-38
-8.240575835035531391e-38
-6.765588937669620832e-38
-5.584130186268079245e-38
-4.813607448589019542e-38
-4.035239594052823798e-38
-2.913085340681944079e-38
-2.119448381451087069e-38
-1.697838391117074216e-38
-1.140609031490444238e-38
-8.622692577700885556e-39
-6.105831044279650515e-39
-4.319113409741410941e-39
-3.101842222120428083e-39
-2.248266493052433022e-39
-1.656649038428057060e-39
-1.242342533326732026e-39
-9.487893389387320060e-40
-7.348465779172711560e-40
-5.739733664628359095e-40
-4.491224362315090401e-40
-3.495193320579443038e-40
-2.688052610073028055e-40
-2.031904837456829966e-40
-1.503226246307951542e-40
