# bin_15_11
6.007478349179765959e-08
5.572290550827426457e-08
5.034195401117620961e-08
4.424953882382204832e-08
3.785574252195078333e-08
3.159992374759690110e-08
2.585816987856343102e-08
2.084453389157569918e-08
1.658712463871979665e-08
1.298615152864849386e-08
9.949698580547246111e-09
7.482831065818275586e-09
5.606397984489624201e-09
4.214211230213138354e-09
3.156611227645377674e-09
2.377867241634166322e-09
1.805318705212055244e-09
1.381701514360053293e-09
1.065158807184285409e-09
8.253746461283147080e-10
6.406129273434942084e-10
4.960555112499934626e-10
3.817094239958261982e-10
2.907923188124127425e-10
2.186179086763156621e-10
1.617828130165248693e-10
1.176238195438378208e-10
8.391583533164790693e-11
5.871381580066812518e-11
4.029382875517642424e-11
2.714312997093277319e-11
