# bin_8_2
2.213744934985646276e-08
1.887326662287066243e-08
1.570742469435781529e-08
1.282667390152800435e-08
1.033019701669713411e-08
8.218456980530396438e-09
6.430239918143985761e-09
4.923088247504598405e-09
3.713194816758258957e-09
2.806750334900218024e-09
2.130710420811795659e-09
1.617476199865267075e-09
1.241399084967094375e-09
9.616591871286152566e-10
7.524634243529087673e-10
5.930161539417627375e-10
4.690112964395108795e-10
3.705474801489257221e-10
2.910742364721367013e-10
2.263403835615986237e-10
1.735597288598945889e-10
1.308303131355444472e-10
9.672087336669963106e-11
7.001901678211225362e-11
4.960251278780251591e-11
3.439369847242120010e-11
2.336674508151817510e-11
1.558160683020333650e-11
1.022034825231392019e-11
6.609661683286394562e-12
4.224361734993950290e-12
