# bin_10_6
4.045222954329304099e-08
3.624767754000765192e-08
3.160191767387145813e-08
2.682941886195420600e-08
2.225138842738152778e-08
1.811975562763516225e-08
1.455431885041783777e-08
1.154057286968292735e-08
8.991757194550467034e-09
6.856025337817566129e-09
5.154317923416644168e-09
3.882503951960780151e-09
2.932278306093301499e-09
2.211822072809225133e-09
1.685585465216714630e-09
1.294331679082195190e-09
1.003245410652438139e-09
7.827967278235818646e-10
6.129579678248884352e-10
4.796979200618852556e-10
3.735691933137683488e-10
2.883047950878658496e-10
2.196878582700503369e-10
1.647852552493471475e-10
1.213892486528240055e-10
8.767897318825589947e-11
6.204408786954263877e-11
4.300941329043009151e-11
2.922642290775548249e-11
1.949514388087154719e-11
1.278868556245665902e-11
