# bin_10_4
3.273895784175050807e-08
2.878062202468225558e-08
2.462136529750911918e-08
2.054890574556415444e-08
1.681318884749786258e-08
1.355769121750436818e-08
1.080015916042184809e-08
8.468146980378887756e-09
6.497322494842063620e-09
4.897805689494287930e-09
3.689490498065086407e-09
2.793355690182139784e-09
2.110410556988769301e-09
1.609168291826992547e-09
1.237916765553758506e-09
9.616024429347528346e-10
7.526008826100257940e-10
5.916926628511282146e-10
4.653119639330623636e-10
3.643685488985761930e-10
2.828812820866001879e-10
2.168880366402415590e-10
1.636896425436443136e-10
1.213014675332182885e-10
8.810504919723804881e-11
6.266194829959120174e-11
4.363312265823957202e-11
2.976662419957718211e-11
1.992299296510758611e-11
1.310822889184610826e-11
8.497288624045124238e-12
