# bin_16_15
6.896273558368420845e-08
6.476783412678503772e-08
5.929554320955051189e-08
5.283739137161140716e-08
4.580874953757625560e-08
3.869488682721244259e-08
3.196300967895770099e-08
2.594811304613903088e-08
2.078015812226991288e-08
1.640615813278089031e-08
1.270443714203136420e-08
9.626645488870738419e-09
7.204830880780650067e-09
5.398394132878211338e-09
4.041724548239827258e-09
3.021257659191122709e-09
2.277516925018248495e-09
1.727309808057832743e-09
1.320902648271367547e-09
1.016392940260140350e-09
7.849518176785809983e-10
6.063066288548501561e-10
4.665885521599580985e-10
3.563969331501410734e-10
2.692722581379554143e-10
2.006633290716199963e-10
1.471620319977386650e-10
1.060432707517339248e-10
7.501023755468416656e-11
5.206876654653155547e-11
3.548004823089603460e-11
