# bin_19_10
6.088905685649270531e-08
5.648412088365032379e-08
5.102347449243231026e-08
4.483100546470413013e-08
3.832779855807623942e-08
3.196838044988772691e-08
2.614214148274947311e-08
2.106678922285355271e-08
1.676405452083711929e-08
1.312033062805562929e-08
1.003920065480766805e-08
7.538838805524799307e-09
5.649476312663526658e-09
4.247669334838244118e-09
3.178572671293309521e-09
2.396492930183290699e-09
1.819425263675129517e-09
1.393590130051245806e-09
1.075108427938281748e-09
8.337106385021112229e-10
6.475625724345926766e-10
5.017674952424640320e-10
3.863098631338590326e-10
2.944004869278720374e-10
2.213645630351765043e-10
1.638052099278695033e-10
1.190594549072605188e-10
8.489581782649977296e-11
5.935562861734982173e-11
4.069654790171966315e-11
2.738516972067842838e-11
