# bin_19_14
7.055657298283841167e-08
6.637416505293656708e-08
6.086829505893561038e-08
5.432761117380284289e-08
4.717085472664873947e-08
3.989415210603272442e-08
3.298329909968357959e-08
2.679449130206407141e-08
2.147297813111772838e-08
1.696949250325901992e-08
1.315418071310076037e-08
9.971490888741434667e-09
7.459911757468623137e-09
5.588406959734893413e-09
4.183203455396254642e-09
3.123961047722024373e-09
2.353435249193513614e-09
1.783155908739235972e-09
1.362568492516578597e-09
1.047826504077006366e-09
8.089341549374203935e-10
6.247828703794985249e-10
4.809074144758758335e-10
3.675094410856215554e-10
2.778632446231373302e-10
2.072481166806488303e-10
1.521451307817416226e-10
1.097536388144118411e-10
7.772156860191625274e-11
5.400995512373815721e-11
3.684066496844872218e-11
