# bin_17_15
7.023422889383155598e-08
6.606406134806210181e-08
6.058140001686933622e-08
5.407385141188939843e-08
4.695720598507849656e-08
3.972289574309381953e-08
3.285054001592448387e-08
2.669207108348090163e-08
2.139225034836296008e-08
1.690551486343490969e-08
1.310708401887195675e-08
9.941310059343542569e-09
7.440579337240949325e-09
5.572770437090878862e-09
4.171975489593532412e-09
3.116280344306180034e-09
2.346989746344896394e-09
1.778177816091575910e-09
1.358460149808374644e-09
1.044364029886829142e-09
8.060280212558274947e-10
6.223607965550992771e-10
4.789183449802737134e-10
3.659088429224761845e-10
2.766079389940083894e-10
2.062914308975151637e-10
1.514390140676303213e-10
1.092503594404915684e-10
7.737601160286131479e-11
5.378185932076855800e-11
3.669614489968852852e-11
