# bin_20_13
6.932333582251577945e-08
6.509290114834161871e-08
5.957073143807740820e-08
5.305206407954758193e-08
4.595898156514791177e-08
3.878563201646707076e-08
3.200929814571917543e-08
2.596874152998457702e-08
2.079024782737545879e-08
1.640992990625696805e-08
1.269672174105836215e-08
9.606264912481381395e-09
7.183834239329275083e-09
5.386045264243455160e-09
4.030823102212951019e-09
3.012933326091750694e-09
2.272899909775499967e-09
1.724733497858445088e-09
1.319876413244090827e-09
1.016480389556265029e-09
7.856525032323549046e-10
6.072745764496491437e-10
4.675937401682313192e-10
3.572991934129583816e-10
2.700002792240836522e-10
2.011979990998600892e-10
1.475159830493567162e-10
1.062474363256718005e-10
7.510272096813606402e-11
5.208680538089487641e-11
3.545508793773454908e-11
