# bin_7_7
3.855319138569242171e-08
3.445397209966354070e-08
2.996722625874202167e-08
2.539395546122467098e-08
2.103279397476450058e-08
1.711045796282897763e-08
1.372895451282606118e-08
1.086997867987551184e-08
8.456838181800951782e-09
6.445936349971728465e-09
4.850190781048980345e-09
3.654653752650977322e-09
2.761281302953218631e-09
2.086114636532199485e-09
1.591163703038779558e-09
1.223411059084775300e-09
9.490625034781180786e-10
7.408791747885270116e-10
5.801687586665719600e-10
4.538565526552097086e-10
3.531585918986909639e-10
2.722376373246180175e-10
2.071522571796134885e-10
1.551379443513629522e-10
1.140943991061004700e-10
8.227564739909945923e-11
5.813133612960124906e-11
4.024190514903320454e-11
2.731404982600851878e-11
1.820240196249785045e-11
1.193195225131936312e-11
