# bin_15_15
6.755236076270614935e-08
6.333013015909092629e-08
5.786946881880401641e-08
5.146624785796343270e-08
4.453535872537833293e-08
3.755521486228228308e-08
3.097923085631045564e-08
2.512358808858320346e-08
2.010183894396728681e-08
1.585278429723864825e-08
1.225824705051907220e-08
9.278006250780926266e-09
6.943695770551812492e-09
5.205245579904031486e-09
3.897432020194610943e-09
2.916015031639633290e-09
2.200558093061063406e-09
1.670964334729398165e-09
1.279294159623611891e-09
9.854009358811273234e-10
7.615964621250895337e-10
5.885140447177132366e-10
4.529219395574106351e-10
3.458526265762347496e-10
2.611397971321492841e-10
1.944236763499294668e-10
1.424202856158310425e-10
1.024877775390567409e-10
7.238760990326678333e-11
5.016984805143446125e-11
3.413218868473834589e-11
