# bin_20_16
7.515746457488162355e-08
7.110619234669063485e-08
6.560937516538998485e-08
5.893701079988943283e-08
5.150302088930511358e-08
4.381871950405564512e-08
3.640779051688836647e-08
2.968693588408423519e-08
2.386195890823896771e-08
1.892274538006240119e-08
1.473884620393878867e-08
1.122533871335037748e-08
8.408241103643312717e-09
6.287262438021339072e-09
4.705540001664874553e-09
3.506834557367920413e-09
2.631206415223328333e-09
1.986117349953006779e-09
1.511311447407398694e-09
1.157646195676142536e-09
8.909743680292608049e-10
6.867674288208907688e-10
5.281910580995610003e-10
4.038146403006119773e-10
3.058000318129673152e-10
2.286872558761858805e-10
1.684797978123260791e-10
1.220595046978217537e-10
8.685733968569785028e-11
6.067640395049598938e-11
4.161394117344579565e-11
