# bin_10_5
3.684311748286010021e-08
3.273325207632386937e-08
2.829455452397035562e-08
2.383186407212391669e-08
1.963796727925463256e-08
1.591603135452281277e-08
1.273695475709979854e-08
1.005317537654997764e-08
7.780817933523990933e-09
5.896669362216131953e-09
4.431246472553388851e-09
3.347699843385670555e-09
2.527922771198561368e-09
1.914460532800639278e-09
1.465707000138806876e-09
1.131249193349816273e-09
8.808069142403792505e-10
6.898827535965778373e-10
5.414934522350588919e-10
4.240856639325460162e-10
3.299561378237924839e-10
2.540050360637903990e-10
1.927895722807700179e-10
1.438667988439080816e-10
1.053336541888521733e-10
7.556558444753004450e-11
5.308831656954240061e-11
3.653439840018281478e-11
2.465301916538384345e-11
1.633893350765495571e-11
1.065777985836836468e-11
