# bin_8_3
2.685197670069441020e-08
2.324524815605941187e-08
1.960579977178641055e-08
1.617408946904164410e-08
1.312116539178400899e-08
1.051075959851092940e-08
8.307283596858100637e-09
6.440884573528390686e-09
4.890361522554800472e-09
3.681606838450403736e-09
2.787390812503499675e-09
2.111580432198304354e-09
1.605204513885534961e-09
1.234276422028519602e-09
9.573758187848425716e-10
7.493595737582359002e-10
5.900116911673318528e-10
4.654189605842303781e-10
3.661546694279387338e-10
2.859938075379633154e-10
2.208637030413288892e-10
1.680444460240792178e-10
1.256126662455861958e-10
9.205749962584138815e-11
6.606257525502408289e-11
4.640301803920502644e-11
3.191724801827873263e-11
2.152398257523612090e-11
1.425742487106651873e-11
9.297023912409112054e-12
5.982057299956183777e-12
