# bin_18_6
4.592912483304008905e-08
4.148648927747794700e-08
3.644278315170944187e-08
3.114154717055885839e-08
2.595922853617121795e-08
2.121906665605482496e-08
1.710043249738868493e-08
1.361538482052026491e-08
1.066092411122298068e-08
8.156631401884653084e-09
6.129504910142006369e-09
4.608699942656319062e-09
3.478111477289779195e-09
2.614528989031539333e-09
1.985148144701320614e-09
1.518334494208443920e-09
1.172852862531558409e-09
9.127555359664411454e-10
7.137658290341071354e-10
5.586261037016658744e-10
4.356604290863211372e-10
3.371260087583611236e-10
2.578440500916238594e-10
1.942775467617339973e-10
1.438380796948180664e-10
1.044493089048169412e-10
7.430988839952950227e-11
5.178033199016080828e-11
3.535594211655887763e-11
2.368444770551841066e-11
1.559338699006076088e-11
