# bin_18_11
6.290667559759322660e-08
5.855397302648629418e-08
5.308885834207542788e-08
4.682675775159733314e-08
4.018738632638366367e-08
3.363313869556758612e-08
2.757535492326720368e-08
2.226314693107160149e-08
1.774661373766753959e-08
1.392567656020055016e-08
1.069268293396509477e-08
8.046455508566286722e-09
6.023651639754055053e-09
4.526435117407409693e-09
3.387259090148856967e-09
2.546590738146396587e-09
1.930030167719288863e-09
1.474236987518435519e-09
1.134558040664422296e-09
8.780707969534077721e-10
6.810726210078030413e-10
5.273796174563395407e-10
4.060631356176967588e-10
3.097132200403134551e-10
2.332316912816505064e-10
1.729523711659416460e-10
1.260387768542490411e-10
9.014535196838351447e-11
6.323527889507473853e-11
4.350716996046927268e-11
2.937831304686904383e-11
