# bin_13_11
5.760344642670893379e-08
5.325229293624464740e-08
4.794479358249716651e-08
4.200046336413439265e-08
3.582097836835349914e-08
2.982559395514395561e-08
2.435963304784715401e-08
1.960655364299528796e-08
1.557527472757846174e-08
1.216625783958631045e-08
9.301320393341119570e-09
6.990975406992122943e-09
5.242275607994694064e-09
3.941744277507200769e-09
2.955332892618721284e-09
2.230628198522899056e-09
1.696487240743200181e-09
1.300948877034716648e-09
1.004596334185912349e-09
7.793883484162593459e-10
6.053049606400414810e-10
4.687198712597866126e-10
3.604566311015455600e-10
2.742805802220561255e-10
2.058648721706843462e-10
1.520354579722436453e-10
1.102803311587303598e-10
7.847952253754421807e-11
5.476807479104612090e-11
3.748964899983823664e-11
2.519256029320166146e-11
