# bin_20_15
7.339229314406214980e-08
6.928360054522338709e-08
6.377523256290136479e-08
5.714505142804442677e-08
4.980988402543351760e-08
4.227646127258946853e-08
3.505522394294266011e-08
2.854016057747292157e-08
2.291279480399028176e-08
1.814601075785316517e-08
1.410733906126600464e-08
1.072302076145806974e-08
8.026270446740132051e-09
6.005994222230772563e-09
4.495564173821450249e-09
3.352359435840345872e-09
2.519586767291662885e-09
1.904554498641297312e-09
1.451765064201814013e-09
1.113851758714429825e-09
8.583857288320433852e-10
6.622416938156589112e-10
5.095466063105274079e-10
3.895367508554955003e-10
2.948297498097662717e-10
2.202714996699414606e-10
1.620629092844579514e-10
1.172167034199370822e-10
8.325260557032876173e-11
5.803725619533273039e-11
3.971704413871236539e-11
