# bin_13_9
5.285577050368750657e-08
4.847672084416360461e-08
4.328042659085086107e-08
3.759411405835712464e-08
3.180782460120190966e-08
2.630662190201739971e-08
2.137667288534824252e-08
1.713817819716285146e-08
1.355535955462575040e-08
1.052341650947593435e-08
7.993683871522236617e-09
5.995585682246822888e-09
4.507503918744650110e-09
3.391080350258914094e-09
2.548211194568127225e-09
1.933865869905822250e-09
1.477527722414858405e-09
1.139002046280928683e-09
8.836453909697839472e-10
6.878953791864969928e-10
5.352828346708017104e-10
4.146305260285646666e-10
3.184471061165779172e-10
2.416335493419308455e-10
1.806122881405314329e-10
1.326857946754118641e-10
9.565380585257015230e-11
6.760914749701676214e-11
4.684467957524536329e-11
3.183423477094239564e-11
2.124229478031569514e-11
