# bin_9_5
3.586253444396668647e-08
3.180820752965077972e-08
2.745235410266204121e-08
2.309264952753855270e-08
1.901023792358488553e-08
1.539569558844041888e-08
1.231113951142647280e-08
9.707444800921838210e-09
7.505545741947763476e-09
5.685631653049721911e-09
4.274123737625503434e-09
3.229911873122090985e-09
2.439794688328155397e-09
1.849371635628594336e-09
1.416944326435872223e-09
1.094535218949248632e-09
8.527768718934994927e-10
6.682058714196308572e-10
5.245437822140482906e-10
4.107365275284968991e-10
3.194210471061444469e-10
2.457194833103693824e-10
1.863310118018701911e-10
1.389004819240179163e-10
1.015810023162284305e-10
7.278737268118158958e-11
5.107697845970295000e-11
3.511163847157443056e-11
2.366944433247295548e-11
1.567354630593835332e-11
1.021638308682728678e-11
