# bin_16_16
7.045660018809598604e-08
6.629601401834168918e-08
6.081742247881475829e-08
5.430718438029519170e-08
4.718036339706418677e-08
3.992857085496075376e-08
3.303270252173201482e-08
2.684754639422609496e-08
2.152133509357331343e-08
1.701135752370199595e-08
1.319364931649849246e-08
1.001092382717683536e-08
7.493877808245165841e-09
5.611855978969129446e-09
4.201209098428444863e-09
3.137845705632495871e-09
2.362475416204459593e-09
1.789467258895297004e-09
1.366655294600480391e-09
1.050345119401326763e-09
8.104450325265704649e-10
6.256610158178889562e-10
4.814121969557358496e-10
3.678108824892152674e-10
2.780668981388160111e-10
2.074114321933969570e-10
1.522954888795148434e-10
1.098998438631161782e-10
7.786247851674364373e-11
5.414059611788171091e-11
3.695599095333523270e-11
