# bin_6_6
3.413301234353433128e-08
3.020395575473776824e-08
2.601816048503288314e-08
2.185644173550847561e-08
1.797612170698968516e-08
1.454671381321840997e-08
1.161931682631060334e-08
9.148912186848781044e-09
7.067770974632346535e-09
5.357166904142349140e-09
4.030809975875096759e-09
3.045846918145627033e-09
2.303338628687986421e-09
1.747905169631063805e-09
1.340416650225940845e-09
1.036235728899150957e-09
8.077916631314787494e-10
6.330130328942600092e-10
4.967573433008623617e-10
3.887072808163023357e-10
3.019822920820817837e-10
2.320142450455901079e-10
1.756934068766719187e-10
1.307812188401742032e-10
9.550778161780065587e-11
6.834614242765074592e-11
4.790584898575636396e-11
3.290107781216338651e-11
2.216343263377325944e-11
1.466868799111995261e-11
9.557969541119777955e-12
