# bin_16_6
4.498823465384144175e-08
4.058649777610722562e-08
3.561115426285581353e-08
3.040075060232302620e-08
2.532224411028150769e-08
2.068662337700046900e-08
1.666302493831927560e-08
1.325894385699436392e-08
1.037417039461161199e-08
7.933194274470100758e-09
5.961973043121231766e-09
4.483943428663375706e-09
3.384340326015633883e-09
2.545346191017342290e-09
1.933684988354738986e-09
1.479852122872481815e-09
1.143715317937575579e-09
8.904294042757414714e-10
6.964476579135226500e-10
5.450667265234247906e-10
4.249935325319504888e-10
3.287388161216688931e-10
2.512890391045036592e-10
1.892109385073059636e-10
1.399814941335275664e-10
1.015682547254478321e-10
7.220268735140483265e-11
5.027353226697936179e-11
3.430292075517749939e-11
2.296474538387557449e-11
1.511155247573132013e-11
