# bin_18_2
2.490772061710997690e-08
2.133259465589599832e-08
1.781729973986205664e-08
1.458823634236892606e-08
1.177668114778783642e-08
9.395989649578936353e-09
7.375416340380381885e-09
5.658437735481749261e-09
4.266066370465810316e-09
3.220477278795866058e-09
2.442683566857057435e-09
1.849935679597382774e-09
1.416214698750825404e-09
1.094376636542308963e-09
8.546137425023926019e-10
6.726998571802380308e-10
5.319014857596419270e-10
4.205499094026786343e-10
3.309019119000617779e-10
2.579363920955581028e-10
1.983850500506481380e-10
1.500547661492049387e-10
1.113357829702646556e-10
8.089430158942133543e-11
5.750902155271117103e-11
4.000601606430720522e-11
2.725842721788030846e-11
1.822178167026086708e-11
1.197671380138750494e-11
7.758405573035640448e-12
4.965030923904610949e-12
