# bin_17_9
9.184342274271463241e-24
1.027778512773253392e-23
1.128706352662245230e-23
1.210748848939256275e-23
1.260709578672617604e-23
1.266810836956989344e-23
1.212613229662384226e-23
1.095364441967474312e-23
9.353534205881209491e-24
7.669213885395094051e-24
6.348570886441518932e-24
5.487313173688381011e-24
4.565505632095566064e-24
3.254603006332716586e-24
2.398246388801687216e-24
1.893759392148547701e-24
1.269466134621949697e-24
9.430190879615809643e-25
6.646934544579636148e-25
4.624828270778015635e-25
3.246029804283858573e-25
2.293361662782080064e-25
1.643299108918927072e-25
1.197226346343314313e-25
8.894550227422475329e-26
6.729291200874052046e-26
5.167236927960495991e-26
4.004446248973944093e-26
3.109677892830595703e-26
2.402374522895516080e-26
1.834442206249326400e-26
