# bin_15_14
7.280435689877463654e-11
8.172870251287812528e-11
9.009990360099818756e-11
9.711008784163358371e-11
1.017295281612353046e-10
1.029220240624717143e-10
9.951418136675668793e-11
9.081030831509001806e-11
7.836038045613501082e-11
6.450774290718106953e-11
5.307840138436396048e-11
4.562684305064252550e-11
3.864690838822301850e-11
2.829709775929360862e-11
2.015508319243172715e-11
1.634262829813312811e-11
1.082112504828644803e-11
8.211181305960897854e-12
5.673254481132682773e-12
3.929473201710658829e-12
2.759210994771874494e-12
1.939658170523199160e-12
1.377490295711195541e-12
9.927494046422307389e-13
7.295610356908098568e-13
5.465178328357219332e-13
4.163463213695931357e-13
3.210785411448808912e-13
2.489423124373355347e-13
1.926373537313597012e-13
1.477421608062615606e-13
