# bin_12_12
1.357940167304931723e-10
1.512438991053088238e-10
1.651357000149900221e-10
1.758631694745444067e-10
1.814305991008389299e-10
1.803371142472317440e-10
1.700502905418945718e-10
1.514535715034997508e-10
1.274985611251865112e-10
1.042482060217212074e-10
8.728831456849383381e-11
7.561815931643485110e-11
6.081835340393933376e-11
4.224927048974776037e-11
3.277649122702747958e-11
2.443508239422119981e-11
1.716260109200008530e-11
1.208862076240038964e-11
8.745795986611304958e-12
6.147962061458193046e-12
4.334795839379693714e-12
3.101874947209360012e-12
2.252522549471784227e-12
1.665548605367234819e-12
1.255061746304460659e-12
9.610927319902122028e-13
7.444898011676682031e-13
5.795010967895539508e-13
4.500001779861556368e-13
3.462239165704300812e-13
2.624281475012634846e-13
