# bin_16_4
2.758103317246595355e-47
3.061668139157947585e-47
3.329206052324608968e-47
3.527413095156867925e-47
3.616190464430508030e-47
3.565258327018296968e-47
3.327389790361409187e-47
2.935120986180797678e-47
2.449924128496306782e-47
2.002959539741159947e-47
1.691377937632515707e-47
1.462239334669382317e-47
1.143272887908564230e-47
7.903439000095845763e-48
6.316886841737518068e-48
4.498386041132056387e-48
3.294470437838918844e-48
2.261039358953726371e-48
1.633029822268500077e-48
1.158014145397778202e-48
8.247336427728094531e-49
5.951257761842526941e-49
4.358850245367454619e-49
3.253391482466023489e-49
2.472594759765616376e-49
1.906358923791222822e-49
1.483146413843249750e-49
1.156181886054824037e-49
8.966998909106619247e-50
6.874085937016797449e-50
5.181604054624371154e-50
