# bin_5_3
1.135028623166931771e-11
1.189271755736874183e-11
1.204358867280996261e-11
1.167448718837057312e-11
1.069182393947519000e-11
9.262500110204954097e-12
7.643309291279811569e-12
6.275298546182832185e-12
5.365245123958342115e-12
4.561696447359146943e-12
3.403973605850560567e-12
2.419899781924274472e-12
1.961460262107048168e-12
1.348821033007535539e-12
1.029576085678623723e-12
7.315411239240385317e-13
5.328755278809603034e-13
3.941248036202107142e-13
2.954103594456082318e-13
2.252765848521298565e-13
1.747843426710776882e-13
1.375971772117233365e-13
1.092192550252746007e-13
8.679086153177159512e-14
6.855358838089509487e-14
5.345998829764694693e-14
4.092044412312250673e-14
3.059801396761164440e-14
2.227736145929956656e-14
1.577372216465329550e-14
1.087169023079141259e-14
