# bin_19_13
7.082010117068759577e-17
7.984556440227989795e-17
8.848119263359239110e-17
9.597643876835765249e-17
1.013491998029351194e-16
1.034628536355659762e-16
1.013863958536784282e-16
9.390541002569477206e-17
8.223983107325732842e-17
6.826349944620101736e-17
5.588371034310577466e-17
4.752811956350648404e-17
4.093609428844843096e-17
3.125501619402140620e-17
2.164748478636243780e-17
1.755523874710064917e-17
1.199053157960673219e-17
8.982483050981404402e-18
6.058936313095872197e-18
4.248384431229381498e-18
2.969541555823623737e-18
2.075139225214160552e-18
1.456378494712417797e-18
1.033552450081978651e-18
7.469562993910678929e-19
5.505613540860588978e-19
4.135785892688233974e-19
3.157534041833793405e-19
2.435546448876914342e-19
1.884634803219976110e-19
1.452082908577095832e-19
