# bin_7_3
5.417293140401910178e-16
5.761671394013454643e-16
5.938601189024157449e-16
5.898495925035734259e-16
5.560763436333175355e-16
4.952810151301494752e-16
4.171370676520557946e-16
3.410641538535567843e-16
2.851861631803959389e-16
2.466199076488774478e-16
1.987630979762581401e-16
1.392141218526159933e-16
1.077408756622884976e-16
8.126064463573917062e-17
5.767414271180189502e-17
4.169507275971913298e-17
3.067740953524268812e-17
2.227304752534504313e-17
1.637355034061288583e-17
1.226719383392972517e-17
9.360698846206533216e-18
7.265725193311295343e-18
5.713225105364390043e-18
4.522029700244750833e-18
3.577335936013174289e-18
2.808737444130233051e-18
2.174518299033851106e-18
1.650962966467410210e-18
1.223901617646095226e-18
8.832623264794527864e-19
6.200875428199723803e-19
