# bin_17_16
6.758837263173617381e-11
7.625027795237293130e-11
8.456098022713697219e-11
9.180944801112434694e-11
9.706110350931199148e-11
9.921886535146283037e-11
9.741312165658260009e-11
9.043088221970305783e-11
7.936880510596940518e-11
6.598190620570959776e-11
5.399352548635371899e-11
4.583561289109038357e-11
3.953856067577156270e-11
3.038439639196751484e-11
2.100527774449083480e-11
1.697806591788904800e-11
1.170451322027404495e-11
8.710259463274120468e-12
5.867249588715342213e-12
4.132480064425027215e-12
2.882711711656950405e-12
2.009942539301980316e-12
1.408184731120156947e-12
9.971504140445084519e-13
7.187957242426963408e-13
5.284345571542919865e-13
3.960233143672509349e-13
3.018023854117873917e-13
2.325414107542787303e-13
1.798925045835512162e-13
1.386734303319703189e-13
