# bin_11_11
1.483829373981579253e-10
1.646208852559188858e-10
1.788811947233307343e-10
1.893668750632143575e-10
1.939323454809358096e-10
1.909313098046011470e-10
1.778863771994706125e-10
1.566631034741822358e-10
1.305988218045073897e-10
1.067913507208219662e-10
9.030674970607309919e-11
7.801201714304553736e-11
6.069948073611196083e-11
4.198435111757121084e-11
3.367786922739861104e-11
2.380680619480092210e-11
1.754453951423798685e-11
1.202489852008310812e-11
8.665627076648355311e-12
6.154530107931668980e-12
4.391462753684586295e-12
3.172934889967680388e-12
2.327235607899677411e-12
1.739653085200778714e-12
1.323923415638669008e-12
1.021791703453719379e-12
7.954382089192704028e-13
6.201707626380574821e-13
4.808467357008331454e-13
3.683725719455489994e-13
2.774086604644052576e-13
