# bin_8_2
1.716509557319458410e-23
1.829195235812560002e-23
1.890015990777326902e-23
1.882921868175792947e-23
1.782219897394362029e-23
1.593292883551233742e-23
1.346713964613368213e-23
1.101585021471357799e-23
9.182090074706511754e-24
7.940500035882359234e-24
6.460997796906842556e-24
4.546595471957456215e-24
3.474950926419258773e-24
2.660992720622072516e-24
1.864373693989001196e-24
1.363340040326412787e-24
9.988614433343884757e-25
7.231705044127253514e-25
5.305319840528617483e-25
3.963873012419831075e-25
3.017200979013589548e-25
2.336669772387973482e-25
1.834350314963611138e-25
1.450569966452639261e-25
1.147387873095554231e-25
9.014507674804069317e-26
6.988287514448430573e-26
5.315990934512098675e-26
3.950375439415530843e-26
2.858565540543606644e-26
2.012293635453800930e-26
