# bin_19_4
7.966454761237611535e-62
8.911191156966581870e-62
9.781282696342362423e-62
1.048561099177820078e-61
1.090942058455075469e-61
1.095206328971150186e-61
1.046957967978271627e-61
9.445137152638995793e-62
8.054625896586976911e-62
6.601661780077256771e-62
5.469814711384169630e-62
4.730046260245425897e-62
3.925091303715237101e-62
2.789732727615224153e-62
2.065155347342678911e-62
1.623459821525207709e-62
1.091608733618769875e-62
8.075330159421288226e-63
5.707693788984156770e-63
3.974501465546663952e-63
2.789673831887434423e-63
1.972887712051968586e-63
1.415364500076386807e-63
1.032575315992423915e-63
7.681613610315336629e-64
5.818514249309075000e-64
4.471916746864849885e-64
3.467362275249045958e-64
2.692854720487769857e-64
2.079738864038764308e-64
1.587094680450527439e-64
