# bin_12_1
2.176720681927400760e-51
2.369987139563408159e-51
2.516026966603328934e-51
2.586357361386643713e-51
2.559636886435683127e-51
2.400933273034391641e-51
2.128064357518922863e-51
1.783873489881632697e-51
1.458041932814248206e-51
1.225078002834878624e-51
1.059848429408580352e-51
8.419286791259560779e-52
5.847061888963185604e-52
4.604106471251408368e-52
3.379798239366087092e-52
2.434254736780508571e-52
1.713865447727266962e-52
1.254939655379620234e-52
9.017006388650903410e-53
6.532396837968138740e-53
4.815908655188798765e-53
3.611741569954714517e-53
2.758201806832888311e-53
2.139059498040373479e-53
1.675511070328561162e-53
1.316936217238709560e-53
1.031296985124053927e-53
7.992491928918113461e-54
6.094720514511776679e-54
4.551619732201275869e-54
3.317063020195073697e-54
