# bin_17_10
2.238604542201307280e-20
2.508094577625652216e-20
2.758390306958188060e-20
2.964224401428848041e-20
3.093641242499889331e-20
3.116744456955077751e-20
2.994731232277701103e-20
2.715315415431908226e-20
2.327680241981887563e-20
1.911007189679609271e-20
1.578077070085767385e-20
1.361628238385752914e-20
1.141034496578328921e-20
8.210263640781582958e-21
5.970921410064351684e-21
4.770688643180568702e-21
3.175274526985346952e-21
2.383245805981349752e-21
1.666933351140379648e-21
1.157363391857753006e-21
8.123912720300695635e-22
5.725574746919017455e-22
4.088651040512467088e-22
2.966910860261904935e-22
2.195502361838068060e-22
1.655167047032341026e-22
1.267453527935228520e-22
9.806404851039602165e-23
7.612111621444736339e-23
5.885155227961539997e-23
4.501615707560603206e-23
