# bin_16_1
1.202660178187204340e-74
1.331494808205175416e-74
1.443137025243771907e-74
1.522871114249656826e-74
1.553754649811907833e-74
1.521720658610599037e-74
1.408858229456093280e-74
1.233399066231683467e-74
1.023644906341888496e-74
8.378264994893873652e-75
7.121383792119462404e-75
6.129488409889943648e-75
4.684955662276776361e-75
3.253236880441854076e-75
2.638199376798930436e-75
1.817959030462142166e-75
1.367041703721984766e-75
9.366174141026019890e-76
6.686698866845713610e-76
4.774857469939555384e-76
3.428196626651384643e-76
2.488076156324059023e-76
1.834161040921199912e-76
1.378324564231109761e-76
1.053783484611249613e-76
8.161111480064451074e-77
6.365501722804949919e-77
4.964381462764490977e-77
3.844432478681564631e-77
2.937823535287591567e-77
2.204546895785432126e-77
