# bin_5_1
-2.284314176352382431e-09
-2.199634618129442804e-09
-2.005467406733870263e-09
-1.731457267099447521e-09
-1.432283960268740022e-09
-1.182253450130961086e-09
-1.007048808865283174e-09
-8.428420359624642693e-10
-6.323393490206685194e-10
-4.608748883962496132e-10
-3.612498385307011835e-10
-2.596969662334018428e-10
-1.935466685527950668e-10
-1.415741454993276968e-10
-1.054400406365900410e-10
-7.955177300486587231e-11
-6.111272649085868796e-11
-4.782855584740540861e-11
-3.799701745905222532e-11
-3.047689152710204272e-11
-2.449539713376439296e-11
-1.957982426629173787e-11
-1.545670216644866601e-11
-1.197660143222941850e-11
-9.064172232148822223e-12
-6.678623941710897731e-12
-4.785385411711755286e-12
-3.337030656325507034e-12
-2.270132868740486596e-12
-1.511300810550501396e-12
-9.879110048792833219e-13
