# bin_5_4
-3.478502656781107082e-10
-3.636688318178651630e-10
-3.673671768317646587e-10
-3.548491840552238850e-10
-3.239025414416917778e-10
-2.796721435806453036e-10
-2.305844018924760733e-10
-1.897504724347058800e-10
-1.624290841204561761e-10
-1.371968957088769307e-10
-1.017174414075025815e-10
-7.312031965902429227e-11
-5.867887542603516227e-11
-4.063465887388107162e-11
-3.076834942775995307e-11
-2.199754099762540737e-11
-1.605081006656261759e-11
-1.187179601477190091e-11
-8.906285409890830602e-12
-6.801454557246589735e-12
-5.281609960116329752e-12
-4.159905141614033478e-12
-3.301096306919240237e-12
-2.620518226146067231e-12
-2.066381810082221511e-12
-1.607707423529769210e-12
-1.227108768783590586e-12
-9.146219363108364899e-13
-6.636503454990681556e-13
-4.683429718521860928e-13
-3.217940394572189805e-13
