# bin_11_3
-1.831421978850424916e-09
-1.884865606560006068e-09
-1.868342347613366908e-09
-1.759046675004748860e-09
-1.565536840920062593e-09
-1.319617884451831778e-09
-1.080950141631764593e-09
-9.042117238799815842e-10
-7.783419359221592059e-10
-6.253887256920557536e-10
-4.442437356541836455e-10
-3.415182912626487689e-10
-2.580265814348619766e-10
-1.845816753461314670e-10
-1.354205956570331765e-10
-9.944815041170816796e-11
-7.312160495033774756e-11
-5.463332386666153143e-11
-4.156859651950807167e-11
-3.220238419515171586e-11
-2.533055346456153818e-11
-2.012673052701819600e-11
-1.603621691938422230e-11
-1.272001463016800019e-11
-9.975672689723236091e-12
-7.687236604248489215e-12
-5.791227893272405734e-12
-4.250289766586570626e-12
-3.033540485945944820e-12
-2.106916056866121943e-12
-1.427128429309362290e-12
