# bin_20_9
-6.801907230993611836e-10
-7.486717265774752963e-10
-8.056085202718997435e-10
-8.424403209489694304e-10
-8.507841625261074909e-10
-8.207551815320362061e-10
-7.475290656314768907e-10
-6.438326950034294387e-10
-5.297635522792425489e-10
-4.363399006975054558e-10
-3.750137530635941310e-10
-3.163857817942479091e-10
-2.313561028316298119e-10
-1.662534996613432604e-10
-1.339062007825081127e-10
-9.015481300398078059e-11
-6.829188456433361326e-11
-4.796172337269620391e-11
-3.393663668409877265e-11
-2.435856883132261055e-11
-1.762585523300021205e-11
-1.294436428434614171e-11
-9.667557400020922832e-12
-7.357596928684933637e-12
-5.682550543439829854e-12
-4.430253586909743706e-12
-3.464206705783267131e-12
-2.697144360082425770e-12
-2.077312202127829854e-12
-1.573860943800834106e-12
-1.167890025330666862e-12
