# bin_18_6
-1.161385161706062708e-09
-1.250140728165134660e-09
-1.308337322944652662e-09
-1.322808893030776450e-09
-1.278796289904380801e-09
-1.167780694572442303e-09
-1.008584345573057354e-09
-8.312996353104626399e-10
-6.838817610956680358e-10
-5.860291775288409944e-10
-4.957928454003732611e-10
-3.665467509434076972e-10
-2.624904933625447677e-10
-2.114193987212122944e-10
-1.446189227653538235e-10
-1.096105238626416078e-10
-7.755360489057327187e-11
-5.584024385860127742e-11
-4.073864598283504587e-11
-3.006128656880705494e-11
-2.255082978724393775e-11
-1.720806688575503546e-11
-1.335193960222345293e-11
-1.047522852430992452e-11
-8.255816289143324879e-12
-6.491592074825752259e-12
-5.057036060364736017e-12
-3.879469981694122901e-12
-2.915906416658108693e-12
-2.138909023452756709e-12
-1.527673821195705970e-12
