# bin_1_19
-2.683509756265506040e-94
-3.002127880221116933e-94
-3.295689478830752460e-94
-3.533523827249408097e-94
-3.676989451969081706e-94
-3.692111771683327405e-94
-3.530460584917401144e-94
-3.185921237798664187e-94
-2.717717729705923836e-94
-2.227686051963552927e-94
-1.845382295329293549e-94
-1.595565140602971693e-94
-1.324765747684952076e-94
-9.423210208012833128e-95
-6.968520610703618414e-95
-5.483449945108269535e-95
-3.685421060245804673e-95
-2.728869020568808904e-95
-1.927881866050650217e-95
-1.342523604723534999e-95
-9.425534605578419650e-96
-6.666151949748642911e-96
-4.782781755082849229e-96
-3.487919288926526654e-96
-2.594696833141207021e-96
-1.964759726847394274e-96
-1.509406785530258855e-96
-1.169812288258242217e-96
-9.080302016250801209e-97
-7.008661839559424053e-97
-5.344890055916358262e-97
