# bin_13_7
-6.689642573662535042e-10
-7.263700911256185193e-10
-7.685029386025137685e-10
-7.868213505260559479e-10
-7.743900400026943579e-10
-7.216189963920895562e-10
-6.356815895016685257e-10
-5.304280174758278245e-10
-4.339220886784508527e-10
-3.664803541716958585e-10
-3.159426021235535765e-10
-2.465908638830929674e-10
-1.718372859021969513e-10
-1.368853568290503634e-10
-9.812856705918581454e-11
-7.208183325387890989e-11
-5.058497206132653955e-11
-3.681873352745905951e-11
-2.658415692522979620e-11
-1.936661957159527723e-11
-1.433780946671741505e-11
-1.079476166555190477e-11
-8.274853591678588568e-12
-6.435170385582785328e-12
-5.047098580998494241e-12
-3.966202129508411632e-12
-3.100742447924627445e-12
-2.395848892334431138e-12
-1.819396580333310557e-12
-1.351831467240539721e-12
-9.795201407682095118e-13
