# bin_7_5
-4.649801644139930891e-10
-4.941930434455212943e-10
-5.089895059785329351e-10
-5.049536247961935705e-10
-4.755085871431568784e-10
-4.231263127776737049e-10
-3.562755129940422035e-10
-2.915106390042704465e-10
-2.439708966288249107e-10
-2.106275844578375432e-10
-1.691715929916349852e-10
-1.190205903281919062e-10
-9.204314225987821916e-11
-6.916750492018253110e-11
-4.928297323719338199e-11
-3.572165025353983048e-11
-2.615238608810967206e-11
-1.900174737337766334e-11
-1.398923046116241141e-11
-1.048163233009601435e-11
-7.996215558631640483e-12
-6.203645578939655670e-12
-4.875196069814490591e-12
-3.855012871626837628e-12
-3.046011124419686863e-12
-2.388217334598178289e-12
-1.846001927589430252e-12
-1.399100504131945532e-12
-1.035304615335543513e-12
-7.458322477348478331e-13
-5.227298797987344024e-13
