# bin_18_10
-4.889141514572653846e-10
-5.408877195149324562e-10
-5.856944445238426014e-10
-6.173308944099640384e-10
-6.290467898835775181e-10
-6.148767070532369753e-10
-5.680994106406119804e-10
-4.963306909120866225e-10
-4.115225582805389585e-10
-3.370993877196480564e-10
-2.869185612285374075e-10
-2.462998072069472157e-10
-1.872703621567292506e-10
-1.306432171235960248e-10
-1.058154958366838515e-10
-7.274502487452849952e-11
-5.469955773649421576e-11
-3.766908781813621376e-11
-2.685753770733419222e-11
-1.918643601300064390e-11
-1.378121771392117345e-11
-1.001734145290757361e-11
-7.393702727037679313e-12
-5.564257770514606958e-12
-4.258446631086138841e-12
-3.299227639945078155e-12
-2.572787456009285930e-12
-2.004815407755092190e-12
-1.550342451583110436e-12
-1.182497447578127048e-12
-8.853198094070969696e-13
