# bin_12_5
-1.088219841930734161e-09
-1.158119071471306074e-09
-1.194766531511456108e-09
-1.187725201842958107e-09
-1.121515650264801741e-09
-1.000575718231700883e-09
-8.445655035804055001e-10
-6.912853219720520735e-10
-5.773638316964436878e-10
-4.984294032591510871e-10
-4.028764970393455143e-10
-2.843989829073925899e-10
-2.181592488241983468e-10
-1.655050999050635449e-10
-1.170541313711069942e-10
-8.536328632054149586e-11
-6.233485031144866240e-11
-4.521367170725532526e-11
-3.324389070626340516e-11
-2.486517721711994234e-11
-1.893702492620392143e-11
-1.466834639498738701e-11
-1.151395236181517763e-11
-9.098670006696859938e-12
-7.188485974732666270e-12
-5.638548188195286709e-12
-4.362351951552202603e-12
-3.310665866612471499e-12
-2.453904862976776580e-12
-1.771101734164403459e-12
-1.243680713874364440e-12
