# bin_18_14
-1.731800703018814693e-10
-1.943805969098726823e-10
-2.142472194187636883e-10
-2.308558782370137961e-10
-2.417546842368007759e-10
-2.444946548354863964e-10
-2.362698456117008221e-10
-2.155057788521753674e-10
-1.858732716670628557e-10
-1.530067092597029469e-10
-1.259516617544740324e-10
-1.082790690100357676e-10
-9.160209309829949324e-11
-6.701870441965357234e-11
-4.785131806842432834e-11
-3.867836708228691597e-11
-2.569431063366308210e-11
-1.943796170593340761e-11
-1.344332599421895743e-11
-9.323263136636331546e-12
-6.547033032850038477e-12
-4.605767978836995730e-12
-3.273957191900593092e-12
-2.360302711474776981e-12
-1.735981566499305507e-12
-1.301058961198970022e-12
-9.913218388605658073e-13
-7.644040018789002113e-13
-5.924018141456613049e-13
-4.580623271457745638e-13
-3.509476596582367552e-13
