# bin_12_15
-3.431178393962734691e-14
-3.845205975230521519e-14
-4.230144627225347918e-14
-4.547336249916464497e-14
-4.747840327900452730e-14
-4.785564444193301759e-14
-4.601411141344212269e-14
-4.175137096989849852e-14
-3.581806426653942705e-14
-2.941572183989141125e-14
-2.428095271873623907e-14
-2.094081897383036100e-14
-1.756933274994770775e-14
-1.266916141032549417e-14
-9.190983402432633534e-15
-7.356122950757638155e-15
-4.894016677819943842e-15
-3.677957772962334336e-15
-2.569301993030307992e-15
-1.783717563877775318e-15
-1.252411289669215966e-15
-8.826582623267977454e-16
-6.301720054204061398e-16
-4.568508094681114916e-16
-3.379017286735037267e-16
-2.545546438499430726e-16
-1.947742830495033988e-16
-1.505974391104727905e-16
-1.168293252826185557e-16
-9.027648198179083913e-17
-6.902094695726136747e-17
