# bin_12_17
-1.870839136637554312e-17
-2.103641070947416665e-17
-2.323694442593285180e-17
-2.510562026568026952e-17
-2.637980480238480070e-17
-2.677946451087736065e-17
-2.602519761219755384e-17
-2.387896190756816382e-17
-2.071941468600669376e-17
-1.710294585754232776e-17
-1.403879748687836200e-17
-1.202370130988921056e-17
-1.026071576060059194e-17
-7.629653492461773748e-18
-5.359784378381779194e-18
-4.368686403887333710e-18
-2.906503946105775485e-18
-2.208765432864804669e-18
-1.510952459705635320e-18
-1.047652153322697923e-18
-7.357076794209136504e-19
-5.167508660370844228e-19
-3.655791952926547013e-19
-2.619238571746058350e-19
-1.914133226828145978e-19
-1.426028895043831457e-19
-1.081130679289997356e-19
-8.309042852714588197e-20
-6.430696445304710488e-20
-4.975423018145412668e-20
-3.820767238598615242e-20
