# bin_11_16
-9.982871011066336217e-18
-1.119382523754462288e-17
-1.232297589228946432e-17
-1.325838879829364937e-17
-1.385808544289041823e-17
-1.398543134309164819e-17
-1.347157851004907309e-17
-1.224581280234601890e-17
-1.052522060225848921e-17
-8.649944616316453807e-18
-7.132231136198625594e-18
-6.145191127043427994e-18
-5.172503763997160518e-18
-3.747517308865270624e-18
-2.702096305781238181e-18
-2.173286919891060302e-18
-1.442380336659761557e-18
-1.088313679095481866e-18
-7.575608717333481312e-19
-5.254799154859969147e-19
-3.689894705811893193e-19
-2.598091776244931860e-19
-1.851992525179951052e-19
-1.340018150285179153e-19
-9.892229231719753734e-20
-7.439302995268723178e-20
-5.684371086766995535e-20
-4.391407467269829940e-20
-3.405895282527772168e-20
-2.632669865975949170e-20
-2.014441165328569501e-20
