# bin_17_4
-1.770423829779033458e-09
-1.857715035957586444e-09
-1.884561559381993383e-09
-1.831412479797527353e-09
-1.682945241478426068e-09
-1.462803480685996751e-09
-1.210646326059647749e-09
-9.939704693988157355e-10
-8.470603847639650748e-10
-7.207521078466932608e-10
-5.438476303841358812e-10
-3.866631999632311220e-10
-3.101627024290685235e-10
-2.172683855644116544e-10
-1.633866268327498853e-10
-1.163770245052093648e-10
-8.509366075427759850e-11
-6.273873425169135092e-11
-4.688058337337293138e-11
-3.565814867369973783e-11
-2.758619787500602787e-11
-2.166272860437985119e-11
-1.715985753796932901e-11
-1.361509507032115505e-11
-1.074416852423646040e-11
-8.375571115017952184e-12
-6.411845180981083737e-12
-4.797271171314390643e-12
-3.496124612383936713e-12
-2.478295455072716056e-12
-1.710009768467784159e-12
