# bin_17_18
-4.443389777751941024e-12
-5.025812584716130361e-12
-5.590881417671347913e-12
-6.093175078724641704e-12
-6.472095559194548832e-12
-6.653504808808356968e-12
-6.582550021400522829e-12
-6.168507562444732120e-12
-5.461651719821013343e-12
-4.573005816477988029e-12
-3.738996042480361427e-12
-3.149158234817976396e-12
-2.726862008185765507e-12
-2.153022910453443400e-12
-1.485781938666080573e-12
-1.175826524944474757e-12
-8.464718855797659483e-13
-6.073194470890299189e-13
-4.135295016169678753e-13
-2.954470130774203941e-13
-2.043684505825604554e-13
-1.409417047891375487e-13
-9.806091979614709524e-14
-6.882736038649117094e-14
-4.909211677340548537e-14
-3.570068205777237884e-14
-2.647581875183397044e-14
-2.000399527331397795e-14
-1.532469695726470179e-14
-1.182563097103359973e-14
-9.122880132148657152e-15
