# bin_2_3
-1.576384955971193067e-11
-1.595400471317202929e-11
-1.545844047044311329e-11
-1.416196918214477861e-11
-1.227492311422778294e-11
-1.014215790523079946e-11
-8.332505309320049664e-12
-7.110746310760039375e-12
-6.032978392761181196e-12
-4.526403994227762096e-12
-3.234678124863649125e-12
-2.598563192670596562e-12
-1.819727987746927561e-12
-1.377770751663743468e-12
-9.897504413412730299e-13
-7.299538394712279741e-13
-5.452300110964072789e-13
-4.136538814567439373e-13
-3.196607008843321823e-13
-2.510656621743535026e-13
-1.996606188686329754e-13
-1.596160233845262681e-13
-1.273218537999513758e-13
-1.006190529867175938e-13
-7.826241435002373684e-14
-5.958291081012435755e-14
-4.421454648725902588e-14
-3.190930319510402538e-14
-2.239433459144473913e-14
-1.531307048896979269e-14
-1.023353166715071739e-14
