# bin_16_19
-6.717471226237673033e-14
-7.602107639306073395e-14
-8.462452057905006026e-14
-9.230244751159740361e-14
-9.814193414792408342e-14
-1.010186704817530330e-13
-1.001034478467483785e-13
-9.399798057016909956e-14
-8.338446928822708440e-14
-6.993285006484665371e-14
-5.717798189670868567e-14
-4.807726702505705131e-14
-4.164892107913052672e-14
-3.307300428872234039e-14
-2.284001586150342441e-14
-1.797170162839976354e-14
-1.306078830210280349e-14
-9.290221577564775570e-15
-6.358480476592620085e-15
-4.548384707286069900e-15
-3.140998492040633511e-15
-2.161257965910488180e-15
-1.501090173504585245e-15
-1.051593126201644034e-15
-7.482196745059539841e-16
-5.427291938653224839e-16
-4.014974430902402573e-16
-3.027219321760842594e-16
-2.315757678647904151e-16
-1.785825238267932908e-16
-1.377858801062629598e-16
