# bin_16_2
-2.840770014091811593e-09
-2.851489463397495181e-09
-2.732157407010437377e-09
-2.475594931933354738e-09
-2.123273460088052090e-09
-1.748513864555480113e-09
-1.445911017082203540e-09
-1.238258535469649175e-09
-1.030247088061243221e-09
-7.576320536565674392e-10
-5.563906956558876099e-10
-4.375849807112380230e-10
-3.090656835952186132e-10
-2.316737712826523963e-10
-1.684408165400407293e-10
-1.244705331828396682e-10
-9.334046621894460923e-11
-7.120492113603117092e-11
-5.532597691259872200e-11
-4.365539388715240649e-11
-3.481602947751416895e-11
-2.785720246854176748e-11
-2.219663649968042255e-11
-1.749025081862764067e-11
-1.354319383356035520e-11
-1.025222613482461802e-11
-7.559915242039265934e-12
-5.421160828735721692e-12
-3.782337220078459361e-12
-2.573193652543105352e-12
-1.712410570053011510e-12
