# bin_8_11
-1.289338832241860943e-14
-1.422358248571268162e-14
-1.534803948216316873e-14
-1.610628692782774668e-14
-1.633010373370109256e-14
-1.584553666985806550e-14
-1.451834161171963283e-14
-1.258037514369613402e-14
-1.037825271100096320e-14
-8.521679997023960762e-15
-7.298663953949736855e-15
-6.215274200201320213e-15
-4.615461425684574283e-15
-3.260959630855598645e-15
-2.653314476275076606e-15
-1.783957324788068958e-15
-1.359909890998067866e-15
-9.448892099409768363e-16
-6.681903788361406998e-16
-4.793687478287167281e-16
-3.460568100274994733e-16
-2.530503945758522379e-16
-1.880582254372025077e-16
-1.424866101429937526e-16
-1.096619183438844498e-16
-8.530134070695994213e-17
-6.664958902500881439e-17
-5.192759721798403352e-17
-4.007320191522873834e-17
-3.045324191199539710e-17
-2.268636122405388464e-17
