# bin_1_17
-4.089266851604271086e-83
-4.549206355446163646e-83
-4.959818376011885443e-83
-5.272343738444845971e-83
-5.426736263732756773e-83
-5.378405665730770164e-83
-5.052655356000191319e-83
-4.484383721007423597e-83
-3.762984323412223501e-83
-3.076112554170180258e-83
-2.583514068258744752e-83
-2.237231692364719001e-83
-1.781598368454050919e-83
-1.233863284637393740e-83
-9.686355095762113670e-84
-7.104451869564287532e-84
-5.066038936780941764e-84
-3.526822646678123039e-84
-2.556216266660038002e-84
-1.802508163527720983e-84
-1.275036524241068075e-84
-9.154129491336351914e-85
-6.667515955149934380e-85
-4.946633697519811327e-85
-3.739137897100619129e-85
-2.869668961737388472e-85
-2.225680878203509036e-85
-1.732605591027472001e-85
-1.344008558482134327e-85
-1.031928596702513215e-85
-7.799199454600916080e-86
