# bin_15_4
-1.662942763733173782e-09
-1.744823391716786875e-09
-1.769908028056972650e-09
-1.719812111864678896e-09
-1.580208027152879464e-09
-1.373348012786928074e-09
-1.136534702802932372e-09
-9.331576417581659233e-10
-7.952979954359092892e-10
-6.766265593832092077e-10
-5.103987058030047456e-10
-3.629447886693749603e-10
-2.911445194793354680e-10
-2.039026536004968983e-10
-1.533562190124582666e-10
-1.092378008046582540e-10
-7.987081873648962718e-11
-5.889130908513318554e-11
-4.400868284256347734e-11
-3.347605223188326249e-11
-2.589974668589505018e-11
-2.033946363962971091e-11
-1.611215838060495579e-11
-1.278394468653631806e-11
-1.008815226342324835e-11
-7.863916574997638739e-12
-6.019846375341237013e-12
-4.503688470496034377e-12
-3.281923799757367072e-12
-2.326276626196266875e-12
-1.605001417158626214e-12
