# bin_9_2
-2.232343895306672505e-09
-2.239618982492670076e-09
-2.144387622724047641e-09
-1.941614948211571207e-09
-1.664131288131319462e-09
-1.370039797171119951e-09
-1.133366705680530475e-09
-9.708623830258638514e-10
-8.068271763303217230e-10
-5.924730363599129457e-10
-4.357778721159278435e-10
-3.424010649071857494e-10
-2.418457887216106743e-10
-1.812554431894023518e-10
-1.318540847680969830e-10
-9.744325383273615034e-11
-7.309636357486033269e-11
-5.578379440193784492e-11
-4.336020158222704820e-11
-3.422458547170400584e-11
-2.730035377776166551e-11
-2.184528877795901186e-11
-1.740532237615556137e-11
-1.371236493732821378e-11
-1.061480480183657432e-11
-8.032416949200746098e-12
-5.920516009979984591e-12
-4.243680726778999696e-12
-2.959576029952979717e-12
-2.012710437932534745e-12
-1.339004196182275363e-12
