# bin_3_17
-3.031509077729752542e-63
-3.376891082619693742e-63
-3.687604092613296548e-63
-3.927816574877601432e-63
-4.052981059898069913e-63
-4.029535309790190619e-63
-3.800882447479131979e-63
-3.386211990739246366e-63
-2.851418332368884888e-63
-2.331490156733362858e-63
-1.951654592894940839e-63
-1.690762317111013955e-63
-1.360992812775104782e-63
-9.457945668973601889e-64
-7.329871184917834024e-64
-5.472291883936639314e-64
-3.839123253247903238e-64
-2.707316860260307502e-64
-1.958418043474894361e-64
-1.376532230873185913e-64
-9.704542515352266637e-65
-6.943219194072786706e-65
-5.040415172310004927e-65
-3.725362420847569629e-65
-2.806367790504851328e-65
-2.147833799697841880e-65
-1.662789505254786270e-65
-1.293527552175911262e-65
-1.003824482631753855e-65
-7.718066494409963452e-66
-5.845865439128158542e-66
