# bin_17_16
-4.418465402248753931e-11
-4.981626515023263139e-11
-5.520392705303622232e-11
-5.987913709845085913e-11
-6.322918195589598720e-11
-6.454719163564424036e-11
-6.324754171961869565e-11
-5.858017282912262778e-11
-5.130111761417165129e-11
-4.258720209175197100e-11
-3.486724642041366563e-11
-2.965103428058000448e-11
-2.552991456937149277e-11
-1.949594106258937391e-11
-1.351227524713829470e-11
-1.094724829565381823e-11
-7.488451855717840265e-12
-5.600951101277572488e-12
-3.783410569138200604e-12
-2.655172089354976230e-12
-1.855638585307414352e-12
-1.296447068325699480e-12
-9.104581018466175619e-13
-6.461511523034558554e-13
-4.672196585282256554e-13
-3.445090263473612548e-13
-2.588162550600414286e-13
-1.975871628713408317e-13
-1.523688559580300149e-13
-1.178468865920842002e-13
-9.073848659982839555e-14
