# bin_16_13
-1.552977314275571587e-10
-1.737630586409723020e-10
-1.907904851180124201e-10
-2.046073683754890595e-10
-2.129787734089912146e-10
-2.139268637853567937e-10
-2.046740738260759854e-10
-1.848170388135606418e-10
-1.577640423721439308e-10
-1.293670944297231758e-10
-1.071381321584595378e-10
-9.257956548782276696e-11
-7.692913785766742576e-11
-5.484880255166013065e-11
-4.047057296625374338e-11
-3.188099803081676076e-11
-2.143130589966238909e-11
-1.587818895740075345e-11
-1.120150103981515259e-11
-7.798729375773876611e-12
-5.476503140538788267e-12
-3.872671233394955261e-12
-2.776917026663379175e-12
-2.023587134744283965e-12
-1.504239354551094101e-12
-1.138254190533936035e-12
-8.739427213191112691e-13
-6.770466712522144094e-13
-5.254337805134910603e-13
-4.055631521920445685e-13
-3.093487510291775476e-13
