# bin_13_12
-7.261751911261911485e-11
-8.091508255968738038e-11
-8.839284041856634294e-11
-9.419466683602359200e-11
-9.725647341785298285e-11
-9.676208411520437609e-11
-9.136476213167717978e-11
-8.147615392488950815e-11
-6.868033337097929311e-11
-5.617050525943884570e-11
-4.698051674860532014e-11
-4.069071300811323474e-11
-3.283120807383347976e-11
-2.286842670041017560e-11
-1.765038704372429761e-11
-1.323278491373960658e-11
-9.251484345532031745e-12
-6.555980040197190531e-12
-4.728840340000662378e-12
-3.321424042362926266e-12
-2.341323695942684022e-12
-1.673434443186836223e-12
-1.213684555210798354e-12
-8.960908467923222837e-13
-6.743778720828985825e-13
-5.157021025693473973e-13
-3.989994465433596443e-13
-3.102957744230837654e-13
-2.407981932075143265e-13
-1.851908256235095638e-13
-1.403376553219343729e-13
