# bin_1_6
-1.039088988781034699e-22
-1.083457302166162136e-22
-1.091154688729919544e-22
-1.049142119589128249e-22
-9.526286710048144413e-23
-8.181680829796917035e-23
-6.724155189546504010e-23
-5.542989529316368218e-23
-4.764196147221037956e-23
-4.001919278407624593e-23
-2.920575587853064962e-23
-2.121220844214898973e-23
-1.703635589810286430e-23
-1.166769685342461057e-23
-8.888217918370759028e-24
-6.390809330211437184e-24
-4.649156954377177564e-24
-3.445708469622251999e-24
-2.591751327858015612e-24
-1.985316806050230402e-24
-1.546274182611600766e-24
-1.220735100733420842e-24
-9.700823834336086942e-25
-7.704118286061031754e-25
-6.071620214040260014e-25
-4.716858750240312115e-25
-3.591877156081563182e-25
-2.669141594599700484e-25
-1.929937448359272944e-25
-1.357026406230887423e-25
-9.291795040459808411e-26
