# bin_14_13
-6.339024655266588886e-11
-7.087830922207200750e-11
-7.775766700879674481e-11
-8.330061974783657049e-11
-8.659137444625211428e-11
-8.684195617984820561e-11
-8.290035753632329294e-11
-7.469383925745531494e-11
-6.361588792979734975e-11
-5.212896869992273720e-11
-4.323698678714832393e-11
-3.739432426813754383e-11
-3.093582732582641759e-11
-2.194127925558637796e-11
-1.631632269853582734e-11
-1.276028851059487652e-11
-8.618462440368565234e-12
-6.343709671971028631e-12
-4.495703120491805183e-12
-3.134034554940526370e-12
-2.201016615009854507e-12
-1.558816474184223212e-12
-1.119977461409745447e-12
-8.180665634170003926e-13
-6.094919949772928840e-13
-4.621222999424902162e-13
-3.553583566373281525e-13
-2.755368656605394468e-13
-2.138712621133986556e-13
-1.649981643934495449e-13
-1.257236354189769278e-13
