# bin_8_6
-3.686518291669026141e-10
-3.963067281311139408e-10
-4.140710189112977505e-10
-4.178631638758859785e-10
-4.028500444456010164e-10
-3.667987522834291647e-10
-3.158608851700876134e-10
-2.599642161395327585e-10
-2.141434632904667845e-10
-1.838361167481721095e-10
-1.549065310592677289e-10
-1.136433542981515184e-10
-8.194037231413292548e-11
-6.582972356651977664e-11
-4.492567446820898138e-11
-3.405097909570116281e-11
-2.418652924858576420e-11
-1.740090067481237529e-11
-1.270686406908727317e-11
-9.391005903326119137e-12
-7.058188596415495046e-12
-5.396545890988078987e-12
-4.194136093072117113e-12
-3.294208049562206624e-12
-2.597660256730683223e-12
-2.042390919415547652e-12
-1.589992796751071615e-12
-1.218318513997648417e-12
-9.142447531413060879e-13
-6.693132087888056527e-13
-4.770188741257977016e-13
