# bin_1_1
-2.878465101736125006e-10
-2.718159464416419885e-10
-2.428289338757329620e-10
-2.056618248159655525e-10
-1.688602013198538943e-10
-1.408123469518708779e-10
-1.207181615366488182e-10
-9.784132631463594126e-11
-7.066785850452306367e-11
-5.349294131912932958e-11
-4.103754173092639672e-11
-2.942865332547310785e-11
-2.194978467903971592e-11
-1.621991849952107672e-11
-1.213320700180604470e-11
-9.245331259624168941e-12
-7.179908332395645042e-12
-5.674251441901047974e-12
-4.541956039257666612e-12
-3.658140561886709313e-12
-2.941586710201357479e-12
-2.344194603971599629e-12
-1.839069547603939585e-12
-1.412321840565587325e-12
-1.057239452997223652e-12
-7.697510596305003921e-13
-5.449990645749016501e-13
-3.758878620410823820e-13
-2.532590978127010169e-13
-1.672472106874516915e-13
-1.086102441654163797e-13
