# bin_17_14
-1.384483218150827642e-10
-1.552535424007466176e-10
-1.709357043354037551e-10
-1.839447461661467222e-10
-1.923124641504985397e-10
-1.941343218399614958e-10
-1.870920709723833445e-10
-1.701679682685126322e-10
-1.463453238098866558e-10
-1.203179880517362243e-10
-9.919055857352488389e-11
-8.541791228591590672e-11
-7.194022183567415878e-11
-5.222907362001756905e-11
-3.760765738843044271e-11
-3.023978216602410632e-11
-2.010307393144102292e-11
-1.515516877701091447e-11
-1.053797428474902087e-11
-7.311735658414908792e-12
-5.134415171385586137e-12
-3.615732721238142054e-12
-2.575949257958768868e-12
-1.863013035213602803e-12
-1.374206598377690725e-12
-1.032747470977688034e-12
-7.886657311868679747e-13
-6.089901063782634556e-13
-4.721823896313048405e-13
-3.649450462755253810e-13
-2.792611084154324704e-13
