# bin_17_16
-4.487166440910906839e-11
-5.055108887652561043e-11
-5.596780139407396730e-11
-6.064217653010568712e-11
-6.394993280635743505e-11
-6.518387103225528112e-11
-6.373260185212846207e-11
-5.887939153360689633e-11
-5.143665805357147543e-11
-4.262995724937113459e-11
-3.492184307160912729e-11
-2.975710383849027564e-11
-2.557010788285601899e-11
-1.938618506524796326e-11
-1.347291962725300663e-11
-1.094650327107934013e-11
-7.419884713675062949e-12
-5.583526189586581229e-12
-3.780352137175271595e-12
-2.641962356416222641e-12
-1.849770239332793372e-12
-1.294965589870097185e-12
-9.110792361141531485e-13
-6.483652371666941458e-13
-4.701321857602457938e-13
-3.476199761721615001e-13
-2.618224431419601367e-13
-2.002604815296106720e-13
-1.545929380703565874e-13
-1.195855997222421590e-13
-9.201360429944266201e-14
