# bin_15_6
-1.021512352536541331e-09
-1.098530141163053923e-09
-1.148314951751702665e-09
-1.159473172717639022e-09
-1.118744420163221190e-09
-1.019553801804555543e-09
-8.787703235436589441e-10
-7.236036532977105966e-10
-5.958385023207421861e-10
-5.112045842834271937e-10
-4.312683775076636324e-10
-3.171795554564605106e-10
-2.282401524998939521e-10
-1.834648806698526227e-10
-1.253468025167809723e-10
-9.497955566194700670e-11
-6.739041210519302839e-11
-4.850489438061459123e-11
-3.541203853342162617e-11
-2.616092709879781458e-11
-1.965112729877486085e-11
-1.501877637118859960e-11
-1.166633589521718657e-11
-9.159930108485712067e-12
-7.221822432622514384e-12
-5.677867006400533550e-12
-4.420653363510764295e-12
-3.388071516925766240e-12
-2.543313304644125054e-12
-1.862729754351427978e-12
-1.328188272624528356e-12
