# bin_9_6
-5.088091149431015656e-10
-5.467853921430914494e-10
-5.710554239516816259e-10
-5.760177009807313213e-10
-5.549593701318808175e-10
-5.049644760822373716e-10
-4.345505839041264994e-10
-3.575592853835580908e-10
-2.946457703897496033e-10
-2.530266785094934836e-10
-2.129775975322321752e-10
-1.560038546493222206e-10
-1.126964090021178383e-10
-9.042514230806496762e-11
-6.173807300437590560e-11
-4.675788011293820614e-11
-3.324978818725798908e-11
-2.392545481892598768e-11
-1.747523009421696395e-11
-1.292045046902996914e-11
-9.715263740143053377e-12
-7.432838973303921363e-12
-5.778695720180141315e-12
-4.539863631840962265e-12
-3.580264581526143779e-12
-2.814669704833625860e-12
-2.190624918198063354e-12
-1.677858842558397477e-12
-1.258415855242882598e-12
-9.206958275688214263e-13
-6.557343173214356994e-13
