# bin_7_11
-9.651842123587677846e-17
-1.061494756192806894e-16
-1.141106327413910711e-16
-1.191831445562762886e-16
-1.202005585231668764e-16
-1.157160939949504551e-16
-1.051454758056709828e-16
-9.034245301225335605e-17
-7.423696945739066941e-17
-6.119915203044037561e-17
-5.269197408135298809e-17
-4.433014605584179662e-17
-3.218249092012357100e-17
-2.325629740013681198e-17
-1.871826911947491746e-17
-1.255295502809588335e-17
-9.522285773090987334e-18
-6.715807470843319917e-18
-4.747509564333241117e-18
-3.409347552626377730e-18
-2.468922634701392484e-18
-1.816386943289668142e-18
-1.359747853086347414e-18
-1.036844245244692258e-18
-8.020822873718979363e-19
-6.260208693564883118e-19
-4.897402512129005824e-19
-3.812376651079089388e-19
-2.934131354787418336e-19
-2.220351400632982111e-19
-1.644958602632387894e-19
