# bin_6_2
-1.685924403460460939e-09
-1.688792336939317581e-09
-1.613562293670428085e-09
-1.457802332413356212e-09
-1.246836747000063251e-09
-1.025653143839960171e-09
-8.494499438987018252e-10
-7.282462065591027882e-10
-6.030690413239522332e-10
-4.409079495345243229e-10
-3.258445388181675025e-10
-2.552855282511209267e-10
-1.803447927435246268e-10
-1.350968469873397420e-10
-9.844381471218742695e-11
-7.277844244694516104e-11
-5.465291564534705215e-11
-4.176262188535145642e-11
-3.250108722941452804e-11
-2.568124381778985951e-11
-2.049828915228507009e-11
-1.640600874371077412e-11
-1.306902673109197945e-11
-1.028988951054660290e-11
-7.957796861797306924e-12
-6.014298582751665743e-12
-4.426680524212790806e-12
-3.168221423642058240e-12
-2.206425996762088364e-12
-1.498628045973812401e-12
-9.959319578170105653e-13
