# bin_14_1
-3.567433419573454690e-09
-3.439042307882116433e-09
-3.139225856273746853e-09
-2.713383792395799315e-09
-2.245756209553393792e-09
-1.852811225811974254e-09
-1.577431432749090058e-09
-1.322314326217136187e-09
-9.944472089813161089e-10
-7.235273433362621078e-10
-5.674253085207395392e-10
-4.082787061001946562e-10
-3.041164699613055477e-10
-2.224000103533347950e-10
-1.656063992350613165e-10
-1.248799652377281265e-10
-9.587972804029797186e-11
-7.499721538798812376e-11
-5.955840297463443024e-11
-4.775790553363034071e-11
-3.838173620881291939e-11
-3.068325703576706729e-11
-2.422873547452836592e-11
-1.878143922607129739e-11
-1.422166251592839550e-11
-1.048475738069116533e-11
-7.516883604577875432e-12
-5.244568870040315009e-12
-3.569427331114090694e-12
-2.377171454689734094e-12
-1.554376321318531291e-12
