# bin_4_11
-1.029781343539121593e-27
-1.124318615769478222e-27
-1.197732988702317855e-27
-1.236559401690145304e-27
-1.230455764186391907e-27
-1.162332842286784792e-27
-1.037047795390359513e-27
-8.746369415859849958e-28
-7.152014424132774024e-28
-5.975000761154443747e-28
-5.172619129204979520e-28
-4.184557270837448590e-28
-2.924141445424735213e-28
-2.252877175173378762e-28
-1.703100547765589534e-28
-1.195041754274492213e-28
-8.589010018602510312e-29
-6.263515003322940033e-29
-4.476594426551297118e-29
-3.227102027973752601e-29
-2.366520917049226502e-29
-1.765742393336621426e-29
-1.341426531823096537e-29
-1.035774988210425505e-29
-8.086631097778755330e-30
-6.343953663458598346e-30
-4.965714739132256809e-30
-3.851486053802772843e-30
-2.942544566577305481e-30
-2.203697456449626549e-30
-1.611622746632546663e-30
