# bin_6_6
-7.306455864774510308e-11
-7.821492449709264420e-11
-8.128618725515863336e-11
-8.153273075097983068e-11
-7.791293625725103220e-11
-7.030351267942939539e-11
-5.998715887931949191e-11
-4.919242883738911294e-11
-4.072842516092241753e-11
-3.512475899992617221e-11
-2.915287560645870050e-11
-2.091632092940310381e-11
-1.548170885709167508e-11
-1.222430589635120948e-11
-8.382922290401853084e-12
-6.286142769949474789e-12
-4.531714513288496250e-12
-3.263775659414127573e-12
-2.388282759859770324e-12
-1.773353133545886543e-12
-1.340791881738294107e-12
-1.031503692291245693e-12
-8.055245835330969515e-13
-6.346921665510838607e-13
-5.011439787453017493e-13
-3.937618600390782999e-13
-3.057896993055100640e-13
-2.333636697930330245e-13
-1.741809797940668093e-13
-1.267024221152330003e-13
-8.968199427471618766e-14
