# bin_8_12
-1.729631698077296007e-16
-1.912053263520252379e-16
-2.068585519046639431e-16
-2.177917634870439289e-16
-2.216352703787515483e-16
-2.162491869805525592e-16
-1.993447127867358673e-16
-1.737841636906282087e-16
-1.438429832811097717e-16
-1.178575256002957193e-16
-1.005089518139949917e-16
-8.618762246892473309e-17
-6.508771069269520530e-17
-4.544728108114511245e-17
-3.699850735408150272e-17
-2.515830268070037313e-17
-1.908669298316320058e-17
-1.314064187570290221e-17
-9.331793852867818989e-18
-6.682996372229211417e-18
-4.813157717440839411e-18
-3.504902341321127405e-18
-2.592798843229178393e-18
-1.955375436387595540e-18
-1.499227753553442066e-18
-1.163174916754465528e-18
-9.077753275930928436e-19
-7.074646015872143505e-19
-5.468316720775019704e-19
-4.166713860230446074e-19
-3.115102125864186735e-19
