# bin_19_11
-4.297554265848522686e-10
-4.771616927126976826e-10
-5.190085913165272987e-10
-5.501176553577520537e-10
-5.642661955636138448e-10
-5.566625251255052165e-10
-5.199931834746997357e-10
-4.590860593325150203e-10
-3.835727232685925774e-10
-3.136691997254614087e-10
-2.646574862255422226e-10
-2.287190991069181507e-10
-1.793163304021567787e-10
-1.242217091874227476e-10
-9.882539319723899981e-11
-7.076488106860207208e-11
-5.153700980103330673e-11
-3.559386910201049879e-11
-2.567240002990546412e-11
-1.819206524206842576e-11
-1.294554132356515844e-11
-9.334752471824840762e-12
-6.831327719000499844e-12
-5.094012839788465082e-12
-3.867683181987301010e-12
-2.978813779648643632e-12
-2.315213888167798912e-12
-1.803220316262609784e-12
-1.397419960061243651e-12
-1.070509803058418864e-12
-8.064202830300315603e-13
