# bin_12_4
-1.452926108557228585e-09
-1.522912259305061996e-09
-1.543008460041401832e-09
-1.496876803375058942e-09
-1.372877086271706295e-09
-1.191031274683211916e-09
-9.846328438718678137e-10
-8.089150745192633241e-10
-6.902446210174724693e-10
-5.861334655715605548e-10
-4.400712004704538358e-10
-3.138096973245050218e-10
-2.518118005919939707e-10
-1.757940500293719619e-10
-1.324872215640883656e-10
-9.445485742754433910e-11
-6.903140706202519238e-11
-5.094807800686581678e-11
-3.811728152115546504e-11
-2.902713795236499931e-11
-2.248439179910330866e-11
-1.767193030807051202e-11
-1.400589671930284932e-11
-1.111435141021130454e-11
-8.768438574062090409e-12
-6.831015826291915279e-12
-5.224368844826138775e-12
-3.903989830293895445e-12
-2.841097544813312078e-12
-2.011032152869766410e-12
-1.385680839816031688e-12
