# bin_6_14
-3.325916926698545386e-29
-3.683965290686873923e-29
-3.995251016257089780e-29
-4.219177528311590315e-29
-4.308551767210716854e-29
-4.225020040615471077e-29
-3.917493390783658617e-29
-3.434521221802054108e-29
-2.853270459206194692e-29
-2.334657715407706623e-29
-1.982047585219600077e-29
-1.707783628171818458e-29
-1.310856009427144512e-29
-9.090659420961281300e-30
-7.357374105072169247e-30
-5.098966653965956532e-30
-3.819148489997299212e-30
-2.614898251199501846e-30
-1.871595398509635660e-30
-1.335200144334669742e-30
-9.576215040508728228e-31
-6.944803253553003483e-31
-5.113321896566071751e-31
-3.837981838787284704e-31
-2.930858173786050489e-31
-2.267297591439339134e-31
-1.766841274437347501e-31
-1.376983902036482227e-31
-1.065788299963709080e-31
-8.141383563598921388e-32
-6.107556978190859716e-32
