# bin_9_11
-4.958228932001425486e-13
-5.476368408468527996e-13
-5.918312554698112956e-13
-6.222717000798184912e-13
-6.322934211739610796e-13
-6.155417103916775710e-13
-5.660112536422980199e-13
-4.922197416948684053e-13
-4.068458332118225471e-13
-3.336243748387784367e-13
-2.850253146870421826e-13
-2.437524415917070509e-13
-1.828180067730737316e-13
-1.282264258167415024e-13
-1.044161175076033759e-13
-7.063226287536535455e-14
-5.372528091503400013e-14
-3.711978526870236769e-14
-2.630874014937532786e-14
-1.885862577226194909e-14
-1.359788728264095511e-14
-9.919177582311969905e-15
-7.352832637781804708e-15
-5.556105996181705948e-15
-4.266924202649538795e-15
-3.314250892070134312e-15
-2.587881460702158279e-15
-2.016618226545567390e-15
-1.557691962512867620e-15
-1.185571772765067846e-15
-8.850048489340949888e-16
