# bin_7_6
-2.125957984465117188e-10
-2.280881294974746502e-10
-2.377159123621701742e-10
-2.392115659229602037e-10
-2.296657826863335986e-10
-2.082174082986026715e-10
-1.785228519440520749e-10
-1.466549602055702273e-10
-1.210747219031618110e-10
-1.041867690291222314e-10
-8.720786316643815092e-11
-6.328390567946268486e-11
-4.616170131510332464e-11
-3.684635905080735815e-11
-2.514793466677370752e-11
-1.900158511379689079e-11
-1.358844773780230970e-11
-9.775036144064529686e-12
-7.146352229375742032e-12
-5.293412675158587738e-12
-3.989751700074481203e-12
-3.059847745372145451e-12
-2.383615834671926754e-12
-1.875115982981724921e-12
-1.479646838839162652e-12
-1.163038540525527821e-12
-9.043722085565442403e-13
-6.916293343185653925e-13
-5.176659471742002116e-13
-3.778030724973747237e-13
-2.683558372290564954e-13
