# bin_17_7
-9.002021402244367166e-10
-9.767900655093594938e-10
-1.032606033730622520e-09
-1.056209600609197110e-09
-1.038185845531515975e-09
-9.659333530067984514e-10
-8.496471152828311749e-10
-7.081499550587727191e-10
-5.793994229322980783e-10
-4.899530274126644532e-10
-4.220758396253069127e-10
-3.280475306888339085e-10
-2.286907406425976643e-10
-1.827394575788607055e-10
-1.302590252495448009e-10
-9.613576545581912536e-11
-6.736609911105544597e-11
-4.900150150752008921e-11
-3.542243425770531684e-11
-2.583779835680715227e-11
-1.914924753397711089e-11
-1.443474217931312852e-11
-1.107657095898131552e-11
-8.620433463750725594e-12
-6.764271211137430076e-12
-5.316184199820788648e-12
-4.155041671545994051e-12
-3.208604564069114859e-12
-2.434492540444648991e-12
-1.806857355895629773e-12
-1.307557736689809347e-12
