# bin_6_9
-7.017444693700412241e-15
-7.640470074494126448e-15
-8.111342006729385265e-15
-8.338489907369317254e-15
-8.252429210982640658e-15
-7.741492694472427778e-15
-6.862422665027699575e-15
-5.753758377983342704e-15
-4.703488221804509617e-15
-3.951559472772693001e-15
-3.417753189904641496e-15
-2.715600783324649599e-15
-1.888203316450002853e-15
-1.485047325634736052e-15
-1.090997316994270018e-15
-7.853596493902627524e-16
-5.541977143888211683e-16
-4.052204084345500359e-16
-2.911823091140538437e-16
-2.110019424033062594e-16
-1.555302476644068609e-16
-1.166052848370218265e-16
-8.901197826132214545e-17
-6.899642079709016974e-17
-5.400664978674784845e-17
-4.241412210212862133e-17
-3.318395177425250399e-17
-2.569051170761160601e-17
-1.956780254044895184e-17
-1.459519029603339081e-17
-1.062244105987268285e-17
