# bin_14_6
-9.608487237117789540e-10
-1.033247064285407540e-09
-1.080012920621325195e-09
-1.090438010553720737e-09
-1.052036659484170200e-09
-9.586669117436165430e-10
-8.262096305107691282e-10
-6.802927626927454766e-10
-5.602009527362813944e-10
-4.806566215745908330e-10
-4.054399052996118372e-10
-2.981089920793758428e-10
-2.145688394393001369e-10
-1.724562843073929740e-10
-1.178205130481859773e-10
-8.927389518684221122e-11
-6.335084144576195217e-11
-4.559661711503260367e-11
-3.328972836910126320e-11
-2.459429455959873470e-11
-1.847550182791419368e-11
-1.412119781074116522e-11
-1.096970242313471154e-11
-8.613277783756578551e-12
-6.790948591769655351e-12
-5.339089805531226609e-12
-4.156793501054505539e-12
-3.185716899344621033e-12
-2.391282508180767502e-12
-1.751266996536032908e-12
-1.248622560816233322e-12
