# bin_3_17
-3.064886873040169073e-63
-3.411270114060518137e-63
-3.721533748324168931e-63
-3.959261879079002510e-63
-4.079403745824499815e-63
-4.048420591474757747e-63
-3.809659161820888143e-63
-3.386546111370654702e-63
-2.845806048222142129e-63
-2.326487928667456169e-63
-1.951243280420409589e-63
-1.690127186044731725e-63
-1.352097374470662145e-63
-9.374423198993865599e-64
-7.321498710248954270e-64
-5.410358878644118738e-64
-3.831515193630507470e-64
-2.680643739679350646e-64
-1.942470632998022729e-64
-1.367917516899846576e-64
-9.661825413519652982e-65
-6.927147269510811860e-65
-5.039232757381612884e-65
-3.733067977703260097e-65
-2.817755544879677161e-65
-2.160192140777635220e-65
-1.674196324881527108e-65
-1.302903797213471744e-65
-1.010815402403022771e-65
-7.764950306251224051e-66
-5.873341598745251125e-66
