# bin_4_3
-4.635164494865999340e-10
-4.746126424521697417e-10
-4.673781645872346899e-10
-4.363638435056659076e-10
-3.852300669312307796e-10
-3.224209971875342366e-10
-2.639799614433421569e-10
-2.221928529546950816e-10
-1.910103671529606426e-10
-1.504699285847409370e-10
-1.062049334512932018e-10
-8.334987260334385101e-11
-6.135544828258775246e-11
-4.475561468979029151e-11
-3.242028701923777875e-11
-2.394010288642077830e-11
-1.768919607328301008e-11
-1.327383465599492531e-11
-1.014978756615147241e-11
-7.899239277610728385e-12
-6.237587649978455477e-12
-4.967679726361445519e-12
-3.961152812509084797e-12
-3.139510238067959611e-12
-2.456517226970615770e-12
-1.886203197029431256e-12
-1.414383042307958446e-12
-1.032522968835420155e-12
-7.328883297332220402e-13
-5.063709071577436929e-13
-3.414210083277089189e-13
