# bin_8_7
-1.715446176161651896e-10
-1.857612741399990380e-10
-1.958775765687269926e-10
-1.997512905016622585e-10
-1.955262072412829336e-10
-1.810060457849025731e-10
-1.584512165862397381e-10
-1.315808164628391977e-10
-1.077256965680571053e-10
-9.146108252998593183e-11
-7.857687821256682764e-11
-6.022946713411406682e-11
-4.207634767906139623e-11
-3.393649705846559273e-11
-2.374855639087303359e-11
-1.779132883274863177e-11
-1.242151235995592303e-11
-9.007942612823095595e-12
-6.535453665446815261e-12
-4.785861775343619410e-12
-3.559114181228400366e-12
-2.692004629077759782e-12
-2.072388325659090141e-12
-1.616818827647519686e-12
-1.270573226317830337e-12
-9.989900803036593489e-13
-7.802905608324188513e-13
-6.016049542596034312e-13
-4.553686663382467265e-13
-3.369293295555212996e-13
-2.429554049180490597e-13
