# bin_13_12
-7.348205186969352385e-11
-8.181134506427316861e-11
-8.928547113755213446e-11
-9.503350723218322174e-11
-9.797805653882080737e-11
-9.730389161685394737e-11
-9.165867966355237404e-11
-8.155798724959736372e-11
-6.860541619875920942e-11
-5.609773899081649125e-11
-4.700983834687003884e-11
-4.071155649182797037e-11
-3.265061387765981680e-11
-2.268498766024301762e-11
-1.764377117492513039e-11
-1.309625210881350286e-11
-9.238299818786361637e-12
-6.496109079033658758e-12
-4.695397080357124058e-12
-3.304185586274229158e-12
-2.333098985177392804e-12
-1.671098928634200657e-12
-1.214583036628582387e-12
-8.988833243456961002e-13
-6.778683484551554636e-13
-5.192832744965494822e-13
-4.022394119249151744e-13
-3.129536666390312819e-13
-2.428016662605559616e-13
-1.865708501937123988e-13
-1.411912708124833773e-13
