# bin_16_14
-9.787231151971886163e-11
-1.097271212861385542e-10
-1.207768758569098273e-10
-1.299235512645313165e-10
-1.357742310427939625e-10
-1.369927335403467696e-10
-1.319259584791492908e-10
-1.199004802974504906e-10
-1.030342318837467625e-10
-8.468138639038344140e-11
-6.984026986519608369e-11
-6.017023388441943925e-11
-5.061376020456579093e-11
-3.666900407927317838e-11
-2.646561107080924187e-11
-2.124853135951508575e-11
-1.413013421651850814e-11
-1.064112163766161681e-11
-7.410134390393463807e-12
-5.142353304143485095e-12
-3.610996449328792039e-12
-2.543650736553257450e-12
-1.813343138487395783e-12
-1.312536612816667642e-12
-9.689560236506200957e-13
-7.287411940580671878e-13
-5.568497854535981529e-13
-4.301549220413288895e-13
-3.335694075670461417e-13
-2.577861393228427263e-13
-1.972000836216648522e-13
