# bin_3_4
-1.321089687082831854e-11
-1.366679233724529775e-11
-1.363767919475293049e-11
-1.294594879308013364e-11
-1.161017107391461323e-11
-9.849047585311732609e-12
-8.067001442532520681e-12
-6.706655927332272583e-12
-5.785626720450913743e-12
-4.739771760732466003e-12
-3.376754749202124160e-12
-2.548398587623986133e-12
-1.976926189973827368e-12
-1.384098805467831308e-12
-1.028948369774169193e-12
-7.533577575236253475e-13
-5.510762446139430585e-13
-4.099962299188031196e-13
-3.105445365999782703e-13
-2.396252744536236365e-13
-1.878819172536340333e-13
-1.489865661438255030e-13
-1.186431759682025654e-13
-9.418962175659035936e-14
-7.402802356939405581e-14
-5.723215332417791772e-14
-4.329387118047729058e-14
-3.191976479453024294e-14
-2.288612387102075418e-14
-1.596193023998723482e-14
-1.085040400353523186e-14
