# bin_9_1
-3.086218349417373278e-09
-2.973573505098542751e-09
-2.712797715240244099e-09
-2.343536705748685783e-09
-1.939128244385232381e-09
-1.600185985527402950e-09
-1.362700519074867864e-09
-1.141497022932516364e-09
-8.574666769648055337e-10
-6.243530020331652207e-10
-4.895704721279133586e-10
-3.520847272908734958e-10
-2.623470731612664482e-10
-1.918720738412693144e-10
-1.428904032727391714e-10
-1.077806243587997623e-10
-8.277597457249772468e-11
-6.476536529010731694e-11
-5.144413742221819673e-11
-4.125683498777516565e-11
-3.315808044813371279e-11
-2.650561984810243214e-11
-2.092667441311685364e-11
-1.621802441072484266e-11
-1.227704515176742214e-11
-9.048209280725863612e-12
-6.484867110525496818e-12
-4.523158622869271093e-12
-3.077620683612554407e-12
-2.049179811165369781e-12
-1.339666388849634451e-12
