# bin_5_15
-1.277015595701072529e-38
-1.416371230758510874e-38
-1.538560396621445368e-38
-1.628097791289261607e-38
-1.666562431023558972e-38
-1.639716663315606132e-38
-1.526483080064389165e-38
-1.343376831972465100e-38
-1.119200415027051387e-38
-9.152366651381141174e-39
-7.744652742843116841e-39
-6.688244507452720938e-39
-5.192423727400293215e-39
-3.592156975705339604e-39
-2.886761213963347409e-39
-2.033716433893328394e-39
-1.503533451667602006e-39
-1.029756750236253936e-39
-7.415177365486807901e-40
-5.271339240864066288e-40
-3.765384634267165076e-40
-2.722790322406361177e-40
-1.998260079712145597e-40
-1.494759457196447046e-40
-1.138096823834140826e-40
-8.784744170890969256e-41
-6.837210108565932805e-41
-5.327594227334251258e-41
-4.126840807847754605e-41
-3.157550394728811768e-41
-2.374194372251160831e-41
