# bin_2_19
-1.870669593301778330e-83
-2.091824046719137823e-83
-2.295180181157329885e-83
-2.459288246633750241e-83
-2.557147849305447774e-83
-2.565404910395414442e-83
-2.450011458208164988e-83
-2.208258098905045865e-83
-1.881360338838497246e-83
-1.541588060435326008e-83
-1.278137088227130297e-83
-1.105600530045719076e-83
-9.156719261478484087e-84
-6.495037482826539552e-84
-4.824087365341270345e-84
-3.779943794667598398e-84
-2.547977271986770828e-84
-1.879216430652809159e-84
-1.331118153649199850e-84
-9.276794731403786064e-85
-6.513418338378371831e-85
-4.611030532408362737e-85
-3.311825477153446429e-85
-2.418666028943249550e-85
-1.801314526115964322e-85
-1.365464861614394467e-85
-1.049855595320370688e-85
-8.139776456331110911e-86
-6.318244895828682541e-86
-4.874919747094672248e-86
-3.715100250280016031e-86
