# bin_18_3
-2.305712195482139435e-09
-2.371800309396094826e-09
-2.349550679014587334e-09
-2.210339695220140498e-09
-1.965673185235686833e-09
-1.655743942386146289e-09
-1.356164059849669737e-09
-1.135078243033622435e-09
-9.770327262368212617e-10
-7.836376241034234449e-10
-5.562041713084189570e-10
-4.284698519578465269e-10
-3.229714456551030030e-10
-2.314396678596330011e-10
-1.696023800661539942e-10
-1.246395969308578229e-10
-9.169156940154588757e-11
-6.854148240197709682e-11
-5.217986287197642243e-11
-4.044509534919626553e-11
-3.182951336030709055e-11
-2.529661324006203628e-11
-2.015735715362303414e-11
-1.598749309888108145e-11
-1.253472298313914000e-11
-9.655061679665775673e-12
-7.269596988930662911e-12
-5.331806016177781720e-12
-3.802837840714572842e-12
-2.639481326953601420e-12
-1.786803546597912011e-12
