# bin_13_2
-2.645661176025904659e-09
-2.653209672096129605e-09
-2.539006309759880021e-09
-2.297615538500591373e-09
-1.968164049855518847e-09
-1.619956847188260159e-09
-1.340481882495540222e-09
-1.148563923060235017e-09
-9.536978748828766740e-10
-6.994726548434055112e-10
-5.150866943946301308e-10
-4.044886342838637166e-10
-2.856620739152104400e-10
-2.141076232779671969e-10
-1.558221252248451292e-10
-1.151712355789222657e-10
-8.642573584722276500e-11
-6.598333746968772614e-11
-5.130727788837315321e-11
-4.051283345704191449e-11
-3.232218584265301861e-11
-2.586546071603826016e-11
-2.060732009940816635e-11
-1.623185970630740009e-11
-1.256127122420001876e-11
-9.501494518802898888e-12
-7.000043426461112857e-12
-5.014963164800162372e-12
-3.495792952258768202e-12
-2.376334178081502459e-12
-1.580313688104403533e-12
