# bin_14_19
-5.735070541983761018e-17
-6.474819371171593616e-17
-7.186985188341931461e-17
-7.811765975498839656e-17
-8.270162450855382704e-17
-8.468072504951250471e-17
-8.333123425193479213e-17
-7.757517485470819149e-17
-6.826506581331607307e-17
-5.686508294398924418e-17
-4.651439578817024564e-17
-3.939391800077381559e-17
-3.403348652050806744e-17
-2.636626248210122857e-17
-1.819981875446045425e-17
-1.463596452292812912e-17
-1.021669645020604260e-17
-7.530137863129219840e-18
-5.074910671397417540e-18
-3.594710947513601748e-18
-2.501516353077018529e-18
-1.739089480322307276e-18
-1.216386988330444113e-18
-8.592404411098204918e-19
-6.176646145626871242e-19
-4.527726102479634454e-19
-3.383551240476134543e-19
-2.572467714860738167e-19
-1.978834370410508645e-19
-1.529509535959086152e-19
-1.178962954926381116e-19
