# bin_15_8
-6.218909618953997386e-10
-6.796775317203501091e-10
-7.249913787959835501e-10
-7.497639032374305515e-10
-7.475067883743086552e-10
-7.081279310706994787e-10
-6.335457217646706294e-10
-5.359166715418496687e-10
-4.385894436897589286e-10
-3.656353167719196235e-10
-3.162181678155301901e-10
-2.573638920757227772e-10
-1.810916044358016957e-10
-1.379984344364917345e-10
-1.054133787097533025e-10
-7.339506501955049227e-11
-5.331420315613668430e-11
-3.860741880284654095e-11
-2.754314168172910567e-11
-1.984995962255566488e-11
-1.452445894029887817e-11
-1.081269288651755187e-11
-8.195433609241989227e-12
-6.315728977292733423e-12
-4.923849284610433008e-12
-3.859639883838742136e-12
-3.020772072056770462e-12
-2.344182046046336565e-12
-1.792914849859673589e-12
-1.344840622056046338e-12
-9.854834369866648815e-13
