# bin_17_11
-3.542431057511653366e-10
-3.932890574946416614e-10
-4.277394932352385848e-10
-4.533239585334870489e-10
-4.649158173754210306e-10
-4.585627369296876713e-10
-4.282530323087449439e-10
-3.780064213988222281e-10
-3.157700688244204653e-10
-2.582259541317266258e-10
-2.179202452101482473e-10
-1.883133559580667951e-10
-1.475400668421858639e-10
-1.022060804174379117e-10
-8.135927016234992066e-11
-5.819811119597680533e-11
-4.242284123592899632e-11
-2.928749665319238467e-11
-2.112092663295491984e-11
-1.496984672802855278e-11
-1.065507244342119586e-11
-7.684595460246403772e-12
-5.624820915387134563e-12
-4.195235939935518488e-12
-3.185881827692785909e-12
-2.454066492655169165e-12
-1.907538514540364288e-12
-1.485736824041406190e-12
-1.151341815399252957e-12
-8.819197204313812955e-13
-6.642664693942319668e-13
