# bin_18_14
1.489437775487225895e-08
1.681743002408024910e-08
1.866895015838965267e-08
2.029358111215667319e-08
2.148613010141682613e-08
2.200247980178390251e-08
2.165328042893956103e-08
2.015967705520650008e-08
1.774350374228221603e-08
1.478425116146423531e-08
1.209744561602549824e-08
1.024855352964932086e-08
8.853196138050751122e-09
6.857051332453302661e-09
4.735878771681549916e-09
3.809362428958490723e-09
2.657855828493448915e-09
1.960127361762305150e-09
1.321447950809075686e-09
9.357867574959898408e-10
6.513568989062411585e-10
4.529581432625795154e-10
3.169240407882880102e-10
2.238808073260179750e-10
1.609897511085377509e-10
1.180515188110868632e-10
8.823895498842733753e-11
6.710074997154508994e-11
5.162447689026008520e-11
3.990577947006981142e-11
3.076063813410946686e-11
