# bin_14_14
8.743823584071897889e-06
9.819935516886524454e-06
1.083122513646878898e-05
1.168097333925825908e-05
1.224566277038434773e-05
1.239986350699140297e-05
1.200342467892245200e-05
1.096821329338343246e-05
9.477639928487988070e-06
7.809009672796261414e-06
6.424013929805650995e-06
5.518918499192777165e-06
4.681894460199637867e-06
3.439273244009574199e-06
2.443513396037458211e-06
1.983955928887435768e-06
1.314827580674272304e-06
9.984597828679142799e-07
6.887208863127460843e-07
4.771408374504882941e-07
3.351697722681520722e-07
2.356486538467632532e-07
1.673029831291200255e-07
1.204269202072540047e-07
8.843570974107821971e-08
6.618539206678171797e-08
5.037152774076557089e-08
3.881468781484391183e-08
3.007548005976316113e-08
2.326254019539307078e-08
1.783564998734082390e-08
