# bin_16_2
1.266968315277653061e-59
1.406703389950757256e-59
1.529968588003729329e-59
1.621475511603413119e-59
1.662814260539724336e-59
1.639984164761637413e-59
1.531286065400438077e-59
1.351490286322619210e-59
1.128700342896701505e-59
9.230957560038935093e-60
7.794861379833215251e-60
6.739132498430958846e-60
5.273462893872992181e-60
3.647805257090509514e-60
2.913574333697589375e-60
2.077534235298806635e-60
1.520269330483027476e-60
1.044423203571578736e-60
7.545252424462555824e-61
5.350263610979182829e-61
3.810119427942791439e-61
2.749482878794209713e-61
2.012959217005177073e-61
1.502071421472102339e-61
1.141244040006008238e-61
8.794212152362429788e-62
6.838005792903515895e-62
5.327304030968998025e-62
4.128895547062194529e-62
3.162860051695745690e-62
2.382207996289646883e-62
