# bin_19_8
6.818681481092644452e-30
7.664769693577086617e-30
8.463340973504243588e-30
9.139623368337209806e-30
9.597704036842950452e-30
9.736897309475254792e-30
9.452544702844190457e-30
8.663530933224381583e-30
7.509209618279429855e-30
6.196360886426648224e-30
5.090414580236407577e-30
4.364463623353028186e-30
3.718248793424083900e-30
2.754763644730614765e-30
1.941737796752088225e-30
1.581783381785938731e-30
1.050409202209260426e-30
7.986539606136128507e-31
5.478226395002320274e-31
3.795841768421460948e-31
2.666429011700085984e-31
1.873541331216267468e-31
1.326924226006336647e-31
9.520731211033884773e-32
6.968307411635440503e-32
5.198807615719935173e-32
3.946233460696099536e-32
3.035439528117637409e-32
2.350180833518624861e-32
1.818228034729741077e-32
1.395623022194079328e-32
