# bin_17_8
5.697280201817227064e-23
6.380331727138947608e-23
7.013082977650772942e-23
7.530942140939603424e-23
7.852290235353732952e-23
7.902635924069032172e-23
7.580982967301984713e-23
6.863402387444871449e-23
5.874544349345990363e-23
4.821629283340078035e-23
3.987213744363172498e-23
3.443532569277522911e-23
2.876104279373435249e-23
2.060818360673170779e-23
1.508657969911155041e-23
1.198713993252245921e-23
8.008072647083070949e-24
5.982619434342069758e-24
4.201039606827146869e-24
2.920798923933138595e-24
2.050716989204799396e-24
1.447445234856563973e-24
1.035780208947965043e-24
7.530256881279704590e-25
5.584972726650737203e-25
4.217792760349596814e-25
3.233624567889021107e-25
2.503195993887838935e-25
1.942617526919126665e-25
1.500445977705205709e-25
1.145894479305339050e-25
