# bin_19_18
6.067945363052256298e-06
6.883688156503447235e-06
7.685731609927711725e-06
8.413870223540931449e-06
8.987148213750021609e-06
9.304029814469006517e-06
9.285404654218829492e-06
8.800185877610550191e-06
7.875334367236675885e-06
6.659703267088515840e-06
5.451033979786703558e-06
4.550776805780995871e-06
3.944446938573872124e-06
3.207627066701292599e-06
2.237159107835156215e-06
1.708941114626713874e-06
1.292872657874860904e-06
8.873388639245387995e-07
6.277870492891282124e-07
4.462151468925104664e-07
3.061945119827695233e-07
2.093309902075419189e-07
1.441853696231604507e-07
1.001600056295795354e-07
7.048193181223452753e-08
5.052830781142054827e-08
3.694519005843046216e-08
2.757019783063164446e-08
2.093102756938394067e-08
1.607530106544855171e-08
1.239820291466589380e-08
