# bin_16_5
1.898425622730608052e-35
2.114024060857271974e-35
2.307602203320122521e-35
2.456659403047222487e-35
2.533285849227554745e-35
2.516562863976374179e-35
2.371181846955583675e-35
2.110584752588695283e-35
1.775808160602264032e-35
1.452364413909068110e-35
1.217320856465281264e-35
1.054531203993267518e-35
8.460473935367191525e-36
5.873930795250025011e-36
4.572593801965805429e-36
3.394626356740434126e-36
2.394469019104158783e-36
1.681043981654972700e-36
1.217530419359315397e-36
8.567002261244282716e-37
6.045945717046201547e-37
4.330772587772773674e-37
3.147495393703878268e-37
2.329277166249755829e-37
1.756694727394983902e-37
1.345738123587344517e-37
1.042493853122822888e-37
8.111974644130271555e-38
6.294590631590901794e-38
4.837688205826715608e-38
3.661734248770519431e-38
