# bin_15_11
4.418789090029922099e-09
4.949734527154185755e-09
5.442191000099772571e-09
5.846159729121414910e-09
6.098413306549592570e-09
6.140719629909638452e-09
5.895287406137363145e-09
5.341385613200966443e-09
4.575475141494706955e-09
3.756513210772566340e-09
3.104959885727218940e-09
2.680493939758789056e-09
2.241936630220111826e-09
1.609693671574220103e-09
1.175239911294577135e-09
9.358737090449897692e-10
6.244787793888968949e-10
4.673925978982091070e-10
3.276942078948573121e-10
2.277370912167578597e-10
1.599017425159297079e-10
1.128125709851452325e-10
8.067144376220591505e-11
5.859917119460189333e-11
4.342499723560008899e-11
3.277008393281516637e-11
2.510860415039387836e-11
1.942988934281510612e-11
1.507702099274559420e-11
1.164682294589558587e-11
8.897744144871337609e-12
