# bin_12_1
1.182178561909388515e-46
1.290294302345781905e-46
1.373948131800989986e-46
1.417671624574196806e-46
1.409642369182293959e-46
1.330293068652632646e-46
1.185942148779850736e-46
9.994867665411647301e-47
8.174911979343523920e-47
6.837698796751632109e-47
5.919279187402574030e-47
4.774563297354920555e-47
3.333374442644512706e-47
2.578533325053870827e-47
1.939765347787841617e-47
1.367327522051568368e-47
9.789663711496698617e-48
7.148257434168592534e-48
5.113672173887701121e-48
3.689113666475320129e-48
2.707870600330086841e-48
2.022123974966798321e-48
1.537489612471789737e-48
1.188110021544657523e-48
9.280758013220706900e-49
7.282875197674041739e-49
5.700986829718870742e-49
4.421036908235802432e-49
3.376459525296096718e-49
2.527334283657904104e-49
1.847092062953815019e-49
