# bin_20_19
6.224159289630270094e-06
7.072271855833454272e-06
7.912534044889694065e-06
8.683971417681577942e-06
9.304797790313435300e-06
9.671972114902226630e-06
9.698119833525907298e-06
9.251658323538525323e-06
8.329958664483826759e-06
7.088386216625565752e-06
5.808790220933543672e-06
4.824813686110172563e-06
4.178139955434018894e-06
3.448022696789095066e-06
2.433366879160742811e-06
1.817267981967365149e-06
1.410571955692310212e-06
9.487623449261651074e-07
6.890107076257825125e-07
4.835139347846281620e-07
3.304786391195301842e-07
2.257229645272444104e-07
1.545659510558740950e-07
1.066873354737424621e-07
7.446308414610063353e-08
5.290396773924612654e-08
3.832348792697035635e-08
2.835103088347998074e-08
2.137527817796025284e-08
1.634460624880380369e-08
1.258688683839330272e-08
