# bin_20_4
8.175510800889463883e-62
9.182138740421231784e-62
1.012836137638827651e-61
1.092378745334129279e-61
1.145295382081050954e-61
1.159839704598937100e-61
1.122935089354012405e-61
1.026257549016557797e-61
8.869373395805579170e-62
7.308372136670090042e-62
6.011656908595978040e-62
5.164138576011418885e-62
4.382036742720125828e-62
3.220436377445558403e-62
2.286933722028591175e-62
1.857360746542077793e-62
1.230891859240411942e-62
9.348982201548864991e-63
6.446787177813496777e-63
4.466120019022824943e-63
3.137286672113181890e-63
2.205635962588117925e-63
1.565722573233319783e-63
1.126832912905802849e-63
8.273462153746791436e-64
6.190858642972275230e-64
4.711021534419305696e-64
3.629841552280049603e-64
2.812477396290934642e-64
2.175412895207925140e-64
1.668021383662581718e-64
