# bin_20_14
1.311409268030696649e-11
1.484211432852668023e-11
1.652310620496593810e-11
1.802386315175316256e-11
1.916614778282336781e-11
1.973039365470473068e-11
1.955439422843745472e-11
1.836486082354506265e-11
1.629554226340156825e-11
1.367054518585452914e-11
1.118083177286083172e-11
9.403675600271423544e-12
8.146694371515662820e-12
6.468812578016491062e-12
4.468504902944116538e-12
3.517599805971701753e-12
2.555733700682324012e-12
1.818976581677147744e-12
1.244459292245378385e-12
8.905648969697379219e-13
6.150659225887249883e-13
4.232800499616098817e-13
2.940406845521527829e-13
2.060340542698254638e-13
1.466285036835135678e-13
1.063817593515463099e-13
7.871508526190176946e-14
5.936081410307156004e-14
4.541640381494372135e-14
3.502691644940052395e-14
2.702646500595536189e-14
