# bin_11_7
5.139969280747888819e-10
5.663507079115624850e-10
6.102225473304196131e-10
6.391751070348653100e-10
6.467227714620830401e-10
6.255331683762289140e-10
5.712190020475527508e-10
4.933083564255089270e-10
4.063581471479922561e-10
3.342731689740222250e-10
2.870313949246106044e-10
2.432594430926764016e-10
1.788737458166769524e-10
1.275318264652489298e-10
1.034809932853462523e-10
6.933539051218372556e-11
5.286045433886713556e-11
3.696695021671996311e-11
2.611231682946808690e-11
1.874647492891544308e-11
1.355026175421915130e-11
9.934390238882921358e-12
7.405534459033796984e-12
5.626878623601793715e-12
4.340491736780670744e-12
3.381514057055737648e-12
2.643836983824886671e-12
2.059343645622735565e-12
1.587570629091102051e-12
1.204409164189152324e-12
8.952087251125644688e-13
