# bin_20_3
4.233464980745520406e-76
4.751278939338744061e-76
5.236306815778792351e-76
5.641452092274482622e-76
5.906760467648588210e-76
5.972572316968982516e-76
5.769705780531884281e-76
5.260273928988125814e-76
4.534897774661699098e-76
3.731657595500756245e-76
3.071903441359221135e-76
2.642117158727848824e-76
2.234738815481417624e-76
1.632218328343131545e-76
1.165818444709060339e-76
9.437275052087275177e-77
6.251107651443024989e-77
4.738581549909828594e-77
3.280042553311866418e-77
2.272901558133740263e-77
1.596321547885879881e-77
1.122795369181449931e-77
7.983982144560147255e-78
5.758764254498870754e-78
4.237899752663018918e-78
3.177906894195443569e-78
2.422566357536314170e-78
1.868766505104884689e-78
1.448634053477314470e-78
1.120237263187862510e-78
8.582320836254539444e-79
