# bin_17_6
2.324501556749765680e-38
2.596778552456259405e-38
2.845713732675318445e-38
3.044428110835126097e-38
3.159152391433960025e-38
3.161943711127643327e-38
3.009708369866249826e-38
2.704180392166822702e-38
2.296354046120612016e-38
1.880135931558817355e-38
1.562588031256535751e-38
1.352825067465898039e-38
1.112637884657541158e-38
7.839011018902470475e-39
5.889561539811671023e-39
4.559969463819872028e-39
3.101341833766942421e-39
2.261214612372553111e-39
1.612663032574086022e-39
1.126248736482794441e-39
7.910255486276097357e-40
5.614752143793985316e-40
4.044751160261013735e-40
2.963450292084165811e-40
2.214358303091919972e-40
1.683243197421867599e-40
1.296881632289196960e-40
1.006659978075776099e-40
7.815081590033624249e-41
6.025193259768313771e-41
4.584767087570995687e-41
