# bin_16_7
4.243820988166552271e-29
4.735550343421445759e-29
5.182317321427237649e-29
5.534605880076345915e-29
5.730378976605624204e-29
5.720552264149102162e-29
5.425542534565974578e-29
4.858365491148991731e-29
4.111494866634143258e-29
3.364054541161128503e-29
2.803650716457714807e-29
2.428579144427752598e-29
1.981314654456639431e-29
1.387083058360649154e-29
1.055201221876680443e-29
8.057699270419937440e-30
5.542012084690558258e-30
3.987314064953227640e-30
2.863138459180639273e-30
2.004427276401685194e-30
1.409094852929356718e-30
1.003293623644580364e-30
7.250049201279099794e-31
5.330637898687860343e-31
3.996406853210414646e-31
3.046445753629293848e-31
2.351969783307153049e-31
1.827460135541905485e-31
1.418649975511572789e-31
1.092625669378784184e-31
8.299245206120825674e-32
