# bin_13_11
1.630636691295250733e-11
1.819402442255527072e-11
1.990815934482952450e-11
2.125837570957343185e-11
2.200624114543954003e-11
2.196358585698037822e-11
2.082476019124782199e-11
1.864266864247802401e-11
1.577260861941840514e-11
1.290486304116121624e-11
1.075766448908484068e-11
9.318469377719428176e-12
7.596802766939831032e-12
5.316467352942491818e-12
4.048367486742174734e-12
3.087669871056758770e-12
2.125951436336383732e-12
1.527939731752985283e-12
1.097532575486437273e-12
7.685156639492811805e-13
5.403428409542199253e-13
3.848227957276711261e-13
2.781445264872919976e-13
2.045593659684050371e-13
1.533951484989528290e-13
1.169550964594924566e-13
9.030547024838319689e-14
7.017015553651450912e-14
5.447136182259760986e-14
4.194911552704177829e-14
3.185837101492691365e-14
