# bin_14_4
4.568745066478798203e-38
5.049468088854561653e-38
5.461144898003923378e-38
5.747411223685256700e-38
5.846005572747367153e-38
5.699809968657225099e-38
5.249814575376939009e-38
4.572887924236467335e-38
3.782996503931375537e-38
3.100238387242916297e-38
2.645629900542513126e-38
2.267007092313660513e-38
1.707877213596649651e-38
1.193755607842868058e-38
9.726329614459207858e-39
6.594847272485696907e-39
5.012265417039765232e-39
3.453542592845881918e-39
2.449360344606623239e-39
1.754786047347582697e-39
1.264290139666837141e-39
9.210935366014454236e-40
6.815581096475440976e-40
5.142734998471469002e-40
3.944702505071034204e-40
3.061285949242963444e-40
2.389462391318782737e-40
1.862202470057125096e-40
1.439186241453861331e-40
1.096357061999758787e-40
8.193853882978264510e-41
