# bin_15_11
5.617020017511409913e-14
6.290059349614089181e-14
6.913366524924126645e-14
7.423255326786615554e-14
7.739292483943894562e-14
7.787910735534158225e-14
7.470148836693101082e-14
6.761712299977590078e-14
5.786296153002088345e-14
4.747694945104578520e-14
3.924825166104132086e-14
3.389116623942261646e-14
2.830909909970856895e-14
2.028582312996160829e-14
1.484011049760643703e-14
1.179534284605163281e-14
7.876627040697897453e-15
5.885237211930382736e-15
4.131214648567677366e-15
2.871629928634634907e-15
2.016076584496781722e-15
1.422785857089400609e-15
1.017961039263217413e-15
7.399103622447721997e-16
5.486624028092280382e-16
4.142790230707825536e-16
3.175652079715348280e-16
2.458060155081294899e-16
1.907472789358926714e-16
1.473274905174693869e-16
1.125166758442590412e-16
