# bin_7_4
1.860202916113550628e-13
1.993329038113642250e-13
2.074172923445434156e-13
2.083462528191410562e-13
1.994907573123103352e-13
1.803498758858020276e-13
1.541765113168978795e-13
1.264946032586573023e-13
1.045878877851941229e-13
9.014899070598959509e-14
7.512135733804619788e-14
5.409625017616934288e-14
3.978470422662098276e-14
3.160619829531782360e-14
2.157923537238673498e-14
1.625744615949618672e-14
1.168601360278618107e-14
8.406164639898950133e-15
6.147685860031146071e-15
4.559348001373178646e-15
3.442805375738874410e-15
2.644952377447053314e-15
2.063633330384767853e-15
1.625052292398804756e-15
1.282919403188352195e-15
1.008326503668085272e-15
7.835958110565478548e-16
5.986255703607481978e-16
4.474031514654314616e-16
3.259452921316993429e-16
2.310744908684029888e-16
