# bin_12_9
8.981258135670118336e-13
9.962952666278293653e-13
1.082421412618141580e-12
1.145620326492360351e-12
1.172938357961721746e-12
1.154347944941843719e-12
1.074999819691936433e-12
9.463455613598740654e-13
7.886652028182944833e-13
6.449497626239806187e-13
5.455857184990418164e-13
4.711708230354247117e-13
3.661684110499083475e-13
2.533744191059544231e-13
2.033742414828390241e-13
1.435303882311699970e-13
1.059133602038751192e-13
7.262113897291442998e-14
5.229625337701120592e-14
3.715939064301458976e-14
2.652670484630761349e-14
1.917437487694920343e-14
1.406310276279701400e-14
1.051460299166285288e-14
8.002545933765723561e-15
6.174695883521131812e-15
4.804767654594861355e-15
3.743709127962276440e-15
2.900193276266240575e-15
2.219498677520136578e-15
1.669412313717647849e-15
