# bin_15_4
1.050069858008156719e-42
1.164242610938979274e-42
1.264079089134462934e-42
1.336819460499875207e-42
1.367390000126458774e-42
1.343962774564862847e-42
1.249577684601749624e-42
1.098379120779440406e-42
9.142582175989459145e-43
7.477670670804509208e-43
6.334033659556997928e-43
5.466396120183672596e-43
4.228702986598199830e-43
2.927275040740319712e-43
2.358023036017208641e-43
1.652374559940694078e-43
1.226774601917842719e-43
8.398479850776666900e-44
6.035361793750512503e-44
4.294822914479391733e-44
3.071374446829481800e-44
2.222722268222467790e-44
1.632263730229869875e-44
1.222080380170944951e-44
9.312259102404911044e-45
7.191850065507896314e-45
5.599256154750772772e-45
4.363238599593274445e-45
3.379184812050908787e-45
2.584465966061851758e-45
1.942190854295421084e-45
