# bin_19_9
4.784298273634831956e-30
5.381371100989940082e-30
5.946590268724284503e-30
6.427863473202268991e-30
6.758129097860656401e-30
6.865059945030234526e-30
6.678390993711038272e-30
6.134301184924024011e-30
5.328454796836858844e-30
4.400890087084110105e-30
3.610899333547461036e-30
3.090282114593750771e-30
2.640763647956745695e-30
1.969590687772290678e-30
1.380329847682528608e-30
1.125633360483574533e-30
7.500688954072984248e-31
5.698443799164967256e-31
3.890423102870006161e-31
2.698683647360218144e-31
1.894908730850499876e-31
1.330649853528148734e-31
9.405582877332006148e-32
6.730983445082084938e-32
4.912962784490763234e-32
3.655890342402890115e-32
2.768906052813370682e-32
2.126559937158825030e-32
1.645279384312486987e-32
1.273003077737620602e-32
9.779409489872392706e-33
