# bin_18_15
2.800069351317249816e-12
3.163983152728938932e-12
3.515522081183790148e-12
3.825749217886645669e-12
4.056252687405739118e-12
4.160658860365120665e-12
4.104171131018972167e-12
3.831903702845969802e-12
3.381218017818094074e-12
2.822778540353472794e-12
2.308281943402379818e-12
1.950110410183312566e-12
1.686864566623783082e-12
1.317927213070547248e-12
9.089815795141844402e-13
7.263909316064292483e-13
5.139361592275216672e-13
3.745291378626239115e-13
2.530807925620043774e-13
1.801482289228437280e-13
1.250133050549339701e-13
8.659667555390220978e-14
6.043536418989961508e-14
4.256459335468291683e-14
3.049413632496603521e-14
2.227695895914095808e-14
1.659263083144031786e-14
1.258202080353909265e-14
9.662389089588671138e-15
7.464015184221355854e-15
5.756131923828231893e-15
