# bin_5_4
1.447493242279536982e-10
1.530685876954998047e-10
1.566669906827222761e-10
1.541831226986055809e-10
1.436895493999217040e-10
1.266050064176371215e-10
1.056498442171643973e-10
8.639552844767630974e-11
7.290903996569416892e-11
6.286195791528322089e-11
4.917172653291925003e-11
3.431157440171811218e-11
2.734209787013059733e-11
1.973237440189728088e-11
1.454539647485966867e-11
1.030167357891700081e-11
7.582070133728811999e-12
5.551301547060592358e-12
4.113526726982872562e-12
3.103585394908266189e-12
2.382640766693924925e-12
1.859294246323047151e-12
1.467127983412284529e-12
1.162598681362876792e-12
9.187134093419490043e-13
7.189433755502407995e-13
5.536764773339210008e-13
4.174421011306366842e-13
3.069061218744053476e-13
2.195181126511353275e-13
1.527490782066274171e-13
