# bin_9_7
1.280640220411872099e-11
1.401577999934103178e-11
1.497542734838549351e-11
1.551944420650656469e-11
1.551228438597858456e-11
1.474316862520857077e-11
1.322950043918501252e-11
1.122149878895630872e-11
9.184953922301428466e-12
7.637075666684521258e-12
6.607388749354982760e-12
5.421042629045929392e-12
3.824247115947851095e-12
2.886077344302330910e-12
2.233230806642836502e-12
1.536673275243812320e-12
1.127242187146685030e-12
8.142996631462231211e-13
5.794996758389658348e-13
4.167274724719093498e-13
3.041368403237682741e-13
2.259032594498453456e-13
1.708200693159199907e-13
1.314090737357523672e-13
1.023223894092333631e-13
8.016600155261133426e-14
6.275930638693694387e-14
4.874838094640763803e-14
3.734155527046423611e-14
2.806583467553076483e-14
2.061536359586241817e-14
