# bin_14_5
6.572045608618820130e-32
7.274751989689057692e-32
7.882776696661209000e-32
8.315627488831626261e-32
8.481100233287535061e-32
8.301603985744104517e-32
7.680899771877185691e-32
6.720114241879519282e-32
5.574899327734052168e-32
4.563530232900907882e-32
3.880883595683622962e-32
3.338722234083986229e-32
2.547316655443008775e-32
1.770073590391594124e-32
1.436643468874049632e-32
9.877675016844015011e-33
7.440298346508064544e-33
5.100689671351160384e-33
3.638288040389992988e-33
2.599520346742196726e-33
1.867427787287407394e-33
1.356166168162318081e-33
9.997948491795575504e-34
7.516192472498286861e-34
5.747429354571782703e-34
4.450329355587924517e-34
3.469762932969578976e-34
2.704219115064910805e-34
2.092192420442910217e-34
1.596935526510290140e-34
1.196704213130190217e-34
