# bin_20_10
6.777413819614650143e-29
7.642261184537207157e-29
8.470105597079525044e-29
9.189195413796019296e-29
9.705600453263911993e-29
9.910378165054593348e-29
9.714595402906467748e-29
9.001289306672918320e-29
7.886016570528068284e-29
6.547494642264165778e-29
5.359657869344761055e-29
4.556762839252332557e-29
3.925796773720573357e-29
3.000809400093852913e-29
2.077708661244377084e-29
1.684048143874439961e-29
1.152157211186768717e-29
8.622242831644907278e-30
5.815334927038496725e-30
4.081628660125564888e-30
2.852843200289007476e-30
1.993542383468553233e-30
1.399609509220263176e-30
9.928848195021801100e-31
7.176310799252241833e-31
5.289380086776757852e-31
3.972337530196163960e-31
3.031902619276776093e-31
2.337847708824424786e-31
1.808274620627321604e-31
1.392572903975196110e-31
