# bin_16_5
2.089561423325803884e-40
2.326088509611150892e-40
2.538055343929646465e-40
2.700650952887649712e-40
2.783160026818041909e-40
2.762686257160819454e-40
2.600551986175908225e-40
2.312375154360470923e-40
1.943666499074820446e-40
1.589005933528635851e-40
1.332368254861198477e-40
1.154100857480879309e-40
9.240171407382251112e-41
6.408182239985792933e-41
4.999884785581943787e-41
3.699623906790637384e-41
2.616728983191083685e-41
1.832479777619123664e-41
1.327618425843165961e-41
9.346541925494416099e-42
6.599548463046799664e-42
4.730211514790391110e-42
3.439737958980343258e-42
2.547242297261721600e-42
1.922257365919199660e-42
1.473302559464871926e-42
1.141683978163801860e-42
8.884815046757328513e-43
6.893646717410727838e-43
5.296633507020434441e-43
4.007437810463681434e-43
