# bin_8_7
1.026301905197218878e-10
1.118998743823422413e-10
1.190014672413816196e-10
1.225920043194086657e-10
1.216547032654302858e-10
1.145129210743313547e-10
1.018319279671013859e-10
8.562071623473132729e-11
6.999523592224385298e-11
5.864293484860135066e-11
5.075418373906026404e-11
4.069008261344109659e-11
2.834113106744345654e-11
2.207806955604124090e-11
1.644917617988138889e-11
1.169313355959334984e-11
8.315646587263073806e-12
6.078766286016731709e-12
4.355981342039383579e-12
3.147590866366554005e-12
2.314292749498841841e-12
1.730867633589419365e-12
1.318116861557482872e-12
1.019869411038720662e-12
7.973191122705488344e-13
6.258888907573698376e-13
4.898507882890928713e-13
3.796272808952694354e-13
2.896281809734407743e-13
2.164937467869935531e-13
1.579667558714784893e-13
