# bin_7_5
1.144355366438158925e-11
1.232487303768965529e-11
1.290754677025342643e-11
1.306018139330347473e-11
1.263855829854188985e-11
1.154954786473911024e-11
9.982367584917633635e-12
8.225309825763776610e-12
6.759521675127934727e-12
5.793850300065279178e-12
4.915805402992406244e-12
3.635405272102990801e-12
2.589757593451467455e-12
2.102231557592743456e-12
1.425283695286060941e-12
1.089333496608252088e-12
7.687688381314493033e-13
5.519686589243594878e-13
4.030086584058937937e-13
2.973803536669409219e-13
2.229958910975665165e-13
1.700964040948961484e-13
1.319566410945854250e-13
1.035232676964002562e-13
8.160001604363213426e-14
6.418053124531537931e-14
5.001728075466203854e-14
3.838927228474617798e-14
2.886997117309976089e-14
2.118836438650661963e-14
1.514014834978698153e-14
