# bin_16_3
1.588144588230831426e-55
1.764226727752680761e-55
1.920064931392087225e-55
2.036557430357014086e-55
2.090517980064821436e-55
2.064603980065595612e-55
1.930960433346453588e-55
1.706700480671549357e-55
1.426953661901666092e-55
1.166499698849537751e-55
9.832903590468909272e-56
8.506588096322607086e-56
6.691317896481808799e-56
4.626318048057274145e-56
3.677869785910352563e-56
2.644446102782769767e-56
1.920336204486293892e-56
1.322801935404998982e-56
9.573162533250480756e-57
6.776139538832651997e-57
4.814941159556450016e-57
3.469271126030555931e-57
2.535878765475518376e-57
1.888950500622597198e-57
1.432972593746736468e-57
1.102888662591979720e-57
8.569211945742537513e-58
6.674577059802502414e-58
5.174494069520363508e-58
3.966581580772431844e-58
2.990657604605421644e-58
