# bin_15_15
1.012088079489683866e-10
1.139407126492724743e-10
1.260419915493798402e-10
1.364212946684389820e-10
1.436657616603770915e-10
1.462068989003266280e-10
1.426222823290424245e-10
1.314059109987142899e-10
1.144930004312114216e-10
9.472670585513570794e-11
7.764680228538405827e-11
6.630349588054933743e-11
5.684635805715398039e-11
4.276634167691909160e-11
2.981375322370306734e-11
2.429326335192209243e-11
1.630786968355783157e-11
1.234767102335157628e-11
8.386625561055433713e-12
5.834527104825380037e-12
4.092782525830455507e-12
2.870951526368365216e-12
2.024480626391911751e-12
1.444272227738897332e-12
1.050586188500262794e-12
7.792142140479423765e-13
5.884776909256003956e-13
4.510349897670240761e-13
3.485935100384087349e-13
2.697192963250961790e-13
2.074009083674715721e-13
