# bin_14_11
1.405936236171294505e-12
1.571596201338513047e-12
1.723568650449766860e-12
1.845678132734326939e-12
1.917578032077663136e-12
1.921979987633149672e-12
1.833102488978478874e-12
1.650144930615857507e-12
1.404048481884473977e-12
1.150114035399613479e-12
9.544750524877729132e-13
8.259103766037052742e-13
6.821326566737561470e-13
4.825656108311737410e-13
3.600477333541254548e-13
2.807848992486548379e-13
1.899401484135540768e-13
1.394499466841469772e-13
9.904126432573368049e-14
6.907899249729865855e-14
4.850696137916091172e-14
3.437413268863688170e-14
2.471803421103964598e-14
1.807294821904554287e-14
1.347815506551370917e-14
1.022809365693331136e-14
7.870456650716020952e-15
6.105073994191387293e-15
4.739314052628581717e-15
3.655720575792633302e-15
2.784451152866681781e-15
