# bin_5_2
8.290236164440108940e-14
8.631234266865337948e-14
8.677629715244066909e-14
8.323843380658383791e-14
7.541780885939925609e-14
6.463184095122527424e-14
5.309421097169213978e-14
4.383995754820429598e-14
3.769752748725385675e-14
3.151814458013693105e-14
2.291625880962642858e-14
1.676158291487141801e-14
1.336296761784468993e-14
9.204007163553946926e-15
6.968510608103814249e-15
5.028754277966166246e-15
3.663457527303978148e-15
2.716679872546272828e-15
2.046315855465377886e-15
1.569574048284854126e-15
1.223888279050966182e-15
9.669719012474358721e-16
7.686936309284153399e-16
6.104220747532015014e-16
4.808308251189178379e-16
3.732175777348527864e-16
2.838704327866245604e-16
2.106574105603823603e-16
1.520992779432049861e-16
1.068040060859606873e-16
7.304512282274423574e-17
