# bin_3_2
1.742930188966651771e-08
1.469654423149762603e-08
1.212654230825061509e-08
9.838659855172125009e-09
7.877757746343359599e-09
6.222693331286427040e-09
4.828786437764418345e-09
3.677679030275811466e-09
2.777334437496637026e-09
2.106755919386743901e-09
1.603083228257548513e-09
1.224538592175323626e-09
9.460401558630667477e-10
7.375302976849594126e-10
5.800192009110385103e-10
4.585354718550921455e-10
3.628875558962909233e-10
2.861718361662624297e-10
2.238605300551595556e-10
1.730078379873307060e-10
1.316447234446596396e-10
9.836212836355551851e-11
7.203018897504623071e-11
5.164072048714047692e-11
3.623761958147747911e-11
2.490461005343687049e-11
1.678553184364977172e-11
1.111606958180955565e-11
7.249251699712432160e-12
4.666196866507118004e-12
2.971156381400768374e-12
