# bin_17_16
7.176520117535896355e-08
6.764732009615917011e-08
6.217528584651007720e-08
5.562989011101962953e-08
4.842494769366016689e-08
4.105682335252561807e-08
3.401810710101571162e-08
2.768135085837185033e-08
2.221183601167982464e-08
1.757714151809032711e-08
1.365226202801353311e-08
1.037246080996944526e-08
7.767175728851982763e-09
5.814525640711750656e-09
4.353002192872179740e-09
3.249319202217443600e-09
2.443993751622910485e-09
1.849354881062311720e-09
1.410884468560512846e-09
1.083275140371519143e-09
8.352358892454004489e-10
6.445156379018101361e-10
4.958654921000661305e-10
3.789392687535276265e-10
2.866348482780545692e-10
2.139767623047570923e-10
1.572812090483768231e-10
1.136380442781139060e-10
8.062146592801340024e-11
5.614058168110357837e-11
3.837797412820244292e-11
