# bin_5_4
2.697519878797529415e-08
2.343746261608744059e-08
1.984419936220631592e-08
1.642664010537570937e-08
1.335859322512236698e-08
1.071645080096987050e-08
8.483956128303550647e-09
6.600984325478371185e-09
5.034790281901314910e-09
3.795562506529841554e-09
2.868686413724440554e-09
2.175377847072526465e-09
1.651756020429862959e-09
1.267416017934567447e-09
9.808942766570218816e-10
7.660535096927959552e-10
6.018861390582317599e-10
4.740445656211275606e-10
3.726145332931140020e-10
2.910045921688354128e-10
2.248822694591301802e-10
1.713454233614825637e-10
1.283525281981711880e-10
9.432474462951279214e-11
6.791130838666696695e-11
4.787504620161331590e-11
3.305481492185634997e-11
2.237451483156526518e-11
1.487239122613313334e-11
9.727907892353079446e-12
6.275634857340652344e-12
