# bin_20_17
7.672028232164166906e-08
7.273513584246244598e-08
6.726376809129678926e-08
6.056798617815399693e-08
5.305782543306957409e-08
4.524738084630509132e-08
3.767125190165508206e-08
3.076605834773823037e-08
2.476022125697638495e-08
1.966041250758731036e-08
1.534006324293271926e-08
1.170556497864856856e-08
8.776001387658593393e-09
6.559410428025382409e-09
4.908727214128938248e-09
3.657204725562726837e-09
2.740094938650303745e-09
2.065986026472163726e-09
1.569687322571385066e-09
1.200672472316490346e-09
9.230299179859070478e-10
7.109012958025500432e-10
5.465312002165142603e-10
4.178453390130679942e-10
3.165651382232322109e-10
2.369320994905833790e-10
1.747557129073227872e-10
1.267884106723779830e-10
9.037252689705048261e-11
6.324731556490380201e-11
4.346054597816861907e-11
