# bin_12_2
2.369660293374296814e-08
2.026180575284975947e-08
1.690230917100081528e-08
1.382705273141927163e-08
1.115350230840655748e-08
8.889811428168692738e-09
6.969918485326714454e-09
5.343758078383047076e-09
4.030198938482457998e-09
3.044430249895017626e-09
2.310219338854516014e-09
1.751499007573682327e-09
1.342361405213450295e-09
1.038434310376980605e-09
8.116348854822204109e-10
6.392205016209321117e-10
5.055003172116627052e-10
3.995650706066906640e-10
3.141836852529089945e-10
2.446653159112078520e-10
1.879483550815187219e-10
1.419639966883741738e-10
1.051779695085518065e-10
7.630702924355976745e-11
5.417057024079493706e-11
3.763410388299094758e-11
2.561240090143634654e-11
1.710433461221356642e-11
1.123289845762642818e-11
7.271662119835180535e-12
4.651047556838707896e-12
