# bin_16_8
5.250685730156132403e-08
4.807871163402646225e-08
4.284254688014350760e-08
3.713340857177390446e-08
3.134861702886380441e-08
2.587777044859365958e-08
2.100063519723981751e-08
1.682392045872515827e-08
1.329416836294464174e-08
1.029926591387390717e-08
7.802552599826401371e-09
5.848522162806328194e-09
4.402968349048446617e-09
3.310375502942137624e-09
2.490052795004264778e-09
1.892566303985325451e-09
1.448469158669808421e-09
1.118423469099907450e-09
8.691414763622814906e-10
6.775347853894125939e-10
5.277190593980624919e-10
4.089614866472158322e-10
3.140775918410946449e-10
2.381855594261023006e-10
1.778515249700680106e-10
1.304653468726488226e-10
9.387809946105927847e-11
6.620942305785888604e-11
4.576429414247843159e-11
3.102144140846913872e-11
2.064786577873370035e-11
