# bin_18_8
5.378816659188802019e-08
4.933134990445837531e-08
4.402799755765517669e-08
3.821601708732875111e-08
3.230147941223440143e-08
2.668866545912471043e-08
2.167373238230953173e-08
1.737518240348012121e-08
1.374222710943919570e-08
1.065669871836394791e-08
8.076984336629374100e-09
6.052529102256257655e-09
4.555443268486396404e-09
3.424179144241936815e-09
2.573534816077433714e-09
1.954658975924504651e-09
1.494740289594750776e-09
1.153357874633252498e-09
8.958406839674970617e-10
6.981743240362448504e-10
5.438111327051755707e-10
4.215590138385683644e-10
3.239290433803390251e-10
2.458400791034888263e-10
1.837326401269521073e-10
1.349154329773634575e-10
9.718367140960641078e-11
6.861443052211460054e-11
4.747592859139179232e-11
3.221267819549183274e-11
2.145913214471287245e-11
