# bin_10_10
5.073117077805188837e-08
4.640410122945911337e-08
4.132275184406652096e-08
3.580956599878859234e-08
3.024026480808206066e-08
2.497577951776175710e-08
2.027491158072564238e-08
1.623810820246141915e-08
1.282472123449321928e-08
9.940411991684148803e-09
7.546136301708474366e-09
5.664018072092274710e-09
4.260535545465593662e-09
3.206766959470911482e-09
2.413629382475382441e-09
1.833960434342140898e-09
1.403395743707031401e-09
1.083187651958880876e-09
8.411029671509211538e-10
6.550773898815260554e-10
5.097255755406169096e-10
3.946285901255054119e-10
3.027957605455183364e-10
2.294566149009593575e-10
1.712392576917548602e-10
1.255777041350708007e-10
9.036092903287094120e-11
6.374849924830140158e-11
4.409021205498724415e-11
2.991272309821789265e-11
1.993093545902017647e-11
