# bin_19_13
6.845254592584395138e-08
6.422440473101315336e-08
5.872865126986486301e-08
5.226140473005827659e-08
4.524243861050291068e-08
3.815976560192574625e-08
3.148084368313458861e-08
2.553349978537530937e-08
2.043624850033726466e-08
1.612353592093625095e-08
1.246872446933866185e-08
9.431741094622533457e-09
7.055294986090538501e-09
5.291117484210125739e-09
3.960542163991560212e-09
2.962213355716896762e-09
2.235807608296179432e-09
1.697675907310565602e-09
1.299888024405511432e-09
1.001546254360130596e-09
7.743501043248222739e-10
5.986200118804694841e-10
4.609115826395075067e-10
3.521201315423814223e-10
2.659927602950488824e-10
1.981178619449549075e-10
1.451751397356108673e-10
1.044950466103108366e-10
7.381418046902541528e-11
5.115799147681542137e-11
3.479942367985016349e-11
