# bin_7_2
2.157296802830316627e-08
1.837602164853788517e-08
1.528401573128426834e-08
1.247554353040932198e-08
1.004346950266565746e-08
7.986016965311102338e-09
6.244360022025235738e-09
4.779170412326648666e-09
3.605626541689513072e-09
2.726667548683504935e-09
2.070585871555895701e-09
1.572920624190392194e-09
1.208055874737460103e-09
9.364642924767669097e-10
7.331463493316910782e-10
5.779916826329033007e-10
4.571736133943078163e-10
3.611402494939383799e-10
2.835766590019171802e-10
2.203834292130593414e-10
1.688692568850990149e-10
1.271889578310350815e-10
9.394533737489389161e-11
6.794837987416426126e-11
4.809356405903340644e-11
3.332034498453159312e-11
2.262110995887361667e-11
1.507496944673493437e-11
9.882858066221557318e-12
6.388669187429438843e-12
4.081725262662225858e-12
