# bin_15_8
5.176051860242465644e-08
4.734907746429737522e-08
4.215205142822246186e-08
3.650281868124960170e-08
3.079360243468580395e-08
2.540544874597571814e-08
2.060857716020388777e-08
1.650282811958905840e-08
1.303318905420337438e-08
1.009107359342621316e-08
7.642705683087987811e-09
5.729695172191758099e-09
4.314156937970841933e-09
3.244088753663610361e-09
2.441427278461863645e-09
1.856399323727404043e-09
1.421517667014011403e-09
1.098075234681169403e-09
8.535899771351151214e-10
6.655128569628983637e-10
5.183458974327301044e-10
4.016238009526124983e-10
3.083394211189576067e-10
2.337270422056444048e-10
1.744259668074068050e-10
1.278733218532984183e-10
9.195271923096944416e-11
6.480859288681881784e-11
4.476733050980106712e-11
3.032759119424737799e-11
2.017533452844713870e-11
