# bin_18_10
6.016388887298438171e-08
5.577400916625862449e-08
5.034907419315566630e-08
4.421209631070351367e-08
3.778029965773332334e-08
3.150113552432543015e-08
2.575477087282946220e-08
2.075116470900613693e-08
1.650845369097978272e-08
1.291521516548821261e-08
9.879490031141112717e-09
7.419847016564629721e-09
5.562095413196291316e-09
4.182584877431728761e-09
3.131134973730217019e-09
2.361883744724056839e-09
1.794025863798098652e-09
1.374771942473190992e-09
1.061009956497672068e-09
8.229990139153064902e-10
6.393214835343232414e-10
4.953689942470692769e-10
3.813195774435418339e-10
2.905127163307323523e-10
2.183557037348846177e-10
1.615030077713061604e-10
1.173249874882876672e-10
8.361312181294376917e-11
5.842645579112037266e-11
4.003799122373205917e-11
2.692856351347807981e-11
