# bin_19_12
6.617250941823759093e-08
6.188668297027376758e-08
5.639548954337566249e-08
5.000383663124071896e-08
4.313287192683517211e-08
3.626168886409136084e-08
2.983658911247833467e-08
2.415309619600518634e-08
1.930008210096230765e-08
1.519464774130993243e-08
1.171566166413202607e-08
8.840620906678443988e-09
6.613722636578968717e-09
4.965168217446519567e-09
3.715719473274016002e-09
2.784782013167459888e-09
2.105761033338762975e-09
1.602996316013122925e-09
1.230094959931256129e-09
9.496933876880507231e-10
7.353794970822635368e-10
5.689872522419230917e-10
4.381730974124215729e-10
3.345737577076437392e-10
2.524435298358320148e-10
1.876998951855254246e-10
1.372352298561139312e-10
9.852135077818317970e-11
6.939187813147670454e-11
4.794447012457584300e-11
3.251076092041506552e-11
