# bin_15_15
6.751819589293128248e-08
6.330696166383221765e-08
5.785751033712215404e-08
5.146485716283307977e-08
4.454302437443602790e-08
3.756961553495055118e-08
3.099758599916680851e-08
2.514323951332415662e-08
2.012074255145734844e-08
1.586983425532206693e-08
1.227308667368237328e-08
9.290657745199475054e-09
6.954200519788399419e-09
5.213700502062107554e-09
3.904143187635050993e-09
2.921315786299258937e-09
2.204718610760432952e-09
1.674228763223429350e-09
1.281855987592951650e-09
9.874144718480636222e-10
7.631776651494281979e-10
5.897519615880965096e-10
4.538854960896404324e-10
3.465960027387183277e-10
2.617066653449806901e-10
1.948497958088025423e-10
1.427353147620816137e-10
1.027164201245324514e-10
7.255031482670564080e-11
5.028329736878000339e-11
3.420970163774162081e-11
