# bin_4_1
1.495841136422899739e-08
1.247409229842708401e-08
1.020353872168193425e-08
8.226581660739556844e-09
6.550405052888632159e-09
5.134059808048988370e-09
3.943807391361539709e-09
2.984252709928792761e-09
2.258687802479048617e-09
1.718716944466663279e-09
1.309642328175357314e-09
1.007704188906244094e-09
7.834388678394711042e-10
6.150105590989916997e-10
4.862722244660511953e-10
3.857629768914332947e-10
3.056169319048436626e-10
2.406531804292232358e-10
1.875254301535618763e-10
1.440549806748077287e-10
1.087567517317456054e-10
8.050947651269384257e-11
5.835281840282414570e-11
4.138485152097756142e-11
2.872843157381167498e-11
1.954135805411459502e-11
1.304755307964167214e-11
8.569877258823242627e-12
5.550096650325487123e-12
3.552234529306059010e-12
2.251649169267178247e-12
