# bin_20_11
6.435953076834328635e-08
6.001721445506413244e-08
5.451887619697377322e-08
4.817793725029175689e-08
4.141831000728121458e-08
3.471369717240403562e-08
2.849354141136617594e-08
2.302557812218103675e-08
1.837214317595493161e-08
1.443398268088830448e-08
1.109586575649624469e-08
8.353571039530265443e-09
6.251983547009992771e-09
4.697782996413833324e-09
3.514268702815263827e-09
2.639849574587441609e-09
1.999188192060188444e-09
1.525717126761675186e-09
1.173276277031114239e-09
9.075364727986097232e-10
7.037304664124482349e-10
5.449346188881596588e-10
4.197120927403168609e-10
3.203113257633898000e-10
2.414090651718710898e-10
1.791943941376416589e-10
1.307345424952261782e-10
9.361626829327357722e-11
6.575066934647339887e-11
4.529219252229700412e-11
3.061824956779770779e-11
