# bin_20_14
7.141503830741829987e-08
6.725778968201214357e-08
6.175229259586460645e-08
5.518394764531628537e-08
4.797143021495864953e-08
4.061494205783458057e-08
3.360907623752632684e-08
2.732201744751789023e-08
2.190938181863071181e-08
1.732700084114221716e-08
1.344278538871037869e-08
1.019685552545803896e-08
7.629198927940444425e-09
5.714648807336711468e-09
4.277860187820782512e-09
3.193329362883960467e-09
2.404635803018229840e-09
1.820922959196172875e-09
1.390704771857142604e-09
1.068976309853822572e-09
8.250001478956841520e-10
6.371005155549576660e-10
4.904095683442728025e-10
3.748556021975881864e-10
2.835279956944896898e-10
2.115851415846753448e-10
1.554285582067272027e-10
1.122031493822802143e-10
7.951747604641159589e-11
5.530157203686485672e-11
3.775097582637270862e-11
