# bin_12_7
4.585202930141761913e-08
4.152478289278664910e-08
3.659098625491736670e-08
3.137779327414657592e-08
2.624456078714396889e-08
2.150905682344016027e-08
1.736205910730307261e-08
1.383957529490533055e-08
1.086198206111227982e-08
8.345954920923797902e-09
6.291617858418726607e-09
4.725145516555088738e-09
3.565427897175872124e-09
2.682808622814926455e-09
2.031517237597404839e-09
1.551976222108314187e-09
1.195909063714874965e-09
9.285614183399238508e-10
7.247020281590865258e-10
5.663358811984712602e-10
4.412817517972083787e-10
3.414053772643230062e-10
2.612508178653798157e-10
1.970808125729664355e-10
1.461834905669248971e-10
1.064113477599335232e-10
7.592769193462013745e-11
5.308196119790842901e-11
3.637114309906076572e-11
2.444935968772940465e-11
1.614983400181473243e-11
