# bin_11_3
2.863474354171095688e-08
2.487170145628032009e-08
2.103682386729054573e-08
1.739253776410357472e-08
1.413376817908583995e-08
1.134103083312542900e-08
8.982089792983294340e-09
6.978706384281477948e-09
5.303811957377285888e-09
3.990838429155879638e-09
3.019988408635906151e-09
2.286387064665358351e-09
1.735289204203906268e-09
1.332425614778881932e-09
1.031965786467680049e-09
8.068561738143065549e-10
6.348987100690386569e-10
5.008213224904372556e-10
3.942372148070158439e-10
3.082752245205440129e-10
2.384469335259857934e-10
1.817716562524322673e-10
1.361667942018784214e-10
1.000198027620599621e-10
7.194114593804335946e-11
5.064366018700531451e-11
3.490489056117719829e-11
2.358107767543526845e-11
1.564396488754881043e-11
1.021403561837137389e-11
6.578725452471068772e-12
