# bin_18_17
7.447393903864421007e-08
7.042841927946380206e-08
6.495650575658462008e-08
5.832862457574907135e-08
5.095654981931044839e-08
4.334637825714155196e-08
3.601370670109238619e-08
2.936617466714448283e-08
2.360357813542059544e-08
1.871483216244027803e-08
1.457396858195765916e-08
1.110037744997302781e-08
8.317877824241824401e-09
6.221097411640956964e-09
4.656378669222993757e-09
3.471946358700767375e-09
2.605618559983724125e-09
1.967602041624266427e-09
1.497581057210179404e-09
1.147372036826634002e-09
8.831766516868031573e-10
6.807716899593387980e-10
5.235401721229440142e-10
4.001932797604825865e-10
3.029870530508304849e-10
2.265190273249295701e-10
1.668291277197346338e-10
1.208232225919376209e-10
8.594907573416938746e-11
6.002313436833586527e-11
4.115439216550287558e-11
