# bin_19_4
3.657460020262855157e-08
3.234600066831398884e-08
2.781762001421045932e-08
2.331415582528759909e-08
1.913610107372232240e-08
1.547194908447582482e-08
1.236293467115434952e-08
9.729439066289972997e-09
7.486691758221524776e-09
5.644871843352695471e-09
4.246747098384858249e-09
3.213429360762368302e-09
2.422693805131171746e-09
1.842200861209236325e-09
1.413419256286163443e-09
1.095286380151828022e-09
8.557313400036883717e-10
6.722443875405363990e-10
5.287951241577005638e-10
4.146059833201120127e-10
3.225817371019957641e-10
2.480435963452262443e-10
1.878465317284153479e-10
1.397291938422042396e-10
1.018890809641527089e-10
7.274830589984109276e-11
5.084422301987878240e-11
3.480298360748335645e-11
2.336244305040054333e-11
1.540930815674547174e-11
1.000911527352473485e-11
