# bin_5_20
3.278115408716521151e-07
3.498340181681966759e-07
3.621527051480887445e-07
3.615404767955120885e-07
3.433134680171734892e-07
3.079643450755314084e-07
2.612930017230290836e-07
2.140746563531350625e-07
1.780638556333861998e-07
1.536439511081956511e-07
1.257686052430036040e-07
8.949354625513607922e-08
6.750497543045622443e-08
5.217703077340661432e-08
3.639462413457917736e-08
2.687143552945805003e-08
1.950427752908642776e-08
1.410089437584849441e-08
1.034161296086435140e-08
7.706168696115320451e-09
5.846127101330245247e-09
4.510502093073359054e-09
3.529915464113921759e-09
2.783570460480520505e-09
2.196838774850251831e-09
1.723170314339399514e-09
1.334387279884126122e-09
1.014437281088265848e-09
7.536867435278678905e-10
5.454667492652784075e-10
3.841034231444018651e-10
