# bin_2_12
5.347547264676029885e-07
5.382845873426956500e-07
5.177386735414615033e-07
4.710217312937849316e-07
4.055654397865760467e-07
3.345548409730185854e-07
2.761296239877305004e-07
2.360651427619338256e-07
1.975992587661783892e-07
1.465647588308471649e-07
1.067854359093839584e-07
8.431487182221026906e-08
5.963443295937655021e-08
4.468775021408337790e-08
3.240602756478417641e-08
2.393221490769286854e-08
1.790619155858639848e-08
1.362180802582624912e-08
1.055470492796272922e-08
8.306205144677266577e-09
6.611249042407954774e-09
5.282957265395395891e-09
4.206831981251569524e-09
3.314969414865803345e-09
2.568404351233077398e-09
1.946281659281769802e-09
1.436994600505781070e-09
1.031808432860680085e-09
7.207046859600889818e-10
4.907220222777988154e-10
3.267342353875249802e-10
