# bin_15_13
1.636424020818930716e-10
1.838743942836194466e-10
2.029321334064667311e-10
2.190149491319153089e-10
2.298177390766796763e-10
2.329524538410701075e-10
2.258676564522930356e-10
2.067357812145183212e-10
1.789376746872615574e-10
1.475241340478806971e-10
1.212202682608660584e-10
1.039888262437531841e-10
8.845277466043788156e-11
6.532573450458155827e-11
4.616666979458243622e-11
3.755259038242234561e-11
2.492702863426878280e-11
1.893725626358188791e-11
1.301424947809854618e-11
9.020667534500893075e-12
6.336781352805081697e-12
4.454273601830176506e-12
3.158631470415778258e-12
2.268678929795762736e-12
1.662879550537066421e-12
1.242118815027007775e-12
9.436641933534408471e-13
7.262011975112770406e-13
5.622361468049484777e-13
4.347369700039540497e-13
3.333599995069106951e-13
