# bin_8_19
1.797784847296270792e-07
1.970769476548841367e-07
2.109975081492677027e-07
2.192320728213206108e-07
2.197859123220879627e-07
2.097963934008057511e-07
1.890806973027998098e-07
1.611129535485987121e-07
1.320748438686113591e-07
1.095006580256488847e-07
9.454996482941836578e-08
7.823421569715506967e-08
5.580405230742827686e-08
4.146841678203979629e-08
3.251753918053792160e-08
2.219804522066860563e-08
1.647189005946365664e-08
1.179070861751694170e-08
8.372876238968098329e-09
6.019494397704412934e-09
4.381029046739819635e-09
3.242641698952692985e-09
2.442029300948917484e-09
1.872218583274008426e-09
1.453705960924903247e-09
1.136686739839549590e-09
8.890366225094400556e-10
6.905537389817188199e-10
5.293941449675153009e-10
3.984809365698105777e-10
2.933045506718554425e-10
