# bin_1_1
6.031733849332129784e-08
5.721000587210778837e-08
5.133609360576037392e-08
4.365380891035061222e-08
3.587737674141914703e-08
2.983717813939294469e-08
2.556941847453176234e-08
2.090265016854519953e-08
1.519304107384778230e-08
1.139001285635857182e-08
8.812913926742674677e-09
6.295576673540166905e-09
4.708249204582593729e-09
3.466856550320401272e-09
2.588896528724113686e-09
1.967696137761673156e-09
1.523654190720597624e-09
1.200859509210280967e-09
9.589763606713015787e-10
7.712432688108136197e-10
6.197166762499757652e-10
4.938509218748782389e-10
3.876816629905073104e-10
2.980588488625538638e-10
2.234460601096792007e-10
1.629353666367159260e-10
1.155244267759552443e-10
7.976761750032284350e-11
5.378742222729586231e-11
3.553704898413067904e-11
2.308223487408313923e-11
