# bin_9_15
1.095604923904087030e-07
1.208030150372462635e-07
1.302713832464301296e-07
1.365983042778938093e-07
1.383779472911981645e-07
1.340958441928268669e-07
1.227177050606010675e-07
1.062053976028320925e-07
8.758716672547134011e-08
7.198031426361753868e-08
6.168004221018591924e-08
5.239613739845067972e-08
3.880735991487629267e-08
2.754902686593008264e-08
2.231553210440688828e-08
1.505953077683100176e-08
1.143149530603501775e-08
7.965409719814342718e-09
5.641504805864861388e-09
4.045845353761440684e-09
2.921353170750325510e-09
2.138197116793436331e-09
1.590040908227100011e-09
1.205557292403703569e-09
9.281237923403919703e-10
7.218780004252742081e-10
5.637666354865798040e-10
4.388614534056889243e-10
3.382668127213003117e-10
2.566799446794403706e-10
1.908855367332241728e-10
