# bin_11_8
3.018560941796475208e-12
3.336183717838984101e-12
3.608156534597695726e-12
3.797239217974170256e-12
3.862472064689497179e-12
3.765695952647996268e-12
3.468559591939372607e-12
3.021387489627334937e-12
2.499850020918636847e-12
2.048911631573602843e-12
1.748214157882194012e-12
1.497588378788077002e-12
1.128598920880332823e-12
7.894631080252282730e-13
6.424069610178400166e-13
4.364867483958616567e-13
3.311438852499245054e-13
2.283188943864902863e-13
1.621131166382966887e-13
1.160947518101296527e-13
8.361217736077305434e-14
6.092271793563383203e-14
4.506502483237650213e-14
3.399944677807278962e-14
2.607159750270584884e-14
2.022358861536699346e-14
1.577702384520898368e-14
1.228808629567154815e-14
9.489995759993510789e-15
7.223670168068371585e-15
5.394105352946175045e-15
