# bin_10_9
1.572581255968990460e-09
1.736064184242005632e-09
1.874944521339815472e-09
1.969714636145429547e-09
1.999563531883018222e-09
1.943721664678483848e-09
1.784491005144831402e-09
1.549380973541867295e-09
1.279562956180384775e-09
1.049883189941325640e-09
8.979210065412224253e-10
7.664717496743051619e-10
5.723993676384572477e-10
4.027507379710548095e-10
3.278599606699524179e-10
2.212007909470797184e-10
1.684137931165467259e-10
1.166605121268440878e-10
8.260041579439488719e-11
5.923150966463114090e-11
4.272905445954614179e-11
3.120497540848388986e-11
2.314397371433103346e-11
1.750599992860526981e-11
1.345217153248951793e-11
1.045007991414870080e-11
8.157811481285831096e-12
6.352760216312557238e-12
4.901796013376518720e-12
3.725570955596364338e-12
2.776392571815865893e-12
