# bin_1_10
6.693802714465962218e-07
6.478526893445919366e-07
5.939712596327497898e-07
5.155662999064951086e-07
4.277309045142250495e-07
3.524078103931880491e-07
2.993622772717357429e-07
2.521485032986201029e-07
1.914397933600228202e-07
1.386328973728744565e-07
1.086479221643828266e-07
7.861483014306056758e-08
5.832633475269060575e-08
4.265557848360696894e-08
3.171986959041092556e-08
2.385466937120767395e-08
1.826126970139188240e-08
1.424285148234926063e-08
1.128076415942809576e-08
9.028196797135845482e-09
7.247355954271800188e-09
5.791117926070724418e-09
4.574053591396472786e-09
3.548652393342328565e-09
2.690499068117869173e-09
1.986482908453759849e-09
1.426294422613029109e-09
9.964092066212129445e-10
6.788155027302929890e-10
4.523697548671209357e-10
2.958942351644808265e-10
