# bin_17_18
1.105287535659165233e-08
1.250660546705768173e-08
1.391940498264918735e-08
1.517874125057546049e-08
1.613428785609345313e-08
1.660150950253490443e-08
1.644313684109790724e-08
1.543129751052968317e-08
1.368209636219715348e-08
1.147007138427092646e-08
9.378570702253699513e-09
7.889381051129346618e-09
6.832818904303609845e-09
5.417300482848598236e-09
3.742073752058518404e-09
2.947829971446184489e-09
2.137082009956994349e-09
1.523607026426227250e-09
1.042516987174796326e-09
7.450233825530504020e-10
5.149033659112720498e-10
3.547049671768728816e-10
2.465901472653510482e-10
1.729022690811401657e-10
1.231725777135016536e-10
8.946334531748053261e-11
6.625433950789395736e-11
4.999659019141973753e-11
3.826461086740893662e-11
2.950902796439330410e-11
2.275838395295554871e-11
