# bin_10_1
3.446450428751085532e-40
3.724503753918716916e-40
3.917220402715506433e-40
3.982634841864777703e-40
3.881386563898399254e-40
3.574450390493763350e-40
3.113335100665658592e-40
2.575968575975856925e-40
2.110830181012162221e-40
1.799692628137725048e-40
1.541023928522221743e-40
1.163742170450261878e-40
8.162707775582156487e-41
6.638995404200451848e-41
4.556694415597506820e-41
3.465725431032412516e-41
2.419776690729627453e-41
1.744926520231891459e-41
1.270711426351190775e-41
9.342674359358891535e-42
6.971188260783181906e-42
5.287427939942778277e-42
4.082247291076558838e-42
3.191089577236419770e-42
2.509689950708716237e-42
1.972614750510221549e-42
1.538526793894115097e-42
1.183276059896482291e-42
8.926439050026314052e-43
6.577567467501344582e-43
4.721030695206616441e-43
