# bin_9_18
1.409516367399014446e-07
1.554341345687996148e-07
1.676418642297612302e-07
1.758168108184893309e-07
1.781452396242072769e-07
1.726867996533704065e-07
1.580880235357526635e-07
1.368633010027368224e-07
1.128907515925860746e-07
9.276245019621692751e-08
7.947003497543726625e-08
6.753743060205562933e-08
5.006869502597707304e-08
3.551666846070891582e-08
2.877491301103442722e-08
1.942717937393805366e-08
1.474524977157810979e-08
1.026920335427876573e-08
7.274334981160607088e-09
5.216331953412117668e-09
3.765909819594579240e-09
2.755678010452343891e-09
2.048648115305462013e-09
1.552861511004823912e-09
1.195251503520162476e-09
9.295119358119494932e-10
7.258800285314988232e-10
5.650721258875164578e-10
4.355914527311683401e-10
3.305844846501654487e-10
2.458989720017272563e-10
