# bin_6_3
4.688696440173657329e-13
4.968060850956908446e-13
5.097214242209370125e-13
5.032370110363517441e-13
4.708612418895304342e-13
4.164565292934820175e-13
3.486462672685600646e-13
2.850894808852017917e-13
2.398175152142421832e-13
2.070102313334776655e-13
1.636549238682387581e-13
1.143468067148361360e-13
9.019909082558428283e-14
6.611992983152195407e-14
4.810209496733527650e-14
3.431876957540331678e-14
2.524949115299700702e-14
1.843069907743915917e-14
1.361654202713874214e-14
1.024389239629358324e-14
7.842074434380356894e-15
6.103345839123563726e-15
4.806270330569974723e-15
3.803169607010788996e-15
3.003138926192650720e-15
2.349979199391963096e-15
1.810695066708989566e-15
1.366530556633420754e-15
1.006056710281312752e-15
7.206897404421574540e-16
5.022150200896849191e-16
