# bin_4_7
1.722286995590770227e-07
1.809979614673527395e-07
1.839416008481021131e-07
1.791982494829015475e-07
1.651304641603309881e-07
1.439223939131703711e-07
1.193077834824181710e-07
9.787266448925261393e-08
8.325126395110884826e-08
7.103846918342909865e-08
5.399081767988734823e-08
3.823853151779717175e-08
3.064850961249924288e-08
2.158629130883059715e-08
1.617860291602270978e-08
1.151383256547000639e-08
8.425759377702391901e-09
6.203378425732373773e-09
4.626983101488075833e-09
3.512744006628596581e-09
2.711886269101581311e-09
2.125832773239280248e-09
1.681632858684608947e-09
1.332926729753221396e-09
1.051287469299444088e-09
8.194092803384780305e-10
6.274070736452503196e-10
4.696253033847684846e-10
3.424543170717620749e-10
2.428977292214190701e-10
1.676742224548092028e-10
