# bin_6_19
2.621828689012187667e-07
2.828775330728991497e-07
2.969125487991466887e-07
3.012031669000683475e-07
2.925855726570577305e-07
2.685866450704369347e-07
2.331823841398319508e-07
1.927203749988218086e-07
1.582167497024561055e-07
1.351201639780898195e-07
1.150622593879049600e-07
8.625057804835977152e-08
6.110898234691632855e-08
4.934120012829420006e-08
3.397430648603598402e-08
2.569070819795378133e-08
1.807235894075682814e-08
1.303884789996571467e-08
9.493978648199910551e-09
6.984743584930451233e-09
5.221364274482053382e-09
3.968410343352821738e-09
3.068762261436370798e-09
2.401326866707280531e-09
1.889327438841405649e-09
1.484606121234255412e-09
1.156879599868919704e-09
8.884940851808176484e-10
6.690351866353879281e-10
4.919317303162143248e-10
3.522950712889988816e-10
