# bin_16_13
1.091875267226755670e-11
1.228946932789546834e-11
1.359082303594799811e-11
1.470474811945779140e-11
1.547866524063950585e-11
1.574492214750326998e-11
1.534693354572219946e-11
1.412831695352665221e-11
1.229972742812181908e-11
1.017175419822215637e-11
8.340069640045807286e-12
7.125642115488265821e-12
6.103546422107764336e-12
4.581474809071357179e-12
3.199014200204527796e-12
2.606478079680401281e-12
1.747191881589400955e-12
1.323664622319085300e-12
9.004843274668351365e-13
6.262645554878543467e-13
4.394786278225248565e-13
3.084289081327007417e-13
2.177402731430285441e-13
1.554697266173279146e-13
1.132390243152644153e-13
8.408387323086248840e-14
6.355412016268854619e-14
4.873472346304335219e-14
3.766821244905802152e-14
2.913385618798092585e-14
2.238465457966241146e-14
