# bin_12_2
5.848937368820469409e-43
6.403874086183377762e-43
6.845710370740932477e-43
7.098777593098245246e-43
7.100714360825270318e-43
6.755233775001551898e-43
6.067540952194218122e-43
5.151342146434402992e-43
4.217284194959500258e-43
3.504084714851141862e-43
3.031060202435483918e-43
2.492405093638961054e-43
1.761158755533241734e-43
1.324794646298577339e-43
1.028910773715777007e-43
7.059603260884476643e-44
5.194947488142584244e-44
3.747301651507803192e-44
2.665119049365581691e-44
1.915853542551507458e-44
1.397053806493006677e-44
1.036763311699170640e-44
7.830540203237958958e-45
6.018271458179293823e-45
4.681691994475879308e-45
3.664907700911156936e-45
2.867271132469512097e-45
2.225993027488545136e-45
1.704408430971110166e-45
1.280594089939587200e-45
9.403819970978649053e-46
