# bin_8_6
8.880575876077869726e-11
9.654835458692871636e-11
1.023074001965565232e-10
1.049329460643115228e-10
1.035334631604648114e-10
9.675501762123034335e-11
8.546450379507614618e-11
7.144290785900437567e-11
5.840941350390604623e-11
4.922284334675901006e-11
4.252373389303672820e-11
3.344775229359682360e-11
2.323953581189221951e-11
1.845233925337929421e-11
1.335184392400477897e-11
9.738969029205493160e-12
6.827620407580396397e-12
4.988374103919588489e-12
3.594990409732926207e-12
2.612691945076153850e-12
1.930788278001749494e-12
1.450524664514248434e-12
1.109635280044357204e-12
8.614989472368350860e-13
6.747880450863725575e-13
5.298610917622557573e-13
4.141312862627770210e-13
3.200344288873428923e-13
2.431534917606274727e-13
1.808059672276946805e-13
1.311313817966454252e-13
