# bin_10_11
2.315085437653106942e-08
2.562441905099015216e-08
2.776349065491429020e-08
2.928446320377433394e-08
2.986503874341723517e-08
2.922655176644232512e-08
2.703875390479022353e-08
2.365356521259474626e-08
1.962634172156682658e-08
1.607014284410892325e-08
1.366472950842135549e-08
1.174664113941572593e-08
8.963538207097044314e-09
6.239230065461386406e-09
5.052321326146117252e-09
3.483911394648150793e-09
2.615833239811711784e-09
1.798100958112852119e-09
1.283862863031633356e-09
9.167613637127451776e-10
6.581224753509321618e-10
4.780445377904070186e-10
3.523836113819530512e-10
2.649091018797364996e-10
2.025351840371651389e-10
1.567651863206185579e-10
1.221617813320833751e-10
9.514821692622181008e-11
7.355781014065183162e-11
5.609692573270480018e-11
4.199755401379886582e-11
