# bin_15_15
5.393885008338187299e-09
6.071669749422586063e-09
6.715462087680276501e-09
7.267011703383456809e-09
7.650979159046872001e-09
7.784359826058823998e-09
7.590104665603825799e-09
6.990229328829025627e-09
6.087894074932825708e-09
5.036017519616197152e-09
4.128873642658976746e-09
3.526478536232129978e-09
3.021466011840579557e-09
2.270695271947844749e-09
1.585017501605116270e-09
1.290537060888800714e-09
8.666648240621821929e-10
6.557638098823569593e-10
4.459140574343530282e-10
3.103956286215583162e-10
2.177401684650236819e-10
1.527582172671142192e-10
1.078076279876373734e-10
7.694580084671948009e-11
5.601887085349614032e-11
4.157728781954092542e-11
3.141318229539747313e-11
2.408097790897712446e-11
1.860944863727152655e-11
1.439260078174538762e-11
1.105938560298061375e-11
