# bin_10_15
8.426999885324857319e-08
9.338452986355978843e-08
1.013278576978359716e-07
1.070738243272149089e-07
1.094305945207161962e-07
1.074137207319063350e-07
9.973113674061183214e-08
8.754621597895980541e-08
7.282494693189583617e-08
5.959590408467873301e-08
5.052912544033149261e-08
4.353169848617568162e-08
3.355910495561827273e-08
2.330457745644771178e-08
1.875774524455260602e-08
1.311512888296873835e-08
9.740316512913240461e-09
6.700561158595251761e-09
4.804323881670847480e-09
3.421036543634346131e-09
2.448016438870584810e-09
1.773485858554215063e-09
1.303601693418933728e-09
9.770419037821577794e-10
7.450834152587989523e-10
5.756014934103450802e-10
4.480741025910811254e-10
3.489514376600707321e-10
2.699702511067054416e-10
2.061899181569261195e-10
1.546865130543416896e-10
