# bin_9_2
5.945651336340647598e-28
6.405214447415135432e-28
6.710162373296577430e-28
6.792020479639992376e-28
6.575947081327169482e-28
6.012478714785912046e-28
5.199318346926620105e-28
4.285113748390797585e-28
3.520636691248053992e-28
3.016853334508447479e-28
2.561743983295508319e-28
1.896862755770289068e-28
1.349802118498150815e-28
1.096325901300675410e-28
7.435150770871165260e-29
5.684676791606821844e-29
4.008010647690053003e-29
2.878039637227714137e-29
2.101034937122563885e-29
1.549812344781690956e-29
1.161579130720027491e-29
8.852204916731960264e-30
6.862511558171450283e-30
5.379730210073872238e-30
4.237170008012085099e-30
3.330240682210549817e-30
2.593508506935780733e-30
1.989176796118387057e-30
1.494873109532714037e-30
1.096342482087154737e-30
7.828144625601359145e-31
