# bin_2_15
5.804229026483563375e-07
5.843492973686782428e-07
5.621711321735853083e-07
5.115654454243193696e-07
4.405754417526930888e-07
3.634723667634627888e-07
2.999645310003185033e-07
2.564140364293947571e-07
2.147049354557154964e-07
1.593333397411035630e-07
1.160363593884729334e-07
9.163716861075132244e-08
6.482075894942198966e-08
4.857229054077810638e-08
3.521828131577646190e-08
2.600872059864603944e-08
1.945775243928550564e-08
1.480022452287439335e-08
1.146637369138875195e-08
9.022708605335626516e-09
7.181037067546678076e-09
5.738109796393170846e-09
4.569338557439121261e-09
3.600820964340811537e-09
2.790132128969515699e-09
2.114554929600115397e-09
1.561450662645408244e-09
1.121333789724992041e-09
7.833444169342118604e-10
5.334380826513667722e-10
3.552121403676423117e-10
