# bin_13_8
2.467217336501519298e-16
2.741847284534373932e-16
2.985456443103531792e-16
3.168439105325753042e-16
3.254741243742330678e-16
3.217360256168153251e-16
3.012601266874698313e-16
2.665687741339622040e-16
2.230874804530909900e-16
1.823658215641466053e-16
1.535733897579151096e-16
1.328942568251149988e-16
1.048828914931770236e-16
7.254597946759516149e-17
5.748254905743733357e-17
4.155606609509109152e-17
3.003248953453036695e-17
2.074824161630154066e-17
1.502519020780039098e-17
1.062652406096192764e-17
7.543329266470732113e-18
5.431528601656434113e-18
3.966585080116378182e-18
2.951861087117920933e-18
2.237361944483177124e-18
1.720435426503168860e-18
1.335754783088005104e-18
1.039859216726265723e-18
8.058475719130663492e-19
6.175821857348627897e-19
4.655649854374451067e-19
