# bin_10_5
1.065385254758119250e-17
1.164803815154711468e-17
1.242957024554721452e-17
1.285976959179312161e-17
1.282877124314693386e-17
1.215978372562746329e-17
1.088414062376618392e-17
9.208567843078040647e-18
7.533766341587441959e-18
6.277160390585650370e-18
5.432777587489575013e-18
4.430605297667366513e-18
3.111647218726834801e-18
2.369984006542571429e-18
1.815671908627899661e-18
1.259762851597554213e-18
9.158738556512502771e-19
6.646198896392478607e-19
4.738487714392909592e-19
3.410441435740750302e-19
2.493871313975097689e-19
1.855637348173483204e-19
1.405466088850350100e-19
1.082662008308683662e-19
8.435871215955948912e-20
6.609307048413738825e-20
5.170702575797493848e-20
4.010979474968475475e-20
3.066528569764890222e-20
2.299238648899707148e-20
1.684115938338854403e-20
