# bin_15_3
1.606843900608958714e-50
1.782330969627738620e-50
1.936186208661555187e-50
2.048928354622287853e-50
2.097417206923802017e-50
2.063619150455177272e-50
1.921133758598170598e-50
1.690727484899612185e-50
1.408627690408211556e-50
1.151939405171522971e-50
9.747272463985220571e-51
8.417282330259518622e-51
6.535428009776043244e-51
4.521924788414923691e-51
3.633149152010118521e-51
2.560340997295132622e-51
1.892314713421281936e-51
1.296640698482677095e-51
9.336795130800352302e-52
6.637408246664186258e-52
4.740959509489688518e-52
3.428765477321143674e-52
2.515205551981815423e-52
1.881248709441761118e-52
1.432153731668956853e-52
1.105011547504933026e-52
8.596772077702502008e-53
6.695552023736294152e-53
5.183670726596610515e-53
3.963758243399625204e-53
2.978413251862669011e-53
