# bin_6_12
1.772062730967102148e-07
1.911398422350546196e-07
2.005524043636441528e-07
2.033683641853401215e-07
1.974340731554324712e-07
1.811226051868556235e-07
1.571467100527080060e-07
1.298312177614881908e-07
1.066107832902029849e-07
9.108824812310555941e-08
7.751125839105152177e-08
5.800118577704148368e-08
4.114134018343385223e-08
3.321870844998763042e-08
2.284648921977168988e-08
1.728705344259421811e-08
1.216768661446527417e-08
8.775817468611536497e-09
6.391708585802089174e-09
4.704153505220074230e-09
3.517993511660920653e-09
2.674936363947054613e-09
2.069297633474097639e-09
1.619664906622618790e-09
1.274502820381232286e-09
1.001486772542593047e-09
7.803071181580761490e-10
5.991366314942326471e-10
4.509950982703133644e-10
3.314701725768536476e-10
2.372700144339047960e-10
