# bin_8_8
1.127568542867372640e-08
1.232059465875652299e-08
1.313761651510815454e-08
1.358006468538087038e-08
1.353188405476891984e-08
1.280799705700714407e-08
1.144948449937476998e-08
9.675856063288414699e-09
7.915976457835869847e-09
6.603205200025903688e-09
5.713363818165695005e-09
4.642413601254910546e-09
3.258205841103901622e-09
2.491560986953534845e-09
1.897923253242226848e-09
1.323860656359251864e-09
9.587617794249361538e-10
6.960227803278293769e-10
4.967719130830130480e-10
3.579476463108509978e-10
2.620296255197973586e-10
1.951481467578341541e-10
1.479470293238857493e-10
1.140521525468182238e-10
8.891087973167904678e-11
6.967305783166067836e-11
5.450103646178449458e-11
4.226024441221201977e-11
3.228876309091316168e-11
2.418950830987810668e-11
1.770077237766531333e-11
