# bin_17_14
6.866332112452425636e-08
6.443545176704340654e-08
5.894032921272441622e-08
5.247262366544307101e-08
4.544983134278129242e-08
3.835729897688191320e-08
3.165980647206635536e-08
2.568665205568320999e-08
2.056085723127514848e-08
1.622389549541843684e-08
1.255313118170703850e-08
9.503840799710545493e-09
7.110856114554500531e-09
5.329384475614078036e-09
3.989595761862352987e-09
2.982931170902904239e-09
2.249844565020893058e-09
1.707152634033726171e-09
1.306189508918024912e-09
1.005593309621237202e-09
7.769111238770233280e-10
6.002288163405826665e-10
4.619276884039788661e-10
3.527810091426439909e-10
2.664482502514394408e-10
1.984565001674793632e-10
1.454462390214370119e-10
1.047229444544379918e-10
7.400900907014714034e-11
5.132303998405489875e-11
3.493572725396475245e-11
