# bin_7_1
1.668889706404785534e-08
1.396460957201459980e-08
1.145150687632304574e-08
9.252160213592955288e-09
7.384950956597823053e-09
5.805058833892996275e-09
4.468908206116780468e-09
3.381251821202854121e-09
2.555322417815025829e-09
1.942247673151739028e-09
1.476824787403977927e-09
1.133227123901431290e-09
8.788617484699956010e-10
6.884647897001743822e-10
5.436275513053769900e-10
4.310969363835955271e-10
3.417319109751700448e-10
2.694888905056019844e-10
2.104638095280865636e-10
1.621310730670719713e-10
1.227972764717895803e-10
9.121586073708696693e-11
6.634327546683077581e-11
4.721054888461177285e-11
3.287487367927891660e-11
2.242393909883993832e-11
1.500787892211861110e-11
9.876936269489799750e-12
6.406770440049381980e-12
4.105648231942640139e-12
2.604911004741128889e-12
