# bin_16_2
2.465323277883540999e-08
2.110484502110461959e-08
1.762081663424480474e-08
1.442333393787139239e-08
1.164036191396445141e-08
9.284023514682293579e-09
7.284717262559829770e-09
5.587536124224457715e-09
4.212702284247907416e-09
3.180427718643166671e-09
2.412372541752410828e-09
1.827326748514826714e-09
1.399179275176653620e-09
1.081417727638426229e-09
8.446069806386783841e-10
6.648583892638008602e-10
5.256731734367490841e-10
4.155569781521688801e-10
3.268851298376149992e-10
2.547131303042266144e-10
1.958205312220434571e-10
1.480423327692395208e-10
1.097849326982677177e-10
7.972448988625057240e-11
5.664719316596941610e-11
3.938645586178712360e-11
2.682366354100297383e-11
1.792355450078268863e-11
1.177629750742031939e-11
7.626108250658638832e-12
4.879013772704016005e-12
