# bin_16_9
5.584909838208979037e-08
5.141659002070096719e-08
4.608001525262719387e-08
4.017020597849040021e-08
3.409371882789885368e-08
2.826566711521738155e-08
2.300984530068618029e-08
1.847712759586389007e-08
1.464425764193334348e-08
1.139668082582456242e-08
8.671055062356558524e-09
6.501384972535366225e-09
4.883435256191587069e-09
3.672469738078441565e-09
2.754415629107463289e-09
2.086424283930085179e-09
1.590603214396976874e-09
1.223826301775189111e-09
9.479658886163273003e-10
7.372382072194861562e-10
5.734940671856342740e-10
4.443825474083377333e-10
3.416283964463655984e-10
2.596129159225983309e-10
1.944261491326703232e-10
1.431557873838915021e-10
1.034552730746559347e-10
7.330955590947114910e-11
5.092252583949386225e-11
3.468827230511465775e-11
2.319709717501313812e-11
