# bin_14_7
4.771051030310740384e-08
4.330708282935321065e-08
3.824553336788571590e-08
3.286046196442501935e-08
2.752671689633580463e-08
2.258432088878709397e-08
1.824510409280894904e-08
1.455756699216166432e-08
1.144065194356042415e-08
8.800990080047393487e-09
6.635408143603542782e-09
4.979461813096870004e-09
3.755737348808711524e-09
2.823522423983044441e-09
2.134982558881592909e-09
1.628904179064448220e-09
1.253498441515470924e-09
9.721971764991322447e-10
7.581933812553669414e-10
5.923162451340284884e-10
4.615744288764739458e-10
3.572870103440052178e-10
2.736380952040922276e-10
2.066592791197036241e-10
1.534930774285900800e-10
1.118959878623541800e-10
7.996257111306919727e-11
5.598689411101602213e-11
3.841610003841529421e-11
2.585716734554332197e-11
1.709868176328480599e-11
