# bin_19_6
4.645498998549485016e-08
4.198228478564722833e-08
3.689580888210407510e-08
3.154177764722921451e-08
2.630134787651818053e-08
2.150358641318847077e-08
1.733266993348105123e-08
1.380304453519631061e-08
1.081055154022961406e-08
8.272540410819164840e-09
6.216278512453333473e-09
4.673144706428272524e-09
3.526331637803384689e-09
2.650055569601213085e-09
2.011505913627100953e-09
1.537996942299132672e-09
1.187685776240951821e-09
9.240652616268474128e-10
7.224792631668211495e-10
5.653877969642239603e-10
4.409216077858617176e-10
3.412099887138680064e-10
2.609906178454335249e-10
1.966728585304601086e-10
1.456328930412949774e-10
1.057691550947871276e-10
7.526043073634980602e-11
5.245000230034695883e-11
3.581737412069539818e-11
2.399566387075153876e-11
1.579918324378047582e-11
