# bin_12_3
2.913888491253375342e-08
2.532199524510646832e-08
2.142542740260213703e-08
1.771761349340546580e-08
1.439957789801010886e-08
1.155577181474959590e-08
9.154214913213217132e-09
7.114123345294071546e-09
5.406618483974855486e-09
4.066788293615887500e-09
3.076499242593661828e-09
2.328407193535838454e-09
1.766227622941769576e-09
1.355536930273488067e-09
1.049358861627884075e-09
8.201412802328916029e-10
6.451818380936179007e-10
5.088674180358652253e-10
4.005726867609282589e-10
3.132670058581042339e-10
2.423597308373160725e-10
1.848060180944887846e-10
1.384839645346821391e-10
1.017557994588496269e-10
7.321372490842705756e-11
5.155506698729082533e-11
3.554239656695879525e-11
2.401692861656744452e-11
1.593573964175332263e-11
1.040575840000445273e-11
6.702720985495779447e-12
