# bin_18_2
2.497687355895444964e-08
2.139216879698977539e-08
1.786732456513544695e-08
1.462915305768601318e-08
1.180936632769416344e-08
9.421596729709025908e-09
7.395136620753622338e-09
5.673441057396383231e-09
4.277290378269664158e-09
3.228758110558528875e-09
2.448813904102956818e-09
1.854479064303298301e-09
1.419597154648971619e-09
1.096917759954617896e-09
8.565362594360915463e-10
6.741633537911491857e-10
5.330165823953063475e-10
4.213950949505730947e-10
3.315348759671763763e-10
2.584014882566074917e-10
1.987181767377943837e-10
1.502859381724531213e-10
1.114903217191502999e-10
8.099329981680232077e-11
5.756947715499418529e-11
4.004100699254651898e-11
2.727745835192616097e-11
1.823136037453460003e-11
1.198102867132761084e-11
7.759989899809247505e-12
4.965322686055397750e-12
