# bin_10_3
2.820086762706769190e-08
2.446893700378255338e-08
2.067719957767791035e-08
1.708239909156427004e-08
1.387304481129457284e-08
1.112493353490688686e-08
8.804601021619159695e-09
6.835922677119597928e-09
5.193188105941139702e-09
3.907519124038698975e-09
2.956904236808481869e-09
2.238683407998822271e-09
1.699590994663488769e-09
1.305344393374728853e-09
1.011275691858326881e-09
7.908234798012997994e-10
6.223154283495859657e-10
4.908425340400981075e-10
3.862768331119620594e-10
3.019221975990820152e-10
2.334030602573742738e-10
1.778093026621012137e-10
1.331008869404998769e-10
9.769188264415828275e-11
7.021141948017032658e-11
4.938807098850511832e-11
3.401497307193209996e-11
2.296484271460747452e-11
1.522638678161070575e-11
9.936499079681440985e-12
6.397325921150338825e-12
