# bin_18_7
5.019735060957410475e-08
4.571364982368018822e-08
4.049767910891943397e-08
3.489311461138262096e-08
2.929555879636362607e-08
2.407598868610115684e-08
1.947631263579488332e-08
1.556331534010339499e-08
1.225481212618960447e-08
9.443856953226336872e-09
7.122877190089969343e-09
5.341265722689514547e-09
4.027332818287124161e-09
3.024947026197577062e-09
2.283524542853710195e-09
1.739664351676889188e-09
1.336652295775166377e-09
1.035383777712844450e-09
8.068289714954042603e-10
6.301521209320436161e-10
4.912112315178934864e-10
3.805472584782285782e-10
2.918314885590928702e-10
2.207663464361411380e-10
1.642877007425175387e-10
1.200166711967294123e-10
8.595151321706188512e-11
6.030875726020116090e-11
4.146521024430534547e-11
2.796058611912242403e-11
1.851909622984617208e-11
