# bin_10_5
3.693970608211333680e-08
3.281872009578978572e-08
2.836845561945106206e-08
2.389420218920024424e-08
1.968927316609178506e-08
1.595726164555143598e-08
1.276932120619503011e-08
1.007815232252967504e-08
7.799799592580432442e-09
5.910877229569637810e-09
4.441749538464846987e-09
3.355405745244920388e-09
2.533589260116757523e-09
1.918627651856897739e-09
1.468789568872575985e-09
1.133541314712522437e-09
8.825191057444532586e-10
6.911631189200256113e-10
5.424461284891152686e-10
4.247861941223180933e-10
3.304614820508367929e-10
2.543599731048734655e-10
1.930304915259802250e-10
1.440235968310344136e-10
1.054306311200589074e-10
7.562191788035486611e-11
5.311846478928668525e-11
3.654868683591009185e-11
2.465839856650102860e-11
1.633978071826246900e-11
1.065665165657927623e-11
