# bin_3_3
2.018355927186067289e-08
1.717965956428123901e-08
1.428553843695865122e-08
1.165764413647987264e-08
9.377371594684657683e-09
7.446669714389547287e-09
5.819868636871049358e-09
4.461224595189302685e-09
3.372092503164588354e-09
2.548960455405174483e-09
1.936544448758446761e-09
1.473238640813804805e-09
1.131155916124266408e-09
8.770917237504925542e-10
6.863051553435951175e-10
5.406079474139500187e-10
4.271209393469107343e-10
3.369504032722593289e-10
2.642067372493370858e-10
2.050435985104208375e-10
1.569168759440961541e-10
1.180630903395137661e-10
8.713847750204268281e-11
6.299811721390671652e-11
4.458562046464942182e-11
3.089614441782579569e-11
2.098402126093121885e-11
1.399141762009229705e-11
9.177650515465341995e-12
5.935940567150625661e-12
3.794240347044028880e-12
