# bin_6_19
3.018123641604877294e-07
3.240994961539253370e-07
3.381669274335031374e-07
3.407359077729477876e-07
3.277696445780119565e-07
2.977674792558421320e-07
2.558351223980677195e-07
2.103729918372183179e-07
1.735086774561759614e-07
1.491162860372444640e-07
1.251794712168483490e-07
9.133865500368951741e-08
6.627250645079971781e-08
5.301533893535882699e-08
3.621905560084365751e-08
2.737992273359457524e-08
1.951619637881214970e-08
1.404424837547860264e-08
1.026216427981883183e-08
7.594690435429687589e-09
5.717901200880783822e-09
4.381458381317569371e-09
3.411045530589273402e-09
2.683156302669808276e-09
2.118284238110751862e-09
1.666721465843265368e-09
1.298044762457377518e-09
9.947165746969497660e-10
7.463487053415428058e-10
5.462287918413748416e-10
3.891575990669425318e-10
