# bin_6_10
1.559828494080936276e-07
1.674075246606542326e-07
1.745498207325371415e-07
1.757330835179391134e-07
1.688469544087671898e-07
1.532058289810220058e-07
1.314695684983589482e-07
1.080524876158292428e-07
8.917638626804343179e-08
7.668833526533264965e-08
6.425191798242608356e-08
4.674167347314214968e-08
3.402794175640794238e-08
2.716510886883680954e-08
1.856442173750386978e-08
1.401810930248150904e-08
1.001079469097752765e-08
7.204205204156784827e-09
5.265765799796781172e-09
3.899496014271585330e-09
2.938221128757155424e-09
2.253294964218059417e-09
1.755387284953437877e-09
1.381410861573036751e-09
1.090797236951322565e-09
8.582112820952811563e-10
6.681730496896530216e-10
5.117711435567010579e-10
3.837241511014521183e-10
2.806038190756799498e-10
1.997370414134118851e-10
