# bin_8_14
1.471813039941215025e-07
1.606373233687989308e-07
1.710531698096359868e-07
1.765145853294495930e-07
1.755171801809682587e-07
1.656830803459856035e-07
1.477371221538488050e-07
1.245695545297431732e-07
1.018987430035918157e-07
8.518189440547017264e-08
7.367837501403148804e-08
5.946139396375855589e-08
4.164492062422486223e-08
3.209310568765427363e-08
2.418333114218551663e-08
1.702583776385473937e-08
1.224111220175650439e-08
8.896801333361451137e-09
6.361849992179817437e-09
4.592341299393498235e-09
3.368796569019827382e-09
2.514534033227581785e-09
1.911296336794178444e-09
1.476526950458150244e-09
1.153450692727549855e-09
9.054213131994572741e-10
7.091497092335902038e-10
5.503957109422599431e-10
4.208141438071138694e-10
3.154076151777183839e-10
2.308771974434896923e-10
