# bin_13_14
1.884198224613209953e-08
2.103048681388563283e-08
2.302229314899232784e-08
2.459809052833041025e-08
2.548318402766550859e-08
2.545636251690030033e-08
2.416755265235753316e-08
2.166173062980646985e-08
1.835076248534124987e-08
1.501915264526656834e-08
1.250824100575094770e-08
1.083103991302159200e-08
8.853999500721671322e-09
6.213740209624407884e-09
4.709398508812972321e-09
3.608937113937868888e-09
2.475732444688438829e-09
1.787892722335447922e-09
1.280127463141098498e-09
8.954718018622774823e-10
6.294652744364243145e-10
4.477367128195894323e-10
3.231971957641868755e-10
2.374106366750424422e-10
1.777911175639086749e-10
1.354410463616414211e-10
1.045331174821996869e-10
8.122773418693818892e-11
6.309012968422119954e-11
4.863728803733347651e-11
3.699151096665477223e-11
