# bin_18_16
2.366067648122712415e-10
2.670140800770306456e-10
2.962292431294159516e-10
3.217722027975246193e-10
3.403763063019338404e-10
3.481839194008293138e-10
3.421749699419651948e-10
3.180205519875189944e-10
2.794245294417734097e-10
2.324924722633849266e-10
1.902201836016581670e-10
1.613209904103958717e-10
1.392429353588807324e-10
1.073686398909836860e-10
7.418147254141906866e-11
5.982711331155739277e-11
4.146405798163703124e-11
3.072706541158808228e-11
2.070279560304514434e-11
1.461580895331778216e-11
1.018365919256460251e-11
7.090401515479163903e-12
4.963095220375035080e-12
3.510450721482882426e-12
2.527081641141080135e-12
1.855265533474579145e-12
1.388618179200504284e-12
1.057176175529659900e-12
8.140477860605861655e-13
6.296099724988361153e-13
4.854433820187648517e-13
