# bin_13_6
2.911505255542047758e-23
3.211790804879067730e-23
3.465657012606607878e-23
3.636867364060849859e-23
3.687370038763639319e-23
3.577987201494698566e-23
3.278085320009279418e-23
2.840342810584831352e-23
2.342852531097071277e-23
1.923524833216820573e-23
1.647688536411848773e-23
1.403464961924538971e-23
1.041805173507222218e-23
7.355319659319090942e-24
5.992904827955699697e-24
4.020753003106801918e-24
3.069894246307606739e-24
2.132666758775176737e-24
1.506615934855465552e-24
1.081079803543965901e-24
7.804918524217399542e-25
5.706361460017907217e-25
4.242909453467146237e-25
3.215249360351150277e-25
2.475516109505443225e-25
1.926734674365789677e-25
1.506429354576125893e-25
1.174573174136321296e-25
9.072249995538881875e-26
6.901044979156263989e-26
5.146401850116868623e-26
