# bin_13_12
1.643816299932994933e-09
1.831419988152538038e-09
2.000414923563123211e-09
2.131403599502667388e-09
2.200258584233818388e-09
2.188640753427893776e-09
2.065900599260456956e-09
1.841736811537082263e-09
1.551907990757492311e-09
1.269085293626280103e-09
1.061739716654862257e-09
9.197430616261408766e-10
7.416061777894017184e-10
5.159673292193947479e-10
3.988264264968695053e-10
2.986123034144712616e-10
2.089413630151681623e-10
1.477689796564754102e-10
1.067323808886742856e-10
7.497190726656484248e-11
5.283408138710399311e-11
3.777125784494132195e-11
2.740399491357813042e-11
2.024291111160705940e-11
1.523977093832989918e-11
1.166122988925061257e-11
9.028282137152544560e-12
7.025774754640628817e-12
5.455962970014947378e-12
4.199018522425004899e-12
3.184375615631930467e-12
