# bin_10_15
9.863849191389500891e-08
1.088926249965435470e-07
1.176077557676274347e-07
1.235604481120732717e-07
1.254426122364656741e-07
1.219621901199103166e-07
1.120035468090243645e-07
9.727354951345466346e-08
8.036225415563487610e-08
6.594602442180788384e-08
5.638090600345715528e-08
4.811267945829474218e-08
3.596818519309191792e-08
2.532771767694012149e-08
2.056871373225768491e-08
1.392643735305575214e-08
1.056768912464400759e-08
7.321670712445101292e-09
5.190899443024535784e-09
3.718943379410462736e-09
2.680904732709161981e-09
1.956772392016629682e-09
1.452085600996838190e-09
1.098240401688002296e-09
8.441741935384127668e-10
6.562503322185733713e-10
5.127722918399211469e-10
3.997984461849905168e-10
3.089548858175133002e-10
2.352411995338387741e-10
1.756661005695409388e-10
