# bin_3_9
3.752879289773867870e-07
3.850353859240282422e-07
3.801373317919537505e-07
3.560865509527624449e-07
3.153657975964712291e-07
2.646981700159779665e-07
2.167626053982715467e-07
1.819910494912831037e-07
1.565158565438398899e-07
1.242746004171391602e-07
8.795039521182048737e-08
6.842811169502495850e-08
5.091322852409599201e-08
3.683305784491207401e-08
2.682740237563048343e-08
1.976604147157502163e-08
1.457833888474049341e-08
1.092447403093134496e-08
8.340845253674137276e-09
6.483895114431305646e-09
5.116179424077867149e-09
4.074130195038980899e-09
3.250694600551037417e-09
2.579838775440235943e-09
2.022634778258582842e-09
1.557108816879120888e-09
1.171272183527061965e-09
8.580431123288838618e-10
6.112695824465882766e-10
4.238590025374094240e-10
2.867465081292071034e-10
