# bin_16_10
8.583439706064202714e-18
9.596235248451684782e-18
1.052635183082183168e-17
1.127518339253212868e-17
1.171867211892661981e-17
1.175046238685579253e-17
1.121373061042851242e-17
1.010006003300909280e-17
8.598592202483831737e-18
7.044345414696364698e-18
5.843588491819673887e-18
5.055941362235291300e-18
4.181025504088748703e-18
2.960861316037348103e-18
2.204730633555772158e-18
1.722962577792681554e-18
1.163444126336296995e-18
8.558601388007171125e-19
6.070726020524636382e-19
4.231789460751678016e-19
2.970606886696181435e-19
2.103670269422159119e-19
1.511534702385800248e-19
1.104664526080170557e-19
8.231956833354001107e-20
6.244720064902707153e-20
4.804918294094583949e-20
3.727894755133160308e-20
2.895474853269788249e-20
2.235338153126783342e-20
1.704468065187271624e-20
