# bin_6_15
2.547212976384797114e-07
2.735007399994715490e-07
2.853319160948601098e-07
2.874534223742109724e-07
2.764505476613292747e-07
2.510858295290041215e-07
2.156751683155238273e-07
1.773317948831101019e-07
1.462762095824227624e-07
1.257279515059556032e-07
1.055048292994100723e-07
7.693745879295250389e-08
5.586013573832663001e-08
4.466781810093958778e-08
3.051804536298422374e-08
2.306514426079021927e-08
1.644672507794540116e-08
1.183547099648764490e-08
8.648734125126686274e-09
6.401443315845924685e-09
4.820290722135582656e-09
3.694234768941048262e-09
2.876402641143453417e-09
2.262798451134234197e-09
1.786489545963062854e-09
1.405638467146752483e-09
1.094647453596558094e-09
8.387644989486240704e-10
6.292504819158589090e-10
4.604535400466399570e-10
3.279901723558623460e-10
