# bin_19_18
1.467091509611594296e-09
1.660111020910880292e-09
1.847784988181290500e-09
2.015194002346333356e-09
2.142390085122098422e-09
2.204824656886472652e-09
2.184397311307529601e-09
2.050630608424541474e-09
1.818650423447559061e-09
1.524942459803325099e-09
1.246823669400287907e-09
1.048624108596618350e-09
9.083637370694601494e-10
7.207743784001685414e-10
4.977058489092785600e-10
3.919103310809913839e-10
2.844469485339156751e-10
2.025423831907850385e-10
1.385114347581717087e-10
9.904460050750224800e-11
6.839391073116088376e-11
4.705775836520379642e-11
3.267405468741913217e-11
2.288952356435074920e-11
1.628318202612332909e-11
1.180782009198004061e-11
8.735241967686874571e-12
6.586764004513668919e-12
5.039589946333647454e-12
3.887532740486091377e-12
3.000711460630417204e-12
