# bin_8_4
2.874945072175271330e-15
3.087907283124685358e-15
3.222801448498362999e-15
3.248328177538767784e-15
3.125575216347768335e-15
2.839296194984202373e-15
2.439186703484459265e-15
2.004420811600876249e-15
1.652114556887164242e-15
1.421178953349871154e-15
1.195028155251363577e-15
8.699361009607975805e-16
6.299471356113318349e-16
5.069200707338567391e-16
3.435176082301185215e-16
2.614115783909187531e-16
1.863098981223666667e-16
1.337723941131951750e-16
9.776367429716455051e-17
7.232512043347820452e-17
5.445321949082843633e-17
4.173193894625433646e-17
3.249598348048694141e-17
2.556774333474572853e-17
2.019011144508993607e-17
1.588996907773093846e-17
1.237776945600707388e-17
9.487041570392000891e-18
7.119113636011016637e-18
5.210341676848930527e-18
3.711652223066156947e-18
