# bin_12_4
2.410224819904965152e-29
2.638778219872246002e-29
2.820768164007120666e-29
2.925018770855348138e-29
2.925791690057739219e-29
2.783485035108763473e-29
2.499999005830570157e-29
2.122456276428981760e-29
1.737523393102115727e-29
1.443642690211144498e-29
1.248866548828426986e-29
1.026916586732504374e-29
7.254094267914159971e-30
5.456908400879636941e-30
4.237826714885017559e-30
2.906622441613003265e-30
2.138541800184582316e-30
1.542626305110249719e-30
1.096954078388420108e-30
7.884548084097519509e-31
5.750078473126817314e-31
4.268116188610804531e-31
3.226232761526407571e-31
2.480888943432737961e-31
1.931877793764367081e-31
1.514171174247600586e-31
1.186254216021096429e-31
9.224059770595271734e-32
7.075367656685333015e-32
5.326484912087905242e-32
3.919692156413350652e-32
