# bin_1_3
3.383856565319119346e-07
3.237664313310366395e-07
2.931771238370002406e-07
2.514776749437661271e-07
2.073822701053378350e-07
1.716619969653182438e-07
1.466360500866169139e-07
1.216034853557928736e-07
8.996938881735432338e-08
6.624577772027878934e-08
5.176038052631265379e-08
3.702247266656626860e-08
2.768339426399444136e-08
2.028505826260471932e-08
1.513104870227635036e-08
1.145895745781458443e-08
8.839421012077152071e-09
6.945289468366025911e-09
5.536548456910581369e-09
4.451120365484168358e-09
3.581752235752632709e-09
2.863249885940693592e-09
2.258207835144646358e-09
1.746666768903497250e-09
1.318772496231200476e-09
9.691009561111400410e-10
6.925516764219275763e-10
4.818263291558493309e-10
3.271714028042077272e-10
2.175134988290020611e-10
1.420573628064952173e-10
