# bin_1_11
7.545371035588038928e-07
7.251909189665801521e-07
6.598189097185699200e-07
5.685451884412754262e-07
4.698275845002395432e-07
3.880990306393468904e-07
3.308844890891025064e-07
2.762193045764375099e-07
2.063286799218195453e-07
1.507800444595848620e-07
1.181312965565158690e-07
8.474636534429587479e-08
6.324590295840006943e-08
4.627808273013365777e-08
3.448763762217605822e-08
2.605609430016394766e-08
2.004853574711982971e-08
1.571589153372668812e-08
1.250547680749538455e-08
1.004314295617363544e-08
8.079833269396947792e-09
6.462940149218613413e-09
5.104155415495386297e-09
3.955827863544148349e-09
2.994156925598802022e-09
2.206286304649767820e-09
1.581047670980669348e-09
1.102804994704439658e-09
7.505260200231108529e-10
4.999231140367658439e-10
3.270065101467878577e-10
