# bin_4_10
2.998601521166719148e-07
3.136445913833375443e-07
3.170118133563941584e-07
3.064696287114377868e-07
2.800259687797054601e-07
2.420314440880577051e-07
1.996915611592537958e-07
1.642903938221628095e-07
1.405137926071881269e-07
1.187722825090950084e-07
8.832380447979136505e-08
6.341721185481618986e-08
5.082260157355159137e-08
3.530877106041525877e-08
2.666947925572341505e-08
1.906543065634596897e-08
1.392184949829856279e-08
1.029316390029165815e-08
7.719639706245142423e-09
5.894077504315741649e-09
4.578084246182626908e-09
3.606496874611246352e-09
2.863383457157412641e-09
2.274900357130900908e-09
1.795738239077080327e-09
1.398977490574722451e-09
1.069466193878915846e-09
7.985504074491609664e-10
5.805720472706889526e-10
4.105639310985450794e-10
2.826847751058664750e-10
