# bin_2_5
3.258631718356595672e-07
3.254697783112754007e-07
3.097483245890162156e-07
2.787280430572462486e-07
2.374832674591034235e-07
1.951037218448623641e-07
1.619552527739847309e-07
1.389999715193265553e-07
1.142865718736828026e-07
8.293754563472519961e-08
6.185754403483410818e-08
4.812839780672691430e-08
3.406619364084652701e-08
2.546186381207417629e-08
1.861656770806026631e-08
1.377627683976175740e-08
1.036695261947400965e-08
7.942916200602773271e-09
6.198059575247100218e-09
4.909696650769982603e-09
3.926141997567111754e-09
3.146216902187107480e-09
2.507786897400007063e-09
1.974528545366306425e-09
1.526300508796107057e-09
1.152578981060161792e-09
8.474793534188143511e-10
6.059545823307611773e-10
4.216755129525497399e-10
2.862676283524925083e-10
1.902083835053358148e-10
