# bin_18_19
1.217429644826091039e-08
1.376375787394780329e-08
1.530313619535439009e-08
1.666740830581108185e-08
1.769013036739792367e-08
1.816884432069488807e-08
1.795279008499919832e-08
1.679765909002918289e-08
1.485159289250658788e-08
1.242018186818363242e-08
1.015588778386425468e-08
8.564895504648452995e-09
7.412811501024209480e-09
5.827182473399717047e-09
4.020846425850399908e-09
3.194362712009959134e-09
2.283117085666541323e-09
1.648318752068971616e-09
1.119061992918493414e-09
7.979701320781614693e-10
5.525695916941708628e-10
3.816444299620923010e-10
2.657200948409770066e-10
1.867402961192506311e-10
1.333733578776270168e-10
9.712202430237259174e-11
7.213899022773722818e-11
5.457995975948248014e-11
4.185667103129678780e-11
3.232202393792294162e-11
2.494275219895353794e-11
