# bin_2_9
5.147566775284323050e-07
5.148580144843036754e-07
4.909234376264113892e-07
4.426139912060874464e-07
3.778132653409197546e-07
3.105780714333698586e-07
2.575186934698209220e-07
2.209000803896510625e-07
1.822578575135666645e-07
1.327321778649649595e-07
9.854784073566778706e-08
7.693822377224263668e-08
5.439820755346289331e-08
4.070593379107445261e-08
2.971335737398837346e-08
2.197907618278380615e-08
1.652549074060407280e-08
1.264800913181047760e-08
9.859623238088485152e-09
7.803706727148295089e-09
6.237219753731424583e-09
4.997420072373246936e-09
3.984119248191637038e-09
3.138560542660808722e-09
2.428036954438226495e-09
1.835403595295444801e-09
1.351113345704965723e-09
9.672038248171669344e-10
6.738124402955070529e-10
4.578873383087742794e-10
3.044903352043786932e-10
