# bin_6_13
2.225030059815967658e-07
2.388825926223862684e-07
2.491837902317643566e-07
2.509991482888243027e-07
2.413395650298055801e-07
2.191476488837505202e-07
1.881989357522872356e-07
1.547260018420510259e-07
1.276445742160006732e-07
1.097263565154437619e-07
9.204403115501349475e-08
6.708459363717543994e-08
4.873630491869210474e-08
3.895669548065158695e-08
2.661758567127418369e-08
2.011310264554076194e-08
1.434668515342942042e-08
1.032429196092883426e-08
7.544873749610650407e-09
5.585059531461258724e-09
4.206172632966564664e-09
3.224057044305131165e-09
2.510616057075157169e-09
1.975202252244026703e-09
1.559485596896493204e-09
1.227013331989491415e-09
9.554891325244268383e-10
7.320667794793038286e-10
5.491353996867637728e-10
4.017686929512771369e-10
2.861412590523189571e-10
