# bin_17_7
7.626851029175681134e-33
8.513449461598121172e-33
9.320732231689523934e-33
9.959968749920304930e-33
1.031988223405309046e-32
1.031113862052891025e-32
9.791103403021226525e-33
8.777331933351455596e-33
7.436308421841901668e-33
6.085646996115136510e-33
5.067197524468468010e-33
4.388787716161600397e-33
3.590366203374124134e-33
2.518315102439981519e-33
1.907899956067771984e-33
1.463654639932577892e-33
1.002661916787656835e-33
7.245206396621808957e-34
5.190955008746928512e-34
3.630473755482611043e-34
2.550703405315611306e-34
1.813961556593511244e-34
1.309270616165762398e-34
9.616396437281741422e-35
7.200833761171525270e-35
5.485306737892188335e-35
4.233559396222726099e-35
3.289882193542824403e-35
2.555528046044878912e-35
1.970357702637988793e-35
1.498792868058540920e-35
