# bin_7_9
7.609573904339998442e-08
8.236133551294367411e-08
8.679232722823847602e-08
8.844513798326500448e-08
8.648483106392020870e-08
7.996907603746604472e-08
6.992483466931524983e-08
5.802702282276335009e-08
4.752262511718316121e-08
4.038143785636083778e-08
3.465346121094825896e-08
2.647817611262538555e-08
1.852848412656074565e-08
1.495074439281154960e-08
1.043257537341514154e-08
7.828240300563417055e-09
5.470327973788927600e-09
3.962817279176850706e-09
2.876591919998893813e-09
2.108040812027939338e-09
1.568977072058156338e-09
1.188106584645432062e-09
9.156411146654457236e-10
7.151112260391144209e-10
5.625337151348578667e-10
4.426801452098223139e-10
3.460331349349584781e-10
2.669772262437555797e-10
2.022112303332537671e-10
1.497079366461948808e-10
1.080182688214611118e-10
