# bin_16_13
1.290591682626999991e-11
1.447997121603227653e-11
1.595244205855205213e-11
1.717941835185601980e-11
1.797789786927775955e-11
1.816739977090417257e-11
1.753524258927889774e-11
1.597277697483957744e-11
1.375765202627848398e-11
1.131664197818905961e-11
9.320541695971127119e-12
8.020790394908465055e-12
6.774214360807423439e-12
4.935720005620259987e-12
3.535264492891970551e-12
2.856141002316258547e-12
1.892797324852782291e-12
1.432670181373953395e-12
9.932044161592531306e-13
6.882953541639760572e-13
4.832634336274755739e-13
3.399280644695868509e-13
2.417751392804915019e-13
1.745803642329233213e-13
1.285484810467164762e-13
9.647122213511658710e-14
7.360266977116442238e-14
5.681557512246802336e-14
4.406705298978032186e-14
3.409253976503917409e-14
2.612809004036659443e-14
