# bin_9_6
1.804025359396402879e-12
1.961456501429997374e-12
2.078709098415771837e-12
2.132349679079206164e-12
2.104434167153337383e-12
1.967183796724289525e-12
1.738048397421819936e-12
1.453097648299447720e-12
1.187911882323171131e-12
1.000891016804239536e-12
8.648748690171109912e-13
6.806699038619691666e-13
4.727111528268576030e-13
3.752613999595658009e-13
2.716392197401191333e-13
1.980560468829113598e-13
1.387585919287844976e-13
1.013888296704212155e-13
7.305399585559614790e-14
5.309074475503552406e-14
3.923206293133862735e-14
2.949090043961314691e-14
2.257253228806155929e-14
1.753692427693989359e-14
1.375215676134571900e-14
1.081339565809546509e-14
8.465112092347977064e-15
6.553901435037199523e-15
4.989917255008418070e-15
3.718957092412261430e-15
2.703809767408372713e-15
