# bin_11_18
1.106894501674707062e-07
1.227655409381263921e-07
1.333514077800456988e-07
1.411051002192544361e-07
1.444393486904158462e-07
1.421002717931149713e-07
1.322908401459889129e-07
1.164229485967479128e-07
9.702501020050567557e-08
7.936597974267089201e-08
6.715038892383066547e-08
5.794709459329934377e-08
4.500197338940710161e-08
3.119220408694555422e-08
2.499971843022956870e-08
1.764879622012267648e-08
1.300601487176069470e-08
8.947378332129851087e-09
6.433198066287329233e-09
4.570715928138559047e-09
3.262540111994619964e-09
2.358107456904286581e-09
1.730522405305840517e-09
1.294253688178442877e-09
9.853673853733315436e-10
7.606980799673793028e-10
5.922287978950138980e-10
4.616871886336397778e-10
3.578722988218164458e-10
2.740570548506859324e-10
2.062834778258116493e-10
