# bin_8_7
2.060530799817104539e-09
2.236729109670563693e-09
2.365670755897621156e-09
2.420861869742974004e-09
2.381389839660530344e-09
2.217206569674237519e-09
1.951592470214217776e-09
1.626701544396413476e-09
1.330240967624386010e-09
1.124437466177176937e-09
9.700491743260898761e-10
7.551324329105290008e-10
5.246752283612036682e-10
4.202335723780617872e-10
2.994058172107691474e-10
2.212855773666302986e-10
1.542643710391037375e-10
1.124608252580394669e-10
8.128875530482544855e-11
5.928160822533799502e-11
4.392839324865727770e-11
3.311187844950475103e-11
2.541098873374727728e-11
1.978297345917568274e-11
1.553358127520145772e-11
1.221948854301019744e-11
9.561807871556079980e-12
7.394271916093062604e-12
5.619400338702682503e-12
4.178089495729043684e-12
3.029140878366928678e-12
