# bin_2_13
6.107699361037621070e-07
6.111227486700346114e-07
5.830135078410574941e-07
5.259161080266453310e-07
4.491420616414184213e-07
3.692729139216095423e-07
3.060929524226844999e-07
2.625293555310824567e-07
2.168072089733846441e-07
1.580424659568392274e-07
1.171972790044151130e-07
9.158206817745263576e-08
6.473283892756285374e-08
4.845439463543231631e-08
3.535378327484906281e-08
2.614850537588168900e-08
1.965583510092626311e-08
1.503957669442094146e-08
1.172077163837763300e-08
9.274712651972093432e-09
7.411925025100716820e-09
5.938374159533015145e-09
4.734529023397556648e-09
3.730230167152440237e-09
2.886383536493637389e-09
2.182478785000193933e-09
1.607107159737740950e-09
1.150824432476370768e-09
8.019719895202542142e-10
5.451205207732759566e-10
3.625791125404602260e-10
