# bin_3_7
2.985999969306862643e-07
3.062119490077722316e-07
3.021320205349333230e-07
2.827991398897872708e-07
2.502740004564811777e-07
2.099324586396851023e-07
1.719123873757216192e-07
1.444175408770206818e-07
1.241785646869636219e-07
9.841750800882076643e-08
6.962266404251272878e-08
5.426339619712890058e-08
4.027923706250778135e-08
2.919170787172558574e-08
2.123930311823064857e-08
1.565507913755587979e-08
1.155151674108168319e-08
8.659762465217938523e-09
6.614681473921640832e-09
5.144140600683594225e-09
4.060388292758502079e-09
3.234040082314277724e-09
2.580559414595309339e-09
2.047843194110313585e-09
1.605207305097244357e-09
1.235358352533550460e-09
9.288646779077952215e-10
6.801426579912089953e-10
4.843006202986110055e-10
3.356660131678913835e-10
2.269929834969669383e-10
