# bin_1_18
8.621869766267085161e-07
8.290319315674343821e-07
7.546631068835291088e-07
6.505660600125453880e-07
5.377189558693310842e-07
4.440886182224159935e-07
3.785470034696897674e-07
3.162164117712198583e-07
2.364299591390956117e-07
1.726485107218965305e-07
1.353007424829334184e-07
9.709228857975938290e-08
7.244561403670249517e-08
5.300230182975053738e-08
3.949502484783426523e-08
2.983223431189016441e-08
2.294821305759916337e-08
1.798474041353780520e-08
1.430824657976000777e-08
1.148972081698301488e-08
9.243421992672934359e-09
7.394128224476343219e-09
5.840362332706691840e-09
4.527308785762162581e-09
3.427558738125309574e-09
2.526332990196619367e-09
1.810893476343739613e-09
1.263447453500085132e-09
8.600452402044028797e-10
5.729810861753619168e-10
3.748521351671910392e-10
