# bin_18_14
7.013993742975956881e-13
7.901583140490652053e-13
8.747882621646501130e-13
9.477871860417800755e-13
9.993935778578162104e-13
1.018542683144913014e-12
9.957061533537991530e-13
9.196554654202053969e-13
8.032239534333095049e-13
6.655417945642219225e-13
5.451910874964571629e-13
4.646884611386820806e-13
3.993191662893776264e-13
3.024868947059451595e-13
2.101654675629811410e-13
1.709364655741289790e-13
1.156081398986450868e-13
8.714925381305630586e-14
5.897442055880316492e-14
4.115858119880017542e-14
2.882531039138876332e-14
2.018513490690084377e-14
1.419724598567997289e-14
1.010381933424645195e-14
7.325519613445246697e-15
5.416662801372927438e-15
4.080595387836440228e-15
3.122104507753298469e-15
2.411185884689814361e-15
1.866215976173537602e-15
1.436886224308513179e-15
