# bin_8_15
1.623007149592525441e-07
1.771495637767671151e-07
1.886500762722293975e-07
1.946915345907143032e-07
1.936136248345934628e-07
1.827935262610683293e-07
1.630177696954795295e-07
1.374729362266298944e-07
1.124559001992248152e-07
9.399591974097992312e-08
8.130187807431766810e-08
6.563801869128249526e-08
4.597958837537442944e-08
3.541634453101396901e-08
2.670332336606350732e-08
1.879065172186391797e-08
1.351586672170954767e-08
9.821750853961526136e-09
7.022484349284478504e-09
5.068817577565970436e-09
3.717902696596703701e-09
2.774801661087522811e-09
2.108889231483700864e-09
1.629021276118493791e-09
1.272495740848643413e-09
9.988364212647554471e-10
7.823177887450313758e-10
6.072054913666634495e-10
4.642783669913776947e-10
3.480149189526475529e-10
2.547724409527639511e-10
