# bin_7_10
1.053525037455427971e-07
1.140787168283936174e-07
1.202842509790558176e-07
1.226565398796550511e-07
1.200502374610351685e-07
1.111289702729489416e-07
9.727506116577310807e-08
8.078580470204554671e-08
6.614887437508975887e-08
5.615983196652945405e-08
4.822887285695016799e-08
3.696494311459496715e-08
2.584584515154284543e-08
2.082052881849238059e-08
1.458334732011494187e-08
1.091070605468273297e-08
7.626694073158642099e-09
5.529271979912199333e-09
4.010635554411392201e-09
2.936623037869173680e-09
2.184034005125268138e-09
1.652595937495376069e-09
1.272711800175856321e-09
9.934490562879168490e-10
7.812361564053501003e-10
6.147357325587828181e-10
4.805979483550785010e-10
3.709309187942032533e-10
2.810970397861043684e-10
2.082540876348471537e-10
1.503793735373875738e-10
