# bin_16_5
1.584327646907497219e-40
1.760176030556057768e-40
1.915955018222789344e-40
2.032622411954496961e-40
2.087014224899423368e-40
2.061884739400012040e-40
1.929261362416302501e-40
1.705893478214879850e-40
1.426751269740457799e-40
1.166294388865002379e-40
9.827752657647994914e-41
8.503517294240313127e-41
6.696939659779489595e-41
4.629726950860863568e-41
3.676835332348827975e-41
2.648540605126904590e-41
1.920001006080244411e-41
1.323118920179577584e-41
9.579403664396528197e-42
6.777292175758834262e-42
4.813112288956311151e-42
3.466424181463982669e-42
2.533654338014938769e-42
1.886846419912588335e-42
1.431133455109881889e-42
1.101674656756549542e-42
8.562886597400699364e-43
6.673436540787174363e-43
5.177732762915762324e-43
3.973021299377283247e-43
2.999014681144562286e-43
