# bin_15_1
3.917422030675575859e-69
4.319942578351738169e-69
4.659385100425950162e-69
4.886913634894634183e-69
4.951770080448074391e-69
4.800493714761901388e-69
4.393814929216199771e-69
3.803321500647888982e-69
3.135608181854760496e-69
2.575453098948663437e-69
2.207581839966748231e-69
1.877948487645659965e-69
1.390258725101014893e-69
9.838245052483809776e-70
8.010381319657514528e-70
5.368819543994468231e-70
4.099303657945173909e-70
2.852683870661052836e-70
2.014706888020270884e-70
1.445873775193973846e-70
1.044169679478452548e-70
7.639551437657231581e-71
5.684985318928454321e-71
4.311347117213788784e-71
3.321507713133143667e-71
2.586275260133538071e-71
2.022454705442708246e-71
1.576818503062847722e-71
1.217570811292589485e-71
9.257503802270579214e-72
6.899496579963629457e-72
