# bin_15_20
5.808492720271808599e-08
6.526968519441584303e-08
7.204120448899061353e-08
7.776134644562686754e-08
8.161227711655286061e-08
8.274104380996331465e-08
8.025519860588501296e-08
7.348929163326728266e-08
6.363632737125443147e-08
5.248213649384756151e-08
4.312327602796809193e-08
3.698007234692879419e-08
3.146196474968606041e-08
2.326741064508855410e-08
1.643991178072687898e-08
1.335550906939893761e-08
8.886256155084645200e-09
6.738177140433752904e-09
4.626047595840232596e-09
3.208485088983595409e-09
2.252069176489700797e-09
1.581871945714502811e-09
1.120244179231191517e-09
8.043998099669872372e-10
5.888642794418914292e-10
4.395030892193765191e-10
3.337785648836300878e-10
2.568474209136970166e-10
1.989356647608495595e-10
1.539591573723480910e-10
1.182133825424622011e-10
