# bin_15_8
1.267955949393978494e-21
1.410828585353263267e-21
1.538554480945302891e-21
1.636034847906388722e-21
1.684634905365423840e-21
1.670530886179702220e-21
1.570417765601227740e-21
1.394673645938295949e-21
1.170962707143508164e-21
9.572294325587332175e-22
8.035079108483927821e-22
6.959002653801755889e-22
5.551895107565721376e-22
3.846023011745364075e-22
3.013367005472858914e-22
2.216609571616897794e-22
1.576142507870933696e-22
1.099022453722265791e-22
7.965861518533720707e-23
5.613252775495899820e-23
3.967496752915149992e-23
2.846529538251563294e-23
2.072449856185449862e-23
1.536772492541376364e-23
1.161071994641691898e-23
8.910166902108090973e-24
6.911845076484927272e-24
5.383073810402034692e-24
4.178948300448960888e-24
3.211942315136556414e-24
2.430643233042014748e-24
