# bin_17_1
1.168731323493069021e-80
1.297732132257380577e-80
1.411622615558549634e-80
1.496312336957708960e-80
1.534777144253349016e-80
1.514222697279641986e-80
1.414426578487461233e-80
1.248694579056175298e-80
1.042986467791368615e-80
8.526643544833488182e-81
7.195020048094987381e-81
6.222059508742164563e-81
4.876851555178477117e-81
3.371395562061682568e-81
2.688771951510817949e-81
1.922267090549748517e-81
1.402902035965865715e-81
9.641766263974368054e-82
6.969626994957903726e-82
4.938465449053295577e-82
3.513826616532237234e-82
2.533960565820417148e-82
1.854681979518304539e-82
1.383294423976095303e-82
1.050621971642120160e-82
8.096142438748777997e-83
6.296878752770543762e-83
4.908335393672969180e-83
3.807280594255927056e-83
2.919597412588862589e-83
2.201794812970812397e-83
