# bin_17_4
2.099242695417672301e-52
2.336061547211555401e-52
2.547922428896918837e-52
2.709846627536579216e-52
2.790975615959289835e-52
2.768403283201946265e-52
2.603448830369795145e-52
2.312889671533715456e-52
1.942491918800514051e-52
1.587954901802081736e-52
1.332546042061691462e-52
1.154149151995185926e-52
9.216926486301465430e-53
6.386489932330874498e-53
4.998222480804912372e-53
3.682613996529490586e-53
2.614640764814774793e-53
1.825101377704036088e-53
1.322785811764484316e-53
9.318415275662287332e-54
6.584111646994046130e-54
4.722422307462011142e-54
3.437167450702663636e-54
2.547886091508870344e-54
1.924399985680685730e-54
1.476433959731987342e-54
1.145121916247635897e-54
8.917887708039151823e-55
6.923334684079043422e-55
5.321945262875768949e-55
4.028173033975037985e-55
