# bin_20_9
1.522904426225248546e-33
1.712881639968944809e-33
1.892727578011543425e-33
2.045861136595451230e-33
2.150933581275475370e-33
2.184909090697111348e-33
2.125467942833653121e-33
1.952248178647802555e-33
1.695736277235665127e-33
1.400526156738338335e-33
1.149136178438107001e-33
9.834928002331365930e-34
8.404223404714435123e-34
6.267410563663062154e-34
4.392324759397492840e-34
3.582040070772664477e-34
2.386240779447313553e-34
1.812947723907444421e-34
1.237582684539158869e-34
8.582110462164432888e-35
6.024574215138125217e-35
4.229357796572036234e-35
2.987728848660436613e-35
2.138454573729233499e-35
1.560197607679224645e-35
1.160746862411999062e-35
8.791554747729904989e-36
6.752941420709327229e-36
5.226215108884731448e-36
4.045659416288403389e-36
3.109955759860655614e-36
