# bin_5_1
1.411662190477938574e-16
1.450175438515324246e-16
1.434677877454520208e-16
1.346295867798908922e-16
1.194152028774536994e-16
1.002362937668317077e-16
8.195691281997864127e-17
6.873059773197357226e-17
5.933312014918853626e-17
4.733899442248631268e-17
3.319850384028119891e-17
2.595460372486409806e-17
1.934815293226285277e-17
1.397163587507081767e-17
1.010730804814480898e-17
7.495247867236117561e-18
5.523235166064666720e-18
4.131519172122441347e-18
3.152532624928114704e-18
2.449585238081835061e-18
1.932494850833341232e-18
1.539009769045018469e-18
1.228388689381364487e-18
9.754556776559853145e-19
7.653686524597127915e-19
5.897362266771549202e-19
4.439960581671108954e-19
3.255087160497960969e-19
2.320135992562061764e-19
1.609302642102665865e-19
1.088873051307525628e-19
