# bin_10_19
1.456812942018103382e-07
1.608553437230250939e-07
1.737685847754864024e-07
1.826156729735288213e-07
1.854571556318287925e-07
1.803972325598547828e-07
1.657549704630020672e-07
1.440315767199187123e-07
1.190273528904345622e-07
9.765790444352119076e-08
8.346125306777326335e-08
7.126231541646287057e-08
5.335338207042409672e-08
3.753437352033882484e-08
3.047971903922013220e-08
2.066031887482870383e-08
1.566808770572343958e-08
1.084823078969754460e-08
7.694372649587321030e-09
5.511306616483795324e-09
3.971841512707418096e-09
2.897922134423788421e-09
2.149558679331402403e-09
1.625069021351991589e-09
1.248689826760520864e-09
9.704785214371747877e-10
7.582130402311404310e-10
5.911742777983018175e-10
4.569080993902944155e-10
3.479763354864034814e-10
2.599337483779913152e-10
