# bin_8_3
7.887268010617064791e-19
8.435755900576505458e-19
8.756894139871241752e-19
8.772041364983831577e-19
8.365933333641543635e-19
7.533060859818059910e-19
6.413340076547838925e-19
5.254139220679810981e-19
4.355083473847983719e-19
3.760889584201944881e-19
3.110747745514730479e-19
2.217979628297838689e-19
1.653141681859015717e-19
1.299450168686612756e-19
8.921627342149472775e-20
6.667473345799830479e-20
4.827366700308913109e-20
3.478430704362099240e-20
2.545639050253973851e-20
1.892368264455154296e-20
1.433309701194375811e-20
1.104929086740107532e-20
8.643822872727749181e-21
6.821231461045202523e-21
5.392619107236652555e-21
4.240907671584520948e-21
3.295396509312932784e-21
2.515747770932097050e-21
1.877974132290835324e-21
1.365998507812362422e-21
9.667509201129698654e-22
