# bin_16_5
1.913155024973298563e-35
2.129584118273160798e-35
2.323622388311864062e-35
2.472628840302832095e-35
2.548553626823939442e-35
2.530465986824867145e-35
2.382973934487915538e-35
2.119714152519716093e-35
1.782321208380530725e-35
1.456758580481270768e-35
1.220431228029662852e-35
1.056932069422015789e-35
8.476026757378071766e-36
5.880425900822913149e-36
4.576469561481387366e-36
3.396090200614894269e-36
2.394571838750532787e-36
1.680406948729712642e-36
1.216657220302435378e-36
8.558422607763580662e-37
6.038077752448679040e-37
4.324071799554096612e-37
3.141841499406977596e-37
2.324601659155429818e-37
1.752860602575892086e-37
1.342592927924242195e-37
1.039906877316822195e-37
8.090657356715082080e-38
6.277029454670858573e-38
4.823294826373188107e-38
3.650068351569399597e-38
