# bin_13_2
2.692257674432710265e-43
2.955536287415939256e-43
3.170170876486581813e-43
3.301961391888337388e-43
3.319853134194676495e-43
3.181917232463914545e-43
2.878427320358594606e-43
2.461915423880714698e-43
2.019212481564987233e-43
1.668281980379992192e-43
1.439100833573252161e-43
1.201528761047946747e-43
8.628348161910782499e-44
6.319514757952256641e-44
5.032261681541307488e-44
3.390812403134502279e-44
2.550666788778502344e-44
1.812681004187180752e-44
1.283092778191843125e-44
9.212620446483741903e-45
6.682866121172790319e-45
4.930696728568103087e-45
3.702189788564855116e-45
2.831034836113519450e-45
2.194626274547567832e-45
1.714995178095170187e-45
1.341984738261493610e-45
1.043920498773705517e-45
8.021797934754129104e-46
6.056668772768287068e-46
4.474397685183171418e-46
