# bin_16_12
6.884064420073816925e-09
7.730862992887443708e-09
8.526974497480049851e-09
9.196573591390849072e-09
9.642805185003031693e-09
9.766097132569062767e-09
9.458999240104578413e-09
8.647651708075559736e-09
7.476170875637094210e-09
6.159079503131135499e-09
5.061261150627755958e-09
4.343396953654045100e-09
3.689329755532432133e-09
2.717069568880782811e-09
1.923474625923341603e-09
1.563560961300856555e-09
1.036152332903487105e-09
7.871224706992223982e-10
5.415952318970863336e-10
3.750907898496103940e-10
2.633835883427016542e-10
1.850691739445671781e-10
1.312331532612483751e-10
9.432202132163552037e-11
6.916222023936320439e-11
5.168998365519525640e-11
3.929412966468509746e-11
3.025435381106452781e-11
2.343262214012103041e-11
1.812359501044571632e-11
1.389926112067795154e-11
