# bin_20_14
1.321805315145592957e-11
1.495414089112624877e-11
1.664128151036987544e-11
1.814530142489640639e-11
1.928690201425027065e-11
1.984543449123094762e-11
1.965879151427392896e-11
1.845291251575112093e-11
1.636330319037837667e-11
1.371846628106360030e-11
1.121292456949208548e-11
9.426214136925667705e-12
8.163894196281125075e-12
6.479753885033479441e-12
4.472719321123254444e-12
3.519920309877683158e-12
2.556391824768783247e-12
1.818647796754402651e-12
1.243653208532744336e-12
8.896436364629528147e-13
6.142303546599840790e-13
4.225363123983136602e-13
2.934194087879944773e-13
2.055177720871029556e-13
1.462072346515284467e-13
1.060413267383589354e-13
7.844084507077873105e-14
5.914029587581507844e-14
4.523952528068122416e-14
3.488565286505510298e-14
2.691445856312603901e-14
