# bin_16_8
8.802345135775719187e-20
9.833984016165562216e-20
1.077818902071338421e-19
1.153363205467010731e-19
1.197303074553668554e-19
1.198966352537964022e-19
1.142188725603031750e-19
1.027027975374699207e-19
8.728407338362738091e-20
7.146096426286650008e-20
5.932555918141590670e-20
5.133525056864437390e-20
4.231147178934549463e-20
2.986733241802581257e-20
2.234735249249247742e-20
1.736985676486320145e-20
1.177307444836893538e-20
8.616142944795431155e-21
6.129484512296547978e-21
4.276506836574775047e-21
3.002378864947245692e-21
2.128609687002441947e-21
1.531547758115142696e-21
1.120619583870641132e-21
8.363079830479505809e-22
6.350357764598703883e-22
4.888754065561351900e-22
3.792928919279889893e-22
2.944189497472657658e-22
2.270249998502552127e-22
1.728187581539729579e-22
