# bin_17_14
2.146639953668944163e-07
2.419775857028880315e-07
2.681001047762766641e-07
2.907610297165152995e-07
3.069913988215890440e-07
3.133548374381300751e-07
3.070426577560488818e-07
2.843820787677039476e-07
2.490464247996802271e-07
2.067027764748398703e-07
1.691610432486190318e-07
1.437922298154821131e-07
1.238330638677677693e-07
9.460208410638867753e-08
6.549539967498477634e-08
5.307505938859650085e-08
3.629253885516590393e-08
2.715592556938275787e-08
1.831519372593962905e-08
1.285010389657948007e-08
8.979405902637843456e-09
6.273156527421206463e-09
4.403382290039949736e-09
3.123293078051304696e-09
2.257161577901204244e-09
1.663505633887121824e-09
1.249199801078991065e-09
9.533862838505351875e-10
7.350769243023714441e-10
5.685031304276953242e-10
4.377467662918637722e-10
