# bin_20_11
5.206769778583448323e-20
5.875394138563345772e-20
6.517780452969801517e-20
7.079517496035473391e-20
7.488936039127348677e-20
7.661188288200058040e-20
7.530419353372683006e-20
7.000869022940824520e-20
6.152823180206363486e-20
5.119886344927055152e-20
4.187320293900350057e-20
3.548444526538899421e-20
3.063188371272858443e-20
2.365278543400365358e-20
1.632978885832111407e-20
1.315622989577904754e-20
9.137563199291844290e-21
6.759231687675046868e-21
4.551923468435711074e-21
3.217058542708428802e-21
2.240407207001310427e-21
1.559119808420560398e-21
1.091232264461217562e-21
7.712218002812629916e-22
5.549579343600622920e-22
4.072446783885446701e-22
3.046165266254056668e-22
2.317744711049369120e-22
1.783748809454455222e-22
1.378878910706201962e-22
1.062595456299321056e-22
