# bin_20_9
2.160476981736313228e-28
2.433819074418271342e-28
2.694508889004977690e-28
2.919525808218703546e-28
3.078903737488721673e-28
3.138498932126568923e-28
3.069347708420293887e-28
2.836351921458595916e-28
2.478480195599344879e-28
2.054022168623333836e-28
1.681757177690211674e-28
1.432145304140308332e-28
1.231242372923870905e-28
9.345378730196965940e-29
6.484597548850321270e-29
5.269800337698213899e-29
3.572324448543708458e-29
2.688659694377084284e-29
1.817245345444456807e-29
1.269653301423630753e-29
8.888370198585287488e-30
6.221830869331764889e-30
4.375166783426613366e-30
3.110287973248520042e-30
2.253663022355185088e-30
1.665232164775757367e-30
1.253424770822394434e-30
9.583105575610783281e-31
7.396337049766921449e-31
5.721493378784194919e-31
4.403119456859356800e-31
