# bin_12_2
5.670431531458256978e-38
6.197645314513579840e-38
6.611446764979615607e-38
6.838178262920737525e-38
6.819632031324974561e-38
6.462086058386414410e-38
5.782148688461517006e-38
4.890446417301458075e-38
3.999701699955610221e-38
3.331634409166819034e-38
2.882936765412391592e-38
2.350433376190968052e-38
1.649847134902563010e-38
1.256515598303085661e-38
9.623319415388044090e-39
6.674394490210164119e-39
4.850141293067909152e-39
3.519916821161940375e-39
2.509044344180005547e-39
1.805436796410795031e-39
1.320205904464150784e-39
9.824394895204920740e-40
7.443327376703734652e-40
5.735200849665621039e-40
4.470710632963316144e-40
3.504459865894045113e-40
2.743135855089881192e-40
2.129139068626277015e-40
1.628839504843094288e-40
1.222120433954887624e-40
8.958207591081203314e-41
