# bin_8_7
6.037845753654007139e-06
6.583950744250161893e-06
7.003299189866670407e-06
7.217088778632289405e-06
7.165506158662482194e-06
6.749871396085792955e-06
6.006473567177661289e-06
5.053392969873444268e-06
4.130329599088973593e-06
3.456621086908533165e-06
2.991080380555156427e-06
2.403708208158659521e-06
1.675420815411632491e-06
1.300622389893997635e-06
9.729437585946712886e-07
6.888328083937507595e-07
4.912848554024190783e-07
3.587849550000954651e-07
2.568432649548725736e-07
1.854229478491887504e-07
1.361992749453550252e-07
1.017722421738185697e-07
7.743327079961273676e-08
5.986808868971427771e-08
4.677832793466728574e-08
3.670844027095623280e-08
2.872667438223236080e-08
2.226459895358368876e-08
1.699051551061180328e-08
1.270521258613467306e-08
9.275266768907509321e-09
