# bin_10_8
8.739502559202980009e-07
9.622488019518559964e-07
1.035907855211345008e-06
1.083987394423704651e-06
1.095581727981545841e-06
1.058195301846467646e-06
9.648127768462223696e-07
8.318863243739330436e-07
6.844840017218544548e-07
5.629969249094837445e-07
4.835529162481123634e-07
4.091281602318642121e-07
2.998828928800879494e-07
2.142148117617289660e-07
1.736105882297263398e-07
1.161894509796568929e-07
8.853136102209167777e-08
6.199778060571674768e-08
4.377608932571722198e-08
3.142212355948390753e-08
2.271426285396312424e-08
1.666131814006511824e-08
1.242783722712032066e-08
9.448447817979121443e-09
7.291627382921907038e-09
5.682003943826164247e-09
4.442419976299800638e-09
3.459356370994595036e-09
2.665498339597041442e-09
2.020750946269620960e-09
1.500681071631957909e-09
