# bin_20_5
1.573832171590545973e-53
1.767899240184372386e-53
1.950585863351850725e-53
2.104600364901571763e-53
2.207826887653520035e-53
2.237306518240368042e-53
2.168782553523495349e-53
1.984522264590702036e-53
1.717232143344788298e-53
1.415308613643133888e-53
1.162552860471186926e-53
9.970810755381859130e-54
8.480163778775510740e-54
6.260887307411768682e-54
4.421541883746119507e-54
3.598252117368274574e-54
2.385465493502082605e-54
1.813093904017094055e-54
1.245475125013760897e-54
8.625654701897912918e-55
6.056838738183154555e-55
4.255030527314326621e-55
3.015062760762925837e-55
2.164966763972748395e-55
1.585910557822196881e-55
1.184172027661036230e-55
8.994956342126598309e-56
6.922027532127846828e-56
5.360063227327266384e-56
4.145979581837584593e-56
3.180694867536948154e-56
