# bin_19_5
6.155480612885730486e-49
6.900304755224207453e-49
7.594345432082392198e-49
8.168700939663712765e-49
8.536048677171262667e-49
8.612393626053579887e-49
8.294093430658371963e-49
7.537697619828667530e-49
6.477150658562725009e-49
5.321675049830417042e-49
4.386498551662184130e-49
3.778369403277977320e-49
3.179931111004154705e-49
2.303527789615584960e-49
1.660104582835888268e-49
1.335297802125556437e-49
8.857463765407562387e-50
6.683561114588033073e-50
4.650517699881387728e-50
3.224693179766892544e-50
2.263709031915526917e-50
1.593300938915568333e-50
1.135337125194976820e-50
8.211786155219048461e-51
6.060012506607088124e-51
4.555961879844448835e-51
3.480326186242937362e-51
2.688155242172004585e-51
2.084562352131364547e-51
1.611115146424059873e-51
1.232643796467091980e-51
