# bin_2_1
1.228461472874554754e-05
1.214373342366799823e-05
1.139572383910030710e-05
1.011149084791078914e-05
8.498546222588885458e-06
6.954995868597579363e-06
5.825632335430932936e-06
5.014591434045478337e-06
4.007592473212703187e-06
2.837245959669070138e-06
2.199285960031541553e-06
1.652383075834176007e-06
1.192673132782589811e-06
8.752376379226102548e-07
6.492086481711154722e-07
4.826198189959968643e-07
3.651675775067654976e-07
2.817317177000111128e-07
2.212362182963438534e-07
1.760954051093505006e-07
1.411667555247976531e-07
1.130997592305445801e-07
8.989761948580973464e-08
7.041482720647295636e-08
5.403343351754291497e-08
4.043608751185612399e-08
2.943567481632406387e-08
2.083158053241904237e-08
1.435606911420867841e-08
9.661246900340059485e-09
6.371054354596648018e-09
