# bin_11_9
9.681121714223684183e-07
1.071363349374488041e-06
1.160634856939252148e-06
1.224095075985118043e-06
1.248196491739574797e-06
1.221566886068236371e-06
1.130076124896049884e-06
9.885777334601753820e-07
8.199722922872307310e-07
6.710269143230873998e-07
5.704196278278430109e-07
4.906258007753991637e-07
3.744030897051332229e-07
2.601010613025548124e-07
2.109654411818769742e-07
1.451399444100090477e-07
1.092277425187492292e-07
7.486920195681115169e-08
5.341189925040731093e-08
3.814856288113077373e-08
2.739572570562870220e-08
1.989071064645384411e-08
1.466070327499559015e-08
1.101927029148773023e-08
8.424655813644721860e-09
6.522362415885672114e-09
5.084586991484564773e-09
3.962290495722616925e-09
3.065177072576355692e-09
2.339315305241121717e-09
1.752805204359079690e-09
