# bin_8_3
2.942040497951229036e-14
3.156671847024639340e-14
3.290394334419881370e-14
3.311803720499689283e-14
3.180468258103212694e-14
2.883449178300911087e-14
2.472129884863584079e-14
2.029504804465546684e-14
1.673921832248865912e-14
1.440926509638213404e-14
1.207984876855878059e-14
8.753700742596324349e-15
6.370471992035013426e-15
5.108311355943928206e-15
3.464726113405726020e-15
2.630510162929720729e-15
1.879943157731069743e-15
1.349944563008635984e-15
9.865737661560771239e-16
7.301929733908422752e-16
5.501644878730715808e-16
4.217598098999650010e-16
3.285131445124568565e-16
2.584124922387881736e-16
2.039135831678163032e-16
1.602981299345353453e-16
1.246667595294072249e-16
9.535979507894630067e-17
7.139036972590217527e-17
5.211279202767541282e-17
3.702114142628241976e-17
