# bin_12_10
2.369488914690065536e-11
2.633930304393769952e-11
2.868910258753625144e-11
3.046047646786839314e-11
3.130705879534384698e-11
3.096904622701748568e-11
2.902466959631332177e-11
2.570382018484773537e-11
2.152888954580776394e-11
1.760056343558081359e-11
1.481063814685277500e-11
1.281678956436189643e-11
1.014016214674927381e-11
7.020385864030741114e-12
5.544917910449629461e-12
4.025201279970736896e-12
2.897149995682025547e-12
2.007986859113291963e-12
1.452981475821963051e-12
1.026633599065888418e-12
7.280216383169627287e-13
5.236326901692263093e-13
3.821014335806789430e-13
2.840752523959698131e-13
2.151310482738548947e-13
1.653482534516134044e-13
1.283581608608144593e-13
9.994735196116175520e-14
7.750310821319877891e-14
5.945414264303601687e-14
4.487617084041714522e-14
