# bin_10_3
3.353376095493819422e-22
3.639704310250690055e-22
3.848898181490946912e-22
3.937969728508048898e-22
3.872610171903676545e-22
3.604443817496542295e-22
3.171653245367396245e-22
2.643215377539426688e-22
2.161732865668546622e-22
1.827741474348967983e-22
1.576298863116225268e-22
1.226047813880868955e-22
8.524263412951267508e-23
6.828379561834417886e-23
4.860659667897566441e-23
3.594673344940639249e-23
2.508498938517936136e-23
1.827298019673020228e-23
1.321147455414712975e-23
9.636605011841362321e-24
7.141577971699325895e-24
5.381438759853432450e-24
4.128990397533965006e-24
3.213402136638981386e-24
2.521575851883859622e-24
1.982075069818786777e-24
1.549554827382179263e-24
1.196986833720728558e-24
9.085473306034344426e-25
6.745985456356819102e-25
4.883812016859688970e-25
