# bin_15_10
1.329342158084619244e-14
1.486702963983093348e-14
1.631443714507115271e-14
1.748331250976438622e-14
1.818183671638165460e-14
1.824357056916708816e-14
1.742761316611941357e-14
1.571264299233546286e-14
1.339113053101929687e-14
1.097472030295462816e-14
9.098051853737314581e-15
7.867527204379507236e-15
6.518369358930869013e-15
4.628992453415247721e-15
3.434287938693677121e-15
2.692514845185691111e-15
1.815038484380859247e-15
1.339096984785017020e-15
9.478135821635648841e-16
6.604487150916939849e-16
4.637649168359662438e-16
3.282696668807475600e-16
2.357164839985081500e-16
1.720580483097464275e-16
1.281073775971287493e-16
9.707813033323167937e-17
7.461961821975779925e-17
5.784630210116398692e-17
4.490013540475031273e-17
3.464626129364569052e-17
2.640847457260925087e-17
