# bin_15_15
8.640632668665820149e-11
9.727945616114837534e-11
1.076155642294703942e-10
1.164833987066677433e-10
1.226768816874695090e-10
1.248574100598340450e-10
1.218094171172082455e-10
1.122488309254212059e-10
9.781672246839252030e-11
8.094299044183692255e-11
6.635044926314143277e-11
5.664707080204664045e-11
4.856485557295040860e-11
3.655675190428980712e-11
2.549109348736717670e-11
2.075315321330933657e-11
1.395411547332024592e-11
1.055121650076982358e-11
7.167267392899882820e-12
4.990707886076863058e-12
3.499402172931068066e-12
2.453713738203744292e-12
1.730011279379919471e-12
1.234002714515536375e-12
8.974430756858340239e-13
6.654860928488519434e-13
5.024853682506885234e-13
3.850605790983962541e-13
2.975669830076643782e-13
2.302233591740368872e-13
1.770297130344161448e-13
