# bin_14_9
7.780491104730933880e-15
8.671248912282545404e-15
9.474911444988821550e-15
1.009986990330561176e-14
1.043207162755636177e-14
1.038394647104140219e-14
9.810622327208687897e-15
8.753659787838503343e-15
7.382572463835642018e-15
6.038000808909377465e-15
5.047704694007664556e-15
4.372286541553639985e-15
3.533286790352000836e-15
2.462048335692355750e-15
1.896936647150280830e-15
1.425756432323502401e-15
9.945120329520079223e-16
7.059023430208560275e-16
5.091151754739359554e-16
3.574239001926807905e-16
2.518260814617878611e-16
1.799025363920037257e-16
1.304149121558393004e-16
9.623572056166136520e-17
7.238897696823433956e-17
5.533420962632197943e-17
4.280093100803983646e-17
3.328251757519603785e-17
2.582994450257599043e-17
1.986926087949891295e-17
1.506181286017401556e-17
