# bin_15_8
9.091005405281815868e-19
1.013795001853037815e-18
1.108579612677932714e-18
1.182797780223817101e-18
1.223141614879231366e-18
1.219238228921595628e-18
1.154112471153442430e-18
1.031602027348821267e-18
8.715158791809236014e-19
7.129452604964323434e-19
5.951102246700737675e-19
5.154707125041730465e-19
4.185121440538240297e-19
2.923346402827497691e-19
2.238140134139026498e-19
1.695443088938025179e-19
1.174526664285427676e-19
8.392375989608320937e-20
6.039168130632163728e-20
4.233878839283438726e-20
2.979857733956934277e-20
2.125285464882849465e-20
1.538216401610268771e-20
1.133030088973119844e-20
8.508539497252565985e-21
6.494969643467086497e-21
5.019074535078320954e-21
3.901291921695538052e-21
3.028091501105084998e-21
2.330709905909407437e-21
1.768525366043500964e-21
