# bin_16_14
2.519805909363640428e-11
2.837122378393773267e-11
3.138876989225400134e-11
3.397936741478326059e-11
3.579142802226342114e-11
3.643375748454656476e-11
3.555323128971381229e-11
3.277200042969315213e-11
2.856639700838816941e-11
2.364251348552957257e-11
1.937860476122026815e-11
1.654111440580394720e-11
1.418508366284939502e-11
1.068619444383813398e-11
7.448259457994384870e-12
6.063036988084848460e-12
4.079846227750132866e-12
3.083652164386291005e-12
2.093799281587336223e-12
1.458428883956814094e-12
1.022499648772089291e-12
7.168591004088861430e-13
5.053158009203555721e-13
3.603340732966337965e-13
2.619737248465235370e-13
1.942029302588418587e-13
1.465960250195724634e-13
1.123160788687253795e-13
8.678649325709637860e-14
6.714505245413759664e-14
5.163533636972121662e-14
