# bin_15_11
3.761953248157880588e-13
4.213097742596249048e-13
4.631107031573710496e-13
4.973361431246988892e-13
5.186003567105659611e-13
5.219615403028063964e-13
5.008233320997007714e-13
4.534904811770141290e-13
3.882170737462323527e-13
3.186008550703686186e-13
2.633412973210891624e-13
2.273273819716561201e-13
1.899755973370824540e-13
1.363023592043189583e-13
9.959374298707981809e-14
7.920024591898595344e-14
5.289878741009071538e-14
3.953120619052259390e-14
2.773068012188775320e-14
1.927421716172858117e-14
1.353274769677308171e-14
9.550107287647426451e-15
6.830820262446526653e-15
4.963054045873710110e-15
3.678775037065453505e-15
2.776718244680940676e-15
2.127835304479134410e-15
1.646669399238048819e-15
1.277702285806009773e-15
9.868739994812654510e-16
7.537812022568915814e-16
