# bin_7_7
1.899377598093645616e-10
2.063362274563934471e-10
2.184339087194023612e-10
2.237827707279112727e-10
2.204595858214465901e-10
2.056427560837490011e-10
1.813250704084825368e-10
1.513677955885660088e-10
1.237756453038583853e-10
1.044650374301313465e-10
9.017153830047565140e-11
7.056026547109012930e-11
4.904923222355239503e-11
3.909575141716957724e-11
2.807924396202188403e-11
2.060914049533130725e-11
1.442075091432018392e-11
1.051925567212085942e-11
7.591903902096938620e-12
5.527063796659131254e-12
4.089920547754495361e-12
3.077470078694879537e-12
2.357886906813207200e-12
1.833038671699165326e-12
1.437419348659325390e-12
1.129629553110842558e-12
8.833440548778405178e-13
6.828048143291571809e-13
5.187934621447457514e-13
3.857122497377071222e-13
2.796684283579744907e-13
