# bin_10_9
8.809192633090958766e-11
9.724307490908675307e-11
1.050144527703236220e-10
1.103129829214238789e-10
1.119722544571222995e-10
1.088330077175071630e-10
9.990408513639448148e-11
8.673035208304953151e-11
7.162364947724917008e-11
5.877256209522914225e-11
5.026998556394230149e-11
4.289862598827988819e-11
3.202490197128510573e-11
2.254485448509026795e-11
1.834450578208322406e-11
1.237956944076494247e-11
9.420845415627378820e-12
6.527566843749923481e-12
4.622251733205311190e-12
3.313948954234364445e-12
2.390355149396342281e-12
1.745604747143452388e-12
1.295266200686064550e-12
9.799361264750188832e-13
7.532755710555092446e-13
5.854479285860785816e-13
4.572611471118605916e-13
3.562890725312383761e-13
2.750914602525905424e-13
2.092313768249509637e-13
1.560467438020583220e-13
