# bin_13_3
7.547788005193228342e-32
8.301499172181964856e-32
8.924562798329046638e-32
9.321655912229101428e-32
9.401551709704270351e-32
9.051462816806947812e-32
8.225713743377046466e-32
7.068658456643478867e-32
5.809444819651080114e-32
4.789355872262958105e-32
4.122679897047960673e-32
3.468140622266143207e-32
2.519605138850677666e-32
1.820601576199245835e-32
1.464099801740830964e-32
9.831916874588941712e-33
7.449514414661746931e-33
5.252280557634058973e-33
3.713676759459890720e-33
2.666476157655940934e-33
1.930893791485191207e-33
1.420298538203507205e-33
1.062728370050612082e-33
8.101852271768000038e-34
6.265937923555736055e-34
4.889594124844860017e-34
3.824852215710223655e-34
2.977475834946384451e-34
2.291769669026322978e-34
1.734547045575517466e-34
1.285352563268137712e-34
