# bin_19_11
3.467203314380742187e-19
3.907867872169660103e-19
4.328849453981327374e-19
4.693247844577556969e-19
4.952912573847225226e-19
5.052702497100232266e-19
4.946155596125739530e-19
4.575839499819956098e-19
4.002804516959498554e-19
3.320288521689062287e-19
2.718992966653772156e-19
2.314405943413270798e-19
1.991145152834246772e-19
1.515479207276815499e-19
1.051387692409486449e-19
8.532326020467249844e-20
5.809088127650084981e-20
4.359456175604647005e-20
2.946941082585738926e-20
2.063560344264119664e-20
1.443620895716106434e-20
1.009715082997388122e-20
7.097362029901897971e-21
5.042669457834617530e-21
3.651099442538998807e-21
2.695713025990767714e-21
2.027600843285589177e-21
1.549338639218325002e-21
1.195413183282219931e-21
9.246891720088772592e-22
7.117978471860034038e-22
