# bin_16_9
2.812638335794763087e-18
3.147245352787308647e-18
3.455884422805296301e-18
3.706464264183132440e-18
3.858525124591813190e-18
3.876193626523471889e-18
3.709059433508705703e-18
3.349492866347785131e-18
2.859402957863782506e-18
2.344529542516927260e-18
1.941357152853343763e-18
1.677833468034260707e-18
1.394820799584597499e-18
9.941809201465199770e-19
7.333304385907755085e-19
5.782056129622927394e-19
3.882414068196516469e-19
2.879425844861445421e-19
2.031144655399651164e-19
1.413904022015469491e-19
9.927356532507329476e-20
7.018298793463754784e-20
5.032099173374576334e-20
3.666767871558296284e-20
2.725586407716091449e-20
2.062404467649039544e-20
1.583520319739406155e-20
1.226817961267237912e-20
9.521653823691405760e-21
7.350103708524680096e-21
5.606956723544867612e-21
