# bin_16_2
8.926877267353244154e-49
9.909932568794382428e-49
1.077638222960350235e-48
1.141848735134519161e-48
1.170684466116266171e-48
1.154251195226644876e-48
1.077375970082047502e-48
9.504783913101085674e-49
7.935412374341315846e-49
6.488563787205409943e-49
5.478403812505292469e-49
4.734831683972843871e-49
3.703738270099487266e-49
2.563006059793829755e-49
2.045437600714668643e-49
1.458545762831813887e-49
1.066509146785139498e-49
7.339417674746383282e-50
5.295997757295847249e-50
3.755265034126945102e-50
2.674105973788927289e-50
1.929476858898873251e-50
1.412540005979294027e-50
1.053966587977216858e-50
8.007274476153717453e-51
6.169754920349195118e-51
4.796872532582255946e-51
3.736720016960473213e-51
2.895809909886036934e-51
2.218050501348639086e-51
1.670434779751949947e-51
