# bin_19_15
9.886136579394687973e-13
1.118404340225798458e-12
1.244433035443461295e-12
1.356613648048774739e-12
1.441480830325346480e-12
1.482528514305929647e-12
1.467534211698289236e-12
1.376203149379274796e-12
1.219315456577263529e-12
1.021536074542589784e-12
8.352479009323313029e-13
7.030716430106349208e-13
6.088604666410232189e-13
4.816898502541294879e-13
3.325556510278949600e-13
2.626048047769348230e-13
1.896808174117326624e-13
1.356741043221290002e-13
9.258369767641874669e-14
6.615264297269283972e-14
4.573362259974708700e-14
3.151709258159518153e-14
2.191411723934909678e-14
1.537079507712981845e-14
1.095386582093360723e-14
7.958621450543580849e-15
5.896961253319840706e-15
4.452148160535881015e-15
3.408908563220476399e-15
2.629880803385701374e-15
2.028861933909247197e-15
