# bin_16_1
7.017666129478710929e-56
7.784725196741075206e-56
8.457691869720166558e-56
8.951537004772190668e-56
9.165231113851862237e-56
9.020005723141586912e-56
8.400401093210389276e-56
7.395382497382784090e-56
6.163959538821224929e-56
5.041156254912966801e-56
4.264162911518401805e-56
3.681774825467975971e-56
2.861922184014306639e-56
1.981545126965383533e-56
1.589065649148882192e-56
1.122409511878373885e-56
8.273437515826035233e-57
5.681425962572106955e-57
4.089533489048448970e-57
2.905441352569513612e-57
2.073695081040463355e-57
1.498764910401429843e-57
1.099172069118229825e-57
8.217397547417162315e-58
6.253561550904940511e-58
4.824757146162188089e-58
3.754028315360004151e-58
2.924835131585256531e-58
2.265742118845696237e-58
1.733937558835505514e-58
1.304206261711846673e-58
