# bin_14_13
6.825190622407747508e-11
7.652508623450592331e-11
8.423629026860546380e-11
9.061980054024252172e-11
9.470440364521039880e-11
9.555819336483995289e-11
9.202619136064689173e-11
8.363652620198527173e-11
7.187080037354012364e-11
5.906475208274144594e-11
4.871006271594201899e-11
4.196972742398466009e-11
3.530853350699413076e-11
2.557417314679603108e-11
1.845544632737602863e-11
1.482596117060350055e-11
9.851159503582823685e-12
7.423878771753774284e-12
5.169725246167963542e-12
3.586970617906672569e-12
2.518750948115031169e-12
1.773977402182783015e-12
1.264783449707950678e-12
9.153272630827832074e-13
6.758359876380578600e-13
5.083330404561241453e-13
3.884600021751896037e-13
3.001137581758670730e-13
2.327567364163630999e-13
1.798995068984319900e-13
1.376358307140713007e-13
