# bin_16_8
6.928634845443069781e-21
7.742985037645906743e-21
8.488990280747978667e-21
9.086767724013286208e-21
9.435899394927062750e-21
9.451902985604161397e-21
9.007484042623516066e-21
8.102442463926183183e-21
6.888917658159319149e-21
5.642349515549284158e-21
4.685537376626329887e-21
4.054655002103971584e-21
3.342660544961644583e-21
2.361832431218451155e-21
1.766924597353389203e-21
1.373639073305279835e-21
9.316838605595398999e-22
6.819451785166113695e-22
4.850281563668449717e-22
3.384830617437221217e-22
2.377412088483735546e-22
1.685966738953673027e-22
1.213198467121609669e-22
8.877401752648590878e-23
6.625323249216664336e-23
5.030871123432673199e-23
3.872958090250696468e-23
3.004867594341454810e-23
2.332584396682831369e-23
1.798821145962856382e-23
1.369534648754402586e-23
