# bin_9_9
4.727832667983889348e-08
4.298731437552585718e-08
3.804556149116921122e-08
3.277348405759503143e-08
2.752945900885238628e-08
2.264046910237392089e-08
1.832018457767573254e-08
1.463087151692977410e-08
1.151387340802788950e-08
8.884439808587401915e-09
6.722235630847663997e-09
5.046672262261405133e-09
3.802109515957530862e-09
2.862911846478935904e-09
2.161309497998581604e-09
1.647571776271886223e-09
1.265326617106897603e-09
9.797498793622562959e-10
7.627976908144320432e-10
5.950770058237405475e-10
4.632827648386823469e-10
3.584522341188603973e-10
2.745703761006802613e-10
2.075142765198516620e-10
1.543285117237693343e-10
1.127131585233103134e-10
8.073555601419022269e-11
5.668427513675277287e-11
3.901368328442681248e-11
2.634353544140639805e-11
1.747553935653762450e-11
