# bin_12_8
4.936599332770861126e-08
4.501408344436235011e-08
3.994875342663126517e-08
3.449710446306678570e-08
2.903395323529968987e-08
2.391196526157899894e-08
1.937084402032360112e-08
1.548962768967218072e-08
1.221021807636753578e-08
9.436242771415945657e-09
7.141792660174924985e-09
5.357586991201274633e-09
4.035465740732033305e-09
3.036364052341895238e-09
2.288810328515394952e-09
1.742705677932728888e-09
1.336574784367240521e-09
1.033795468277885208e-09
8.043372653250902034e-10
6.273542631277625910e-10
4.885480046745921497e-10
3.782795029868815249e-10
2.900873454652994236e-10
2.195596254058372190e-10
1.635604819248456352e-10
1.196722927562798768e-10
8.587961100359837138e-11
6.040546400180821042e-11
4.164541209436555986e-11
2.816320108713007378e-11
1.870685215989747092e-11
