# bin_7_2
2.173447883520965583e-08
1.852289590295068037e-08
1.541265058924397022e-08
1.258440898671474489e-08
1.013337356597759367e-08
8.059483596304305789e-09
6.304048292172705264e-09
4.826615133195582387e-09
3.641663567004747152e-09
2.753305314841717122e-09
2.090620872044064946e-09
1.587804518873920683e-09
1.219051339474122011e-09
9.446976810539803633e-10
7.393771998676370621e-10
5.827800740999954928e-10
4.609128571442829972e-10
3.640982810963195968e-10
2.859355429711511610e-10
2.222687073621436613e-10
1.703689507560006903e-10
1.283692494940298124e-10
9.485989486062983146e-11
6.864322276042910849e-11
4.860966613254425008e-11
3.369447310786733024e-11
2.288569232540253174e-11
1.525765812634228994e-11
1.000625642955983572e-11
6.470418984078978523e-12
4.134993131297089845e-12
