# bin_12_9
5.209636822923661306e-08
4.774172599937718292e-08
4.259192455161071596e-08
3.697194901091891850e-08
3.126624333822197461e-08
2.585084401530226982e-08
2.100206134992568007e-08
1.683365160481555288e-08
1.330896965327408643e-08
1.032766776768373584e-08
7.844408814990800924e-09
5.885645394203119942e-09
4.425779910185634431e-09
3.330297912349474970e-09
2.503983357573203816e-09
1.901086067402164598e-09
1.453246243299027193e-09
1.120737030345633493e-09
8.697275164529167396e-10
6.771573740240052083e-10
5.269170990947008455e-10
4.080811286886801076e-10
3.133234550285039664e-10
2.376498019104317234e-10
1.775498970295695700e-10
1.303684636830146472e-10
9.393339756260179673e-11
6.635891533933535411e-11
4.595649889826470482e-11
3.121754797525307894e-11
2.082347290226958042e-11
