# bin_14_12
6.148266640844131354e-08
5.717389324894588357e-08
5.179637643566862716e-08
4.566162974324776018e-08
3.917849270829181568e-08
3.279155146618583037e-08
2.689077264741773424e-08
2.171143147940081904e-08
1.730116094249738389e-08
1.357113396799770982e-08
1.042443551607790569e-08
7.854149058785509193e-09
5.882569391906411281e-09
4.419260046123958119e-09
3.310769718165033533e-09
2.489372201842999283e-09
1.887565686837879967e-09
1.441748668808206838e-09
1.109571816394436514e-09
8.585454054803763530e-10
6.656699181946619692e-10
5.151929703712801751e-10
3.964487329552449508e-10
3.021975045318657159e-10
2.274391553434426264e-10
1.685697570265583666e-10
1.227948917136119806e-10
8.780189999935431577e-11
6.158519255199317842e-11
4.237503083141447859e-11
2.862075664776976537e-11
