# bin_2_2
1.555214168696863276e-08
1.303194629623879975e-08
1.070005115551423457e-08
8.648607184819750883e-09
6.900847653460899160e-09
5.427338663674736453e-09
4.190495986819408735e-09
3.181704949591387470e-09
2.404942785578116601e-09
1.827847763195441513e-09
1.392561068656078839e-09
1.067759844798764818e-09
8.279327858225891941e-10
6.478093942779958707e-10
5.108719633149869569e-10
4.045393987895054384e-10
3.202376687821768127e-10
2.522463669569725052e-10
1.968364489922707735e-10
1.515755766581114227e-10
1.148157334942067565e-10
8.534181672712635873e-11
6.214315953156590652e-11
4.429332388780956058e-11
3.090370429279601996e-11
2.112413416308493822e-11
1.416800076813616661e-11
9.342791865946799293e-12
6.071072328463511883e-12
3.896454725159566213e-12
2.475308648096560788e-12
