# bin_8_5
3.501677275151952219e-08
3.102086688938916126e-08
2.674530205314787232e-08
2.248039421747986826e-08
1.849650201262271679e-08
1.497366880181028403e-08
1.196767918451042133e-08
9.429964187145822629e-09
7.286514794785537975e-09
5.519668793947695913e-09
4.151278776433731664e-09
3.137827406748192488e-09
2.371346082979369319e-09
1.798868601353940788e-09
1.379145755115482634e-09
1.066044972552839206e-09
8.309993996622487552e-10
6.513293956183350412e-10
5.113191264376900303e-10
4.003023882528745016e-10
3.111777479976974109e-10
2.392360249343796767e-10
1.812818976874693381e-10
1.350259234955564377e-10
9.866255295505163115e-11
7.063567780483427021e-11
4.952686233433493980e-11
3.402105065719123672e-11
2.291968593158586232e-11
1.516905201918570772e-11
9.883353148132336934e-12
