# bin_12_3
2.930172757445738973e-08
2.548467542278834478e-08
2.157999703547066706e-08
1.785749105146865013e-08
1.452111145566538955e-08
1.165863389783369617e-08
9.240501291367898494e-09
7.185936766609600895e-09
5.464416696537650897e-09
4.110870499977203363e-09
3.109637593291669547e-09
2.353841970725732802e-09
1.785160580821565674e-09
1.369797954222968303e-09
1.060130605529033747e-09
8.284024922370568006e-10
6.516031364459487377e-10
5.139316066983478130e-10
4.046129111832665622e-10
3.165117757163338332e-10
2.449679728975712276e-10
1.868904027310275094e-10
1.401309887019502630e-10
1.030364656861043729e-10
7.418971804278723218e-11
5.228196508837420875e-11
3.607058486271399658e-11
2.439122938091398484e-11
1.619465503028369284e-11
1.058093244776399109e-11
6.818943485636597972e-12
