# bin_15_10
5.808907978739909502e-08
5.371954670070236902e-08
4.837732417302958865e-08
4.238439049891987876e-08
3.614767608325045102e-08
3.009424951897687633e-08
2.457691574484836324e-08
1.978246413330411334e-08
1.571810965344821644e-08
1.227828370809034613e-08
9.382393059298571815e-09
7.047320276470192051e-09
5.285405471463400516e-09
3.974982803560279161e-09
2.978756030505952110e-09
2.249303547780674388e-09
1.710604737970363773e-09
1.312260173663667417e-09
1.013679155273086874e-09
7.867266515075941541e-10
6.112421584221312231e-10
4.734954298656289346e-10
3.642554283310853101e-10
2.772499992112359289e-10
2.081373374398393050e-10
1.537330360416189107e-10
1.115148000667298004e-10
7.935191831024875651e-11
5.536673250591411129e-11
3.788870755588367412e-11
2.545139226888888007e-11
