# bin_10_1
1.769664054249524505e-08
1.484162299296670204e-08
1.219222245683072666e-08
9.865196340559956653e-09
7.886870948290625447e-09
6.211316385606205451e-09
4.789318541136647771e-09
3.625088871903483698e-09
2.738054565557232740e-09
2.080366848193197817e-09
1.580515870359942726e-09
1.211184672104328524e-09
9.382284578198839571e-10
7.342115193062172947e-10
5.793940717766261057e-10
4.594128838287220217e-10
3.643389456783456533e-10
2.875907696837873123e-10
2.249148386593323697e-10
1.735665128377511577e-10
1.317213409728854109e-10
9.805559795702339223e-11
7.147569688644615684e-11
5.097348675547370379e-11
3.556818398358733260e-11
2.430649855695378535e-11
1.629466984312521347e-11
1.073890960948929694e-11
6.974073284130742175e-12
4.473465893889917291e-12
2.840445280280901751e-12
