# bin_5_3
2.398411610508961966e-08
2.064379449232513548e-08
1.732971370923755940e-08
1.424597815016406247e-08
1.152554101377058292e-08
9.206471401883595705e-09
7.249771260244745483e-09
5.600558290212832720e-09
4.246866548706304798e-09
3.201897640914558295e-09
2.427223714903573824e-09
1.841647830414821353e-09
1.404790373686241746e-09
1.083353806703736132e-09
8.428646369156620923e-10
6.612000070438341224e-10
5.212398076552267201e-10
4.111968168336836057e-10
3.231414903031904413e-10
2.518546587018105360e-10
1.939091217196043092e-10
1.469883361669600447e-10
1.094144098014816933e-10
7.983138984916132599e-11
5.703315293741830022e-11
3.988839649018034422e-11
2.732742306836054803e-11
1.836395003361129262e-11
1.212771027992179249e-11
7.888656818859095766e-12
5.065752265166079038e-12
