# bin_15_12
6.275596554362066502e-08
5.845536259660406238e-08
5.304919659643308526e-08
4.684695535635155005e-08
4.026047582759329005e-08
3.374328792047580778e-08
2.770025930768140248e-08
2.238312861977082494e-08
1.785122821067500945e-08
1.401813736276093199e-08
1.078067221750677353e-08
8.127072117739507366e-09
6.084932736954427486e-09
4.570139801869641222e-09
3.422836842520604332e-09
2.571021146581401943e-09
1.947818305068641720e-09
1.486186256186741734e-09
1.142728210354799200e-09
8.835691342833116440e-10
6.847711210243810179e-10
5.299106471006063080e-10
4.078532144451750086e-10
3.110444998844310093e-10
2.342742741656626483e-10
1.738043984046679251e-10
1.267525361714791861e-10
9.074584372929621527e-11
6.373442566984442134e-11
4.391248310418863793e-11
2.969765407547413152e-11
