# bin_13_10
5.584017849193877559e-08
5.148365475750814432e-08
4.622125235333830008e-08
4.037506116793611261e-08
3.434242793288211000e-08
2.853014266257424845e-08
2.326225099619271997e-08
1.869922561009944515e-08
1.483376962078318258e-08
1.156378691913938120e-08
8.821245397275805242e-09
6.624516003217146276e-09
4.972072153287672811e-09
3.740134363708528176e-09
2.805942662033462020e-09
2.122274806315828620e-09
1.616623566863982654e-09
1.242173006112839691e-09
9.608679685330610128e-10
7.464350202741099779e-10
5.801713738285770058e-10
4.493581246510230039e-10
3.454485645166409887e-10
2.626283898239916464e-10
1.968523279290380077e-10
1.451250362297681538e-10
1.050499696636408436e-10
7.458537479913948985e-11
5.192343482653335514e-11
3.545422508242885866e-11
2.376703295097333353e-11
