# bin_15_13
6.472126562889592643e-08
6.045622920831669469e-08
5.503079444079175567e-08
4.874858534232563795e-08
4.202247451645003304e-08
3.531600263968397754e-08
2.905403816647149340e-08
2.351516594697165696e-08
1.878137898350619686e-08
1.477696050488179288e-08
1.139222661945006665e-08
8.603269399827861257e-09
6.439872051948999491e-09
4.832983352226186867e-09
3.619513414663984405e-09
2.713844844006151368e-09
2.052715788476580621e-09
1.562893893990602922e-09
1.199504192171449916e-09
9.259742949356710557e-10
7.168095316434808058e-10
5.543824027082193546e-10
4.266940053275820893e-10
3.256091287977149282e-10
2.455223207540067590e-10
1.824404416641268815e-10
1.333157382810482293e-10
9.566427676917218961e-11
6.735817428369528462e-11
4.653181769110752954e-11
3.155285661832100828e-11
