# bin_13_12
6.005127621935889654e-08
5.573334141133215583e-08
5.038805721934746931e-08
4.432921289961668067e-08
3.796227513803851530e-08
3.172177214191575585e-08
2.598091385456281033e-08
2.095646549233642011e-08
1.668291068072679518e-08
1.306872425700777658e-08
1.002404823820357459e-08
7.547413839400350553e-09
5.655145225100033832e-09
4.249691934251794116e-09
3.184821590470807237e-09
2.397612648826645100e-09
1.819849494905292991e-09
1.391806530649965050e-09
1.072307541919382442e-09
8.304205933727648975e-10
6.442010052142540872e-10
4.986505320694011789e-10
3.836300088895079502e-10
2.922532617781629630e-10
2.197562452246126457e-10
1.626858262021757535e-10
1.183463718672509112e-10
8.449284711917243357e-11
5.916944967396737556e-11
4.064696772069182034e-11
2.741037820581945224e-11
