# bin_17_9
5.693271766944718609e-08
5.251459753997277500e-08
4.715639726137690378e-08
4.118764234114419669e-08
3.501888095806461893e-08
2.907530638889977453e-08
2.369603280523988454e-08
1.904652809896705180e-08
1.511232332069219641e-08
1.177758432128479594e-08
8.971962053203895026e-09
6.728832448259019494e-09
5.052572636857391372e-09
3.799979696516260453e-09
2.848405412514569624e-09
2.155847623934338898e-09
1.642098975196838824e-09
1.262405996815690015e-09
9.771619018172241441e-10
7.596162995017757460e-10
5.908383228128349737e-10
4.579295069502946091e-10
3.522455297040727139e-10
2.679158377679277894e-10
2.008718609183573075e-10
1.481007688829269653e-10
1.071895651011493978e-10
7.607711628361593339e-11
5.293130559334645243e-11
3.611461906470342065e-11
2.418769966094176200e-11
