# bin_13_9
5.330404327195513712e-08
4.893354878588571967e-08
4.373170743606455207e-08
3.802463821733203300e-08
3.220330356236687349e-08
2.665601474558797528e-08
2.167476456499004869e-08
1.738622193569761517e-08
1.375927919767790614e-08
1.068972155222430010e-08
8.125966265566319302e-09
6.096194734227015348e-09
4.582294180256567347e-09
3.447580555333871076e-09
2.589987837407964577e-09
1.964701742193424433e-09
1.500404057030026416e-09
1.156112748571030499e-09
8.965546311549081424e-10
6.977479464011564224e-10
5.428786784584852397e-10
4.205286188488829475e-10
3.230425687719647421e-10
2.452074403202446232e-10
1.833735507179863383e-10
1.347963397675218674e-10
9.724355063186567858e-11
6.878561372459178263e-11
4.769815314871176563e-11
3.244037782505041996e-11
2.166354150622637755e-11
