# bin_10
0.000000000000000000e+00
0.000000000000000000e+00
0.000000000000000000e+00
0.000000000000000000e+00
5.286502410501338023e-322
1.195727725132489916e-270
2.757594152221014794e-227
1.414302334097743633e-190
1.952808105765564101e-159
5.530075524465776833e-133
1.698201440305264854e-110
2.235865369460462763e-91
3.952511457056393152e-75
2.433663441439693960e-61
1.161698104984995751e-49
8.442083070994307316e-40
1.654429876260515968e-31
1.422340353975550256e-24
8.130340670877860886e-19
4.415494758997694691e-14
3.099657138742643701e-10
3.673602338874658798e-07
9.283602554626409588e-05
6.150072906875920196e-03
1.286099551699965704e-01
1.006406755826344757e+00
3.440405928950224457e+00
5.856193584437135335e+00
5.452727046179207449e+00
2.939648154593430096e+00
9.516078942601593482e-01
1.911700844204701766e-01
2.471434962578869174e-02
2.138315124690935969e-03
1.288466290620823515e-04
5.619469679972513215e-06
1.839418366833425937e-07
4.672708167550469228e-09
9.498320687412588512e-11
1.588469220253637194e-12
2.241167428399057042e-14
2.728821419265188468e-16
2.926482614578650165e-18
2.815552359358008452e-20
2.470594039669691145e-22
2.006814617851589551e-24
1.529238990047703679e-26
1.106396975727961733e-28
7.682262527753162490e-31
5.169011239318438134e-33
3.399645762088407399e-35
2.202663306447227836e-37
1.415735820729552907e-39
9.083489458270076828e-42
5.850493913111992368e-44
3.801705561465204647e-46
2.503549224796175914e-48
1.677498804984564843e-50
1.147743148940100580e-52
8.044164703261942320e-55
5.791539113637289158e-57
4.294051637619100331e-59
3.285926600539464494e-61
2.600210544338601049e-63
2.131367917393645335e-65
1.812395647491915681e-67
1.600857881956202569e-69
1.470419721439666133e-71
1.405829197209151506e-73
1.400158929397759109e-75
1.453681787752924936e-77
0.000000000000000000e+00
0.000000000000000000e+00
0.000000000000000000e+00
0.000000000000000000e+00
0.000000000000000000e+00
0.000000000000000000e+00
0.000000000000000000e+00
0.000000000000000000e+00
0.000000000000000000e+00
0.000000000000000000e+00
0.000000000000000000e+00
