# bin_5_17
3.208346606203912412e-07
3.415419605472400773e-07
3.524774407471101860e-07
3.505573459862373472e-07
3.312123907657281605e-07
2.956635982440132686e-07
2.496968242296018189e-07
2.043953847540907101e-07
1.706358526442328110e-07
1.473054304640776845e-07
1.192291293450428745e-07
8.422758811617340686e-08
6.449711405208843837e-08
4.903035468235862168e-08
3.462190087835044711e-08
2.528156400637727233e-08
1.845110381708730905e-08
1.337832978416295550e-08
9.833850835395158664e-09
7.352585447674427139e-09
5.597586822537747315e-09
4.334306674458833496e-09
3.401367948561075876e-09
2.687484304531540690e-09
2.123221316897112886e-09
1.665581343621852213e-09
1.288858191241140498e-09
9.784199592938905525e-10
7.254784380301863554e-10
5.238250509551822768e-10
3.679856148509188885e-10
