# bin_19_13
1.264045862310775250e-16
1.426955635819228466e-16
1.583664692864127617e-16
1.720964857638394628e-16
1.821429534042949199e-16
1.864365050441650349e-16
1.833747254039340789e-16
1.706054291483919002e-16
1.500451689664919544e-16
1.249330895258780067e-16
1.022006098939132733e-16
8.659868991283705144e-17
7.479173518183026846e-17
5.784178469453242950e-17
3.993777865276741551e-17
3.215442177450262241e-17
2.238468954502861700e-17
1.653426759303485588e-17
1.114085047670680107e-17
7.882362847354646103e-18
5.488408417833220032e-18
3.818337463394501399e-18
2.672250723088768066e-18
1.888309173700033482e-18
1.358426620486652636e-18
9.965511750281083213e-19
7.451899388119198774e-19
5.668599999672442863e-19
4.362041759764168813e-19
3.372024581538043985e-19
2.599009482691738255e-19
