# bin_7_7
1.410086271266310542e-08
1.525577056311122951e-08
1.606808707838220874e-08
1.636354348207030292e-08
1.598632510310806274e-08
1.476497304583589905e-08
1.289634524622695643e-08
1.069222381217265681e-08
8.757321615966247010e-09
7.448765258094759540e-09
6.389646131836304235e-09
4.865885190133251676e-09
3.405337845761038387e-09
2.756158004258859642e-09
1.912981669223425822e-09
1.442207129856739102e-09
1.006603584044253355e-09
7.283865374098392125e-10
5.292883961205621624e-10
3.882699284070079174e-10
2.891897263520710961e-10
2.190291973042973493e-10
1.688593979131121476e-10
1.318842836133436564e-10
1.037066140278766910e-10
8.155548285934716252e-11
6.368539167280796337e-11
4.906983007787233740e-11
3.710553466338789961e-11
2.741969435465401252e-11
1.974308664248843518e-11
