# bin_3_17
4.992180352073535713e-07
5.139794610118774178e-07
5.097172562660275183e-07
4.801952429650401718e-07
4.276241079589005183e-07
3.606428011011150625e-07
2.954333526254271341e-07
2.470192274982938122e-07
2.126445703831225952e-07
1.710967024513366001e-07
1.216084229434936763e-07
9.334404477386333561e-08
7.065347512690419005e-08
5.047583924558060628e-08
3.706672551183216403e-08
2.720823483027455887e-08
1.999900513621118715e-08
1.493804217329831010e-08
1.136184688769679873e-08
8.798902466418421194e-09
6.919309188496495916e-09
5.496859249740950347e-09
4.379411432693591901e-09
3.473944216015448946e-09
2.724867804008216198e-09
2.100303429159556015e-09
1.582793309212083305e-09
1.162077300459170388e-09
8.297271805013810924e-10
5.764916657450290821e-10
3.906158622589370969e-10
