# bin_1_1
6.234933460291947320e-08
5.892583874579386443e-08
5.268512115833160104e-08
4.465457952465531770e-08
3.667009628408832005e-08
3.056322362487735659e-08
2.620016396666122890e-08
2.126924482907832214e-08
1.537935175751601490e-08
1.162005918149598773e-08
8.928903485180921113e-09
6.397667892494356317e-09
4.774218271112331305e-09
3.525428693607202769e-09
2.636226573962069327e-09
2.007807091833991747e-09
1.558460015836098424e-09
1.231092011824455817e-09
9.850762926310277366e-10
7.932913322388982149e-10
6.379188764756998894e-10
5.084640807360705948e-10
3.990401029804921995e-10
3.065896960090123947e-10
2.296362701892024175e-10
1.672922534470566637e-10
1.185153067409364996e-10
8.178391966195540310e-11
5.512849476335169010e-11
3.641998537153267612e-11
2.365873786395306896e-11
