# bin_7_6
2.074110464794890113e-09
2.237878279333549183e-09
2.349000429082974036e-09
2.382874281436463760e-09
2.314744543904313348e-09
2.124168187542953171e-09
1.843645653584363635e-09
1.522611305434196306e-09
1.249358027898832026e-09
1.067749799247755021e-09
9.103661095340008446e-10
6.810516657816225172e-10
4.811420998151154163e-10
3.908221673212019007e-10
2.668719089060991954e-10
2.033242585644646293e-10
1.426702472252062845e-10
1.026875269363396859e-10
7.486598246910847460e-11
5.513572364110073350e-11
4.123478901536725930e-11
3.136467095299863193e-11
2.427320981043930571e-11
1.901059154177061734e-11
1.497156931685684126e-11
1.177560561811645744e-11
9.184780398108057999e-12
7.060675476363608021e-12
5.321629521430522132e-12
3.916383077410082477e-12
2.806961632728372006e-12
