# bin_6_13
2.068375200568327557e-07
2.226163482848525792e-07
2.329424136634615168e-07
2.354761748176423131e-07
2.275810428834756382e-07
2.077652578281351794e-07
1.793909003103978467e-07
1.478375015617110833e-07
1.216358556882911063e-07
1.042500988411061471e-07
8.816426238261246381e-08
6.513270726225599942e-08
4.667263021232349725e-08
3.758343281844088542e-08
2.570213780029098068e-08
1.948083540536743406e-08
1.378844483040051735e-08
9.927153110805362059e-09
7.243096550290885586e-09
5.345525614135206094e-09
4.010743069112825605e-09
3.061093096404670200e-09
2.375515761909887051e-09
1.863908473691150005e-09
1.469075463589883930e-09
1.155133845163173770e-09
8.998075037646685885e-10
6.902032462068423848e-10
5.186937630776421986e-10
3.804065221663244920e-10
2.716418903735325832e-10
