# bin_14_5
5.162011651483709752e-32
5.713426386781391840e-32
6.190254714315141510e-32
6.529246840604548681e-32
6.658096656088819411e-32
6.515661245058123380e-32
6.026848772065121507e-32
5.271580227078484155e-32
4.372455653507694336e-32
3.579443433606670207e-32
3.044647254462614699e-32
2.618742511259387430e-32
1.996482324233858777e-32
1.387722745898607908e-32
1.126664800916023011e-32
7.739333044418546971e-33
5.833303307510122148e-33
3.999994307132193935e-33
2.852108453611078979e-33
2.038206422285325875e-33
1.464514923323250091e-33
1.063787774694846456e-33
7.844364652124860634e-34
5.898629796738610281e-34
4.511461807670529398e-34
3.493837096326404754e-34
2.724246257184006810e-34
2.123205660154464166e-34
1.642578115040844534e-34
1.253606541653780491e-34
9.392688152783720303e-35
