# bin_1_18
8.216685349437776632e-07
7.929532881228653376e-07
7.246769741551237442e-07
6.270822700763723584e-07
5.193314929892838107e-07
4.282921992037581316e-07
3.644199591629161336e-07
3.058873883010238058e-07
2.306255348116312783e-07
1.675613350743913551e-07
1.314003456917264449e-07
9.467755775643200388e-08
7.045201119243070654e-08
5.151872620539014216e-08
3.835086941884194201e-08
2.890052049161586890e-08
2.217398939544844579e-08
1.733379492942177284e-08
1.375795099059116045e-08
1.102876912010219606e-08
8.862932978609418563e-09
7.086235042370183843e-09
5.597580521685980886e-09
4.341450332716555179e-09
3.289684548758116895e-09
2.427153467671532266e-09
1.741488853894011046e-09
1.215956529159398855e-09
8.281286295370331229e-10
5.518341493377771157e-10
3.610032789851359586e-10
