# bin_4_20
4.266457625583152601e-07
4.477440672779099157e-07
4.542878184957736245e-07
4.415770837502099022e-07
4.058830542800080683e-07
3.528787446330482486e-07
2.920927126268912626e-07
2.397959045394796065e-07
2.043187770643177559e-07
1.738978267522492364e-07
1.313020220028807529e-07
9.331739560908048582e-08
7.485036579404828266e-08
5.245709726429751899e-08
3.943624806186182330e-08
2.808673116500753269e-08
2.053825658378856768e-08
1.514078738640998645e-08
1.131202417961603144e-08
8.602810339300386620e-09
6.654442758694682439e-09
5.224965418794764625e-09
4.138604669930725358e-09
3.283611894249251146e-09
2.591288155045006281e-09
2.020173565411283013e-09
1.546698086700493185e-09
1.157387164485364989e-09
8.436111245562286570e-10
5.981103009113747858e-10
4.127580179906227295e-10
