# bin_20_17
2.426664679206434623e-11
2.751335201030477377e-11
3.069749296522023634e-11
3.357704603317574202e-11
3.582686498319088250e-11
3.704042537812951474e-11
3.690688684750047614e-11
3.490402426725397155e-11
3.117021212979159186e-11
2.630439234452182807e-11
2.151759295637853378e-11
1.798741171113493608e-11
1.559098275125785237e-11
1.261770842987858550e-11
8.773566887788138719e-12
6.744808399982968581e-12
5.061496995603425665e-12
3.497218202639076211e-12
2.455436220578837693e-12
1.749442595941180590e-12
1.201849283055443828e-12
8.223033006818400984e-13
5.673579239129007319e-13
3.947884043243536403e-13
2.784317198453304019e-13
2.000921075308172221e-13
1.466643070006792447e-13
1.096921000255384675e-13
8.341840660929959958e-14
6.412855681494509754e-14
4.946861758182622169e-14
