# bin_8_9
3.382645785065066273e-08
3.694139431263405691e-08
3.936541871349933108e-08
4.065837014326670735e-08
4.047366036207714374e-08
3.825976541375811907e-08
3.415986903568635578e-08
2.883656538846156748e-08
2.358936371600021957e-08
1.969715768564851557e-08
1.704131333573779157e-08
1.380250386628382237e-08
9.675557289574909979e-09
7.427324289820631088e-09
5.628709414048210495e-09
3.943479920911198763e-09
2.845553640550222391e-09
2.067439797354777302e-09
1.476934577826053461e-09
1.065102645909610472e-09
7.805101903988239380e-10
5.819287070159345849e-10
4.417440927228687700e-10
3.409014744519768550e-10
2.660258884697858188e-10
2.086382973581709456e-10
1.633034195848772165e-10
1.266807339976150762e-10
9.681822534130941397e-11
7.254569893103711503e-11
5.309094620018450440e-11
