# bin_20_18
2.422386197051434961e-10
2.748226078393071836e-10
3.068730074886750220e-10
3.359874564146235837e-10
3.589382440567878080e-10
3.716781094996528301e-10
3.710285682075065392e-10
3.517795244525283430e-10
3.148865647077766176e-10
2.663492791341964257e-10
2.179519345366929012e-10
1.818226261065850419e-10
1.575832459999603599e-10
1.283163859712605632e-10
8.955918548878472055e-11
6.825194648695940010e-11
5.176301565406140997e-11
3.544523607290305988e-11
2.514259681519899108e-11
1.784408942366587180e-11
1.223828640681988836e-11
8.365047897067619066e-12
5.757754333599583562e-12
3.996745601100225535e-12
2.809953997311963149e-12
2.012526332019758012e-12
1.470092320318934203e-12
1.096077030956804674e-12
8.315503962166604132e-13
6.383598155931241758e-13
4.922636032247585924e-13
