# bin_15_12
9.514971341726001693e-12
1.066335995952675653e-11
1.173119462945717555e-11
1.261129431400000898e-11
1.316795878061079524e-11
1.327326924081490410e-11
1.276346571007001951e-11
1.158194249760786198e-11
9.936807431076849728e-12
8.160881462290608895e-12
6.736019137046422009e-12
5.809164934042490336e-12
4.874548433788171567e-12
3.515714115055255143e-12
2.549853829082889461e-12
2.041232113354174433e-12
1.357888125269502664e-12
1.020654400690963811e-12
7.128891092555597396e-13
4.948995015078329809e-13
3.474877251318251610e-13
2.448883126587020169e-13
1.748259542171890149e-13
1.267318538505201109e-13
9.372747925797858298e-14
7.060347934466234952e-14
5.401963385960058970e-14
4.176595289644226380e-14
3.240054112444777756e-14
2.503692069672207671e-14
1.914263762906681642e-14
