# bin_12_19
9.096968929311910986e-08
1.014790076911418708e-07
1.110112829473129176e-07
1.185030542133929804e-07
1.226262047507583896e-07
1.223270724475021477e-07
1.159205297082372103e-07
1.037251751181171797e-07
8.772875911834977625e-08
7.178793211558823241e-08
5.987295025982362446e-08
5.184299263335835184e-08
4.219081133546340154e-08
2.954783885123273407e-08
2.252735267854592476e-08
1.713639408020014192e-08
1.183441680079100053e-08
8.493728550932009361e-09
6.094543327042943951e-09
4.269567312913924428e-09
3.004909886921427158e-09
2.141072618743510187e-09
1.548057122894381188e-09
1.138963021385246259e-09
8.543771900798583885e-10
6.515747016679780696e-10
5.031601982991303477e-10
3.909548617987909591e-10
3.034357511998009509e-10
2.336145887966633547e-10
1.773569033472640416e-10
