# bin_10_18
1.245727002054147113e-07
1.378219687547513195e-07
1.492479418317524052e-07
1.573213388835106774e-07
1.603207860851421253e-07
1.567287210153003735e-07
1.448261263558851376e-07
1.265475971850957009e-07
1.049339369257814263e-07
8.595390908808507778e-08
7.315074331154884120e-08
6.280228550545780269e-08
4.776988001554794329e-08
3.331953392697022245e-08
2.698369967782913150e-08
1.855871045934019803e-08
1.395065392369969980e-08
9.606333994183309659e-09
6.850248115413643634e-09
4.893235157069985544e-09
3.514347065684249203e-09
2.554259061145084504e-09
1.885055447923814195e-09
1.418464076039636097e-09
1.085473760844014539e-09
8.409092049397261606e-10
6.557293034794185659e-10
5.109694133358895457e-10
3.951504254204445382e-10
3.014126910144011938e-10
2.256825577008387380e-10
