# bin_5_20
3.491264180351800641e-07
3.716829535022982358e-07
3.836133962875624074e-07
3.815604589434389589e-07
3.605507122892510821e-07
3.218923573985034379e-07
2.718790282822997672e-07
2.225569937959496608e-07
1.857800371562546710e-07
1.603784475841333645e-07
1.298485707602344525e-07
9.174403327970351880e-08
7.022638591969422929e-08
5.340906893879586506e-08
3.770106316009906532e-08
2.753777332380260555e-08
2.009531276570275856e-08
1.456935333070167839e-08
1.070868997076327371e-08
8.006040654024175358e-09
6.094586898604942512e-09
4.718790110454902882e-09
3.702892388638987126e-09
2.925635419795593444e-09
2.311358374044564690e-09
1.813203596056185868e-09
1.403150578138831791e-09
1.065249626145707499e-09
7.899221200408264622e-10
5.704056684917927414e-10
4.007438954433788218e-10
