# bin_9_7
1.040062396660494917e-10
1.136719254061861737e-10
1.212475165347141393e-10
1.253795429959421997e-10
1.249965151399121134e-10
1.183842912859561936e-10
1.058830966868119828e-10
8.952427180174839688e-11
7.323937058750776562e-11
6.106167471979388372e-11
5.284268942023105755e-11
4.300500853315778636e-11
3.018652867126331645e-11
2.304454541294105869e-11
1.759660614507146069e-11
1.224437434935388909e-11
8.881877979246853668e-12
6.446774065499198903e-12
4.598944941014414373e-12
3.312155895745230468e-12
2.423703423232409765e-12
1.804758823477854391e-12
1.368220818541100008e-12
1.054783357479043971e-12
8.225384602249753012e-13
6.449097709215243924e-13
5.048439934165503693e-13
3.918247496169393995e-13
2.997083464306671377e-13
2.248172093359461597e-13
1.647410294894245255e-13
