# bin_7_18
2.227209782696711228e-07
2.418981008173739351e-07
2.560148200571822302e-07
2.622223956094996375e-07
2.582190479933462713e-07
2.407822778500113970e-07
2.122410693204915518e-07
1.771884121490368736e-07
1.449434484077846235e-07
1.223509280235098611e-07
1.055082668594726514e-07
8.249585683200357192e-08
5.748420022161020077e-08
4.572620127272340988e-08
3.286201440440133342e-08
2.408894887422029758e-08
1.691864191084817677e-08
1.231719470663532978e-08
8.888995614831693789e-09
6.472363226108904646e-09
4.789515264742913217e-09
3.604354305179984073e-09
2.761753189705351902e-09
2.147033102020415875e-09
1.683561626652927335e-09
1.322914495466216985e-09
1.034318707917724641e-09
7.993449790136708795e-10
6.072057322949575179e-10
4.513408226745348075e-10
3.271882829641143789e-10
