# bin_19_6
5.070815232858428060e-47
5.688822934027087049e-47
6.266571139314635083e-47
6.747451472756272299e-47
7.059521086307535016e-47
7.132221689699689661e-47
6.881347640272503214e-47
6.265614867375074335e-47
5.394438706029268136e-47
4.436371819332293570e-47
3.654523619378891415e-47
3.145752106299004200e-47
2.655259361550847318e-47
1.932374878298928171e-47
1.385754256002832668e-47
1.118970873925421645e-47
7.415168785037762118e-48
5.611653364782526721e-48
3.893870843050575130e-48
2.699188081432897229e-48
1.895574103383468566e-48
1.333799501866998045e-48
9.494539961817798780e-49
6.857781903743893136e-49
5.053703322615745243e-49
3.794524222808220939e-49
2.895671644345859989e-49
2.235234552293212918e-49
1.733153195139341672e-49
1.340036402688874868e-49
1.026084554979325031e-49
