# bin_19_18
7.603393112917556082e-08
7.201517367774177155e-08
6.652602790586904851e-08
5.983280962988593893e-08
5.234880479455820218e-08
4.458914453909627262e-08
3.708524342160366040e-08
3.026449914790405834e-08
2.434293804534599991e-08
1.931678177997341486e-08
1.505715028729538627e-08
1.147725436447361426e-08
8.601571458046243641e-09
6.431553432241866630e-09
4.813484919406784327e-09
3.587821577804051089e-09
2.690965941920250132e-09
2.031101830566779845e-09
1.545259012054783676e-09
1.183653937385266901e-09
9.111863783625668584e-10
7.026583797245789983e-10
5.407817759336972961e-10
4.138141678045854231e-10
3.137261505133576707e-10
2.349259629542302994e-10
1.733340901410203937e-10
1.257810927911693186e-10
8.966152965084818298e-11
6.274948306778234133e-11
4.311626942461674687e-11
