# bin_17_10
5.828345985980737927e-08
5.387800958941037840e-08
4.849195283733763572e-08
4.245223002636152061e-08
3.617245322037713790e-08
3.008766876883647149e-08
2.455457457625265434e-08
1.975709554980100617e-08
1.569398857742128572e-08
1.225112608239948632e-08
9.349427932276746937e-09
7.016162010020356042e-09
5.264584607068138651e-09
3.959751457376980903e-09
2.966974519362673898e-09
2.242968716480625921e-09
1.707037793933434074e-09
1.311186254707066873e-09
1.014241153324158012e-09
7.882439763221801580e-10
6.132400991373004326e-10
4.756311171497169331e-10
3.662932349707414544e-10
2.790569128957284929e-10
2.096515501876297120e-10
1.549408072996333725e-10
1.124368547676487160e-10
8.002852841089294516e-11
5.584577118828594772e-11
3.821752511891717574e-11
2.567157644579158689e-11
