# bin_7_1
1.622169456798038760e-08
1.355516217767680240e-08
1.110475060638973441e-08
8.966093852994766038e-09
7.151812567434983655e-09
5.615695429029887195e-09
4.317510322454431916e-09
3.265231119130907727e-09
2.469515175414310037e-09
1.878027215698554108e-09
1.428991936548214598e-09
1.098167008453236425e-09
8.528190397272780576e-10
6.690532448152800857e-10
5.289792572773239287e-10
4.199070818544139467e-10
3.330929277127809392e-10
2.627738748371522374e-10
2.052355438958658902e-10
1.580787390072658390e-10
1.196892936331913799e-10
8.886902062617882776e-11
6.460614074037580571e-11
4.595420022891815821e-11
3.198879687907718796e-11
2.181480387795976383e-11
1.459932860869633734e-11
9.609025661626609377e-12
6.234519153246218907e-12
3.996742039277701768e-12
2.537004743736729876e-12
