# bin_18_17
7.342273678181363739e-08
6.933013436991963916e-08
6.383637887061250293e-08
5.721823745397190325e-08
4.989156842138640640e-08
4.236275457991222133e-08
3.514153675619783108e-08
2.862152050286704521e-08
2.298480052248569192e-08
1.820606470084461111e-08
1.415653207960641659e-08
1.076485335809280707e-08
8.061821398332682452e-09
6.033123435020144377e-09
4.516278261112387260e-09
3.369544443155069368e-09
2.532659677167977230e-09
1.915305700826533293e-09
1.460454931123898878e-09
1.121016741381805500e-09
8.643814965415299722e-10
6.672892360559911597e-10
5.137969106433762325e-10
3.930922910114290454e-10
2.977786357337443054e-10
2.226848494758245334e-10
1.640047179239718641e-10
1.187498813742456473e-10
8.443874720265746822e-11
5.893562454462357305e-11
4.038299506695669431e-11
