# bin_19_8
5.325245659080663125e-08
4.877346622813119082e-08
4.346392096478319827e-08
3.766570678614212451e-08
3.178682956107371149e-08
2.622981928428806583e-08
2.128197759429032401e-08
1.705039635855613152e-08
1.347359912045172301e-08
1.043264929312995620e-08
7.895374753142548552e-09
5.916210843772762712e-09
4.455905791242053290e-09
3.348431814602837610e-09
2.519502222064811347e-09
1.915627041834751510e-09
1.467220710018090321e-09
1.133822454661722623e-09
8.820294566390551321e-10
6.883809704313268515e-10
5.368200503061179641e-10
4.165253245652344042e-10
3.202685574359474829e-10
2.431605346991673575e-10
1.817631170163449958e-10
1.334677736081113975e-10
9.612537149783219432e-11
6.784912514675645451e-11
4.693134342308212580e-11
3.183313378608860031e-11
2.120097899854056080e-11
