# bin_18_15
7.027016246221638851e-08
6.609127953223660567e-08
6.059543892606361762e-08
5.407183281762584477e-08
4.693904991604631987e-08
3.969235286915827704e-08
3.281468170504738245e-08
2.665799202602297334e-08
2.136353817433050138e-08
1.688055969981636692e-08
1.308198370440186384e-08
9.916238800584948322e-09
7.420853602299512039e-09
5.560370180017156425e-09
4.162978308268167675e-09
3.110733993106652008e-09
2.344656611447554122e-09
1.777865750002608383e-09
1.359598620796546593e-09
1.046430720859919156e-09
8.085637940495030924e-10
6.250399290467254668e-10
4.815115252007675863e-10
3.682659368816177741e-10
2.786528514291050478e-10
2.079950470239673994e-10
1.528067984087635135e-10
1.103121490702197092e-10
7.817491837359756671e-11
5.436589758586956343e-11
3.711214442908901343e-11
