# bin_20_3
3.043577656100098212e-08
2.648140250263466119e-08
2.242473971273041422e-08
1.855446098947275685e-08
1.508842690302519598e-08
1.211904339086736666e-08
9.609571318720429372e-09
7.470246358503686359e-09
5.673588214295874971e-09
4.265956346183349048e-09
3.228245429762840706e-09
2.441708578772831777e-09
1.851830355691128462e-09
1.421167724814397900e-09
1.100446914292797457e-09
8.605102958951371499e-10
6.775333701333284403e-10
5.350140450096029706e-10
4.217571074944978403e-10
3.303676147436679389e-10
2.560339312109627681e-10
1.955873121482173686e-10
1.468317768709041288e-10
1.080844160350195375e-10
7.790240256775378031e-11
5.494694163425095155e-11
3.793914640061715943e-11
2.567340404349864388e-11
1.705788121991790684e-11
1.115269299720350947e-11
7.192498935560797122e-12
