# bin_15_11
5.894104091790855917e-08
5.457766969577424164e-08
4.921610452931977151e-08
4.317713992200890709e-08
3.687005394167447190e-08
3.072848480200570582e-08
2.511563687646189384e-08
2.022916824823829411e-08
1.608353226825417965e-08
1.257469644280860107e-08
9.618370887168342162e-09
7.228174311169039718e-09
5.419521038480962625e-09
4.075518151871520780e-09
3.054156373603450096e-09
2.304810664777341167e-09
1.752411097456721630e-09
1.343856928409545015e-09
1.037942253885923839e-09
8.056627153928180271e-10
6.262181561705159731e-10
4.854485932422995772e-10
3.738258376735851515e-10
2.848996854244711035e-10
2.142078426617929424e-10
1.584914029203538830e-10
1.151853190285453931e-10
8.213034983953043802e-11
5.742653158453564860e-11
3.938272798113077774e-11
2.651143763412574027e-11
