# bin_10_9
4.763603562653964191e-08
4.332756056424323684e-08
3.835727058079174868e-08
3.304807419127791615e-08
2.776249130138224873e-08
2.283293442820815820e-08
1.847704138862145296e-08
1.475818559876430480e-08
1.161575227247694159e-08
8.962826200464704881e-09
6.780046514601048988e-09
5.089581380180667476e-09
3.834980833003120678e-09
2.887543410094990350e-09
2.180206893781403916e-09
1.662441551497931422e-09
1.277276940799747141e-09
9.895434025303017829e-10
7.709621682400212960e-10
6.019405687646826286e-10
4.690586747461350884e-10
3.632826492211527684e-10
2.785623084342101418e-10
2.107635024765646228e-10
1.569225164197695953e-10
1.147389888194095674e-10
8.228090508508369256e-11
5.783483993907840433e-11
3.984986921647052194e-11
2.693733149190487160e-11
1.788826562105343281e-11
