# bin_9_7
4.120430134423555584e-08
3.701222798695562714e-08
3.235292435938624684e-08
2.753893801839118572e-08
2.289299799164207571e-08
1.867577937404843625e-08
1.502007715618587378e-08
1.192449279903002951e-08
9.308583005137824184e-09
7.115146464985625723e-09
5.355920515380155839e-09
4.031182295657724515e-09
3.044777178427964500e-09
2.296620176990252729e-09
1.747700849010020870e-09
1.340988769796664570e-09
1.038323302839412643e-09
8.095241406353089854e-10
6.336668761110127311e-10
4.959806230619368871e-10
3.865180530037924751e-10
2.986654867428283070e-10
2.279835630815364266e-10
1.713915740702199111e-10
1.265927562398052305e-10
9.171430687377209381e-11
6.511381530547347737e-11
4.529395582155499733e-11
3.088704056650885970e-11
2.067352267896234061e-11
1.360549179052755803e-11
