# bin_15_13
1.780857967203169413e-11
1.999733952400216191e-11
2.205289769814231689e-11
2.377818910083051757e-11
2.492173592744031131e-11
2.522779480291998616e-11
2.441335911907332441e-11
2.229727272053224072e-11
1.925625364226868588e-11
1.585466190401754041e-11
1.303431482459412532e-11
1.119493093939878903e-11
9.498222231821134859e-12
6.975331650687801153e-12
4.950221135415614045e-12
4.021083154839794453e-12
2.662501967548561903e-12
2.022306146116736286e-12
1.394218157849633248e-12
9.656983229260494475e-13
6.781757405771761056e-13
4.766858778473739778e-13
3.383469140328383786e-13
2.434737375478180554e-13
1.787481487854046099e-13
1.337441866506793184e-13
1.017682569193832209e-13
7.840816592176844252e-14
6.074894573307559076e-14
4.698581003253744581e-14
3.602473726205558517e-14
