# bin_14_9
2.906117384411325916e-16
3.238470737428529803e-16
3.538148814370630136e-16
3.770915526394460020e-16
3.894113512022848649e-16
3.875293288130173947e-16
3.660044183787137151e-16
3.264377053953816260e-16
2.751560380191617289e-16
2.249373193664800579e-16
1.880190689334491759e-16
1.628871368130972397e-16
1.316092746021991295e-16
9.158454169908045284e-17
7.060862505990510231e-17
5.305198757883216455e-17
3.699509375618718943e-17
2.622898780171961513e-17
1.893947069168378273e-17
1.329578710688517219e-17
9.363777007639935935e-18
6.690058268732174250e-18
4.850174516418193720e-18
3.579408566443091726e-18
2.692771160660810504e-18
2.058594926749899352e-18
1.592482051219155197e-18
1.238421628856990499e-18
9.611462264713086717e-19
7.393384106354210288e-19
5.604253593059973371e-19
