# bin_7_6
1.124697761933820062e-10
1.216817896294876310e-10
1.281620761027830165e-10
1.305145118678517875e-10
1.275092814812103821e-10
1.177536863636532081e-10
1.028353113524154061e-10
8.521840969972836206e-11
6.975614183321768872e-11
5.932666599927101295e-11
5.092839959689650148e-11
3.877886834674677155e-11
2.708536515697151229e-11
2.196701992890646767e-11
1.521096981736495014e-11
1.149405087172527473e-11
8.005669072476850358e-12
5.790505249119017323e-12
4.208786555492925886e-12
3.088081184998485652e-12
2.299690614157186704e-12
1.741391284379396769e-12
1.342336812376079106e-12
1.048309305823304461e-12
8.242942313720494629e-13
6.482294498852296403e-13
5.062112785385691537e-13
3.900653361259059916e-13
2.949873020036735238e-13
2.180099138493540222e-13
1.569906127663382437e-13
