# bin_15_1
6.595129030207242157e-69
7.289629316043552906e-69
7.884734845589404810e-69
8.299147345987405238e-69
8.442722453402184866e-69
8.233655979743688862e-69
7.585581824980841698e-69
6.608769640858733928e-69
5.466932721018884960e-69
4.478196012629216474e-69
3.819490196049471732e-69
3.274490920626056541e-69
2.469970688489145690e-69
1.724439823138451121e-69
1.404555809055391217e-69
9.536061089304753633e-70
7.240395220464732347e-70
4.984133454549300101e-70
3.537431812314435467e-70
2.533233853289634200e-70
1.824441826338741732e-70
1.328629358140452856e-70
9.826501759479064517e-71
7.411266882444404086e-71
5.682612014396346251e-71
4.408759130424902568e-71
3.440701271019056466e-71
2.681422609471754569e-71
2.072518403509597614e-71
1.579138861754884681e-71
1.180540437159441909e-71
