# bin_13_7
1.511018663588743710e-19
1.673867589019696535e-19
1.815492766713855338e-19
1.917462954437276963e-19
1.958306606252818908e-19
1.920685201490458240e-19
1.781232941929679709e-19
1.561807633884282311e-19
1.297425173183319110e-19
1.061175159345587552e-19
9.004256043332316747e-20
7.760414532400075920e-20
5.963272657695404494e-20
4.132297814884844231e-20
3.341905654104527949e-20
2.319774435649205706e-20
1.734754496862163710e-20
1.187313697318828161e-20
8.502789010610985470e-21
6.062148271953760346e-21
4.344766760670842330e-21
3.149301911231157858e-21
2.316826748988488171e-21
1.737929390423868281e-21
1.326484188272883167e-21
1.025704409684074610e-21
7.991071662578051375e-22
6.227505479273354155e-22
4.820656432147951600e-22
3.683403360939205438e-22
2.764330045317390956e-22
