# bin_8_3
5.386857120429003018e-19
5.780350204553706780e-19
6.025467822106050381e-19
6.064681963480068521e-19
5.823596840498086081e-19
5.278888112754737797e-19
4.524835404923969201e-19
3.714116002850495754e-19
3.063668439466742538e-19
2.637954334070581782e-19
2.211347465568210541e-19
1.601707840686734507e-19
1.166142702148038646e-19
9.350480790303255092e-20
6.342122800551049744e-20
4.814916415463541963e-20
3.442283313549511262e-20
2.472169850027408010e-20
1.806934957577163029e-20
1.337575965535029070e-20
1.007995223499543996e-20
7.728745506926962499e-21
6.020964271819988694e-21
4.736807125142008389e-21
3.738253590068028488e-21
2.938975356557988453e-21
2.285917136302214546e-21
1.748703489920153520e-21
1.309273284536307571e-21
9.558119080799666064e-22
6.790691983788769115e-22
