# bin_4_4
3.704965019965956577e-10
3.889771696459231079e-10
3.948054466145701982e-10
3.839802659285135911e-10
3.529672745711996332e-10
3.068874243528886123e-10
2.537424688395427725e-10
2.080117195621830714e-10
1.773184837526082363e-10
1.513682128451618825e-10
1.141675241794523075e-10
8.063020156266963340e-11
6.526644122665055594e-11
4.527745959468624807e-11
3.437026251546944677e-11
2.433595034918365687e-11
1.777174552068680798e-11
1.311576318841135398e-11
9.804777726099861479e-12
7.456703774215686247e-12
5.767534352087164749e-12
4.529183150680462374e-12
3.588183357942297112e-12
2.847614860934763649e-12
2.247880725331974807e-12
1.752994476124685474e-12
1.342548261796269204e-12
1.004862832688778530e-12
7.325257821592358771e-13
5.193322376324635528e-13
3.583289085697280873e-13
