# bin_20_18
2.114450691464004486e-11
2.400299303975613252e-11
2.682272025917178426e-11
2.939505276887810861e-11
3.143995329286813179e-11
3.260560870366581174e-11
3.260677705506446827e-11
3.099163002531155720e-11
2.780292093199550740e-11
2.356873593617062390e-11
1.928705954620680432e-11
1.605122214044318976e-11
1.390772843729008642e-11
1.139535166925626307e-11
7.986031270011867029e-12
6.028278389427252588e-12
4.622205723620918169e-12
3.135947710816559493e-12
2.248998988281503956e-12
1.588080151463600088e-12
1.087156970815994299e-12
7.425197819307280686e-13
5.097387012012354456e-13
3.528709126768075957e-13
2.472276616337432434e-13
1.764011771955291536e-13
1.283591887862721693e-13
9.536246601128753417e-14
7.214631468347305936e-14
5.528986026037194499e-14
4.261390986747891955e-14
