# bin_19_14
6.205241442377580588e-15
7.013393975901220960e-15
7.794910523262236642e-15
8.485866302936299492e-15
9.001285027994545268e-15
9.238121838637467597e-15
9.119741482661446979e-15
8.522764771410731393e-15
7.526362732808358027e-15
6.286828425414508470e-15
5.138727900117501784e-15
4.336228823556226054e-15
3.752394970996493152e-15
2.941410522224522386e-15
2.027570554798784291e-15
1.615588171008999269e-15
1.149346391573886259e-15
8.333360010020429511e-16
5.640059787705457861e-16
4.020978224508568880e-16
2.787193682124000556e-16
1.927658830237150435e-16
1.343949130182239082e-16
9.454404685479411925e-17
6.763533939128709498e-17
4.933769498890114607e-17
3.669790802851973316e-17
2.779652654776444171e-17
2.133075553991115710e-17
1.647289224794209370e-17
1.270561413947928447e-17
