# bin_18_18
8.544608758615654085e-11
9.682740164825695689e-11
1.079630209917870791e-10
1.179967579467054339e-10
1.257793092860113317e-10
1.298778320825223657e-10
1.292156510077847236e-10
1.219595904336180232e-10
1.087022081369358649e-10
9.155434204788589498e-11
7.485156529922764677e-11
6.264753984417810713e-11
5.430034439394503241e-11
4.374709860511253484e-11
3.033384197438680618e-11
2.345810048597176106e-11
1.746972892726718241e-11
1.214756659267581869e-11
8.468171578465385485e-12
6.046254570766653431e-12
4.158304567135305250e-12
2.847397782627423636e-12
1.967767775715965344e-12
1.371407683747114870e-12
9.692349100295135336e-13
6.981072137338653415e-13
5.128719221181857620e-13
3.843722508739398374e-13
2.927602602210961641e-13
2.252599810166048668e-13
1.737923661349138700e-13
