# bin_2_11
-4.663312164165482852e-35
-5.075413246174199296e-35
-5.385484486898016107e-35
-5.532603429486953727e-35
-5.470937347136830425e-35
-5.126453633730409248e-35
-4.539452871574617109e-35
-3.802122724711506084e-35
-3.107684875748991296e-35
-2.613305443904438693e-35
-2.260300991123585192e-35
-1.790619168088808018e-35
-1.243212160971181014e-35
-9.817293692720433562e-36
-7.176327052091572308e-36
-5.189138876215895377e-36
-3.646041391486057210e-36
-2.669431213921094190e-36
-1.919760756223009676e-36
-1.392026146226810311e-36
-1.026958536220024004e-36
-7.704389539009577684e-37
-5.885613222275015382e-37
-4.565216919582078531e-37
-3.574905960572812290e-37
-2.808194854030315131e-37
-2.197120712185750606e-37
-1.700674772844850969e-37
-1.294908444983644654e-37
-9.653690512752924908e-38
-7.021701785633702958e-38
