# bin_11_20
-1.898341089350086023e-22
-2.142942771490026776e-22
-2.378206471980278948e-22
-2.584290399779484930e-22
-2.735019538942928204e-22
-2.799321674391851027e-22
-2.753127720375066357e-22
-2.561152548233605110e-22
-2.252287124696110042e-22
-1.875178447094066468e-22
-1.533984188954891180e-22
-1.299922970094284984e-22
-1.122660396796691308e-22
-8.679659577237518225e-23
-5.992949679493559565e-23
-4.826357752374254114e-23
-3.358137783538537961e-23
-2.481670533282382174e-23
-1.671811025841873988e-23
-1.182641434210669955e-23
-8.235506026244819381e-24
-5.730385957541098122e-24
-4.010723604717126647e-24
-2.834385876256406646e-24
-2.039266671418951475e-24
-1.496202084291888164e-24
-1.118941303873010503e-24
-8.512493063646465059e-25
-6.550851436135781883e-25
-5.064188015589542687e-25
-3.903213640995182886e-25
