# bin_4_5
-3.260234607051459370e-08
-3.452575815137831692e-08
-3.539851108037400130e-08
-3.491844426724940798e-08
-3.263510961560069511e-08
-2.883241485207420213e-08
-2.411299196549475932e-08
-1.971490632481782027e-08
-1.659921110442564597e-08
-1.432732220414241461e-08
-1.129298818854319463e-08
-7.879957008034426410e-09
-6.239011297812582854e-09
-4.551724399845314569e-09
-3.324655295909081630e-09
-2.363451437464718250e-09
-1.740978191029903061e-09
-1.271967804502552549e-09
-9.405004341365375739e-10
-7.083115304198225943e-10
-5.428891141519717074e-10
-4.230242722818195437e-10
-3.334705247014161806e-10
-2.641323414303414091e-10
-2.087426714227356589e-10
-1.634539617406324924e-10
-1.260161921832346392e-10
-9.514999043037034654e-11
-7.007920762788220348e-11
-5.022037316752742667e-11
-3.501036831352117812e-11
