# bin_18_17
-1.900052981909794751e-08
-2.151583190509554168e-08
-2.396869404633759200e-08
-2.616728885686740457e-08
-2.785448003758500580e-08
-2.871157863248356194e-08
-2.850286290944680775e-08
-2.682588561037209519e-08
-2.384792992296888194e-08
-2.003913310306471018e-08
-1.638531691274141792e-08
-1.375148554691932656e-08
-1.191698638814847124e-08
-9.523329101723617083e-09
-6.585917783460529093e-09
-5.146109806760489724e-09
-3.779704775387432745e-09
-2.662410440696510071e-09
-1.835058477657828294e-09
-1.313050130110667346e-09
-9.051528266357461385e-10
-6.213715102837875749e-10
-4.306933402107335961e-10
-3.010767135092802316e-10
-2.136193767215073165e-10
-1.544971880895977628e-10
-1.139660829792950125e-10
-8.571738993908295077e-11
-6.545805471237520766e-11
-5.043596603494754737e-11
-3.891667051995708967e-11
