# bin_16_10
-1.418189309712776338e-15
-1.589196644312360875e-15
-1.748126771854970386e-15
-1.878990838077381927e-15
-1.961555642376100583e-15
-1.976816528943574315e-15
-1.900261716948407870e-15
-1.723742333661253597e-15
-1.478357316294939153e-15
-1.213932028193678739e-15
-1.002163188089508572e-15
-8.644823049720455076e-16
-7.250051190401273747e-16
-5.223367256193688361e-16
-3.792841545743840648e-16
-3.034198824348800544e-16
-2.018602544641808673e-16
-1.516668838422237576e-16
-1.060034440398856065e-16
-7.359824269438837898e-17
-5.167434522168164609e-17
-3.641998428053722698e-17
-2.600800712998764972e-17
-1.886064837789544508e-17
-1.395426774017147540e-17
-1.051530395085571221e-17
-8.047772065394004703e-18
-6.223440326455654314e-18
-4.828306668981579288e-18
-3.730857624418305989e-18
-2.852146073721869136e-18
