# bin_17_15
-5.804482416443757632e-09
-6.552696279972320364e-09
-7.272494368991411861e-09
-7.903239650890629490e-09
-8.364916642982290535e-09
-8.562467113421390088e-09
-8.422359279488196841e-09
-7.836435618959955427e-09
-6.892509884086955991e-09
-5.739235345157668037e-09
-4.694880048334593266e-09
-3.977925009460523594e-09
-3.435731323726187861e-09
-2.657634430999940736e-09
-1.834900869448623210e-09
-1.477149013886333311e-09
-1.028645324124506992e-09
-7.596402096362551629e-10
-5.118180887912908786e-10
-3.621815607485149146e-10
-2.521643750252716960e-10
-1.754192526109927796e-10
-1.227598848850316169e-10
-8.674064955764390910e-11
-6.239505331799796043e-11
-4.576967204323272915e-11
-3.422253659603789833e-11
-2.603127424615366189e-11
-2.003060958946887017e-11
-1.548429357450423658e-11
-1.193481860028377528e-11
