# bin_1_11
-3.907861502310830419e-43
-4.243654366130790532e-43
-4.490331910715183753e-43
-4.597413980431243313e-43
-4.525675099554951453e-43
-4.217044418349428750e-43
-3.714655340619854433e-43
-3.097746303990207846e-43
-2.532667606032916026e-43
-2.139544535327384539e-43
-1.847075430436054811e-43
-1.440956061760202021e-43
-1.000163374107709290e-43
-8.006654927121812939e-44
-5.717774870492023967e-44
-4.219675541303925137e-44
-2.939595134191118476e-44
-2.145402980929775716e-44
-1.550084104856483248e-44
-1.129729641988598167e-44
-8.367003692329475652e-45
-6.300405828232718198e-45
-4.830964513013310779e-45
-3.757945014494802007e-45
-2.948119232728687446e-45
-2.317304958137083940e-45
-1.812003952417447463e-45
-1.400281725433043765e-45
-1.063454912780703802e-45
-7.901697507072350877e-46
-5.724911008485053155e-46
