# bin_9_6
-9.561114024964246795e-11
-1.043716127528335130e-10
-1.111612884450339496e-10
-1.147317913529552992e-10
-1.141192245331847711e-10
-1.077504976804585713e-10
-9.609439940655477408e-11
-8.101957407831976883e-11
-6.625422412381064872e-11
-5.537132305199803995e-11
-4.792572805388615640e-11
-3.871749118804934923e-11
-2.706371601157948272e-11
-2.087238643443095924e-11
-1.574648849562903812e-11
-1.107128757722253049e-11
-7.951401788859271860e-12
-5.793736943332469238e-12
-4.142207368679613991e-12
-2.987757308599102107e-12
-2.191507111155819558e-12
-1.635471213950815210e-12
-1.242702743670082069e-12
-9.597970334692451197e-13
-7.494344969274622939e-13
-5.879643807177565879e-13
-4.602294936567922944e-13
-3.569411291616910998e-13
-2.726762761574405256e-13
-2.041827413212952963e-13
-1.493025999607886313e-13
