# bin_14_14
-3.072254849340188455e-08
-3.450445380395106942e-08
-3.805907198874111232e-08
-4.104681541229433344e-08
-4.303399142028655223e-08
-4.357773039752481912e-08
-4.219139045152418281e-08
-3.855602850724090294e-08
-3.331832961575502472e-08
-2.744672736707470767e-08
-2.256810172675644564e-08
-1.938162551721230093e-08
-1.645084527073566500e-08
-1.209424028966219562e-08
-8.580027119792408878e-09
-6.970969672813424016e-09
-4.618455551383978239e-09
-3.508324988615486016e-09
-2.417885399252726269e-09
-1.674929211054206868e-09
-1.176449033385339048e-09
-8.270009243238158556e-10
-5.869446015978824288e-10
-4.223052497185159674e-10
-3.099882818060008760e-10
-2.319058558072006290e-10
-1.764394881295223721e-10
-1.359301102599041954e-10
-1.053158791915291831e-10
-8.146153775652812855e-11
-6.246600445941366832e-11
