# bin_8_6
-2.982449411543841037e-09
-3.242687488111657797e-09
-3.436410731588116333e-09
-3.524841846440262324e-09
-3.478413786597327942e-09
-3.251128005425823300e-09
-2.872047477870818663e-09
-2.400774838336404363e-09
-1.962503090527881550e-09
-1.653717326973267608e-09
-1.429184874366462083e-09
-1.124397158464257229e-09
-7.804729934746255950e-10
-6.202137663696372752e-10
-4.486425297754379003e-10
-3.274418275669044171e-10
-2.290902421287249985e-10
-1.675332631326088576e-10
-1.207334402368602488e-10
-8.774759502596011535e-11
-6.485193380160838735e-11
-4.873632040898693599e-11
-3.729523550417955860e-11
-2.896702566979854042e-11
-2.270279471321438227e-11
-1.783926868974129740e-11
-1.395392692184927585e-11
-1.079305976538659611e-11
-8.208389789230989939e-12
-6.110164576081248757e-12
-4.436386453918458174e-12
