# bin_5_19
-3.069907287454778621e-51
-3.442785652541060922e-51
-3.790726198360365836e-51
-4.079348010394634949e-51
-4.265020975974053329e-51
-4.305536061743226850e-51
-4.149205330919004691e-51
-3.773377071713767395e-51
-3.244703813481817467e-51
-2.667060473650925066e-51
-2.198502201990360713e-51
-1.893789496603826050e-51
-1.595309463979123046e-51
-1.157165535313739158e-51
-8.330884839369019855e-52
-6.708739960519125785e-52
-4.449750261490454251e-52
-3.360814584805847887e-52
-2.337402433055293261e-52
-1.620985121623931258e-52
-1.138291213722181732e-52
-8.013076125666886018e-53
-5.709848100082637847e-53
-4.129495762995361144e-53
-3.047088350561069184e-53
-2.290587283050888385e-53
-1.749673334109942328e-53
-1.351434241867665681e-53
-1.048096163894447060e-53
-8.102234449798251517e-54
-6.200856640594457930e-54
