# bin_6_18
-7.115532903224043372e-40
-7.969187303138601306e-40
-8.760311038840345843e-40
-9.408317104348799960e-40
-9.811399917751477193e-40
-9.875929124225076378e-40
-9.476931770212426112e-40
-8.581615262782348755e-40
-7.346714342084999253e-40
-6.028740283941509682e-40
-4.982437837736727664e-40
-4.301731935392865480e-40
-3.596142750793600227e-40
-2.579270871207799300e-40
-1.884225307723069898e-40
-1.499698704540290074e-40
-1.000515108307190891e-40
-7.485230956197333191e-41
-5.249940338022233227e-41
-3.648391823686406361e-41
-2.561416771702815265e-41
-1.807106821726393599e-41
-1.292478142730838815e-41
-9.390588775361077362e-42
-6.960598132559915663e-42
-5.253910266768516213e-42
-4.026308112409428729e-42
-3.116043106775287285e-42
-2.418029860110985180e-42
-1.867805346440499837e-42
-1.426762522712851073e-42
