# bin_10_18
-1.604167063220464454e-20
-1.803658653226488277e-20
-1.992165391378840590e-20
-2.152149531273463791e-20
-2.261084085640734050e-20
-2.295005308296651926e-20
-2.229873966042201609e-20
-2.045469713005323180e-20
-1.774378792942818151e-20
-1.464455604352152959e-20
-1.202173736906951280e-20
-1.029808631460358807e-20
-8.785864071734412901e-21
-6.528266746931288344e-21
-4.587889894279587753e-21
-3.740045149529988794e-21
-2.486511211404201867e-21
-1.890260329107330954e-21
-1.293632806350151259e-21
-8.967173839118623452e-22
-6.297665772105350650e-22
-4.423729645543079413e-22
-3.130179815675626665e-22
-2.243203186336811777e-22
-1.639763889906961687e-22
-1.221934355121710105e-22
-9.266027937210042994e-23
-7.122538178342438803e-23
-5.512852907102240245e-23
-4.265283446565807105e-23
-3.275184834242428276e-23
