# bin_17_4
-1.502317706048002136e-49
-1.675687872322046914e-49
-1.832835263802273681e-49
-1.956174497017260802e-49
-2.023705123384903249e-49
-2.018266509250323123e-49
-1.911649567853850440e-49
-1.709695289137202109e-49
-1.445086017873621203e-49
-1.182149725321807740e-49
-9.862563662294299383e-50
-8.543960398288420797e-50
-6.948656324751983377e-50
-4.854752531463506054e-50
-3.710030957883920123e-50
-2.818054924770866750e-50
-1.947021270308411457e-50
-1.393899540028265504e-50
-1.003074747598840516e-50
-7.028902423450025128e-51
-4.943865409375193447e-51
-3.524218798801669024e-51
-2.549558378220069757e-51
-1.876972484385057677e-51
-1.408848441010205184e-51
-1.075031671653999917e-51
-8.305492820641619642e-52
-6.455396351287371796e-52
-5.011033528326170073e-52
-3.857907560329424356e-52
-2.928375736316755381e-52
