# bin_20_8
-6.108095651188733418e-36
-6.878153034713900806e-36
-7.610862005043893452e-36
-8.240535635799376198e-36
-8.682000644927624111e-36
-8.839981872635958792e-36
-8.629650416784665668e-36
-7.957640671620595529e-36
-6.939177505645090308e-36
-5.743959736199980524e-36
-4.707121504877741046e-36
-4.016990485447854731e-36
-3.446965961748310243e-36
-2.599277118800442874e-36
-1.809663863827312295e-36
-1.474020167391645587e-36
-9.916930150223651675e-37
-7.500268902348651483e-37
-5.087428760421179979e-37
-3.542536560282752159e-37
-2.484165139089439519e-37
-1.741924738394621192e-37
-1.227516837102295285e-37
-8.749532043961674229e-38
-6.358428623402554175e-38
-4.711621831389260390e-38
-3.555391824954115450e-38
-2.723382466074144050e-38
-2.104168358590335383e-38
-1.628037784362352286e-38
-1.252193353488496369e-38
