# bin_18_8
-9.820638147337886647e-29
-1.101939488851884169e-28
-1.214101001188032583e-28
-1.307601203988570703e-28
-1.368517849261076193e-28
-1.383111353736549208e-28
-1.335180776087677722e-28
-1.216386631947234901e-28
-1.047854239882931705e-28
-8.619600579166425865e-29
-7.098371730838292039e-29
-6.108117206875964668e-29
-5.160384819075213013e-29
-3.761204268726031250e-29
-2.692501385133582856e-29
-2.176719831396179779e-29
-1.441971926242456919e-29
-1.092172704596055838e-29
-7.570622149584347331e-30
-5.246886341658992672e-30
-3.684884526367619698e-30
-2.592328295486093681e-30
-1.844480478759992824e-30
-1.331459794015477940e-30
-9.806133150646931232e-31
-7.358853265019188466e-31
-5.613196393182835178e-31
-4.331739939937640927e-31
-3.358407689835595234e-31
-2.596854983184803034e-31
-1.988909848681158396e-31
