# bin_8_17
-2.339402091862388983e-25
-2.619970386334203799e-25
-2.879939696526477730e-25
-3.092807475641130337e-25
-3.225096545569977957e-25
-3.246059760559664310e-25
-3.114568554210650722e-25
-2.820011280917376388e-25
-2.413931306754851514e-25
-1.980800025013887997e-25
-1.637142294679534485e-25
-1.413552611590684942e-25
-1.181451002447250265e-25
-8.471335034109331183e-26
-6.190935208350681919e-26
-4.925869561124818535e-26
-3.286884274815381061e-26
-2.458342063423213702e-26
-1.724602228404372900e-26
-1.198565147047629453e-26
-8.414685172955793408e-27
-5.937036776943814077e-27
-4.246692373948127594e-27
-3.085823540513037102e-27
-2.287568737615194158e-27
-1.726848584018238070e-27
-1.323467044562892896e-27
-1.024306211464760372e-27
-7.948640623202728158e-28
-6.139782094426054145e-28
-4.689762949043786624e-28
