# bin_5_8
-6.756194839093732923e-11
-7.318122388116791351e-11
-7.719059882686190562e-11
-7.874089247730732010e-11
-7.711113562788192112e-11
-7.141366994156623061e-11
-6.254007332463337239e-11
-5.193590161176223344e-11
-4.250547025003506266e-11
-3.608136282691105910e-11
-3.102813103382334614e-11
-2.380249157890171643e-11
-1.659437492791851506e-11
-1.340978477780831833e-11
-9.372708471366802508e-12
-7.033837802087625534e-12
-4.897953602329497523e-12
-3.553420856204334529e-12
-2.578322842795932476e-12
-1.888091686040594956e-12
-1.403917985684605520e-12
-1.061431540062912429e-12
-8.169966302823425982e-13
-6.373578307822868003e-13
-5.008623224910617199e-13
-3.938533141633429068e-13
-3.077023701099504045e-13
-2.373139412686291421e-13
-1.796979588096405953e-13
-1.330176991426669353e-13
-9.596016632951435409e-14
