# bin_2_17
-2.923875975189988080e-67
-3.256330966569769645e-67
-3.555061077786917816e-67
-3.785458097027188708e-67
-3.904551180425257816e-67
-3.880074994487767294e-67
-3.657582122490372521e-67
-3.256616618290340378e-67
-2.740770624997634025e-67
-2.240905769917754828e-67
-1.876793114729962472e-67
-1.625843707899121108e-67
-1.306583217837234666e-67
-9.074074037024282004e-68
-7.046939168601046899e-68
-5.246739687202233496e-68
-3.690039967848765608e-68
-2.596611004358149474e-68
-1.879261765407758219e-68
-1.321544807214240665e-68
-9.321278134841068195e-69
-6.672707491615556243e-69
-4.846589623931020267e-69
-3.584258557641059219e-69
-2.701550434668135166e-69
-2.068539430248298338e-69
-1.601884860387448114e-69
-1.246299103991877562e-69
-9.671210884263296811e-70
-7.434303659491092804e-70
-5.629053108796778979e-70
