# bin_20_10
-2.597347925042325623e-26
-2.929531174340928038e-26
-3.247853625401246276e-26
-3.524898470958618882e-26
-3.724709692205892986e-26
-3.805342568296549907e-26
-3.733015542650431191e-26
-3.462060389742972043e-26
-3.035738865453925425e-26
-2.522012792785433916e-26
-2.064124256431951288e-26
-1.753619049134134551e-26
-1.511740173572048168e-26
-1.158540606768513545e-26
-8.015353800332639260e-27
-6.488321764827657053e-27
-4.455340814497506509e-27
-3.325554553554890036e-27
-2.241575938800051570e-27
-1.576090619458075647e-27
-1.100727680308473987e-27
-7.685021717455402928e-28
-5.391638420625469893e-28
-3.821472514237501950e-28
-2.759193490277729152e-28
-2.031597944752358903e-28
-1.524303167593758741e-28
-1.162592339341745911e-28
-8.960731670070679600e-29
-6.930232266548934558e-29
-5.338149579901359236e-29
