# bin_1_4
-1.249885666106080672e-11
-1.276780361973642626e-11
-1.253469215114509767e-11
-1.165483724325158478e-11
-1.024837260066075188e-11
-8.545214854070228708e-12
-6.993665975745358925e-12
-5.906604994497380049e-12
-5.076772345588516273e-12
-3.956743138834738469e-12
-2.781052334335681843e-12
-2.210643490276541942e-12
-1.600763944689540246e-12
-1.183339879754165654e-12
-8.492777801539390622e-13
-6.288693263933992111e-13
-4.660008442755166843e-13
-3.504533440463917763e-13
-2.686429378061392051e-13
-2.095206355308785676e-13
-1.657519516511091142e-13
-1.321627286560423287e-13
-1.054280342600975118e-13
-8.353417205806695781e-14
-6.529657734950765237e-14
-5.005639777068112798e-14
-3.745501040499100414e-14
-2.727487525676607067e-14
-1.930952888837908630e-14
-1.330842325356406925e-14
-8.953691879180881752e-15
