# bin_19_17
-6.536356994298803453e-09
-7.408772508685678312e-09
-8.263249267827787142e-09
-9.034427780278673252e-09
-9.634513646882716489e-09
-9.953895233120241258e-09
-9.909696783694248525e-09
-9.361343058639762116e-09
-8.351116528328499650e-09
-7.040180815650967146e-09
-5.758233773104974548e-09
-4.817992777960201771e-09
-4.176182683633389489e-09
-3.370263610710708676e-09
-2.339687509182200945e-09
-1.805771383127727480e-09
-1.348548471398938884e-09
-9.356873424485696346e-10
-6.539108130609008539e-10
-4.666644125015929222e-10
-3.208399559558515105e-10
-2.196332686804442468e-10
-1.517045850050478251e-10
-1.056766975479408296e-10
-7.463550226927802587e-11
-5.371706576185493666e-11
-3.943374552577825691e-11
-2.953346046097369417e-11
-2.248292686874202002e-11
-1.729433424688073292e-11
-1.334250508550262686e-11
