# bin_3_15
-1.162823486359646751e-47
-1.288302547858458855e-47
-1.397506829505615257e-47
-1.476255015987719789e-47
-1.508012176916376766e-47
-1.479422657445665223e-47
-1.372459388522950989e-47
-1.203847419204246260e-47
-1.000479744222139314e-47
-8.185666962974622933e-48
-6.946367194746119981e-48
-5.986995387520854436e-48
-4.602297541857776953e-48
-3.190509940132952746e-48
-2.579843153625952730e-48
-1.791593513055856179e-48
-1.339587742103585419e-48
-9.171215356636376494e-49
-6.568242439248592486e-49
-4.683059708066975548e-49
-3.356373738161938725e-49
-2.432855201565100989e-49
-1.789731003778505542e-49
-1.342492009905323764e-49
-1.024630594518459695e-49
-7.922799577627940917e-50
-6.172490757617493519e-50
-4.810357495301466055e-50
-3.723795431499056482e-50
-2.845457339333715058e-50
-2.135602785766371369e-50
