# bin_13_4
-5.228044476359690336e-31
-5.761536566086468459e-31
-6.209189742846337458e-31
-6.505624365335537146e-31
-6.584307596003290116e-31
-6.371847428591290269e-31
-5.821098801263574075e-31
-5.029220326701448585e-31
-4.142453648490716155e-31
-3.405293139598599302e-31
-2.922503002903219183e-31
-2.479670558343675407e-31
-1.826327634115563277e-31
-1.298676076307129731e-31
-1.055456888346555410e-31
-7.065663472367303095e-32
-5.392564311040255874e-32
-3.765612583067097452e-32
-2.659039963540905919e-32
-1.908832180452248280e-32
-1.379335833775360285e-32
-1.010691029422934125e-32
-7.529188753394877976e-33
-5.717530795577259675e-33
-4.408398164749452951e-33
-3.433362754823547451e-33
-2.684042249710160323e-33
-2.090770579091864140e-33
-1.612134579175225695e-33
-1.223458512877385684e-33
-9.097778511058553499e-34
