# bin_17_13
-3.555191882547665754e-11
-4.004705500374602912e-11
-4.433035126508761073e-11
-4.802089939314997673e-11
-5.062367157506952135e-11
-5.157988655504986522e-11
-5.040267631831329302e-11
-4.653126465648815072e-11
-4.062169877221759723e-11
-3.364883410001202366e-11
-2.756709233912053765e-11
-2.350451910932391926e-11
-2.018959456924246389e-11
-1.527422086094534555e-11
-1.061885211473068856e-11
-8.640363307509580231e-12
-5.835452596437875562e-12
-4.403255439240514582e-12
-2.982072180449942149e-12
-2.080250808239762776e-12
-1.457718687376515043e-12
-1.021425261719608722e-12
-7.191518770487164440e-13
-5.120169423918840662e-13
-3.716131666076444514e-13
-2.750222551453122708e-13
-2.073009855623605149e-13
-1.586591695435468675e-13
-1.225296323636731820e-13
-9.479860285834394715e-14
-7.293652173508652092e-14
