# bin_1_16
-5.178273208911441873e-72
-5.745577198310482144e-72
-6.243984765798533791e-72
-6.610811972072300398e-72
-6.771159508196051354e-72
-6.667560235557391852e-72
-6.213388153519815696e-72
-5.473215063872831144e-72
-4.563380166113533985e-72
-3.731423098067602472e-72
-3.154817972916882746e-72
-2.725588913652878409e-72
-2.122108230009240950e-72
-1.467768627974727331e-72
-1.176845946414756652e-72
-8.327526584601897313e-73
-6.132383014901943433e-73
-4.204392582335603748e-73
-3.030841863692111507e-73
-2.152334500726792297e-73
-1.535465762504819810e-73
-1.109356999463178690e-73
-8.132064048753596742e-74
-6.076683004452606921e-74
-4.622630148153067736e-74
-3.565463465712962784e-74
-2.773850238846590940e-74
-2.161225588235958436e-74
-1.674492409405244980e-74
-1.281826976950509347e-74
-9.645051821009653275e-75
