# bin_13_16
-5.980793598100029301e-10
-6.727412824226608571e-10
-7.434303830902049311e-10
-8.036374266665664138e-10
-8.449802688332701990e-10
-8.584107295331130832e-10
-8.351564159997375127e-10
-7.672137713569336738e-10
-6.665108857155239683e-10
-5.505333254925224502e-10
-4.516997958098908505e-10
-3.865337142792361871e-10
-3.303367985295622106e-10
-2.464715449885386208e-10
-1.727172155258956363e-10
-1.408131950565688583e-10
-9.388746299000979158e-11
-7.130118000936779269e-11
-4.866923590379530497e-11
-3.377008746260175462e-11
-2.370994654345226242e-11
-1.664860797902823763e-11
-1.176698938327105141e-11
-8.420030041938169763e-12
-6.145073232814348217e-12
-4.572221391506536612e-12
-3.462569658377735385e-12
-2.659106974905689532e-12
-2.057219356508847174e-12
-1.591729215324455532e-12
-1.222830154805238426e-12
