# bin_16_15
-1.925460509812494455e-08
-2.171008603340086307e-08
-2.405978326426772698e-08
-2.609968149843988591e-08
-2.756284021278844924e-08
-2.814022753207783974e-08
-2.757842548032892257e-08
-2.554710082832404335e-08
-2.237640455784631144e-08
-1.857548443975631339e-08
-1.520638525539669691e-08
-1.293091197858274730e-08
-1.113815105004396751e-08
-8.507921081819439152e-09
-5.892339130180025929e-09
-4.777181409598480031e-09
-3.265519545141213017e-09
-2.445122491712818966e-09
-1.649601527644064259e-09
-1.157339989666266758e-09
-8.090551551965628486e-10
-5.654624217425613799e-10
-3.970716653497953749e-10
-2.817527484962406351e-10
-2.037013010662976211e-10
-1.501823143350646774e-10
-1.128156874354259901e-10
-8.612330646073293630e-11
-6.641527234326135510e-11
-5.137165386907062572e-11
-3.955927673160513934e-11
