# bin_20_7
-8.451005996009454600e-42
-9.509347457850924613e-42
-1.051299434851066649e-41
-1.137031097800146383e-41
-1.196305097479529417e-41
-1.216201228902641129e-41
-1.184548817567258141e-41
-1.089488567310376997e-41
-9.476214094680864097e-42
-7.832351666249097088e-42
-6.423498035636178656e-42
-5.492143126998672724e-42
-4.700295156012350703e-42
-3.518781672313711324e-42
-2.459956035597786647e-42
-2.005887432576307594e-42
-1.340409047099996159e-42
-1.017194603953954143e-42
-6.928498227822516407e-43
-4.811043906261627105e-43
-3.377029764278103986e-43
-2.370510637473612515e-43
-1.673831300695739064e-43
-1.196214102200947643e-43
-8.718251720656712005e-44
-6.478312603924666578e-44
-4.900513696886105092e-44
-3.760370790099178045e-44
-2.908053303931768059e-44
-2.250086174066941415e-44
-1.729286402387841431e-44
