# bin_3_18
-5.046652925160988573e-63
-5.639175084526241241e-63
-6.181631562072197922e-63
-6.615782758184796900e-63
-6.868425156024152897e-63
-6.878343743881331840e-63
-6.552352567378225577e-63
-5.891592437728349021e-63
-5.006936248917854083e-63
-4.100152318415216398e-63
-3.405662825080802739e-63
-2.947936249931554455e-63
-2.428632527660288927e-63
-1.713762859077547331e-63
-1.284046829180387038e-63
-9.970515310009032840e-64
-6.766212635226856398e-64
-4.947131401745721031e-64
-3.522495261646996005e-64
-2.458773869477471648e-64
-1.726749490117766346e-64
-1.224858720241340355e-64
-8.817490507946809122e-65
-6.455151607301112834e-65
-4.819810625764583456e-65
-3.661404736359572821e-65
-2.819639485559475653e-65
-2.188108213477263985e-65
-1.698695126731417530e-65
-1.309918514360628232e-65
-9.971456132144158680e-66
