# bin_19_20
-1.893681760648994082e-08
-2.151668756158647653e-08
-2.407272003770561207e-08
-2.641930394929925888e-08
-2.830771144137485137e-08
-2.942477099987894732e-08
-2.950376878613424249e-08
-2.814645098732505279e-08
-2.533992995655005013e-08
-2.156110210465445739e-08
-1.766317580104223155e-08
-1.466474349870554531e-08
-1.269797472048210286e-08
-1.048342702672557273e-08
-7.399491782944199384e-09
-5.520203887760191546e-09
-4.288890556337417207e-09
-2.881859352667467651e-09
-2.094864364154191122e-09
-1.468999956473005908e-09
-1.003758767172171568e-09
-6.855463336739010433e-10
-4.692842302745751399e-10
-3.238150453091154582e-10
-2.259211608185733631e-10
-1.604466008380966576e-10
-1.161801846827815244e-10
-8.591579484960533767e-11
-6.475690375504789776e-11
-4.950668089173282632e-11
-3.812190058273486502e-11
