# bin_18_16
-6.168487706844978461e-09
-6.978524925853679682e-09
-7.765154174348210937e-09
-8.465473969833681516e-09
-8.995462413634175482e-09
-9.251999499421146190e-09
-9.159134862491886691e-09
-8.589715193508620432e-09
-7.610875010580903288e-09
-6.376368195367007112e-09
-5.213219763138910213e-09
-4.387993342710846904e-09
-3.800537901794878885e-09
-3.007374119984110561e-09
-2.075320306879009251e-09
-1.639284693806524246e-09
-1.184328836399994154e-09
-8.470396509255478920e-10
-5.774909617783899003e-10
-4.130028466350160325e-10
-2.854908117101561634e-10
-1.966994927762337516e-10
-1.367698909101119678e-10
-9.592789067220251706e-11
-6.835899801568736428e-11
-4.966458690371327955e-11
-3.679798125277181861e-11
-2.778200401501430075e-11
-2.127256633460796656e-11
-1.641205977437895429e-11
-1.266225617827947631e-11
