# bin_9_5
-7.709540360886787646e-10
-8.201441795986539640e-10
-8.456716309384167172e-10
-8.401644983014419041e-10
-7.926745973983815556e-10
-7.066367729670731132e-10
-5.960140176147079801e-10
-4.877898653012535401e-10
-4.076562053250457570e-10
-3.519300160583591975e-10
-2.839186957798863185e-10
-2.002197648914060178e-10
-1.539623893549336431e-10
-1.164696936780734069e-10
-8.255660833501078837e-11
-6.009537462171510996e-11
-4.391768717115254591e-11
-3.187137731239863515e-11
-2.344287146275864731e-11
-1.754358472696368371e-11
-1.336782992494733989e-11
-1.035953433487620093e-11
-8.134591524429673960e-12
-6.429458966065964066e-12
-5.079818388651480584e-12
-3.984019509169834208e-12
-3.081451659095355812e-12
-2.337627030501131045e-12
-1.731804993136040949e-12
-1.249220892218540036e-12
-8.767066887917807739e-13
