# bin_10_19
-2.096021580322419701e-28
-2.359615090513031995e-28
-2.610113606240433191e-28
-2.824906214804046181e-28
-2.974728410589722674e-28
-3.027121822044127151e-28
-2.952587824904789021e-28
-2.720040123924726695e-28
-2.369656697554503637e-28
-1.960396391138541240e-28
-1.606967746637733039e-28
-1.372345315121752633e-28
-1.176480161535700283e-28
-8.847607704780371869e-29
-6.168798906645937570e-29
-5.027298176439963006e-29
-3.373177244810404635e-29
-2.554791426824984032e-29
-1.735527161149484803e-29
-1.207117134076085324e-29
-8.468374980294319513e-30
-5.940780650676311760e-30
-4.189584583095974883e-30
-2.989215569857037283e-30
-2.174691867362735443e-30
-1.613165861083845158e-30
-1.218433812804562314e-30
-9.339396824811774177e-31
-7.218513571078784248e-31
-5.585246879411637736e-31
-4.294633399716640506e-31
