# bin_11_3
-1.822350397314773148e-09
-1.875522908555033435e-09
-1.859073458739955337e-09
-1.750310280522083867e-09
-1.557753199092696718e-09
-1.313050773543874024e-09
-1.075570352912105008e-09
-8.997151659762193689e-10
-7.744707413540725383e-10
-6.222703517560890039e-10
-4.420266266194544434e-10
-3.398184164232644800e-10
-2.567380346776601424e-10
-1.836621218220014719e-10
-1.347448589657104023e-10
-9.895227553087296856e-11
-7.275721895723469112e-11
-5.436121587246241518e-11
-4.136168936033834973e-11
-3.204219119876310477e-11
-2.520460768646567229e-11
-2.002668953478868279e-11
-1.595651649128280997e-11
-1.265678974453993394e-11
-9.926074294162958396e-12
-7.648998824985250043e-12
-5.762404280074335234e-12
-4.229121366951072645e-12
-3.018421592950875964e-12
-2.096408515370587235e-12
-1.420007028398385137e-12
