# bin_12_9
-2.818395598330363697e-10
-3.100490898774630760e-10
-3.334075461854358059e-10
-3.483584119299441228e-10
-3.514751857122532918e-10
-3.385950300285879171e-10
-3.079351890734702920e-10
-2.648236845341697201e-10
-2.177600948593128009e-10
-1.794906917395614902e-10
-1.543977385575701433e-10
-1.299686793266225381e-10
-9.466977134073947392e-11
-6.830643011193020488e-11
-5.489383254270375124e-11
-3.695521445433650340e-11
-2.796004582988315029e-11
-1.968706466971138339e-11
-1.392943357797294285e-11
-1.000030559359685921e-11
-7.241011258883672165e-12
-5.323495997793321433e-12
-3.980741282965621050e-12
-3.032934167211957682e-12
-2.344485747860259662e-12
-1.828848530840276993e-12
-1.430340070197409341e-12
-1.113452424149771878e-12
-8.571655696812539473e-13
-6.489507502140292528e-13
-4.810988557331732578e-13
