# bin_20_7
-1.003323545505446623e-09
-1.089690201358634488e-09
-1.153251727313443698e-09
-1.181176950149575460e-09
-1.163093737525074858e-09
-1.084496497874270987e-09
-9.558977671066406799e-10
-7.979952579812403967e-10
-6.527782012116804645e-10
-5.510518256497338661e-10
-4.751834341596923475e-10
-3.714886820599776544e-10
-2.588606537082804892e-10
-2.059346687573382766e-10
-1.479701195957165859e-10
-1.084844395897298422e-10
-7.618873650585019767e-11
-5.546608742063517725e-11
-4.002994517776724987e-11
-2.914825888660150677e-11
-2.157033766441905924e-11
-1.623334890014473022e-11
-1.243885428086444205e-11
-9.670426874844600547e-12
-7.583034162436251588e-12
-5.958652037897225040e-12
-4.658734875576403390e-12
-3.600318778474507389e-12
-2.734840035295766937e-12
-2.032763834284408583e-12
-1.473547323361556334e-12
