# bin_13_3
-1.996746871323630088e-09
-2.055294983328065757e-09
-2.037630119346507713e-09
-1.918859429248962887e-09
-1.708136968744620248e-09
-1.440094486914877996e-09
-1.179661541199088743e-09
-9.866244406187589946e-10
-8.492990463877899054e-10
-6.827481990220957990e-10
-4.850903634260454861e-10
-3.727113199322154803e-10
-2.817810705539347246e-10
-2.014780682951240399e-10
-1.478667409556377107e-10
-1.085704211418631007e-10
-7.981957456320618762e-11
-5.963145399543060685e-11
-4.536572561546358123e-11
-3.513974993334063452e-11
-2.763827703710955010e-11
-2.195895892919136955e-11
-1.749566517314552281e-11
-1.387790487735353690e-11
-1.088436588825988903e-11
-8.388233716307634150e-12
-6.320076053371734395e-12
-4.639052067561849856e-12
-3.311477350107610651e-12
-2.300262215540475007e-12
-1.558275758451722019e-12
