# bin_1_18
-9.196889212946339623e-89
-1.026131511181870037e-88
-1.122777557761948771e-88
-1.198886687726291618e-88
-1.241009666930307557e-88
-1.238541104799740050e-88
-1.174238545150723951e-88
-1.051127547134698540e-88
-8.892436494881975919e-89
-7.275541479499389909e-89
-6.065339552049914842e-89
-5.253942545118077240e-89
-4.282537939154200880e-89
-2.996659121794387992e-89
-2.282470194643979449e-89
-1.740340344269377030e-89
-1.198558867786717111e-89
-8.611653260755307427e-90
-6.186769116021328031e-90
-4.332335290190556427e-90
-3.046126424613585828e-90
-2.169555773661520016e-90
-1.568230838451932888e-90
-1.153432647394768405e-90
-8.649992138898871412e-91
-6.595532937436775271e-91
-5.092890140515453095e-91
-3.957425941997124474e-91
-3.072054962453388445e-91
-2.365784514481598738e-91
-1.796637661722633462e-91
