# bin_13_14
-5.274839694452231703e-12
-5.906716516547791065e-12
-6.491821235181372360e-12
-6.970334546423728695e-12
-7.266702432747959178e-12
-7.311904742489722973e-12
-7.013053546374892598e-12
-6.347654238097775662e-12
-5.431705851992221806e-12
-4.456863108165910272e-12
-3.684674211992894157e-12
-3.181578500632130982e-12
-2.657020644264522587e-12
-1.904089126719400439e-12
-1.393207924402555970e-12
-1.106886743575365209e-12
-7.395210543197208950e-13
-5.522728828891225788e-13
-3.877195132798386176e-13
-2.695264028080185300e-13
-1.892329845827384274e-13
-1.335621306443327230e-13
-9.556462169345614918e-14
-6.946454303993319683e-14
-5.151155777387804179e-14
-3.889582515394052991e-14
-2.981578811512748428e-14
-2.307814711541606520e-14
-1.790830137105123375e-14
-1.383126694373601387e-14
-1.056267589165059741e-14
