# bin_14_5
-1.228350090633464209e-09
-1.307402845099966029e-09
-1.348970678797153115e-09
-1.341262263351429491e-09
-1.266796519971347928e-09
-1.130448329385916586e-09
-9.543934057635960860e-10
-7.812054031945362834e-10
-6.523487344588692755e-10
-5.631595483390339532e-10
-4.554484668133050145e-10
-3.216053128366325176e-10
-2.465259215994933505e-10
-1.871790980641239228e-10
-1.322986397862666512e-10
-9.653146763799463734e-11
-7.047433880431713367e-11
-5.110998976506308887e-11
-3.757504539714590103e-11
-2.810046602940564012e-11
-2.139781948594208156e-11
-1.657212821972370626e-11
-1.300701213778481827e-11
-1.027794733241130152e-11
-8.120107323171908118e-12
-6.369538721846710775e-12
-4.928286108644204177e-12
-3.740598095926785907e-12
-2.772978681330350025e-12
-2.001719253093767015e-12
-1.405855679002769956e-12
