# bin_15_19
-2.910757708245641197e-15
-3.291501795532982050e-15
-3.660505908886667925e-15
-3.987938670526759617e-15
-4.234041928123759926e-15
-4.350308187748649167e-15
-4.300822348351443915e-15
-4.026641547683054786e-15
-3.562200562369628585e-15
-2.980369756149616854e-15
-2.436812538092618923e-15
-2.053945699075775456e-15
-1.778195382417719861e-15
-1.400366948320945330e-15
-9.660062836149077388e-16
-7.665284149860551509e-16
-5.494395011933900607e-16
-3.957841000114705754e-16
-2.688191703488542597e-16
-1.919668934438209044e-16
-1.328878861254343634e-16
-9.174029871446474557e-17
-6.387928178632532478e-17
-4.487407198189169070e-17
-3.204253330354016363e-17
-2.332864392274272634e-17
-1.731978303374146362e-17
-1.309830438847935857e-17
-1.004086058337624392e-17
-7.750574402447767495e-18
-5.978875275958904027e-18
