# bin_7_11
-9.496169741880560030e-17
-1.045259931716511273e-16
-1.124796761791049370e-16
-1.176282855620273672e-16
-1.188004496582498714e-16
-1.146067028094279090e-16
-1.043602536491239063e-16
-8.986472831762174497e-17
-7.391176894722059204e-17
-6.086008079323556028e-17
-5.233522608996208112e-17
-4.418262456521011644e-17
-3.225816699815250529e-17
-2.315765785563479059e-17
-1.871792992451392962e-17
-1.253765825906310112e-17
-9.537485968245610081e-18
-6.699358374131532764e-18
-4.732936202664225820e-18
-3.398135278120041835e-18
-2.458309781733152209e-18
-1.805577268068419325e-18
-1.348777564900333457e-18
-1.026772286137859303e-18
-7.932193600625364843e-19
-6.185618974561240326e-19
-4.837792896650456633e-19
-3.767137567859161443e-19
-2.901665492251473004e-19
-2.198489428196837241e-19
-1.631350636833498553e-19
