# bin_5_2
-1.411141528274896987e-09
-1.413784216493825229e-09
-1.351103040312181597e-09
-1.220948302795791561e-09
-1.044483676189812900e-09
-8.592657112768508710e-10
-7.115628980971984545e-10
-6.099855107719009961e-10
-5.053136888057255062e-10
-3.695977196063957450e-10
-2.730063100650325506e-10
-2.139509511939542419e-10
-1.511332827698025512e-10
-1.132166724093880503e-10
-8.247987540080021475e-11
-6.096953123394618503e-11
-4.577629489153736660e-11
-3.497216507098315924e-11
-2.721151306694879987e-11
-2.149686046795406708e-11
-1.715718972793464715e-11
-1.373157904540791107e-11
-1.093895360753475105e-11
-8.613756422552325108e-12
-6.662715297428563482e-12
-5.036654720613654933e-12
-3.708087612260637882e-12
-2.654656226966295317e-12
-1.849267299102162403e-12
-1.256354343153800361e-12
-8.351090565823179162e-13
