# bin_5_1
-2.275958758679625277e-09
-2.191572090149160223e-09
-1.998100330751242929e-09
-1.725083536416654056e-09
-1.427006458494770098e-09
-1.177901230912219882e-09
-1.003344864107297616e-09
-8.397328890409836573e-10
-6.299966957156178917e-10
-4.591730200529961575e-10
-3.599144103048359604e-10
-2.587355694685835459e-10
-1.928308385432908567e-10
-1.410508234024288839e-10
-1.050504548060237935e-10
-7.925815343771738720e-11
-6.088742205767389575e-11
-4.765241186110612713e-11
-3.785719738798665240e-11
-3.036479915993366240e-11
-2.440531362847477695e-11
-1.950779852013204583e-11
-1.539980866290160146e-11
-1.193247762698410973e-11
-9.030740795489716533e-12
-6.653960733328705153e-12
-4.767691738566565437e-12
-3.324678030559694555e-12
-2.261721116546091378e-12
-1.505696127408732900e-12
-9.842448171201747062e-13
