# bin_14_7
-7.295704437661743084e-10
-7.922280348303045150e-10
-8.382482284261250509e-10
-8.583118492349821933e-10
-8.448608804042958026e-10
-7.874132907017761517e-10
-6.937455753835639022e-10
-5.789484975786229260e-10
-4.736090899646100708e-10
-3.999479367621454983e-10
-3.448180841507821627e-10
-2.692440697655038891e-10
-1.876210162810699613e-10
-1.494066944424265160e-10
-1.071697322272090307e-10
-7.868340450184930838e-11
-5.522870387566118403e-11
-4.020087451076954090e-11
-2.902271531490537849e-11
-2.114052356509236032e-11
-1.564935272599212813e-11
-1.178093532578114750e-11
-9.029864776416829917e-12
-7.021757154047114566e-12
-5.506878240345735012e-12
-4.327441338107402956e-12
-3.383215372657272189e-12
-2.614231740685176536e-12
-1.985382548812973229e-12
-1.475302839594878327e-12
-1.069105968092751659e-12
