# bin_8_2
-2.073999021252964648e-09
-2.080391111051868376e-09
-1.991449164352861541e-09
-1.802689244733440793e-09
-1.544689868942959345e-09
-1.271588032224012867e-09
-1.052060246641980337e-09
-9.012975789905919677e-10
-7.487138218855596024e-10
-5.495242903067457268e-10
-4.044053846906260959e-10
-3.176462945891214729e-10
-2.243639510988014000e-10
-1.681433599733639326e-10
-1.223383333138580978e-10
-9.041371479290375971e-11
-6.783078426400642830e-11
-5.177243092800642619e-11
-4.024745454713055158e-11
-3.177114905399355029e-11
-2.534507426559198296e-11
-2.028120849014246250e-11
-1.615880853779709340e-11
-1.272953432615727360e-11
-9.853009564883862216e-12
-7.454987962236109148e-12
-5.494096209683819196e-12
-3.937431682042111948e-12
-2.745599923260823975e-12
-1.866953983108745834e-12
-1.241902945371136345e-12
