# bin_17_14
-1.351178203494599525e-10
-1.516393599822466860e-10
-1.671116266116465291e-10
-1.800316342180541902e-10
-1.884852195063705539e-10
-1.905694759502063141e-10
-1.840833910336444326e-10
-1.678329577612876874e-10
-1.446917809734724541e-10
-1.190824825763009095e-10
-9.804626438624309664e-11
-8.431249243029836741e-11
-7.128157419776995577e-11
-5.208863396412759158e-11
-3.723534596559218223e-11
-3.007972595163906443e-11
-1.997891065736318832e-11
-1.510975158911006589e-11
-1.045837433525963712e-11
-7.252950378752194982e-12
-5.093304298655059027e-12
-3.583587903899337970e-12
-2.548257657228115981e-12
-1.837963553185056127e-12
-1.352440995538261500e-12
-1.014050329341192783e-12
-7.729200445024321693e-13
-5.961381278598462572e-13
-4.620438715244002565e-13
-3.572508485412758789e-13
-2.736652493517614837e-13
