# bin_9_9
-4.227239914324127221e-11
-4.639589097732434509e-11
-4.974804743092691305e-11
-5.178922241939969232e-11
-5.203622465559574643e-11
-4.982495063905964018e-11
-4.503288702842446339e-11
-3.848214561877830878e-11
-3.156428951480228388e-11
-2.611039289312489625e-11
-2.253387543094127553e-11
-1.876770276065215128e-11
-1.345367160152175957e-11
-9.897389588260954728e-12
-7.845876815161707131e-12
-5.308715585345685137e-12
-3.976846296400670429e-12
-2.832910291158883651e-12
-2.007482989305270344e-12
-1.442051284523979483e-12
-1.047294400726373619e-12
-7.735428371773675280e-13
-5.814447617306378351e-13
-4.450369250477794567e-13
-3.452345732441665235e-13
-2.699003484768319638e-13
-2.112268996073060535e-13
-1.642933594793750272e-13
-1.262066857038740893e-13
-9.524192027233020955e-14
-7.031530151980828536e-14
