# bin_4_1
-1.937372232019026805e-09
-1.863805044933430728e-09
-1.697559100036480320e-09
-1.464197497040784932e-09
-1.210602899125294585e-09
-9.996535462991633863e-10
-8.519099783393465378e-10
-7.121067838415627966e-10
-5.331208934959212292e-10
-3.890911993775720946e-10
-3.049206047276676621e-10
-2.189884138843747167e-10
-1.633157966977349256e-10
-1.194765499007242865e-10
-8.900113745854618321e-11
-6.718330367292825103e-11
-5.163892236973228567e-11
-4.043431315325344332e-11
-3.213547866136315853e-11
-2.578172818083579194e-11
-2.072300943938618490e-11
-1.656258773312558813e-11
-1.307125862795070046e-11
-1.012406008904369152e-11
-7.658144053988838424e-12
-5.639372426132435924e-12
-4.038356445349710292e-12
-2.814546951626367355e-12
-1.913762732641176707e-12
-1.273531126214755695e-12
-8.322060076960079007e-13
