# bin_19_6
-1.193409305543647938e-09
-1.284636322045520013e-09
-1.344470586714020625e-09
-1.359378477693466176e-09
-1.314200755990092618e-09
-1.200161869218799852e-09
-1.036594723712088773e-09
-8.544040887226749229e-10
-7.028760640894990388e-10
-6.022901078148688940e-10
-5.095787583661830150e-10
-3.767800249213097121e-10
-2.697928960698086389e-10
-2.173085741869514662e-10
-1.486524329303734943e-10
-1.126674338840793377e-10
-7.971215439265704489e-11
-5.739511025401847242e-11
-4.187244667641083839e-11
-3.089724389641909631e-11
-2.317730740146385526e-11
-1.768562519477805130e-11
-1.372216089556403463e-11
-1.076551129996628813e-11
-8.484530305446009093e-12
-6.671438383973002007e-12
-5.197187714844987853e-12
-3.987052973993084269e-12
-2.996837057941828810e-12
-2.198335387043010039e-12
-1.570165707095205222e-12
