# bin_9_8
-1.388756147844763060e-10
-1.516571578093563727e-10
-1.615994134902662074e-10
-1.668951399644992685e-10
-1.661223684182920146e-10
-1.570172111370926142e-10
-1.401759569073707510e-10
-1.183191807894080334e-10
-9.678804091487830315e-11
-8.082553040651022025e-11
-6.992766693677730799e-11
-5.662163026555942552e-11
-3.968599012091113504e-11
-3.047582823056455302e-11
-2.308529448613224498e-11
-1.617978555067245575e-11
-1.167104784886981360e-11
-8.480674794583133033e-12
-6.058916707997247906e-12
-4.369695166925346690e-12
-3.202404447121477617e-12
-2.387830544139241435e-12
-1.812765303924658858e-12
-1.399039221271415354e-12
-1.091806932260673158e-12
-8.563002158883858582e-13
-6.702328469975705470e-13
-5.199109182275172814e-13
-3.973326471174077398e-13
-2.977007596534178849e-13
-2.178480884339914525e-13
