# bin_7_5
-4.621774870790928943e-10
-4.912133475982190894e-10
-5.059194047317962847e-10
-5.019063700009377515e-10
-4.726372048373328561e-10
-4.205697100676439633e-10
-3.541216683216246962e-10
-2.897482520268435685e-10
-2.424966384276392200e-10
-2.093547254148069727e-10
-1.681476970893618378e-10
-1.182998429603996210e-10
-9.148673167274219763e-11
-6.874843514227036378e-11
-4.898492535264834466e-11
-3.550533354535413823e-11
-2.599408051408410594e-11
-1.888677465388827856e-11
-1.390461571202978026e-11
-1.041825925904159104e-11
-7.947888005045625264e-12
-6.166165234664436013e-12
-4.845749169066902416e-12
-3.831731136991868081e-12
-3.027615409474667845e-12
-2.373792600288792675e-12
-1.834849700097311489e-12
-1.390645485028903899e-12
-1.029045664633569070e-12
-7.413213844571071746e-13
-5.195670071309092497e-13
