# bin_14_16
-6.537354715456976115e-13
-7.354434650419739084e-13
-8.128505746741068366e-13
-8.788524517054738955e-13
-9.242925587202841781e-13
-9.392442758819102307e-13
-9.141801833289950306e-13
-8.402079437008541785e-13
-7.302693776643273667e-13
-6.033676736432336142e-13
-4.949828375265866062e-13
-4.234211498445033579e-13
-3.620314751918473538e-13
-2.704886808057963750e-13
-1.894125695108715309e-13
-1.543766438474730174e-13
-1.030758178483692177e-13
-7.822073074396457308e-14
-5.335050922859977758e-14
-3.703966100812154732e-14
-2.600026461222944175e-14
-1.825320526978234688e-14
-1.289623972831088387e-14
-9.223560418436873951e-15
-6.727866182363369786e-15
-5.003241895532665781e-15
-3.787255073507947727e-15
-2.907486590089229694e-15
-2.248980522300119624e-15
-1.740075840407184781e-15
-1.336976122706594183e-15
