# bin_6_3
-1.053214523038165113e-09
-1.082679233673510456e-09
-1.071590163774815262e-09
-1.006962926675011899e-09
-8.945201833751456779e-10
-7.527537926796680754e-10
-6.165002250196566655e-10
-5.164218717887456262e-10
-4.444577463847508225e-10
-3.555467997861593784e-10
-2.521040579649677545e-10
-1.947518912970489451e-10
-1.462915390628259535e-10
-1.050890401011525542e-10
-7.687384924772997650e-11
-5.653367765707419657e-11
-4.161033965071237011e-11
-3.111805251317947041e-11
-2.370281394878142756e-11
-1.838112378084781685e-11
-1.447147011581269962e-11
-1.150486029339590155e-11
-9.168455372450844273e-12
-7.271342371137739988e-12
-5.699749762849080000e-12
-4.388773624943658177e-12
-3.302921568469865393e-12
-2.421216746300752778e-12
-1.725967042583801832e-12
-1.197359082761547093e-12
-8.102049522587414171e-13
