# bin_18_13
-2.317725167786712483e-10
-2.593867641988635654e-10
-2.848797584990245494e-10
-3.056106663692441731e-10
-3.182478883346524945e-10
-3.198175507997039293e-10
-3.061968644201212969e-10
-2.766797808650503080e-10
-2.363476234397379971e-10
-1.938509684618141585e-10
-1.604688800776837261e-10
-1.386220844581585098e-10
-1.153420313463221197e-10
-8.237508902069774516e-11
-6.063591031012280817e-11
-4.786774877373993450e-11
-3.213701070601653837e-11
-2.385420202167692653e-11
-1.680464253386307872e-11
-1.169549634798273783e-11
-8.212786897585756670e-12
-5.805069853441649260e-12
-4.160000606014850678e-12
-3.029236957573734332e-12
-2.250185485115889727e-12
-1.701632706506328689e-12
-1.305858345187311440e-12
-1.011364930996319159e-12
-7.848360102577348325e-13
-6.058732317324157011e-13
-4.622848824300006247e-13
