# bin_17_17
-1.686071466550742092e-11
-1.904295265169112842e-11
-2.114664918469653557e-11
-2.299659144288734199e-11
-2.436092944666393108e-11
-2.496219589854948190e-11
-2.458838765842613090e-11
-2.291778209309344509e-11
-2.018999992279538853e-11
-1.683442710919352255e-11
-1.376904097006003479e-11
-1.164911574955912719e-11
-1.006806360833903785e-11
-7.827776917444484459e-12
-5.402881870285333817e-12
-4.331874489698305547e-12
-3.041824610070757843e-12
-2.230272816688916894e-12
-1.505914798650104790e-12
-1.068654743691474960e-12
-7.427770846259075731e-13
-5.155562393844986087e-13
-3.602831339978878312e-13
-2.541551329866593004e-13
-1.824445611810762769e-13
-1.335514232062209876e-13
-9.966183850980797252e-14
-7.568682732773054712e-14
-5.817935478032580956e-14
-4.495669361515543851e-14
-3.465937919279693524e-14
