# bin_13_19
-4.098168732544192129e-19
-4.629299793667278330e-19
-5.141578371464692906e-19
-5.592476089556593930e-19
-5.925674735683773078e-19
-6.073634020883759863e-19
-5.984853276205269139e-19
-5.580618800475230047e-19
-4.918495822195392385e-19
-4.102140973616876582e-19
-3.354803277958136156e-19
-2.837297462089107584e-19
-2.453020942194630896e-19
-1.909499006588672819e-19
-1.317345589436823121e-19
-1.055719765694975630e-19
-7.425568402837918182e-20
-5.438659206419591292e-20
-3.669970618904950921e-20
-2.607118092840564667e-20
-1.811432413501078531e-20
-1.256829737498080899e-20
-8.781525499764817432e-21
-6.191825376578005325e-21
-4.443172412398548262e-21
-3.251357460111518657e-21
-2.425423835618903989e-21
-1.841506849986715066e-21
-1.415392633150275026e-21
-1.093749334482786218e-21
-8.433708236231272753e-22
