# bin_13_11
-1.425383268204446315e-10
-1.584033266284816038e-10
-1.724753823133713958e-10
-1.830448920324603269e-10
-1.880375333332755619e-10
-1.858715052671392550e-10
-1.740520237080477026e-10
-1.540214821667186573e-10
-1.289297575368081607e-10
-1.054180229951674159e-10
-8.876815151803429836e-11
-7.677998486345719594e-11
-6.060449502708706924e-11
-4.198612736037665507e-11
-3.320514944835741057e-11
-2.402486344147502759e-11
-1.733884443239656764e-11
-1.201874826661736103e-11
-8.682897667517751461e-12
-6.139550547025201579e-12
-4.357960219045544673e-12
-3.136440930523244935e-12
-2.290064943196366425e-12
-1.703840580502994989e-12
-1.291247904911015297e-12
-9.929551624484105427e-13
-7.710743249297028127e-13
-6.004748821415214264e-13
-4.655899017200200808e-13
-3.570706985574245902e-13
-2.694132874127595464e-13
