# bin_14_12
-1.227379689680305725e-10
-1.369291833166567448e-10
-1.498046532950646884e-10
-1.599301381611807429e-10
-1.655132138564364324e-10
-1.651331132609881849e-10
-1.565073185341516225e-10
-1.400672841660729708e-10
-1.184777278538230408e-10
-9.694823814579806894e-11
-8.084558802514925997e-11
-7.000691470721616060e-11
-5.700031286620103176e-11
-3.991812968800830359e-11
-3.041976756336831139e-11
-2.315750018242235901e-11
-1.598005220732236152e-11
-1.147519140630487574e-11
-8.234286169719657278e-12
-5.767851133729868041e-12
-4.058675509520293549e-12
-2.891544221474313115e-12
-2.090492992066724433e-12
-1.537840046530565876e-12
-1.153589978793479694e-12
-8.797289995536997663e-13
-6.793508825554364418e-13
-5.278920924817878110e-13
-4.097639349789771648e-13
-3.155237600280576313e-13
-2.395847334596932307e-13
