# bin_13_18
-3.215063145534062876e-17
-3.626752024016862099e-17
-4.021454060235951336e-17
-4.365269702971040790e-17
-4.613722016747328817e-17
-4.714888619420032109e-17
-4.626796157495088272e-17
-4.292767866954225278e-17
-3.765689476538663735e-17
-3.129406990700110752e-17
-2.561050764063409121e-17
-2.175013189880088565e-17
-1.875420196123766517e-17
-1.439067607467841216e-17
-9.954010644355719943e-18
-8.050903812878349531e-18
-5.539480801454162277e-18
-4.128201527495183860e-18
-2.782842848848002588e-18
-1.958493381504692779e-18
-1.367201477546860992e-18
-9.540656280772347055e-19
-6.692244181813860365e-19
-4.740878094047530749e-19
-3.421729287310170901e-19
-2.518472229249561037e-19
-1.888852755487686257e-19
-1.440228548395917520e-19
-1.109896379943636016e-19
-8.583834382844275968e-20
-6.612703711320825660e-20
