# bin_18_3
-2.272075389333920478e-09
-2.341011477810038440e-09
-2.323744063939311982e-09
-2.191754370282293822e-09
-1.954125800600808222e-09
-1.649763897092983029e-09
-1.351669047645818597e-09
-1.129199737384950455e-09
-9.720875376690539430e-10
-7.842548248780004170e-10
-5.581500411447994113e-10
-4.270878231080438619e-10
-3.243967053037447439e-10
-2.311787562423196419e-10
-1.700697043845219106e-10
-1.247057046900928775e-10
-9.160243381352178097e-11
-6.837854402310471865e-11
-5.196961894165088222e-11
-4.021740246033757587e-11
-3.160617614402725750e-11
-2.509986903287245924e-11
-1.999471847521301615e-11
-1.586259630845645821e-11
-1.244676862773140481e-11
-9.599421449842063367e-12
-7.239635223479344067e-12
-5.319970004994728584e-12
-3.801982924543398719e-12
-2.643949105038188831e-12
-1.792895537794635850e-12
