# bin_9_13
-2.821299736289049857e-16
-3.137589724833585177e-16
-3.419348717108842207e-16
-3.632866209644940802e-16
-3.736799125135360207e-16
-3.700283036809544852e-16
-3.472346535841329467e-16
-3.078782529460916759e-16
-2.581199211180568071e-16
-2.110042318803904881e-16
-1.773726558953556001e-16
-1.535592782478761362e-16
-1.219221659968996698e-16
-8.440767720883311525e-17
-6.646203873712693825e-17
-4.851373569115022464e-17
-3.474595821202840278e-17
-2.412937417660022397e-17
-1.748096868491747530e-17
-1.233812564598042509e-17
-8.737517971944327145e-18
-6.278927244543318103e-18
-4.577181723483465119e-18
-3.399342400195165761e-18
-2.572109151385170467e-18
-1.975508713186771603e-18
-1.532974052252940951e-18
-1.193634013516678932e-18
-9.258662265082510353e-19
-7.106634141485224903e-19
-5.368448828379512742e-19
