# bin_6_16
-6.827382169346383251e-37
-7.613944374179920731e-37
-8.326059390582709206e-37
-8.883689277131478108e-37
-9.186764110492938513e-37
-9.157767631297463587e-37
-8.668303056072231990e-37
-7.748223641144977190e-37
-6.545059610581038798e-37
-5.353720552174092763e-37
-4.468830738056545844e-37
-3.871425845559481612e-37
-3.143765031996854755e-37
-2.194396202890586042e-37
-1.680612304898531848e-37
-1.273262009024802599e-37
-8.816751138420127358e-38
-6.297185267742044220e-38
-4.535891405981567926e-38
-3.179970759714810491e-38
-2.237399460188440572e-38
-1.595883743724363757e-38
-1.155201614337487333e-38
-8.509944607730513708e-39
-6.392041870216996627e-39
-4.880145116266484349e-39
-3.771844018754328831e-39
-2.932342125506192093e-39
-2.276362016346159149e-39
-1.752334235287415459e-39
-1.329802907469468217e-39
