# bin_5_3
-7.838542944436868561e-10
-8.056817623700277952e-10
-7.972874147115452741e-10
-7.490074005311157967e-10
-6.652173439714019069e-10
-5.596465554162589810e-10
-4.583183662696185648e-10
-3.839882019214658371e-10
-3.304957883097481405e-10
-2.642381018355807537e-10
-1.872706955406240620e-10
-1.447784072385079988e-10
-1.086686514456691730e-10
-7.809709874292435620e-11
-5.710076052855242471e-11
-4.200284278204076828e-11
-3.091655956870429952e-11
-2.312139984244265045e-11
-1.761322254775803863e-11
-1.365962831708253643e-11
-1.075493919551587627e-11
-8.550998790292654566e-12
-6.814751080474233262e-12
-5.404799867274731331e-12
-4.236695589968671050e-12
-3.262227859865053623e-12
-2.455071260014723612e-12
-1.799663321508011533e-12
-1.282863128961441902e-12
-8.899463678083695626e-13
-6.021844754898490716e-13
