# bin_4_15
-2.941476620078523799e-45
-3.263319825591698356e-45
-3.545797423724184943e-45
-3.753277574028555146e-45
-3.843321916916361212e-45
-3.783032895633173066e-45
-3.523672551751020760e-45
-3.102602069789893054e-45
-2.585916563360861756e-45
-2.114533256309551875e-45
-1.788485825602922600e-45
-1.544846228068112033e-45
-1.201211422085597640e-45
-8.309195790624054447e-46
-6.668915209972072086e-46
-4.709335961400503150e-46
-3.474012309293701273e-46
-2.380769140521769826e-46
-1.715205108151026042e-46
-1.218582449010880858e-46
-8.697942351917312595e-47
-6.286921200526526481e-47
-4.609931350012148156e-47
-3.446425920799103305e-47
-2.622943952814801566e-47
-2.023751278439203047e-47
-1.574804868970339267e-47
-1.227149516518104277e-47
-9.507892319006664130e-48
-7.277691332760726940e-48
-5.475199760163443142e-48
