# bin_5_10
-4.627575588847077259e-20
-5.053019721952380197e-20
-5.383545292485415226e-20
-5.558684667322319654e-20
-5.531831834849199506e-20
-5.226259240594025983e-20
-4.663723935241689712e-20
-3.933907309480647005e-20
-3.216959633461830994e-20
-2.687249046377774167e-20
-2.326209258477125461e-20
-1.882422177133499324e-20
-1.315924599494115450e-20
-1.013201266719027719e-20
-7.663313396122313596e-21
-5.374553620179025460e-21
-3.864965916913986531e-21
-2.816899145857925335e-21
-2.012771200200990678e-21
-1.450731727800759560e-21
-1.063541435727233683e-21
-7.932843820397777184e-22
-6.024452816893290085e-22
-4.651341186145216925e-22
-3.630944488016968950e-22
-2.848394712024074943e-22
-2.229811259605668325e-22
-1.729820819219301046e-22
-1.321971769993188273e-22
-9.904088560292046104e-23
-7.246375949808321443e-23
