# bin_14_18
-2.086757936572138241e-15
-2.356183983307308449e-15
-2.615556794769210489e-15
-2.843112289439500667e-15
-3.010111529027451687e-15
-3.082361598913525901e-15
-3.033358039095778450e-15
-2.824008468520860746e-15
-2.485272726089708941e-15
-2.070371800759258729e-15
-1.693506074896599364e-15
-1.434161506902472517e-15
-1.238983404605099038e-15
-9.600956271343958656e-16
-6.627776015473005059e-16
-5.328249263763769456e-16
-3.721194770156363626e-16
-2.741287248316544324e-16
-1.848201671958549817e-16
-1.309247436302029659e-16
-9.110343779863805091e-17
-6.332973241351777992e-17
-4.430380530601601841e-17
-3.128445893050702746e-17
-2.249063892648685707e-17
-1.648842938748513219e-17
-1.232126995799166389e-17
-9.367921981007692319e-18
-7.206554723075573316e-18
-5.570538374788160113e-18
-4.294191573090659314e-18
