# bin_4_4
-1.139595405790513405e-10
-1.188014053865828814e-10
-1.196171733264093078e-10
-1.149873638621374379e-10
-1.044286891082724048e-10
-8.970819245230212267e-11
-7.378151908710704994e-11
-6.085512895828607945e-11
-5.225020183244590172e-11
-4.382504004691181495e-11
-3.207234855217345495e-11
-2.332221739375586283e-11
-1.863452081696604639e-11
-1.285651024004748874e-11
-9.737613971366174584e-12
-7.002208062649751599e-12
-5.103878403325489158e-12
-3.781884664379032751e-12
-2.844797025555643283e-12
-2.178950920259976653e-12
-1.696647705196917830e-12
-1.339187136603518611e-12
-1.064002902623474568e-12
-8.448545466977989491e-13
-6.657549647795355904e-13
-5.171841278630263702e-13
-3.938510080675479033e-13
-2.927196170273430810e-13
-2.117163254268724314e-13
-1.489284160531241248e-13
-1.020223327168233392e-13
