# bin_17_11
-3.400822707032238838e-10
-3.781579929755719485e-10
-4.120515151759030239e-10
-4.376989411232557281e-10
-4.501415017731574627e-10
-4.455998043082609087e-10
-4.180347484459411629e-10
-3.705676359347299681e-10
-3.106782259065238381e-10
-2.540321160428909763e-10
-2.135856038036602851e-10
-1.848053340065759703e-10
-1.466009940444333072e-10
-1.016725966294629480e-10
-7.997760416982198064e-11
-5.833450460265690707e-11
-4.179926425578008668e-11
-2.911017643371787399e-11
-2.102790648136717571e-11
-1.484583189939132780e-11
-1.052099501154160630e-11
-7.560388462758104766e-12
-5.511933867252454864e-12
-4.093982692118847522e-12
-3.097917679684171602e-12
-2.379384644758358976e-12
-1.846260725976169114e-12
-1.437391585181690932e-12
-1.114752527824158305e-12
-8.554796738491835795e-13
-6.461067093683082171e-13
