# bin_20_11
-4.436698712230938822e-10
-4.933940222478658050e-10
-5.376838066381069620e-10
-5.712409136242761424e-10
-5.875940769704468835e-10
-5.818111768268413511e-10
-5.459944545729086451e-10
-4.841428957179154485e-10
-4.060067322369678352e-10
-3.319818635555556666e-10
-2.790513028156956465e-10
-2.414636206788527126e-10
-1.917105929211695352e-10
-1.329832955636973872e-10
-1.045098705701442139e-10
-7.633354486628779924e-11
-5.462918823332951689e-11
-3.807637700522615463e-11
-2.750374305326366316e-11
-1.941273273125639084e-11
-1.375374996567343522e-11
-9.880828602520331291e-12
-7.201794118225486214e-12
-5.347547441715932286e-12
-4.045427676680306273e-12
-3.106474240194000646e-12
-2.410110733735846504e-12
-1.876283361840928176e-12
-1.455183987119731729e-12
-1.116857086750050798e-12
-8.436582343830096291e-13
