# bin_9_1
-3.071899106163210489e-09
-2.964337184812227823e-09
-2.709008083096235119e-09
-2.344105557946032945e-09
-1.941368561758733720e-09
-1.601131777791375342e-09
-1.362318006219543408e-09
-1.143333330547593118e-09
-8.620313248874409623e-10
-6.264373645105451418e-10
-4.911012333773816351e-10
-3.539278345541380274e-10
-2.633146849279973170e-10
-1.925683646178220520e-10
-1.433406011491460127e-10
-1.080134303664822021e-10
-8.286983294848889874e-11
-6.477860707926730796e-11
-5.141151927962888233e-11
-4.121203960570158181e-11
-3.311851294379566123e-11
-2.647928042180395756e-11
-2.091693212669731911e-11
-1.622364549466269552e-11
-1.229396328906489741e-11
-9.071256824839444614e-12
-6.509228567116307288e-12
-4.545360918464710593e-12
-3.095918318624318669e-12
-2.063191535104116891e-12
-1.349827452751313645e-12
