# bin_16_12
-2.181894411111771895e-10
-2.435153594982856579e-10
-2.665453399475527664e-10
-2.847376917638119945e-10
-2.949114960894275334e-10
-2.945103527652493891e-10
-2.794876804212196395e-10
-2.504364027440631723e-10
-2.120972767602708784e-10
-1.735986660759272889e-10
-1.446218813142254491e-10
-1.252071272366697396e-10
-1.022453189657762178e-10
-7.176714792603633656e-11
-5.444580393150922999e-11
-4.165498838522711354e-11
-2.862925973540206820e-11
-2.065194386988450139e-11
-1.478630873723069486e-11
-1.034811168297186730e-11
-7.278768368314492397e-12
-5.180010292903850603e-12
-3.740766435311367327e-12
-2.748261961623782043e-12
-2.059077128042615966e-12
-1.568640786481814093e-12
-1.210445576623161842e-12
-9.402344303436786972e-13
-7.298429365279396195e-13
-5.621901603653975663e-13
-4.271579319480215770e-13
