# bin_14_1
-3.546401831330635986e-09
-3.424027079530782659e-09
-3.130884086385843661e-09
-2.710626577535865601e-09
-2.245552868813240387e-09
-1.851624944798325370e-09
-1.575025500466572777e-09
-1.322746222754928672e-09
-9.984834044488992084e-10
-7.250749458199637346e-10
-5.684666953015086397e-10
-4.099213895496915656e-10
-3.048518864197972652e-10
-2.229345201853334072e-10
-1.659239007638218700e-10
-1.249953927948799695e-10
-9.586993064546238240e-11
-7.491966280325583203e-11
-5.944666151503491309e-11
-4.764643860677083913e-11
-3.828785266596727152e-11
-3.061418281597908967e-11
-2.418688609250169006e-11
-1.876419190419862149e-11
-1.422324182407071926e-11
-1.049817518954275448e-11
-7.535602234538853754e-12
-5.263681505165732122e-12
-3.586145454369409345e-12
-2.390433005600105299e-12
-1.564212770344639269e-12
