# bin_15_14
-5.404209743344493229e-11
-6.065332605089348850e-11
-6.684531938703508109e-11
-7.201698000259833138e-11
-7.540269545385688106e-11
-7.624309373215347868e-11
-7.365140152262250788e-11
-6.715417550810919279e-11
-5.789681230829720969e-11
-4.764892645026389382e-11
-3.922809268324257192e-11
-3.373375157850137902e-11
-2.852659269116649125e-11
-2.084596812805340395e-11
-1.489523263507705192e-11
-1.204100428014327347e-11
-7.991231151907691272e-12
-6.048042166936398011e-12
-4.185714882887008339e-12
-2.902005423831464663e-12
-2.037989876818472780e-12
-1.433777379877920499e-12
-1.019571436572414573e-12
-7.352171029351901357e-13
-5.410165359812578953e-13
-4.056448324254161160e-13
-3.091826677377769811e-13
-2.384761548903371275e-13
-1.848465375587103965e-13
-1.429359148950203642e-13
-1.095057241354844672e-13
