# bin_10_8
-2.393354827423695649e-10
-2.617803011154018145e-10
-2.794932027788374466e-10
-2.893740601572784117e-10
-2.888983241657723657e-10
-2.741708032224585676e-10
-2.457197380318437617e-10
-2.081944992589557923e-10
-1.704296074137783727e-10
-1.418837881557255598e-10
-1.226916505722120900e-10
-1.002764346340473535e-10
-7.073265756469419335e-11
-5.358737433717005770e-11
-4.121090268902993715e-11
-2.853054793828248121e-11
-2.083282350096555452e-11
-1.505192677683215398e-11
-1.072329241707674976e-11
-7.720517160062033255e-12
-5.640758897698884974e-12
-4.193088290082305280e-12
-3.173021875256534250e-12
-2.442604071203070183e-12
-1.902697705708531175e-12
-1.490891988192854294e-12
-1.167019805085615756e-12
-9.061577101107427616e-13
-6.937375505926881666e-13
-5.210444895041405195e-13
-3.824188935654551852e-13
