# bin_7_2
-1.889450171677219180e-09
-1.896260547447999739e-09
-1.816416286145674425e-09
-1.645465355838706954e-09
-1.410944011826135377e-09
-1.161834716262622882e-09
-9.609070535962026969e-10
-8.229585415664254423e-10
-6.844022621712585017e-10
-5.030859607921423391e-10
-3.696729444688373065e-10
-2.905911752696975742e-10
-2.052840494160337644e-10
-1.538447642645059604e-10
-1.118765933818299798e-10
-8.267379059008994451e-11
-6.200108853730646344e-11
-4.730217294684523317e-11
-3.675766368932004778e-11
-2.900516828433247654e-11
-2.313412816853257312e-11
-1.851097227804655379e-11
-1.474965423855494153e-11
-1.162218654843771089e-11
-8.999188937158200267e-12
-6.812182475583924863e-12
-5.023085406994771663e-12
-3.601916574840110699e-12
-2.513010278030855367e-12
-1.709639570442649557e-12
-1.137740489785305592e-12
