# bin_6_10
-4.974745682717941503e-17
-5.447130611672114848e-17
-5.823453123562028274e-17
-6.039379154371073975e-17
-6.041755407178141717e-17
-5.748818366170657553e-17
-5.164579683925725207e-17
-4.385586408988022622e-17
-3.590663883297366152e-17
-2.983029705745666612e-17
-2.580082784311665341e-17
-2.122201607539793393e-17
-1.500382615564674928e-17
-1.127770802277600018e-17
-8.762748811229553900e-18
-6.010204920618788001e-18
-4.424263745059311767e-18
-3.189521187024644489e-18
-2.267951005072010300e-18
-1.630267963631206668e-18
-1.188680437105857953e-18
-8.820575044751914061e-19
-6.662582637047538149e-19
-5.121351593526422112e-19
-3.985337321566637300e-19
-3.121373123330024636e-19
-2.443657231337134884e-19
-1.898700722669945019e-19
-1.455244725416581221e-19
-1.094622887184482690e-19
-8.048229954555540459e-20
