# bin_2_13
-1.068666990436970490e-50
-1.173810746060224014e-50
-1.259796400502826994e-50
-1.313030335386923716e-50
-1.321103509420781231e-50
-1.267301662751406820e-50
-1.147472328023573512e-50
-9.822941242972649911e-51
-8.060653543030868964e-51
-6.659055995169900281e-51
-5.744131226782235580e-51
-4.802434341908923713e-51
-3.454606143071544335e-51
-2.525687349620390070e-51
-2.014895954434842372e-51
-1.356691193970752684e-51
-1.022060601438056880e-51
-7.255824466029763756e-52
-5.135000182474827024e-52
-3.687024390564331208e-52
-2.673730833930387083e-52
-1.971868438209447818e-52
-1.479629618683933129e-52
-1.131010574702313071e-52
-8.764835714975183743e-53
-6.848291128544613631e-53
-5.359256281097082622e-53
-4.170179159307832286e-53
-3.206075885347261892e-53
-2.422272403181923712e-53
-1.790889720249764543e-53
