# bin_18_9
-5.937825666767035200e-10
-6.540366517360412935e-10
-7.043949466033359573e-10
-7.374086016382459979e-10
-7.456513364226826762e-10
-7.206216226118352112e-10
-6.575888653921469009e-10
-5.674546851911629122e-10
-4.673276864144187781e-10
-3.845513989569476459e-10
-3.301271504145514879e-10
-2.793127951254448163e-10
-2.052754374734451312e-10
-1.467573772178239752e-10
-1.185182994813472053e-10
-7.982139211383441583e-11
-6.054142735483053135e-11
-4.237692784555900504e-11
-2.998781524228691099e-11
-2.151583936791993190e-11
-1.555418594285340353e-11
-1.140686785433239301e-11
-8.504016266911474781e-12
-6.462682744928023789e-12
-4.985543270845460788e-12
-3.883868570402413101e-12
-3.036232268006273526e-12
-2.364539956586463908e-12
-1.822409955045639449e-12
-1.382205242745449635e-12
-1.027080534376303079e-12
