# bin_20_5
-1.499475357042451377e-09
-1.597546030137884004e-09
-1.650347518027751723e-09
-1.643363317726677414e-09
-1.555166328555928048e-09
-1.390449300553902757e-09
-1.175987508391098617e-09
-9.628724362938333102e-10
-8.028768042898632289e-10
-6.930329160930958045e-10
-5.630096165574678152e-10
-3.985815140974018257e-10
-3.037384480790645194e-10
-2.321580155356601159e-10
-1.632487805502987549e-10
-1.196289347121311598e-10
-8.715918674779351193e-11
-6.313188134636628095e-11
-4.636938202787801180e-11
-3.463229528386212416e-11
-2.633763731467551784e-11
-2.037250813095681771e-11
-1.597653298784754519e-11
-1.261837992554287298e-11
-9.968596556052381770e-12
-7.822443374933198165e-12
-6.056969834531873707e-12
-4.602248668261537674e-12
-3.416340826345724339e-12
-2.469884967543315762e-12
-1.737356351699906135e-12
