# bin_6_1
-2.537296404905324555e-09
-2.446423480701364899e-09
-2.233697726322204729e-09
-1.931161378885516941e-09
-1.598656593138980488e-09
-1.318911414056509050e-09
-1.122669210327947549e-09
-9.411961903094592294e-10
-7.082963625087687380e-10
-5.153064492933452457e-10
-4.039367419245929193e-10
-2.908421924974482994e-10
-2.165164241080954159e-10
-1.583560629918141094e-10
-1.178969241189767571e-10
-8.888055029344331929e-11
-6.822315658999930030e-11
-5.335309604367999506e-11
-4.235865456034999730e-11
-3.396266657391529839e-11
-2.729443024068330340e-11
-2.182065575053287315e-11
-1.723280929955106181e-11
-1.336131617982629926e-11
-1.012032436596074994e-11
-7.463606464730977116e-12
-5.352855466086972275e-12
-3.736058576350276345e-12
-2.543599507133943564e-12
-1.694501986429577028e-12
-1.108288303222670367e-12
