# bin_1_9
-4.548710130526133093e-37
-4.875286465799079120e-37
-5.074333898655202516e-37
-5.098667000997494956e-37
-4.883500648308432036e-37
-4.416053574211496167e-37
-3.775869616357810796e-37
-3.097538655345558076e-37
-2.560218694470767828e-37
-2.207335715145662478e-37
-1.841159424345106080e-37
-1.325263523375741270e-37
-9.738599794311124548e-38
-7.752040652840227365e-38
-5.280028479938169717e-38
-3.986304745855351158e-38
-2.863999999959756561e-38
-2.059122461556160354e-38
-1.505504893234795115e-38
-1.115973430756881837e-38
-8.424975262871057875e-39
-6.470874015567202425e-39
-5.048358490559133131e-39
-3.975339346959289651e-39
-3.138557138185836640e-39
-2.467165105452493991e-39
-1.917723669991322416e-39
-1.465456181420318404e-39
-1.095618853967492193e-39
-7.984603855765477779e-40
-5.662385473251804542e-40
