# bin_12_9
-2.773304815779072793e-10
-3.053237039415734977e-10
-3.286341084206269766e-10
-3.437743016083116343e-10
-3.473175691147873186e-10
-3.352311051136665587e-10
-3.054955829897199234e-10
-2.632604299649821167e-10
-2.166675483558462685e-10
-1.784021080483185158e-10
-1.532832990101900226e-10
-1.294395679763762940e-10
-9.478144278221588873e-11
-6.799738789212257053e-11
-5.482819157764581489e-11
-3.689952061696298415e-11
-2.797262182470744166e-11
-1.962430627601814088e-11
-1.388328407858925756e-11
-9.963695212519445719e-12
-7.207307067396823028e-12
-5.290758463891540627e-12
-3.948804913132650497e-12
-3.004021085956101899e-12
-2.319306079048914092e-12
-1.807781677536317466e-12
-1.413534684771218619e-12
-1.100688750077416223e-12
-8.479753668361692611e-13
-6.427224757150092131e-13
-4.771780017690235324e-13
