# bin_2_9
-2.673895215647661563e-30
-2.876282577958715938e-30
-3.007544778854223255e-30
-3.037802709942510568e-30
-2.931890936933221976e-30
-2.671783121176092472e-30
-2.302628674496392554e-30
-1.894748811751369680e-30
-1.559063938277478159e-30
-1.338776188357513891e-30
-1.131465880221829066e-30
-8.303913504404269312e-31
-5.958226702429196141e-31
-4.821837625364996795e-31
-3.263930807470998030e-31
-2.492526404514528271e-31
-1.766706831590462238e-31
-1.267813744232371333e-31
-9.260502534861398234e-32
-6.840201102273275041e-32
-5.138052386315049931e-32
-3.925785971800833478e-32
-3.050166267060561822e-32
-2.395388682729926833e-32
-1.889039815373715666e-32
-1.485709282481956237e-32
-1.157192586727749793e-32
-8.872672095488712006e-33
-6.663240381238760332e-33
-4.881998015572695941e-33
-3.481963567648415227e-33
