# bin_4_7
-3.287835971382134528e-15
-3.521782605273670966e-15
-3.662776245897466360e-15
-3.677091101427683384e-15
-3.517762886755687712e-15
-3.177705032603611975e-15
-2.714208194231754703e-15
-2.226306574470779553e-15
-1.841750703601804661e-15
-1.588016156748432709e-15
-1.321171543440151655e-15
-9.496158484239073789e-16
-7.003310319359132696e-16
-5.550134798640599237e-16
-3.794967786675245350e-16
-2.853749198733224402e-16
-2.053961369088662425e-16
-1.478013963565192970e-16
-1.080994501626772657e-16
-8.019894238693270912e-17
-6.058952010132002716e-17
-4.656753691792642467e-17
-3.634829188863528289e-17
-2.863058638088305763e-17
-2.260526193206270206e-17
-1.776648497337399213e-17
-1.380467154659621356e-17
-1.054324309522259721e-17
-7.877078785388118622e-18
-5.736290995136357262e-18
-4.064911313992471484e-18
