# bin_9_19
1.603815242799802889e-07
1.765549392014819260e-07
1.900160162594405048e-07
1.987463142072190129e-07
2.007691118384547485e-07
1.937436767995618661e-07
1.765315549830127898e-07
1.521109709085048563e-07
1.252152532722552799e-07
1.031565078688455149e-07
8.866017150323433034e-08
7.481580897910109824e-08
5.474109540419567936e-08
3.933835593230613826e-08
3.168675381758350605e-08
2.134143369107762618e-08
1.616714416811110684e-08
1.135379844574316121e-08
8.034177594696607316e-09
5.767029650725998206e-09
4.173068323333065865e-09
3.064528069235667174e-09
2.288623941973483449e-09
1.741676659780672582e-09
1.345105664265271859e-09
1.048661058371599159e-09
8.200068514627029325e-10
6.384672833067423350e-10
4.917773504471359073e-10
3.726266719454672666e-10
2.765386004734388159e-10
