# bin_4_12
3.248764516291837214e-07
3.409048689460467762e-07
3.458500002222257012e-07
3.360988990984177393e-07
3.088729712527959936e-07
2.685019407542849027e-07
2.222724274791725805e-07
1.825576949586959914e-07
1.556170528027629951e-07
1.323865524044548664e-07
9.986118882048200174e-08
7.104751220699088916e-08
5.699081890995409372e-08
3.991549172511744847e-08
3.002532682625643067e-08
2.139176736229524078e-08
1.564097835905151959e-08
1.153395308278315953e-08
8.620208929285791108e-09
6.557862493005497129e-09
5.074278963922353873e-09
3.985324879491251116e-09
3.157301598676137484e-09
2.505286170920352002e-09
1.977081680028006267e-09
1.541209796860436227e-09
1.179796796923805685e-09
8.826292086287262204e-10
6.431576314175538597e-10
4.558527458483855001e-10
3.144938096415016092e-10
