# bin_2_2
4.456408413593273563e-08
4.417062358556888599e-08
4.160333220936287263e-08
3.705418008437101290e-08
3.126669598594325700e-08
2.562913307895011471e-08
2.142704358919430265e-08
1.842690416065175551e-08
1.483517002001498298e-08
1.058335885467172646e-08
8.113718550189916875e-09
6.161768476842918950e-09
4.417751919908052508e-09
3.265516010193010519e-09
2.411904051909596037e-09
1.790549131210935793e-09
1.353299513819802774e-09
1.042413140771981247e-09
8.173618252975024565e-10
6.498152087736815798e-10
5.206101314321725348e-10
4.171044537003411943e-10
3.317358224182492088e-10
2.601427548731477301e-10
1.999523543692309302e-10
1.499426555706251842e-10
1.094010558004655867e-10
7.760419782694695497e-11
5.359841299066132085e-11
3.614049720576949444e-11
2.387191184548373044e-11
