# bin_2_15
6.075484135783703731e-07
6.100097069548990328e-07
5.846754078480227384e-07
5.299951419797939904e-07
4.547721946313712714e-07
3.746577676818703046e-07
3.098797031044108405e-07
2.653852233628532498e-07
2.208604590464871578e-07
1.625054729237478245e-07
1.193423041387094290e-07
9.387073476654187643e-08
6.631728836245533423e-08
4.971394444396190314e-08
3.614694518776466376e-08
2.671257209751979485e-08
2.003239457680949558e-08
1.528203981955482124e-08
1.187431600942018838e-08
9.369821339432033789e-09
7.472938491092009660e-09
5.979635706783952341e-09
4.764906780585511077e-09
3.754881213729019099e-09
2.907737503354910727e-09
2.201332386011577847e-09
1.623364218240208865e-09
1.164181244535615293e-09
8.122968551910446288e-10
5.526490223917668165e-10
3.677923720515464609e-10
