# bin_9_5
5.972274230516335043e-15
6.488327306218192097e-15
6.869232351338734989e-15
7.037778019354581724e-15
6.933840100844157549e-15
6.467946029846296407e-15
5.703750363499420478e-15
4.761382407692602002e-15
3.894039186273714356e-15
3.287940567855560745e-15
2.839192102263356627e-15
2.220392892704248757e-15
1.542134285617097578e-15
1.231845708476656218e-15
8.829875972189750229e-16
6.497036826988745103e-16
4.533609617436898220e-16
3.310159858859578851e-16
2.390122854320259811e-16
1.740849727274188395e-16
1.288656481076244819e-16
9.699210352014298164e-17
7.433605350306919312e-17
5.780483800830905874e-17
4.533894905299828013e-17
3.563645986431937029e-17
2.786948113435826506e-17
2.154306279411401998e-17
1.636771424287197683e-17
1.216776774215110596e-17
8.820899914250518189e-18
