# bin_7_5
8.589714177187639544e-11
9.236237625795237702e-11
9.652969500346234548e-11
9.744732687146066779e-11
9.397698467918354992e-11
8.558384737467345630e-11
7.371435875188615338e-11
6.066489973469511655e-11
4.996583139443653886e-11
4.292257728004345055e-11
3.620681672907323800e-11
2.653078180615524804e-11
1.910539994233787579e-11
1.541155610718974563e-11
1.046081064657295327e-11
7.966762413372138416e-12
5.657956432188085838e-12
4.063613118630324042e-12
2.968884757557318050e-12
2.194391453477571836e-12
1.649519287216392984e-12
1.261430480663802266e-12
9.806144064405967898e-13
7.703950026615729426e-13
6.076410193910608411e-13
4.778548272478777407e-13
3.720718413655299105e-13
2.851336215527290787e-13
2.139830907013617153e-13
1.566527802745350538e-13
1.116328922056461014e-13
