# bin_7_1
1.062767792234002033e-24
1.119695096983684038e-24
1.141035698178364721e-24
1.116108554102756211e-24
1.032571775786106076e-24
9.035350316644367674e-25
7.501611760187065878e-25
6.142109576871887423e-25
5.215267997746382202e-25
4.478434805238058918e-25
3.432392834500752746e-25
2.403693696900921932e-25
1.942217044864480449e-25
1.364572559035031349e-25
1.028120478102862068e-25
7.248892452925657732e-26
5.312720630455425604e-26
3.911116784751687549e-26
2.914723262293175230e-26
2.209682609499785096e-26
1.703919162628481858e-26
1.334816124246777006e-26
1.055984953559561797e-26
8.377547675541985686e-27
6.618063283890873971e-27
5.170089418668528877e-27
3.969905962556896437e-27
2.981156929383166039e-27
2.181329642715526623e-27
1.552339732847689596e-27
1.074879311214370845e-27
