# bin_3_9
3.531824845047131060e-07
3.635061895796437537e-07
3.603342923166618408e-07
3.392686560568654924e-07
3.019862384648517656e-07
2.545940091946368318e-07
2.086159760628233872e-07
1.745678000445207872e-07
1.502694589792232657e-07
1.207007231155220767e-07
8.575385221152239829e-08
6.596474032161064640e-08
4.981070544790797558e-08
3.565441684217366128e-08
2.615163786368565630e-08
1.920899672407028822e-08
1.412600588072921508e-08
1.055571464441912777e-08
8.032656311328946049e-09
6.223630695212828441e-09
4.896196705896047754e-09
3.890737391800486716e-09
3.100210381126332990e-09
2.459188941348872979e-09
1.928611989277481305e-09
1.486124490946640772e-09
1.119496874831854600e-09
8.215367227556423064e-10
5.862855530926774295e-10
4.071537119523720856e-10
2.757598160471748696e-10
