# bin_8_10
5.912320227471467294e-08
6.462842929434432886e-08
6.894970713796832757e-08
7.131956552100881742e-08
7.112146956990065397e-08
6.739148995121010990e-08
6.031321309171612920e-08
5.103519743691492019e-08
4.177962333450136082e-08
3.483681014977237419e-08
3.013239187816040584e-08
2.452958386630118462e-08
1.726095090329223252e-08
1.315676607444108341e-08
1.005188452271118424e-08
6.998211804282345180e-09
5.083391348135029260e-09
3.682573179940143693e-09
2.627128345139728357e-09
1.893084314188436694e-09
1.385137515647642953e-09
1.031145023573022627e-09
7.815050485131125502e-10
6.023140886223693422e-10
4.695929614960279797e-10
3.681263769625798696e-10
2.881526556805971472e-10
2.236459518605372071e-10
1.710818776191056138e-10
1.283506222345149434e-10
9.407245927699490436e-11
