# bin_19_8
4.512178962515738232e-35
5.070993645373100618e-35
5.597895328213052944e-35
6.043300959042539599e-35
6.343677699323913184e-35
6.432845130925642541e-35
6.240809953223829095e-35
5.715789077678454793e-35
4.950633724114562592e-35
4.083624021678596776e-35
3.355786238904281208e-35
2.878603567843331462e-35
2.450049047182010761e-35
1.811523231325915131e-35
1.279105663933256436e-35
1.041398374905371276e-35
6.910464137864919584e-36
5.253833410199327308e-36
3.608517867762987468e-36
2.499981443318299679e-36
1.756174428296835402e-36
1.234120358729118903e-36
8.745522210203866980e-37
6.279658622155245871e-37
4.599752514538643986e-37
3.434258407312445156e-37
2.608466573015784344e-37
2.007293605395552480e-37
1.554443654578097159e-37
1.202547877498311226e-37
9.228063675725979391e-38
