# bin_2_5
3.092268812842513782e-07
3.099051435773385144e-07
2.962813938229484926e-07
2.678691657749055682e-07
2.292696524250451522e-07
1.886929419929073256e-07
1.562817789455909860e-07
1.339738866145471417e-07
1.110259449486497294e-07
8.125895713774050369e-08
6.001351295330855703e-08
4.704358065195161726e-08
3.323753589539585865e-08
2.490167745524942464e-08
1.814110421216673187e-08
1.341061707538927456e-08
1.006887093502256499e-08
7.692349226392951860e-09
5.985304204282671058e-09
4.728389990506781097e-09
3.773965704337651816e-09
3.020622223230659578e-09
2.406494608771138922e-09
1.895141310357175323e-09
1.466035473426715338e-09
1.108361934606793619e-09
8.160848212623867038e-10
5.843020560189074219e-10
4.070694601393819443e-10
2.765764141137515005e-10
1.838543040698879667e-10
