# bin_9_16
1.298379953189368719e-07
1.429177405221391331e-07
1.537961537097526056e-07
1.608384216691473124e-07
1.624481056813575481e-07
1.567247794995728205e-07
1.427644651782859959e-07
1.229826485780599680e-07
1.012253748495708184e-07
8.340360696783297163e-08
7.169408369519929039e-08
6.047526335549952118e-08
4.421803638024254389e-08
3.179872975639399176e-08
2.560379125711979761e-08
1.724404482502819882e-08
1.306055892216627847e-08
9.176245420132852544e-09
6.493226064807165660e-09
4.661097070900755371e-09
3.373198460118981721e-09
2.477604948704675415e-09
1.850701644554068189e-09
1.408685894346943633e-09
1.088102238909688320e-09
8.483826266551093375e-10
6.634213068784620230e-10
5.165335880786173672e-10
3.978251758137468094e-10
3.013987895093846517e-10
2.236404193076544281e-10
