# bin_18_6
9.819340987162404136e-43
1.099425025406910581e-42
1.208142612410310647e-42
1.296934691731951084e-42
1.351717008532581165e-42
1.359744278788124189e-42
1.303515139200348610e-42
1.179343302013130687e-42
1.008727751501177379e-42
8.277424380032905300e-43
6.847970988764421603e-43
5.915965249019213967e-43
4.934755186717080521e-43
3.530114775749801118e-43
2.590345129353068127e-43
2.053787813410958244e-43
1.373859705108533840e-43
1.024422535082008156e-43
7.203543419100262651e-44
5.010201721508828050e-44
3.517625199036811951e-44
2.483909094626591652e-44
1.778509361891704252e-44
1.293905424572965725e-44
9.603046042959326725e-45
7.256631781172789842e-45
5.565993216319478639e-45
4.309872249617740084e-45
3.344881627103350343e-45
2.583150848162409023e-45
1.972136941407677389e-45
