# bin_12_9
4.402203426193411922e-12
4.880428303950824899e-12
5.298357012113532923e-12
5.602461375852710450e-12
5.729824366842641679e-12
5.630142310454134556e-12
5.233369580046658100e-12
4.599351009057523459e-12
3.828657301291974552e-12
3.132917962824854969e-12
2.655254822913791504e-12
2.290388834553388821e-12
1.769737731745130799e-12
1.226604494708035509e-12
9.882643031432997875e-13
6.916548752556047398e-13
5.139503576826919164e-13
3.523482411887621619e-13
2.529950772259436007e-13
1.801166170571430805e-13
1.288665470660623748e-13
9.330518308124359655e-14
6.855850416571499246e-14
5.135889363799722608e-14
3.915439131385362552e-14
3.025000618464129090e-14
2.355636473406034200e-14
1.835740017592709974e-14
1.421598181127153411e-14
1.087043566480677008e-14
8.166515120031111997e-15
