# bin_2_19
6.515535439506384924e-07
6.542778523855786585e-07
6.272161433750178144e-07
5.686611061396017233e-07
4.880358717700186192e-07
4.020892733898034299e-07
3.325367959050985440e-07
2.847695915002387859e-07
2.370620500672973548e-07
1.744900760401650654e-07
1.280938427844491153e-07
1.007781669093625921e-07
7.119685430688015457e-08
5.337398025457180724e-08
3.880297121324089599e-08
2.867473188305549557e-08
2.150210520322423755e-08
1.640158837200368642e-08
1.274299889830675798e-08
1.005447471835487079e-08
8.018570634776182697e-09
6.416117112294097868e-09
5.112794027720076865e-09
4.029209767896585163e-09
3.120401672860438425e-09
2.362555479452758280e-09
1.742445284953418463e-09
1.249718712744050029e-09
8.720715943204978450e-10
5.933722537622547057e-10
3.949249183889353871e-10
