# bin_15_20
5.287075014225546826e-08
5.951594109817494289e-08
6.582907054824960827e-08
7.123925303080685111e-08
7.500772579922607757e-08
7.632224615626056443e-08
7.442379326871444820e-08
6.855421578440291292e-08
5.971796521167923565e-08
4.942054724044667445e-08
4.053656477531703758e-08
3.462766611912240262e-08
2.965679338092634910e-08
2.228957861686099922e-08
1.557810778254081483e-08
1.266978393837041639e-08
8.521074828045689055e-09
6.438487072395990415e-09
4.381678135592785105e-09
3.051500414483577440e-09
2.139645731361170730e-09
1.500295204570150550e-09
1.058427096468366375e-09
7.555591675581994849e-10
5.499223690085797921e-10
4.080867932216761710e-10
3.083230056001162492e-10
2.363694251157222620e-10
1.826934245058079718e-10
1.413380428017828790e-10
1.086519021044305509e-10
