# bin_3_5
1.746632493549749749e-07
1.794339660326298528e-07
1.774464129413326738e-07
1.665604860622649618e-07
1.478160694251154506e-07
1.242869475125598058e-07
1.018115720343941116e-07
8.538514679449565606e-08
7.348045465890635991e-08
5.860659432227495284e-08
4.151581024785826980e-08
3.218560876019500569e-08
2.407882299419382067e-08
1.735169971263606136e-08
1.266688723024203320e-08
9.325534696581896979e-09
6.869179506165935289e-09
5.140585154008131403e-09
3.918805616211278666e-09
3.041305178661787360e-09
2.396023247293506359e-09
1.905677816195922288e-09
1.518963438820333860e-09
1.204594367541822604e-09
9.439571875528039515e-10
7.264684465822884359e-10
5.463489298777128964e-10
4.001761885901466875e-10
2.850214481054936238e-10
1.975664603669562361e-10
1.335882963225070704e-10
