# bin_17_3
8.009889148736793422e-61
8.923577877896962447e-61
9.746098527397439883e-61
1.038281631040718520e-60
1.071600994746964734e-60
1.065677043484863102e-60
1.005530157753308765e-60
8.962027211391338824e-61
7.549850596934178641e-61
6.175477708839593050e-61
5.170149774510612428e-61
4.479102016917655147e-61
3.606737713191851025e-61
2.507757186129940928e-61
1.943136773405428187e-61
1.451344647221420369e-61
1.018099078224982366e-61
7.182326385549406816e-62
5.195837486161329344e-62
3.652058085740768263e-62
2.574736123559639890e-62
1.842055860778387774e-62
1.337211767633396491e-62
9.882886059959314927e-63
7.444546468864420266e-63
5.697402840617546714e-63
4.410668740770184440e-63
3.431187220393795776e-63
2.662807356233812433e-63
2.047452388015790539e-63
1.550906014970001351e-63
