# bin_18_1
2.480054983682682436e-86
2.767434173279658916e-86
3.028530868334089858e-86
3.234395830132518736e-86
3.348752442708310068e-86
3.342954603647606820e-86
3.170398016800102788e-86
2.839190045293041369e-86
2.402950631906895246e-86
1.966782725396864421e-86
1.639899220130443871e-86
1.420535768507654681e-86
1.158265713911976974e-86
8.109256458033378902e-87
6.175584724942303730e-87
4.710586444535614807e-87
3.244064688960722935e-87
2.331701661431141615e-87
1.675177225644907859e-87
1.173109551534791004e-87
8.248620196873472824e-88
5.874906645922779830e-88
4.246538801790424081e-88
3.123230003414547721e-88
2.342122157323614645e-88
1.785782554465665743e-88
1.378906044706819798e-88
1.071480325691759136e-88
8.317876040352051530e-89
6.405904038582261147e-89
4.865141661085402418e-89
