# bin_13_13
6.807933034759560990e-09
7.607501198785694738e-09
8.339614825817354325e-09
8.925695752105348150e-09
9.266949535156234805e-09
9.280823624592454035e-09
8.841558784951714246e-09
7.951677821548048866e-09
6.759451310590334922e-09
5.537725579553852921e-09
4.601632043534280489e-09
3.982653510720841805e-09
3.279757449804980454e-09
2.315865187157069636e-09
1.736115876551176778e-09
1.346976567499541842e-09
9.152954373970831462e-10
6.687374200003035682e-10
4.761808273721680445e-10
3.324730159533997198e-10
2.335663974206678271e-10
1.657249287487399010e-10
1.193190881879627304e-10
8.736461821675841380e-11
6.523919344624155988e-11
4.956343054733126906e-11
3.817013116968995093e-11
2.962074698840398932e-11
2.299453175364630258e-11
1.773062442170715308e-11
1.349591827969796292e-11
