# bin_5_3
7.127838961585702583e-11
7.467980391810679049e-11
7.562394378047308488e-11
7.329555583824895587e-11
6.712979636805238857e-11
5.816074845245922740e-11
4.801669210796632389e-11
3.944872618675615167e-11
3.372938713609568793e-11
2.865224619473884721e-11
2.138507051591577021e-11
1.523474279247246878e-11
1.231845865044486123e-11
8.496893915934258007e-12
6.469570990971740475e-12
4.601714653021973552e-12
3.354423768966052178e-12
2.480122583947602599e-12
1.858380206069903153e-12
1.416849949795200034e-12
1.098526081793804332e-12
8.642999201109215446e-13
6.855238935769432713e-13
5.442411275069219588e-13
4.294400232816299700e-13
3.345074123876967277e-13
2.557228754558597591e-13
1.909567998649114921e-13
1.388320625148797133e-13
9.815901157039500596e-14
6.755562144280892302e-14
