# bin_10_2
1.115680063641681170e-32
1.206671002052892291e-32
1.270400301135259579e-32
1.293118789137577968e-32
1.262360209249092017e-32
1.164773029979713259e-32
1.016491834596202567e-32
8.421756698905468371e-33
6.899854910465504922e-33
5.876492747133989971e-33
5.039779884991424836e-33
3.823886776039569162e-33
2.676434661191635025e-33
2.174796538651312150e-33
1.498866478151123144e-33
1.137194275180326463e-33
7.928808179092454712e-34
5.724637253942913016e-34
4.166786125289896484e-34
3.061709024983759511e-34
2.282736586363203165e-34
1.730626849908315541e-34
1.335528056952140789e-34
1.043892269264444554e-34
8.212857696125050711e-35
6.460157950957187036e-35
5.044359991276861889e-35
3.885482624369756966e-35
2.936497249021247990e-35
2.168300698680416800e-35
1.559774837510398080e-35
