# bin_13_9
7.547285310475688167e-14
8.388318007940228326e-14
9.134914422651601907e-14
9.696537442461657702e-14
9.962842746088654368e-14
9.851110884376068026e-14
9.227400595977790635e-14
8.168141146738756906e-14
6.838877958798115961e-14
5.592508189116947212e-14
4.710110861932332314e-14
4.075970494351312652e-14
3.218052227419317173e-14
2.227050943972063198e-14
1.764095376519074553e-14
1.275899039649009219e-14
9.218036224474255847e-15
6.370506430604097951e-15
4.612864319509534991e-15
3.261695839177222502e-15
2.314840613920913864e-15
1.666270160690751583e-15
1.216814737315892172e-15
9.054034911765241567e-16
6.861758894341566694e-16
5.277102200652193809e-16
4.098254333459461634e-16
3.191724264737472066e-16
2.474887178213301525e-16
1.898077788281637675e-16
1.432099448115063942e-16
