# bin_6_4
7.816153572552013357e-11
8.309692884028776745e-11
8.560845153574897868e-11
8.497091999603088328e-11
8.004195832989829964e-11
7.124758093712055287e-11
5.998724197857232760e-11
4.907266813230801115e-11
4.107438508222078169e-11
3.550198452309440320e-11
2.853907427695542137e-11
2.001323414980595012e-11
1.551716300790392624e-11
1.166160422236497852e-11
8.305951349125101947e-12
6.003313905258440896e-12
4.411155264740115008e-12
3.204986553904745346e-12
2.357967988734102530e-12
1.767063125730037713e-12
1.348431268050727305e-12
1.046473842897860263e-12
8.226356288719423939e-13
6.506834236930970093e-13
5.142732040797595098e-13
4.033081274334645426e-13
3.117969781446990222e-13
2.363382957557876817e-13
1.748872710487033310e-13
1.259732816830009478e-13
8.826989979691358297e-14
