# bin_16_5
1.452175887851727380e-40
1.616591126889131235e-40
1.763945203759587370e-40
1.876990320092577966e-40
1.934379961801614407e-40
1.920171482596149534e-40
1.807493862208441331e-40
1.607390585916397243e-40
1.351299268223651540e-40
1.105105088684383262e-40
9.269906448070587069e-41
8.029534376314198373e-41
6.425591195388108185e-41
4.457391198421444059e-41
3.480640053959866089e-41
2.573075380526209115e-41
1.822050260004832153e-41
1.275179807172275582e-41
9.240551259526027832e-42
6.506964904008338466e-42
4.595789710184013216e-42
3.294778849659435765e-42
2.396482473967216389e-42
1.775118570458048789e-42
1.339867572030627600e-42
1.027112523714992704e-42
7.960206935920854739e-43
6.195143756468199425e-43
4.806744297687841990e-43
3.692989394309990746e-43
2.793845771568076008e-43
