# bin_7_7
1.406191097232153933e-08
1.521573489088005773e-08
1.602858078156325208e-08
1.632678587166631195e-08
1.595408762672271481e-08
1.473977643652863152e-08
1.287907414068667293e-08
1.068217691461709481e-08
8.751726787965331219e-09
7.444842704537839367e-09
6.386520735590019714e-09
4.865149332695239823e-09
3.406107749657844643e-09
2.756485596961884005e-09
1.913918283467957751e-09
1.442849459361557922e-09
1.007281639683288596e-09
7.289162105414335237e-10
5.297150287085970401e-10
3.886062703958244263e-10
2.894548974102855088e-10
2.192417001877197312e-10
1.690313050560785874e-10
1.320250268301507272e-10
1.038228255941026926e-10
8.165146242392123744e-11
6.376399237873857502e-11
4.913313806766520099e-11
3.715527664116988217e-11
2.745758033345129422e-11
1.977097770307466156e-11
