# bin_12_20
9.920918089472629174e-08
1.106851232573652280e-07
1.211013741539186453e-07
1.292987555394316188e-07
1.338286139110841486e-07
1.335394883937708327e-07
1.265894742005566712e-07
1.133220284397228439e-07
9.588908066108304160e-08
7.849583912159686217e-08
6.547664077881299540e-08
5.669573465398128899e-08
4.615803201539080611e-08
3.234528610388726878e-08
2.465385402377283668e-08
1.876324584905461903e-08
1.295658606385145142e-08
9.303360279802427935e-09
6.675401444292681220e-09
4.676650342762517556e-09
3.291553738903209364e-09
2.345295254506874845e-09
1.695691541890413548e-09
1.247541082163854922e-09
9.357864329339698775e-10
7.136364413605866772e-10
5.510777337056846102e-10
4.281913857501248238e-10
3.323494248278752617e-10
2.558914683877713906e-10
1.942854318774574396e-10
