# bin_14_6
8.451751939272532324e-27
9.370667929452605494e-27
1.017413456138756717e-26
1.075941610721912293e-26
1.100540950846282384e-26
1.081611359838118356e-26
1.005593215625835867e-26
8.839478340678483018e-27
7.358785347352821416e-27
6.020941411035074109e-27
5.102268390924162799e-27
4.402579058618454050e-27
3.403400178474731036e-27
2.357480951569250159e-27
1.900030687088346318e-27
1.329992015368802092e-27
9.885539977900258852e-28
6.769383496195334112e-28
4.862637357524321062e-28
3.461700791337992285e-28
2.476737496989929321e-28
1.793052760838291414e-28
1.317262333127580857e-28
9.866404260192916831e-29
7.520880165283620534e-29
5.810012614987284061e-29
4.524258313996964683e-29
3.525828609423237277e-29
2.730598368245921466e-29
2.088210517785361359e-29
1.568999404945508902e-29
