# bin_19_12
3.279496847367888298e-19
3.699135455376697889e-19
4.101367683804641057e-19
4.451577005421400855e-19
4.704362441953702523e-19
4.806830352925542286e-19
4.716000559279975129e-19
4.374439158458863116e-19
3.836685886294231193e-19
3.188437827451347998e-19
2.610446286776803007e-19
2.218271829830509844e-19
1.912138959886264944e-19
1.465349481222145651e-19
1.014374054887736925e-19
8.211328663729914441e-20
5.638004370436178842e-20
4.209306269815198630e-20
2.838672045439574761e-20
1.995544052094127162e-20
1.393964234385628739e-20
9.734106247215584335e-21
6.830516549479908554e-21
4.842300560692121466e-21
3.496977400055622460e-21
2.575323354949495569e-21
1.932590326497263682e-21
1.474190266526187752e-21
1.136337891498856524e-21
8.788789889642344098e-22
6.769711982149544150e-22
