# bin_13_11
1.505374694381460519e-10
1.678284719374354969e-10
1.834578362470556332e-10
1.956564079761201685e-10
2.022166505070365049e-10
2.014370765032339339e-10
1.904974823186247199e-10
1.701450979225526069e-10
1.436323179177327325e-10
1.175196091728010274e-10
9.820907184834459989e-11
8.507716971214564450e-11
6.889085221003737295e-11
4.805053555735305283e-11
3.694273018600428797e-11
2.785429374505447916e-11
1.937821491141507840e-11
1.378736443614434556e-11
9.942141210679386555e-12
6.976677297931434719e-12
4.912951891818292209e-12
3.507869738374908617e-12
2.541677759379613864e-12
1.874454311857668426e-12
1.409212221508092872e-12
1.076734966716684878e-12
8.326250590073327912e-13
6.474098673295012628e-13
5.025013574903909578e-13
3.866513057348048334e-13
2.932219750579540041e-13
