# bin_6_10
1.448016126487476403e-07
1.558174581726234009e-07
1.630031589633689103e-07
1.647318059165115954e-07
1.591334486188577926e-07
1.452155203664306359e-07
1.253338080798366082e-07
1.032905895862174337e-07
8.503501460711045923e-08
7.292038760917053947e-08
6.161099684438683649e-08
4.544251312783603777e-08
3.262825810894749089e-08
2.625639564534318976e-08
1.795076920557741975e-08
1.360627963413575798e-08
9.641244599211258792e-09
6.940317859531798255e-09
5.065505504761775240e-09
3.740175336623742933e-09
2.807759019474655120e-09
2.144145487164481784e-09
1.664719996257039178e-09
1.306642703244228192e-09
1.030057331842968491e-09
8.099641466120815640e-10
6.308607802070411272e-10
4.837850139919987027e-10
3.634343734498382038e-10
2.664151083410124350e-10
1.901422925148731249e-10
