# bin_16_9
5.848707045242455945e-21
6.542967800183597335e-21
7.182510770663136153e-21
7.700442943583944081e-21
8.012445768592947920e-21
8.044829709434795245e-21
7.691301646438470666e-21
6.940364984407146315e-21
5.920076076544748306e-21
4.853897273932437741e-21
4.022965480254869699e-21
3.479049424811574845e-21
2.886675092277926256e-21
2.052193020660418850e-21
1.520005886895098085e-21
1.194469808288583658e-21
8.037694750271142957e-22
5.944445671872782432e-22
4.203632856652534313e-22
2.928388424092019345e-22
2.056068705412212532e-22
1.454679844872850857e-22
1.044096446884978878e-22
7.617664705980514931e-23
5.669207021836075973e-23
4.294393413915846958e-23
3.300043684691783410e-23
2.557996090951568764e-23
1.985650662408072389e-23
1.532526131461024164e-23
1.168535574082559406e-23
