# bin_14_11
7.513212039163618556e-12
8.394125952231390771e-12
9.199937027495776346e-12
9.843798612581703601e-12
1.021654255555102074e-11
1.022772865240958410e-11
9.737924747413445894e-12
8.752817807940654586e-12
7.435926264142406754e-12
6.090816308723104615e-12
5.063301133280938925e-12
4.383232437065773686e-12
3.605416711360869626e-12
2.542119561339958179e-12
1.909809206560344659e-12
1.478732246201463628e-12
1.006189489226532011e-12
7.336798773662961393e-13
5.231701024615739263e-13
3.654141134693883848e-13
2.566994013582894981e-13
1.822218055761212517e-13
1.312681050238087932e-13
9.617378946305143199e-14
7.186052024462701984e-14
5.462244923360089847e-14
4.208311756893015415e-14
3.266471669537469651e-14
2.535868010653882041e-14
1.955106518824453686e-14
1.487753204049000077e-14
