# bin_16_1
5.713109794362091455e-75
6.336115693309849261e-75
6.881859480672910686e-75
7.280997600496812045e-75
7.451404010224161616e-75
7.328603546631102838e-75
6.819587531833706238e-75
5.999661742364539675e-75
4.997902804789211563e-75
4.088839178961787362e-75
3.462429115925669167e-75
2.988954512746359715e-75
2.316451293465727319e-75
1.603929558969472456e-75
1.290454783632354871e-75
9.067246281286922779e-76
6.718484291143037468e-76
4.602449619993550320e-76
3.310347384145716904e-76
2.354671665802867840e-76
1.683074753446025989e-76
1.217658571905609548e-76
8.939026825618330060e-77
6.690173507664324621e-77
5.096269502143487798e-77
3.934921642711333592e-77
3.063207176344621865e-77
2.387064879272997210e-77
1.848975190777808408e-77
1.414490973404377595e-77
1.063329544339802208e-77
