# bin_4_11
3.043070684960939705e-07
3.192946652117988717e-07
3.238958138735308781e-07
3.147215057882990558e-07
2.891841920509041512e-07
2.513497054953781394e-07
2.080553673927470758e-07
1.708888853815891059e-07
1.456848405559625414e-07
1.239180071419854964e-07
9.343709093683675715e-08
6.649162840900418995e-08
5.333827422556010819e-08
3.734693839452963993e-08
2.809815478307069089e-08
2.001991646106007375e-08
1.463727981221220720e-08
1.079459163834630208e-08
8.068339983492370804e-09
6.138570185149669364e-09
4.750238090022176194e-09
3.731073413019337978e-09
2.955994986705842901e-09
2.345580283944259466e-09
1.851018174168091142e-09
1.442877482075087234e-09
1.104451389085665606e-09
8.261927735807401243e-10
6.019755380071755022e-10
4.266219701309859717e-10
2.943000478452231687e-10
