# bin_9_12
7.034968208114582501e-08
7.740406297723658481e-08
8.325239362513014706e-08
8.700703894600323981e-08
8.781221067092340215e-08
8.462506266635333361e-08
7.699825299625078427e-08
6.625121172888136688e-08
5.450182937191288624e-08
4.493212845292066921e-08
3.865025378810550361e-08
3.254509810558414189e-08
2.372307145833658812e-08
1.711432574496844962e-08
1.375641332532954285e-08
9.263882417827672845e-09
7.010083056847306391e-09
4.935173968857084271e-09
3.492025606664982794e-09
2.507149112647979611e-09
1.815345186729724718e-09
1.334492086061532143e-09
9.977867521461901228e-10
7.601387345024851620e-10
5.875506013587729768e-10
4.583107987419181441e-10
3.584476804740786047e-10
2.790495941270509549e-10
2.148394399378306218e-10
1.626720904731741907e-10
1.206136143113524270e-10
