# bin_16_17
1.294725703341250593e-08
1.459918499068956768e-08
1.618037570824923959e-08
1.755364361968022333e-08
1.853948669633986748e-08
1.893078621660877150e-08
1.855503719314645625e-08
1.719230690001816447e-08
1.506265676259274905e-08
1.250980078832489842e-08
1.024510448500816896e-08
8.712974641450993435e-09
7.502602813969803572e-09
5.732564078481313229e-09
3.974462014638135288e-09
3.219314232121813134e-09
2.203643106890444496e-09
1.647793104168061890e-09
1.113354033093789752e-09
7.814722004873437659e-10
5.461873695855642345e-10
3.816024160132962608e-10
2.679933952295355358e-10
1.901923986892648336e-10
1.375187758087791827e-10
1.013953892006380609e-10
7.617055923856398094e-11
5.814853211251125865e-11
4.484064184075902024e-11
3.468185312685157219e-11
2.670525391917972797e-11
