# bin_14_12
1.634302015498222012e-10
1.828248954129498457e-10
2.006885214815028683e-10
2.151514666052684312e-10
2.238570975410350194e-10
2.247479392062414643e-10
2.148563560101583063e-10
1.938703982105370682e-10
1.653638081094627613e-10
1.355873312932989981e-10
1.123853801499390176e-10
9.718285879750039254e-11
8.061801635151458279e-11
5.731993275236561101e-11
4.246202245690474542e-11
3.335524329148137643e-11
2.245595291261893338e-11
1.660027359336445968e-11
1.173958499696348379e-11
8.178688128398132968e-12
5.742876073238498305e-12
4.063561210088798804e-12
2.916750663822059635e-12
2.128122680015998549e-12
1.583837700523352821e-12
1.199772062087189644e-12
9.219717363637342959e-13
7.146459146973314371e-13
5.547281446157173527e-13
4.281211821216882939e-13
3.264221565774108690e-13
