# bin_1_7
5.982058847626814948e-07
5.767744205417524149e-07
5.266254458323718048e-07
4.553289691800692061e-07
3.770025669812927433e-07
3.111398159641289353e-07
2.649154745425271032e-07
2.220486190784026663e-07
1.670362129680431073e-07
1.215883286300910428e-07
9.532641871309435070e-08
6.861706157806034257e-08
5.110287592175906828e-08
3.737850702833690995e-08
2.783272495539609551e-08
2.098787691723215197e-08
1.611402595298925411e-08
1.260471487412715147e-08
1.000975060068884280e-08
8.026917980974017088e-09
6.451449905394469592e-09
5.157767724905017915e-09
4.073115157707856508e-09
3.157658053314768552e-09
2.391273257619515024e-09
1.763123131749983606e-09
1.264179621820399778e-09
8.821188145132452011e-10
6.004260767233205365e-10
3.999087809408986748e-10
2.615114778502352767e-10
