# bin_5_5
2.047461791707793982e-08
2.167485328328824021e-08
2.221489940238188487e-08
2.190026371718255029e-08
2.045652360846141857e-08
1.806500550619357777e-08
1.510841225813262000e-08
1.236130526677722907e-08
1.041552977347678727e-08
8.980777092949834987e-09
7.064987805324874425e-09
4.942159609527426693e-09
3.911192555009825585e-09
2.849477328004472127e-09
2.083443676636092452e-09
1.484379380457054434e-09
1.091607896860634374e-09
7.979014750025482953e-10
5.903880946135455170e-10
4.448348760411266452e-10
3.411082333862252908e-10
2.658978843816028449e-10
2.096594543838280226e-10
1.660810756969618760e-10
1.312453960201634490e-10
1.027494898327871552e-10
7.918977723511421833e-11
5.976806188457658414e-11
4.399907513688160129e-11
3.151627390395248464e-11
2.196223752697754258e-11
