# bin_7_8
4.037487649478719834e-08
4.376075983707045990e-08
4.619513220202870696e-08
4.716913210943738415e-08
4.625400097686340964e-08
4.290922710858076326e-08
3.763815534969230700e-08
3.130030245114942072e-08
2.561617830253633906e-08
2.171292341847269936e-08
1.868015850743234196e-08
1.440142281071995649e-08
1.004449945771268501e-08
8.076818991796188455e-09
5.691802602117977484e-09
4.240713376961846355e-09
2.961670787206901591e-09
2.151210702690867620e-09
1.558457781614583194e-09
1.139367936033492247e-09
8.461484326974966254e-10
6.389864264574985267e-10
4.912643728218968239e-10
3.829033279519457170e-10
3.007290082016669961e-10
2.364283497426412303e-10
1.847414574612578373e-10
1.425497641360501509e-10
1.080245810533693638e-10
8.004520228660451798e-11
5.781615330646911427e-11
