# bin_9_8
1.787330154787604046e-09
1.958117150405001874e-09
2.094855333856146053e-09
2.174515540364140248e-09
2.177637401700579050e-09
2.075232512609079328e-09
1.866984709107655123e-09
1.587834557917800832e-09
1.300560248611991327e-09
1.079309148704018504e-09
9.330635563443462336e-10
7.698345775828158642e-10
5.461009976514369733e-10
4.083009082412981575e-10
3.188819382110583474e-10
2.179290729423753078e-10
1.611899987026676741e-10
1.158468698111719419e-10
8.230642831223261280e-11
5.916062214416513706e-11
4.309466863833728510e-11
3.194419774885300730e-11
2.410354318714703776e-11
1.850916584757510470e-11
1.439330703524107768e-11
1.126835755436369647e-11
8.820871015235188952e-12
6.855146153630967183e-12
5.256547861924970767e-12
3.956647121712102533e-12
2.911669197187632966e-12
