# bin_13_2
2.686937919648501651e-48
2.949077700788048576e-48
3.162198726600780640e-48
3.292002249829376794e-48
3.307809164230193445e-48
3.167147927608892030e-48
2.862206818335917787e-48
2.445485374042152423e-48
2.005427328258086450e-48
1.658759560485228973e-48
1.432075714978610738e-48
1.193011407235045280e-48
8.542812266006033664e-49
6.286383118870272298e-49
4.987627076171867476e-49
3.369557956933049077e-49
2.526959667538968208e-49
1.800795770659803097e-49
1.275819222163463998e-49
9.162884840885127917e-50
6.653121027304214882e-50
4.914461081445053980e-50
3.694544438397546248e-50
2.828197948857373029e-50
2.194246114186423320e-50
1.715637917710282177e-50
1.342799801356768912e-50
1.044497502319735650e-50
8.023817219471120025e-51
6.055150387488673491e-51
4.470231685717649688e-51
