# bin_15_20
5.302266707737872368e-08
5.968155535071485713e-08
6.600512812851653934e-08
7.142064881382161428e-08
7.518723005744162938e-08
7.648957655517792750e-08
7.457155094910864600e-08
6.867044558314196837e-08
5.979895884683026633e-08
4.946829303746231585e-08
4.056348115289913670e-08
3.464634274552383181e-08
2.967230644661993672e-08
2.229474542284785715e-08
1.557543700568049660e-08
1.266879812327223782e-08
8.517439467358315398e-09
6.435877626959617318e-09
4.378730689316144360e-09
3.049526588020119033e-09
2.137942711951707465e-09
1.498968828138280936e-09
1.057422532734865026e-09
7.548023924343673303e-10
5.493527052279685203e-10
4.076553510681007740e-10
3.079920224836232734e-10
2.361128032429001089e-10
1.824927171645417781e-10
1.411806352428178951e-10
1.085289543183129059e-10
