# bin_8_10
5.928927990439181018e-08
6.480179365876891992e-08
6.912426951797660901e-08
7.148716056429513108e-08
7.127304863844921236e-08
6.751745719841356205e-08
6.040405124476261337e-08
5.109293932454021389e-08
4.181140985256378553e-08
3.485622818191331989e-08
3.014850690692164635e-08
2.453804519969764458e-08
1.725929318783365886e-08
1.315500183437827799e-08
1.004912177208574663e-08
6.995108099704443885e-09
5.080434887573019481e-09
3.680114847741753829e-09
2.625190258343716024e-09
1.891597065288528061e-09
1.383998438782587480e-09
1.030268792630432267e-09
7.808211932586726724e-10
6.017744991493944272e-10
4.691598726896697866e-10
3.677743849229344305e-10
2.878654534513981882e-10
2.234126228555084293e-10
1.708950267148794032e-10
1.282043786512338819e-10
9.396135818485958977e-11
