# bin_3_10
3.818769280400381910e-07
3.930116229939150820e-07
3.895550499338759950e-07
3.667526800685174538e-07
3.263948120816677256e-07
2.751146379283526288e-07
2.253560728582213984e-07
1.885148507483450884e-07
1.622725779258677470e-07
1.303729954407732419e-07
9.260648745945585189e-08
7.119942816492205816e-08
5.378711970339127235e-08
3.848015452423428338e-08
2.822979349706879022e-08
2.073160405521950666e-08
1.524369724178272260e-08
1.138963736858154287e-08
8.666167484105765989e-09
6.713649950479340264e-09
5.281083491631817826e-09
4.196202609466511405e-09
3.343389404578159919e-09
2.651987276089054848e-09
2.079801581398301471e-09
1.602667075431782186e-09
1.207354967903491076e-09
8.860796047500966425e-10
6.324022911317888122e-10
4.392186871277942165e-10
2.975005290686215031e-10
