# bin_18_15
1.735378154730574398e-11
1.959908712313526449e-11
2.176317559169259487e-11
2.366564209650329644e-11
2.506778650376542526e-11
2.568395096617776898e-11
2.529621763507492341e-11
2.357359122683731054e-11
2.076456258990503127e-11
1.731068309759112372e-11
1.415829460736598891e-11
1.198024650535581874e-11
1.035453388513774719e-11
8.046258018380561221e-12
5.552589595490368056e-12
4.455021963643241211e-12
3.125082946001422586e-12
2.293783809968449002e-12
1.547475446297051251e-12
1.098066338242399337e-12
7.633533440866383617e-13
5.299886131244187255e-13
3.704270822860618917e-13
2.613517855467140223e-13
1.876509911268192660e-13
1.373932310050500107e-13
1.025509844022372996e-13
7.789560517554746762e-14
5.988544008919132595e-14
4.627851479343646449e-14
3.567880428619984075e-14
