# bin_2_9
4.884633818685173062e-07
4.900943551090370012e-07
4.693062158401443917e-07
4.249765753775442381e-07
3.642809601659253553e-07
2.999164384812719422e-07
2.480914226837120414e-07
2.125106944262516402e-07
1.766375292738962912e-07
1.297384918560618167e-07
9.540245186032395735e-08
7.497126356482591274e-08
5.295351018627981155e-08
3.968805037625611862e-08
2.886859043115488800e-08
2.133426193678806705e-08
1.600294061236193833e-08
1.221195753181008753e-08
9.491677734465231028e-09
7.491493570710928368e-09
5.975643916005309430e-09
4.781557646097327805e-09
3.809760402481492628e-09
3.001512929186677901e-09
2.323589572172100792e-09
1.758405482991003056e-09
1.296167819889153341e-09
9.291253697844326259e-10
6.480213700870622113e-10
4.407233934080521689e-10
2.932160415246970823e-10
