# bin_1_6
5.528731934986807899e-07
5.327218336608641055e-07
4.860358178653578664e-07
4.199074001449778394e-07
3.474709094073761442e-07
2.867384885557573284e-07
2.441662782821308392e-07
2.045286038864780081e-07
1.536701254371122548e-07
1.118966836275384418e-07
8.772081922532271542e-08
6.310334059065934951e-08
4.700827002090830669e-08
3.438221776264490375e-08
2.560315064397547510e-08
1.931018010056993906e-08
1.482886828902144154e-08
1.160151817005847773e-08
9.214226391404155822e-09
7.389367869929570860e-09
5.938853067846626609e-09
4.747450282676532489e-09
3.748434443730619696e-09
2.905290835093165044e-09
2.199574613653605218e-09
1.621323301003169656e-09
1.162183020160322103e-09
8.107393445655985661e-10
5.517172688665165487e-10
3.673987264217065965e-10
2.402170023372068329e-10
