# bin_18_12
5.422324859952424942e-17
6.106616512706315678e-17
6.758046490298151828e-17
7.318377934170823113e-17
7.712038172820396956e-17
7.854228579568070442e-17
7.670001075771551025e-17
7.075567187113934459e-17
6.172425417073116730e-17
5.110555743437069097e-17
4.187647003451671654e-17
3.572564092558798382e-17
3.066669920920629650e-17
2.315153478711516297e-17
1.611062368507247344e-17
1.311744792557728340e-17
8.837383654628448645e-18
6.678172139856962129e-18
4.527404861168004273e-18
3.154636833205314985e-18
2.211586546845594939e-18
1.550383836213452472e-18
1.092207741876060146e-18
7.782035944027879419e-19
5.652832441396938717e-19
4.186968354970728764e-19
3.158278539430468919e-19
2.418514472712662482e-19
1.868328276271169176e-19
1.445537253925238540e-19
1.111944877865640691e-19
