# bin_10_11
2.488224440974369715e-08
2.749121415624860414e-08
2.972043940094149884e-08
3.126244641602229223e-08
3.178161474725403673e-08
3.096107812540801240e-08
2.849423413219900169e-08
2.479997203507216488e-08
2.051136276416264548e-08
1.681790626479893565e-08
1.435743780938976360e-08
1.228421706347160727e-08
9.237381437168480121e-09
6.475330657577919479e-09
5.263750851601694643e-09
3.575018401305755296e-09
2.710687783347970422e-09
1.871921471030402363e-09
1.328811712517923777e-09
9.515687365037894379e-10
6.854097184048221080e-10
4.996193896256729065e-10
3.699407585629799543e-10
2.793010829435680771e-10
2.143318453091452833e-10
1.663780910386830898e-10
1.298739003709141866e-10
1.012026803581052081e-10
7.819008659514273905e-11
5.953859753543585213e-11
4.447333565270013150e-11
