# bin_14_2
9.467944486367701400e-54
1.043364475426127900e-53
1.124370906158482498e-53
1.177971452241040680e-53
1.192128697886542326e-53
1.153534380071568497e-53
1.053707201856341946e-53
9.102584467539238995e-54
7.497205682447331813e-54
6.163447556256475838e-54
5.289999531330803552e-54
4.487609909190742970e-54
3.304161443438944027e-54
2.350420471918075427e-54
1.909793332341712309e-54
1.278550567418879787e-54
9.756684901936045192e-55
6.814484018036646881e-55
4.812083234952348574e-55
3.454407594268873098e-55
2.496238069309414617e-55
1.829228450831677121e-55
1.362815464050802237e-55
1.034982248730453128e-55
7.980556115383074139e-56
6.215700246262279286e-56
4.859210905472719951e-56
3.785097465049190159e-56
2.918474646484051474e-56
2.214722731141537744e-56
1.646773529527738961e-56
