# bin_6_14
2.226006246108282098e-07
2.395955768398821304e-07
2.507272161751581368e-07
2.534751480090766917e-07
2.450057390687819836e-07
2.237012154657643974e-07
1.931751438199372866e-07
1.592072141152631445e-07
1.309831740689432391e-07
1.122525292983524712e-07
9.494819964137893759e-08
7.016778543931175643e-08
5.026605262871079897e-08
4.048127672807372004e-08
2.768682274982919774e-08
2.098497116990576284e-08
1.485061867852045478e-08
1.069226016855369102e-08
7.801016846906031257e-09
5.756893663848857048e-09
4.319037579733811192e-09
3.296110991961406295e-09
2.557715544309656609e-09
2.006770194611602957e-09
1.581637316662576847e-09
1.243645255402939734e-09
9.687823834889484507e-10
7.431485695073106533e-10
5.585214512780648714e-10
4.096505331346023377e-10
2.925516114448678339e-10
