# bin_2_14
5.947308635450571646e-07
5.969719485824927558e-07
5.719853508610114215e-07
5.182697449674365821e-07
4.445079316155689259e-07
3.660512784642699312e-07
3.027026221551525199e-07
2.592307404677054514e-07
2.156806406782792368e-07
1.586074546522725618e-07
1.164800857458555884e-07
9.160698568097579691e-08
6.470226526437612306e-08
4.850018185507326091e-08
3.526274792755944138e-08
2.605770351064575220e-08
1.954073090334512964e-08
1.490673028564686207e-08
1.158251634042918852e-08
9.139300088305553452e-09
7.288782403337491038e-09
5.831945162453223574e-09
4.646894042845764013e-09
3.661599386164819093e-09
2.835271579795777667e-09
2.146298977092010913e-09
1.582658738230918092e-09
1.134908753684349899e-09
7.918215824358923955e-10
5.386891150635762903e-10
3.584862484530744545e-10
