# bin_17_5
4.947952029128941041e-45
5.521572185146469467e-45
6.042902560690283216e-45
6.454236311823612261e-45
6.683265856091685844e-45
6.672653556804223385e-45
6.329658300158991103e-45
5.668897377187825610e-45
4.798225756594997379e-45
3.926066588440439545e-45
3.271599462738825140e-45
2.833855783655292506e-45
2.312883028358196794e-45
1.619699816079160236e-45
1.231404798301735199e-45
9.409667794708832623e-46
6.468236834237277732e-46
4.656787053592426764e-46
3.342719283519612525e-46
2.339868748146367862e-46
1.644809576398580454e-46
1.170928916088071336e-46
8.460009272807020433e-47
6.219093055609004511e-47
4.661659580412320412e-47
3.553028770629952920e-47
2.742771496148713749e-47
2.130994185037577014e-47
1.654284457223844101e-47
1.274174657615960283e-47
9.679111432145467419e-48
