# bin_5_10
2.047890970878298814e-07
2.179113053691077816e-07
2.247657034993692240e-07
2.233904955082480773e-07
2.108740900558366982e-07
1.880799285189721411e-07
1.587110901728625697e-07
1.299011043235686767e-07
1.085182765524967229e-07
9.368325389616354200e-08
7.567089395916682039e-08
5.339705070488647310e-08
4.099710452454069680e-08
3.106998771235660002e-08
2.199196388400751112e-08
1.602716990845138844e-08
1.170697881997993565e-08
8.493055500439770413e-09
6.245484214698413345e-09
4.672279134990014579e-09
3.559019477756709070e-09
2.757253838826714519e-09
2.164591719412090559e-09
1.710649264077602023e-09
1.351531166872365817e-09
1.060072573693578066e-09
8.200600164341112801e-10
6.222668474611755861e-10
4.611469179760589081e-10
3.327632584353131063e-10
2.336195174976435041e-10
