# bin_6_12
1.889963333240421128e-07
2.033987134081845667e-07
2.128130043215328357e-07
2.151043601788707009e-07
2.078592132800832631e-07
1.897284301462536996e-07
1.637894515821358668e-07
1.349688963511871547e-07
1.110562610664074153e-07
9.519269151350743927e-08
8.048598467264386357e-08
5.943384427071354106e-08
4.260547949550448744e-08
3.430356014819732056e-08
2.345580771749145698e-08
1.777840630388721709e-08
1.258624240801041922e-08
9.061180406813126525e-09
6.611624467704753115e-09
4.879926065211601763e-09
3.661805457728393535e-09
2.795092308071669385e-09
2.169296207794814466e-09
1.702212998815225882e-09
1.341674350450417960e-09
1.054953794075483609e-09
8.217395240231963228e-10
6.302780321184922996e-10
4.736155087749227860e-10
3.473072129487541198e-10
2.479755975937024392e-10
