# bin_16_19
3.179730001070055378e-08
3.587119754978323567e-08
3.977877340609056951e-08
4.318513975655153180e-08
4.565060224939494324e-08
4.666141454105641307e-08
4.580368745722852444e-08
4.251467520664183305e-08
3.730791893429866814e-08
3.101719101956923089e-08
2.538558732834881857e-08
2.155005143429146803e-08
1.857964188187923054e-08
1.427621236261588138e-08
9.879651259816496731e-09
7.976411593801985567e-09
5.505125873417344913e-09
4.089957594988567068e-09
2.761907031808585983e-09
1.945639394278697893e-09
1.357241555959039984e-09
9.461597648597722641e-10
6.633380764517182220e-10
4.697955422957716056e-10
3.388596847337564611e-10
2.492453468726195893e-10
1.868257101916034460e-10
1.423775216970338122e-10
1.096774427189531279e-10
8.480304094866911148e-11
6.532437063808697212e-11
