# bin_10_10
9.244536127926254828e-09
1.020270984336012007e-08
1.101519713672735653e-08
1.156717014960460511e-08
1.173681068836041604e-08
1.140151917667396570e-08
1.045986547206593783e-08
9.075181917007440825e-09
7.492074834598937644e-09
6.149183243325885637e-09
5.261736664189245127e-09
4.486974869764215317e-09
3.344186778999821113e-09
2.357085144408873530e-09
1.917601154464931553e-09
1.292839845343051328e-09
9.841994899220220722e-10
6.825361454077952795e-10
4.831411507363121370e-10
3.464571947294765013e-10
2.499709088269078478e-10
1.826238923691658053e-10
1.355764427506287560e-10
1.026186036440796263e-10
7.891281439945559700e-11
6.134733562286319467e-11
4.792050064511630385e-11
3.733743049180856959e-11
2.882347026253208548e-11
2.191670860288434671e-11
1.633965542795015183e-11
