# bin_13_9
7.568833433136893775e-14
8.411371787115559486e-14
9.158866432369807103e-14
9.720499819756676914e-14
9.985597179094785529e-14
9.871537776302879075e-14
9.244045099194072814e-14
8.179953041829316543e-14
6.846180907726097577e-14
5.596567509044912176e-14
4.712716251319425393e-14
4.078153667579632928e-14
3.219089053088900389e-14
2.226725000884740863e-14
1.763896414104000722e-14
1.275463822541206745e-14
9.214105697620945528e-15
6.366264479445614011e-15
4.609296537581791079e-15
3.259058349177162117e-15
2.312808166780867438e-15
1.664744847932783513e-15
1.215634520506962416e-15
9.044902334762457300e-16
6.854641732369071549e-16
5.271487528040529509e-16
4.093782262654155569e-16
3.188148912582585893e-16
2.472034212194409868e-16
1.895823810420308062e-16
1.430348094819164147e-16
