# bin_6_18
2.707673489196091094e-07
2.914783653909442039e-07
3.050715666688259842e-07
3.084739317449585167e-07
2.982497261694367377e-07
2.723961202843153285e-07
2.352951368842375267e-07
1.939492159821447849e-07
1.595454223432410295e-07
1.367052542732153216e-07
1.156776208742470669e-07
8.555328390349906798e-08
6.124633798671676300e-08
4.933610906425468609e-08
3.375134969464617232e-08
2.558110209156541832e-08
1.809626324610241504e-08
1.303016894889168548e-08
9.505832855559705601e-09
7.013895499258313216e-09
5.261081489460193939e-09
4.014246312805593328e-09
3.114456548802300947e-09
2.443307368166081420e-09
1.925588326631360279e-09
1.514106234086427130e-09
1.179546322518342763e-09
9.049315973711825731e-10
6.802214161739486328e-10
4.990103545857529597e-10
3.564446575292434997e-10
