# bin_14_6
8.475282513312246086e-27
9.395731634525658749e-27
1.020002705835823584e-26
1.078512521338696885e-26
1.102952851033412417e-26
1.083750410444233127e-26
1.007297035988992429e-26
8.851311580230362903e-27
7.365783574983507543e-27
6.024735868478149307e-27
5.104736917227783325e-27
4.404653084314591573e-27
3.404081550519853599e-27
2.356900865199773485e-27
1.899729204058029152e-27
1.329378967533898495e-27
9.880802449798814008e-28
6.763982737041746915e-28
4.858356360339989733e-28
3.458273285380804976e-28
2.473988269158963850e-28
1.790849610515510395e-28
1.315479906930246247e-28
9.851940565837533693e-29
7.509096798572443806e-29
5.800385765258102344e-29
4.516415294001672133e-29
3.519493668993981647e-29
2.725552033684001088e-29
2.084268525781258464e-29
1.565993961353890274e-29
