# bin_6_4
7.837064896393008148e-11
8.330592338465404194e-11
8.580696641424569703e-11
8.514844846387004724e-11
8.018637971309477043e-11
7.134920897959229763e-11
6.004935119256700901e-11
4.910595023769325747e-11
4.109519394896069781e-11
3.551933632636150161e-11
2.854595456752310088e-11
2.000887566035302746e-11
1.551453793169810295e-11
1.165671099700789192e-11
8.301847929567981568e-12
5.999034696548470575e-12
4.407639924578810320e-12
3.202177107231107836e-12
2.355708901156921984e-12
1.765242410228559451e-12
1.346934160254571352e-12
1.045230376409268574e-12
8.215971392014423790e-13
6.498138596975538305e-13
5.135492532625841484e-13
4.027138305944018576e-13
3.113194162060984154e-13
2.359652702507628613e-13
1.746053358003980535e-13
1.257674495987975821e-13
8.812446827862232491e-14
