# bin_7_15
1.887489180631722320e-07
2.049815766383509481e-07
2.169183863024690676e-07
2.221465915865846453e-07
2.187134288854639688e-07
2.038966701845051205e-07
1.796878604630420840e-07
1.499847588576079666e-07
1.226924451985259119e-07
1.035875880951249385e-07
8.931920501766268484e-08
6.979380864935208154e-08
4.863393125012923806e-08
3.870596957387722552e-08
2.779210237716471754e-08
2.038760248961725972e-08
1.431482911863717288e-08
1.042076148766298784e-08
7.521693774873124422e-09
5.477767274445505428e-09
4.054179754877456086e-09
3.051458618118050970e-09
2.338470761498571440e-09
1.818182166958125158e-09
1.425804805868365914e-09
1.120401456735861415e-09
8.759618675657273974e-10
6.769160332715428234e-10
5.141494338638070379e-10
3.821175381919496215e-10
2.769611058786894116e-10
