# bin_7_11
1.210905195117713620e-07
1.314590150858193542e-07
1.390543404734737471e-07
1.423320431742961706e-07
1.400344558924919660e-07
1.304356857240222827e-07
1.148552367372317496e-07
9.580625398699981705e-08
7.837758538332933179e-08
6.621872056438641288e-08
5.707724222911296240e-08
4.449654629253670400e-08
3.100783137943002125e-08
2.472455124493998872e-08
1.769492058003363196e-08
1.301604077550559419e-08
9.129103747278856403e-09
6.643845543137814064e-09
4.798590142750334875e-09
3.496940659059308459e-09
2.589693430471465399e-09
1.950317473741510008e-09
1.495465985849276890e-09
1.163246139047901322e-09
9.124590560430863322e-10
7.170786354456840748e-10
5.605800630156826550e-10
4.330878438808938726e-10
3.288194987665710884e-10
2.442531820133472812e-10
1.769291963245130399e-10
