# bin_11_17
9.134033593965693333e-08
1.014967509032876398e-07
1.105018301534889192e-07
1.172596188915752301e-07
1.204414518336368113e-07
1.190341214334727052e-07
1.114441254996094058e-07
9.859843517563196089e-08
8.252705844073257085e-08
6.748117609487320614e-08
5.683185720204978310e-08
4.914968126832413029e-08
3.877303758902783092e-08
2.686906216843722691e-08
2.125448996092443814e-08
1.536645426310243515e-08
1.109701704551947994e-08
7.693767743638313247e-09
5.555318493025293043e-09
3.928728476856337914e-09
2.789334618657100635e-09
2.007592764012285039e-09
1.466102071610144546e-09
1.090903833916113448e-09
8.267519161635189852e-10
6.357867215974105662e-10
4.937020881326898793e-10
3.844342494383474095e-10
2.980363617492636614e-10
2.285281794730710809e-10
1.723888765293800656e-10
