# bin_11_1
8.049102675909254396e-46
8.731768483789070324e-46
9.227524619228302592e-46
9.433247470136165460e-46
9.266648325885369789e-46
8.612853863253569597e-46
7.568684863056250613e-46
6.300022946706237681e-46
5.152249755077626326e-46
4.361456971246959013e-46
3.760645906115464263e-46
2.913196514649935568e-46
2.023914806894730766e-46
1.628481691309053094e-46
1.151278426889301026e-46
8.567912592839581122e-47
5.958175670254555955e-47
4.337743676370787542e-47
3.140428178744749288e-47
2.293982873240802602e-47
1.701799920766613825e-47
1.283574564260470106e-47
9.857864647212576703e-48
7.677640148943938534e-48
6.027603926492954221e-48
4.738867644170191186e-48
3.704339302882471953e-48
2.860392616551702815e-48
2.169760327796255305e-48
1.609707611170763041e-48
1.164194365883582743e-48
