# bin_2_13
5.787376023521044918e-07
5.808868654858477411e-07
5.565321359055940360e-07
5.042291182198049831e-07
4.324337683013145787e-07
3.560979816421281076e-07
2.944836338411145930e-07
2.521993711597028640e-07
2.098046503848684440e-07
1.542626742165670993e-07
1.133079007532386257e-07
8.910330862682986420e-08
6.293407700653178968e-08
4.717395560270813159e-08
3.430042688982439619e-08
2.534682530685608401e-08
1.900829328066818332e-08
1.450116684710858160e-08
1.126784502300049538e-08
8.891305123351228939e-09
7.091154994243527078e-09
5.673861787914039920e-09
4.520905387428062410e-09
3.562256340740766184e-09
2.758263411436730045e-09
2.087920986233620880e-09
1.539541840146141067e-09
1.103938343644987151e-09
7.701796429052318856e-10
5.239452687648382517e-10
3.486630788354821915e-10
