# bin_12_3
1.466682411503820980e-35
1.605851260578308150e-35
1.716682169743445693e-35
1.780203358752713587e-35
1.780757722824323392e-35
1.694242705256968653e-35
1.521798442425090191e-35
1.292082796694720770e-35
1.057780418648696100e-35
8.788221000663445167e-36
7.602291332176815672e-36
6.251973847948072712e-36
4.417732477487683910e-36
3.322442846113932467e-36
2.580864559982277537e-36
1.770277271903664139e-36
1.302897316375044016e-36
9.397445931357601231e-37
6.683157221499713900e-37
4.804267939005378690e-37
3.503614531213381498e-37
2.600454896922859533e-37
1.964870975927435348e-37
1.510588313981912358e-37
1.175701369150601824e-37
9.209112070649668620e-38
7.209612216171256661e-38
5.601383921103992819e-38
4.292516118737710466e-38
3.228123348755956548e-38
2.372855654875346343e-38
