# bin_2_17
6.331985453998036224e-07
6.356604834750682959e-07
6.091540880090008150e-07
5.520408630301033052e-07
4.735492264567047068e-07
3.899913740478338246e-07
3.224712850313049127e-07
2.761428914472992942e-07
2.298138237237696842e-07
1.690577055641486584e-07
1.241099607266589029e-07
9.762893652062535966e-08
6.895518707911841055e-08
5.169007778284517733e-08
3.757736357552679255e-08
2.776753812483845459e-08
2.082137263134365478e-08
1.588220882161323341e-08
1.233937727126124910e-08
9.735788209387527795e-09
7.764124324548962813e-09
6.212174076929819938e-09
4.949927361140612079e-09
3.900543538271012925e-09
3.020494925432735916e-09
2.286712219150129224e-09
1.686365344693712477e-09
1.209400106282159039e-09
8.438756984274479301e-10
5.741516423873100355e-10
3.821133542159188487e-10
