# bin_10_15
9.070918281336064163e-08
1.003415706618902605e-07
1.086399625270246474e-07
1.144899666817471042e-07
1.166413131008717930e-07
1.139837163488824937e-07
1.052798480377555456e-07
9.195224499216287112e-08
7.622495604577986284e-08
6.244400652980162036e-08
5.316130241645763095e-08
4.562435830350032280e-08
3.465957897128058242e-08
2.418709577723534192e-08
1.959739119587801576e-08
1.345890732771141097e-08
1.012766050374210627e-08
6.975408488884887020e-09
4.971648217580698356e-09
3.552361253153211161e-09
2.552189997791642473e-09
1.855560882341236643e-09
1.369914835278579963e-09
1.031216942931192151e-09
7.893832588228207235e-10
6.116708215577269367e-10
4.770298268167503264e-10
3.717214266813592359e-10
2.874359049417731018e-10
2.192083878899417696e-10
1.640887979699415908e-10
