# bin_17_14
1.441130829918211643e-11
1.623828185764071135e-11
1.798144392879002324e-11
1.948691603442916878e-11
2.055430104952290013e-11
2.095561793015330688e-11
2.049587416277636836e-11
1.894163277407493856e-11
1.655302253497031117e-11
1.372087027157634108e-11
1.123824395038997107e-11
9.574105819204898541e-12
8.230953405524168731e-12
6.245810768271950857e-12
4.337013431158842997e-12
3.524933618427041178e-12
2.389692645184433166e-12
1.798816086877405999e-12
1.216753740618732409e-12
8.503257783931418835e-13
5.954074997515647598e-13
4.168689232139256157e-13
2.932608941992126045e-13
2.085742509342760849e-13
1.511972803183892969e-13
1.117654793463762771e-13
8.415534382275206453e-14
6.435782234499086477e-14
4.968015236991107846e-14
3.843358605383001724e-14
2.957817649451669291e-14
