# bin_10_19
1.338285435422505711e-07
1.480664064038726555e-07
1.603472345969007314e-07
1.690283468855571780e-07
1.722596036467770716e-07
1.684121222986816102e-07
1.556352265256799525e-07
1.360034712110020398e-07
1.127809015865998901e-07
9.237982074082605975e-08
7.861441468164216549e-08
6.749749179912825100e-08
5.135329067011673885e-08
3.581568380778266745e-08
2.900258365488788518e-08
1.995262878222835295e-08
1.499558457497851175e-08
1.032543926507631796e-08
7.363721825466294993e-09
5.259733366872770397e-09
3.777331409590020439e-09
2.745232747981671539e-09
2.025857736084780593e-09
1.524309511707772041e-09
1.166403548505827180e-09
9.035664451888684921e-10
7.045728517733840951e-10
5.490297696762357433e-10
4.245918064184979169e-10
3.238814184725935662e-10
2.425178491013128735e-10
