# bin_14_14
6.287982822002579223e-09
7.047860753793796807e-09
7.754933785940387338e-09
8.338456542543161068e-09
8.708801631461382860e-09
8.781046275068611778e-09
8.447606885020709738e-09
7.669313830619507986e-09
6.583222484319202382e-09
5.407928468298418721e-09
4.462643810465546785e-09
3.847321730717919939e-09
3.230711969407360443e-09
2.333502558785665862e-09
1.689826172786181750e-09
1.353925038706807676e-09
9.006386432168965563e-10
6.773120210598580544e-10
4.726372602538518336e-10
3.280728140881117120e-10
2.303633755498963941e-10
1.623278987178009545e-10
1.158396054005046020e-10
8.392868268641100594e-11
6.203896000137646129e-11
4.671055712372747673e-11
3.572470777228712050e-11
2.761385813725163919e-11
2.141961575255390230e-11
1.655242385663951591e-11
1.265790254633508327e-11
