# bin_15_14
5.418300144217319814e-06
6.092590292598068634e-06
6.729967545684898400e-06
7.271259678713134620e-06
7.640404701969769448e-06
7.756325441917609457e-06
7.538078468685387840e-06
6.916941025313503685e-06
6.002140266267569922e-06
4.954979008277534658e-06
4.067482532607368545e-06
3.483293512246173966e-06
2.972213535028114475e-06
2.210707906289920268e-06
1.553597629602242560e-06
1.265229428093982962e-06
8.428758147411874422e-07
6.398552609390076208e-07
4.376910759021911825e-07
3.036776144538681562e-07
2.132049478914583450e-07
1.497300581610565685e-07
1.059210283103966082e-07
7.588316130067248336e-08
5.544943132346024764e-08
4.130532875271705640e-08
3.131186482028272602e-08
2.406241152595457626e-08
1.862138403637913047e-08
1.440658620226865699e-08
1.106296544691158977e-08
