# bin_18_11
1.687147080898121756e-12
1.898812567383691229e-12
2.099718252727111146e-12
2.271613508866499965e-12
2.390912310428453060e-12
2.431712007203564856e-12
2.369891084624739511e-12
2.181337675947740918e-12
1.898684844842288276e-12
1.570101712847857441e-12
1.287500366349421219e-12
1.100152700255114594e-12
9.420458243478884713e-13
7.067981077080732395e-13
4.937947552928648687e-13
4.021770566238414868e-13
2.696188767607880004e-13
2.041689469272158018e-13
1.389405105462080059e-13
9.662838360544519905e-14
6.778469085441753475e-14
4.755334756528209267e-14
3.355827486908209487e-14
2.396515954917286986e-14
1.745165477189650466e-14
1.295729740066640269e-14
9.794384215301037646e-15
7.511522852506135078e-15
5.807146878424318455e-15
4.492954492185661163e-15
3.453621308033761887e-15
