# bin_8_6
1.251193614315009121e-06
1.359817014016778006e-06
1.440335053527950971e-06
1.476571218183729669e-06
1.455939142634918755e-06
1.359563183792486816e-06
1.200015094743643536e-06
1.002569401924394380e-06
8.197355545213111646e-07
6.912374511538385002e-07
5.969405159206414462e-07
4.684932919650597971e-07
3.255970861478680452e-07
2.589320825887007479e-07
1.867668552156297837e-07
1.365941719445318363e-07
9.567226079665447306e-08
6.984585540655919727e-08
5.036537578641858641e-08
3.663323518666264906e-08
2.708821274667630715e-08
2.036804718448996577e-08
1.559460602086022300e-08
1.211685531161005605e-08
9.498539942692159703e-09
7.463867872709178237e-09
5.837311488418872173e-09
4.513593205376654242e-09
3.431150007240468741e-09
2.552655186470218525e-09
1.852255433998197222e-09
