# bin_12_3
1.072469270347860159e-23
1.174909886298698901e-23
1.256904424728561222e-23
1.304629787426876385e-23
1.306422788062740974e-23
1.244894994495294436e-23
1.119912047374545321e-23
9.524166354998634785e-24
7.801204377047454254e-24
6.474566984381258622e-24
5.596983982043588093e-24
4.616860996757505729e-24
3.275210929441604621e-24
2.449335473179191654e-24
1.912117030584968308e-24
1.307416357709460107e-24
9.664978477470245098e-25
6.947256971782151398e-25
4.936252915318736572e-25
3.548263859636585482e-25
2.584956059008218013e-25
1.916185476692735217e-25
1.445901889740932161e-25
1.110331984203699588e-25
8.634353485349241693e-26
6.759700457181124738e-26
5.291396520569964074e-26
4.112095870742825047e-26
3.153052352294466992e-26
2.373226146473386279e-26
1.746358035729706274e-26
