# bin_12_11
5.459437232922480018e-06
6.080509099021339015e-06
6.638756214574285434e-06
7.069600788166973846e-06
7.292942302295859729e-06
7.248098495809806113e-06
6.833969241621458586e-06
6.086101700794853047e-06
5.123523918417628636e-06
4.189559383905097295e-06
3.508186854684011391e-06
3.038601248517003803e-06
2.442906179403227505e-06
1.698289989065504984e-06
1.317277421422831451e-06
9.816113190938202612e-07
6.899605485161744614e-07
4.863461945354749280e-07
3.514628959269802230e-07
2.471250918320420492e-07
1.743417790394520478e-07
1.247685744677863465e-07
9.060095153662202654e-08
6.698539152989059297e-08
5.047575562516872673e-08
3.863979119872743906e-08
2.991733652993303151e-08
2.327359894325053131e-08
1.805938947114249063e-08
1.388270459194538282e-08
1.051252518104220365e-08
