# bin_19_4
4.308892376162089749e-42
4.828686073818563653e-42
5.311885101001347433e-42
5.709933216448730803e-42
5.961353399718479999e-42
6.008315584205307761e-42
5.776655775411251054e-42
5.241246148741368286e-42
4.496179154767301539e-42
3.692623159285981790e-42
3.048297927620282839e-42
2.628833521458384750e-42
2.205088432500011842e-42
1.590181506616251043e-42
1.153968076722953375e-42
9.229868272917800254e-43
6.145372333043528843e-43
4.614982121342636673e-43
3.224284251055245770e-43
2.238816281664715652e-43
1.571993779621187547e-43
1.108094510592818585e-43
7.911876931781496869e-44
5.736231212331376167e-44
4.242972602669688587e-44
3.196557595247271816e-44
2.445936628605425312e-44
1.891173620517771264e-44
1.467084522625835458e-44
1.133597059307922506e-44
8.666438058460792045e-45
