# bin_9_4
1.133419956030816854e-11
1.228309610976673375e-11
1.296424635480145562e-11
1.323454219267999030e-11
1.297414069323651803e-11
1.203072900540504551e-11
1.054865613564119289e-11
8.768174063020874693e-12
7.175032993184916375e-12
6.084476621047731852e-12
5.235812456686793052e-12
4.030784327378558648e-12
2.808863679285948607e-12
2.264027980721135777e-12
1.590068737558606622e-12
1.188586858457375176e-12
8.284941830362015436e-13
6.014936888992993995e-13
4.360526339077530168e-13
3.190141865347688954e-13
2.369988690430496873e-13
1.790282309791959251e-13
1.376861538475871912e-13
1.073449320522340986e-13
8.432386293724802657e-14
6.630064022900477195e-14
5.180629075032106897e-14
3.997107989879755854e-14
3.028494577112679231e-14
2.243524120190764737e-14
1.619959780526830302e-14
