# bin_17_12
2.843908933722612139e-09
3.199360141359110485e-09
3.536098679371148898e-09
3.823222880809740301e-09
4.020898539618285255e-09
4.085972164097975395e-09
3.976945247407630579e-09
3.655271105340729543e-09
3.177080517500585885e-09
2.625154781753350313e-09
2.153692270053582086e-09
1.842209086403672713e-09
1.574940412198855871e-09
1.176885711255470305e-09
8.243806626485532680e-10
6.714974959560430633e-10
4.487654115271558573e-10
3.402833581154042322e-10
2.321135069497878383e-10
1.612315906924336101e-10
1.131525750936012750e-10
7.942293851280113251e-11
5.611190545332612592e-11
4.013081615368282361e-11
2.927068458878068487e-11
2.176613433837763010e-11
1.647507215789043509e-11
1.264719637383450171e-11
9.782260090193100157e-12
7.568397865279722596e-12
5.814984757641218882e-12
