# bin_13_2
1.460849518867589083e-32
1.604230562973160615e-32
1.721311410574138845e-32
1.793493885787321112e-32
1.803842338012487978e-32
1.729642402441143131e-32
1.565465051610646568e-32
1.339647226387037173e-32
1.099309335388468629e-32
9.085148989321688791e-33
7.836397528662571857e-33
6.544520101983185942e-33
4.706368515042900991e-33
3.446053408509505399e-33
2.743159779502763515e-33
1.851248277748525055e-33
1.391585171398293929e-33
9.887316502087565309e-34
7.001579410740553581e-34
5.028584602773632870e-34
3.648946282554470825e-34
2.692280019126160024e-34
2.021356066888299868e-34
1.545604567795425475e-34
1.198096416723696996e-34
9.362443383600661321e-35
7.326491289157644621e-35
5.699948618868381179e-35
4.380893686165704707e-35
3.308573512798137581e-35
2.445011830024471357e-35
