# bin_10_7
1.261528469353840707e-07
1.385541242214086793e-07
1.486922189358719223e-07
1.549621915035356095e-07
1.558955045637254230e-07
1.495402899799483685e-07
1.354008485543801130e-07
1.159183046687585420e-07
9.514038218863867065e-08
7.861159718344075742e-08
6.778815873489290739e-08
5.664873904972219000e-08
4.078632355873752715e-08
2.982544901109659309e-08
2.376003283252883412e-08
1.603265598740368195e-08
1.205761730799586192e-08
8.560320585426702036e-09
6.061310836197975620e-09
4.353301961542521748e-09
3.158463504082965725e-09
2.329684721624874406e-09
1.748510024623584019e-09
1.336565670206203111e-09
1.035808760350277717e-09
8.093004652108370580e-10
6.332763887067417375e-10
4.927053798070340071e-10
3.787353492482750030e-10
2.860896297381143569e-10
2.114745017236758141e-10
