# bin_17_1
5.275962971104461354e-55
5.871672131648180923e-55
6.404735502552521371e-55
6.812425166363054479e-55
7.017371288697050643e-55
6.961445144584321639e-55
6.548142602600938238e-55
5.818670406590263421e-55
4.888400360655203467e-55
3.996744234976226804e-55
3.353191765557673686e-55
2.903646524959454763e-55
2.319938537614345209e-55
1.609555680217570773e-55
1.257744630135555099e-55
9.277139760797597016e-56
6.581429750643276172e-56
4.605527588316232387e-56
3.332155634057336765e-56
2.347351903281390778e-56
1.659123217428707393e-56
1.189758305194688644e-56
8.656292793386012802e-57
6.414171298326180185e-57
4.842995789179092735e-57
3.713413560914419402e-57
2.878258907743713108e-57
2.240004536586424704e-57
1.737747550329018199e-57
1.334774095125717548e-57
1.009469128292095234e-57
