# bin_11_5
2.100755368851909146e-13
2.303008028885813880e-13
2.465851277919797079e-13
2.562302168657199602e-13
2.569095042947642778e-13
2.452504293883959391e-13
2.210106262391243494e-13
1.882891090813328983e-13
1.542995249674982868e-13
1.278984825720163946e-13
1.105037718416546123e-13
9.149047289185106379e-14
6.514299250707321860e-14
4.841948275164929077e-14
3.802528116969893821e-14
2.588875642960107195e-14
1.923779203315124391e-14
1.378302456897282781e-14
9.783017598988833160e-15
7.029899326400249630e-15
5.115158294490368627e-15
3.786696885716667066e-15
2.853279204606219012e-15
2.188448812156380581e-15
1.700315667404718597e-15
1.330489067053067128e-15
1.041423584053938852e-15
8.095956905810554857e-16
6.212080560237134209e-16
4.680285228743165746e-16
3.448259304449829446e-16
