# bin_17_3
3.532517552610650401e-41
3.936453578027973180e-41
4.300634755124998092e-41
4.583430892021092955e-41
4.733042844625493166e-41
4.709828003825998227e-41
4.448042096643644678e-41
3.967374202727369993e-41
3.344772189117811986e-41
2.735470787293794859e-41
2.287541499100988986e-41
1.981464725397593657e-41
1.599687411862718655e-41
1.114118170732274731e-41
8.595292702112365183e-42
6.449777805942407430e-42
4.505401338341367502e-42
3.193437291258040002e-42
2.304332377279293371e-42
1.618234341291472140e-42
1.140395161490325141e-42
8.149779394209900770e-43
5.909946589420305506e-43
4.362747858621030351e-43
3.282846434757221030e-43
2.510152747455213058e-43
1.941997938280739726e-43
1.510259270048851700e-43
1.172060208943738645e-43
9.014786912406067258e-44
6.832241031983697819e-44
