# bin_7_4
5.365970995200427327e-08
5.753708069305857019e-08
5.992030771653682642e-08
6.024483471332126703e-08
5.776605453539242640e-08
5.230188467230884064e-08
4.478187067150959722e-08
3.676771852909501927e-08
3.037699902350367964e-08
2.615817054935254818e-08
2.184693695430123589e-08
1.580033075276260582e-08
1.156926196420468713e-08
9.211747644595069359e-09
6.290403888942962719e-09
4.745070501534131958e-09
3.401124405881494548e-09
2.446607321155648808e-09
1.788990316755807792e-09
1.325927794573104898e-09
1.000223150546464936e-09
7.676334528442832102e-10
5.984191143113284800e-10
4.709726733004180544e-10
3.717189412816507200e-10
2.921740044174948528e-10
2.271366475716971305e-10
1.736281129874782323e-10
1.298772229346488553e-10
9.471765548218190028e-11
6.722557855418224332e-11
