# bin_14_2
2.459689909474450621e-36
2.711880509828553248e-36
2.924178815562277126e-36
3.065886692349993679e-36
3.105367132655033950e-36
3.008709922489012169e-36
2.752344329702775716e-36
2.381140699535376364e-36
1.962848232007759287e-36
1.612869674806005774e-36
1.382795972513720416e-36
1.174934016060844088e-36
8.688075731773441705e-37
6.163008535714653378e-37
5.006112551985942117e-37
3.362752620862228031e-37
2.561912074563593287e-37
1.785066694068219160e-37
1.261995804536146039e-37
9.055300290788431247e-38
6.540334318895998212e-38
4.787801036428581075e-38
3.562704977586566193e-38
2.702551483861704668e-38
2.081922141905654625e-38
1.620448680247930472e-38
1.266422349751153858e-38
9.865380922250673941e-39
7.609508835956070111e-39
5.778322576750218706e-39
4.300288685866361438e-39
