# bin_19_14
6.882891805089070474e-09
7.779902432478953441e-09
8.647651250417748956e-09
9.415253160520704141e-09
9.988474960711358484e-09
1.025310987355095569e-08
1.012366362797378635e-08
9.463571319938282309e-09
8.360016210605172075e-09
6.986270617967865782e-09
5.712820374349837530e-09
4.821448771276041314e-09
4.171745690839476056e-09
3.270866839851656617e-09
2.256797610778719622e-09
1.797168879587712383e-09
1.279086842300600381e-09
9.270547006182707390e-10
6.283841140923492764e-10
4.477265716688285481e-10
3.103707586701020336e-10
2.146748992260210127e-10
1.496632574690250458e-10
1.052867951794346781e-10
7.531786900694844222e-11
5.493830631612952543e-11
4.086028092995873591e-11
3.094619095397713646e-11
2.374538271027833857e-11
1.833595262537266460e-11
1.414158305818713821e-11
