# bin_13_1
6.146360032076719342e-39
6.739756372308571971e-39
7.218512759132664248e-39
7.503780198789442696e-39
7.527051664888699009e-39
7.190027200963517033e-39
6.483371657535472317e-39
5.526966738352351147e-39
4.530039586854285523e-39
3.753274617951534349e-39
3.242153727972976815e-39
2.687759490900315770e-39
1.916318197062689281e-39
1.421265276143113756e-39
1.118479520621674726e-39
7.603872793248542680e-40
5.660605078549102258e-40
4.050782748336353136e-40
2.874139133626810961e-40
2.065111336655337005e-40
1.502009155766065154e-40
1.111392635979422246e-40
8.370118930731438148e-41
6.417076312354305730e-41
4.984164109002742810e-41
3.899378462948130083e-41
3.052108469327974970e-41
2.372965781295471417e-41
1.821233561421527863e-41
1.372622429626766677e-41
1.011734736783746590e-41
