# bin_9_5
2.073626180881131758e-09
2.255299014405915693e-09
2.391021191643057396e-09
2.453900932606779238e-09
2.423166862807544977e-09
2.266917998172263009e-09
2.004347611853746406e-09
1.677013807594473576e-09
1.371115797854262494e-09
1.154467845517574831e-09
9.975242045409332691e-10
7.867724153704353300e-10
5.470339126386710686e-10
4.329830451409629571e-10
3.146461093680218988e-10
2.286217471714332223e-10
1.606852940953303172e-10
1.173380007320006499e-10
8.449086772744090632e-11
6.136234031149551538e-11
4.531396937184667549e-11
3.402980433148404943e-11
2.602221001632067460e-11
2.019944968767539435e-11
1.582473295552496251e-11
1.243207186676701868e-11
9.724494158227376943e-12
7.523230762181490712e-12
5.723791783820658641e-12
4.262961456344632284e-12
3.097272879283080458e-12
