# bin_20_2
7.859591603559130364e-59
8.819409008419846522e-59
9.717666236583137499e-59
1.046681226474919017e-58
1.095544097123003040e-58
1.107337035851338024e-58
1.069159806519468271e-58
9.742732528202622238e-59
8.394959474521788306e-59
6.907041855090000545e-59
5.687940236332397175e-59
4.893171780808846199e-59
4.134420060935677297e-59
3.016295463270645009e-59
2.158731332385733983e-59
1.743810466428571950e-59
1.156996243061662445e-59
8.753753506304355095e-60
6.064901739200915130e-60
4.204994853272727705e-60
2.953043780929933521e-60
2.077800383844196317e-60
1.478124926083010940e-60
1.066717266197850984e-60
7.853958553836200304e-61
5.892143578575401494e-61
4.493215941685568930e-61
3.466710438303399018e-61
2.687380436975352082e-61
2.077876757974528581e-61
1.591471859442909206e-61
